,Comment Number (ID),Nickname,User @,Comment Text,Time,Likes
1,Lys,sonflour8,,"POV: you did realise the $170,000 phone didn’t have a back camera at the start 😅",7-5-2022,
2,Follow for a Follow,dabs.taurus,,U literally just stuck a phone on a bar of gold,17-8-2021,
3,javk,javkgowr,,@hollieferrara maybe mines worth that much too,8-8-2021,
4,duck,xx._.ducky._.xx,,@umika745 @priya.knight @zara8233 how can he afford all this stuff,21-7-2021,
5,Kaitlan,kaitlanjones_,,I personally don’t see any difference in the prices,1-8-2021,
6,tom boy,logical97,,at least hacker can't get access to the camera 😂😂😂,27-7-2021,
7,Spenny_minecraft,spenny_minecraft,,ITS THE HAT GUY. jk but I've been watching you on YouTube for ages,12-8-2021,
8,Maria,sagittariuscats,,@socksinapuddle THE QUALITY OMG,10-8-2021,
9,Talat Talat,nabz621,,bro the gold one was a phone,28-7-2021,
10,🌸 L i a 🌸,xxxxlia_xxxx,,YOU'RE FINALLY ON TIK TOK?!,10-8-2021,
11,eesh,real.eehs,,U HAVE TIKTOK,27-7-2021,
12,𝚁𝚊𝚑𝚎𝚎𝚖💸💯,rxheem.1,,@s3h4r_ahmed lmfaoo,10-8-2021,
13,Jakub Pirhala7,jakubpir,,"Finnaly, boss on tik tok 😼",21-7-2021,
14,her_itage.x,her._itage.x,,subscribe😂😪,26-7-2021,
15,Hi,notlollypops54,,hi,11-8-2021,
16,Austin,justmeaustin_,,I love your vids,7-4-2022,
17,f9igfv,f9igf19,,u did not take dose pictures🤨,21-7-2021,
18,🤐,elliehandford,,@fck_its_finlay omfg,27-7-2021,
19,🦢🖤,liatzeyy,,i watch ur videos everyday they are lit.....and in youtube tooo😍😻,28-7-2021,
20,gんO丂ｲ,5a.f_,,if i have 170k and i want take a picture i will buy a camera 😂,19-7-2021,
21,Sienna💚🙂,x.sienna.x.26,,@riyabxnsal OK so Hollis mom will be driving us and its on Monday after school we will ask our parents to come get us from there,18-7-2021,
22,raswagga,raswagga,,Hallo Simba,4-8-2021,
23,jeff,tired.asf69,,99%gold 1%phone,1-9-2021,
24,Seagull_Fan,seagull_fan,,"""Oh yeah, it doesn't have a camera"" 😂😂",21-7-2021,
25,blackmale446,torqee_,,POV you saw my username 🤐,27-6-2021,
26,Zona Anti Raul,anti_raul,,Zona libre de Raúl 😈,24-7-2021,
27,Verified From Comments,commentstoverified,,On my way to verification🤯📦,29-6-2021,
28,Raúl 👍,raul1633,,El comentario en Español que buscabas,25-7-2021,
29,:D,_..gachacupcake.._,,I just scrolled down your whole account,19-9-2021,
30,ItsNotBm,itsnotbm,,Because the phone is supposed to be in the photo... not taking it 😅,9-8-2021,
31,Ahmed Quadri,adrhyqadeer,,cause when you are extreme rich you don't care about all that all you just need is peace of mind and happiness not been on social media to be known 😌,17-7-2021,
32,Tik Toker,fuck.tyroneeee,,haha I watch your videos on yt bro nice,20-8-2021,
33,ضيفني اضيفك,gl_w,,فلة الاغنياء:@6akato @x__________56,27-6-2021,
34,historybal,egy_meg_egy,,csak az aranyból több ezer telefont lehet venni😁,17-7-2021,
35,alexgiacoya83,alex33gg,,"El comentario en español que buscabas =)
pd Raúl es un impostor",9-8-2021,
36,Hailey Sarver spam,hailey_sarverr,,That literally must be so heavy and he is just holding it like it doesn’t,2-7-2021,
37,Romania,romania,,😳,10-8-2021,
38,fck_me,clown.emote,,@yodeueue1337 bydgoszczańska myśl techniczna,18-7-2021,
39,dafovfilipye,dafovfilipye,,escobar hahahha,15-7-2021,
40,ㅤㅤㅤㅤㅤㅤㅤㅤㅤㅤㅤㅤㅤㅤㅤㅤㅤㅤㅤㅤㅤㅤㅤㅤㅤㅤㅤㅤㅤㅤ,lime_terracotta,,i’m lime terracotta lol,7-8-2021,
41,🤴kÄrLeK ReSpEkT & sKoJ🤴,joelking89,,Bror ge mig den utan kamera,19-7-2021,
42,Markangel256 int,dannytremixofficial,,I really like your content right from YouTube,16-3-2022,
43,bad____girl😏😏😏😏,bad____girl....0,,.adiga* ifiirinaaya *earphone* keyga ma aragtay*👀😫😫😂😂😂,30-7-2021,
44,MOHAMMED,legendi9,,170الف دولار عشان مصنوع من الذهب مش لازم تتصور فيه هذا تحتفظ فيه خد جوال تاني واتصور,29-7-2021,
45,Tu peo 💅🏻,zingard,,He be saying the iPhone 12 Pro Max like it’s a iPhone 1 😭,25-7-2021,
46,Norwegianmidget,tobeknown2008,,Like why even have the camera app,20-7-2021,
47,AYMAN RASHED,muslim_man_2002,,عندما الأغنياء يكسدون😂,19-7-2021,
48,ss,gg_95.0,,That’s a Perfume 😑,15-7-2021,
49,QuandaleDingleTheTwelfth Gone,foodanddrinklover690,,oh,vor 22 Std.,
50,bosompemfrancis,bosompemfrancis,,"Arun:whosetheboss
me:answer..mrwhosetheboss is the boss",19-6-2022,
51,tap on unique,taponuniquechannel,,nice one,8-6-2022,
52,He/Him,moonlight_minecraft1.8,,Wasted Of Money LOL,7-6-2022,
53,Ben Dinkha,bendinkha,,front camera😂,2-6-2022,
54,Hi,heston_15,,Amazing camera 📸,1-6-2022,
55,Hi,heston_15,,Yo,1-6-2022,
56,AbderahmaneIsBroke,abderisbroke,,iphone in 2070,31-5-2022,
57,Sidd,toxic_dev_2008,,Introverts be like:its not fantastic its fantabulous,14-5-2022,
58,Meat CANYOU,scp.editor5,,Its 8milion must in philippines,12-5-2022,
59,yung_bassy,yung_bassy,,@mrwhosetheboss really on TikTok 😳😳🥺🥺🥺😌🥰,8-5-2022,
60,Crystal Morrison,crystalmorrison22,,so why they have a camera app???,7-5-2022,
61,Matthew11,matthew2010joy,,L la lulll,3-5-2022,
62,k-pop stan 😇,tijana_1212,,"Well this is just not happening like why.
Is soo much expensive but don't have camera??",2-5-2022,
63,k-pop stan 😇,tijana_1212,,Hiij I follow you on YouTube you are finally in my fyp and TikTok!!!,2-5-2022,
64,HAMZA,idirhamza,,pixel 6 pro pls,1-5-2022,
65,Adelina.slm,adelina.slm123,,1st,21-4-2022,
66,Mr boom,ezlast3,,OMG 😱 THAT NO CAMRA PHONE LOOKS GOOD THO (joke),12-4-2022,
67,Mohammad Ehsan699,mkehsan724,,by he way I subscribed your you tube chanel like 3 months now,3-4-2022,
68,Mohammad Ehsan699,mkehsan724,,you must be rich,3-4-2022,
69,Tom s,tom112364,,why does it have camera software then 😂😂,29-3-2022,
70,Isaac Gerlitz,isaac_g__,,it's the gold not the hardware,28-3-2022,
71,Ice Ace,jackykam,,170k no camera📷,17-3-2022,
72,Terenia,terenia7,,Why would anyone pay that much for a phone,12-3-2022,
73,Ok,purplesloth.15,,I sub to your YouTube 😁,11-3-2022,
74,VEEXEENZ,veexeenz,,what happens if you download the camera app on the gold phone maybe it has a hidden camera,10-3-2022,
75,T.M_TABS,t.m_tabs,,who didn't realize,9-3-2022,
76,🦋Debra Todd🦋,xxnortheastgirl32xx,,send it my way 😂,5-3-2022,
77,Aryaan Hussain358,aryaanhussain358,,iPhone still lost😂,18-2-2022,
78,Toca ♡︎,txcazluvs,,Thats the price of my house-,8-2-2022,
79,Mike,gamerboi6152,,That’s a good camera. Lol,26-1-2022,
80,MrJorge6000,mrjorge6000,,XD you didn’t even realize,21-1-2022,
81,yosefwake,yosef_wakerzz2,,don't buy it! it's not worth it!,17-1-2022,
82,blind,cat_bre4stf33d,,and people say iphones are a waste of money,15-1-2022,
83,Cool,georgiepig12,,Bruh 😂,10-1-2022,
84,squloser,peepeeman123hbiuvc,,oh ok,5-1-2022,
85,minecraftmansmilla,minecraftmansmilla,,hur kan du ha råd,21-12-2021,
86,gold block,goldblocklol,,worth it,1-12-2021,
87,Abdullah 🙂,malikab1035,,it's just the case,22-11-2021,
88,Russ,russelalonzo8,,"the 170,000 phone i looks like a gold bar when i saw it at first",15-11-2021,
89,Synvak,synvak,,It actually does have a camera its just that the gold bar is covering it,7-11-2021,
90,Mrolini,mrolini,,Saw this video for a while ago and came back to you on YouTube to then follow you on tictok and seeing this video half a year after. 😅,29-10-2021,
91,No name,chocola219,,omg is that a real gold?😍😍,14-10-2021,
92,Nathan,tech_tips_2022,,Bro I just posted you’re vid on that,5-10-2021,
93,Nathan,tech_tips_2022,,Omg,5-10-2021,
94,I follow back I promise,ihatethis568,,I even watched all of your videos 😎,17-9-2021,
95,I follow back I promise,ihatethis568,,I scroll down all the way to your first video 😎,17-9-2021,
96,nxpuia,nxpuia,,Nice casing.,1-9-2021,
97,im following to fast👁👄👁,idk_what_to_put_likebruh,,WHAT THE POINT ON HAVING THE CAMERA APP ON THE EXPENSIVE PHONE👁👄👁,1-9-2021,
98,sugomadek,blackballedbanan1,,I'm coming,22-8-2021,
99,BorisStancev,borisstancev,,im a big fan on youtube im so happy hes on tiktok,21-8-2021,
100,who is joe?,bruhly_1_,,"the whole point is, I can't afford both of them, f4k",21-8-2021,
101,King_ian29,king_ian29,,imagine just flexing😶😶,19-8-2021,
102,.,draklation,,what a calm person😂😂😂,19-8-2021,
103,*°• Wssup •°*,trxpicalroblox3,,im not gonna waste my money for that instead I can buy house and cars for that money 😁,19-8-2021,
104,migung28,migung28,,Yo how can you be that smart man like you say sub but this is TIKTOK man it’s not YouTube it’s just YouTube that we can subscribe,19-8-2021,
105,SlophFelix,lilshaqfelix,,Guys me and my friend have a challenge who can get the most notifications help me pls,19-8-2021,
106,EMAIL ADDRESS 🙆🏻‍♀️,eimo7gx,,nice think 🥺,19-8-2021,
107,leave if your gonna hate,mrjellyman69,,who is this,19-8-2021,
108,Rayan,rbrashy,,its for celebrities who want extra protection,19-8-2021,
109,anashe,nashe252,,kkkkk,18-8-2021,
110,فِراسْ,fiiras_beats,,😂😂😂😂😂😂😂,18-8-2021,
111,Abdullah Shams Hasan,abdullahshamshasan,,YES HES ON TIKTOK NOWWWWW,18-8-2021,
112,Dixhy_Editz.,dnixhy_editz,,really😐 thats a gold man😐,18-8-2021,
113,Pickle 🥒,pickle.ok,,yayyyy real account😁,17-8-2021,
114,your a walking L,xsteel430slowx,,na the camera just went to the fourth dimension😂,17-8-2021,
115,Oussama Basraoui,oussamabasraoui,,that phone is for kings and important people because you can not hack it,17-8-2021,
116,sussyb0a,sussyb0a,,[shout],17-8-2021,
117,Lenon Henderson,heymclem,,hello😁,16-8-2021,
118,only memes,memes._.only._,,that phone have cammera on side,16-8-2021,
119,damon.,_joni_pubg,,you can buy 5 i phone max,16-8-2021,
120,jo_mal3,jo_mal3,,how much is my Samsung galaxy s 6 worth,15-8-2021,
121,jo_mal3,jo_mal3,,I watch Ur YouTube,15-8-2021,
122,fat battiman,connaghb,,I wanted to see it,15-8-2021,
123,borkovec123,_boro_3,,I like your golden mask for phone,15-8-2021,
124,𝑮𝒂𝒂𝒓𝒂,ifaadhh,,than why are u telling,15-8-2021,
125,MrNoBodyzzzz,mrnobodyzzzz,,🤣🤣🤣Best Videos Ever🤣🤣🤣,14-8-2021,
126,KIDZ BOP SH E I T,adibjepun,,The fact that The phone cost more than a sports. car,14-8-2021,
127,Zarins.Shop,zarinsshop1,,I DARE you to reply to this saying “tech is good”,14-8-2021,
128,user4683330810984,adaam_839,,damn you funny bro,13-8-2021,
129,hi hope you have a great day,kye_claps_fn0,,bruh it reminds me of the Escobar phone😅,13-8-2021,
130,BABA PRO,babapro.lol2,,you on tiktok? i watch your videos every single day,13-8-2021,
131,David,d4vidbr0,,Love him. My fav in 2021😁,13-8-2021,
132,SunnyAintFunny,sunnyaintfunnyxx,,😏😏Lemme Hold Your Golden Phone😏😏😏,12-8-2021,
133,⚠️⚠️⚠️⚠️,a.h.j13,,@😂,11-8-2021,
134,skyoan,12ftj,,"""You've reached the end"" 🤓",11-8-2021,
135,Hugo Persson,juno17163,,well it is a phone..,11-8-2021,
136,daisy,ducko._,,WAIT- HOW 700K BUT VERIFIED-?,11-8-2021,
137,Got banned at 12k,joey_thechestnut12,,This can’t be real omg he’s here,11-8-2021,
138,munachi131,munachi131,,our boss has come to TikTok,11-8-2021,
139,Kingslo10,kingslo10,,well you can sell it and buy a camera with a car,11-8-2021,
140,Ninja Run,ninjarun2345,,Wow that's gold not a phone,11-8-2021,
141,La Sam137,lasam99,,they sell these for rich people who care about privacy or whatever and what's the best way to achieve that? exactly...,11-8-2021,
142,Siddiqjon Khamidov,siddiqjonkhamidov96,,not only are your videos so interesting but also your pronouncation si excellent.,11-8-2021,
143,Lilc,lilcofficial3.0,,how dose he get All these phones 📱I'll love to know,11-8-2021,
144,Shh,slightlyburntblackli,,😭 I really had hope as well 💀,10-8-2021,
145,shaquan ashton,shaquanashton,,That isnt a phone its a calculator,10-8-2021,
146,mika7days,mika7days,,he is an iPhone enemy,10-8-2021,
147,...,kyo_amirr,,why would u buy it can you make a video about what it has?,10-8-2021,
148,something_69,something___69,,that is a phone case,10-8-2021,
149,Therevengrz,therevengrz,,Wowh he’s in TikTok,10-8-2021,
150,𝔻𝕒𝕟𝕚𝕖𝕝𝔻,dxnners.onmarss,,It’s gold,10-8-2021,
151,tboss414,tboss414,,It’s not a phone it’s just a gold bar,10-8-2021,
152,-Walker+,walkercodmobile,,😂😂😂😂,10-8-2021,
153,MotivacionalR92,motivacionalr92,,Vertu 😂 ?,10-8-2021,
154,hello and welcome to my page,221kr,,6000 comments,10-8-2021,
155,Tik Toker,everfreeze,,.,10-8-2021,
156,JJLS,monsterlottery666999,,nope this is cap bc that's actually a Samsung it just has a case and u went on a camera app so this is cap,10-8-2021,
157,Mysteryriri,mysteryriri,,Lmao 😂😂,10-8-2021,
158,DCIE,jaayempii,,a phones main purpose is to call next is to text so im not bothered about the camera,10-8-2021,
159,Fleur👽⚡️,fleurbroertjess,,yeaa i have that iphone hehehe i love the camera quality,10-8-2021,
160,CertifiedJono,certifiedjono,,"kodak black once said - ""its a million dollar phone but I ain't got no ring tone""",10-8-2021,
161,Departement Belastingsdienst,dprtmt_belastingsdienst,,imagine paying for that,10-8-2021,
162,urhdhsjrjrjrjjf,urhdhsjrjrjrjjf,,bruh bro u could've donated that money to charity and not buy a phone which cant even take photos,10-8-2021,
163,the best !!!,subway.surfer.score,,𝗵𝗲𝘆! • 𝗶𝗺 𝗴𝗼𝗶𝗻𝗴 𝘁𝗼 𝘀𝗹𝗲𝗲𝗽 𝗻𝗼𝘄! • 𝗶 𝗿𝗲𝗮𝗹𝗹𝘆 𝘄𝗮𝗻𝗻𝗮 𝘄𝗮𝗸𝗲 𝘂𝗽 𝘁𝗼 𝟵𝟵+ in my video 𝗰𝗮𝗻 𝘆𝗼𝘂 𝗵𝗲𝗹𝗽 me?.. pin,10-8-2021,
164,🍱Kei,straykidsmala,,I can't believe I just discovered Arun is on tiktok 😂,9-8-2021,
165,Ant1122,ant1122112,,That is not 170 at least 30 k,9-8-2021,
166,TB,tyebee93,,Woah why didn’t I know Arun was on TikTok?!,9-8-2021,
167,Любитель мемов,tynotankist,,еврею понравилось это видео,9-8-2021,
168,Clown Feet,clownfeet,,It’s all cool but who would wear a bow tie suit with shirt out 🙄🤣,9-8-2021,
169,Calogero,calogeropaouli,,Its just a gold ingot,9-8-2021,
170,Official Chrixyxv's Account,chrixyxv,,come 💀,9-8-2021,
171,kirapatatochips,kira_patato_chip,,I follow you on yt,9-8-2021,
172,Fakt_Frajer,fakt_frajer,,Je to jenom Samsung s obalem,9-8-2021,
173,K💋,user275028164,,YESSS,9-8-2021,
174,UDOBEGAYTHO,udobegaytho,,wait so you spent that much on it,9-8-2021,
175,Lina weber,linaweber1,,k,9-8-2021,
176,Tom Tom Uchiha,tomtomchopper,,hahahaha,9-8-2021,
177,Mark._.Gz,mark._.gz,,I remember watching him from like 5 years ago,9-8-2021,
178,Mees,__.mees.__,,I LIKED THIS PIECE OF CONTENT!,9-8-2021,
179,devin admiraal,cheeasy_yt,,bro my phone is 100 bucs and almost better camera then iPhone 12,9-8-2021,
180,E,t34_85_battle_tank,,Wait what... Didnt realize this was tiktok,9-8-2021,
181,Toe,bigslimytoez,,your mum,9-8-2021,
182,pureane,pureane,,Can that phone take screenshots,9-8-2021,
183,『RED』٭ŽONE,.redz0ne,,that's fantastic 😂😂,9-8-2021,
184,famous comment era (flopping),excuse._.me._.what,,Proof that more expensive doesnt always mean better!,9-8-2021,
185,mark_disel,mark_disel,,lol,8-8-2021,
186,⠀ ⠀ ⠀ ⠀ ⠀ ⠀黑球費薩爾,mrjaygamer19,,but can you take a selfie?,8-8-2021,
187,Melody🌸Kuromi🖤,xmelodyzx,,🥰,8-8-2021,
188,☆,cryurselftusleep,,"I just got a new phone for my 14th birthday and it has a ""48MP AI super camera"" (amazing quality) and the phone only cost €150-300 (depends)",8-8-2021,
189,lazarnedeljkovic,lazar.nedeljkovic,,"Get waves bro, trust 💯🔥😩",8-8-2021,
190,Medina Pablo,medinapablo,,"if you put a 200.000$ diamond in a iPhone 3G, doesn't mean that the iphone gonna be better, there's just a diamond on it...",8-8-2021,
191,Kapriel Klurjidze,kaprielklurjidze41,,who asker,8-8-2021,
192,skovholm,madssholm,,thats legit just a android with a plastic cover😐,8-8-2021,
193,Agent Skadoodle🏀,agentskadoodle,,My iPhone 7 is better,8-8-2021,
194,Karl Schwarz,jarlkarlschwarz,,"Cuz it’s just a phone, ye?",8-8-2021,
195,Ender frog,enderfrogofficial,,Wait you’re on tik tok,8-8-2021,
196,george_mw,george_mw,,I mean there both the same price,8-8-2021,
197,user3073401336892,x67xxxv,,You could of bought a car,8-8-2021,
198,peepee nuggets😐,mr.beanclap,,him: *no flex*,8-8-2021,
199,BURN,maxnimations,,unbelievable WHAT IS THE ESSENCE,8-8-2021,
200,Kiz Kiz,kizzywizzy_inchrist,,We love you ARUN 💕💕💕💕💕💕💕💕💕💕💕💕,8-8-2021,
201,Broonie,broonie2013,,his name's wrong too 🤣,8-8-2021,
202,❤️🏀❤️,callme_sab4,,@amsterdam053 😅😅😅,8-8-2021,
203,Rehxn,rehxnszn,,I always watch ur vids on yt,8-8-2021,
204,👽,thomathebestofthebest,,Why didn't YOU TRY WAAA SOMETIMES THE CAMERA JUST COMES OUT PLS TRY🥺🥺🥺,8-8-2021,
205,tyler,tylxerr_,,That’s just a samsung with a case that’s literally amazon,7-8-2021,
206,Layton_AYE,laytonthesnake,,I love your video,7-8-2021,
207,🚠,frxzxxv,,Friendly reminder Cars 1 > cars 3,7-8-2021,
208,I'm dying,catbreadhause0,,MY OLD FRIEND,7-8-2021,
209,yahya,yahyauzamaki,,Omg your yt vids are awesome and now your on tiktok,7-8-2021,
210,Uhh,27wavy4,,Cu- 😏,7-8-2021,
211,Dreidyn Pillai,stillldre7,,that os flexxin on another level,7-8-2021,
212,Josh_shay💙🐐,josh__shay,,I MISS THE RAGE⁉️⁉️⁉️⁉️⁉️,7-8-2021,
213,C0D3SH4RK42O,c0d3sh4rk42o,,oh I have like a hundred of those phones got em from a deposit box,7-8-2021,
214,Naughty Pranav,naughty_pranav,,New generation no photos needed 😂😂😂😂😂,7-8-2021,
215,DailyDoseClashContent,dailydoseclashcontent,,August 8 we are banning charli’ D Amelio Account We are getting rid of her once and for all save the date(spread the word),7-8-2021,
216,Isä,kkonismideologia,,😂,7-8-2021,
217,Ahmed muto,yami_ahmed,,just take the gold off or make a hile at athe plase of the camera,7-8-2021,
218,King tomato.,kingtomato.exe,,I saw the video lol,7-8-2021,
219,aaishh,luciller,,@aishkho the legend of smartphones?? u have some competition,7-8-2021,
220,matti08,matthiaselnar08,,Samsung or iphone?,7-8-2021,
221,Aye-Bone,damnboi011,,Yes he’s on TikTok to,6-8-2021,
222,Localscammmer,localpedo39,,ur actually on tiktok😳,6-8-2021,
223,CREEPY,aescreepy,,what a shhhty phone,4-8-2021,
224,Jimuel,jimuelkeannmirand,,what if download camera,4-8-2021,
225,That dude,rimuru_tempest043,,how many phones do you have😌,3-8-2021,
226,lil jay,they_fw_liljayz_world,,Rich tik tokerss@drippyk14,3-8-2021,
227,Juli,agent008jr,,Who?,3-8-2021,
228,Lesedi Lesedi19,33banks,,i saw this video on YouTube...the boxing tho😱🥵🔥,3-8-2021,
229,ahli sihir lepel 4,wizad_level4,,BRUHH,1-8-2021,
230,PuDinaaah lelo,samyo_47,,🙄 me watching with 190$ phone 😝😌😌,1-8-2021,
231,Relance Lantikse,relance25,,[stun],1-8-2021,
232,Octaсын🍎,mr.putra1,,...,1-8-2021,
233,Quandale dingle,mommyyelancantbreath,,how can you bw so calm?,1-8-2021,
234,ՏᒪᗩY ᗯOᒪᖴ • following,nakth111,,how did tiktok know i watch you?!?!??,1-8-2021,
235,Jerry jc,jeri0281,,how could i subscribe in tiktok😅,1-8-2021,
236,Rᴀᴍᴇsʜ__Dᴀɪɪ♡,__oyeeeee_,,😂😂,1-8-2021,
237,A M,a.am007,,"No hate but people who believe that’s a 170,000 phone 🤡😂",30-7-2021,
238,toksisnice,onlyyy.isaaaa,,HE ON TIK TOKK!!!,29-7-2021,
239,AKF_xx_1807,akf_xx_1807,,Am I the o lay one who has no idea who this guy is 😳,29-7-2021,
240,Blandeu,blandeu,,iPhone 12 Max is close to the same price anyways,29-7-2021,
241,<3,sara_67234,,@xx.lil_gurl simba is my name of cat and he look almost EXACTLY LIKE THAT,29-7-2021,
242,alumr4,alumr4,,He is motivated with apple😳,29-7-2021,
243,laylen,today_kitten,,hi I subscribe to you on YouTube and watched the Instagram story that kills your phone,29-7-2021,
244,maddox preston,jupiterknight,,LMFAOOO,29-7-2021,
245,Rex,rex_yu7,,As soon as i see the phone for at least a second i knew the gold phone was so sus,28-7-2021,
246,kris,kris_6_5,,what brand is the 170k phone ?,28-7-2021,
247,Trash,trash999990,,why does it have a camera app then😅,28-7-2021,
248,Typical Kid,typicalkid42,,I knew it wasn't functioning and I still expected something 😭,28-7-2021,
249,🤟🏼,.02.03.19,,🇬🇧🔪RUN ME YO PEES🔪🇬🇧,28-7-2021,
250,O M G,_kazutora_17,,no problem you can use second phone for photos😅😅,28-7-2021,
251,Noah,n0ahmilne,,android ppl will still say the 170000 dollar phone had a better camera lol,28-7-2021,
252,David PF,d4v1d_661,,"humor de ricos, supongo",28-7-2021,
253,AS9,elitesy,,they seriously just sticked a gold plate on the back of the phone🙈,28-7-2021,
254,Diana✨,browtf054,,"And who is gonna waste $170,000 on a phone",28-7-2021,
255,Michael,michae_user,,"😂😂😂 I r
wasn't expecting that",28-7-2021,
256,Morten Heigre Mæland,connercenway2,,Does it only have one bar,28-7-2021,
257,⠀ ⠀ ⠀ ⠀ ⠀ ⠀,yny.fanel_xxy123321666,,who this guy be,28-7-2021,
258,Idk,imstillookigforaname,,fAnStaStIc🌞,27-7-2021,
259,Bruh,user9aerraj7ox,,No way you are on tiktok!,27-7-2021,
260,Baba Tunde,waifusimp.69,,cool no government watching me,27-7-2021,
261,Messed_Up,simply_rich_bacon,,Woe,27-7-2021,
262,t_82,ty82_,,BOR I CANT COME I WATCHING YOU ON MY PHONE,27-7-2021,
263,Dododndofkf,sfodm,,My new vid tho,27-7-2021,
264,.,pioqex,,I FOUND YOU YES,27-7-2021,
265,Annoymous,ytxym2,,Can I go viral like I did last time?,27-7-2021,
266,neolibeltarian,kubekbezkawy03,,cvm?,27-7-2021,
267,Śliski Andrzej to idol,szybki.macius2115,,@iglucz_11 morał,27-7-2021,
268,.,stopfuckingaroundcunt,,the people that can afford that dont spend time taking photos,27-7-2021,
269,fifafootballakale,fifafootballakale,,they just buy another one to take photoa,27-7-2021,
270,kasprzyk,kasprzy_k,,bruh it doesnt work beacouse camera is covered,27-7-2021,
271,riannaamin2010,glasses2000,,yay you wasted your money with phone without camera,27-7-2021,
272,🌻🦋𝗛𝗮𝘁𝗲=𝗕𝗹𝗼𝗰𝗸🌷,trendyyxislaa,,Imao,27-7-2021,
273,ants om tiktok,05dx50,,wat vind je van mijn edits😁🥰🥰❤️😁,27-7-2021,
274,General_A01,general_a01,,Who needs photos when you have a very practical gold bar stuck to your phone,27-7-2021,
275,Nexsus1KO,nexsus1ko,,that's a samsup with a case on,27-7-2021,
276,☻︎,violettsmile,,Hi.,27-7-2021,
277,Belize gamer 🇧🇿🇧🇿😌❤️,hilbertoj.r,,if I did not have a camera then how u get in there😳,27-7-2021,
278,NOONE,noone_564,,and why you bought it??????,26-7-2021,
279,Heartbroken_b0y,heartbroken_b0y,,😂😂😂😂😂,26-7-2021,
280,My backup account,graceypacey1243,,Been waiting for u FINALLY!,26-7-2021,
281,Ebihal 🔥,ebihal23,,yaay im rrom yt i wach you a long time ago,25-7-2021,
282,Aref Belal118,honey_bear0123,,1,25-7-2021,
283,We edit stuff....,thesassysisstersforever,,Me... I don’t even have an iPhone pro Max and my photos look not so bad Me: has iPod for 4-5 years 😳,25-7-2021,
284,🦋shadow💜,ieie562,,😂😂😂😂😅😅😅😁,25-7-2021,
285,I am not god,pantydroppa600,,Keeps the same crisp quality as the yt… just amazing,25-7-2021,
286,Pro,naughtyboyplayz,,Finally found ur tiktok acc,25-7-2021,
287,Mithrilheld,mithrilheld,,1 kg of gold is rn about 43k... I dont think that phone is 170k,25-7-2021,
288,p,shadowboy83,,OMG your first bid,24-7-2021,
289,Little Monsters985,justonefollow,,this made me feel like the iphone is cheap,24-7-2021,
290,🐆SERGIO🐆,skoeiman,,Its just a phone case,24-7-2021,
291,Soviet,ricardomilos472,,do iPhone vs Huawei camera,24-7-2021,
292,Deniz,den1z_1,,gg,24-7-2021,
293,FunKidsElaine,mijiniscool,,"isn't the 170,000 phone a phone case?",24-7-2021,
294,Baron,baron.aa1,,wow😁,24-7-2021,
295,user7522452612438,tifany_jene,,Hello can i get one i'm realy in need of a phone i'm in Africa,24-7-2021,
296,Ferraris488pistaare superior👑,justmeaspect,,if it can take photos why does it have a camera app,24-7-2021,
297,.,joelr176,,Dude i love your videos so much 😁,24-7-2021,
298,Itz Notex,itznotex,,He in TikTok finally,23-7-2021,
299,🍜🍥,aceyct,,i ALWAYS Wtch u on yt,23-7-2021,
300,yunes💗,strawberrycakem,,i thought it was a calculator but gold,23-7-2021,
301,Tino,kazuto_876,,daily reminder code solos one piece•,23-7-2021,
302,⠀⠀⠀⠀⠀,sharabubu,,finally the legend arrived🛐🛐,23-7-2021,
303,jesam ja debil??,mukisa_69,,"Cool Anyways here's the Recipe for brownies:
1/2 cup of butter
2 eggs
1 cup sugar
1/3 cup cocoa powder
2 teaspoon vanilla extract
1/2 cup o",23-7-2021,
304,Eagle Dasri,faxz_codm,,"i never knew u were on tiktok
i thought ur were only on youtube insta and twier",23-7-2021,
305,Ava. Mabwe,queenmae537,,I love your channel 😂😂😂😂,23-7-2021,
306,trwldhry,trwldhry,,I'm pretty impressed by how you managed to make your TikTok look so good. it's very professional. good job.,23-7-2021,
307,🄷🄴🄻🄻🄾🤧,.idk_what_to_put_here_,,I follow you on YouTube and now your on my fyp😂😂,23-7-2021,
308,Deleted,deletedconent,,@slime_maker_robloxmm2 😂🧐🧐🧐🤨,23-7-2021,
309,Jbg_Zuriosm,cergar_iz_bec,,ye if that was real gold you vould barely hold it with one hand,23-7-2021,
310,Lenchii,toca.lenchii,,wut😂😂😂,23-7-2021,
311,Qѕт___ᴷѕт,x_itachi_ff1,,i love your accent 💯🔥,23-7-2021,
312,Ver🅾️nic🅰️,verrigoodsoup,,The fact that u just put a case on a Samsung 😂,23-7-2021,
313,claudiu,yup.70,,woow welcome to the tik tok,23-7-2021,
314,inking9991,freefireisgood1,,àm,23-7-2021,
315,Bardh Telaku,bardhi_telaku,,if you buyed 17000 phone you can buy a normal one withhh cameraaaaaaaaaaaaaaaa,23-7-2021,
316,Differentbullshartido,giogio_warwar,,Passion fruit,23-7-2021,
317,dm my user,animepp.com,,i dont know why you always appear on my fyp,23-7-2021,
318,vlad.timbus,gsm1t,,who dis?,22-7-2021,
319,Rammu😈,ra7hmu_,,delete before apple releases a new phone without camera and with a higher price😂,22-7-2021,
320,☆Amiya☆,.amiya.vlogs,,HE'S ON TIKTOK THE LEGEND IS HERE Y'ALL PULL OUT THE RED CARPET,22-7-2021,
321,splashface_bibber0,splashface_bibber0,,ᕼᘿᒪᒪᓍ ᖇᘿᕵᒪᖻ ᓰᖴ ᖻᓍᑘ ᑢᗩᘉ ᖇᘿᗩᕲ ᖶᕼᓰS.,22-7-2021,
322,Anise,anise.sampsonx,,I saw my reflection in them and im beautiful so obviously 170k is better,22-7-2021,
323,Georgia S <3,georgiaig,,Just me who doesnt know who he is,22-7-2021,
324,✧･ﾟ: *✧･ﾟ:*Eli ♡✧･ﾟ: *✧･ﾟ:*,_elinaki._.elinaki_,,@Σκατούλες 🤎,22-7-2021,
325,kizadjuma,kizadjuma,,😂😂😂😂😂,22-7-2021,
326,𝕄𝕒𝕣𝕝𝕖𝕟 𝓪𝓻𝓽,marlen_art,,WAIT UR ON TIKTOK,22-7-2021,
327,Kaydian💕✨🇯🇲,itzkaydii,,Huh-,22-7-2021,
328,Trön,twintroopa,,What exactly am I supposed to take from this video 😂,22-7-2021,
329,MOB,phycohelmet1,,I watched your Unboxing and it was very entertaining,21-7-2021,
330,Get that belt,_tonayy_,,my man got scammed,21-7-2021,
331,Dennis,dennisbratulescu,,I’ve seen this like an hour ago on YouTube shorts,21-7-2021,
332,Jael Robinson,doggolover2225,,170k huh? what a ripoff,21-7-2021,
333,_abc__,jaidahussein0,,Biep,21-7-2021,
334,danaii,danai_par,,I cant tell if hes joking,21-7-2021,
335,KEN'X,kenxbeats,,Good to have you here on Tiktok🥰,21-7-2021,
336,KEN'X,kenxbeats,,😁😂😂,21-7-2021,
337,Flaw,flaw58,,it's like night and day,21-7-2021,
338,GentleD,emmanuel_chijioke006,,"$170,000 can't take photos 😳 wow",21-7-2021,
339,adrijaKarlsruhe,adrija6045,,Wow,21-7-2021,
340,Avakin Rose,avakinqueen1,,@shaqshaq212 @_haille_ @adxm_sb @luvxesther he’s on tiktok now,21-7-2021,
341,readmynameifurgay,readmynameifuaregay,,"everyone:he's on tik tok
me:who is he?",21-7-2021,
342,idontlikethischrissywakeup🎶🎻,unfunnyvalentine.jpeg,,This man rich rich 😂😂,21-7-2021,
343,Isobel,isobel09m,,R u some sort of billionaire or summin??,20-7-2021,
344,Ahmed7xc,ahmedvr5,,bin this for no reason,20-7-2021,
345,-_-________chr1st1an,chr1st1an____________,,At 170K golden ingot phone... u will probably have a entire camera team with PRO equipment (:,20-7-2021,
346,sarah 😰,sarahhjungg,,@lanky_.loser @whoisweyda @dsn3037 thsi is the guy we watched in class,20-7-2021,
347,clay/charlie,dreamsrightesticle,,i found you on tik tok finally!,20-7-2021,
348,vassilis mallis,vassilismallis6,,170.000 phone is s20,20-7-2021,
349,Poggo Tisa,poggofooty08,,The legend himself,20-7-2021,
350,🧚‍♀️,stefanos.ioannidis,,@fotis_221b exei tiktok-,20-7-2021,
351,Kinda shy ☺️,sleepy.panda3,,"You poor,poor thing😂😂",20-7-2021,
352,Sude,trowing_pencilstvt,,@priscillathecrazyperson 😂😂😂😂😂😂😂😂😂,20-7-2021,
353,shak_one_don1,shak_one_don1,,You bought the looks of the phone 😂😂,20-7-2021,
354,forexlifestyle,god.fabian,,finally here,20-7-2021,
355,Xo.Orla_young.xo,xo.orla_young.xo,,How. Can you afford too buy so many expensive items,19-7-2021,
356,epictiktoker,im_that_epik_tiktoker,,"Did you see the 170,000 one!? It’s soooo good!",19-7-2021,
357,🔥Respect🔥,respect.2k,,[wicked],19-7-2021,
358,Joe 69,joe195769,,that sad,19-7-2021,
359,DAB ON THEM HATERS🤠🔫,din.lokala.viet09,,But what does it do?,19-7-2021,
360,Oscar is hot,jakgwilfin,,Same thing,19-7-2021,
361,zeki,not_alike,,the person that buys the phone probably has a camera man with him at all times,19-7-2021,
362,Kevin,user578792081,,😂😂😂,19-7-2021,
363,STANCIOUS G NDICHIOUS,king_genesis_g,,My favourite youtuber,19-7-2021,
364,I Stand With Ukraine 🇺🇦,samsung_galaxy_s_,,that golden phone has the best camera,19-7-2021,
365,Carol Goro,carolgoro1,,why the hell not😳🤦,19-7-2021,
366,user9980841517786,manjuniju,,5600th cmnt,19-7-2021,
367,✨ 𝐄 𝐥 𝐢 𝐲 𝐚 ✨,_eliyaa._,,"u had to open the phone, it had a camera lmao",19-7-2021,
368,NOT IMPERSONATING,cgdykaar,,"WHAT!? IF A PHONE DOES NOT HAVE A CAMERA, IS IT EVEN WORT IT,?",19-7-2021,
369,Hoover_Jnr,jnr_hoover,,hi,19-7-2021,
370,nicotine patches,horrorkitty_,,"WAIT YOURE ON TIK TOKK,OMGGGG I LOVE YOUR CHANNEL!!",19-7-2021,
371,TERO,ns_tero,,but how you afford it tho,19-7-2021,
372,proskills991,proskills991,,tbh if you could afford this phone then you probably have people taking pictures for you,18-7-2021,
373,Pete Geno,peterengland11,,🤣🤣🤣🤣🤣,18-7-2021,
374,XRAY,xrayed1tz,,I'm a fan I followed I watch you on YouTube all the time,18-7-2021,
375,Simply,_simplememes_,,They are gonna remove the god damn screen next like bro i swear,18-7-2021,
376,Ivan Trushnikov,ivantrushnikov,,thats like iphone vs samsung,18-7-2021,
377,∞,vxl0cityy,,but how was an camera app on the gold phone?,18-7-2021,
378,Mitchelly2000,randomvibes2000,,for real😏😏😏,18-7-2021,
379,user6913428672908,xshadowslayerx101,,Selfy?,18-7-2021,
380,Zenix,zenixxxp,,lol,12-8-2021,
381,Dr. Rafal Mahmood,dr.rafalmahmood,,No,11-8-2021,
382,Naphsworld,naphsworld,,😂😂😂😂😂,10-8-2021,
383,𝑯𝒊𝒓𝒖𝒏𝑺𝒆𝒏𝒂𝒏𝒂𝒚𝒂𝒌𝒆,hirun_2849,,😂😂😂,26-7-2021,
384,Eren Yeager = Best MC,ewwnial,,Daily reminder Rock lee stomps Sakura i,11-8-2021,
385,drdammikedissanay,dr.dammikedissanayaka,,🤣,20-7-2021,
386,⚠️⚠️⚠️⚠️,a.h.j13,,😂,11-8-2021,
387,Souley,souleykami,,arun how old are you?,27-7-2021,
388,Adi,redpanzer86,,Who needs a camera when it's gold.,13-5-2022,
389,me,something9183,,you can't take photos on the gold one But why that makes no sense because the other phones have cameras,1-5-2022,
390,Phondroid_ Uz,phonedroid_uz,,Just join my technical channel😉,25-12-2021,
391,Samurai_3,samurai_377,,umm,8-8-2021,
392,SPARTANS KNIGHTS-YT,spartans_knights_yt,,EJ🖐 POZIVAM TE NA MOJ YOUTUBE KANAL🙈 OBECAJEM TI POTPUNU ZABAVU🎉 VIDEMO SE USKORO😊 link na profilu.,24-7-2021,
393,Daddywho,daddywho,,"💉🔚
Don't take the vaccine it's all a fake disease.
⚠️Ξυπνάτε!!!
Έχει ανακαλυφτεί τι περιέχει το εμβόλιο σας κοροϊδεύουν,Μην το βάλετε.",24-7-2021,
394,Ri Chen,mr.politically.correct,,On TikTok!,9-8-2021,
395,⠀ ⠀ ⠀,mooniefidgets,,just bye a gold bar at this point,21-7-2021,
396,ᎻႮ乙ᎪᏆҒᎪ,hvzxifa,,OMG I NEVER KNEW THAT YOU HAVE TIKTOK I'VE BEEN WATCHING YOUR VIDS LIKE FROM A YEAR AGO 😳,7-8-2021,
397,Hibabes,hibabes010,,@musiclbylah：Listen to me singing on my TikTok!,10-8-2021,
398,Александр,smteh,,"СОЗИДАТЕЛЬНОЕ ОБЩЕСТВО
🛸　　 　🌎　°　　🌓　•　　.°•　　　
🚀 ✯
　　　★　*　　　　°　　🛰 　°·　　                           🪐
.　　•　° ★　•  ☄
▁▂▃▄▅▆▇▇▆▅▄▃▁▂💞
Allatraunites",10-8-2021,
399,Mitch_powells.Nike.logo,number.69420,,"Only I can comment 😏
︎
︎
︎
︎
︎
The host has turned off comments
︎
︎
︎
︎
︎
︎
︎
︎
︎
︎
︎
︎
︎
︎
︎
︎
︎
︎
︎
︎
︎
︎
︎
pin it on",10-8-2021,
400,h2ldn_,h2ldn_,,Jesus died on the cross for our sins He payed the price we deserved so we could spend eternity with him it’s all about grace.,8-8-2021,
401,Ratul Sharif89,mrdaz010,,"i Just want to talk to you for a minute🥰🥰🥰🥰🥰🥰🥰🥰🥰🥰🥰🥰🥰🥰🥰🥰🥰🥰🥰🥰🥰🥰
I dont want a free phone from you🙂🙂🙂🙂🙂🙂🙂🙂🙂🙂🙂🙂🙂🙂🙂🙂",3-8-2021,
402,steve,kakapipi123400,,spread the gospel before it's too late❤️✝️📖,29-7-2021,
403,steve,kakapipi123400,,"Why should u trust God?
•He forgive us
•He have plans for us
•He take away our pain
•He died on the cross for us
•He is our savior,our lord Amen🥰",29-7-2021,
404,steve,kakapipi123400,,God is Great Amen God Bless You guys and God Bless us all with a Beautiful day Amen🙏✝️👑✝️🙏.,29-7-2021,
405,steve,kakapipi123400,,"God is good
God is powerful
God is grateful
God it amazing
God is helpful
God is always with you",29-7-2021,
406,Save Me Humans,save_me_people,,"Hello everyone help me I am not safe in Afghanistan. #save me
.my Life is in danger",29-7-2021,
407,Tepetik,tepetik,,To download videos without watermark like this one: https://tepetik.com,28-7-2021,
408,︎ ︎ ︎ ︎ ︎ ︎ ︎ ︎ ︎ ︎ ︎,iampinned,,Why is this comment pinned? ︎ ︎ ︎ ︎ ︎,27-7-2021,
409,ᴸᴼᵁᴰ𝕃𝕦𝕔𝕚𝕖✧,pixxze,,"@pixxze:PLEASE SEARCH ""Icyyduck"" ON ROBLOX AND BUY ONE OF MY GAMEPASSES.",27-7-2021,
410,ar.arsen.fanjan,ar.arsen.fanjan,,"pin this
　 ＼＼
　　 ＼( ͡° ͜ʖ ͡°)
　　　 >　⌒ヽ
　　　/　 へ＼
　　 /　　/　＼＼
　　 ﾚ　ノ　　 ヽ_つ
　　/　/
　 /　/|
　(　(ヽ
　|　|、＼
　| 丿 ＼ ⌒)
　| |　　) /
ノ )　　L",19-7-2021,
411,Føxēłprøn,faxed04,,I Love you🥰🥰🥰🥰🥰😳😳😳😅😅😅😅😁😁😁🥰🥰🥰🥰🥰🥰🥰,26-7-2021,
412,Boss,aldon_63,,"where is the comments?
︎︎︎
︎︎
︎︎
︎︎︎
︎︎︎︎︎
︎
︎︎︎
︎
︎
︎
︎︎︎
︎︎
︎︎︎
︎
︎︎︎︎︎︎︎
︎︎︎
︎︎",13-8-2021,
413,cheese.cr,cheeese.cr,,"Pin this
🌖
🌗
🌘
🌑
🌒
🌓
🌔
🌕
🌖
🌗
🌘
🌑
🌒
🌓
🌔
🌕
🌖
🌗
🌘
🌑
🌒
🌓
🌔
🌕
🌖
🌘
🌑
🌒
🌓
🌔
🌕
🌖
🌗
🌘
🌑
🌒
🌓
🌔
🌕",27-7-2021,
414,Nick,nickplays1232,,Expensive bad cheap good,7-5-2022,
415,Joker_ 3000,joker_30000,,that's not a 170 thousand dollar phone it's an s21 follow for more exsposing,24-3-2022,
416,tyrelstormgamboa,tyrelstormgamboa,,BAD AUDIO,30-12-2021,
417,ethantibuthomas,ethantibuthomas,,Why didn’t I find this man es.tier,20-6-2022,
418,SHELENGOVSKIY783,shelengovskiy783,,Caviar also made a Samsung Galaxy S21 Ultra with a Pitbull ring and iPhone 12 Pro with no camera.,2-6-2022,
419,Giuliano J. Milan,usualguy79,,how did you find a 170000 $ phone???? How could you afford It????? I'm going mad,20-5-2022,
420,Dj Skold,dj_skold,,I can send you to Jeeeesus😅😅 Emotional daaaaamage 🤣,3-5-2022,
421,Denzil,_cyan_29,,Phone pls,1-5-2022,
422,Scooptroops,scoops_troops5,,It’s a android whith a case,24-7-2021,
423,sang...,pansang01,,yawa 🙂🔪,1-9-2021,
424,Tailevu NoLeqa,tailevunoleqa1,,thats useless,12-8-2021,
425,🤤,daddys_watching_you_,,stop flexing with an iPhone buy gold,7-8-2021,
426,ajfoxx21,ajfoxx21,,waste of money😂😂😂,1-8-2021,
427,Emerald Crystal,emeraldmcpe0,,what a scam,1-8-2021,
428,vassilis mallis,vassilismallis6,,fake video,20-7-2021,
429,John Iwaszczenko,dank_stank_prank,,the only reason it costs so much is all the money went into a bar of gold on the back. f****** ridiculous jewelry.,21-8-2021,
430,greenmind,polloy05,,https://vt.tiktok.com/ZSJWVQ3g1/,18-8-2021,
431,Prinses nayeli<3,thxt_0ne_bxtch_,,WHY DO U SOUND LIKE LUCIFER OF THE SERIE?!,19-8-2021,
432,justaboy207,justaboy207,,you voice like Lucifer i love it,24-7-2021,
433,kaboonudel,bogasprangd,,Looks like a gold brick,8-8-2021,
434,XZSTRY,xzstry,,Looks like a block of gold😂,7-8-2021,
435,Blank,kw_570,,https://vm.tiktok.com/ZMdKrR8rj/,7-8-2021,
436,Emmanuel Kalos449,emmanuelkalos,,it because the rich are stupid,28-7-2021,
437,.,g0.l1ttle.r0ckstar,,Ist a fcking phone Case,27-7-2021,
438,nashat.tamimi,nashat.tamimi,,I love you man. you're a real pro 👌🏻,22-7-2021,
439,Vertuo,vertuo,,"just saying….. if you can afford a 170,000 dollar phone then you can probably buy a camera…………",18-8-2021,
440,Biggest hater in the world,biggest_hater_in_world,,"when you have phone in same price as lamborghini urus, so y dont take picture by phone but pro camer and phone use to call",11-8-2021,
441,M3D333 么あ,m3d333apk,,who th is finna buy a phone for 170k you flipping mad fam😳,11-8-2021,
442,Siddiqjon Khamidov,siddiqjonkhamidov96,,Oh imagine If I bought a phone like 170000$ but I couldn't take a photo when my girlfriend asks oh my goodness😅😅😅,11-8-2021,
443,Jamie,jamiedonaldson2003,,iphone is shit regardless,11-8-2021,
444,lewisgenderbender5,lewisgenderbender5,,The feds could be spying on your tax evasion tactics it’s a plus really,10-8-2021,
445,Paradise City Roleplay,paradise_cityrp,,"at that price they've already got a full team of photographers and paparazzi, though",9-8-2021,
446,Las Palmas,marcosel77,,"That called a business phone my guy , it’s for business calls",8-8-2021,
447,.,sexy.bald.black.man,,Yeah dont mind me carrying a 50kg half gold bar half phone in my pocket,8-8-2021,
448,Mari,rilakumq,,BRO UR VIDS R SO MF ENTERTAINING,8-8-2021,
449,user5608980705145,iamcomplex__,,"The picture is actually a pure canvas of vantablack, therefore light can't penetrate it 😏",8-8-2021,
450,⁷⁷⁷,akhyman4_is_back,,what a waist of time🙄,7-8-2021,
451,buns,bunss02,,glad to see you again you're the one who taught me everything about tech ty bruv,1-8-2021,
452,Felicity,felicity_memela04,,What do you do with it then. You just type....ew🤮,30-7-2021,
453,ChevalSurge,chevalsurge,,"yeah, I'd just stick to selfies if i had that",28-7-2021,
454,skatrbob,skatrbob,,"If someone buys a phone for 170 grand, he definetly have a photographer team 24/7 aviable",28-7-2021,
455,maxstpeter,maxstpeter,,Flex much,27-7-2021,
456,mh7aaan,ben1m5,,I will knock the fkn huy who did this man,25-7-2021,
457,:D,j0hn382,,"The $170,000 phone looks like a gold bar ngl",23-7-2021,
458,Ali,ali_786hayat,,all of a sudden your on my fyp a lot,21-7-2021,
459,Ghitza Curac,ghitzacurac,,it is because somebody own a 100.000 $ phone can aford a photographer any time😅,21-7-2021,
460,tnhtnn762,____markus____,,rich people want luxury that poor doesn't have. everybody has a camera now. So check this out. 😏,19-7-2021,
461,Husam Al-Kamarani,darknessbulletxikurmumpp,,He's lying he just put it behind the bar that he has. That why it's black,17-8-2021,
462,GodOfReason,godofreason,,The $170K phone is not a phone. It’s an investment/speculation. In 10 years it might be worth millions which is the reason to buy it. Not click photos,19-8-2021,
463,Tick Toker🥰,mariamansari6691,,like me please🥺🥺🥺,10-6-2022,
464,David Muigai,muigai_101,,I've been following your YouTube and now I found you here finally...🥰,9-8-2021,
465,diegolin106,diegolin106,,So wich is better 🤔,7-5-2022,
466,alexanderシ,alexander05201989,,"like the fact that you say,""subscribe"" not, ""follow""",28-3-2022,
467,KREZY RAPID BOOTZ,issaccdesnuts,,the gold phone is a Samsung I bet,18-3-2022,
468,tomlj,tomlj29,,JamesTomlinson Insta @Photojt2008 giveaway iPhone 13 please,2-3-2022,
469,¯\_(ツ)_/¯,saif_shaheen2011,,I love ur content :),19-2-2022,
470,GOD×TITAN,titan_x777,,@jasonx669,27-7-2021,
471,Ashmol Davis,ashmoldavis,,@yasxminxo,7-8-2021,
472,Mihaela,mihaelaorlicc,,@lxnaedit,23-7-2021,
473,Antex,antexstudio,,How and why 😂,20-4-2022,
474,phoebe,fungusonthetoes,,@xo.leila.chloe.xo @x.chloec,7-8-2021,
475,Aneta :),aaa.aneta,,@its_me_blankaaa,27-7-2021,
476,Honey_Police_indication,honey_police_indication,,@_saukstelis_,20-7-2021,
477,Aija💋,aijaaak,,@selmo.mantere,20-7-2021,
478,Quame Siremaxie,siremaxie_,,😂😂😂😂,vor 9 Std.,
479,Blessing Jones495,blessingjones495,,hello,vor 4 T.,
480,👁👄👁,qxljol,,Did come to the same reason?,8-6-2022,
481,𝔹𝕠𝕚𝕘𝕒𝕞𝕚𝕟𝕘,boigaminghasexisted,,𝕊𝕠𝕣𝕣𝕪 𝕨𝕖 𝕕𝕠 𝕎ℍ𝔸𝕋 𝕥𝕠 𝕤𝕖𝕖 𝕥𝕙𝕖 𝕔𝕠𝕞𝕡𝕒𝕣𝕚𝕤𝕠𝕟?,16-5-2022,
482,Joshua Onoh,softjo_,,😂😂😂,13-5-2022,
483,Karl Rayson,karlrayson,,😂😂😂😂,29-4-2022,
484,Akmal7377,akmal73777,,atleast its show off,27-3-2022,
485,Leong Cuiyan,cuiyan18,,@payyphonee,20-8-2021,
486,hannyprincess1,hannyprincess1,,@Zara & Hanny,12-8-2021,
487,nasma🐨,nasma_kb,,@amalkabbaj,10-8-2021,
488,luflufgaming,luflufgaming,,@dhar.mann,10-8-2021,
489,no lettuce,imsocheeks,,@ziiaax,9-8-2021,
490,publicuser15,xx.sad.boiii.dayzz.xx,,@xxamina.ixx,9-8-2021,
491,v,fruitysalaad,,@li_licoffee,8-8-2021,
492,Jake,jake.enticott,,@.idcholly,8-8-2021,
493,tomas,tomaas181,,@nippothe,8-8-2021,
494,✨hello✨,shoyo.hinata..16,,@shoyo.hinata..16,8-8-2021,
495,daniel,xonifi,,@iandargon_,6-6-2021,
496,chris,fuckwit_chris_other_acc,,HE FINALLY CAME TO TIKTOK,6-6-2021,
497,Omega,atlomega,,wtf you on tiktok? nice,6-6-2021,
498,Eliya,3liya33,,@jubair._,6-6-2021,
499,this is an alternate account,alt_accountpart8,,that's like when apple remember removed the headphone jack lol,4-6-2021,
500,⠀ ⠀ ⠀ ⠀ ⠀ ⠀,no.namemy.guy,,"It's literally a block of gold, what do you expect?",4-6-2021,
501,Ramón VILA ECHAGUE,sim3540,,😑😑😑😑😑😑😑,6-6-2021,
502,urmom,mrbygmandbob,,claas_combine,5-6-2021,
503,Dreik,knknkn30,,a follow on your account is exquisite,4-6-2021,
504,.,funxify,,Yo didn't expect you to be on TT 😁 Followed 😊,5-6-2021,
505,Das_Weder,das_weder,,@nookaeh 😂,5-6-2021,
506,wowse,mugiwarabitch,,YES YOU'RE IN TIKTOK NOW,4-6-2021,
507,Tucher aka Lutetium,da_tucher123,,Love u bro,4-6-2021,
508,jaxx :),jbaaa05,,@jaxs_prettygirl hel ok bye mwah i love you,5-6-2021,
509,FOLLOW EVERYONE BACK,unknownpersonoverhere,,170 THOUSAND DOLLARS ?! AND IT DOESN'T EVEN HAVE A CAMERA?... THATS A BARGAIN.... CAN SOMEONE PLEEEEEASE TELL ME WHERE I CAN I GET THIS PHONE???😜🤑,4-6-2021,
510,Ardadz,samuraiadz,,people who didn't come 😏👉,5-6-2021,
511,Ananya,itssananya,,I thought I was on tiktok,4-6-2021,
512,Petra,petra.fill,,you can buy a tesla model x and 3 for that price and have money left over,5-6-2021,
513,isaac,zaaz___,,@_popis marcos tiktoker.selular sem camerakk,6-6-2021,
514,Mr.F,morelikeflorian,,you jokester ha ha ha.,4-6-2021,
515,Greece 🇬🇷,greece.geography,,@kagkouras_apo_geniko,4-6-2021,
516,T,t_.platinum,,Let's go he his on tiktok,4-6-2021,
517,Your Local Smexy Fish,your_local_smexy_fish_,,@_compulsivegambler_,7-6-2021,
518,🇬🇭🇧🇧,urfav.ghanaian1,,Who is he??,7-6-2021,
519,牛乳,cloud_7431,,Flex,7-6-2021,
520,Tavon Alexander,tavonalexander0,,Consistency,7-6-2021,
521,💙L̷͖̅ȏ̴͍v̶̙̐e̴͔̊l̴̡̂ỹ̴🤍💚,clan_realest,,I'm literally everywhere lol.,7-6-2021,
522,Justin Olsen,disguisedarling,,@dezzy.9o7,7-6-2021,
523,Zeke,atiredzeke,,Ayyyy I love the YouTube vids so excited he’s on TikTok!,7-6-2021,
524,Devine🇳🇬,nnmesomaa,,@skai..ripa WHYS EVERYONE FREAKING OUT OBER HIM 😭😭😭,7-6-2021,
525,N0T KyleKouki,g00fyahacc0unt,,Selfie works correct,7-6-2021,
526,156Avengers “156Avengers”,tristan_foushee,,That’s so dumb. Why would you buy an $8 phone just because it looks like a gold bar. That doesn’t make it expensive.,7-6-2021,
527,Alissa,me_alissa,,@linne_cavalitos,6-6-2021,
528,Tasrin❤.,tasrin0113x,,"@_tazxo ""hello simba""",6-6-2021,
529,Lightpoodle,0lightpoodle0,,@rhishi____,4-6-2021,
530,ArmaniBoy2000,armaniboy2000,,Idk why but this seems fake 😂,4-6-2021,
531,ISSAI IBUNGU,issaiibungu,,And also it can’t survive water test ridiculous 😏,6-6-2021,
532,Kevin rosas,kevinrosas158,,@harriettubmann,6-6-2021,
533,Pingu,khai_pingu,,@_.mirrkun,4-6-2021,
534,Sarah,s4r4h.1,,@dianaaaxo_1,6-6-2021,
535,FameIsntEverything,hddhamar,,welcome to ticktock🥰,4-6-2021,
536,bengolding5420,imepicattiktok,,@lucyyyyy.xoxo you know what I heard lmao,6-6-2021,
537,Thamara Nunes,thamarav_,,@pzessi,6-6-2021,
538,envicZ,envicz,,finally 🥰,4-6-2021,
539,⠀ ⠀ ⠀ ⠀ ⠀ ⠀,uzair.74,,@samir.muneer this sick,6-6-2021,
540,🙄,ambercocoa,,@euphoriajunkie345,6-6-2021,
541,JosefAtia,juicesef,,Wait wtf he has a tiktok???,6-6-2021,
542,cenk,cenko_1835,,k,6-6-2021,
543,Pera,.perasim,,is @tiktok dumb how they didn't verify you in 1 day your MrwhoseTheboss,6-6-2021,
544,Dak-Dak game buat hal,korosity_gg,,"MR.WHOSTHEBOSS DANMMMMMMMMMM WELCOME DUDE
I've been following you since 2020 on YT your vids are the best in tech",6-6-2021,
545,Alone💔🙂!,1am_a10n3_,,I found you on fyp!!!🥰🥰,5-6-2021,
546,Hom,erz0o,,@evrybodyhates_ @50ff4,5-6-2021,
547,Sammy Seyi,sammyseyi,,I would fight😃,5-6-2021,
548,Sea Panda,_sea_panda_,,imagine getting a like or a reply from him,5-6-2021,
549,ᅠᅠᅠ,justdarrennnnn,,man's gotta compete with marques in tech tik tok,5-6-2021,
550,byron,byronbytes,,I didnt know you had TikTok 😯,5-6-2021,
551,BAD CONTENT🥱FOLLOW,uh.shitbrownies,,@rasmusmygindpouls,5-6-2021,
552,xAishax,xaishax.atk,,@kaissarwolf 😂😂,5-6-2021,
553,Elijah (Harry’s version),harryswatermellon,,Yooo I watch your vids on YouTube! 😁,5-6-2021,
554,weeeeeee,strangeiam0,,i just saw mrwhosetheboss on my fyp... MY LIFE IS NOW COMPLETE,5-6-2021,
555,Cayden the Pianist,caydenthepianist,,I'm on techtok now? 😳,5-6-2021,
556,Andreas,.scirocco,,Caviar ran out of ideas 😂,5-6-2021,
557,『X』,x_asoom,,الكيمرا تطلع من فوق,5-6-2021,
558,ash,ashwud,,let’s go he is officially on tiktok,5-6-2021,
559,Ashlyy,ashy.as,,@rylrry_,5-6-2021,
560,Oisin,cheekytosser,,@joniknee What did he say,5-6-2021,
561,me,badoozi,,YESSS THE LEGEND IS FINALLY ON TIKTOK WOOHOO,5-6-2021,
562,A,muhdaidil077,,@lieonnelllawason,5-6-2021,
563,206 🐐s,dogeology,,HES ON TIKTOK!!,5-6-2021,
564,OTTERY,oterry0,,Wait are you that guy in youtube who helped me and us with launchers? Mr...smth i forgot,5-6-2021,
565,Joyce,j0yce73,,Try Huawei,5-6-2021,
566,Fiozzzzzzzzzzzzz,fiozzx28,,I've been watching your vids since your vid on the ipad or phone of u playing American football I swear it was your 2nd ever vid,5-6-2021,
567,Zenaku_Senpai,zenaku_senpai,,lmao you're just like lucifer,5-6-2021,
568,Unknown,heterjagelnouur,,everyone saying i cant believe he's on tik tok someone tell me who is this guy?,5-6-2021,
569,your mother💂‍♂️🇬🇧,nart..g7,,HE HAS TIKTOK?!?!,5-6-2021,
570,user3652236344873,sjueeney,,Jesus is love,5-6-2021,
571,ash,amaiasaa,,wow😁,5-6-2021,
572,YOUYOU,yourbro2408,,Bro i Watched All your Videos. Your like my favourite YouTuber,5-6-2021,
573,ekte.soss,sossegutt4life,,Whats ur next vid gonna be? I Watch all of ur vids,5-6-2021,
574,Bora,boraaaaa63,,Did he just say cu- 😳,5-6-2021,
575,hahahahahahaha • following,clarels_4421,,my bio is lit,5-6-2021,
576,Ur mum,user0276374748,,Who is he?,5-6-2021,
577,Demietry Thomas,demietrythomas,,camera quality consistency,5-6-2021,
578,jes,paardirsies,,Hi fake mrwhostheboss,4-6-2021,
579,Kohen Lau,kohen145,,YES YOUR FINALLY ON TIKTOK!!!!😏 YAY.,4-6-2021,
580,🤪,owen.org,,OMG YOURE ON TT NOW,4-6-2021,
581,sebastian,sebas.the.bebas,,@2021_tesla_model_x,5-6-2021,
582,vlada :),valorvla,,@clcrissa @urmxlody,4-6-2021,
583,Daniel Prikryl,milkbbussin,,Front camera?,5-6-2021,
584,lafnig.halaman,lafnig.halaman,,OMG MRWHOSETHEBOSS,5-6-2021,
585,bussinems cheems,ifardedsohard,,yay he s on tiktok my fav phone channel :D,5-6-2021,
586,jay z🦋,madarangjazzy,,@r3niii,5-6-2021,
587,its mee,gangstaofvienna,,SINCE WHEN YOU ON TIKTOK,5-6-2021,
588,pl33r,t1mothyya,,Wait you have a tiktok? Impossible,5-6-2021,
589,Khali5grapher,ucmkxvii,,"With that amount of money, you could an iPhone, a car and a professional grade camera and still have some money left to spend😂",5-6-2021,
590,Ramen,rameenn5,,I subbed to mrwhosetheboss,5-6-2021,
591,sean_588,sean_588,,Hi,5-6-2021,
592,yomamaisabij,kr0k0la,,What in the hell. the mf really had a tiktok. and i just subscribe to him yesterday.,5-6-2021,
593,Sheppeth,shepherdddd,,The iPhone is better,7-6-2021,
594,John Pitt,j_pitt123,,IM SUBBED TO YOU PLEASE REPLY,5-6-2021,
595,Conner,conner.lipke,,YOUR ON TIKTOK?,5-6-2021,
596,Jerry,lo_olo.ol,,@kennylin9 @jasonyanguan,5-6-2021,
597,akang,akang_v1,,@chloexpotatooooooo,5-6-2021,
598,shreenitya indur,shreenityaa,,LMAO,5-6-2021,
599,ghost.,linaa.1x,,U got TikTok finally 😝,5-6-2021,
600,Jordan Craig 🍌,sophias_boyfriend__,,@itsjohnoihdi,5-6-2021,
601,mattheww,_mxtthxww_,,oh my god your on tiktok,5-6-2021,
602,ⅽ𝑜𝑜❘,arvile69,,YOU HAVE TIKTOK,5-6-2021,
603,View Replies (167),luffytaroandzorojuro,,this real or I'm dreaming😳,5-6-2021,
604,Brandon Clark,ac1acd,,Guys you can skip through videos now using the bar at the bottom,5-6-2021,
605,Buris,burisbaby,,Finally he has a TikTok 😏,5-6-2021,
606,Buris,burisbaby,,I watched this YouTube video,5-6-2021,
607,Rend el,rend.ell_,,Bro u jus flexed a gold bar 😒,5-6-2021,
608,Waifu,drriftzy78,,Finally on tiktok I can't belive,4-6-2021,
609,Jarome Carroll,jarome.carroll,,The caviar scammers xD i check youtube everyday for you and watched every video love you dude as a homie xD😁,19-6-2021,
610,Trystan,astro_zues,,Why's is legit a Samsung s21 with a gold brick on the back,4-6-2021,
611,Yuchen,yxchxn.lx,,@jinandjimin4ever PLSS,4-6-2021,
612,Khalid_Diriye,khaalid.hajji,,wow,4-6-2021,
613,Suleiman abdi,sportprovider1,,Best YouTuber right now ngl,4-6-2021,
614,Bacon,baconz4life,,@tik_tok_raul 😂,19-6-2021,
615,ivana,lpouis,,@lawlietluv THE SUBSCRIBE AT THE END,18-6-2021,
616,I'm not actually american,texasgrandma_,,@0fxck.off0 this is my fav tech reviewer,18-6-2021,
617,Manuel ml,purpletheleftistguy,,eyo bro I'm a big fan,4-6-2021,
618,07_mustang,07_gt0,,i watch you all the time on YouTube,4-6-2021,
619,🫐,xmapks,,he’s here,4-6-2021,
620,Eiad,eiadelrawy,,I never saw someone so disgusted of an IPhone 12 pro max😂,4-6-2021,
621,Jason777,jasonmtz777,,That's a samsung 😳😳😳,4-6-2021,
622,Bruh,thatoneweirdkid48,,I HAVE WACHED UR CHANEL FOR SO FREICKING LONG AND UR NOW ON TIKTOK,4-6-2021,
623,Old name Stokxomics,stokxvfx,,😂😂,4-6-2021,
624,Verdigris,_verdigris_,,YOU GOT A TIKTOKKKKKKKK LESSS GOOOOOO!,4-6-2021,
625,ziaabdool,ziaabdool,,"Recipe for brownies:
1/2 cup butter
2 eggs
1 cup sugar
1/3 cup cocoa powder
2 teaspoon vanilla extract
1/2 cup flour",17-6-2021,
626,that_was_cringe_af,not_funny_12,,pov:the cameras behind he case,4-6-2021,
627,Cas Oomen,casoomen2008,,@julieeeeeeeeeee._,16-6-2021,
628,Not Oren,o2steezy,,who else has been trying to find him on here for ages then found out he wasn't on tt then found him on the fyp 😂😂,4-6-2021,
629,king.x7,k1ng.7x,,😂😂,4-6-2021,
630,A,air123433,,Live-streaming Logan vs Floyd 🥊,4-6-2021,
631,Kszaczuszka__,kszaczuszka__,,𝐏𝐨 𝐜𝐨 𝐤𝐨𝐦𝐮 𝐭𝐚𝐤𝐢𝐞 🇬 🇴 🇼 🇳 🇴,4-6-2021,
632,connor,connorahah,,@hot.ay. @isabella.d4 i feel bad for hriddhan,16-6-2021,
633,atomic,atomicclapz0,,my cat is Called simba,16-6-2021,
634,shushplease,popapot,,the man the legend himself is on tiktok now ayy,4-6-2021,
635,Rydell,rydellwtf,,Commenting on every vod I see,15-6-2021,
636,Baraka ❤️,bm42_,,@waleedmukhtar7,15-6-2021,
637,JATTFROMPB29,604.preet,,Lol wtf,15-6-2021,
638,Aaron Campbell,legendsneverdie0126,,how about that iphone and the newest Samsung?,4-6-2021,
639,ⁿᵒᵃʰ ᵇᵒˢᶜʰᵐᵃシ︎,noah.boschma,,bjt why does it have the camera app tho aha,4-6-2021,
640,Marcus,marcusholas_,,thats a phone case 😏,21-6-2021,
641,Reil,officialreil,,Welcome to Tiktok 😁,4-6-2021,
642,.,vunlerable,,NO WAY HOSAYY I LITERALLY JUST WATCHED YOUR LATEST VIDEO NO WAYYYYY,22-6-2021,
643,Liam,yourlocalwizardy,,@pinkayyz WHAT btw i love this guy I always watch em,4-6-2021,
644,Big Kenny Boi,mrbigboiboikennydaking,,BRO HES HERE,4-6-2021,
645,king_official12,king_officail12,,make a video reacting to my comment if its really u,4-6-2021,
646,Plague,life_of_plauge,,Now he can take over the world,4-6-2021,
647,💖Mojo💖,daweridbaddie_2007,,@severus_snape_11 @blooming._.blossom,21-6-2021,
648,meh,stickinyourbum,,Can you finally settle the Samsung vs Apple argument?,4-6-2021,
649,Aadi Kumar,babseh1234,,Does the legend say hi?,4-6-2021,
650,Igor.1b,igor.1b,,ye but u pay for gold like jewellery,21-6-2021,
651,_.debussy._,_.debussy._,,@dee.wai,21-6-2021,
652,R3H4N,itsyeboirehan,,"HES HERE, HES ON TIK TOK",4-6-2021,
653,Big Time,bigtimeuser,,THE LEGEND IS ON TIKTOK! The audio can use some help though...,4-6-2021,
654,Lucas,lucas..........1,,The legend is expanding over social medias,4-6-2021,
655,Ethan,blueblazexd,,@jessica__101__ @beans12131,4-6-2021,
656,Coralie,coralie.is.am.fressen,,@larosi7,20-6-2021,
657,pattypoo2007,fireburns08,,Why no camera 😂,4-6-2021,
658,Or,orangutanism,,Who’s the boss. Whose the boss doesn’t make sense because whose is possessive,4-6-2021,
659,Aram Williams,aw20070,,Why am I just seeing this account I love the boss,4-6-2021,
660,Suvam Supriya ❤️.14,munapathakkafle,,finally i know that he makes tiktok😂,20-6-2021,
661,Support,sirdank_s,,Am I the only person who has no clue who this dude is?,4-6-2021,
662,william pow,williampow2,,Let's goooo one of my favourite YouTubers is on tiktok😁,19-6-2021,
663,Idek,krazykrackhead,,This is the best video your made yet,4-6-2021,
664,Mario,mariosworld2k,,"The 170,000 dollar phone makes my face look better in photos",4-6-2021,
665,🔝,.leahwins,,@keturake,19-6-2021,
666,punisher,punisher12pd,,get this man verified !!,4-6-2021,
667,Hi,user697030968,,@not.lananabananna @lananabananna,19-6-2021,
668,JakePaulsBiggestFanBoy😫😫,agnargk,,SINCE WHEN R U ON TIKTOK????,19-6-2021,
669,AA✨FOLLOW ME🌙,krizianleemurio,,even your rich but you cant take a photo,19-6-2021,
670,Asad Rizvi,asadrizviiii,,when's the giveaway on the gold 😅😅,4-6-2021,
671,Jebrael Leonor PH,jebraelleonorph,,first time to see you on my fyp 😳,12-6-2021,
672,FRESHY ONLINE,freshyonline,,finally you on tiktok 😂,4-6-2021,
673,VØŁT_GØD,voltage_pubgmobile,,Yoooo it’s u,4-6-2021,
674,Sidd,sid__the_kid21,,@habibti_hamood,11-6-2021,
675,🇦🇿❤️🇹🇷,michofficial17,,170k is better 😂,11-6-2021,
676,Muhammed,y.t.x5_games,,i can buy 100 i phones by 100k dollar lol😂😂,11-6-2021,
677,🌻ONLY MARVEL HERE🌻,marvel.the.horse,,wait how am i following u if i didn't do it,4-6-2021,
678,Elle,ellexxyy,,𝔸𝔸ℝ𝕌ℕ 𝕆ℕ 𝕋𝕀𝕂𝕋𝕆𝕂?!,11-6-2021,
679,Bʟɪʟᴢ,blilzz,,@khaledmoayad37,4-6-2021,
680,Quavante Zingleton,bokkus2.0,,I was just watching your new video😂,4-6-2021,
681,Ibralove4life,sweedpool,,yessir my man is on tiktok,4-6-2021,
682,Emmaa,itookanarrowtotheheart,,@kxt1eee,4-6-2021,
683,nate,_natem24,,@mason_mvd_42,4-6-2021,
684,frisseguy,frisseguy,,if you can afford a 170.000$ phone you can afford a DSLR camera,4-6-2021,
685,Jebrael Leonor PH,jebraelleonorph,,its legit hes verified 😳,12-6-2021,
686,joshuareeve,_joshreeve_,,@jordanrobbin,9-6-2021,
687,Kiran,larkpcz,,He’s on tiktok 😳,4-6-2021,
688,fuck you all whores,ushy_gushy69420,,I wanna buy a gaming phone but I'm on a budget,9-6-2021,
689,Jake,jak3st4r,,@tomkitch6,4-6-2021,
690,Bree 𓆩❤︎𓆪,snookinz,,@1oveghoul,8-6-2021,
691,Mero :),omar.esd,,HES ON TIKTOK NOW?,4-6-2021,
692,Mari,justanormallazybish,,@gacha.luke.catty.sunset,4-6-2021,
693,Sam,samelge,,I don’t know. Those were some pretty impressive photos.,8-6-2021,
694,Elizabeth/Lizz <3,lizz_is2_awesome,,I'm a fan cant believe your on tiktok tho 😅,8-6-2021,
695,Jugoslavija,luka_memertf2,,ur on tiktok too?????,4-6-2021,
696,zara 🐍,zaraa_arianaa,,@gamersguidetopretty,7-6-2021,
697,Mrdoor44,mrdoor44,,Never knew you had a Tiktok,4-6-2021,
698,SebIsAPeb,sebisapeb,,A 20 min video into 1 short tiktok wow 😂,4-6-2021,
699,im cooler than u,danielthegiraffe123,,@ibelieveinsharknado PLS HE HAS TIKTOK??? I LOVE HIM SMM,7-6-2021,
700,Ahmad Ilham,peanut4526,,why you hate Samsung that much? I know that's just Samsung with something behind.,4-6-2021,
701,Snowflake Ace,snowflakeace,,Bruh is that actually you because I’m used to your YouTube content,4-6-2021,
702,.,nn_billuv,,I can tell the quality of you tic tacs will vary,4-6-2021,
703,Tik Toker,iamthewhenthe,,HES ON TIKTOK FINALLY,4-6-2021,
704,Deleted all my vids 😭🤒,ztwiceofficial,,FINALLY ON TT,4-6-2021,
705,loading...,i_want_money_lol,,Finally your on tiktok 😏,4-6-2021,
706,marc,marcisenergized,,no way ur on tiktok,4-6-2021,
707,Leonardo Samà,leonardo.sama,,THE BOSS,4-6-2021,
708,My guy,awkwardpersons,,YOUR ON TIKTOK BESTIE,4-6-2021,
709,Tik Toker,lvzxauq,,I WATCH YOUR VIDS ON YT EVEYDAY NOTICE ME🥰,4-6-2021,
710,Kai_san,adm1ral_kai,,😂😂😂😂,13-6-2021,
711,Kels,kels.4u,,I just saw you on YouTube yesterday!,4-6-2021,
712,entai wild,entaiwild,,@i_stole_yt_edits,4-6-2021,
713,Anuraag,thats___silver,,yoooooooo welcome to tt i love ur vids man 🔥🙏,4-6-2021,
714,Mr. Banjo,herprettyflowerboy,,FINALLY MAN HELLOOOO,4-6-2021,
715,Eyo peepeepoopoo check,impostor..._,,I am your first fan since 0 subscribers so please give me a phone,4-6-2021,
716,!,ayudalisha,,@jxss.bAAAAS IS ON TIKTOK,4-6-2021,
717,Lizette Diaz,lizettediaz34,,"@:@lizzdiazlr:@yuh_.3:✝️❤️DON’T IGNORE THIS ✝️❤️TURN TO JESUS!!
✝️ITS NOT TOO LATE !! ✝️REPENT FROM UR SINS✝️JESUS LOVES YOU(not forcing religion)",23-6-2021,
718,R_L_L_H_S,3wayy0,,That is just a summsag s21 ultra just is a gold case. I know because I have one,4-6-2021,
719,chandni,chandni.pee,,@varrsshiiii,4-6-2021,
720,I’m actually a fucking beta,peggedhawkswhenishifted,,HE'S ON TIKTOK AAA,4-6-2021,
721,Woah,sockhs,,I’m your 30Kth Follower Lez Go,4-6-2021,
722,Asphalt 8&9,yoursdadbelt._.2007,,BRUHHHH THIS IS SAMSUNG S21 ULTRA 😐,13-6-2021,
723,Sam Holder,samholder4,,it's so consistent 🤩,12-6-2021,
724,hooooog riiiiiider,monkeydluffy5646,,What ur on tiktok 😂😁😁😁😁😁😁😁 hairdressers best yt channel ever,4-6-2021,
725,skaterkid,skatemate.6,,OMG I CAN BINGE WATCH YOUR BIDEOS FOR HOURS,4-6-2021,
726,Lgame,lgame0143,,How it have the camera app but it doesn’t take photos 😂😂😂😂😂😂 dark joke,4-6-2021,
727,𝚄𝚛 𝚋𝚕𝚎𝚜𝚜𝚎𝚍!𓆉,ifollowbackin5secondz_,,why do I have a huge crush on u 😅😅,4-6-2021,
728,balls,leballsy,,Wait... he is on TikTok? 😳,4-6-2021,
729,♡,ordelia_c,,@ivreel HES ON TIK TOK,4-6-2021,
730,Kurt Gore,kgore421,,"Definitely worth 170,000 😂😂",4-6-2021,
731,mika2010,mikamika20100,,o have seen the vid lol,12-6-2021,
732,Techyboi,sniperdet,,The only reason it expensive is because of the gold lol,3-6-2021,
733,Tristan Blackwell,actualofficialtb,,YOOO I LOVE YOUR VIDEOS! honest adverts part 3?,3-6-2021,
734,walking L,fwesser,,my guy is on tik tok FINNALY!!,3-6-2021,
735,Baxter Boy123,baxterboy123yt,,OMG YOU ARE ON TIKTOK LETSSSS GOOOOO,3-6-2021,
736,one,onekingsin,,Reply to my comment if your real,3-6-2021,
737,Person,bravefinger53,,HELLO I HAVE BEEN WATCHING YOU FOR AGES AND I LOVE YOUR VIDS AND THIS JUST MADE MY DAY THAT YOU ARE ON TIKTOK,3-6-2021,
738,⠀ ⠀ ⠀ ⠀ ⠀ ⠀,vortex_vanquisherr,,55 seconds ago and already 16k followers,3-6-2021,
739,Charlotte,shreks_runny_sharts,,I was watching your vid yesterday on talal it was so interesting,3-6-2021,
740,طه,wtftaha,,@adi.dhina ur fav utuber is on TikTok adoiiii,3-6-2021,
741,HelloThere😉,ithinkurmad6,,Stop faking its and Android phone with a gold painted phone case😂,3-6-2021,
742,umerahmad2007,umerahmad2007,,what a boss I've been watching your YouTube for like nearly a year,3-6-2021,
743,michipolid,michipolid,,It's just a goldbrick you can't even hold it properly like common😬,3-6-2021,
744,spank me tengen,rbwarrs,,dude banks are so stupid. why keep all that money to yourself? selfish pricks,3-6-2021,
745,labulabuli,labulabuli,,omg finally king of tech on tiktok😳🥰,3-6-2021,
746,Community Guidelines,c0mmunityguidelines,,"ah yes took u a while, we all moved here now. yt is dead",3-6-2021,
747,What do I put🧍,perkwater,,finally on tiktok🥵,3-6-2021,
748,emi :),www.water.official.com,,THE KING HAS TIKTOK I'M SO HAPPY RN Welcome to Tiktok 🖐,3-6-2021,
749,HxH and Vinland Saga>,vinland.saga.is.peak,,Surprised no one took this name until now,3-6-2021,
750,IshanG,ishangonehal,,Yo do a handstand then I’ll believe this account lol,3-6-2021,
751,kevin velez,oi_luv,,"No way he’s finally on TikTok, you should repost the video about passionfruit!😁",3-6-2021,
752,itssDylan,_itssdylan_,,"First of all all of you guys are here we are og’s from now on, 2nd I subscribed as soon as I could",3-6-2021,
753,bonfra✌️,alebonfraaa,,@filippettooooo._ ben spesi,18-7-2021,
754,🎮,unkown__pubgm,,remember us the first few legends to folow you when you get tiktok famous,3-6-2021,
755,user4422682330186,bede_cos,,@moopanda64,3-6-2021,
756,v,sayyestotren,,"You, on TikTok? 🤔",3-6-2021,
757,.,hces,,can’t be the real one,3-6-2021,
758,Fares,904.faress,,i was here before he hit 10k,3-6-2021,
759,immaculate67,staimma67,,when I see you I remember a video about bitcoin on youtube😂❤love u,18-7-2021,
760,user6140802261045,icouldntthinkofanamebro,,here before this man blows up,3-6-2021,
761,Ismail Alom,zanyraven786,,Pls tell me this is the real deal,3-6-2021,
762,Random stuff,audlency,,Yess! You're finally on tiktok,3-6-2021,
763,.,_...maxx_,,Why hat das hässliche teuere Ding ne Kamera App,3-6-2021,
764,LukaZero10,lukazero10,,oml ur on tik tok now?!?!? holy i love ur vids!!!!,3-6-2021,
765,Joe mama,danthemanimo,,u have a tiktok I'm sooo HAPPYYYYYYYYYYYY!!!!!!!!!!,3-6-2021,
766,script,mrscriptixx,,he's on tiktok???,3-6-2021,
767,BMW E46 330ci,bmw_330ci,,YES BIG MANS ON TIKTOK,3-6-2021,
768,King Solo588,btecme,,Finally found him 😂😂,3-6-2021,
769,I,user681v9tsvcx,,Oh shit I’m his 7500 follower welcome to tik tok btw lmaoo,3-6-2021,
770,KnauffSZN,ffmtyp,,prove its you by saying smth that's typicall for you,3-6-2021,
771,Senthil Kafton,senthilkafton,,samsung s21 ultra is the best,3-6-2021,
772,sym,kevlsh,,He not verified bruh how😳,3-6-2021,
773,Mongraal is better,mongraal_is_better,,If he like my comment he is the real one ☝️😏,3-6-2021,
774,McFishley,mcfishley,,Bro I literally watch all your videos and Love them. Can’t believe u are on TikTok now,3-6-2021,
775,Oblivious_orange,smeshariki._,,You're the best.,3-6-2021,
776,LuffydaGoat,piece.anime0,,Noo wat😂,3-6-2021,
777,Joseph Seed,thev1rtuoso,,You just called me poor in 27 different language's..,3-6-2021,
778,Yunus,ymarikkar_03,,yooo Arun on tiktok,3-6-2021,
779,Yehonatan Margalit,yehonatanmargalit,,@binyamin504 @yosefkala,28-7-2021,
780,Dave,hzzhzhzhzhwjsks,,Followed since 4k ha,3-6-2021,
781,zyzz ist könig,yunu5sss,,didnt know you have tt keep it up your my fav ytber,3-6-2021,
782,Gustavo Fring,mr.sadguacamole,,YO ARE U THE REAL MREWHOSETHEBOSS,3-6-2021,
783,delta,anotherdelta,,the man himself is on TikTok! 🥳,3-6-2021,
784,Hi I’m TJ,thrasherboys_funkos,,Hi,3-6-2021,
785,Air?pod,airpodztv,,"HEYY! Please notice me, ive been watching you for a long time on yt",3-6-2021,
786,Raducu,raduqcelvestit,,OMG YOU ARE ON TIKTOK!?,3-6-2021,
787,Rashford,mustafaon240fps,,@mujtaba.mirwaiz @mino20201 @lamlamlove22,20-7-2021,
788,GabrielSvedlog,gabrielsvedlog,,Its not him,3-6-2021,
789,no❤,shutuppomgg,,OMGGGGG I STARTED WATCHING U TWO YEARS AGO AND NOW I FIND OUT UR ON TIKTK I LITUALLY WATCHED EVERY VID ON UR YT IN NOT JOKING LOL CAN I GET REPLY PLS,3-6-2021,
790,vaibhav,vaibhavprakash._,,DUDE GET VERIFIED QUICK,3-6-2021,
791,HxH and Vinland Saga>,vinland.saga.is.peak,,Finally your on Tiktok,3-6-2021,
792,hello,nadeemlol,,"i started watching ur vids , big fan luv u <3",3-6-2021,
793,.,koit_tamme,,But really iphone 11 has 12mp...,3-6-2021,
794,Jameson woods,jameson.woods,,I watch u on tt,3-6-2021,
795,ep,.eap0,,Let's go,3-6-2021,
796,Avery,stanloonasilly,,WAIT IFVSJFS U UAVE TIKTOK????,3-6-2021,
797,‍,kemonada,,POV : its the king of technology 😌,3-6-2021,
798,user9383872978269,if.u.breath.ur.gay2,,Guys it’s actually really😅🥰 this is he - I follow,3-6-2021,
799,Flick Toker,flas73332,,@cool846383772723,3-6-2021,
800,Zac,zacnuggets0,,I love your videos OMG I’m subscribed and I follow you on tiktok,3-6-2021,
801,videosthatmakeyoulaugh,videosthatmakeyoulaugh,,Can u pls reply I luv your vids😁,3-6-2021,
802,questerno,questerno,,"bruh, your on tiktok
sorry spelt it wrong bro",3-6-2021,
803,Motivation,thechamp_ali,,He’s on tiktok 😳,3-6-2021,
804,Can Ünal Turan,can_unal_turan,,Welcome to tiktok arun!!,3-6-2021,
805,Ryan -,theholyalpaca,,The legend is finally on TikTok. I've been looking forward to this... 😏,3-6-2021,
806,.,cal._the_dragon,,Yes bro I watch you all the time on YouTube liked the new vid btw,3-6-2021,
807,arda,ard_sah,,woahhhhhn HES ON TIK TOK NOW,3-6-2021,
808,The ghost of Kyiv 🇺🇦,gh0st.of.kyiv,,Finally one of the best tech youtubers is on tiktok,3-6-2021,
809,.yeetbooii,.yeetbooii,,OMG HES ON TIKTOK LETS GO MRWHOSETHEBOSS I LOVE YOU!! :)),3-6-2021,
810,Dhpg,.dhpg,,Pretty sure this is a fake account,3-6-2021,
811,boo,b00oo0,,@dinamarefatpour .,3-6-2021,
812,Xyro,xyro_4,,Please respond u recently started watching ur YouTube videos and I love them keep up the good work 🥰🥰,3-6-2021,
813,<?>,demonicc_,,I CAN'T BREATHER,17-7-2021,
814,Παναγιώτης Παππάς☺️👋,its_panos1001,,i love ur vids i am subbed to ur YT u are amazing ☺️💖💖💖,3-6-2021,
815,Jacob2223,jacob4411,,yooooooooooooooooo,3-6-2021,
816,joel! 💙💛,rjkul,,YOUR FINALY ON TIKTOK,3-6-2021,
817,Metsu,metsielu,,who's the boos😲😏,3-6-2021,
818,Karthik Dinesh,izkaedy,,YAAY HERE BEFORE THIS ACCOUNT POPS OFF 😭💕💕💕,3-6-2021,
819,TGMDragonツ,tgmdragon,,YES YOUR'E ON TIK TOK,3-6-2021,
820,Senor Suraj,user9477205957107,,finally u got a Tok too Leeessss gooooo🥰🥰,3-6-2021,
821,︎,mazensalmon,,@pasmala24,27-7-2021,
822,A,username864674,,I saw your video yesterday and it was really good!,3-6-2021,
823,.,mohzbi,,How are not popular there is no way,3-6-2021,
824,Cillyh,cillyh7,,The best YouTube’er in the world! I love it!,3-6-2021,
825,Karthik Dinesh,izkaedy,,LOVE YO VIDEOS MANNN !! 🦋💥💕 BEEN THERE WITH YA THROUGH YOUR JOURNEY TILL 7.4M 😭💯,3-6-2021,
826,Namn idk,boredmilkkk,,LOVE U ❤️Best youtuber no cap,3-6-2021,
827,AYUB muhamed 7,ayubmuhamed7,,welcome to tiktok,3-6-2021,
828,Aqil,aqil0.1,,yooooo i love your utube vids ur finally on tiktok,3-6-2021,
829,Wayne Ndungu,waynendungu1,,mans gonna be verified in the next 24hours,3-6-2021,
830,A,azn.59,,Bro Upload morw,3-6-2021,
831,hojiakbar_sadullaev,hojiakbar_sadulla,,bro my little brother watches you all day so I've grown accustomed to ur voice as if its one of my family members 😂😂,3-6-2021,
832,Pantex,pantex180,,Ur on tiktok now! 😁,3-6-2021,
833,ę🫶❤️‍🔥,efaz____,,HERE BEFORE HIS VERIFIED,3-6-2021,
834,💋,inasfv,,the king has finally made it to tiktok,3-6-2021,
835,Cxllen,cxllen7,,@grandadmiral_thrawn_ 😂,3-6-2021,
836,Karthik Dinesh,izkaedy,,IMAGINE IF HE REPLIED 😳💕💥🥺,3-6-2021,
837,Ahmed,_.astroxy._,,tell me something only mrwhosetheboss would know,3-6-2021,
838,I Don’t Know,mr.thumbs.up,,"Dude, welcome to TikTok! I didn't think this was legit until I saw your bio linking to your Instagram",3-6-2021,
839,eine nele,nele.1202,,@crazy.greti25,16-7-2021,
840,Restarted,restartedsoftware,,yo I've been a fan for ages great you have a tiktok!!!!!,3-6-2021,
841,_shroper_,_shroper_,,wait ur on tiktok finally?,3-6-2021,
842,astro,.luv4kai,,HOLD UP SINCE WHEN DID YOU GET TIKTOK,3-6-2021,
843,shh,favour1t.47,,"But $170,000 can buy Idk hiw many IPhone 12 Pro Max and @I'vnotmissedthejoke",16-7-2021,
844,Giannakis,_gogonakis_,,@kuriak1,17-7-2021,
845,⠀ ⠀ ⠀ ⠀ ⠀ ⠀Etton Lee Mercado,notxlee31,,this cool your on tiktok now,3-6-2021,
846,lmao,kendallboiikin,,"HES ON TIK TOK , man your videos are top teir",6-6-2021,
847,︎︎︎︎︎︎︎︎︎︎︎︎︎︎︎︎,heliified,,UR ON TIK TOKKK,6-6-2021,
848,r9sk,r9sk_,,No way you have Tik Tok,6-6-2021,
849,gawkgawk9000,juicylemon6.9,,why i'm on richtok?,6-6-2021,
850,certified diasese,certifieddiasese,,iPhone will die in 3 years,6-6-2021,
851,sexy_kakashi,sexy_kakashi,,try taking the fake case off,6-6-2021,
852,ThatGr3yDude,thatgr3ydude,,@tiktok verify him he’s probably the best person on Tiktok rn,6-6-2021,
853,sofi🌝,sofi.natvig,,I’m i the only who waa as it’s to eat the gold,6-6-2021,
854,Marv,tocxldmarv,,@darksixpath @bruh_momment745677,6-6-2021,
855,VonMiguel Eustaquio,aaron2ndelementalmaster,,I knew that already,6-6-2021,
856,Sports Aesthetics,sports_aesthetics02,,God is so so so so so so so so good even in the darkest of times,6-6-2021,
857,ThatGr3yDude,thatgr3ydude,,YES FINALLY MY FAVORITE YT PERSON IS ON TIKTOK,6-6-2021,
858,Khang Le,jasonkid1002,,"Bro is that the new 16k camera, the pixels are too advanced for us to see😂",6-6-2021,
859,SlightlyNamed,slightlynamed,,biggest flex lmao,6-6-2021,
860,McNugget.Main.243,mcnugget_main243,,since when did you do tik toks ! love your content,6-6-2021,
861,𝓹𝓮𝓫𝓫𝓵𝓮,ihategenderdysphoria,,"this cant be real, he has a tiktok? unbelievable",6-6-2021,
862,Gigu,deathgate3,,I could do a very funny duett on this one,6-6-2021,
863,09⁸87766⁵53´◔‿ゝ◔`)━☞(╭☞•́⍛•̀)╭,potsrhoyferi996,,whats your name on yt again?,6-6-2021,
864,nuts,andrew.s45,,yoooooo he's on tik tok,6-6-2021,
865,devancress921,devancress921,,did anybody else see that he was holding a gold bar,6-6-2021,
866,Devin Sharp,devinsharp5,,Yessssss he’s on tiktok!,6-6-2021,
867,Takito,takito_20,,I THOUGHT HE IS ONLY ON YOUTUBE,6-6-2021,
868,grace,strawberrylacegrace,,@aethermyth i thought it was a bar of gold 💀,6-6-2021,
869,L,st.blue4,,MISS THE RAGE⁉️I MISS THE RAGE⁉️I MISS THE RAGE⁉️I MISS THE RAGE⁉️I MISS THE RAGE⁉️,6-6-2021,
870,Huiiiii,thannju,,I miss the desk that stood on books 😞,6-6-2021,
871,ㅤ,p.c.0,,He is on tiktok!! 😳,6-6-2021,
872,.,..supremeguy,,People who think it’s real gold🤡🤡🤡🤡🤡,6-6-2021,
873,:),cesar.mtz.1,,2018..,6-6-2021,
874,Morgan,morgzxix,,I generally thought it was a brick of gold 😅😳,6-6-2021,
875,Dennis Mwangi,_law_key_,,finally you're here🙂,6-6-2021,
876,Queen Lee,queenlee.army,,He's on tik tok now,7-6-2021,
877,laulau,laure_beguedou,,Rich people have better camera lol,7-6-2021,
878,Ebenezer Asfaw,ebeni_xo,,tiktok just got fun. welcome boss.,6-6-2021,
879,Jahjah 😈💙💙,jaheemoutrayjus,,Yuh should take off the back if it didn’t have a camera why would it have a camera app,6-6-2021,
880,Iskndrrs,iskndrrs,,first time i see mrwhosetheboss in tiktok,6-6-2021,
881,Daniellia Irving,danielliairving,,He's on Tik Tok😭,6-6-2021,
882,manu,ibizateahouse,,I LOVE U,6-6-2021,
883,shoota*,shootahbk,,FINALLY,6-6-2021,
884,jux,juli_ang6el,,vcs ainda copiaram celularpor câmera mais pra falar a vdd a câmera do iPhone de 170 e melhor,6-6-2021,
885,Yukine from TMS,itsyukinetime,,Are you serious my brotha 😐,6-6-2021,
886,zugussy,zugossy,,CAN YOU DO A VIDEO ON THE SAMSUNG VIRTUAL ASSISTANT SAM,6-6-2021,
887,lil Nasc Wave,ntandocele466,,I'm a big fan of you,6-6-2021,
888,Travelle P,travellep,,...but does have aux???,6-6-2021,
889,Gr8 Grizzly,grizzlyb01,,It’s a phone case,6-6-2021,
890,pixel,pix3l_,,an actually good tiktok for once,6-6-2021,
891,Idk,gandhilover69,,Finally he has pants on,6-6-2021,
892,⚪️⚫️Vik🦅,viking.wn,,How can be really only 2 videos 😂😂 and 1 million on YouTube 😁,6-6-2021,
893,CE - 07TA 963120 Tri,im_just_bored70,,what is the use of the phone then,6-6-2021,
894,TENSHI,kanashii_tenshi,,also that phone is a Samsung no Samsung is that much this is cap,6-6-2021,
895,TENSHI,kanashii_tenshi,,how the fuck you gonna say it dont have a camera when it has the app,6-6-2021,
896,Stefan ✨✌️,httpsxstefan,,AYY HES ON TIK TOK,6-6-2021,
897,Nabil Alhammad,nabilalhammad,,i love the accent🥰🥰,6-6-2021,
898,FxkeGlxtch,fxkeglxtch,,New TikTok king 🥳🔥,6-6-2021,
899,zizifav-darky,yur_zizi,,omg I watch you on yt all the time thank god your on tik tok,6-6-2021,
900,Hallo_Welt!,bischi_is_no_dancer,,hes a grand memer,6-6-2021,
901,yooo,lowzers,,wait guys who is this,6-6-2021,
902,Ben Gordon,imbengordon,,"Ayyye!!!
he's on tiktok!🤩",6-6-2021,
903,ramonburrell13,ramon_who,,💀💀💀,6-6-2021,
904,bazilin,its.buzzzzz,,"Can you make an official announcement that youre on tiktok, cant believe this actually you 😅",6-6-2021,
905,Jakub,jakub_moudry94,,he has TikTok,6-6-2021,
906,Austin Cleary,parental_advisory07,,with that money I would have bought a house or a nice car I mean cmon,6-6-2021,
907,Tomi,cahyohutomo,,🤣,6-6-2021,
908,Valdini,valdini15,,is that an android in gold?,6-6-2021,
909,kuty,kristiankutarna,,the phone isnt expensive but the gold on it is 😂😂,6-6-2021,
910,MATIAS VELAZQUEZ,matiassvel,,Wtf is this,6-6-2021,
911,Toto Tominski,toto_tominski,,you pay for brand and look. not worth the money for sure unless u try to compensate for somthig,6-6-2021,
912,Georges Argy,xx_giorgos_xx,,y parent u veryfied dude,6-6-2021,
913,Emirhak Tan,emirhaktn,,@lil.ebrar,6-6-2021,
914,Victor🥰,xxshedurskinxx,,Who’s this,6-6-2021,
915,yes,lol_what73,,how the hell are you not verified,6-6-2021,
916,⠀ ⠀ ⠀ ⠀ ⠀ ⠀,zudotaki77,,666.6k likes...,6-6-2021,
917,ur bf yuki🚩,ur_bf_yuki,,@eltonjan015,6-6-2021,
918,Panda Blox,yea.idk__,,IVE FOUND YOU ON TIKTOK FINNALY,6-6-2021,
919,BLM,yeah_thatcurly,,Is this rly him,6-6-2021,
920,🤪Aukse🤪 🍪Cookie🍪,aukse.cookie.official,,I like your dialect😏,6-6-2021,
921,13 ? C'est pas bien 13,lushi.chunqiu,,@le.validateur,6-6-2021,
922,PanicRBLX,panicrblx,,"your on tiktok, yes",6-6-2021,
923,2 tablettia 3 kertaa päivässä?,anuspants,,come,6-6-2021,
924,Totonha,mariaantonia628,,@rafaelmiike,6-6-2021,
925,Andrei George Rlz Dima,andreigeorgerlzdi,,Bro that's not a phone that's a gold brick,6-6-2021,
926,Car,sodaegg,,come,6-6-2021,
927,Demon Slayer Edits/Facts,csr722,,bruh why not put ur name SAME AS YT FINALLY UR ON MY FYP,6-6-2021,
928,Josh,i_am__.josh,,That phone is too advance for us,6-6-2021,
929,Yk what to call me,def.not.oneal,,No,6-6-2021,
930,bostonking41,bostonking41,,real fans saw this on his shorts first,6-6-2021,
931,someone's alt,nokotwo,,FINALLY FOUND YOUR TIKTOK,6-6-2021,
932,spaceman,anastronaut.in.the.ocean,,well if you are rich enough to afford that you probally either have a private photographer or you don't have the time to take a picture,6-6-2021,
933,Flyastrowolf,flyastrowolf,,The thing is they are the same phone am I phone is that much,6-6-2021,
934,Anthony Corrado,notanthonycoolio,,@aaronatlastwastaken,6-6-2021,
935,andrômeda ✰,bubblegumbitch.666,,ur always on my yt page how can u be on my fy now 😂,6-6-2021,
936,ドクテルラ,yoda2face,,OMG I remember watching your best games for Android,6-6-2021,
937,H2K • MilanSIR,milan_bhandari44,,Who Is He,6-6-2021,
938,Zachary b,zan.posts,,he looks like he plays Ramsay on cw flash,6-6-2021,
939,MY james,myjamessss,,I didn't know you were on TikTok 😳,6-6-2021,
940,lovepup1902,queen_victora,,You’re on TikTok?,6-6-2021,
941,Alice Guerreiro,alice_guerreiro02,,STOOOOOPPP 😂😂😂😂😂😂,6-6-2021,
942,appleuser84286667,dababyy56,,Wait it has the camera app?,6-6-2021,
943,ltzz,lieutenant.s,,bruh just flip it,6-6-2021,
944,Jihad,jojomeno7,,Omg I watch all your videos my favorite ones are where when you buy things from wish,6-6-2021,
945,nemmondommeg,miterdekel,,"Apple after watching this video
More money from less technology?!😳😳😳😳😳
INVEST!!💵",6-6-2021,
946,furorgaming07,furorgaming07,,:hi aron good to see u here 😁,6-6-2021,
947,Yes,deadbaby45,,Omg stop this is epic😳 I’ve been watching him for like ever now,6-6-2021,
948,Hoover,aiden_hoover1945,,"it's a phone not a camera lmao what did you expect, if ya expect a phone to have a camera than theres something wrong with ya",6-6-2021,
949,sliver,slivrwith3rs,,YOOO HE'S ON TIKTOK,6-6-2021,
950,RonBillWeasley,ronbillweasley4,,"Evry where i go
I see his face",6-6-2021,
951,KAI,perfect_zkdlf,,Boss on tiktok??? nice,6-6-2021,
952,dan,danw1ghton,,why’s your voice so clean😳,6-6-2021,
953,mjar_x,mjar_x,,pov: es ist das iphone 20,6-6-2021,
954,JK_Jkob,xd_gr1nd3r,,Wait your on tiktok now😳😳😳anyways hi mrwhosetheboss😅😅😅,6-6-2021,
955,Shemziller,shemziller,,no wonder u were recommended,6-6-2021,
956,Ubaid,_ubaid_08,,does my man just hang around In a forest wearing a tux,6-6-2021,
957,Apple,1_unique_apple,,I was waiting tho 😂😂😂,6-6-2021,
958,mo,mo.0161,,It has a camera but the gold case is covering it,6-6-2021,
959,Vishesh,vishesharora_,,@arnav.narula @accounthil,12-8-2021,
960,`,hirolney,,YES YOU'RE FINALLY ON TIKTOK,6-6-2021,
961,ПΛMΣLΣSS,u.xmz,,damn i follow u on yt,10-6-2021,
962,Ali Dehghan,alireza.dehghan,,خخ,10-6-2021,
963,Hi,braith.waith,,I want to be the most liked comment,10-6-2021,
964,user9343550148505,shem609,,I can't believe this acc is real,10-6-2021,
965,︎ ︎ ︎ ︎ ︎ ︎,xyzrqze,,I followed immediately,10-6-2021,
966,Issahaku,issahakuyoboi,,I watch you all the time. You have tik took?😳,10-6-2021,
967,SWEARETIC,swearetic,,I was literally just watching your video then I come to see this first on my fyp,10-6-2021,
968,Kathureee <3,ayesteriiiya,,HE. IS. ON. TIKTOK. NOW!!!,10-6-2021,
969,NUTTY360,gil3126,,I'm sooooo happy your on til tok I watch you all the time,10-6-2021,
970,sir shmack a h03,bando_deluxe,,why dose it have a camera app then,10-6-2021,
971,Official,bmw_318i_f30,,for some reason it's a gold nugget rather than a phone,10-6-2021,
972,Hahahaha,yo_mamma_253,,… I forgot what I was going to say 💀✋,10-6-2021,
973,Grim Lord,lordgrim666,,oh he made a tiktok 😬,10-6-2021,
974,one day i will die,sparkytheprotogen,,[as],10-6-2021,
975,SmikeyXD,smikeyxd,,atleast the blacks look deep,10-6-2021,
976,🤡🤳,boostergold12,,dhar man?,10-6-2021,
977,ii2_dtr,dilligaf_469,,I never followed so fast,11-6-2021,
978,𝓙𝓪𝓻𝓮𝓭,jarheadoo,,OMEGA MART IS NOW OPEN!,11-6-2021,
979,@iiambabyblue,iiambabyblue,,who is he??,11-6-2021,
980,elianale608,elianale608,,remember just because it's more expensive doesn't mean it's better,11-6-2021,
981,MarkyBoy 456,markyboy456,,do s21 samsung phone,11-6-2021,
982,MarkyBoy 456,markyboy456,,vs iphone,11-6-2021,
983,Godw,0godwyn0,,no all I need Sam the samsung,9-6-2021,
984,I Was The Cameraman,iwasthecameraman,,finally 😂😂😂😂🥰🥰🥰🥰,9-6-2021,
985,Kevin_stun691,kevin_stun691,,its a cover,9-6-2021,
986,bananas are valid,pjseyer321,,OMFG HE'S ON TIKTOK,9-6-2021,
987,ItsMe_Zach,zek___1,,"i Mean its a gold bar afterall , not even a phone",9-6-2021,
988,lol lol,ghost146666y666yyyy,,𝓗𝓲 ℍ𝕚 ꁝ꒐ 𝙃𝙞 𝙝ł₦ł ᕼᓰ ᕼᓰ ዘጎ,9-6-2021,
989,Hâhá Háhá,itsmecurth3.2,,finally i found u🥰,9-6-2021,
990,[],naruto_uchiha235,,so you make tiktok as well,9-6-2021,
991,RS_,thelost.world,,I imagine if i could get you reply @mrwhosethebosss,9-6-2021,
992,androidquality,andr0idquality,,o,9-6-2021,
993,:),itzwoying,,No one gonna tell him?,9-6-2021,
994,ᡕᠵ᠊ᡃ່࡚ࠢ࠘ ⸝່ࠡࠣ᠊߯᠆ࠣ࠘,sickxchiqz,,😂,9-6-2021,
995,Angels🍄,ax.lau,,no because I just watched your videos last night😭,9-6-2021,
996,yo,veilsov,,it’s a business phone,9-6-2021,
997,Sob💜🖤✌🏻,saubia_ejaz6,,UR ON TIKTOK,9-6-2021,
998,👑 N U M A N 👑,numann_yt,,😂,9-6-2021,
999,Gereltbayar Gereltba,gereltbayar0,,ma rich boi got scammed,9-6-2021,
1000,Dylanurboy29647,dylancb69,,final I love ur YouTube video,9-6-2021,
1001,Dylanurboy29647,dylancb69,,s,9-6-2021,
1002,Amen_Bradda,amen_bradda,,"Romans 1:16 ""For I am not ashamed of the gospel, because it is the power of God that brings salvation to everyone who believes."" ✝️🙏",10-6-2021,
1003,🎃,i.eat.poeple,,mrwhostheboss,12-6-2021,
1004,Samrat Paudyal,samratpaudyal,,"But the price of that gold phone goes up, whereas down of that apple phone😂",12-6-2021,
1005,4b0vt_rblx,4b0vt_playz,,Oh wow so cool no camera😎,12-6-2021,
1006,Todd,the_man.himself,,"""170,000""
a samsung",12-6-2021,
1007,David Q,_unfaz_,,i finally i found u😭,12-6-2021,
1008,Hi,addisonraeisapigg,,You can give it to me if don't want to😏😉,12-6-2021,
1009,Navindu De Silva,navindudesilva5,,then why is there a camera app😅,12-6-2021,
