,Comment Number (ID),Nickname,User @,Comment Text,Time,Likes
1,Marc F.,marcf6,,Lange Weile in der EU. Lasst doch die Menschen und Unternehmer und Käufer einfach frei entscheiden. 😏,26-8-2021,2191
2,Imiak,imiakwolf,,"Ja, Apple geht es halt nur ums eine, eure Kohle. Wenn ich daran denke, wie viele Lämmer brav Apple noch nachrennen, lach ich mich kaputt 😂",26-8-2021,129
3,sebastianogrande6,sebastianogrande6,,Lightning ist auch der einzig gute anschluss. Der usb dschungel is doch nurnoch irrsinn. Apple machts mal wieder richtig!,26-8-2021,45
4,Gecko,gecko3693,,bin Android user aber lightning ist viel besser ladebuchse einfacher zu säubern wenn sollten alle auf lightning umswitchen,26-8-2021,23
5,Emily Oltmer,emmimai15,,Jeder kennt diese eine Schublade oder Kiste voller Ladekabel wo man dann versteht und nicht mehr weiß welches zu welchem Gerät gehört,1-10-2021,21
6,riese,riese.is.bulking,,bald kommt iphone wo du nur noch festplatte hast alles andere musst du dir vorstellen,26-8-2021,27
7,hott suche baiby girl 🥵🖤,ich.furz.auf.deine.muter,,"Der Lightning-Kabel ist echt hübsch, aber wenn er im Handy ist, sehe ich ihn doch nicht mehr😂 Er geht schneller kaputt, ist kürzer und lädt langsamer",26-8-2021,1
8,Karen Amaia Dilay👑,no.joke.karen,,"Ja guuuuut, dann kann ich halt in Zukunft halt kein tiktok schauen und gleichzeitig dabei laden.",26-8-2021,7
9,❤️,mts.laurena,,Neinnnn ahhh nix gut für lightning i will kein trash android di gs da IPHONE IS IPHONE UND HALT IPHONE🙏🏻,15-9-2021,7
10,issi.cool.issi,issi.cool.issi,,apple ist nicht aus der EU es kommt nie dazu,16-11-2021,1
11,OLB,olbmusic,,"Oder sie machen wieder einen neuen Anschluss, wofür man dann einen Adapter kaufen muss🔥😂",26-8-2021,38
12,Someone,kbstrd,,Ne junge ich liebe lightning,27-8-2021,9
13,Lanoitalia,lanoitalia,,was los Digga Ich hab bei meinem IPhone einfach Ein Usb c Anschluss bei Amazon gekauft habe Kamel. iPhone auf gemacht Hab Auch gleich neuen Klepper,15-11-2021,1
14,Editor✨✨,..bakugou_simpp,,Wie kann man so übergangsmäßig aus Apps rausgehen? Weiß das jmd?,26-8-2021,1
15,Fidel,fidel_frh,,Ich hab ein lightning ladekabel wo der anfang ein usb-c ladekabel ist also lädt sowieso auch schnell,1-9-2021,1
16,Cringe,x.hxrny.asf,,"Erst Kopfhörer Anschluss weg und jetz au noch das vlt :,)",27-8-2021,1
17,xXEdSheeranGamingXx,xxedsheerangamingxx,,Ist nicht so als hätten wir andere Probleme nein nein erstmal nen Gesetz für nen Handy Ladekanten raushauen,28-8-2021,1
18,Tobe,tobe_16,,Lightning is so viel besser usb-c hält bei mir nach 2 Monat nicht mehr,26-8-2021,6
19,Lena,lenalovesyou3000,,"@jxline.ilz @_lavra.fkt._ boar das wär voll wild, nie wieder Ladekabel mit nehmen müssen",26-8-2021,1
20,💩,ponschies,,@user.0731 belastend,26-8-2021,2
21,Julia,onlyjuliaaaa,,@vematic ich würd heulen,5-9-2021,2
22,JACK DEVIN,jackdeviin,,Es gibt wirklich wichtigere Sachen um die man sich in der EU kümmern sollte 🤦‍♂️,29-8-2021,1
23,i.baeumges,_hoffnungsloslol_,,"Kannst du mal deine Meinung zu Airtags bei Haustieren(Katzen) sagen, haben uns nämlich welche dafür geholt, war das ein Fehler?😅🥰",27-8-2021,1
24,Manuel Brunner,manuel_brunner_,,@huachmath_agrar genau des wos mia kred homm😂😂,29-8-2021,3
25,Stina,stina.908,,Lightning Anschluss kommt kein dreck rein sowie bei Typ c,6-10-2021,1
26,GANGSTA IST AM MIKROFON,dudeclan00,,warum machen die meisten Samsung handys keine Updates mehr?,27-8-2021,1
27,Justin,luzriplay,,es gibt sogar Tastaturen und Mäuse mit USB-C Anschluss,26-8-2021,1
28,GamerKeks234,gamerkeks234,,"Finde das gut, wenn alle das gleichen Ladekabel benutzen würden",23-11-2021,1
29,🦢,reidswifeeeey,,@iamstarshopping ne nh?,3-10-2021,1
30,jesus liebt dich!,chribi75,,und die schweiz?,27-9-2021,1
31,indiana_Yeet,indiana_yeet,,@derwobbler77 lul endlich,5-9-2021,1
32,Tier_girl23,anna.rsrp,,@offiziel_alicia207 viel Spaß dan,30-8-2021,1
33,Bardha Rexhepi,_einfach_fate,,@milka.stan0 was is das den,26-8-2021,1
34,ᵘʳ ᵐᵒᵐ,x.mxya.r,,@i.love.maya.forever och ne,26-8-2021,1
35,Cat Min,sadbutswag61,,@selinbre ufffff,27-8-2021,1
36,ILike_Frogs1,wir_sind_verloren_a,,Was sollte das auch bringen wenn alle die gleichen haben,5-10-2021,1
37,SINA,sina.lbr006,,Naja am Neuen Kabel is ja jetzt auf einmal beides dran 🤦🏽‍♀️aber halt kein USB mehr 😂,5-9-2021,1
38,yuuki,snzxfy,,Hab die selbe Kette 👀✨,4-12-2021,0
39,Dana.v.06,dana.v.06,,@i.jxline.i ne nh😂,30-8-2021,2
40,Ehhhh,maik.rud,,Was wohl auch passieren wird wenn i phone den Anschluss wechseln müsste,22-11-2021,0
41,jakobsabasch4,jakobsabasch4,,Ich hab mir ein IPhone 13 geholt da ist noch ein Lightning Anschluss was soll ich sagen 😭😭😭😭😭😭,22-11-2021,0
42,☭,imjoemama_dick,,Digga ich kann einfach mit dem Lade Gerät meiner switch mein Handy aufladen bald kann man damit einfach Autos auflsden,21-11-2021,0
43,Benni,benni39kr,,Was hat seine Kette zu bedeuten? Die Fraben,19-11-2021,0
44,pettitetier,pettitetier,,Oder ein Adapter?,18-11-2021,0
45,Alpi,MS4wLjABAAAAynXU3Y8_5my28JVjCPpTQZeI_bSXUplUWzM4Eh3Wh_6M5e2KF0nzMpBI95kIva0q,,Mein ipad pro hat diesen usb-c,18-11-2021,0
46,Christian Koser,007koser,,Das Apple Kabel ist der unerfindlichste Anschluss auf dem Markt eher sollte man den als Standard nehmen,17-11-2021,0
47,Mathematik88,mathematik88,,Darf man dann noch benutzen??,17-11-2021,0
48,Darkspeer,darkspeer,,Hatten wir doch jahrelang..... Bis die EU es rückgängig gemacht hat....,17-11-2021,0
49,sali.bonanis.hoca,ardify.drip,,deine kette😤,16-11-2021,0
50,derschnellelorin299,lorinuntersander299,,@nicoschneider07 @dominik2750 luagit dcheltla a,16-11-2021,0
51,Supremio,supremiomc,,Was passiert dann mit den alten iPhones?,16-11-2021,0
52,Tfm_official,time_for_mc_official,,Ich find es echt nicht gut wenn dann für Apple eine Ausnahme weil sonst werden die Apple Kabel warscheinlich teuerer oder garnicht mehr verkauft dass,16-11-2021,0
53,"Genau, der Törke",tarik.hyvn,,Wieso sind die ipad pros eigentlich mit usbc kannst du mir das erklären,15-11-2021,0
54,Deniz,deniz.w_17.09,,Hä Apple hat doch schon USBc Anschlüsse verbaut oder nicht,15-11-2021,0
55,Supra,ximtube,,das nächste iphone wird dann wireless sound haben,15-11-2021,0
56,✋🏼✨😴,ms.namenslos,,Ich hoffe nicht,15-11-2021,0
57,Anima905,animaofbnha,,haben dann auch tastaturen und mäuse usb-c?,14-11-2021,0
58,MemeHub.exe,memehub.exe4,,Uhm Jay wie sollen den aber die Power Bank von appel also die zum hinten dran heften wie sollen die aufgekaden werden,14-11-2021,0
59,xWheyx,xwheyx,,"bis die EU das beschließt, haben iPhones gar keine Anschlüsse mehr",6-11-2021,0
60,Ehhhh,maik.rud,,Und drittens will i phone den Lightning in den nächsten zwei Jahren eh abschaffen und auf charching beziehungsweise mac Safe umsteigen will,22-11-2021,0
61,Gaming Jonas780,mexifyyyfp_uwu,,Ich würde es feiern wenn der auflade ding an der seite ist,4-11-2021,0
62,S+F,audiedit0,,Last Apple in Ruhe ! 😂,1-11-2021,0
63,Alo,__.alo._,,sogar mein controller ist mit usbc man,31-10-2021,0
64,Holla die Waldfee,mashmondy,,Ich habe Geräte mit USB-C und Lightning und ich muss sagen das mir Lightning einfach besser gefällt. Muss man nicht verstehen is aber so.,24-10-2021,0
65,Philipp,cayopericofan,,Air pods benutzen auch den selben Anschluss wie die iPhones,24-10-2021,0
66,franzi,franzi.82,,@mert_0802 hatte schon hoffnung,20-10-2021,0
67,hotFireTruck5544,hotfiretruck5544,,Typ C gibt es ja in verschiedenen Versionen dann einfach einen Typ C Port der nur bei Apple funktioniert,16-10-2021,0
68,Daniel,daniel_lienad,,"Junge, ich komm noch aus ner Zeit, da hatte jeder Handyhersteller seinen Anschluss bzw Kabel,war das ein Abfuck. Wird längst überfällig..",10-10-2021,0
69,Veroxxxxx,veroxxxxx,,Und was passiert mit den alten,8-10-2021,0
70,User,dinonugels,,GEIL,8-10-2021,0
71,Raphael,rxphxel_06,,beim IPAD kann man den aber benutzen oder?,6-10-2021,0
72,ʕ•ᴥ•ʔ,keine._.ideen.mehr,,wo hast du die Kette her? 😁🥰,5-10-2021,0
73,Kein army🙅‍♀️🚫❌,keinplan..alta,,Das ist viel besser wenn das dann so ist,5-10-2021,0
74,Daria Morgan,_.tony._19,,anschlussssssssss😂,5-10-2021,0
75,D R,staffbullbuddy,,Adapter für 4€ und man brauch kein lightningkabel mehr 🤷‍♂️,5-10-2021,0
76,Micha,micha29_72_musikglut,,Und wieder setzt sich die schlechtere Technik durch.,5-10-2021,0
77,Hallöchen 💅,lara_ist_.cool,,jeder kennt es doch man hat eine Kiste voller Kabel aber nicht für dein Handy😂,5-10-2021,0
78,🧊,bootylicker946,,"wenn sie den anschluss wechseln ist es sehr viel geldverschwendung for alle leute, wenn jetzt leute 13 pro max kaufen und später ein anderes (1)",4-10-2021,0
79,Paul,paul.o.4,,In der Zukunft kann man IPhones einfach gar nicht mehr laden.muss man jedes Mal n neues kaufen 😂,3-10-2021,0
80,sputnik0001,sputnik821,,Lightning sieht nun mal besser aus.,3-10-2021,0
81,Lucy,llluuuccccyyy,,und wie hör ich dann musik ??? muss ich mir dann auch noch airpods kaufen 💆🏻‍♀️,3-10-2021,0
82,𝕃𝕖𝕟𝕚𝕚,leniimxrie06,,😅ich hab keins von den beiden,3-10-2021,0
83,mirhan_k22,mirhan_k22,,Die EU soll sich lieber um die Spritpreise in Deutschland kümmern,3-10-2021,0
84,Salome :),salome.brutscher,,@bestquackson @pauli_ned @lauraaprill meine Theorie pahahaha ich bin halt gut,3-10-2021,0
85,‍,emina.rt,,@saemmy0904 boar ne,3-10-2021,0
86,Marvin,marvin.141210,,Type C nicht USB c 🤬,3-10-2021,0
87,Anime_creator_0707,anime_creator_0707,,Hä es kann auch sein das USB c verboten wird,3-10-2021,0
88,Flo3252,flo3252,,"Ne bockt nicht, iPhone Ladekabel muss bleibe ist Legende",3-10-2021,0
89,,ichwillcaprisone,,Das ist genauso wie der caprisonnen PapierStrohhalm nur das es besser ist als davor weil ich habe kein Bock mehr immer für 50€ ein ladekanel kaufen,3-10-2021,0
90,Anfäger tagger 🥷🥷,tagger_779,,Nein bitte nicht,2-10-2021,0
91,MamutPaste,mamutpaste,,finde lightning besser als usb c 😌,1-10-2021,0
92,Lara_1234,lara_4.3.2.1,,Wenn dann müssen alle iPhone ladekabel,1-10-2021,0
93,Maximilian,nostagenameyet,,Ich hab extra ein Ladekabel welches alle drei Anschlüsse hat Lightning usbc und dieses alte da für Android,1-10-2021,0
94,Irates Tenebris,your.friendly.villain,,das iPad Air (4 Gen) hat ein USB C Anschluss,30-9-2021,0
95,Lia:),lia.thrx,,Bald habe ich 300 lade Kabel zuhause aber ich verliere sie tzd alle,30-9-2021,0
96,SimsLOST,simslost,,Mein iPhone 11 bekam nen Kabel mit Lighting und USBC,30-9-2021,0
97,Gacha_Clup_lw,gacha_clup_lw,,Ich habe auch den USBC Anschluss nämlich an meinem Handy und Teblet,28-9-2021,0
98,Gacha_Clup_lw,gacha_clup_lw,,Leute guckt auf seine Kette,28-9-2021,0
99,larsepp_1337,larsepp_1337,,"Das hat die EU vor Ewigkeiten schon mit Mikro-USB versucht. Jetzt erst ziehen sie mit USB-C nach. Wenn das durchgeht, Prost Neujahr.",24-9-2021,0
100,DerLogistiker,derwestdeutscheossi,,"Ich sach Ma so, is nich schön, aber wat willste mache.. auf der anderen Seite: die EU will Einheitliche Stecker seit dem 30 Pin Stecker….",24-9-2021,0
101,lllllllllllllll,whx.so.bxd,,geil,23-9-2021,0
102,Amyzxhl,amyzxhl,,Warum lassen sie es nd einfach so wie es ist🙃,23-9-2021,0
103,xX929playerDx WWESup,xx929playerdx,,EU: und das nächste wird das IPhone sein was wir verbieten 😂😂,23-9-2021,0
104,Alex 😋😊,sniek__1,,Wer kennt noch den alten anschluss vom iphone 4/3…,22-9-2021,0
105,Lusor_Fanpage089,lusor_fanpage089,,hä wenns nur noch wireless ist wie soll man dann aufladen währen man was schauen will dann muss man ja ander ladestation kleben bleiben,22-9-2021,0
106,🧡🔥Mr.Bean🔥🧡,mr.bean_fanpage.the.best,,Der runde Anschluss ist von Huawei 😏,22-9-2021,0
107,m.k. aus g.,michalk.78,,"Naja das Fallobst ist eh in 2-3 Jahren vom Markt 🤷 Die haben bereits bewiesen, ohne Jobs sind wir nix !",21-9-2021,0
108,Calibur001,calibur001,,Wird nie passieren.,19-9-2021,0
109,Min Min,__min__min__min,,Ich wäre froh darüber....,19-9-2021,0
110,Valerie Fäustle,valli1.1,,Besser ist es,18-9-2021,0
111,user9947377540004,malteli22,,In iPad von Apple ist schon usb Typ c,18-9-2021,0
112,Jana🤍,_lovely_devil_,,Als ob die Welt keine größeren Probleme hätte🤦🏻‍♀️😂,18-9-2021,0
113,Loic,loic.deverin2010,,Aber darf man noch ein altes handy mit dem anschluss haben?,18-9-2021,0
114,⚡️ Memes ⚡️,dailymemes.official,,Wo bekommst du diese Videos auf deinem PC?,17-9-2021,0
115,Luca,_luca_0714,,Chillig Schweiz gehört nicht zur EU😂,17-9-2021,0
116,René Trezinski,rene_trezinski,,selbst meine E-Dartscheibe von Granboard hat den USB-C Anschluss😁,16-9-2021,0
117,Granini04,berry4too,,Besser kein Kabel mehr. Noch besser kein Stromkabel. Wird wohl schwieriger.,16-9-2021,0
118,Damn Fam,anotherfatherlesschild76,,Jz nur noch Kopfhörer anschluss,15-9-2021,0
119,Martin Viet,r3d_burna1,,Leute Apple steigt eh um mein iPad 11 air hat auch usb c,15-9-2021,0
120,Kina,honigsicht,,Wie alle paar Jahre. 😂 Treibt nur die Wirtschaft an. Es wird sich nichts ändern. Freut euch auf usb d,15-9-2021,0
121,Natalie,lautilie,,Ich möchte die alten Probleme für die Politik 😂 die haben zu wenig zu tun um das richtige zu tun,15-9-2021,0
122,X91705,x91705,,Was is deine Meinung zu diesen 15.09 Videos? ._. @someone,15-9-2021,0
123,Adrian Geissler,adriangeissler,,Dann geht aber Apple pleite 😅,14-9-2021,0
124,Samuel,.rasen,,Oh nein eine Milliarden schwere hat wohl Existenzängste wenn die mal keine extra Millionen bekommen.,14-9-2021,0
125,swen,swen438,,Das war schon mal im Gespräch und nix passiert,14-9-2021,0
126,David Dörsam0604,baby_yoda_grrr,,ps4 crontroler auch?,14-9-2021,0
127,Mira,mira_alissa,,Xiaomi hat jetzt auch Ladekabel für Apple,14-9-2021,0
128,The Munin,xxthe_muninxx,,"IPHONE hersteller denken sich auch ur so ,,MONETTEN!!!!!"" 🙄",14-9-2021,0
129,Moritz.hn,moritz.hn,,Ipad mini hat usb c also das neue,14-9-2021,0
130,🏀🧡🛹💙,cxllxn.3006,,IPad Pro zum Beispiel benutzt schon USB-C,14-9-2021,0
131,Marcel,marzel129,,Lightning ist so viel besser und haltbarer. Man muss sich nur allein mal den Anschluss anschauen.,14-9-2021,0
132,bilal,MS4wLjABAAAAJ5q6epFgVEIDxto7_GKIiUQkr1OWnqRoGKrCHe4K8rkK6deQbHYZZtSzmYVW_f_p,,also ich finds ok wie es ist,14-9-2021,0
133,Jarne Lorentzen,jarne_l..17,,Wie gierig Aplle ja,14-9-2021,0
134,Zoe,zoegoesghost,,Mein ipad hat einen usbc anschluss,14-9-2021,0
135,Alex Gee,alexgee56,,Ich hab mal gehört das Apple vor Jahren schon ein einheitlichen Anschluss für alle wollte aber die anderen Hersteller dagegen waren.,14-9-2021,0
136,Elias Schwendimann,eliasschwendimann,,sie machen sicher einfach Apple Exklusive USB C Anschlüsse dass nur Apple Kabel IPhones laden können 😂,12-9-2021,0
137,Elias Schwendimann,eliasschwendimann,,und wie lange wollen die das schon einführen? 😅,12-9-2021,0
138,"refpO ,",refpo0,,ENDLICH,11-9-2021,0
139,Alexander Müller,odiniixzero,,umentschieden hat,9-9-2021,0
140,Alexander Müller,odiniixzero,,omg.....war das nicht schon Mal der Fall vor knapp 10 Jahren 😱 Vereinhaltikte Netzteile biss iPhone paar Jahre später als einziger sich doch spontan,9-9-2021,0
141,TortenBoden,tortenboden10,,Wie soll ich bitte am Handy sein während es läd wenn es auf so ner Platform liegt.,9-9-2021,0
142,Tiktok Durchgespielt,tiktok.durchgespielt,,"Lightning ist voll geil, man macht es immer first try ""richtig herum""",9-9-2021,0
143,Lombax__,lombax__,,geil,7-9-2021,0
144,Lena,probaly.lena_,,woher die Kette?,7-9-2021,0
145,pxuli__,pxuli__,,"Oder es läuft wie beim IPad Pro und du brauchst das Original Apple USB-C Kabel, sonst lädt es 3% pro Stunde 😅",7-9-2021,0
146,FIMEX,darecrusher,,Was wäre denn mit einem kommenden iPhone 13 das 5 Jahre oder 6 Updates bekommt ist es dann in Zukunft verboten 🚫 ??,7-9-2021,0
147,:(,carbonat_erol._.187,,Die Apple Handys noch teurer mit diesen Anschluss😂,7-9-2021,0
148,08,jungkooksmiilk,,@.arixna2 WIESO DIKKA ICH HEULE 😭😭,6-9-2021,0
149,daddy,natsu_4525,,Lightning Kabel sind vieeeel geiler als Usb-!Cf all,6-9-2021,0
150,pour toi,till_hfm,,Dann werden halt die iPhones teurer😂,6-9-2021,0
151,Franzi 🏁,itzzfranzi.dt,,Ich (Iphone-Nutzer) fänds üble praktisch,6-9-2021,0
152,Sasi✨,sasii189,,JUNGE ICH WILL MEIN HANDY NCOH LADEN KÖNNEN WENN DAS ANDERE KABEL KAPUTT GEHT💀,6-9-2021,0
153,Sarah,sarah.mo0on,,Wieso hat dann Apple einen usb-c Anschluss bei den neuen iPads? 🤔,6-9-2021,0
154,Luca,archivvonluca,,Einfach alle lightning fertig,6-9-2021,0
155,*Kein Name*,user748283723,,Das Tablet von meinem Vater(ist von Apple) hat USB-C,6-9-2021,0
156,Majorka,majorka.lenkerine,,und wo soll man dann die Kopfhörer anstehen oder gibt es dann wieder die normalen?,6-9-2021,0
157,Dome,__snow_____,,Kannst du erklären warum das zum Umweltschutz beiträgt wenn alle den selben Anschluss haben?,6-9-2021,0
158,Murat S.,murat_c.s._,,Ja ja Lizenz Gebühren ist prozentual hoch wie Apple Geld macht,6-9-2021,0
159,DPP Official,dpp_official.yt,,"Die wollen nicht ernsthaft solche Gesetze machen?! Das ist nicht deren Aufgabe zu regeln, welche Anschlüsse Hersteller verwenden",6-9-2021,0
160,Honsdompf,its.hons,,Aber das Problem ist: Geschwister. Meine Schwestern haben Android aber ich Apple. Ich bin bis jetzt sicher von ladekabel Diebstählen,6-9-2021,0
161,^^,aron.is.real,,Ich hab ne frage bezüglich technik: wieso gibt es bei bildschirmen immer diesen einen rot ton der immer verpixelt dargestellt wird,6-9-2021,0
162,RoyalKobra996,royalkobra,,"Braucht mich ja nicht zu jucken, bis ich Apple kaufe, fließen Flüsse aufwärts",6-9-2021,0
163,RoKs.StaR.iO,roks.star.io,,garantiert nicht,6-9-2021,0
164,sårçaśtīc,sarcastic_xc,,is ne gute idee,5-9-2021,0
165,Andrea,hexxe007,,"Mein Mann hat sich günstige Kopfhörer gekauft und hat da Lightning Anschluss dran, wie kann das sein wenn es kein Apple ist?",5-9-2021,0
166,tuerlich,tuerlich,,"Hab mein aktuelles Handy jetzt 1,5 Jahre und kann mich nicht erinnern ob ich je 1x ein Kabel eingesteckt hatte…🤔🤷🏻‍♂️",5-9-2021,0
167,bratwa738,bratwa738,,Aber usb c ist auch beim macbook,5-9-2021,0
168,lasse_r94,lasse9408,,Und wie schaut es denn mit Daten/Datei übertragen aus? für bestimmte Sachen oder Geräte kann man nur Daten in Form einer Kabel Verbindung übertragen.,5-9-2021,0
169,M a n d y 🤍,mandygrn,,Ich werde mir mit Sicherheit kein neues Handy kaufen,5-9-2021,0
170,TibetP,tibetp_,,Hallo Herr Spahn 😂,5-9-2021,0
171,TheSerbianWoody,theserbianwoody,,"Da der Hauptsitz von Apple nicht in der EU ist, kann es denken komplett egal sein was die EU Verbietet 🤷‍♂️",5-9-2021,0
172,who,_420.rs,,Endlich Einheitlichkeit,5-9-2021,0
173,this_is_samino88,this_is_samino88,,jetz nur noch so das man auch ein USB Anschluss nicht mehr falsch rein stecken kann,5-9-2021,0
174,.,4real.finee,,Finde samsungladekabel besser,5-9-2021,0
175,Steve Pretzsch,110520stolzerpapa231221,,wo ist mein Kommentar hin ?😳,5-9-2021,0
176,Simon Neumeier,simonneumeier,,Kann mir jemand helfen meine PS4 stürzt ab immer,5-9-2021,0
177,Bundeskanzler,official_bundeskanzler,,Geil einfach gar kein kabel genial,5-9-2021,0
178,user458698,herrderniemand,,Ich liebe das normale Apple lade Kabel bei allen andern Handys wackelt das immer so rum und bei Apple steckt der Anschluss immer perfekt,5-9-2021,0
179,Kosta1445,kosta1445,,"Vielleicht ist das das letzte iphone mit überhaupt einem anschluss, verdient iphone nicht schon genug mit deren 1000€+ handys?",5-9-2021,0
180,Lordkleinstein,lordkleinstein0,,Wenn Sie das machen werden eventuell weniger Leute iphone benutzen,3-9-2021,0
181,JoHHn_R,johhn_r,,Viel geiler ist: USB-C ist eine Erfindung von Apple. Mit den Einnahmen aus ser Patentnutzung zahlen sie also die Strafe für das NICHTnutzen von USB-C,2-9-2021,0
182,JoHHn_R,johhn_r,,"Das Gesetz, bzw die Vorgabe besteht doch schon seid Jahren… erst Mikro-USB jetzt USB-C..",2-9-2021,0
183,Chris,user76com,,Und es wird auch verschwinden das neue iPad Pro zeigt es schon jetzt da ist es nämlich schon so Kein Lightning mehr.,2-9-2021,0
184,.,unbekannt.t0,,@opfer_kind_ hä lol,2-9-2021,0
185,shemhamforash_28,shemhamforash_28,,Meine power Beats 🎧 pro lade ich auch mit dem Kabel,2-9-2021,0
186,Deniz,altundweise,,Stimmt das das apple usb c erfunden hat? wenn ja wieso verwenden sie denn nicht?,1-9-2021,0
187,Ben Bonfert,benbonfert,,Die auflade pads ist doch so zu sagen auch Geräte also dann auch usb-c,1-9-2021,0
188,Lenni,lxnni.361,,Oooo nööööö,1-9-2021,0
189,establishəd♾,33grad,,Kindergarten,1-9-2021,0
190,Yuii,yoki_hatsune,,"Dafür müsste man jedes usb Typ x Kabel erst mal gleich machen, es gibt Typ c Kabel die können nur laden und andere gehen da wider nicht usw",31-8-2021,0
191,Torben,torbs_is_dumb,,Meines bricht irgentwie immer,31-8-2021,0
192,.,stabel_lan,,seine kette😏😏😏😏😂😂😂😂,31-8-2021,0
193,user25614015289,m1a2r3i4o5hi,,Also ich habe mein Handy ( mit USB-c) jetzt schon 4 jahre und es funktioniert noch wie am ersten Tag.😁,31-8-2021,0
194,Marenitaet,marenitaet,,gab es nicht mal ein Gesetz das so war? xD,31-8-2021,0
195,Hellu,just.sxlinaa,,@iicloudy.sunshine das wäre so geil,31-8-2021,0
196,Elias,._.vielzulangweilig,,Hacken😳ist🤑zwar🙄nicht🤐Blau😂aber😏Hacken🥵sind🤒wie😅Menschen😷man🥰solte🤗sie😇nicht🤤nach😻ihrer🙈Farbe😈Verurteilen 😏,30-8-2021,0
197,From Me,s_bobbele,,"Lightning ist so viel besser. Der größte Pluspunkt ist, das in der Ladebuchse vom iPhone kein Steg ist der brechen kann. Zudem einfacher zu reinigen.",30-8-2021,0
198,Random Guy,random_trash_content_,,"Apple in a Nutshell: wenn es nicht genug Profit bringt, ist es schlecht",30-8-2021,0
199,Ella,._.edits._.time_,,auch die alten handys ?,30-8-2021,0
200,Mehlisa,moritzderknochenlose,,Die EU hat echt Langeweile kann das sein?,30-8-2021,0
201,Mo,deinvater979,,Danke eu,30-8-2021,0
202,Фаби,fabiano_082,,Als da die Cent Stücke auf dem Handy waren hat es schon leicht weh getan,30-8-2021,0
203,josi,josi.bkr,,ich finde lighting kabel viel besser,30-8-2021,0
204,Laura,classy_laura,,"Bin ich die einzige die nicht versteht wie man Handys sonst laden soll , kann jemand mir dass bitte erklären",30-8-2021,0
205,Felix Hauskatze,felixhauskatze75,,"iPad, AirPods pauschal ist der mega weil die Buchse keinen Steg hat welcher brechen kann um Endgerät.",30-8-2021,0
206,evilkittylein,evilkittylein,,kam nicht vor vielen Jahren (könnten schon 10 gewesen sein) schonmal so ein Gesetz raus? hab ich das geträumt oder wieso hält sich niemand daran?,30-8-2021,0
207,Augsburg,6un.known5,,Ihpone akkus gehn so schnell kaputt und sind so teuer kann ich sagen weil mein bruder ein ihpone hat,30-8-2021,0
208,Luca,puggig,,@gamer_star2020 Da Apple hat echt Probleme.,30-8-2021,0
209,jforever2004,jforever2004,,Warum haben die Ipad pros dann eig nen usb c anschluss! /srs,30-8-2021,0
210,l,iaminlovewithspiderman0,,hat die EU keine anderen probleme?,29-8-2021,0
211,Hi,einbenu,,"Hey Jay ,beim Apple Fortbildung Streit gibt es eine Entscheidung dass fortbilde Season 8 kommt,kannst du darüber berichten",29-8-2021,0
212,Marco🤍🦜,marco.vlogs6,,Nwin bitte nicht…lightning beste,29-8-2021,0
213,DerCrushVonDeinemGirl,jsnnis.knb_,,Aber ist gibt doch auch schon Ipads mit USBC,29-8-2021,0
214,suchstduwas,vapinvenom,,geldgier macht erfinderisch,29-8-2021,0
215,Änna Bänäna,annii923,,Und dann mein iPad,29-8-2021,0
216,Yumimeko,yumimekoo,,Hatten das thema am Freitag im WirtschaftsLK xD,29-8-2021,0
217,AnnikenYT 🎄,annikenyt,,@eliass123_4 LETSE GOOO Kein kabel suchen mehr,29-8-2021,0
218,:),jiojio0317,,Das wird doch eh wieder nichts,29-8-2021,0
219,Jonas Wiegmann,jonaswieg,,Das ist nicht der Grund…,29-8-2021,0
220,✨Ivy✨,the.poisonous_ivy,,Induktives Laden✨,29-8-2021,0
221,Alexandra,x_project_hime_x,,"Da bin ich mal gespannt was passiert, ich gehöre ja zur Gruppe Apple und habe ein iPhone 12 mini, warum Mini? Weil reicht doch, muss nicht immer groß",28-8-2021,0
222,M-K L,spionkuh9011999,,Und wieder mal geht's nur ums Geld 🥺,28-8-2021,0
223,TheBurnigMan,trendxmaster,,Ich persönlich finde das apple Kabel besser 😅,28-8-2021,0
224,Enis Dzoja Hodzic,uknown_dzoja_beats,,Mein IPad 2018 und Samsung s8 plus und Samsung s21 5g plus kann mit einen Akku Laden,28-8-2021,0
225,DVedits,psgneymar17,,Apple ist halt nicht jeder 😂,28-8-2021,0
226,PhoenixHD,phoenixhdeu,,Eventuell wir Apple nie ein usb c haben sondern wirllness aufladen oder das alte mit litning kabel (steh eher zu Apple nicht zu den Nutzern usb-c),28-8-2021,0
227,Florian Wonsik,flo291287,,Unser ipad hat schon typc ladebuchse,28-8-2021,0
228,Harry W,harryw1972,,die neuen Ipads von Apple haben bereits den USB C Anschluss,28-8-2021,0
229,Ben selti,mr.finchpoi,,Hmmm hab Grad Mal an mein iPad pro 2018 gekickt ohhh der lightning passt nicht ohhh usbc passt komisch 🤔,28-8-2021,0
230,Jallo,hahahahaha__27,,Lol wir haben das gleiche usb C Kabel 😂,28-8-2021,0
231,Dave,ghostopossum,,Der Lade Anschluss von iPhone ist tausend mal besser da man den selber ziemlich einfach reinigen kann ohne etwas zu beschädigen anders als bei usb c,28-8-2021,0
232,m,user2927910382,,was nein nein,28-8-2021,0
233,Leo,leo_with_mg42,,Das machen die nur damit man sich airpods kaufen muss 😂,28-8-2021,0
234,fsphil,fsphil,,Selbst ein neuer xbox Controller kann ich mit ein Samsung Ladekabel laden,28-8-2021,0
235,Jo Magic,jomagic,,Bieb,28-8-2021,0
236,🤝,hasero_19,,Muss ich mir dann ein neues Handy holen,28-8-2021,0
237,BMW M///,bmw__beastmode,,Apple wieder USBC ist einfach geil.,28-8-2021,0
238,Linus foxo,baltic_the_fox,,Deswegen werde ich nie Apple nutzen.😂,28-8-2021,0
239,Paul FFM,paulffm,,"Ich muss sagen, ich verwende jetzt schon nicht mehr mein Lightning Kabel. 🙈",28-8-2021,0
240,...,pedja.frankfurt,,Was ein werbung😂,28-8-2021,0
241,~biricik ❤️,biricik_ku67_,,@katja.050 Ehh ne,28-8-2021,0
242,alex<3,arschlexandra,,nö oder,28-8-2021,0
243,Prad Ariyan,pratheepkay,,Wer braucht schon Anschluss,28-8-2021,0
244,Lorenzxblz,lorenzxblz,,Schade ☹️,27-8-2021,0
245,julian,juliqxn,,Apple und EA so🤝,27-8-2021,0
246,Deafcoda.Fy,deafcoda.fy,,Bald gibt es kein Kabel mehr und dann muss man sich für viel Geld noch das Bluetooth auflade Gerät kaufen,27-8-2021,0
247,Simon says you are gay,semihatn55,,Ich mag dein content,27-8-2021,0
248,Hristijan,xristxjan,,@ayoo_nessy das meinte ich damit heute morgen,27-8-2021,0
249,Cᴀʟʟ ᴍᴇ Sᴘʀɪᴛᴇ,qwq.natso.koi._x,,Och nd denen ihr Ernst 😃💀kann man nd 1 mal alles so lassen wie es ist?😂💀😐,27-8-2021,0
250,Süßer Jungen name: MMAARRLLOON,xxder_krasse_klausxx,,"Grund Nr, 15 warum man sich kein IPhone kaufen sollte 😂",27-8-2021,0
251,LENNOX LOUIS,der_lennox,,Wie mache ich dann ein Backup per Kabel über meinen Mac ? 😳😅,27-8-2021,0
252,030.jxrry,030.jxrry,,"Die EU fordert das schon seit Jahren, dass iPhones mit USB-C Schnittstellen produziert werden, aber apple zahlt seit Jahren Jährliche Strafen",27-8-2021,0
253,.,blo0dy.gh0st_,,Boah neeeee,27-8-2021,0
254,T,tim___010,,Mein iPad air hat USB C,27-8-2021,0
255,Mid,ventichewinggum,,Meine Schwester hat sich ein i pad Air gekauft aber das hat ein usbc Stecker w a r U m,27-8-2021,0
256,<3,randam.acount,,Ich will mir deshalb jetzt aber kein neues Handy kaufen…,27-8-2021,0
257,kai,blvck_kvi,,tut mir leid aber diese Kette geht absolut nicht fit,27-8-2021,0
258,yamada_jako,yamadajako,,"Ich zauber nur ein bisschen
( ᴗ͈ᆺᴗ͈ )つ━☆ ･*。
⊂ 　 ノ 　　　･°
しㅡＪ　　　°。+ * 。
　　　　　　　　　. ･°
　　　　　　　　　° ｡ﾟ ﾟ･｡･ﾟ ﾟ
PIN das",27-8-2021,0
259,Cookiride,cookiride13,,Mein Anschluss hat Mini USB,27-8-2021,0
260,Philipp,philipp0220,,Junge nur schlechte Erfahrungen mit USB c gemacht ich will lightning behalten. Dann importier ich mir meine iPhones halt aus den USA oder so.,27-8-2021,0
261,𝖘𝖆𝖓𝖉𝖞 🔥🥷,russvxq,,@celina._.lovepizza NEINN,27-8-2021,0
262,UMSC MUSIC STUDIOS,umsc_music,,Was mit Micro USB?????,27-8-2021,0
263,A,afxszfw,,Find ich richtig so😂,27-8-2021,0
264,Nicht mehr zu gebrauchen,nichtmehrzugebrauchen,,Die EU kann mir so ein … was soll das ? Seit Jahren ist Apple bekannt für ihre Lightning Kabel,27-8-2021,0
265,ToMuchHentai,h3ntailord67,,Und was is dann mit denn kabelkopfhörern?,27-8-2021,0
266,Dr4kken,dr4kken,,aber ist nicht auch Wireless laden dann ähnliche Umweltverschmutzung? ich mein dafür Brauch man doch wieder ein extra Kabel/Station? oder nicht?,27-8-2021,0
267,Jens,xje.nsx17,,Ehm soweit ich seis ist das iPhone 12 mit usb-c,27-8-2021,0
268,Tunc61,tunc_ts61,,Wäre schon lit,27-8-2021,0
269,Ho,lookatmysexyname,,Auf einmal man kann das handy nicht mehr aufladen und man muss so spezielle baterien kaufen die 1000€ kosten zutrauen würde ich es apple,27-8-2021,0
270,mariella,.m4ri3lla,,"@ricluvsmary Ahhh das wär schon geil,weil ich dann bei dir Handy laden kann PAHAHAHHA",27-8-2021,0
271,🕷_🕷,kinglyyasin,,Ich mein beim iPad und 💻 haben wir ja usb-c oder nicht ? Wo ist das Problem wenn auch das iPhone das hätte 😂 Apple verkauft welche mit Profit,26-8-2021,0
272,Uwe David Horn,uwehorn1985,,"Korrektur, es ist ein Lightning stecker, Kabel is Kabel",26-8-2021,0
273,elson,elsonwuu,,hää was ist mit den alten samsung wie s7 die haben ja noch den alten Anschluss???,26-8-2021,0
274,Körki,packf1sch,,"@dasistjay was hälst du eigentlich von Apple, also eigene Anschlüsse Betriebssystem usw.?",26-8-2021,0
275,<3,user94h4hfezjw,,"ich finde den Anschluss von Apple viel besser tbh, den leihen sich meine Freunde nie aus 😀",26-8-2021,0
276,skirr,deruncooejunge,,Du hast,26-8-2021,0
277,Hi,xdxd1232,,geht es deinem PC gut im Hintergrund?😅😅,26-8-2021,0
278,Lace,stqrlqth,,was soll ich dann bitte machen wenn das Lafekabel Schrott ist,26-8-2021,0
279,Markus Leierer,markusleierer,,Radios noch nicht 🥺 die haben tlw. Denn alten Anschluss noch,26-8-2021,0
280,Martin Schönherr,mastermindpics,,Außerdem geht es Apple ums Zubehör und see Konnektivität. Und außer dem IPhone haben mittlerweile alle neuen Apple Geräte USB-C Ladestecker 🤦‍♂️,26-8-2021,0
281,Leander,l34nd35,,Ja moin Apple Only please,26-8-2021,0
282,H Y,hasanyildiz8080,,Das ist doch schon lange beantragt,26-8-2021,0
283,John Doe,derbenutzende,,Aha und warum haben sie dann bei ipads usb-c?,26-8-2021,0
284,-,madmaad030,,Davon wird doch schon seit Jahren gesprochen,26-8-2021,0
285,Leon😎,357leon,,"Ach das hört man so oft ob sie das ändern werden ist die Frage .. woran ich in den nächsten 2jahrwn nicht glaube ..,",26-8-2021,0
286,nichttemilyy,nichttemilyy,,Aber was ist dann mit Kopfhörern?,26-8-2021,0
287,Domii 🇦🇹💚👻,kapfii_xd,,Wenn nur noch MagSafe kommt müssen sie sich was einfallen lassen weil die Akkus sehr schnell kaputt gehen mit kabellosen Laden 🤔,26-8-2021,0
288,Joyce,joyce.fnc,,usbc geht aber nicht so schnell kaputt(ihr wisst lightning dings geht voll schnell kaputt,26-8-2021,0
289,Fabian,fabian_hh,,Bald einfach iPhone ohne Display,26-8-2021,0
290,Phararo,egyptian.king,,hatte dich voll lange nicht auf fy,26-8-2021,0
291,Mattheo Riddles wife,mattheo_riddlles_wife,,Kannst du nochmal ein neues Info Video über die neuen iPhones machen?,26-8-2021,0
292,Mcletsplay001,mcletsplay001,,Lightning einfach beste,26-8-2021,0
293,Ceborena,ceborena,,Kurze Frage: Wieso haben die neueren iPads dann USB-C? Wäre für Apple da Lightning nicht auch sinnvoller?,26-8-2021,0
294,Anani yan yatirip oynatirim,dereineausiizmir,,Apple sind solche Füchse hahahah,26-8-2021,0
295,LieYT,lie_yt,,wo genau ist überhaupt der unterschied zwischen beiden ausßer das der Stecker anders geformt ist? das Appel Kabel ist glaub ich etwas schneller?,26-8-2021,0
296,.,bbcrider1,,warum kriegt das mi 11 in manchen Games nur 30 FPS?,26-8-2021,0
297,The Slayer,theslayer08,,find ich gut allgemein find ich android und usb c besser,26-8-2021,0
298,korxye,korxye,,EU will gesetzt machen Apple: 🧢,26-8-2021,0
299,Ich esse kekse,baselischlife,,litnig ist viel besse,26-8-2021,0
300,Mo,offiziell.mo,,Die neuen iPads haben das schon,26-8-2021,0
301,🥷🏼,lara.oez,,@__leeenee__ wäre schon heftig wenn,26-8-2021,0
302,they/them,.itz.lao,,nice Kette :),26-8-2021,0
303,Robin Black,whaiuka,,Aber muss Apple dann nicht trotzdem einen USB-C Anschluss verbauen wenn das Gesetz kommt? Ich glaube nicht die anderen Hersteller bekommen MagSafe,26-8-2021,0
304,.,penguintome,,Wie lädt man dan,26-8-2021,0
305,XTXLukasXTX,xtxlukasxtx,,EU sonst nix zutun,26-8-2021,0
306,Lena,lena.luka,,find ich gut,26-8-2021,0
307,Chris,heavyzottel,,"Jaja die tolle EU 😴 selbst wenn‘s so kommt, wird das System halt so programmiert, dass es Dritt/Fremdanbieter Kabel erkennt und ablehnt.",26-8-2021,0
308,@,n0vvlsennaen,,"Daniel Drüsendieb, bist Du es wirklich? 😳😁",26-8-2021,0
309,Jeremy Jaberg,sniiiiek00,,Wie soll man dann Kabelkopfhörer verwenden🧐😂,26-8-2021,0
310,drwinter-live,drwinterlive,,"Das ist der Grund, weshalb ich kein iPhone möchte. Extrakabel ist lästig, wenn alles andere mit einem Steckertyp bedient werden kann",26-8-2021,0
311,Cripsey,crispeyxd,,gibts das gesetzt nicht schon?,26-8-2021,0
312,Vivi,_luuuuuuuucifer,,Endlich mal was brauchbares,26-8-2021,0
313,Suzan,syzahi42,,@sella.sl @hila.rx23 ahhh deswegen also😂😂😂,26-8-2021,0
314,user8369332881963,lynnlgbtq0,,Mensch ist Mensch egal wen man liebt egal welche Hautfarbe,26-8-2021,0
315,🤴❤️,ixs_florian,,Nein man,26-8-2021,0
316,HasteNichtGesehen,hastenichtgesehen1.0,,endlich mal 😁,26-8-2021,0
317,MelonhatWalter,ce0ofwalter,,Die denken auch echt das man Handys ohne Ladenschluss holt,26-8-2021,0
318,Micki zockt,mussfettkacken_hauptacc,,Die nehmen es einfach rauß irgendwann muss mann sich alle einzel Teile kaufen,26-8-2021,0
319,Thorsten Rusch,thorsten_r,,2. Runde.,26-8-2021,0
320,⁴⁴⁴,_nxra_0,,Nö,26-8-2021,0
321,Maja,sarah.killed.me,,In 100 Jahren kannst du die normalen IPhone ladekabel für 1000000€ einfach mal verkaufen,26-8-2021,0
322,Patrone,ezpatrone,,Ist USB-C nicht auch von Apple? Und kostet 1€ oderso?,26-8-2021,0
323,sempai,sskheg,,uhmm deine kette,26-8-2021,0
324,Maurice W,bloodra1n,,Hast es das nicht eigentlich schon vor Jahren bei Micro USB geheißen das Apple den auch verwenden muss? 🤔,26-8-2021,0
325,Max,max.finanzen,,Das wäre so geil,26-8-2021,0
326,Martin,inspiron85,,Wird nich durchkommen… Hatten wir ja schon mal so eine Diskussion. Praktisch wäre es ✌️,26-8-2021,0
327,Jenny Maus 🐅✨,jennysevilla98,,Selbst die neuen iPad‘s haben USB C wäre für iPhone auch mal gut so könnte ich auch einfach mal mit anderen Ladekabel laden schlimm wenn man aus,28-8-2021,0
328,Felix,felxbsr,,Quelle: dasistjay,24-9-2021,1
329,CUPRA 😈,cuprair,,RIP ans Apple Carplay,26-8-2021,2
330,CelinaYannik,henriques.12.10,,@celina.henriques1210 HEHEHEHEHEHEHHE,27-8-2021,1
331,dilara,dilara.ainr,,omg,5-10-2021,0
332,leon__flg,leon__flg,,Neeeeeee,23-9-2021,0
333,Jonathan bub,johnny_bubi,,Why,16-9-2021,0
334,NICO,deep.nico,,Maaaan,15-9-2021,0
335,MELINA 🦋,melinabout,,@alright__julia Wehe,7-9-2021,0
336,Marko G,marcusoho,,Wireless charging. Haha 😂,7-9-2021,0
337,𝒟,perleauskoeln,,filme,3-9-2021,0
338,lola,filu349,,nööööööööööö,28-8-2021,0
339,Gadse,gadsenwesen,,YAS YAS! NEED THAT!,28-8-2021,0
340,jasmin,jasminkbr,,@hanna_obr boah ne,26-8-2021,0
341,da_pazi722,da_pazi722,,nice,26-8-2021,0
342,tamara,tamaramuleer_,,Ne man,26-8-2021,0
343,rainbow_six_ siege_2,rainbow_six_siege_01,,handy lives matter 😂😂😂😂😂😂😂,26-8-2021,0
344,💌,teresalovebot,,@aychavert OMG,2-9-2021,0
345,andrethegiant77,andrethegiant77,,"Nice, wieder ein neuer Adapter 👍",26-8-2021,12
346,yfsz,yfsz,,Digga usbc bekommt immer wakel kontakt,22-11-2021,0
347,LUX,triqholor,,"Ja ok EU dann bezahl mir mein Ladekabel für mein iPhone 12 Pro Max, ansonsten leckt mich",17-11-2021,0
348,Goku Black,goku_black445,,Das ist aber doch viel geiler,16-11-2021,0
349,Ride_enduro,ride_enduro,,Dieser Anhänger uff,15-11-2021,0
350,bynma_jackson,bynma_jackson,,bald einfach keine Ladebuchse mehr lul,28-10-2021,0
351,Matt Monkey,matt_monkey_joe,,Wie kann ich überprüfen ob alle Kameras verbaut sind ohne das Handy zu öffnen?,14-9-2021,0
352,Alex,pianoistherhythm,,Mir egal werde mir eh kein iPhone kaufen 😂,14-9-2021,0
353,Sh_x_wn.mtb,sh_x_wn.mtb,,Besser is es,5-9-2021,0
354,Snickers,protobanana_,,Kabelloses Laden ist so viel ineffizienter. Außerdem hat es keinen Vorteil. Ich finde es sollte abgeschafft werden,28-8-2021,0
355,Kippenverleiher,brennholzverleih2.0,,müssen se schon. Apple zahlt die Strafe und verdient trotzdem 😅,28-8-2021,0
356,Niklas Holst,03niklas11,,Gibt es dann wieder eine Buchse für Kopfhörer? Also eine „normale“.,26-8-2021,0
357,Boom712004,boom712004,,Wird Zeit,26-8-2021,0
358,🤍Emmi🤍,leticiacharlize,,So ein Schwachsinn mein Gott ich kauf mir doch kein neues Handy dann bin ich halt illegal Leck mich... 😂,27-8-2021,1
359,.,.beesteez,,Ich Feier deine Kette… NICHT,26-8-2021,3
360,Shred,shredlifestyle,,Endlich!!!,26-8-2021,381
361,________,makesenceofme0,,LEUTE BRAUCH HILFE DER GEFÜHRTE MODUS IST ANGEGANGEN UND ICH HAB KEIN CODE also hab dafür nix eingestellt was soll ich machen ?,26-8-2021,0
362,baran,barannordrheinwestfalen,,find ich gut,16-11-2021,0
363,timur_,timur_7207,,Bist du pedaraz,14-11-2021,0
364,Jesus,jasutosu,,Digga seine Kette unfollow,5-9-2021,0
365,David,daviid.pkr,,oh die apple kiddies drehen durch in den kommis 😂😂,27-8-2021,0
366,за правду,ja_russ8,,Bist du lgbtq unterschtützer wegen der kette,27-8-2021,0
367,Charly.D,us.charly.lu,,Die Kabel sind ja Geschlechtsfremd 😂😂,15-9-2021,0
368,Fynn,fynn_gtj,,@jenny.kailer @patrick67948 was für ein Kindergarten mit IPhone,1-10-2021,1
369,Sharkbeast 138,rizon_,,Und schonwieder selbstsüchtige Iphone User hier am haten...,15-9-2021,1
370,Marla :/,marla_brd,,@emmel21 warum wird Apple jetzt scheiße,27-8-2021,1
371,Andrej P,andrejp04,,Die sollen einfach das Iphone verbieten,26-8-2021,1
372,Ehhhh,maik.rud,,Also erst mal kommt i phone nicht aus der EU😂😂 Und Lightning ist eh tausend mal besser nicht Staub und wasserangäölig wie die usb c scheiße,22-11-2021,0
373,Phini,followphini,,"Ich mag Apple, aber das mit dem Anschluss nervt extrem. Genau wie das fehlende Touch ID trotz 2 Jahren Corona und Maske.",16-11-2021,0
374,luca seng,lucaseng3,,apple will mit Schrott geld machen die machen bei hochwertigen ladekabeln ned mit,16-11-2021,0
375,Nix,zwiebelring1219292939,,Die c Kabel sind aber so kake die bekommen so schnell Wackelkontakt,15-11-2021,0
376,Julian david,ja7dee,,Wollen nur mehr Geld verdienen,13-10-2021,0
377,Fabian⚓️,itsmefxbi_,,Ich hasse Lightning. Bin so happy nächste Woche endlich weg von Apple🥰,9-10-2021,0
378,der_unbekannte146733,der_unbekannte146733,,dann soll die dreck* firma msl etwas weniger geld verdienen juckt doch eh nicht wenn die Pleite sind,8-10-2021,0
379,Alessandro,alxssxndro.44,,wireless Laden Dreck. einfach ineffizient ASF,7-10-2021,0
380,❌,user8262722727,,@ichmagnurdiesenjungen yau allahdan ich schrotte meine immer,3-10-2021,0
381,Some random shit,povforreal,,Kabel werden doch so oder so alle in China von Kindern hergestellt. Da ist doch auch der Anschluss scheis egal,28-9-2021,0
382,Ehrenmanndeluxe,ehrenmanndeluxe,,Schei Regierung,27-9-2021,0
383,schootwin00,schootwin00,,die sind ja auch so arm und verdienen fast nichts wieder ein - Punkt,27-9-2021,0
384,Capi Joz,kaci_pl,,Apple ist einfach nur lost und scheiße,27-9-2021,0
385,Labiumminus,labiumminus,,hoffentlich kommt das endlich das nervt unnormal das alle einen eigenen haben 1000 Kabel zu Hause,23-9-2021,0
386,Potato 🥔,lukas.der.kleine_spasti,,die Eu hat ja nix besseres zu tun,15-9-2021,0
387,helfmirvombaum,helftmirvombaum,,Bitte auch bei Schraubenzieher auch ist so nervig,15-9-2021,0
388,WaSS GEHt ABbbbbbBbbb,wazzzzzzzz._uppppppppp,,Alter iPhone was beliebt dafür das es anders ist und so und wenn es jt als Samsung oder so verkauft wird ist doch einfach mega scheiße,15-9-2021,0
389,ぼくの 黑暗 NY,_.noby_,,IPhone is blöd,15-9-2021,0
390,📋,deutscherreisepass,,Heulen die rum,15-9-2021,0
391,Kati,katiwohntinmuc,,Bro wieso redest du ao komisch HAHAHAH💀,14-9-2021,0
392,Der Fred,der_fred,,Gab es den kack nicht schon mal? Ein Anschluss für alle?,14-9-2021,0
393,An Glu,anglu5,,"ich finde es absolut nicht zu glauben, dass diese Firma immer noch ihre Kunden so verarscht und trotzdem immer noch Kunden hat.😳😳",6-9-2021,0
394,SweetSilence,sweetzsilence,,Apple einfach dreck😂,6-9-2021,0
395,Henni 🚎,._henni_,,Digga hat die Regierung nichts besseres zu tun,5-9-2021,0
396,ℍ𝕖𝕝𝕝𝕠,eistee.zitrone12,,Dieses Gesetz ist doch komplett sinnlos,2-9-2021,0
397,Biver,biver09,,"Also die EU scheisst ja immer mehr rein😂 Artikel 17, Lightning kabel verbieten… gefährliche Killerspiele wurde dort glaub auch mal diskutiert😂",30-8-2021,0
398,Nico Müller,nm950210,,Das gesetzt gibt es schon lange das alle das gleiche haben müssen nur juckt das Apple nicht und es wird Apple auch in Zukunft nicht jucken,28-8-2021,0
399,kevin_x64,kevin_x64,,"Der Typ Flasht mich immer wieder, denn alles was er bisher in jedem Video gesagt hat ist der größte Bullshit😂😂",28-8-2021,0
400,Seamancable,seamancable,,Als ob Europa da was machen könnte.😂😂😂😂😂😂😂 Lächerlich….,27-8-2021,0
401,Vanessa20,vanessahochdrei,,So ein scheis ich hab nur iphone ladekabel,27-8-2021,0
402,TIKTOK,discordsuchti,,ich benutze kein iPhone aber was soll das den für ein dummes Gesetz sein 😂😂,27-8-2021,0
403,Iiiiiiii bims tim,iiiiiiibimstim,,"Wie viel willst du nach Geld geiern?
Apple:Alles was mit uns zu tun hat🤚",27-8-2021,0
404,~Nico~,nicooo.x7,,"Was juckt die EU das denn, welches Handy welchen Anschluss hat??💀. Sollen sich mal lieber um ernstere Probleme kümmern ey…",27-8-2021,0
405,amyyyy278,amyyyy278,,Oh Gott nicht schon wieder irgend so ein unnötiges Gesetz also es wär schon cool aber junge wieso es ist so unnötig😂,27-8-2021,0
406,Jonathan Stern,jonathanstern3,,Apple ist einfach lost,27-8-2021,0
407,Martin Schönherr,mastermindpics,,Der Bullshit hat bei Samsung schon nicht funktioniert!,26-8-2021,0
408,Name Nachname,hierstehtmeinnamee,,Schwachsinn das sind nur Vermutungen.. natürlich kann ein Iphone mit usbc kommen,26-8-2021,0
409,bikersixtythree,bikersixtythree,,ich finde usb-c einfach nur scheiße die werden so schnell kaputt und beim Handy Wackelkontakt,26-8-2021,0
410,Matthew,rvnxlusormcbride,,„EU“ in Switzerland we say: 🥲,26-8-2021,0
411,Elias_maximoff,elias_maximoff,,@derwichsendeaffe wtf😳,26-8-2021,0
412,Jhgfff Julian,jhgfffjulian,,Wie geldgeil kann man sein,26-8-2021,1
413,Sus,tomedaiceman,,Apple einfach geldgeil af,15-11-2021,0
414,aviationplaytime,aviationplaytime,,Da haben wir es Apple ist geldgeil😒,23-10-2021,0
415,LP Flocke,lpflocke2212,,also darf ich als Entwickler nicht mal selbst entscheiden geilo top gleich Hartz 4 beantragen,23-9-2021,0
416,t0x1c 3m1l203,emilkekw,,Die sind schon Geldgeil😅,23-9-2021,0
417,Andy Schinchi,schinchi007,,Auch gut so ! Die drecks eu und ihre Regeln werden immer schlimmer 🤦🏻‍♂️,15-9-2021,0
418,kev_lga_1151,maou_sama_rimuru,,Apple nutzt Lightning nur damit sie mehr Geld machen können es gibt keinen geldgeileren Konzern als Apple😂😂😂,15-9-2021,0
419,dansy,user82826373820,,boah eyy die leute in apple sind auch nur noch geld geil🤦‍♀️,6-9-2021,0
420,Steve Pretzsch,110520stolzerpapa231221,,"Apple sollte einfach ""einen auf Intel"" machen und den Lightning Anschluss an USB-IF übergeben. Wie es Intel mit Thunderbolt machte. (1)",5-9-2021,0
421,It'saSecret,xxhenne93xx,,"Wie Geld geil wollen sie sein?
Apple: ja
Naja mal schauen was die machen",26-8-2021,0
422,Fluff,fluff.love.splatoon2,,geldgeil,26-8-2021,0
423,R🫂❤️,t.ra__,,Interessiert mich nicht. Bleib bei dem Anschluss 😌,16-11-2021,0
424,Ha-Jo,derskipper0711,,"Das ist genau das, warum ich mir niemals ein Apple-Gerät egal welcher Art zulegen werde: Proprietäres überteuertes Zubehör!",6-10-2021,0
425,dwayne9013,dwayne9013,,iPhones in Europa am besten verbannen. So wie Amerika das mit Huawei gemacht hat.,5-10-2021,0
426,Maximalia,maximalia89,,Ich habe noch nie apple gehabt. Bin mehr zufrieden mit Android. Ein Apple kommt mir nicht ins Haus rein.,3-10-2021,0
427,Sveñ,_sven_330_,,Hoffentlich bleibt Apple wieder bei Lightning 🥰,26-8-2021,0
428,Mama Gurke 🥒,yugure_dusk..pan,,Bin ich die einzige die bemerkt hat dess er ne 🏳️‍🌈 kette trägt,26-8-2021,0
429,pflegermeister,_pflegermeister_,,Das wollen die doch schon seit Jahren durchziehen 😅😅😅,26-8-2021,0
430,komischer_mensch,komischer_mensch,,Gottseidank bitte alles usbc,30-8-2021,1
431,Simon,simo0000000001,,Bin ich der einzige der das nicht stört 😂,29-8-2021,0
432,moritz.trtmn,moritz.trtmn,,"Lightning ist viel besser als USB-C, kein Connector in der Mitte der im Gerät abbrechen könnte. Bei USB-C schon oft gesehen. 1:0 für Apple 😉",27-8-2021,0
433,Gin,likeansweetangel,,@likethedevilbutme Bro WTF,27-8-2021,1
434,f i n a,fina.lroo,,@emmiii.ist.cool.hehe,30-9-2021,1
435,mllr_emy,mllr_emy,,@.leeeonieee,6-9-2021,1
436,Ben,benn_s_,,@x_emxl ...,3-9-2021,1
437,dragonfire64577,dragonfire64577,,@fxvja_,28-8-2021,1
438,Ananastasia🍍,anastasiavassilye,,@amxlix_19,27-8-2021,1
439,Valentina,valentina.lxr,,@luxy.lxr,26-8-2021,1
440,MIAROBBEN,miarobben,,@julee772,2-9-2021,1
441,jolina,jolina.xiv,,@Jannis Krug,1-9-2021,1
442,cookiesso,scared_ryze_,,😂😂😂,1-10-2021,0
443,Mette Borrosch,metteborrosch,,@marcoheidemann,15-9-2021,0
444,Chantie Twiix,chantietwiix,,@medusa2012,14-9-2021,0
445,finia,finia.mth,,@laura.swzz,5-9-2021,0
446,🏎Valerie🦦,valerie.f1_33,,💃🏼💃🏼,1-9-2021,0
447,🥃🚬,29.september.2021,,@luisa_schr,1-9-2021,0
448,Joke_noxy06,joke_noxy06,,@frag_eif_nich..t,1-9-2021,0
449,079.marie,079.marie,,@lisswhy,30-8-2021,0
450,ChristianHH90,christianhh90,,@cxhrr,26-8-2021,0
451,jemma19,http.jemmx,,@htpl_nxele,26-8-2021,0
452,ben2005,benlukas2101,,@jana_jxm,26-8-2021,0
453,International_guyy,bro_4life24,,34,11-10-2021,0
454,Baumi,baumi_ytcatlove,,@ciaranotfoundwastaken @hellorissi @nadi.xrose @anja_70 JAJAJAJAJJA C.C ICH HAB KEIN APPEL UWU,1-10-2021,0
455,Jason 9 9 9,_.officialjason._999,,Anschlusssssss,23-9-2021,0
456,LookAtMyDucks,dontlookatmysnickers,,@____sinus___ @lucas.pdls1 @holdmyschnitzel @best.stories0 Endlich,14-9-2021,0
457,hiiiii byeeee,bruh_this_is_my_ttname,,@yz_talhat0936 @i.like.old.moms @vsprayzx_s @detix.yt guckt auf sein Hals band,28-8-2021,0
458,wasgehtman1,wasgehtman1,,"🌖
🌗
🌘
🌑
🌒
🌓
🌔
🌕
🌖
🌗
🌘
🌑
🌒
🌓
🌔
🌕
🌖
🌗
🌘
🌑
🌒
🌓
🌔
🌕
🌖
🌘
🌑
🌒
🌓
🌔
🌕
🌖
🌗
🌘
🌑
🌒
🌓
🌔
🌕
🌖
🌗",2-9-2021,1
459,soph👩‍❤️‍💋‍👩,soph.grt,,@dani.gbr,31-8-2021,1
460,Vivien,vivienfocke,,@leniici,31-8-2021,1
461,lena,lena.klaeser,,@sophie.shbt,3-10-2021,1
462,angi,angi_0175,,@l_xpl,3-10-2021,1
463,Filiz_1234,filiz_1234,,"@j__tte00 :,)",1-10-2021,1
464,.,linh._.ngy,,@_dontkillmy_vibee,1-10-2021,1
465,engelchen04435,pascal.elmn,,@mira_skt,27-9-2021,1
466,Azen.06,ahsen06_,,@aleyna.rc,10-9-2021,1
467,𝙡𝙚𝙣𝙩𝙨𝙘𝙝𝙞🧸💗,http._.lentschiii,,@pan.kevkev,9-9-2021,1
468,elina,milkycatmommy,,@chiara_hbl,3-9-2021,1
469,Philip,overkillone,,@stefanies.photography,1-9-2021,1
470,robert kubesch,juergen8,,@juliee.rs6,31-8-2021,1
471,Yaren Alevii,yarenalevii,,@marnie_cherry,31-8-2021,1
472,xingquistoes,xingqiustoes,,@diggapenis @.sal.ly..face,30-8-2021,1
473,aram,aram_abed,,@s0mebody6969,27-8-2021,1
474,sarah,ssarahlein,,@14.milou,26-8-2021,1
475,elina,elinaa.1005,,@yasi_dz12,26-8-2021,1
476,Aylin,aylinnn_53,,@brokemario,26-8-2021,1
477,celine queensand 😻,mrs.queensand,,@stella.winterbow,26-8-2021,1
478,its_kit_owo,its_kit_owo,,@@absolute_uwunit,26-8-2021,1
479,dani six,dani.sixs,,@pg14smk,28-8-2021,2
480,Karbonat Erol,fabian_0670,,@granato_squad,19-11-2021,0
481,orkanozer643,orkanozer643,,@atacan_dlr,18-10-2021,0
482,(=,_.rand0m_.shlt_,,@.vibewithninaa 😬,5-10-2021,0
483,👽,.bonniesdog,,@.nobody.new,3-10-2021,0
484,🤍𝑦𝑙𝑎𝑖𝑛𝑒🤍,bruh____.2,,@uzrael_,3-10-2021,0
485,Laura,xlaurax.23,,@dianas_style97 😳,1-10-2021,0
486,LORENA,lorena.1905,,@lilli_119,1-10-2021,0
487,Krish_2003_,krish._.2003_,,@selobjk04 @sucukmitei007 😂😂😂,27-9-2021,0
488,c160c,c160c,,@nxno_edit 😏,23-9-2021,0
489,kikosa5202,chxyxnnx_14,,@joya_grb,15-9-2021,0
490,Wolf,gravitywolfmc,,@bens_hardware,15-9-2021,0
491,Artur Gein,nlgl.artur,,@paul_15__,14-9-2021,0
492,Samed4_7,samed4_7,,@toleyyyz,14-9-2021,0
493,Liam_,ja_be8002,,@lllaaati,10-9-2021,0
494,Batu98,batu98,,@jenniroth @immurat95,6-9-2021,0
495,What the Slime,zweischleim,,@edfrenkel,4-9-2021,0
496,Phillip ⚔🗡🌍,philmo.0,,@elemobo @lukasmorbach,4-9-2021,0
497,100%unormaler mensch,ichbinsus,,@imanbouu,1-9-2021,0
498,sg.tim.h,tim.263,,@janis_fri,31-8-2021,0
499,ᵐᵃʳⁱᵉˡˡᵃ,hrvaticaizbosneee,,@Ella🐙🤍,31-8-2021,0
500,hehme,verpisster.linker.hoden,,"🎛⬜⬜
⬜⬜⬜ LOOK I HAVE
⬜🍎⬜ IPHONE 13 pro max
⬜⬜⬜
⬜⬜⬜",28-8-2021,0
501,Leandro,leandro_bl,,@_giulien268_ 😳😳,27-8-2021,0
502,SHADOW,bokuto29374749,,@struction,27-8-2021,0
503,火SICkChiken火,sickchiken,,@zeeshan_309 @@phoenix_shajib,27-8-2021,0
504,sttn Arb,tba07,,@abcsosrofel @freedomsquad__fanpage,26-8-2021,0
505,Liam,theliamjay,,@flaktank,26-8-2021,0
506,Sarah,sarah_balu_123,,@itsme._.haily,26-8-2021,0
507,<3,hanna.prvtttt,,@hanna._.sntgrt,26-8-2021,0
508,𝐩𝐢𝐚 🌻,pia.wwh,,@lara._.mdg,26-8-2021,0
509,Hello❣️,...ich.liebe.essen,,@.https...dumbgirls,26-8-2021,0
510,Patrick Boe,il3g3ndxxx,,100 Micro usb Kabel rumliegen aber selbst meine e-Zigarette hat mittlerweile usb c,26-8-2021,0
511,Natalia Glinska,meinnameistscheisse,,@leonie_hueckels nice,26-8-2021,0
512,Kuromi,slut4divine,,@melody1.01,26-8-2021,0
513,NicDerEchte030,nicderechte030,,hübsches New Yorker T -Shirt :),26-8-2021,0
514,Exxa_2006,exxa_2006,,@nxxlx_stay_anime,26-8-2021,0
515,Leon,spotterleon,,nach wie viel Jahren?,26-8-2021,0
516,Franzi🌻,franzii0_0,,Und was ist mit Kopfhörer mit Kabel 😂,26-8-2021,0
517,(~￣³￣)~,moni_banane,,Xiaomi so: (~￣³￣)~,26-8-2021,0
518,🫶🏻,lxeox,,@d3qd.fr3qk_,26-8-2021,0
519,...,uncraftbar13,,Dann können die ja die Audio klinke wieder bringen haha,26-8-2021,0
520,I'm not perfekt,.juckt.mich.nd,,Nene,26-8-2021,0
521,Magda,m1gd1._,,@x_jenny07_x ne oder,26-8-2021,0
522,Nex_gen.media,nex_gen.media,,ey die sollten mal solch ein Gesetz für lochkreise beschließen... ganz ehrlich,26-8-2021,0
523,di_vem_tri,di_vem_ti,,Schade,26-8-2021,0
524,Lea,lea_.gbr,,Apple hat aber mit USB C angefangen bei den iPads,26-8-2021,0
525,︎,wasabiknallt,,USB c >,26-8-2021,0
526,Kurama Gang,reikoshinsko,,@alina015224,26-8-2021,0
527,…,guenter_1,,@kleines_karlchen_qwq,26-8-2021,0
528,Jana,quaxci,,Gibt es schon aber lol,26-8-2021,0
529,🇧🇦🇲🇰🇩🇪<3💞🫀,awh.that.xmelxna,,Bei iphone 12 ist es schon geändert,26-8-2021,0
530,Cedric,kranker07,,Aber ich habe nicht Lightning und USB C Kabel was habe ich dann?,26-8-2021,0
531,Real Deniu,realdeniuuu,,apple ist echt Geld geil,26-8-2021,0
532,MarauderHuhn,marauderhuhn,,"Hab mir letztens ein 3,5 klinke zu usb'c Adapter geholt, war einfach von Apple 🤷🏼‍♂️",26-8-2021,0
533,nome,x.nome.x_,,@_http.sxphye_,26-8-2021,1
534,Ercan 069,ercan.069,,@real.izanagi,26-8-2021,0
535,𝐸𝑙𝑒𝑛𝑎 ❦,elena.sphi,,Eine Sache auf die ich mich freue,26-8-2021,0
536,RYAAN,sayonaratomato,,@rblx.cyn,26-8-2021,0
537,Tim🤩💀,4real_tim,,@wunderkerze999,26-8-2021,0
538,I draw your pb XD,_ich_zeichne_anime_,,Seine kette 🏳️‍🌈 😴,26-8-2021,0
539,Snuki,snuki87,,diese Geschichte war schon mal und das klappte auch nicht 😂,26-8-2021,0
540,Kateara Skywalker,kateara.skywalker,,@viky_k08 gibt keine anderen Probleme 😂 danke Regierung,26-8-2021,0
541,Onk3l_Mo,onk3l_mo,,Wenn die nächsten iPhones ohne Kabelanschluss kommen dann ciao,26-8-2021,0
542,Emilie,emiii0912,,Mein MacBook Air hat diesen usbc 😳,26-8-2021,0
543,Mathias Gebhard,mathiasgebhardgaga,,Recht so. gehört sich schon lange,26-8-2021,0
544,Marvin Menke,diesdasshentai,,Ich sehe es ey Leute daht jamand powerbank mit Auflade Platte 😂😂,26-8-2021,0
545,Danil09SM,danil09sm,,"Ey,ich habe die gleiche Maus .Also gib die mir Zurück",26-8-2021,0
546,bosanac06,stjepan.06,,warum hast du eine lgbtq hunde Marke,26-8-2021,0
547,edo,edo.ks,,dann kauft keiner mehr iPhone 😂,26-8-2021,0
548,einfach einer,einfacheiner,,Besser wäre es,26-8-2021,0
549,⠀,iizukis,,Ich vermisse den jetzt schon 🥺,26-8-2021,0
550,🌻 s u n f l o w e r 🌻,flo.wer.coco,,jedes neune iphone hat usbC ahahah,26-8-2021,0
551,Mia3643,miaschaedlich,,Es gibt echt wichtigere Probleme als aufladekabel 🙄,26-8-2021,0
552,Petru Tube1,petrutube1,,blockiert wegen deine kette,26-8-2021,0
553,maxi_rehrl25,maxi_rehrl25,,Apropos iphone 13 wann wird es kommen?,26-8-2021,0
554,Jasmen,jasmenunterstrichmk,,Anschlusssss,26-8-2021,0
555,Sophie Luise,just.dripyyy,,junge nee,26-8-2021,0
556,me (・–・;)ゞ,just_me._.2008,,@antonia_liebt_pizza tja😂,26-8-2021,0
557,𝕷𝖊𝖆,lild3monb4by,,Hab Lightning und usb-c am Kabel gabs beim mein neuen iPhone 12 Pro Max jz kommt mir die Frage wie schließe ich jz mein Handy am Strom Hilfe ?,26-8-2021,0
558,David,david.485,,Wieso unterstützt du LGBTQ,26-8-2021,0
559,Eileen Wohlsen,eileenwohlsen,,Das würde vieles einfacher machen,26-8-2021,0
560,Alissa,alissasdiaryy,,Ich hasse USBZ 😬,26-8-2021,0
561,Benny,tory_kay,,Was läuft da eigentlich im Hintergrund auf den Bildschirmen? Sieht aus wie hacking 😅,26-8-2021,0
562,GREYFIVENINE,returntoheaven,,das 13 hat auch nur noch den Mag,26-8-2021,0
563,𝓃,.mayb3noeli,,ja geil,26-8-2021,0
564,Yannik Brumann,zombeecamper,,haben die das nocht schon mal versucht?,26-8-2021,0
565,Vanessa✨,xveniceeex,,Aber Hauptsache bei IPads machen die das xD,26-8-2021,0
566,elena,e123naa,,wie soll ich dann mein iphone laden ????????????,26-8-2021,0
567,D.R.,denise.ist.nicht.soeine,,@its.sylwia,26-8-2021,0
568,⚡️Gönn mal Follower⚡️,da_borti,,Warum machen dann nicht iPhones kalbel weil man kann ja in jede Seite rein den Stecker rein stecken,26-8-2021,0
569,Belphagor_TV,belphagor_tv,,Alter es reicht doch schon das es jetzt bei jedem neuen iPhone kein Adapter oder Kopfhörer dabei sind,26-8-2021,0
570,liana🇵🇹,lianaa.pt,,wtf,26-8-2021,0
571,✔️,lucas290100,,Deswegen habe die also diesen neuen Adapter,26-8-2021,0
572,Sina,sinaa213,,Haben die nix zu tun oder so um so ein Gesetz zu beschließen? 🤔 😂 😂,26-8-2021,0
573,Kadir,kadir_06.0,,"Usbc ist scheiße und geht immer schnell kaputt rede von erfahrung, bei apple es wackelt nieee hat nie probleme es bleibt immer fest",26-8-2021,0
574,Ardra goon,ardragoon,,Haben Sie schon mal versucht... Apple sagte nein...,26-8-2021,0
575,Maxi,maxpassch,,Die Regierung kann da eh nichts gegen machen,26-8-2021,0
576,🤍,antonia.luise06,,@zellron1 😂,26-8-2021,0
577,Lydia 💋✌🏻,lydiaxy,,Haben die nichts besseres zu tuen 🤦🏻‍♀️,26-8-2021,0
578,maria,maria.ani09,,Merke nur ich wie schlecht gekrümmt die Augenbrauen sind😂,26-8-2021,0
579,DeeWyned,deewyned,,Was ist mit AirPods,26-8-2021,0
580,Leni,quietscheente69,,@mxriie.shz,26-8-2021,0
581,maya,mayahafx,,@olivixam wäre voll cool,26-8-2021,0
582,checkmichjojo,checkmichjojo,,Es werden nur Probleme gemacht bei denen es keine Gibt,26-8-2021,0
583,Zᴇʀᴏ,z0.styll,,soll ich mir dann neues handy kaufen,26-8-2021,0
584,♥︎,mrs.medi.potter,,Ist doch kaka dann kannst du nd Handy zocken während es ladet apple eif dumm,26-8-2021,0
585,Sascha,dellsam_16,,Hab mein iphone längst auf usb-c umgebaut. Dauert 2 min …,26-8-2021,0
586,Helena🫶🏼,hgajic07,,BITTE NICHT,26-8-2021,0
587,Sewy,swyp1x,,Es gibt ipads von appel mit usbc,26-8-2021,0
588,MILCH_IST_GIFT_007,milch_ist_gift_007,,Omg warum zur Hölle war bei dir das + noch da 😳😳,26-8-2021,0
589,DaNiklas,daniklas1,,Kann mir nicht vorstellen das das EU „Gesetz“ durchkommt hat ja bis jetzt nicht funktioniert,26-8-2021,0
590,Flora,flora.sct,,ICH HAB SO VIEL GELD FÜR DIE AUSGEGEBEN BRO NE ICH BESCHWER MICH,26-8-2021,0
591,Daniel,dieserdanielman,,Frag mich nur warum die es dann beim iPad und Mac machen nur beim iPhone nicht.,26-8-2021,0
592,lana del rey🫶🏼,justgiveash1t,,Zum Glück hab ich erst ein neues bekommen aber das is iwie kagge weil ich mag Android nd und das wär dann blöd wenn man das nd mehr aufladen kann…,26-8-2021,0
593,.,1k3tze,,Oder dann kommt das nur die originalen usb-c Kabel von Apple funktionieren,26-8-2021,0
594,tiktokchatt.tt,tiktokchatt.tt,,wie kann man Windows 11 zu Windows 10 machen,26-8-2021,0
595,LUCKKINGBOS,luckkingbos,,Und was ist mit den die noch ein micro-USB anschluss haven?,26-8-2021,0
596,MakaveliTheKing,lars_kxrs,,@j3lade,26-8-2021,0
597,Mertkooo,mertkoo0,,Wettbewerbs Verzerrung,26-8-2021,0
598,Maximilian,maximilian_sdk,,Aber magsafe muss dann auch usb c haben,26-8-2021,0
599,Grab Mann,imnotdamjan,,vllt wird in der EU dann eine USB c Version kommen oder einfach eine version ohne ladebückse und dann nur noch Mac safe 😳,26-8-2021,0
600,Lorraine Ott,lorraine_ott82,,Ne ich will besonders bleiben 😂,26-8-2021,0
601,Og,algier_o.g,,@eqvz,26-8-2021,0
602,Tarak munis,tarak_munisss,,@rikus.str,26-8-2021,0
603,fatima,fatimaa.kld,,Nein,26-8-2021,0
604,꧁♛𝕀𝕥𝕫.𝕞𝕖.𝕐𝕠𝕦𝕤𝕤𝕖𝕗♛꧂,just_the.king0,,iPad Air ist mit usbc,26-8-2021,0
605,notdannyjeden,notdannyjeden,,"Das sind jetzt Vermutungen von dir gewesen, aber die wurden echt alles tun um dir den letzten Pfennig rauszuziehen",26-8-2021,0
606,Jacky,darkwolfi_19,,@xer_liebt_siex,26-8-2021,0
607,user1556788110431,ichhabemichumbenannt,,Wer hat eig Usb - C erfunden? halt hergestellt?,26-8-2021,0
608,rabea_458,rabea_458,,Nein,26-8-2021,0
609,Gefährlicher Rehmann,wilder_rehmann,,Jetzt machen sich die anderen noch drüber lustig aber es wird nicht lange dauern dass auch nach dem iPhone androidhandys ohne Anschluss kommen,26-8-2021,0
610,Jannis,kommentar_2,,😂,26-8-2021,0
611,Walking Dead,pustekuchen8,,Adapter,26-8-2021,0
612,sese5322,sese5322,,Ich die immer noch mini USB hat hahaha,26-8-2021,0
613,Hörler Livio,livio.hoerler,,Apple denkt ja nur ans geld oder wie😒 sind die Kunden denen egal?,26-8-2021,0
614,Simar,itachi_uchiha0773,,Bei ps5 haben die auch diese samsubg stecker,26-8-2021,0
615,Carla,user1173739738,,@anni_mdl,26-8-2021,1
616,Melissa,melissa_nbg_,,@nomidyagotmyheart o no no. o no no no no pls hahahhah,26-8-2021,0
617,danimilio1,danimilio1,,boahh bitte das wäre echt nice😂,26-8-2021,0
618,RB.Salzburg😈💪🇦🇹,rbs_salzburg,,Bitte nicht,26-8-2021,0
619,user7742856331302,carlosladong,,Ressourcen Management das ist wahrer Umweltschutz,26-8-2021,0
620,Marco DePeka,marcodepeka,,"Von mir aus kann appel ganz verschwinden
Ich finde appel is eh voll die Rohstoff Verschwendung",26-8-2021,0
621,Hi,official_car_boy,,ne ey,26-8-2021,0
622,blackdragonbs,blackdragonbs72,,Ich sage es immer wieder apple ist nur abzocke die wollen aus allem nur profit schlagen! Sag nein zu Apple und hol dir wascanständiges,26-8-2021,0
623,KZY🕷,787deen,,@phaces_yz besser so,26-8-2021,0
624,markewisz,unbekannter.99,,Wäre mal endlich gut,26-8-2021,0
625,Donik Asani,donikasani,,"iPhones werden niemals USB-C haben, weil USB-C gehört einer USB firma und Lightning gehört Apple selbst.",26-8-2021,0
626,Marcelo Walczako,marcelowalczako,,@jumix_btw,26-8-2021,0
627,Luca Kocsis482,thereaper9.11,,Finde ich echt gut😂,26-8-2021,0
628,ًًً,miros_yasti,,was will iphone noch wegmachen?,26-8-2021,0
629,Zenitsu⚡,beeturbo09,,@nelio.mtb,26-8-2021,0
630,grdhrvtsk,grdhrvtsk,,das ist sowieso die größte Frechheit von Apple so ne Extrawurst zu machen. sprechen von Umweltbewusstsein aber ihr kack Kabel extra kaufen,26-8-2021,0
631,user6385149002625,knockonheavensdoor90,,Das versuchen die schon seit Jahren 😂😂,26-8-2021,0
632,IrnehBirne,henri.dkn,,Erstmal mein Kabel für 1500€ reseller,26-8-2021,0
633,Backsteinkartoffel,backsteinkartoffel,,Die EU kriegt selbst nix gebacken außer alles zu regulieren.,26-8-2021,0
634,_____,pattrax_,,APPLE IST GELDGEIL,26-8-2021,0
635,مادين👑,unnamed_zivil,,@brohelan,26-8-2021,0
636,hi,digga.leon,,@lari_tiere,26-8-2021,0
637,🇦🇫,oreanoosh_hh_,,@javeed.42,26-8-2021,0
638,Ledina,vatherfvcker,,@sheytan1 och ne oder,26-8-2021,0
639,<3,cookieice23,,ich kann aplle zwar nicht leiden aber es wär zu schön für diese welt wenn sie einfach usbc und einen stinknormalen kopfhörer anschluss hätten,26-8-2021,0
640,/Jani/,jani.182,,Einfach wieder zu Samsung wechseln,26-8-2021,0
641,user5719106585932,dabeda27,,Ich der Ein IPhone habe Mid den Ganz Breitem Anschluss hat,26-8-2021,1
642,Tik Toker,no_lgbtq4live,,iPhone einfach kein Ladenschluss mehr 💀 😂,26-8-2021,0
643,JB,jasmin.bkr,,@m.x.am ich glaube ich Wechsel zu Android,26-8-2021,0
644,Ayça 💙,aycazehra_,,Dikka soll Jz jeder AirPods kaufen @meryemm.bln,26-8-2021,0
645,Torpi,torpi998,,alles klar alle handys bald mit lightning 😂,26-8-2021,0
646,lolplay_ch,lolplay_ch,,Seit etwa 10 Jahren gibt es schon die discussion in der Politik über den appel Anschluss,26-8-2021,0
647,Brotaufstrich,brotaufstrich4galaxy,,@zblueboss,26-8-2021,1
648,🖤Ilvy💚,its._.me._.lol._,,"Hab mein Lightning gestern geschrotet, er ist beim Laden runter gefallen. War dann verbogen 🥲",26-8-2021,0
649,ili,ili.io,,@heli0302 😳😳😳,26-8-2021,0
650,Luca.n,fall._.16,,hat oder wie das heißt,26-8-2021,0
651,Luca.n,fall._.16,,mich regt es auf das bei den neuen Samsung Geräten kein USB Anschluss mehr hat wie will man jetzt sein Handy im Auto laden wenn man keine auflade Box,26-8-2021,0
652,Schlumpi_020,schlumpi_020,,@yannik_lw,26-8-2021,0
653,Noah_EpicReal,noah_epicreal,,kannst du mal das Xiaomi redmi Note 8 pro for stellen,26-8-2021,0
654,Mina,inoko.chann,,lol sogar die Nintendo switch hat den,26-8-2021,0
655,°,t4st4tur3ns0hn,,Imagine apple macht auf ganz asozial und macht einfach Ladeanschlüsse komplett weg 😂,26-8-2021,0
656,Leon Eidelmann,leon.mtb07,,bin ich der einzige der auf die Uhr hinten geschaut hat und gesehen hab das er fast 20 min für den richtigen dreh gebraucht hat😳😂,26-8-2021,0
657,Onur,onur.aus.kirsehir,,Ich denke die Pro modelle werden usbc haben und die normalen lightning,26-8-2021,0
658,CEO OF LEHM,der_echte_lehm,,@harry4barryl,26-8-2021,0
659,IRⓂ️🅰️K,xirmak.s,,Hää und wenn ich ein iPhone mit den iPhone Kabel Anschluss habe dann passt der andere nicht HAHAHAH Bruh,26-8-2021,0
660,High&Hungrig,lukasrakikiraa,,Vielleicht können sie jetzt dann endlich wieder einen Kopfhörer Port reongeben 😂,26-8-2021,0
661,Max Knoppe,maxknoppe,,"Zulassen und es verboten ist ein ""App Monopole"" zuhaben stimmnnt das?",26-8-2021,0
662,Max Knoppe,maxknoppe,,Ich habe eine Frage. Ich habe ürgendwo gehört das Apple bald nicht mehr nur sein eigenen App store benutzen darf weil sie ja keine anderen App stores,26-8-2021,0
663,omaFLEXER,omaflexer,,@jasper_offiziell,26-8-2021,1
664,omaFLEXER,omaflexer,,@jasper_offline,26-8-2021,0
665,Hilde,h1_ld3,,@toostonedforthis420,26-8-2021,0
666,Hiro,hiro_hd,,@ericwoldt,26-8-2021,0
667,:(Mxfe):,mxfe23,,Ich hasse IOs,26-8-2021,0
668,Josi,j.o.s.i4,,@itx.anniii @ecct.cosi find ich Kake,26-8-2021,0
669,Anja,sammy_luki,,@bigounce69_,26-8-2021,0
670,jonas sidler,_.jonas.s._,,@nxcooo.b,26-8-2021,0
671,Mani Phönix,lycaner01,,Deshalb zahlt Apple ja seid Jahren mehrere Million Dollar Strafe,26-8-2021,0
672,Marvin,marvin_xc,,Wie viel langeweile müssen diese Menschen haben um sowas für die EU zu beschließen,26-8-2021,0
673,Tattoo Lumpi,tattoolumpi,,Super es ist auch zum kotzen das i Pad Pro hat usbc und mein Inwohnern Lightning… mag Safe ist aber auch geil,26-8-2021,0
674,💸😻,lillo.c0m,,@jlena_7,26-8-2021,0
675,Rina,.kiwii_lo,,Alles gut. Das nächste IPhone hat eh gar kein Stecker mehr 😂,26-8-2021,0
676,Nobody,mr.piddybuddy,,"Ich finde Lightning besser. Durch die Kerbe sitzt es fester. USB Mini und Mikro waren extrem wackelig, USB C ist besser, wackelt aber immer noch etwas",26-8-2021,0
677,Dein Vater,deine_mutter0699,,@anahatlangweile,26-8-2021,0
678,Simon,simon.fxrg,,Ich der USB-C hat😪,26-8-2021,0
679,Молдова 🇲🇩❤️❤️,_ghost_shot,,Apple in 10 Jahren :wir bauen den Bildschirm nicht ein weil die Regierung sagt alle Handys müssen einen neuen Bildschirm benutzen,26-8-2021,0
680,ｄａｆｕｑ,user7qc2pv571u,,"Wenn das wirklich so kommt, switch ich zu samsung oder so digga",26-8-2021,0
681,🦋,celina.hllm,,@arnr206 also bei meinem iPad ist so ein kack Anschluss alter,26-8-2021,0
682,John Bergmann,_weirdstupid.b1tch,,@lillyyyy.yyyy_,26-8-2021,0
683,𝓛𝓮𝓷𝓸 🎮,lenos.clips,,@karahenchen,26-8-2021,0
684,Use Code CCTGamer,btw.lehase,,"Wenn Apple kein lade Anschluss mehr hat, können Leute nie wieder während dem Laden spielen 😂",26-8-2021,0
685,Pascal Ni,qxscxy,,"Das iPad hat auch ein USB-C Anschluss. Das Problem ist, dass nur zertifizierest USB-C von Apple unterstützt wird.",26-8-2021,1
686,VZ,watsonszenere,,@merlefue was willst du mit nem Handy das du nd mit Kabel laden kannst tf?,26-8-2021,1
687,<3,06.ellaaa,,Ist halt auch sinnvoll,26-8-2021,0
688,Bodo Badur,user91704445,,Kann man verstehen 😳😳😳,26-8-2021,0
689,Fire Phoenix,fire_pfoenix,,"Die EU sollte lieber mal ein Gesetz machen das jedes Elektroauto, egal von welcher Marke überall laden darf!",26-8-2021,0
690,LC88,juser94,,Jaaaaaaaaaaa😅😅😅😅😅😅🎊🎊🎊🎊🥳🥳🥳🥳🥳,26-8-2021,0
691,Justin do be rustin',vandriphoven,,Apple so: No more iPhones for Europe,26-8-2021,0
692,floriza,ihateflatra,,@3somewithhangeandarmin,26-8-2021,0
693,👌,lexus94kas,,Perfekt 🥰,26-8-2021,0
694,Gabriela👼🏼,gabrielaallegra,,Unternehmerisch ist Apple unschlagbar.,26-8-2021,0
695,Pascal Lissl,pascl04,,ich finds besser wenns so bleibt dann kann kein android nutzer mein kabel schnorren😂,26-8-2021,0
696,Schninsch,schninscha,,"ich habe ein iPad Pro (11 Zoll 2 Generation) und es hat das gleiche Ladekabel wie samsung aber lädt mit denen fiel langsamer, wieso ist das so ???",26-8-2021,0
697,leonsolga,slg.leon,,@twinxu,26-8-2021,0
698,Marjana 🦋🍄🖕🏻,xxmustuxx5,,@laur.q1,26-8-2021,0
699,Beerdriver85,beerdriver85,,Endlich mal was sinnvolles,26-8-2021,0
700,Eggi,eggi_ldr,,@olgalinder,26-8-2021,0
701,DanFox22,danfox2222,,Kommentare einfach voll von Apple Jüngern richtig gruselig 😂,26-8-2021,0
702,Tim,tihay_05,,Schön das die EU sich Gedanken macht alles gleich aber fährt man durch die EU braucht man 100 verschieden Umweltplaketten..,26-8-2021,0
703,Semian Semmler,pupsgesicht_420,,Hab ein Ipad mit USB C,26-8-2021,0
704,leonoramtrz,leonoramtrz,,Man hat nix besseres zutun als sich um sowas zu kümmern,26-8-2021,0
705,Lale,lale_und_soo,,Das ist so sch€¡ße! Weil ich habe NUR Appel ladekabel,26-8-2021,0
706,.,12.07.20am,,Apple hat doch auch USB-C,26-8-2021,0
707,annalenaschaeche,annalenaschaeche,,"Ja wow das ist sicher das größte Problem, das wir haben 😂",26-8-2021,0
708,------------------------------,trainspotter.saalebahn,,Ist trotzdem affig das sie ihr eigenes nutzen müssen.,26-8-2021,0
709,Finn Töpfer,finntpf,,das hat die eu auch schon mit micro usb gesagt,26-8-2021,0
710,user3366101478217,karim_elmet,,HTOP + HOLLYWOOD linux in background TOP hahahaha,26-8-2021,1
711,The.Real.Zonk,the.real.zonk,,Dagegen,26-8-2021,0
712,💕Anna💕,ladyperfcy,,Nein ich fand das immer soooo schön🥺,26-8-2021,0
713,ncophn,ncophn,,Wieso hat mein iPad denn usb c so brauche ich trotzdem 2 Kabel für meine Apple Sachen 😕,26-8-2021,0
714,Tik Toker,sumolix,,Würde ich fühlen,26-8-2021,0
715,𝒜𝒹𝓇𝒾𝒶𝓃𝒶ꨄ︎,adrianayxq,,@.vanessamagdilana,26-8-2021,0
716,nina💕,nina_cpc,,@louisa_scnr HÄÄÄ,26-8-2021,1
717,pfiffi95,pfiffi95,,"mal blöd gefragt, i Phone verkauft keine Handys mehr mit ladekabel🤔 aber so ein Kabel bekomm ich für nen 1€ bei Tedi😂 also wo is der sinn😅",26-8-2021,0
718,Tom Biedermann367,tombiedermann96,,Wäre sinnvoll,26-8-2021,0
719,kevinskyderBoii,kevinskyderboii,,Die wollten vorm iPhone 5 schon alle an einem Strang ziehen mit Mini USB. Aufgrund der Nachhaltigkeit.. nur Apple so: mhm. Nö,26-8-2021,0
720,timtimstime,timtimstime,,ipad pro hat usb c,26-8-2021,0
721,Darina,vaiorah,,"Apple macht gar kein Anschluss, dann musst du immer wenn es leer ist ein neues kaufen 😏",26-8-2021,0
722,Steve,crazysteve187,,@leandro_miguel_morales,26-8-2021,0
723,mexx-hagen,rastachan69,,Das hieß es vor Jahren schon mal,26-8-2021,0
724,theUNDISPUTED,lvl99_klaus,,Das Intro ist immer lustig😂,26-8-2021,0
725,Handbier,handbier,,Geht in die Falsche Richtung. Das verhindert zukünftige Innovationen.,26-8-2021,0
726,Toki,_tokiii_,,Also ich fände es nice wenn man freunden leichter kabel leihen kann aber ich weiß jz nicht ob es notwendig is apple dazu zu zwingen 😂,26-8-2021,0
727,Celina-Liana 🏳️‍🌈,randomtrash.com,,Finde es ganz cool das Apple zumindest bei iPads schon usb c hat abgesandt dann müssen sie natürlich bei den Steckern wieder auf besonders machen.,26-8-2021,0
728,ToxicFox09 YT,toxicfox09yt,,"wir wissen alle das Apple nur geldgeil ist, wird sich auch nie ändern",26-8-2021,0
729,👤,lqu1q,,@itz.alxina degga das is wäre iwi geil weil du kannst jeden fragen nach lade Kabel,26-8-2021,0
730,Ilja_XD_Army,ilja_xd_,,Wo werden dann Kopfhörer mit kabel angeschlossen 😳😂,26-8-2021,0
731,Fab,fabonnieren,,"ich nach diesem video erst mal libro und 50 von diesen teilen kaufen, damit ich immer eine habe 😂",26-8-2021,0
732,Marlon,marlon.0815,,Wäre schon geil aber die EU versucht das schon seit Jahren deswegen denk ich nicht das es was wird,26-8-2021,0
733,STEEF GOOGER,wolzflor,,villeicht machen sie ein eigenes usb c Kabel 😅 und verdienen damit,26-8-2021,0
734,Sven,voodoo_koeln,,"Also was die EU da machen will macht mir Angst.
Weil sorry aber wie lange ist USB-c noch ein vernünftiger standart?
Und da muss ja auch mal was neues",26-8-2021,0
735,WHO knows,nevercryofaguy,,"Ich glaube was viele überhaupt gar nicht verstehen ist der Grundgedanke dieses Problems. Wir haben so Verdammt viele Kabel die wir gar nicht nutzen,",26-8-2021,0
736,die.geisterakten,die.geisterakten,,"das Gesetz gibt es schon lange, nur Apple kümmert es nicht. also erst schlau machen bevor man was postet",26-8-2021,0
737,Mathew@webster,ich_digga,,"Mein Handy hat schon des wireless aber benutz es nie, warum können die nicht einfach für alles USBC machen (schreibt man des so?) des wäre viel einfac",26-8-2021,0
738,Tim Meinhold,timm1108,,"Naja, aber Apple ist ein amerikanisches Unternehmen und muss sich nach amerikanischen Gesetzen halten. Klar gibt es EU regularien bezüglich kennzeichn",26-8-2021,0
739,Tik,kokakolsj,,so unnötig kauft einfach kein iPhone passt schon,26-8-2021,0
740,Elisa,elisa_dai,,"Äh, das ist doch schon alter Hut. Du bist 5 Jahre zuspät.",26-8-2021,0
741,Marcélo,xhamaloewex,,Ich brauch den Anschluss unten garnicht lade es immer über mag Safe was super zuverlässig ist.,26-8-2021,0
742,Kevin.21.,kevin_uckermark,,ich hatte mal ein iPhone 11 das hatte usb-c,26-8-2021,0
743,Leonie,leonie.swx,,@joey.rna 😂,26-8-2021,0
744,Yessir,onkelz.18,,Und wozu?????😂😂😂😂 Diese Logik 😂,26-8-2021,0
745,Kein Asimo YT,keinasimoyt,,besteht das gesetzt nicht so ? meines Wissens nach hat die EU Apple schon längst verklagt mit Geldstrafen ... PS Apple hat lieber gezahlt,26-8-2021,0
746,ShinyEevee,shinyeevee,,apple dann mit batterie,26-8-2021,0
747,Mr. Fe93,mr.fefe23,,Genug Apple Produkte haben usb c also red nein unsinn,26-8-2021,0
748,DrSchaefer,dr.schaefer,,Ich hab zwar Samsung aber ich könnte mir garnicht vorstellen nur mit Induktion zuladen....wie soll ich sonst mit fast leeren akku tiktok gucken???,26-8-2021,0
749,Capybara,fire_toast,,@mkw_jonas Das wäre geil,26-8-2021,0
750,Der Kommentator,_derkommentator_,,"Also wenn das echt so wäre und die nächsten iPhones keine Kabel Anschlüsse mehr haben, dann war’s das für mich mit IOS 😅",26-8-2021,0
751,reneX-05,renex005,,@faby_374 wie geil wäre das,26-8-2021,0
752,lilli,einfach_.lxllx,,@its_mee_fi_,26-8-2021,0
753,Fahrlehrermitspass,fahrlehrermitspass,,Was ist das mit apple car play?,26-8-2021,0
754,John Smith,smitty586,,"ohne Abschluss geht net, man braucht ne hardline zum entwickeln",26-8-2021,0
755,.,_irgendein.tiktoksuchti_,,Ich hol mir niemals ein I phone,26-8-2021,0
756,S<3,clamscliff,,eyyy dann brauch ich wieder 20000 versuche das kabel in mein handy reinzustecken,26-8-2021,0
757,konorado,nononononorm,,Warum die Kette 🥺,26-8-2021,0
758,𝑗𝑒𝑟𝑒𝑚𝑦,jeremy.schr,,"ich habe mittlerweile so viel lightning zubehör, i‘d cry",26-8-2021,0
759,Das_Mario,das_mario,,Finde Lightning besser als usb,26-8-2021,0
760,Flo,_flo_xxy,,@hellibean,26-8-2021,1
761,Franky,fxfranky,,Alle neuen Handys mit usb c auch ein Nokia ?,26-8-2021,0
762,Frozenlimex,frozenlimex,,iPhone stirbt einfach immer mehr hahahahah niemand will ein Handy mit nur wireless charger kannst es nicht mal benutzen während den Laden 💀💀💀,26-8-2021,0
763,tyro_LP,contenttofall,,die Switch sogar auch,26-8-2021,0
764,孫 悟空,master.257,,Was für ein Lightning McQueen Kabel,26-8-2021,0
765,Oggy,og40_,,@anelosh,26-8-2021,0
766,𝕷𝖎𝖚 ⛧,demons_liu.offical,,wie Langeweilg ist der EU bitte?!ganz ehrlich man soll sich um wichtigere sachen als Handyladekabel kümmern,26-8-2021,0
767,<3,carmenkovar,,@dannykovar,26-8-2021,0
768,Andi,andy_the_monk,,usbc ist 100 mal besser als lightning,26-8-2021,0
769,Apple User979793,user161895581050,,Gab schon mal so ein Gesetz. Also macht euch nicht ins Hemd,26-8-2021,0
770,P-Mango§887,mangohirn887,,Also gar keinen Anschluss mehr und nur noch airports usw 😂,26-8-2021,0
771,Manuel Wahrmann,xxbassrockxx,,ne ist rechtig das über all denn gleichen an Schlüsse rein kommen,26-8-2021,0
772,Nina Gyasi,nina.gyasi,,Hä? Mein iPad -mac air - arbeitest schon mit usbc,26-8-2021,0
773,Füge deinen Namen hinzu,.ac420ab,,nein wenn dann usb,26-8-2021,0
774,July..99,july..99,,Ich kan mein ipad UND mein Handy auf meinem ipad Lade Kabel laden hahah,26-8-2021,0
775,𝟏𝟎𝟎% 𝐁𝐨𝐬𝐚𝐧𝐚𝐜 🖤,aiman.089,,das wäre gut,26-8-2021,0
776,Jimmy,jimjimmy62774,,🙅‍♂️Atemlos🙅‍♂️Durch die Nacht🙅‍♂️Helikopter🙅‍♂️sind immer wach,26-8-2021,0
777,Miguel Ferreira,miguelferreira438,,Ich finde den Anschluss vom iPhone e besser,26-8-2021,0
778,Lars Hegele,larshegele,,"solche Egoisten, deshalb lieber ein Android Smartphone",26-8-2021,0
779,𝐸𝑚𝑖𝑙𝑦,juney.malfoy,,@melissa0805_,26-8-2021,0
780,𝐸𝑚𝑖𝑙𝑦,juney.malfoy,,Hab USB C😂,26-8-2021,0
781,eagle369,eagle3690,,"sind wir mal ehrlich: irgend jemand verdient auch am USB-C Anschluss.....
Also ein Schelm, wer Böses dabei denkt",26-8-2021,0
782,Liebe meine Familie❤️❤️,y.joshi0801,,Ist das nicht USB 3?zumindest nennt mein Vater die Kebal so,26-8-2021,0
783,Antonio Vega,antoniovega50,,"deshalb (unter anderem) werde ich niemals ein iPhone kaufen. Dieses EU Gesetzt gibt es schon, aber Apple scheißt drauf!",26-8-2021,0
784,-,va_1entin0,,"USBC ist auch von der Art und Weise finde ich schlechter als Der Lightning Anschluss, bei usbc kann viel mehr kaputt gehen und der Stecker ist viel(1)",26-8-2021,0
785,Nikolaj Schön,nikoschbb19,,"Fördert halt nicht den Wettbewerb, wenn man sich Strom und Daten Transfers anschaut sieht man, dass das lightningkabl nach 10 Jahren dem (1)",26-8-2021,0
786,zherooo,46zhero,,nein,26-8-2021,0
787,Maria❤️‍🔥,karma..is_.for.__youu,,Hä meine freundin hat ipad pro und die hat usbc und meine mutter hat iphone 12 Mini da war sogar ein usbc mit drin und usbc geht auch bei dem handy,26-8-2021,0
788,die_bananee,die_bananee,,@not._.karllllllllll,26-8-2021,0
789,Patrick,patrick20738,,Hauptsache das ladekabel vom iPhone 12 is usb-c aber gut 🤝,26-8-2021,0
790,Folge jeden zurück,chaos_man_47_,,@ich_brauche_einen_nameno hahaha 😂😂😂 viel Spaß ich habe schon,26-8-2021,0
791,Cookie tv,cookietv5,,Ich noch mit micro usb lädt,26-8-2021,0
792,inavlp,inavlp,,@evahcker,26-8-2021,0
793,polrmic,gunlover_military,,man sieht halt wie geld geil Apple ist😂,26-8-2021,0
794,ΛŁΞК,alekxolotl_,,Na ja die Stecker von Samsung gehen immer kaputt oder machen die Ladebuchse locker. Mit dem von apple ist mir das noch nie vorgekommen.,26-8-2021,0
795,Leon,leonkremer_,,usb c beste,26-8-2021,0
796,▼・ᴥ・▼,swezzy.lol,,@leni_132,26-8-2021,1
797,Nicho🇵🇱,nico_lewandowski,,Ist halt appel so gierig ich schwöre,26-8-2021,0
798,Kim Maschewski,kim_ma3,,Haben die nicht sogar schon ein I Pad mit c Stecker ?,26-8-2021,0
799,Diejek Eiekek,difigjfkskwnfnf,,Bin froh das Apple sein eigener Anschluss hat 👍,26-8-2021,0
800,Marco???,lil_deep_2004,,@i.h.y.4.e,26-8-2021,0
801,it'spoyii,itspoyii,,Ich der noch mirco USB hat 😅,26-8-2021,0
802,Luis,lluis1731,,Aber induktive Ladestationen gibt es doch auch von andern Herstellern oda nicht?,26-8-2021,0
803,KingJulieen,theghost952,,iphone 🤮🤢,26-8-2021,0
804,Herrscher_der_Hoelle,herrscher_der_hoelle,,induktion laden finde ich generell besser,26-8-2021,0
805,Tilli ❤️,tillihatdenbogenraus,,@rike.strs @pia.arp,26-8-2021,0
806,princessmiku_mia,princessmiku_mia,,Bye bye kabel Kopfhörer 😂😂😂,26-8-2021,0
807,Sir Singalong,why_are_u_reading_thizz,,"warum müssen andere ständig über sowas entscheiden, obwohl man angeblich nen freien Markt hat?",26-8-2021,0
808,Joh_m._ ☑️,joh_m._,,da merkt man wie dumm Apple ist. Denkt nur an das Geld nicht an die Nutzer. 🤦,26-8-2021,0
809,Sascha,saschalencer5,,Macht lieber Mirco usb,26-8-2021,0
810,Jörg Schwerin,schwerie421,,"Auch so ein Thema, dass es schon so lange gibt, wie Apple iPhones baut. Solche Forderungen sind nicht neu.",26-8-2021,0
811,Justin._.wgr,justin._.wgr,,Wichtig und Richtig,26-8-2021,0
812,nik,sorry.nik,,nein man lightning beste,26-8-2021,0
813,⠀ ⠀ ⠀ ⠀ ⠀ ⠀,toastbrotthereal2.0,,Am Ende:Anschlussss…,26-8-2021,0
814,Juli,wordsmanship,,Finde ich gut dass sich die EU u.a. für sowas einsetzt.,26-8-2021,0
815,Gg Gp,spuri055,,Aber ipads rausbringen mit c,26-8-2021,0
816,falkland,falkland2,,Waere es nicht besser gleich I Apples ganz zu verbieten? Appl phones werden eh verschwinden.,26-8-2021,0
817,🌃⛓💎🔪,lunaavirginia,,@nicojin.nyctophilia well,26-8-2021,0
818,🌙,leon.mahangshkarin,,"Bald verkauft Apple nur denn Bildschirm, denn rest müsst ihr kaufen und selber zusammenbauen.",26-8-2021,0
819,Dan,xdenthemanx,,Hört man seit 5 Jahren aber Apple hat immer gewonnen,26-8-2021,0
820,MrCracker,mrcracker..rpg,,Nein Mann dann Lutsch jeder Freund nach ladekabel,26-8-2021,0
821,M A,m.a689__,,Hat Deutschland keine anderen Probleme ?,26-8-2021,0
822,LilGeezusDoesRandomShit,geezusstr8outtahell,,Die EU muss natürlich wieder mit unnötigen Gesetzen reinscheißen,26-8-2021,0
823,Ya.mad.boy,yamadboy,,Kannst du bitte was zum neuen IPhone sagen ? Drauf warten oder das 12? Sorry falls du das schon gemacht hast und ich es übersehen hab,26-8-2021,0
824,______,deinsandblock,,"Apple Mitarbeiter eben so: ein Handy ohne Anschluss, wo man sich den für 200€ dazu kaufen muss?? 💲👅💲",26-8-2021,0
825,Lukas Roitinger,lukasroitinger,,nächstes i phone kommt ohne display,26-8-2021,0
826,JustSeeWhatsGoingOn,guacameleeee,,"Gibt doch schon iPads die USB-C Anschluss haben, also warum sollte es nicht auch irgendwann ein iPhone damlt geben?",26-8-2021,0
827,matti,thickmatti,,is nice,26-8-2021,0
828,Bankai,kexji,,Bald wird einfach das Handy ohne Handy kommen ich sags euch,26-8-2021,0
829,Samuel Schleinzer,thekillerhero12,,Deswegen Samsung😂,26-8-2021,0
830,roblox_girly.singel,roblox_girly.singel,,@apple stimmt das,26-8-2021,0
831,moin,winksundloke,,Endlliiiiccchhh,26-8-2021,0
832,Tik Toker,userprxmqxdao5,,@da_echte_mane,26-8-2021,0
833,m0ritz06,m0ritzo6,,Das wäre geil weil ich dann bei Freunden auch Laden kann hahah,26-8-2021,0
834,Molith Modragon,modragon42,,"Wenn Apple an jedem Lightning Kabel verdient, warum sind sie bei iPads auf USB-C gegangen?",26-8-2021,0
835,EinfachLeben_FreiSein,einfachleben_freisein,,Na wunderbar dann können sie ans übernächste ja endlich wieder einen Kopfhörer Anschluss packen juhuu,26-8-2021,0
836,Aaaaa,ahmed_20742,,Einf ich merk erst jetzt das iPhone Nutzer nicht ihr Handy gleichzeitig laden und mit Kopfhörer hören können,26-8-2021,0
837,🇦🇱,alb_355__,,Und deswegen finde ich apple geil,26-8-2021,0
838,Mo,moblogging,,Wobei es ja besser wäre nur wireless Laden einzubauen die Anschlüsse gehen so schnell kaputt und da wäre wireless definitiv besser 🤷🏼,26-8-2021,0
839,SerkanCostello,serkancostello,,Das Gesetz gibt es schon ewig in der EU und Apple zahlt die Strafen gerne,26-8-2021,0
840,EeHH128,eehh128,,"Wie soll ich dann meine Daten auf den PC bekommen, wenn mein Handy kein Anschluss mehr hat? Über eine Cloud wäre es sinnlos aufwändig und unsicher.",26-8-2021,0
841,EeHH128,eehh128,,"Was für ein sinnloses Gesetz ist das denn? Lass doch Apple in ihre Produkte bauen was sie wollen, sind ja schließlich ihre Produkte.",26-8-2021,0
842,joosh2602,joosh2602,,@aquanticom,26-8-2021,0
843,Swithin,727swithin,,Ich dachte es steht schon fest dass das nächste IPhone kein Kabel Anschluss mehr hat,26-8-2021,0
844,Marc,marcinnit,,Ich sollte mal ein neues Handy kaufen. Meins ist so alt das USBC nicht passt,26-8-2021,0
845,︎︎,saraa.muc,,@skmmln @,26-8-2021,0
846,3674_^$€;$_&:,dufisch04,,ich der ein galaxy s7 hat und ein eckigen lader,26-8-2021,0
847,⠀,m5e60vi0,,Tolles „Gesetz“ 🤨,26-8-2021,0
848,hoff,marvin._knx_,,@sarah.ist.tolll wie findest du das,26-8-2021,0
849,Gross Familie,einsichtiger_schwester,,Digga wtf wie sollen die das umstellen warscheinlich macht so ein riesen konzern für die eu USB-c,26-8-2021,0
850,𝑁𝐴 𝑅 𝐼 𝑁 🦚🤍,narinchaker,,Das soll alles so bleiben wie es ist😳,26-8-2021,0
851,tabuschka,tara.097,,@rabea.hrm,26-8-2021,0
852,Callipygian,callipygius,,Weil Apple seit über 10 Jahren EU Absprachen nicht einhält und Wettbewerbsregeln bricht..,26-8-2021,0
853,بياتريس,bea.sn1,,boar ne digga,26-8-2021,0
854,Just a Marvel Fan,marvel_matze,,Och nöööö,26-8-2021,0
855,Jannik,jannikfr_tv,,"super, apple hat dann keinen Anschluss zum Laden mehr, wer kauft sich dann noch so einen Dreck?",26-8-2021,0
856,Galaxy,galaxycitizen,,"Ob es eine so gute Idee ist, wenn die EU den Anschluss vorschreibt? Dann würde es auch Pflicht bleiben, selbst wenn die Zukunft was besseres bringt.",26-8-2021,0
857,KFL,999jokr,,Ja bitte USB-C,26-8-2021,0
858,user817621,userw7yi0jx48y,,Um so ein scheiss kümmern die sich🙄,26-8-2021,0
859,🪓,karim1374,,@muustti,26-8-2021,0
860,COD5×7,kokanuttalk,,Apple macht einfach immer mehr Rückschritte. deren Handys sind voll klein außer damals dass 6plus und dass Samsung dann Apple nachgemacht hat*,26-8-2021,0
861,JakeeY - Nerd & Livestreamer,jakeey.twitch,,usbc ist doch von apple Lizensiert ? check das mal.,26-8-2021,0
862,Tom Reineking,t.king117,,Das ist halt Marktmanipulation. Wenn jetzt irgendein piss Hersteller oder Xiaomi seinen Patent Anschluss verwenden würde würde sich keiner beschweren.,26-8-2021,0
863,Alxx_hp09,alex.dor777,,Wieso geht eigentlich die Kapazität vom Akku runter beim iPhone 📱,26-8-2021,0
864,DerderdenRorrsRoyceBarbezahlt,derderdenrollsbarbezahlt,,Wie wenn Apple da mitmachen würde 😂😂😂,26-8-2021,0
865,Luca,archivvonluca,,Bei usb typ c ist ein pin im kabel der brechen kann bzw im handy ka wie micro usb da ist der schonmal gebrochenen lightning ist einfach am besten!!!,26-8-2021,0
866,Why?,justanswer.myquestion,,Apple: Setzt Priorität auf Geld machen Samsung: Setzt Priorität bei den Benutzern,26-8-2021,0
867,annalena‘,011.annalena,,@bobderbrillenhauer junge apple soll sich nicht so anstellen vallah die haben schon genug geld meine fresse,26-8-2021,0
868,Max,rosesone_,,Ich fände so ein gesetzt zieeeeemlich unötig! I mean jeder Hersteller kann doch den Anschluss verbauen vorauf wenn Bock hat.,26-8-2021,0
869,ℰ𝓂𝒾,08_emi,,oh bitte nicht 😳,26-8-2021,0
870,Noah,derneuwieder,,Endlich alla,26-8-2021,0
871,Sunnyboyyz,sunnyboy10314,,Muss sich jz ehrlich bald jeder ein neues handy kaufen,26-8-2021,0
872,Unicorn🦄 Production,unicornproductionstudio,,Ich finde das toll sonnige es ist. Hoffe das wird nie geändert 👍,26-8-2021,0
873,Embeh,embeh8,,Apple wird den einfach abschaffen.,26-8-2021,0
874,!!!,amca_32,,Augenbrauen wild,26-8-2021,0
875,Der Joni,derjoni3,,Mach mal ein Update über das neue Huawei,26-8-2021,0
876,Ride in,_ride_in_,,Ok dann möchte ich auch alle Apple Kabel ersetzt haben weil sie nicht mehr brauchbar wären. (Ironie),26-8-2021,0
877,Justin,justin_1312__,,Hab es die Diskussion nicht schonmal,26-8-2021,0
878,gil_ru_st,gil_thestone,,So weit ich weiß sollte das nächste schon Kabel los sein möchte aber nichts falsches verbreiten also bitte schaut selbst nochmal nach,26-8-2021,0
879,Selina Sophie lux,sophie_123___,,@r_o_x_i_,26-8-2021,1
880,You are cringe stfu,youarecringe126,,Und alle die iPhone 12 und darunter haben was sollen die machen?Sollen die ihre Handys verkaufen und ein neues kaufen?,26-8-2021,0
881,Tik Toker,igger_monkey_00000,,@kenji.cc:@kenji.cc:bald kriegt man nur noch iPhone mit Batterie und Display den Rest muss man kaufen und bei Apple zusammen bauen lassen für 2x teuer,26-8-2021,0
882,rafa,7rafa8,,Boah junge wie unnötig,26-8-2021,0
883,DokkaBae,gilettehabi,,Bin ich der einzige den es eher juckt was die bei der EU eigentlich ständig Rauchen?,26-8-2021,0
884,Theresa,theresa8stadler,,Hab Xiaomi hat auch anderen Anschluss,26-8-2021,0
885,⠀hans,hanswendler,,apples lightning kabel sind aktuell die effizientesten auf dem markt. das ist der hauptgrund. da gibt es keine konkurrenz.,26-8-2021,1
886,Viktor,.viiik,,Eine Frage wegen der Kette (idk wieso ich darauf geachtet hab) gehörst du zu lgbtq und wenn ja welcher part davon?,26-8-2021,0
887,Joyce♥️,jxyce99,,@babe.emilyyy,26-8-2021,1
888,Mohanned,.mxhanned,,@kisaki.love.trucks,26-8-2021,0
889,Cesur._._,cesur._._,,AUX AMK AUXXXXX,26-8-2021,0
890,Berk,berkus_32.gs,,wenn iPhone kein Anschluss mehr hat dann ist sogar nokia besser als Apple,26-8-2021,0
891,Sebi,sebi_ist_da,,Bitte nicht 😭,26-8-2021,0
892,Leknight 2,ganondorf55.55,,ich hab ein Handy mit ich sag mal einem Normalen Anschluss (Samsung) also bevor es USBC gab,26-8-2021,0
893,Meme.hub,meme.1.hub,,@wleonardo_ok Nö,26-8-2021,0
894,John_player_ 537,john_player_537,,Viiiiiiel zu Geldgeil diese Typen....,26-8-2021,0
895,X x_Philip_x X,noobix_hd,,@terrax._1 junge IPhone ist doch der gröste schrott,26-8-2021,0
896,Hama Saki,hamasaki70,,Unglaublich wie Geldgeil eine Firma sein kann,26-8-2021,0
897,Alexander Müller,alesandro85,,Die EUb😂,26-8-2021,0
898,shift.343434,shift.343434,,"Auch magsafe wär bei einem EuGesetz verboten, da es beim induktiven Laden auch ein universelles Design geben müsste.EUPolitiker sind aber korrupte$*#!",26-8-2021,0
899,Anton,an_ton22,,Aber wie soll man Sand iPhone dann ohne einen Anschluss mit dem mac verbinden?,26-8-2021,0
900,Axolotl,gaming.all.games1,,Angenommen die machen es ja rgendwann und was mache ich dann mit meinen Millionen Lightning Kabeln ich mein bekomme ich irgendwie ne 50% Erstattung 😂,26-8-2021,0
901,Ernu 21,ernu1,,@tarikabi.61,25-8-2021,0
902,Mike,mikexhi,,Lightning fühlt sich einfach geiler an als usb c,25-8-2021,1
903,@dilara_suchtfahrer,dilaras_fahrer,,Display kostet demnächst einen aufpreis. Genauso wie mit den Lautsprechern,25-8-2021,0
904,Raul,oprraul,,"Ich glaub nicht dass Apple was dran verdient, wenn ich auf Bazar mir ein Kabel für 3€ kaufe😂😂😂",25-8-2021,0
905,user59274728208,user0973586787,,endlich,25-8-2021,0
906,leona🫶🏻,cypzq,,keine sorge man wenn die afd gewählt wird sind wir eh nicht mehr in der EU,25-8-2021,0
907,Marcel Plaickner,marseldawis,,Hahhahahahahahhahahahahahahha,25-8-2021,0
908,...,alxx.3.20,,OMG ENDLICH,25-8-2021,0
909,Hamstergang,hamsterju,,Ja weil Apple denken sie wären was besseres außerdem hab ich an den drecks ladekabeln schon so oft eins gewischt bekommen😂,25-8-2021,0
910,Niemand,niemand7734,,"Apple: Wir lassen euch für unsere ""Designentscheidung"" zahlen und ihr feiert uns dafür.",25-8-2021,0
911,Mandri0n,mandri0n,,ist das nicht schon ewig im gespräch?,25-8-2021,0
912,⚔️,ichigo_kxrxsxkx,,Bald muss man seine eigene Lautsprecheranlage kaufen.Sie drücken ein Auge zu und das Display müsst ihr nichr kaufen,25-8-2021,0
913,Kawa Balik,kawabalik_363,,"Wieso? Das ist mies Smart von Apple, sie können das Kabel (oder Adapter von lighting auf z.B usb C) für 50€ verkaufen und die Leute müssen es kaufen",25-8-2021,0
914,Justin Melszee,dubistcool19,,@ricked.0072 wild,25-8-2021,0
915,NoName,samsafawkes,,"Warum auch AUX Kabel Anschluss im Iphone verbauen? Sollen sie sich eben alle kabellose Kopfhörer kaufen.
Wie kann man allen Ernstes Apple bevorzugen?",25-8-2021,0
916,🎭,nekonevio,,Ich der immer noch iPhone 7 hat 😂😂😂😂,25-8-2021,0
917,GhostMokomo,_ghostmokomo_,,Einfach Apple abschaffen...,25-8-2021,0
918,😬,r..r009,,Hab 21 Ultra besser als jedes iPhone allein das die in der Zukunft Galarie scannen ist Gottlos,25-8-2021,0
919,phil flipt,philflipt,,"und es wird das letzte handy mit anschluss was geschätzte 5000€ kosten wird, also apple ist wirklich teuer😟",25-8-2021,0
920,user4598689271653,der_aller_echte_knecht,,das 12 pro hat einen USB c Anschluss und auch die neusten appple i Pads,25-8-2021,0
921,Luap,paulbarthel601,,Bitte nicht 🥺,25-8-2021,0
922,Mxcha,mxcha_brn,,@juleee296,25-8-2021,0
923,Julia,jubulia,,ich mag den Lightningkabel. Hoffentlich bleibt es,25-8-2021,0
924,iwantablondepolin,ilovealkohol69,,@hokuspokuspenis inshalla irgendwann dann muss man nicht immer nen anders kabel kaufen,25-8-2021,0
925,Daily Motivation,motivationonlydaily,,kein Anschluss unter diesem Handy 😂😂,25-8-2021,0
926,Schulfreii,schulfreii,,und das nächste iPhone muss man dann in die Steckdose stecken,25-8-2021,0
927,Andreas,andreas.xkts,,Die verschissene EU hat aber auch keine anderen Probleme nh🤦🏻,25-8-2021,0
928,Mia,just_mia25,,Die Leute die noch iPhone 6 haben so 🥲,25-8-2021,0
929,Hydra lol,hydra2654,,"Tja 0.002 Prozent Einnahmen weniger aber zufriedenere Leute
Das geht bei Apple nicht",25-8-2021,0
930,Iscalar,iscalar,,Mein Switch pro Controller wenn er nicht mehr geladen werden kann 😢,25-8-2021,0
931,Geist122,geist122,,@luchs44,25-8-2021,0
932,nicer Dicer,nicer_dicer0,,"EU droht Apple: Entweder Steuern zahlen, oder keinen Anschluss mehr",25-8-2021,0
933,🦍,thorge0_0,,@olemuller,25-8-2021,0
934,🫶🏼,youre.kinda_cute,,@her_boy_chan oh bruh,25-8-2021,0
935,dirk Cules,dirkcules,,Apple bekommt den Hals nicht vol,25-8-2021,0
936,Unspektakulär,fm911104,,Lightning kann abbrechen. USB c kann IM SMARTPHONE brechen. Da hol ich mir lieber ein neues Kabel als ein neues Handy.,25-8-2021,1
937,vinc.crxme,vinc.crxme,,Wenn’s keine anderen Probleme gibt 😂,25-8-2021,0
938,Maik,palmenboy_lul,,Bald will aplle gar keins machen,25-8-2021,0
939,silentesc,silentesc,,"Och man dann wieder dasselbe wie vor ein paar Jahren mit den Kopfhörer Kabeln. „Mimimi Apple“ sagen und nach 1 Jahr machen es huawei, Samsung etc auch",25-8-2021,0
940,Exi,exitus8193,,Mit welcher Begründung will den die eu das machen wurde die eu eventuell bezahlt um appl zu Schaden würde mich nicht wundern,25-8-2021,0
941,Immolatus,immolatus_,,wenn die keinen Anschluss machen kann man die ja nicht mehr mobil laden ... das wäre der Tod des iphone und evtl sogar ganz Apple 😂,25-8-2021,0
942,duhund507,duhund507,,Was trägst du für nh kette,25-8-2021,0
943,ShxdowBaby,shxdowbaby,,POV:du scrollst weiter und kriegst direkt Apple Werbung😂,25-8-2021,0
944,(:,just28bj,,@david_dvd07,25-8-2021,0
945,der Vogel .alex.,dervogel.alex,,endlich!,25-8-2021,0
946,Migzaw,migzaw,,Hoffe es als IPhone Nutzer so krass es nervt einfach,25-8-2021,0
947,DjK,iamnotdjk,,Ja man alle gleichen anschluss damit die ganze Familie kabel klaut,25-8-2021,0
948,Fat të Mir,fatticazzzitua,,Neiiin. 😳,25-8-2021,0
949,Neele,neelepdorf,,"USB C wurde mit Apple zusammen entwickelt. Apple denkt sich so: hier bitte sehr. Nutzt irgendwas, aber wir machen unser eigenes Ding tschüss 🤑",25-8-2021,0
950,⭒ David ⭒,david.ist.hot,,"Komischer Weise haben nur Apple Handys lightning, mein iPad hat USB c",25-8-2021,0
951,[empty],garmischpatenkirchen,,Imagine: Einweg-Handy und wenn es leerbist schmeiß ich es weg.😂,25-8-2021,0
952,45🇵🇸,m.izz45,,Wann kommt denn i phone 13?,25-8-2021,0
953,Nina,nina.die.nudel......amun,,@em1ly.14,25-8-2021,0
954,Marc,hawkstone1,,Anschlusssssss,25-8-2021,0
955,malinundtiktok,malinundtiktok,,Ich die gerade ihr Handy lädt,25-8-2021,0
956,Wow clean man madafaker alter,jungekeineahungg01,,@islaaaaaaaaaaaaaaaam 😐,25-8-2021,0
957,Florian Towara,floriantowara,,"Dieses vorgeschlagene Gesetz mit überall gleiche Anschlüsse könnte man mal auf Elektromobilität anwenden. Was für Handy, ist doch scheißegal 😂",25-8-2021,0
958,user3242682833627,prophetmokuba,,bevor apple entlich mal nen schritt in richtung normumg macht bringen die ein IPhone welches mit batarien leuft. natürlich nur spiziele aplle batarien,25-8-2021,0
959,...,danielaf917,,Kleiner Tipp : wenn ihr die Apple Aktie gekauft habt verkauft sie lieber 😳,25-8-2021,0
960,Laurena,xo.laurena.xo07,,@bibi_lio_emily_julian,25-8-2021,0
961,P_i_e_rr_e,p_i_e_rr_e,,sieht man mal wieder... Apple....,25-8-2021,0
962,.,icestrikev,,"Das neue iPhone 15
Kein Anschluss
Kein laut oder leiser Buttons
kein Display 1600€ Euro bitte",25-8-2021,0
963,Nimiro,n.i.m.i.r.o,,Die dreckigen alter ich habe EIN SCHEISS USBC KABEL und sonst nur Lightning und MicroUSB,25-8-2021,0
964,ToadX3,lolshimtex,,"Was mich am Apple Kabel stört, wenn man untewegs ist, Strom braucht und nur USB-C Anschlüsse vorhanden sind",25-8-2021,0
965,Doommee✌️,bigtastybaconlp,,Was für schlau Füchse.. Find ich aber auch ein bisschen dreist 😅,25-8-2021,0
966,~🚬,kenny_68.x,,@der_rillepeter,25-8-2021,0
967,Doommee✌️,bigtastybaconlp,,@fabianjacky,25-8-2021,0
968,Dominik Goldmann,goldi971,,Es gibt appels mit usb c,25-8-2021,0
969,moto_timmyyyy,moto_timmyyyy,,"Nein die Regierung liegt so weit zurück, es gibt dann wieder 8 Watt schnell laden mit Micro USB",25-8-2021,0
970,Wagner,bennywagner5,,Ist so unnötig,25-8-2021,0
971,De4d Vo1ce,de4dvo1ce,,"Aber USB-C ist nicht gleich USB-C 😩 manche sind Thunderbolt, manche normale Bildübertragung, andere nur Daten und laden... 😩😩",25-8-2021,0
972,hhhhsssrzj,_jo210,,@lt0588,25-8-2021,0
973,BigMac,pepebigmac,,apple ist unfassbar geldgeil und es gibt immernoch manche die sie verteidigen....,25-8-2021,0
974,✊🏻✊🏼✊🏽✊🏾✊🏿,dennis_ix_,,Junge haben die nichts besseres zu tun als ein Gesetz zu erstellen das heisst du musst USB-C verbauen??,25-8-2021,0
975,Benis,benis__07,,Einfach die guten alten breiten Ladekabel vom iPhone 4 😔,25-8-2021,0
976,🍌🐟,shorter.simp,,woher die Kette? :),25-8-2021,0
977,kdg,justarandomperson840,,Mein Samsung hat noch microUSB😌😂,25-8-2021,0
978,Mustafa_der_Ang,mustafa_der_ang,,warum hast du lgbtq halsband 😭😭😭,25-8-2021,0
979,Jakub,jakbbbbbb,,Hä was ist das Problem einfach iPhone 6s kaufen und schon kannst du andere ladekabel nutzen hääää also ich meinte Apple 😂😂😂😂😂,25-8-2021,0
980,Leve,leve.tmn,,Dann brauch man ja immer Airpods wenn man Musik hören möchte die wollen damit nur mehr Geld machen,25-8-2021,0
981,Niichanhatmehrswag,niichanhatmehrswag,,80% prozent der kommentare handeln über unnötigen beef wegen dem kabel die andern 20% haten die kette,25-8-2021,0
982,Chris_K,chris_k1234,,"Ich an Apples stelle würd einfach sagen: Ja gut, kriegt die EU halt keine Handys mehr. Haben genug Abnehmer und genug Geld.",25-8-2021,0
983,JMS,jms7804,,"also ich fände es nicht gut, wenn Apple den Anschluss komplett weglassen würde, dann wär Android hierbei deutlich im Vorteil",25-8-2021,0
984,Damien Diabolo,damiendiabolo,,Mein erstes und letztes Apple Produkt war ein iPhone 4 und ich bin froh seitdem kein Apple Gerät mehr gekauft zu haben 😅,25-8-2021,0
985,Kontoverwaltung,simon.eder2007,,Seine Kette 😳,25-8-2021,0
986,\(^-^)/,99.jules,,Mal ehrlich dan muss man nicht immer nach dem richtigen Kabel gucken zum Bsp du brauchst ein Samsung Kabel aber jeder hat nur ein iPhone Kabel da,25-8-2021,0
987,Nachtgedanken/Sophia_love123,_moonly_o,,Boar ne,25-8-2021,0
988,epilon,epilon1,,"appel kassiert ja immer ab
ist ja nix neues
aber so viele Leute kaufen es ja trotzdem",25-8-2021,0
989,Patrick Turner,patrick_t_,,einer der wenigen gründe wieso ich mir kein Iphone kaufe,25-8-2021,0
990,futz05,futz05,,@wiesooo_,25-8-2021,0
991,Justin_RzX,justin_krx,,"😂😂 iPhone 14 du musst kaufen Netzteil, Ladekabel und eine ladebuchse",25-8-2021,0
992,Natalie Maßloch,nataliemassloch,,Apple irgendwann so: Hier hast du die Bauanleitungen für ein IPHONE. Die Teile musst du aber alle zusätzlich kaufen! 😂,25-8-2021,0
993,VultureGod,vulturegod0,,"mittlerweile verwenden alle Hersteller, bis auf Apple, USB-C damit hätten wir 2 Systeme auf dem Markt, das reduziert nix mehr..",25-8-2021,0
994,Adri Sama,wvkadri,,Ich hab ne powerbank die ist nicht von Apple aber lädt mit Lightning,25-8-2021,0
995,rscarzz,rscarzz,,Was sagt dein Batteriezustand?,25-8-2021,0
996,(◍•ᴗ•◍) 🌸,togahichimo,,Alle Apple User gerade: 😐,25-8-2021,0
997,Eren,eren_e.c,,Mein iPad hat schon usbc,25-8-2021,1
998,Maxim,shiny_petal,,als du sagtest das die den port ganz weglassen dachte ich das isn witz....,25-8-2021,0
999,Chiara,clxra0403,,Warum will die EU so ein Gesetz vorschlagen ?,25-8-2021,0
1000,Christin G,chris_sii,,Apple braucht ja immer ne extrawurst. Aber die machen Kohle damit weils so viele kaufen😂 ich werde nächstes jahr def wieder auf Android umsteigen😅,25-8-2021,0
1001,Daniel (Ginga),gingasnapes,,Hoffe das es nie dazu kommt,25-8-2021,0
