,Comment Number (ID),Nickname,User @,Comment Text,Time,Likes
1,Yumyum,yumyum_uchia,,Hab aufgelegt weil ich kein Englisch kann,23-5-2022,
2,konradjaeschke,konradjaeschke,,POV europol ruft dich wirklich an und du legst einfach auf 😂,29-5-2022,
3,ᴀɴɴᴀ,23.annaaaa,,"Ich die nie an ihr Handy geht, wenn jemand anruft 😬😂",28-5-2022,
4,Randomvideos,random.videos.rv,,"Ne, bevor ich auflege, beleidige ich und lege dann erst auf 😂",24-5-2022,
5,👀,rxmy.xy,,"Junge noch nie angerufen worden, das Video gesehen und 5min später einen Anruf von ""Europol"" bekommen 🤌🏼",24-5-2022,
6,wollewieimmer,wollewieimmer,,Europol schreibt Post oder steht vor der Tür 😅 kann ich berichten,23-5-2022,
7,⠀ ⠀ ⠀ ⠀ ⠀ ⠀,onlyrealshit1,,Hab aufgelegt auf Englisch,29-5-2022,
8,Ich bin ein Family Guy,germangriffins,,Ich geh aus Prinzip nie dran,29-5-2022,
9,Leo 🦈,paimons,,Die haben ständig angerufen als ich an einem Tag einen Anruf fürs Bewerbungsgespräch erwartet habe 😭 Jedesmal aufs neue Panik gehabt,24-5-2022,
10,𝔞𝔩𝔢𝔵🍕,y0ur_fav_russian,,Junge ich wurde gestern schon 8 mal angerufen,29-5-2022,
11,Chrissy Sevani,chrissysevani,,Ich geh bei nicht eingespeicherten Nummern nicht dran 😂,23-5-2022,
12,christianstachl,christianstachl,,"Europol? Bei mir wars gestern sogar Interpol, die wegen meiner KK angerufen haben...auf Englisch...aus Hamburg 😂",28-5-2022,
13,Malik_Marmelade007,malik_marmelade007,,ich hab 20 Anrufe davon bekommen,23-5-2022,
14,Felix,derfelixofficial,,Wurde auch so angerufen,23-5-2022,
15,Al_to_the_an,sebastian.exe107,,Ich sage immer wenn sowas passiert hallo hier ist die Polizei dann legen die immer auf 😂😂😂😂,27-5-2022,
16,professorfinanzen,professorfinanzen,,Was wären wir nur ohne dich 🥰,23-5-2022,
17,Shido Sandaki,shido.gaming,,Ich lehne immer alles wo spamverdacht steht ab,23-5-2022,
18,Lilith,miladylilith.82,,"Mein Mann hat in den letzten Tagen auch immer Anrufe von ""Europol"" bekommen. Dran gegangen, beleidigt, aufgelegt und blockiert 😅",29-5-2022,
19,𝕸𝖆𝖏𝖆,m_kuehne2022,,Ich werde öfter mal von irgendwelchen Nummern angerufen und geh nie ran weil ich schiss hab das dass dann übel viel kostet oderso hahahahhaqhq,29-5-2022,
20,Unkaputtbar63,unkaputtbar63,,"Ich hab alle beruhigt auf Englisch, sonst wär massengrab gewesen bro",1-6-2022,
21,sala,sala252,,ich wurde gestern vom Interpol angerufen 🤣 sofort aufgelegt,28-5-2022,
22,jeoncos0,jeoncos0,,ich werde jeden Tag angerufen gehe aber nicht ran,24-5-2022,
23,Dust,dust019,,"Habe heute ein WhatsApp von einer Nummer aus Südafrika bekommen. Angeblich darf ich einen Job machen, bei dem ich bis zu 300€ an Tag verdienen kann😅",23-5-2022,
24,alaeddin68,alaeddin68,,Danke für dieses Video 🙏🏼,24-5-2022,
25,Kev043,cnoobmaster69,,was haben die dann davon?,23-5-2022,
26,alex D alinger,dmnlurge,,hab mich mal da so eingeschissen,28-5-2022,
27,꧁Top-Anime-Edits꧂,animeedits.________,,Ich werde die ganze Zeit angerufen und sobald ich ran gehe legt er dann auf,29-5-2022,
28,A M E L I E,amelie.269,,Ich habe letztens ein Anruf gekriegt (Anonym) und bin drangegangen. Es wurde per Band gesagt: Dies ist eine Nummer vom Straf… Habe dann aufgelegt.,29-5-2022,
29,hello,coralie_likes_bubblegum,,Ich hätte dieses Problem nicht😅 gehe fast nie ans Telefon,24-5-2022,
30,xLostPlayer,xlostplayer,,"bei meinem Xiaomi steht immer bei solchen anrufen ""Spam"" dann werde ich gewarnt wenn ich Ran gehen will",23-5-2022,
31,Moritz,mo270111,,Die haben mich heute morgen zweimal in der Schule angerufen 😫,23-5-2022,
32,.,xffical.daaaarlynn,,@Angelxznt omg omg omg die lersten Tage so oft passiert,4-6-2022,
33,lara,verbrante_apfel,,wurd angerufen und war so überfordert das ich aufgelegt hab,24-5-2022,
34,Amar Hammami,amarhammami05,,Dass hört bei mir garnicht mehr anzurufen jeden tag bekomme ich so ein Anruf blockiere alle aber ich denke jeden tag dass es eine nummer ist weil ich,29-5-2022,
35,idk,idontknow.yk,,ich geh eh nie ran egal wer anruft 🤝,29-5-2022,
36,ZenGarten21,zengarten22,,Ich bleib immer dran um mein Spaß zu haben. Ist wirklich lustig zu sein da ich das schon länger mach und mich jetzt auch gut auskenne,23-5-2022,
37,Cringe Jonny,cringe_jonny,,oha ich würde heute 16 mal davon angerufen mitten in der schule 😳😳😳,23-5-2022,
38,user3631819874920,metros2099,,Das ist mir erst heute passiert hab nur ein Anruf bekommen als ich zurück gerufen hab war der typ nur überrascht und sagte das er mich nicht mal anger,23-5-2022,
39,paul,geier_toastbrot,,bro das ging bei mir mehrere Tage und manchmal 10 Anrufe pro Tag,23-5-2022,
40,Hannes Fischer,hannesfischer2,,wurde 22 mal angerufen,23-5-2022,
41,Klaus,einfach_ich0816,,Ich wurde auch 7x angerufen aber die handynummer hatte nur 6 stellen nach der Vorwahl,23-5-2022,
42,Brain_AFK,udonthavetoknowme_,,@ibo335 wieso sehe ich das erst jetzt 😭😭😭,27-5-2022,
43,muss Name ändern wegen stalker,fahrrad_bauer,,Ich werde manchmal von Bonn aus nrw angerufen obwohl ich in Aachen wohne,24-5-2022,
44,sebastianvoltmer,sebastianvoltmer,,Ich werde wöchentlich mehrmals angerufen von denen. Bei einigen Nummern gehen unbedarfte Leute dran.,24-5-2022,
45,amelie,amelie_twpk,,omg ich wurde am donnerstag so angerufen und hab nachdem sie kurz gerdet hataufgelegt weil ich social anxiety hatte und 0 gecheckt @mira_tpwk 💀,21-6-2022,
46,ᕕ( ᐛ )ᕗˡᵒᵗᵃˢʕ•ᴥ•ʔ,sleepyypanda_zzz,,würde angerufen hab garnicht aufgenommen,23-5-2022,
47,Emil_ Toast,emil_toastbrot,,Wurde vorgestern drei mal aus Texas angerufen HAHAHAHA,23-5-2022,
48,𝐷𝑒𝑎𝑑𝑙𝑦 𝐿𝑢𝑐𝑎,deadlyluca,,Mir ist das auch passiert habe direkt auf gelegt ohne zu wissen das das gefährlich ist,23-5-2022,
49,Nico,nicx.03,,Bei mir kommt immer „Your German identification number has been…“. Auch von 0157 Nummern. Hatte echt Angst aber Danke für das Video👌🏻,23-5-2022,
50,🤍lee🤍,elliesrealgirlfriend,,Ich werde jedesmal in der Schule angerufen XD,23-5-2022,
51,ich,chxrged_,,hahha wurde vor einer stunde von so jemanden angerufen,23-5-2022,
52,frieda 😵‍💫,frieda.matea,,@n.o.t.leni @karlama.23 @a.j.h.2 @toocrazy07 @real_freeleedee omg😭 ich wurde schon über 5 mal angerufen,24-5-2022,
53,Sahra Lynn,sahralynn95,,ja aber wer glaubt das Euro-/Interpol mit einer Computer generierten Stimme anruft hat auch selber Schuld 😂,23-5-2022,
54,Annelie,claudiassekte,,@lenaclarssen @78.miri wurde gerade eben angerufen dann labert die auf englisch und hat irgendwas gesagt mit konto gesagt hab dann aufgelegt 😂,30-5-2022,
55,nuri,hello_booooooo.......aaa,,@anitahalilii @your_favorite_ninja @zeyno.nur @baddie.with.brain.cellswurde gestern angerufen und dann stand da mit einem Ausrufezeichen Spamanruf,3-6-2022,
56,HeLa610,hela610,,"Ich glaube ich wurde in den letzten 2 Wochen 6 Mal von einer unbekannten Nummer angerufen, normalerweise ruft mich keiner an",23-5-2022,
57,Luca Schark,strolchi2632,,bei mir werden solche nicht angezeigt,23-5-2022,
58,361,ofc.lq,,Wurde gestern 8 mal angerufen von denen einfach,15-6-2022,
59,Jacob,lejacob_,,Wurde auch angerufen…,27-5-2022,
60,Gabriel Appiah177,gabrielappiah177,,@j.o.n.a07 so eine Nummer hat mich auch angerufen dachte aber das wäre anrufstreich dann habe ich sie ganze Zeit beleidigt bis sie aufgelegt habe 😂😂,vor 1 W.,
61,•Μ α γ δ α λ η ν ή•,magda.kni,,die haben mich gestern angerufen und hab zum glück aus panik wieder aufgelegt 😭@57sofia26,vor 1 W.,
62,🅿️,y0urf4vilyas,,Bei mir ist es jetzt auch passiert,21-6-2022,
63,нαℓιмє,haltue64,,@hyrnsa.42 @fatma.g63 @rreze.03 am Dienstag,vor 5 T.,
64,Paula,mrsrued2.0,,@pia.library hast du das gehört?,vor 1 W.,
65,Divide.zitate,divide.zitate,,ich auch aber von einer Recht Anwalt,24-5-2022,
66,Ilka,milka16100,,@sontje.tw die haben mich und meine Schwester angerufen,21-6-2022,
67,🦋Kiara🦋,justkiiara,,@Sammy 🅿️💕 ahh weisst du noch omg,21-6-2022,
68,🤍,aynasysf,,@user10830288933 @lialovescarla ohaaa,vor 1 W.,
69,Aaliyah🫦,doenerbudenaali,,"@jaana_v16 hä safe war das sowas, als ich immer angerufen wurde",vor 6 T.,
70,Marco,marco.bbrg,,ich auch heute 4 mal,vor 5 T.,
71,Sʜᴇʟʟʙᴇᴇ🐝,shellyyx_,,@liass_04 omg das is mir passiert,15-6-2022,
72,Ben,benausdortmund,,Bei steht immer spamverdacht dann gehe ich eh nicht dran hä,vor 5 T.,
73,Irene Xuan,kkuzushis,,nur 4 Mal? ich wurde 20 Mal angerufen und hab 15 Nachrichten gekriegt,vor 1 W.,
74,Hockey.spelchen,hockey.spelchen,,@hannah.wlr warsvgeinlich waren das die Unbekannten Nummern da die mich angerufen haben,vor 1 W.,
75,Ly,..water..drop,,mich haben solche schon 3 mal angerufen und hab alle geblockt und bin nicht an den Anruf rangegangen,vor 1 W.,
76,user5549277385790,dyoxix1,,LOL ich hatte es auch und hab dann einfach die ganze zeit ins mikro gestöhnt bis die dann aufgelegt haben😅,18-6-2022,
77,Pivawi<3,pivawi,,@lara_abcdefg omg die bei dir weil die haben auch nicht abgehoben,15-6-2022,
78,𝓢𝓸𝓻𝓪𝔂𝓪 🦋,soraya.870,,@marie.095 da haben wir heute drüber gesprochen,vor 6 T.,
79,𝐓𝐚𝐬𝐧𝐢𝐦,tasnimig,,@aayat0407 genau das war bei mir genau das gleich,vor 6 T.,
80,Luca Cola323,lucacola323,,ich wurde 2 Mal angerufen,vor 1 W.,
81,❤️🇦🇱,._diese_eine_albxnerin._,,Seit 5 Wochen machen die das bei mir😭😭,vor 1 W.,
82,𝔥𝔞𝔫𝔫𝔞,hanna.2k6,,@st3lla_11 omg das waren die die mich angerufen haben,21-6-2022,
83,mohamad,mohamadal2000,,die hat mich auch 4 mal gestern angerufen,15-6-2022,
84,amalia,amalia.thlou,,@<3 DAS WAR DAS !!,vor 1 W.,
85,Lara,laraaa08.11,,@bartek58ger ahhhh du hast ja gesagt,vor 1 W.,
86,clara,clara_208_,,@helena._430 vllt waren die des,21-6-2022,
87,maja,girl.maja1804,,Hatte ich letztens 😒,21-6-2022,
88,𝕯,d5lar3,,@k5br3 @abik.55 @rxmxnx121 ahh das ist es,21-6-2022,
89,𝑀𝐴𝐺𝐼𝐶𝐴𝐿 𝑈𝑁𝐼𝐶𝑂𝑅𝑁,a.dump.bunny,,@Feli die haben die ganze Zeit angerufen,vor 6 T.,
90,emmy :),emmy_b5,,@miafanenbruck vlt der anruf den du hattest,vor 1 W.,
91,Neela,neelaemd,,@sophie.tbr ey vlt war das das,vor 1 W.,
92,Prison break_love,_sge4ever_,,hatte ich auch,vor 5 T.,
93,🤍,flauschpopo,,@tf.yuna hatte ich letztens erst,vor 6 T.,
94,даша,darjaa.bln,,@polina.0176 omg ich hatte das,vor 6 T.,
95,Merle,merle.kdk,,@sina_shz08 das war bei dir,vor 6 T.,
96,Jo.lbs_,jo.lbs_,,@mia.sse0 weißt du noch heute?,vor 6 T.,
97,Rana,ranaaljobu,,@samiah 😂4 mal oder so,vor 6 T.,
98,lele,.y8lele,,@16janaq für dich,vor 1 W.,
99,👑,peppapigpupst,,@1ingo safe bei mir,21-6-2022,
100,🖤,its._.lna,,@lqzcl kommt uns bekannt vor,21-6-2022,
101,luna,sonnemondundsternexx,,@christianlehn jetzt weiß ich wer,21-6-2022,
102,Exvalz,exvalz,,Ich wurde grad zum ersten Mal von der angerufen und bin direkt zu dir gekommen,vor 3 Std.,
103,™,.nichtgutdiese,,Grad passiert,vor 3 Std.,
104,TPE_DerKing33,tpe_derking33,,Ich wurde locker schon über 6 mal angerufen,vor 9 Std.,
105,really_cap,really_cap,,Kann man dagegen was machen?,vor 2 T.,
106,Hi,juli482juli1,,danke 😘💕,vor 2 T.,
107,ROCKLEE._._.__._..__.._._._._,pretttyfvcechaki,,Können due irgendwas machen wenn ich einfach nur hallo gesagt habe,vor 2 T.,
108,.,bum._.haha,,Hatte letztens 5anrufe oder so mit Spamverdacht.. Bin einmal ran gegangen aber habe nichts gehört,vor 3 T.,
109,Gustav.722,madmax.722,,Ja ich habe auch einen Anruf von den verpasst habe später zurück gerufen und dann ist das gleiche passiert,vor 3 T.,
110,itzz_ellin,itzz_ellin,,Ich wurde auf meinem alten Handy 7mal von irgendeiner Nummer angerufen bin aber nie drangegangen,vor 4 T.,
111,❤the walking dead girl❤,unwichtig12382837373,,omg das war bei mir letzten Freitag 😳das es angeblich die Nummer nicht gibt hab mich schon gewundert 😳. danke jz weiß ich bescheid 🥰,vor 4 T.,
112,ItsNotMe,itsnot_me1109,,Meine Freundin würde Mal angerufen und sie ist Ran gegangen aber niemand hat geredet 😂,vor 4 T.,
113,sorry,maxiiwitch,,ich wurde bei der Bundesbehörde weitergeleitet und meine Mutter hat dan gereded,vor 4 T.,
114,🦈🦈,marlon.3452,,Sie rufen mich seit heute morgen an,vor 4 T.,
115,Tim,timdaimler,,Hab diesen Anruf vor 2 min erhalten 😂,vor 5 T.,
116,The one,......safezone,,würde auch 4mal angerufen mir wurde gesagt ich bin vermisst 💀,vor 5 T.,
117,LED_KETTE,led.kette,,mich ruft immer eine nicht vergebene Nummer aus Großbritannien an,vor 5 T.,
118,Spider Yoki,schlechter_als_rtl_2,,"Hatte das mit einer indischen Stimme von wegen ""meine id Karte wurde für illegale Zwecke benutzt""",vor 5 T.,
119,Celina🌻,betrunkenvorliebee,,Werde jensen Tag angerufen,vor 5 T.,
120,Lea_.elg,lea_.elg,,wurde 15mal angerufen,vor 5 T.,
121,ju N.,jun617,,@moesha.wbr damn ich geh ja nie ran wenn mich jm fremdes anruft aber nach den Landtagswahlen wurde ich ja angerufen und hab es immer verpasst und..,vor 5 T.,
122,Bennoben2404,bennoben2404,,digga heute wurde ich mindestens 10 Mal von verschiedenen Nummern angerufen aber bin nicht dran gegangen,vor 5 T.,
123,MNK.AF😜,mnk.af1,,"bei mir ist das msl passiert aber ich gehe eh nicht an fremde nummern ran, als ich sie zurückrufen und da kam das gleiche",vor 5 T.,
124,lara,laratschkaaa,,Wir wissen es Endlich@ohkukuuu,vor 5 T.,
125,Sso.luise,luise..official,,Ich hab mich schon gefragt wer mich da ständig anruft,vor 5 T.,
126,.,jk.60_,,alter gerade hat einer mich angerufen,vor 5 T.,
127,JanickPF,janickpf,,Ich verstehe NUR Deutsch! 😏,vor 5 T.,
128,.,shiny.skz,,genau heute hat es bei mir mit den ganzen Anrufen angefangen. Wurde einfach über 6 mal angerufen,vor 5 T.,
129,jolina.moe,jolina.moe,,Innerhalb von 2 Tagen 8 verschiedene Anrufe,vor 5 T.,
130,❤☀️💚,baum7277r7337,,Ich war in der schule als die mich angerufen hatten😂 oder wo ich keine Zeit hatte also chillig,vor 5 T.,
131,Lul,ni.books123,,Wüsste nicht mal was Europol so als…. Gehe aber sowieso nie an fremde Nummern,vor 6 T.,
132,CR7_Power_WSK,7_footskillss2,,ich habe die auch bekomme,vor 6 T.,
133,💗,_deine_iraniche_chaya,,Oha die haben mich angerufen und ich so: hello ich no englisch,vor 6 T.,
134,mia,mia_34267,,@lotti.bo ich glaub das war das oder?,vor 6 T.,
135,#kugelfischgang,lukiderkugelfisch,,Ich hatte gerade so einen,vor 6 T.,
136,Noel klein,noel_ak70,,Ich wurde auch 4 mal angerufen,vor 6 T.,
137,🐊909🐊,9peach_tea9,,hatte heute einen,vor 6 T.,
138,fcbayern_356,fcbayern_356,,ich habe gestern Spam Anrufe bekommen 😳😳ich war aber gott sei Dank in der Schule,vor 6 T.,
139,anthozup,anthozup,,mein freund auch,vor 6 T.,
140,die eine die es kann:),coole._.gurke,,bei mir ist das auch so,vor 6 T.,
141,Ammy <3,amelx_8,,@heli.229 ist mir schon 2 mal passiert,vor 6 T.,
142,Michelle Manson EB,michellemansoneb,,Ungelogen ich habe genau denn gleichen Anruf bekommen heute2 mal ich bin dran gegangen aber hab auf stumm gemacht. Die haben dann aufgelegt,vor 6 T.,
143,Toni DiNozo,zlatko.w,,14 mal haben die mich an nem Tag angerufen🫠,vor 6 T.,
144,Alllllooooooooooo,adel124560,,Bei mir ist es passiert,vor 6 T.,
145,der ausfrankfurt76,derausfrankfurt76,,bei mir cestern 6 mall,vor 6 T.,
146,Rita Spizzirri Elena,elena.1616,,"Ich gehe sowieso nicht dran, wenn bei mir Spam steht.",vor 6 T.,
147,Nadine,nadinemightymouse,,ich wurde 3 mal angerufen zum Glück kam nur einer zu Stande wo ich gleich aufgelegt habe 😅,vor 6 T.,
148,ghosty ÙwÚ,ghostythoasty762,,Ich wurde auch 5 mal angerufen😅 Ich hatte etwas schiss ehrlichgesagt..,vor 6 T.,
149,gerlindevonpopel,gerlindevonpopelvhehdvr,,Die haben mich gestern angerufen und da ich schlecht in englisch bin und meine Mutter mir das erzählt hat hab ihh aufgelegt,vor 6 T.,
150,Mandy,mandyrottnann376,,bi mir fast festlich,vor 6 T.,
151,Papuchoooo,danielmartinezotano,,Ich wurde 100 mal angerufen 😅,vor 6 T.,
152,Theo_17,_theoeseba,,War bei mir auch,vor 6 T.,
153,Yoda.ist.cool,yoda.ist.cool,,lol ich wurde auch von der nummer 4 mal angerufen,vor 6 T.,
154,Benjamin Langos,benjamin.langos,,"hatte ich gestern auch, nachdem ich die Computer stimme gehört hab, hab ich sofort aufgelegt",vor 6 T.,
155,gini_friends,emi_gini1,,"omg ja bei mir auch, vielen Dank",vor 6 T.,
156,Anna Kühn509,benben3564,,"Korrekt man, bekomm die seid 3 Tagen",vor 6 T.,
157,user5430352098314,lenams0705,,Ich würde auch angerufen aber habe auch sofort auf gelegt,vor 6 T.,
158,Leonit,leonit..shala07,,Ich bekomme immer ein anruf die mich befragen wollen op ich rotwein oder weiswein besser finde,vor 6 T.,
159,Vanessa & the furmazingfriends,vanilscha,,"Ich kann es toppen, wurde an einem Tag 12x angerufen xD",vor 6 T.,
160,Ced,voodoosmoothie,,"gerade heute gehabt. europol gehört, direkt aufgelegt.",vor 6 T.,
161,Alex_ar007,alex_ar0000,,Und was haben sie davon?,vor 6 T.,
162,lennart_und_ich,lennart_und_ich,,Was passiert dann wenn man dran bleibt,vor 6 T.,
163,salibonani,reflex_snipe,,"Wenn mein Hund eine Katze ist, wann habe ich Geburtstag?
A. Nein
B. London
C. Toastbrot
D. Tobias",vor 6 T.,
164,PK,pscl_20000,,Ja bei mir meinten die meine ID Card wurde missbraucht 😂🤣,vor 6 T.,
165,annabella,bella.axg,,Danke ist mir auch passiert🙏🏼,vor 6 T.,
166,Blackbluefires🏴‍☠️,blackbluefires,,Ich wäre beim Spam Anruf sowieso nicht ran gegangen XD,vor 6 T.,
167,Emily Schreck,._emyx_,,"Bei würde vor ein paar Monaten immer aus dem Ausland angerufen wie Nepal, nordmatzedonien und so Wörter bri das hat so genervt😂",vor 6 T.,
168,Miriiii,accm.e,,Gestern 4 mal passiert,vor 6 T.,
169,eddyjames,ejamess_20,,@marven_laukat heute bei mir die ganze Zeit,vor 6 T.,
170,delia,delia.plt,,@jette.ltz Omg Jette DU HAHAHAHAHAHAHHAHHAHQHQHQHQQ,vor 6 T.,
171,BusFANSUS,der_bus_fan2022,,hatte ich schon 3 mal aber als nachichten,vor 6 T.,
172,-,oakley_street,,@heihei866 war doch bei dir so oder,vor 1 W.,
173,roronazoro168,roronazoro1688,,mein freund das einfach in schul pause bekommen und wir haben so rin lachflash gekriegt,vor 1 W.,
174,SarahchristinAnime,sarahchristinanime,,Gibt es bei sky auch,vor 1 W.,
175,maria.s.tk,maria.s.tk,,Das ist meiner Mutter passiert :/,vor 1 W.,
176,zayn/zane,kumaexe,,Hatte schon Panik bekommen als es bei mir passiert ist xD,vor 1 W.,
177,hzm maul ya كلب,7777_cry_kid_7777,,hab aufgelegt weil ich kein Deutsch kann,vor 1 W.,
178,Your mom's fav:),its_chaaaeee,,Digga die haben mich jetzt schon 6 mal angerufen und jedes mal hab ich nen halben Herzinfarkt bekommen,vor 1 W.,
179,Luunaki,luunaki,,Ohne Spaß das ist gerade das hilfreichste was ich seit langem seine ich wurde von mittlerweile 6 Nummern angerufen und dann nur heute und gestern,vor 1 W.,
180,mini2006,mimimurphyschroeder,,"4 mal??? Die haben mich 18 mal angerufen, über zwei Tage verteilt 🙄 immer wieder unter neuer Nummer",vor 1 W.,
181,Kiran,starlit_nightsky,,"Wurde gestern auch von so einer Nummer abgerufen, konnte aber nicht hin. Hab mich schon gefragt was das soll, danke für die Info 👍",vor 1 W.,
182,Leni Marie,222leniii,,"Der Drang einfach ,,NA HÖR MAL” ins Telefon zu schreien ist leider viel zu hoch….",vor 1 W.,
183,LalaFlowerTTV,lalaflowerttv,,"wurde auch neulich angerufen, dass meine ""ID Card"" ge""missused"" wurde. mit Druck auf 1 hätte ich mehr Informationen darüber erfahren.",vor 1 W.,
184,^-^,kaya.173,,ey aber bei mir wenn jemand mich anruft bin ich nicht erreichbar und die mich anrufen bekommen irgend so eine englische stimme ka,vor 1 W.,
185,.,emmy.sprkl,,omg hab gestern und heute von so nummer anrufe bekommen wollte zurück rufen ging aber nicht,vor 1 W.,
186,Robert Sandeck,tger_robert,,Hatte auch so nen Anruf. Hat irgendwas von einer ID geschwafelt. Hab aufgelegt und nie wieder was gehört.,vor 1 W.,
187,💞 TIL 💞,til.sct,,bruder ich hab die zurück gerufen und gefragt wer die sind unso ind jetzt seh ich das.. 😂,vor 1 W.,
188,danke für die 3K,mia904524,,wahr bei mir auch hatte es auch,vor 1 W.,
189,😗👍,die_2.klauendenschlangen,,Das war auch bei mir ich hab einfach aufgelegt und hab sie blockiert ist das so gut,vor 1 W.,
190,Guschonka,guschonka.man,,das war bei mir vor paar tagen,vor 1 W.,
191,Jojo,jo4alp,,Ich wurde mal an einem Tag von 4 verschiedenen Nummer angerufen als ich in der Schule war MITTEN IM UNTERRICHT😬,vor 1 W.,
192,Your local Anime fan,the1strangerthings,,Man sollte eigentlich nicht mal rangehen,vor 1 W.,
193,Heyy,hosnas_aesthetic_live,,oh mein Gott es ist mir einfach gestern passiert,vor 1 W.,
194,Niklas,nxlas08,,Bei mir stand Spamverdacht,vor 1 W.,
195,Bengü.hamburg,benguezuemra,,Wurde heute 10 mal angerufen,vor 1 W.,
196,emely<3,lvckyeb,,ist mir gestern Passiert 😅,vor 1 W.,
197,gxbrochxnx_,gxbrochxnx_,,"Werde andauernd angerufen aber da redet keiner und legt dann direkt nach 2 sek auf , kann die Nummer aber nich zurück rufen , ganz komisch",vor 1 W.,
198,Franka,franka_3.8,,"ja aber was ist, wenn das wirklich von Europol war und die meinen du hast wirklich was gemacht, weil du aufgelegt hast",vor 1 W.,
199,Elisa Fritzler,elifri_1804,,Ohhh ich auch hätte ich nur das video schon 1 monat davor gesehen(bei mir das gleiche passiert habe auch versucht zurück anzurufen),vor 1 W.,
200,Carmelina,hula_hoop_mama2020,,Mich rufen die seid gestern an,vor 1 W.,
201,꧁ঔৣ☬💙 mahmoud 🧢☬ঔৣ꧂,mr.crab0000,,diggah die haben mein Vater angerufen dann bin ich ran gegangen und hab die gefragt ob die deutsch können die haben direkt aufgelegt,vor 1 W.,
202,EliasFifa32,eliasfifa32,,ich gehe nie wenn mich jemand anruft dran,vor 1 W.,
203,Nullsechseno🪓,eerkul06,,Omgggg hab bis jetzt Ende angehört,21-6-2022,
204,Dave.hp,david.hp295,,Das geht unendlich ♾,21-6-2022,
205,All The Sanctuary,allthesanctuary,,Imagine es ist dann die echte,21-6-2022,
206,.,laura.bsmm,,@💨 war doch letztens bei dir als du nicht zurück rufen konntest,21-6-2022,
207,Alix,wolfilunachan,,Wurde gestern 12 mal angerufen,21-6-2022,
208,Eddy_999,eddy__999,,er wurde 4 mal angerufen villeich is das doch echt europol,21-6-2022,
209,celine:),ptkjimin,,meine kleine Schwester hatte sowas glaube ich vor kurzem,21-6-2022,
210,<3,aenattt,,@anaiagift ich wurde einmal von solche Nummern 4 mal oder so am tag gerufen,21-6-2022,
211,fri3da17,fri3daa,,Und was wollen die erreichen?,21-6-2022,
212,Hazelnutcookie,d.wdg,,Ich würd mitspielen und alles gestehen,21-6-2022,
213,1,krasser_typ20,,Ich wurde eine Zeit lang 4-5 mal am Tag angerufen und das 2 Wochen lang aber ich bin nie drann gegangen,21-6-2022,
214,🥷🏻,balkan_girl1702,,Ich auch gerade 😭😭😭,21-6-2022,
215,🦅,yxsin.174,,Rufen die nur bei Samsung an oder auch auf iPhone,21-6-2022,
216,jnhermann2008,tani065,,Bei mir haben welche 6 Mal angerufen,21-6-2022,
217,user5315521742822,marielleheinrichs07,,Uns gestern auch 2-mal passiert @julyslife07,21-6-2022,
218,Elisa,e1isa.de,,@chiara_ngo genauso,21-6-2022,
219,Xinyan's Flame 🔥,xinyanmain.asf,,"Wurde auch viermal. Das ding ist, ich habe an dem Tag auf nen wichtigen Anruf gewartet also musste ich immer dran gehen :')",21-6-2022,
220,Kobralo,kobralora,,"Ok,aber was ist denn ihr Ziel?",21-6-2022,
221,viola.sophiee <3,viola.sophiee,,Gott sei dank gehe ich nie ran HAHAHA,21-6-2022,
222,❤️K und L❤️,noonestolemyheart,,@.erxyx das war doch so eine wie bei dir,21-6-2022,
223,Kljucik❤️‍🔥,laura.kluklu,,Hab das in letzter Zeit sooooo oft,21-6-2022,
224,Agir,_agir_l,,aber warum machen die das?,21-6-2022,
225,charlyy_sc,charlyy_sc,,@miawesker_ ey waren das die von dir,21-6-2022,
226,Soccer ⚽️,irak_al,,Ist es normal wenn die wissen in welcher Stadt ich lebe weil gerade hatte ich so ein Anruf auf deutsch,21-6-2022,
227,hrafnnorn,hrafnnorn,,"POV: in dem Moment in dem du das TikTok guckst, bekommst du den 6. Anruf von Europol an diesem Tag",21-6-2022,
228,₵ɄⱤⱤɆ₦₵Ɏ,nlloweby,,was ist wenn wir nicht auflegen?,21-6-2022,
229,Fettsack18,thoreohye2018,,Ich geh generell nicht Ran,21-6-2022,
230,elli <3,4live_elli,,wurde vor 2 Wochen die ganze Zeit angerufen also 1 Woche lang 😳 bin nie rangegegangen jetzt weiß ich wieso daaankkkkeeeee 😳,21-6-2022,
231,Kringel22,kringel22,,mich haben 2 verschiedene Nummern angerufen ich bin aber nicht rangegangen,21-6-2022,
232,Jannes D,pusch07,,wurde auch mal 5× angerufen,21-6-2022,
233,SchwarzeWitweHD,schwarzewitwehd,,"@bennobenzenhd eh schau mal... dann hat die europol gesagt, und nicht Mariopol 🤣",21-6-2022,
234,Dennis mma,mma.dennis,,wurde heute 4 Mal angerufen,21-6-2022,
235,Manu,mannu4092,,@domi_r6 vllt war es das,21-6-2022,
236,.,.tryms,,Lol hatte das gestern wusste nicht was das ist habe aufgelegt weil ich kein Englisch kann,21-6-2022,
237,<3,user1711200o,,Ich hab schon viele bekommen😳,21-6-2022,
238,Unknown🖤,unknown_.183,,Hatte meine mom,21-6-2022,
239,Zitate,xmaks.0,,mein vater wurde von so welche leuten angerufen mein vater hat aufgelegt,21-6-2022,
240,❤❤😍😍Karol & Tini Fan.❤❤😍😍,schnuffel800,,"Ich bekomme immer von Deutschland immer anrufe und geh eh nie dran.
😂🥰Danke für den Tipp.🥰🥰",21-6-2022,
241,Michi,mxchx.dt,,wurde gefühlt schon 20 mal angerufen,21-6-2022,
242,☆♡SYou.fan.BoY♡☆,syou.fan.boy14,,Ich kann wieder anrufen dann haben die irgendwas mit gmbh gesagt @dasistjay,21-6-2022,
243,LuminousFlux82 Stefan,luminousflux82,,Hatte jetzt auch schon etliche von denen.,21-6-2022,
244,💗🙈,sarah_and_pippi,,ich wurde 14 mal angerufen. dann habe ich ja alles richtig gemacht😂,21-6-2022,
245,Football,most_of_football,,Hab auch zurückgerufen kam genau das selbe😂,21-6-2022,
246,uygar.neolence,uygar.neolence,,Samsung zeigt mir diese Anrufe als Spamverdacht an also no problem 😏,21-6-2022,
247,𝕂𝕠𝕜𝕠,koko.b_999,,Oha ist mir gestern passiert😳 Ich hab aber aufgelegt 😬,21-6-2022,
248,deto_tv,deto_tv,,Bei mir letztens Interpol xD direkt aufgelegt xd,21-6-2022,
249,immerelliot,immerelliot,,und NIEMALS ja sagen,21-6-2022,
250,♡+*Xaya*+♡,playxaya,,Ja mich habe 5-6 so nummer gerufen 😳,21-6-2022,
251,MILAN,mrmosbyy,,"Ja aber was passiert wenn jetzt wenn du dran bleibst, also was ist deren Mission ?",21-6-2022,
252,Cookiecandraw,cookiekillercandraw,,Ich die schiss hat vor telefonaten und somit abwartet bis anrufe wegehen.,21-6-2022,
253,Alex67,joseph_stahl_ihn,,Ich rede dann immer mit denen weil ich sonst niemanden habe 😂😂😂,21-6-2022,
254,Google,google.offiziale,,Gibts was das man dagegen machen kann dass die nicht mehr anrufen können?,21-6-2022,
255,dummeheySchnitte,dummeheyschnitte,,das ist mir gestern passiert und ich habe weiter gesprochen aber die haben mich nicht verstanden die haben dann aufgelegt😬,21-6-2022,
256,SimplePhil_ttv,simplephil_ttv,,Die quatchen mir ständig auf die Mailbox,21-6-2022,
257,Tom Tomy,tom4536711,,was passiert wenn ich nicht auflege 🥺,20-6-2022,
258,Dirk,dirk.baecker,,Nein....nicht auflegen. mach den Spaß mit und bringe die Anrufer in den Wahnsinn....ist viel Lustiger 😂😂😂,20-6-2022,
259,i.t.a.c.h.i. King 7,sad.boy.2.0_,,letztens hat mich auch irgenge jemand angerufen ich hab direkt aufgelegt,20-6-2022,
260,Natalie,4_nobody_3,,ich hatte schon so Angst,20-6-2022,
261,Tommy_die_Tomate,tommy_die_tomate,,Ich der fast die Woche 8 anrufe bekommt,19-6-2022,
262,♡Sina♡,sina.2111,,wurde vier mal angerufen von verschiedenen nummern,19-6-2022,
263,x11pali11x,x11pali11x,,5 Nummer eingespeichert an den Rest geh ich nicht ran 😂,19-6-2022,
264,🇲🇦🇪🇸,y0urfav.maroc_,,Ich wurde 12mal angerufen,18-6-2022,
265,lil.jean🐼,lil.jean611,,Gut das ich nur da rangegangen bin beim 6ten Mal wollze ich rangehen und beleidigen...😂,17-6-2022,
266,frÖschige,derfrosch12,,Ja hatte ich auch,17-6-2022,
267,..,d.clips_,,Mir ist das uch passiert,17-6-2022,
268,vivi,_________vivi________,,seit tagen,17-6-2022,
269,Nini,ichmagkekse69._.4,,"Ich hab das angenommen und nach dem 8 mal hab ich gesagt: Bestattungsinstitut für Alleinstehende Leute, sie sterben wir erben wie kann ich ihnen helfe",16-6-2022,
270,Augustus,suffering.from.success,,digga wallah spamanruf heute,16-6-2022,
271,™,somekill34,,die haben mir h auch angerufen und habe auch probiert zurück zu rufen,16-6-2022,
272,Naja,benajabacher,,Das ist mir Gestern Passiert,16-6-2022,
273,Genleinpinguin884,genleinpinguin884,,Ich hatte einen Anruf von der U. K. Bekommen😳😳😳😳,16-6-2022,
274,Deniz,denizzzzzzzzzz_,,@real.lh20 du wurdest von denen angerufen 😳,16-6-2022,
275,nra87569,nra87569,,Hatte ich in österreich auch schon😂,16-6-2022,
276,Dino,suchti_35,,"Ich habe auch nh Nummer die immer aus Berlin kommt,.,",16-6-2022,
277,Luana,luanaoriginal10,,Bei mir auch passiert 6 mal aber da hab ich Hallo? gesagt aber sofort aufgelegt 😅,16-6-2022,
278,user5792771539079,mermaid_sonja,,Ich habe sofort aufgelegt,16-6-2022,
279,Hunde 🐶,louisja27,,Die haben bei mir angerufen heute,15-6-2022,
280,David Fedorenko703,davidfedorenko703,,Bei mir war es auch ich habe nicht gechört das mich jemand anruft dann ich fersuchte wie du zurück anrufen,15-6-2022,
281,Hallo🇷🇺,__hallo__04,,Das war bei mir😳,15-6-2022,
282,spike_05_09_2011,eliasmaister,,Meine Mama wurde 9 mall angerufen heute,15-6-2022,
283,gta _content,evo_lancer_best_car,,habe ich auch,15-6-2022,
284,ᶠYͧoͨᵏu,amix16x,,Mein Handy warnt mich😂,15-6-2022,
285,🇷🇴,vg.ruiz,,OMG BEI MIR WURDE AUCH ANGERUFEN,15-6-2022,
286,its_my_sad_and_happylife,its_my_sad_and_happylife,,grade davon angerufen worden zum Glück das Video davor gekukt😂,15-6-2022,
287,randome,user15384826354,,IST GRADE PASSIERT DANKE,15-6-2022,
288,👩🏽‍❤️‍💋‍👩🏽,not.sev,,@asya.6153 @ela_dmry war mal bei mirvhab direkt aufgelegt,15-6-2022,
289,yezda❤︎,yezda1223,,Danke für das video hab es gestern um 02:00 Uhr gesehen und 3x dürft ihr raten wer mich um 10:00 Uhr anruft.,15-6-2022,
290,arda,547arda,,Gala ist die 1,15-6-2022,
291,Moin,y0urfav.rev,,Ich wurde auch angerufen,15-6-2022,
292,user3274008773382,keengently,,"ich hatte ganz gut Erfolg mit einer blacklist app. die ersten 6 ziffern waren immer gleich also hab ich die gesperrt, hat dann schnell aufgehört",15-6-2022,
293,<$$3,nad_11544,,@mine_1qp @04.nm uhmm mine,vor 1 W.,
294,A Child of God,www.jesusisking.de,,@anishka.chawla @thatgirlethel DAS WAREN DIEEEDD,vor 1 W.,
295,⠀ ⠀ ⠀ ⠀ ⠀ ⠀,pantimoz,,Google Pixel 6 B) @qumert,vor 1 W.,
296,AlexPlatSkyLine,alexplatskyline,,The time is near ur decision!,vor 5 T.,
297,🃏,kike090100,,@marijablazevic_00 they faound my compani 😂,15-6-2022,
298,cat,maxlol373,,Warum auflegen wenn man sie soundboarden kann,23-5-2022,
299,user9215288102681,user9215288102681,,"Ich wurde angerufen, fand es komisch und dachte mir schon, dass sowas wäre und zwar GESTERN! Und jetzt sehe ich das Video 😂 dude.. fyp Algorithmus 😳",vor 5 T.,
300,Parsifal444,parsifal444,,Ich wurde letzte Woche angerufen die haben mir auf Mailbox gesprochen das mit Europal,vor 6 T.,
301,MenschInnen,menschinnen,,Ich telefoniere Ständig mit denen.,vor 6 T.,
302,Linnea,hogwarts_home08,,Hab von irgendeine Nummer Sprachnachricht bekommen aber nicht WhatsApp sondern SMS hab schiss das anzuhören soll ich machen??🥲,vor 1 W.,
303,Selab_765,selab_765,,Ich beleidige immer,vor 1 W.,
304,Selab_765,selab_765,,Ja man,vor 1 W.,
305,Jax Parker,jaxparker8,,hatte ich letze woche,vor 1 W.,
306,Baumzone,baumzone,,caler ID spoofing App. hier kaufen,vor 1 W.,
307,HATRRED90,hatrred90,,"Danke! Jetzt weiß ich wohl wer mich da 4x angerufen hat. Ich gehe nie bei fremden Handynummern dran, aber beim zurückrufen kam ""nr. nicht vergeben"" lo",21-6-2022,
308,ismail,ismail_dedimya,,4 mal ich hab uber 10 anrufe,18-6-2022,
309,EddY,eddysayi,,Sonst leitet gerne zu mir um! 😅😂,24-5-2022,
310,Fatmanshouse ,fatmanshouse,,Eurpol hasst diesem Trick,23-5-2022,
311,Marco,marcorey596,,Noch nie einen Anruf von so einer Europol Spam nummer bekommen,15-6-2022,
312,Maria_boun_,designby_kreml,,Ich auch aktuell ständig das ist mega nervig,vor 6 T.,
313,Waldi,waldi496,,Digga war bei mir auch so hatte mies eier flattern hahah,vor 6 T.,
314,wasssssgehtabbbb,anastasiameinel0,,haha super mich haben die heute mindestens 11 angerufen alter das wahr heute extrem nervig,vor 1 W.,
315,🇷🇺🇺🇦,tom_indahood,,Solche videos sollte man liken,vor 1 W.,
316,NI$MATIK,nismatik,,Dieser eine Kriminelle:😧,21-6-2022,
317,Its me,psssstbequiet,,„Ich hab exklusiv für euch versucht die Nummer zurück zu rufen“ - 100% Galileo Journalismus🤡,21-6-2022,
318,D. L.,lilsaint1988,,Hatte auch diese Woche so nen Anruf von ner robo Frau die wollte das ich die 1 drücke😅 als ob ich so dumm wäre 😂,16-6-2022,
319,pDizzy,pdizzyy,,"Bin mal dran geblieben, auf einmal son inder auf englisch mich mit microsoft zeug vollgelabert😂😂",24-5-2022,
320,Polina_qdh,polina_qdh,,Wurde 6 mal von dieser nummer angerufen nur jede qar anders 💀🥲,vor 5 T.,
321,Muss.gitano,musa.gitano0,,Bei Gott das warbei mit auch ich habe ihn tot beleidigt,vor 6 T.,
322,Tropical Life,tropical__life__,,Ich hab gesagt i dont understand you mister pancelbox und hab aufgelegt,vor 1 W.,
323,Deine mutta,blacky_830,,Es bringt es wenn man die Nummer blockiert wenn dich die Nummer ja immer wieder ändert😂😁😂,17-6-2022,
324,Lisa_Lydia,lisa.lydia,,mich hat die polizei von dortmund angerufen und hat gesagt sie hätten mich gesehen drogen handeln...ja also bin 14 und wohne in italien😂😂😂😂😂,15-6-2022,
325,Emma♡,yanadimova111,,mich rufen ständig solche Nummern an die Nummern sind jedes mal verschieden 😅aber ich gehe nicht ran,15-6-2022,
326,Olivia Wierz Gutierrez,oliviawierzgutier,,Ich wurde gestern sechs mal angerufen von Unbekannten Nummern,vor 6 T.,
327,Felix,felixafootball,,hab grad einen bekommen danke für die Tipps,vor 1 W.,
328,❤️😩Have fun with anime😩❤️,mylife_214413,,Junge heute 4 komische Nummern angerufen😂,20-6-2022,
329,OrdoronDK,ordorondk,,"4Anrufe hmm fein, an einen Tag 167x immer andere Nummern und immer ging es um Krypowähungen, ich habe mich angemeldet und müsste jetzt kaufen!",vor 5 T.,
330,Oha,kingdumbum,,Ja MICH HAT AUCH SO EINER ANGERUFEN HAB ZU DEN GESGAT DU BOK KAFALI 😳 die so hello this is a call Form. The erupol,vor 5 T.,
331,Fisch,fischooooooooo,,würde 7 Mal angerufen,vor 6 T.,
332,Robyn Levi,levi_robyn_ackermann,,Darf man den auch beleidigen oder mit spielen ? 😂,vor 6 T.,
333,Elisa,elisasteacup,,Ich werde ständig von neuen Nummern angefrufen,vor 6 T.,
334,Sweet Melody,starsongsorceress,,"Die haben mich 1½ Tage belästigt, obwohl ich die neu generierten Nummern immer geblockt hab. Ich bin dann einen Tag in den Flugmodus gegangen. 😥",vor 6 T.,
335,vivi,vivi_dx,,Deswegen geh ich nie bei fremden Nummern ran 😂,vor 6 T.,
336,🕺🏿,whos.sara._,,Ne man ich spiel mit und dann mach ich heckmeck mit denen,vor 6 T.,
337,Patrick Schüler,der_schueler,,Bei mir haben sie es 20x versucht mit 20 Nummern und jetzt habe ich 20 Nummern auf der Blacklist,vor 6 T.,
338,Steve,jayedithsfanpage,,warum sollte ich eine random nummer annehmen😭,vor 6 T.,
339,Olti S.,oltis1,,Ich würde kuhhhhllll sagen oder schwör auf big mac ohne Soße,vor 6 T.,
340,Angelina Kuhnert,angelinakuhnert,,hab da mal abgenommen und die frau am anderen ende angebrüllt sie hat nach micht mal ner minute aufgelegt 😂😅,vor 6 T.,
341,niliistcrazy 14,niliistcrazy14,,Heute haben bei mir 3 solcher Nummern angerufen,vor 6 T.,
342,Lisa,lisa.hck1,,@rieke_925 Ey dass waren doch die Dinger die mich nh ganzen Tag angerufen haben,vor 6 T.,
343,Maja <3 🍵🎧,maja4ever.xx,,mich ruft so ne nummer jeden tag gefühlt 30 mal an,vor 1 W.,
344,nika,nika.j9,,"Mein handy be like: nummer aus Washington DC ruft dich an mein handy meinte ""Spam anruf""",vor 1 W.,
345,がＴｒａｓｈナ,.yequsa,,habe immer bis zum tot beleidigt,vor 1 W.,
346,Aylin,aylinx55,,Direkt aufgelegt,21-6-2022,
347,Leo,that.german.dude,,Ich hab den mit bling bling zu gedröhnt da hat er aufgelegt,21-6-2022,
348,Linda,lin.de...2022,,und dan so ups war ja wirklich ein Polizist 😳 hab ja auch wirklich vor dem Jahr jemanden ermo....t😂😳,21-6-2022,
349,Analena.lsr,analena.lsr,,Seit 5 Monaten jeden Tag bestimmt 10 mal und immer verschiedene Nummern bei mir😐,21-6-2022,
350,Julie-Saphira,julie_ruschmeyer,,Gestern 17 mal,21-6-2022,
351,Bille 16,urlaubohneende,,"Ebenfalls Achtung bei Anrufen: hello, this is Kevin from Microsoft - mit Wiesbadener Vorwahl",21-6-2022,
352,Kai Sieber,kaisieber0,,"Gestern Anruf bekommen ""hier ist Deine Mutter"", direkt aufgelegt.... Glück gehabt 😁",21-6-2022,
353,Nichts,fancy_scoot,,Wurde 12 mal angerufen,20-6-2022,
354,mariella.wiese,mariella_mononoke,,"1) Bei mir wurde mit so einer computergenerierten stimme angerufen, die behauptet hatte, dass meine Personen nr. missbraucht wurde. Wusste nichtmal",16-6-2022,
355,𝐡𝐚𝐲𝐚𝐭𝐭,05.hayatt,,Die trauen sich nicht mich anzurufen sonst 🩴,16-6-2022,
356,kawa_cgn,kawa_cgn,,ich dachte das ein Freund mich verarscht und hab die beleidigt 😂😂😂,vor 5 T.,
357,jen2y,jen2y,,"Hab mach 14 anrufen die 1 gedrückt und dem auf english klar gemacht, dass die mich nerven. gepaart mit extrem vielen beleidigungen. Seitdem nix mehr😂",vor 6 T.,
358,Mersije Shuaipi848,xxxtentacionfan5k,,ich hab den beleidigt und aufgelegt😂,vor 6 T.,
359,Itzzryaan,ryxnn28,,Immer erst beleidigen dann auflegen,vor 1 W.,
360,Ali 💪🏼🧔🏻‍♀️,grey.kingstons.wife,,Diggah ich hab die Englische Oma immer beleidigt und dann aufgelegt,vor 1 W.,
361,AbdulKrd,abdulkaradere,,"Haben mich gestern angerufen. Habe die beleidigt und aufgelegt, bin jetzt im Knast😌",21-6-2022,
362,organischefleisch,organischefleisch,,Was bringt es den Leuten überhaupt,19-6-2022,
363,Mirmimgi1980,mirmingi1980,,Ich hab die ganze Familie von dem manrufer beleidigt 😂😂 der ganze tsg klingelte,vor 6 T.,
364,Woutan,woutan,,Einfach clever dialer benutzen und fertig 😂,vor 6 T.,
365,sam / chiara,thisuserisgaeaf,,@oliviaplt bro safe bei dir so,vor 1 W.,
366,🥷🏼.𝕸.𝕰.𝕽.𝕿.🥷🏼,meerrttooo,,Ich würde sie auf Englisch beruhigen,vor 1 W.,
367,kaffeekomplett,kaffeekomplett,,"Hab aufgelegt, gehe lieber ins Freibad. Ha ha 😂",vor 1 W.,
368,Only accepting cool people,jaoixos,,Mein Heckername ist shushu,vor 1 W.,
369,Chris,chrisrau88,,Hab mit denen ne weile geredet 😂 war n guter Zeitvertreib um zurück zu verarschen,21-6-2022,
370,Fabi,14.12_fabian,,oder einfach gar nicht erst rangehen kann auch ein hack sein durch den anruf kannst du dem hacker Zugang auf dein handy geben,16-6-2022,
371,mika :),mikallerlei,,@toninofront OHHH,vor 6 T.,
372,Juhnie_hnvr<33,juhnie_hnvr,,@_shiningsara_ HAHAHAHHA……..,vor 1 W.,
373,030,user030__,,@zeze.a18 abowowww,vor 1 W.,
374,🥷,bxjrxmshx,,@dieeineaustrk.38 omg das ist mir passiert,21-6-2022,
375,sinaasappelsap uit 100% sap,avecemmi,,bro hab das Video vor 10h auf meiner fyp gehabt und seitdem 20solcher anrufe bekommen und davor noch gar keine ungelogen,vor 5 T.,
376,Nicky🦄,shettyp0wer,,ohaaaa die haben mich eben angerufen @annevogts,vor 6 T.,
377,user7639362282072,sammelbox,,Ich wurde schon fünf mal angerufen,vor 1 W.,
378,Lil God Complex,lilgodcomplex,,Ich wurde gestern von einer Mareike angerufen die eigentlich ihre Schwiegermutter anrufen wollte...,15-6-2022,
379,🦋,ceylin181208,,@i_am_sally5 Sally du wurdest gestern ja von sowas angerufen,15-6-2022,
380,👑R.M_K_I_N_G👑,raees._.m._.king,,der hat mein vater angerufen und 1000€ ausgeraubt digga,18-6-2022,
381,Sophie,its_me_the_pancake,,aber abnehmen darf man?,15-6-2022,
382,777🕊,michigk,,„Ihre Deutsche ID Card ist in Straftaten verwickelt“ 😂 bekomme die Anrufe aber leider auf meinem Diensthandy,28-5-2022,
383,Mia,nezuko.chan.05,,"Ich werde nie von irgendwem oder irgendwas angerufen, nicht mal von meiner Familie 😂",23-5-2022,
384,Janni_the_Bunny,janni_the_bunny,,Deswegen erreiche ich Dich nicht mehr 😳😳😳😳,6-6-2022,
385,Maya,_.yeah._lol,,@stellaaaa.030 guck mal die Nummern die mich angerufen haben waren wirklich spam Anrufe,24-5-2022,
386,amklul,4mklul,,"eine frage, kann ich drann bleiben und den scherz einfach mitmachen? muss ich auf irgendwas achten oder schieß ich damit ein eigentor",23-5-2022,
387,Jon Osmani,jon.osm08,,@_oreocake3 das ist doch wie bei mir als ich die ignoriert und geblockt hab,21-6-2022,
388,User,jolinadietroete,,@jonnalinasch,vor 5 T.,
389,Larissa Schmidt,larilou__s,,@Annika,vor 5 T.,
390,parmis,zuschoenumwahrzusein,,@5parmida,vor 6 T.,
391,eytelia,eytelia,,@leonie0_0,vor 6 T.,
392,Seli,seli900,,@rabische,vor 6 T.,
393,~Nina~,die_hobbylosee,,@sylvana07,vor 6 T.,
394,Sacha,63.sacha,,@kauli.23 😂,21-6-2022,
395,….:),da1a1.19,,@ayaa_ab1_,vor 5 T.,
396,Tami234768,tami234768,,@Leonie,vor 5 T.,
397,<333,nicht.deine.perle09,,ich kriege anrufe einfach so aber die Nummer ist nicht vergeben,vor 6 T.,
398,._.,babybubblebub,,Ich habe vier Anrufe gestern beckommen nur das die nix gesagt haben,vor 6 T.,
399,hi,just.a.random._.girlxd,,bei mir labern die was von konto aktivitäten in usa 😂,vor 6 T.,
400,Tatty Schütze,tattyschuetze2017,,Die rufen täglich bei mir 5. Mal an 😟 Hab die Nase gestrichen voll🤬😡,vor 6 T.,
401,Leni.bzo,leni.bzo,,@lena_rz_2211,vor 6 T.,
402,Jess_schoko2.0,jess_schoko2.0,,@jess_schoko,vor 6 T.,
403,Jess_schoko2.0,jess_schoko2.0,,Mich hat auch so eine Nummer angerufen und hat auch sowas gesagt ich bin beruhigt 😁,vor 6 T.,
404,Michael_,michael_the_demisexual,,"Mich hatte auch jemand aus Texas angerufen, ich keine Ahnung wer das war, also habe ich geblockt",vor 6 T.,
405,Greta,hibiskustee.i,,@Melixolotl,vor 6 T.,
406,David Arnold,kyonic91,,Ich hab alles zugegeben,vor 1 W.,
407,Stranger things Fan ❤️,dalia.stranger.things,,danke hab mich achon gefragt,vor 1 W.,
408,💙💛,dieeinefenerli19o7,,@cgn._.e,vor 1 W.,
409,Ꮛℓ𝒪 ⴺⴹ Ꮛ𝔑Ꮻ,_ee23_,,@dereine4242,vor 1 W.,
410,Firefox_040,wierdfoxy,,pov: du hast straftaten begangen und legst einfach auf wenn die anrufen😂,vor 1 W.,
411,A.D,a.d.1.9,,"Vallah hab schon gefühlt 100 Nummern deswegen geblockt. Und hätten die sich nichts besseres als europol ausdenken können? Digga, europol steht",vor 1 W.,
412,amira ✨,thegirlnamedamira,,@ich_bins_silvi,vor 1 W.,
413,jasper.hlg,jasper.hlg,,Danke,vor 1 W.,
414,Nils,nils082009,,Und Leute immer wenn eine Telefonnummer 6 Zahlen hat ist es ein Spam denn in Deutschland gibt es keine 6-stellige Habdynummer,vor 1 W.,
415,Ben,_roadrunnerz__ben_,,also ich bin in internationale straftaten verwuckelt aber Europol weiß nix davon 😳,vor 1 W.,
416,Eda ☪︎,edanbg,,@ruslana_34_,vor 1 W.,
417,🍾,sechseinslea,,@larajakob3,vor 1 W.,
418,￼￼,ssense______,,hab gesagt „hab gekackt“ und aufgelegt,21-6-2022,
419,H,hixa67,,@selinasphh,21-6-2022,
420,96050 𝑡ℎ𝑒 ℎ𝑜𝑜𝑑,deinealexa,,@alinamanger1,21-6-2022,
421,3|\/|!L!@,e_ilia0,,Ja ja ja genau weil ich hab ja schließlich keine internationalen Straftaten begangen 🙂,21-6-2022,
422,♡︎♡︎no one can hurt you ♡︎♡︎,die_premium,,also ich nehme nie Anrufe an von Leute die ich nd kenne 😃,21-6-2022,
423,linda,lindaxhn,,@ottmachtflott lol des haben die glaub ich bei mir gemacht und gesagt das iwo mein perso is,21-6-2022,
424,Hallihallo,hallihallo061,,Mich haben sie insgesamt neun mal angerufen danke für das Video sonst hätte ich nicht weiter gewusst,21-6-2022,
425,Lea,lea_crazy119,,@leni_ly.e,21-6-2022,
426,Keiner mag mich,keiner_mag_dich4,,Eif sagen das ich von der echten Polizei bin,21-6-2022,
427,L,lg._.00,,@mh._2201,21-6-2022,
428,Lukas,lu_kas05,,@stein_wg.de @bestejosi07034 😂,21-6-2022,
429,Tim Gaylord,thatsfuckinggaylord,,"Ist mir auch passiert. Hab insgesamt zwei Nummern blockiert, danach wurde ich in Ruhe gelassen.",21-6-2022,
430,Mina,eliza.mina,,Hab nach dem sie angerufen haben so 15 spamanrufe bekommen… der Polizei gemeldet dann nie wieder einen einzigen,21-6-2022,
431,viickywf,viicky.wf,,wurde letztens auch angerufen 10 mal oder was & alle geblockt,21-6-2022,
432,Elija,elija_sl,,mein Tip: Anrufe von fremden Nummern nie annehmen und dann die Nummer googlen. Wenn es kein scam ist kann man ja auch wieder zurück rufen.,21-6-2022,
433,Der Tom,der__tom__,,Endlich weiß ich wen mein Handy blockiert und mir nicht Bescheid sagt,21-6-2022,
434,Erleuchtet Ewiglich,erleuchtet_ewiglich,,↖️🛐🙏👑,21-6-2022,
435,Lene,lene.blo,,@mir.._..egal,19-6-2022,
436,...,black_jerrie,,Die haben gesagt das gemeldet wurde das ich vor 5 Monaten oder so keine Maske getragen habe🥺,15-6-2022,
437,emily,emilyy.hlb,,@jackyclk,15-6-2022,
438,Yannik,y_art_.b269,,Junge jeden Tag 2 Anrufe von random anrufen,15-6-2022,
439,😽😽,ilaydaankrr,,@xojale,15-6-2022,
440,Lulana,lunalulana1,,Vo 2 dag hed mir ihr öber mir ah glüde ich ha nid gwüsd wär das isch ha gfrog wär do isch ich has nid ferstande und den reded uf eimol e anderi sproch,15-6-2022,
441,y0urfav.emre,y0urfav_emre,,@its.not_eno07 @lukas_svw19 @mika.sth 😂😂😂😂 ey Lukas Europol,vor 6 T.,
442,anna-jolie,aj.dkt_,,@🌪👾,vor 6 T.,
443,kevin,gutwillig_stern,,die blöden Spamer Spamen mich fast 30 Mal am Tag voll,vor 6 T.,
444,Just_Give_Me_AName,just_give_me_aname,,Es ERGIBT kein sinn,vor 6 T.,
445,BennieDEG,benniedeg,,4x? Ich wurde in den letzten 2 Monaten 40x angerufen von unterschiedlichen Nummern. nervig,21-6-2022,
446,Anni,anni_.x3,,@._angi.211 @theoneandonlyklappspaten @fricksti @dasist_kein_robinjo @svente9898,23-5-2022,
447,🧏🏼‍♀️,.ccntact,,@.andrew060 das ist mir gesagt die haben gesagt mein personalausweis wär gefälscht HAHAHA,vor 1 W.,
448,emmy..l,emilyy._.3210,,@bruda.hab.kein.namen,vor 6 T.,
449,carhub,carhub.edits4,,internationale Straftaten... ich glaub dann würd ich von der echten Polizei angerufen...und hab aufgelegt,vor 6 T.,
450,乃ㄚ卂Ҝㄩㄚ卂,byakuya.1,,ich nehme nummern die ich nicht gespeichrt hab nicht mal an,vor 6 T.,
451,Ronie Gysbers,thelifeofronie,,01514 💀,vor 6 T.,
452,Ibo,.iboo_,,Habe die einfach beleidigt,vor 1 W.,
453,glamrockchica_officialy,glamrockchica_officialy,,ich melde solche Nummern immer gleich ohne Rand zugehen,21-6-2022,
454,Marja ist kuhl,marja.642.fp,,Meiner Mom wurde gesagt dass ihr perso irgendwie gefälscht wurde,21-6-2022,
455,user3091936103794,clouzifer,,gesteuert von Russland 💁‍♂️,21-6-2022,
456,ᎷᏗᏒᎥᏗᎷ 🌹,marykhld95,,Ich schwöre ich habe 20 Anrufe von den 🥲 blockiert direkt rufen die mit neue Nummer an,21-6-2022,
457,BigDaddy,derbre_28,,"digger ich mach mir immer ein Spaß aus so nem Call. Wer direkt auflegt oder reinfallen, Bruder...Verkauf dein Phone 😂",21-6-2022,
458,adamczerwinski1981,adamczerwinski1981,,Wieso hebst du Überhaupt ab,20-6-2022,
459,user8357269196558,danny.daddelt,,due haben angerufen und ich hab die so durchbeleidigt,16-6-2022,
460,ᶠYͧoͨᵏu,amix16x,,Ich gehe nie an solche Nummer ran,15-6-2022,
461,Patricia FP,patriciaherfort_mandyhes,,ich wurde heute 2 Mal von einer anonymen Nummer angerufen bin aber nicht dran gegangen,15-6-2022,
462,Irini.RI,irini.ri,,@0n0nym @marjixogaga @nika_4453 @hannah.ivk,29-5-2022,
463,;),mariemd._5,,@.nursima @xv.marinsiya @Marco,vor 1 W.,
464,lena,lena_bz_,,@julia_brz_,21-6-2022,
465,aysstare,aysstare,,@m_gns1 @shark.boat,15-6-2022,
466,❥,.xfranzi,,@kay._.froggie,15-6-2022,
467,oke,diesearaberin0,,@deleted.20202,vor 5 T.,
468,👽💅🏼,lewis._20,,@angeliif,vor 1 Std.,
469,xxLena3107xx,xxlena3107xx,,@kerstintutt @lauratutt03,vor 8 Std.,
470,Mia<3,miamagdich1,,@thisalexja,vor 5 T.,
471,lina,l.i.n.a_98,,@x.hanna_s,vor 5 T.,
472,meryam,meryam_287,,@mara.xqm,vor 5 T.,
473,sems_st,sems_st,,@carlotta.het,vor 6 T.,
474,Emine❤️,emxne.61,,@acelya_yazici61,vor 6 T.,
475,Zeenat_Htk,zeenat_htk,,@aydan.akgn,vor 6 T.,
476,Kathrin,kathrin.stn,,@Lilly,vor 6 T.,
477,Evelyn,evelyn._.d,,@mcmichelle_ 👍,vor 6 T.,
478,cerine,cerine7_,,@josie_963,vor 6 T.,
479,Lana_braul_123,_lana_braul_123,,@coconut.turtle,vor 6 T.,
480,Selena,querwasein,,@louisa.srm,vor 1 W.,
481,<3,meqand,,@olenjka1705,vor 1 W.,
482,🧚🏻‍♀️,finja_fuchur,,@sfv.y,vor 1 W.,
483,Vanessa,vanessa.sophie98,,@adriii_rendiew,vor 1 W.,
484,Marie :),marxe.06,,@06.painhub !!!,vor 1 W.,
485,Michelle,michelle.kng05,,@xceline16,vor 1 W.,
486,Sanyar,sanyar.59,,@~aurelia,vor 1 W.,
487,hannah06.s,hannah06.s,,@paula_06r,vor 1 W.,
488,Ayca,ayca_1245,,@nisaa3.5,vor 1 W.,
489,Mia❤️🍩,itss_mee_miaa8,,@srah_mths,vor 1 W.,
490,TackernadelWeeb06,ladyfox06,,@e_1792,vor 1 W.,
491,.,byzonzz,,@silayenge,vor 1 W.,
492,🇹🇷🇮🇹,lara_vcl,,@nuriye_.42 @me1isaa.28,vor 1 W.,
493,a,aja.aky,,@•𝗔𝗹𝗲𝘅𝗮𝗻𝗱𝗿𝗮•,vor 1 W.,
494,Layana,user452627201,,@mv1drr,21-6-2022,
495,hi,applejuiceandspace,,@niall.the.moon,21-6-2022,
496,Lina,ijustlovemebro,,@ystabu @dvakyou2,21-6-2022,
497,lenii2302,lenii2302,,@fabiennemaczka,21-6-2022,
498,🤺,jedde.spamsss,,@.maraherself,21-6-2022,
499,martha,27.martha,,@x_ymarie,21-6-2022,
500,Irem Kosan,iremkosan34,,@sara.iv7,13-6-2022,
501,roslav🌹,h_roslav08,,@h_nav06 @limaf_274 @daria_maria.7 könnt ihr euch erneren da hatte ich doch recht,13-6-2022,
502,Nika🤍,nika_luisa,,@sinarwz,13-6-2022,
503,MalekVMax,malekvmax,,Ich bin dran gegangen und hab alles zugegeben... 😳,13-6-2022,
504,Alicia💕,..alicia05,,@amila.180 oha weist du noch das war bei mir auch mal,13-6-2022,
505,d_24,doha_gs,,@anqelinaz @userrrr_1235,13-6-2022,
506,🥷,saraqttt,,@16.tinaaa Jo unsere Mütter wurden doch angerufen,13-6-2022,
507,Martusia,m_artusia__,,@_venjii_ @nina._.antv @emili._.brsv @l1inaa junge mich haben die hundert mal angerufen nh jedes Mal neue Nummer nh ich ruf zurück nichts,13-6-2022,
508,<3,schullidulli,,@lenawithe gefühlt jeden tag,13-6-2022,
509,𝑁𝑒𝑙𝑙 :),justmenello,,@linda.trn,13-6-2022,
510,Linaaa,l.linaa15,,Was kann passieren mit meinem Handy wenn ich dran bleibe?,13-6-2022,
511,iman,iman.raf,,@hiba_akzl,13-6-2022,
512,M Schleicher,schleicher.hille,,So ging es uns allen hier auch rufen mit der Handy Nummer an die wir selber haben haben auch gleich wieder aufgelegt,13-6-2022,
513,🤍🤍,.mvav,,@.mhvr von denen wurdest du angerufen,13-6-2022,
514,Dina,no_famous04,,@j.o15o,13-6-2022,
515,I bims 👌🏼✨🌳,leonie_hlp28,,@hanna_seve von denen?👀,13-6-2022,
516,Maja,xgjcjghhjfgjh,,Die hatten bei mir angerufen und ich dann so: Ähm sorry i dont spreche inglisch😂😂😂😬😬,13-6-2022,
517,:),elifeal,,@moon.ckt @blume689 denkt ihr das ist bei mir das gleiche,13-6-2022,
518,Alina,alinaa_.0,,@kim123.123l,13-6-2022,
519,Aylin,ayliin.2412,,@a07elf,13-6-2022,
520,•Mixer•,mixer_.14,,@me76677,13-6-2022,
521,Emma,emmaaa_157,,@amelieknp1,13-6-2022,
522,.,jule.mylove,,@marieeeeeee79 macht irgendwie Angst weil so viele von uns angerufen werden in letzter Zeit 🥲,13-6-2022,
523,Seli turnen,seli_is_nd_da,,@leni_sunn das war das bei dir,13-6-2022,
524,Elmedina😘,elmedinasc,,@chiaraa.ao 😂,13-6-2022,
525,Flo-ra Af-shari,roha420,,@shaywnif,13-6-2022,
526,Leo ❤️,leo_vibezz,,junge ich bin in meinem zimmer alleine nachts um 2 im dunkeln mach mir keine angst,13-6-2022,
527,Alisa,alisa_16c,,@zoemeowmeow sowas hattest du doch gefühlt lol,13-6-2022,
528,Clara,clara_siegmund,,@_marlenehannah_ vielleicht sind das die Nummern die dich andauernd anrufen,13-6-2022,
529,cenk,cenko_1835,,oj,12-6-2022,
530,Mtb.D3an,.ayed3an,,"hatte einen mit irgend einem:""hi wann holst du das Paket ab?,, mein freund hat denn beleidigt",12-6-2022,
531,amadu Scharschmidt,fake_amadu,,@kathrinscharschmidt,12-6-2022,
532,toni,wie.immer.ich.lol,,@27.katha das war doch bei dir,12-6-2022,
533,Car Edit,car_edit.12,,bei mir hatt jemand indisch geredet hab aufgelegt und blockiert,12-6-2022,
534,Soso_katha_0805,soso_katha_0805,,Ich hab letztens 8 Anrufe an einem Tag bekommen 😳,12-6-2022,
535,Matilda_official,lillepon,,@.cashhier ella,12-6-2022,
536,Albaraa,albaraa2008,,genau jetzt rufen die micn. Danke bro hast mich im pevekten moment gerettet,12-6-2022,
537,Karol,genius0.01,,"Ich wurde auch mal angerufen, es wurde immer nur die letzte Zahl geändert, dann konnte ich voraussehen welche Nummer mich als nächstes anruft 👍🏼",12-6-2022,
538,ninamoelders,nina_moe123,,@almo99,12-6-2022,
539,Random,random_sh1t2006,,Hab diese Funktion angemacht das man sieht ob das ein spamanruf ist und da stand dann spamverdacht! hab halt abgelehnt😂,12-6-2022,
540,Muhammed__kek__,muhammed__kek__,,bei mir war es genauso bonn,12-6-2022,
541,Jason,_bananengiraffe,,Ich hab zurückgerufen und es war wer anders dran.,10-6-2022,
542,🧞‍♂️,kayaaa0w0,,@xemmaaa.hm grad passiert,10-6-2022,
543,😩<3,1m.gay.c0m,,OMG DAS IST MIR GESTERN PASSIERT OMG DIGGA,10-6-2022,
544,~Սվետլանա~,your.fav.armenian,,@theprettyyyyyyyyymf ich geh nie ran,6-6-2022,
545,Ufbsjdkg,.haljchen,,@uliana.202 gestern,4-6-2022,
546,🫁,.maraherself,,@jedde.spamsss ach das war das am Donnerstag,4-6-2022,
547,Meltem🌼,_meltem11,,@m.elisa77 Merk dir das ❤️,4-6-2022,
548,Lilia,liliaaauswienn,,@nila..albo omg,4-6-2022,
549,Swaggy Potter,swaggypotter10,,"Ich wurde auch angerufen, sie sagten:
Walla digga Film heute, saß mit Kartell am Tisch",4-6-2022,
550,;p,lifee.of.mee,,Ich geh sowieso nie ran 😂,4-6-2022,
551,😻,ack.x.moon,,ich hatte das auch mal aber als ich dran geganngen bin haben die nichts gesagt und nach 3 sek haben die aufgelehnt;-;,4-6-2022,
552,Karina 🧝🏽‍♀️,kar1na.b,,@bkangelikaaa das war also die Nummer letztes Mal noch weißt du noch,4-6-2022,
553,der beste,hb.louis,,@.99.lillyy du hast mal so ein anruf bekommen was das denn,4-6-2022,
554,.,user82825429,,@silaa_4242,4-6-2022,
555,Angelina ❣️❣️,angelinaa.an,,@linaa.alm,4-6-2022,
556,📽,t1lo691,,Wurde 28mal angerufen,4-6-2022,
557,🐊🐊,leondermf,,@🦖laney🦖 das sind die die sich immer anrufen,4-6-2022,
558,tabeasch_07,tabeasch_07,,@margarete_haerter dann weiß ich was das bei mir immer is 😅,4-6-2022,
559,Aaliyah,aaliyah._.0805,,@nt.fiona__,4-6-2022,
560,N,user236873601,,@user.22072008,4-6-2022,
561,m,..mqriie,,@.alexajlr guck mal das hattest du auch ya,4-6-2022,
562,Lara,_lara.xmr_,,@n.icole.xvf das war bei mir,4-6-2022,
563,Hieu_we_best,hieu_we_best,,Ich hab mal eine App herunterladen die Telegramm App als ich meine Nummer eingeben habe stand da das ich von Dieser Nummer Angerufen wurde,4-6-2022,
564,Lille,.just_mtb,,@its_just.sarah @its._.leni123 junge,4-6-2022,
565,Sharryisteinwilderemo,einwilderemo,,@i_like_potatoes_privat weil du wurdest ja auch angerufen,4-6-2022,
566,🇵🇱,esteraoginskaa,,@yasmina.ouz ja fr werde am tag 10 mal angerufen no joke,4-6-2022,
567,Lilly,lillyy.hlmr,,@asta,4-6-2022,
568,Helena,girlcalledhelena,,@itsjustvici7,4-6-2022,
569,Aria,user2606461,,@𝐒𝐞𝐥𝐢𝐧𝐚 omg deine Anrufe leisten,4-6-2022,
570,🍄 >*usi e=c>(k= 🍄,c.mixxx,,Ich werde nur auf Bayern oder Hamburg angerufen 😑,4-6-2022,
571,Karla,karla_h.22,,Oha bei mir wurde halt so 10x von so einer Nummer angerufen hab dann schnell blockiert 😳😂😅,3-6-2022,
572,Passy,passy355,,DANKE ICH WAR RICHTIG VERRWIRRT😳🙏,3-6-2022,
573,💕⛓️🖤,gl.97gl_,,@bombenlegerinausnebenan @166alisa bei meiner Mutter voll oft,3-6-2022,
574,Julia💫,x.julia_05,,@x.melanie03 Safe bei mir letztens,3-6-2022,
575,🤍,yukheiluvrr,,@xzeptron21,3-6-2022,
576,Aly⚖️,alxssa.cxc,,@zoeswaggyboi,3-6-2022,
577,derkirşehirli,ac.halil.40,,@68_muhammed vallah das,3-6-2022,
578,❤️,kalina.bhv,,@sara.krc45,3-6-2022,
579,idk,nezuk0._chann,,@gojoosru1,2-6-2022,
580,mariakatharina.dm2,mariakatharina.dm2,,@ann_3080 jetzt wissen wir was das war,2-6-2022,
581,Michelle,mxchxllx24,,@vica.hrb,2-6-2022,
582,Nobody,heyhereisnobody,,@michellejasm,2-6-2022,
583,Mia,6nay9,,@beppo93 ohaaa war bei mir doch auch so,2-6-2022,
584,alina ᗢ,linqsvids,,@user46104728462758 @sarina.vids sus,2-6-2022,
585,Sven S.,svensven82,,"Hatten mich in 3 Wochen bestinnt😏10x angerufen. Erstes Mal angehört, danach immer gleich aufgelegt.",2-6-2022,
586,Soso :),definitelynotsorina,,"@flowersintherainbow das ist dir passiert , die haben europol gesagt",2-6-2022,
587,Cathrin 🧸,kissmysixntwo,,@ufimg,2-6-2022,
588,Unkaputtbar63,unkaputtbar63,,@thw.bruehl.jugend.fa das ist mir doch passiert 😂😂😂😂,1-6-2022,
589,Unkaputtbar63,unkaputtbar63,,Ich hab erst beliedigt und dann aufgelegt und blockiert (wurde 7 mal angerufen von 6 verschiedenen nummern),1-6-2022,
590,➰〰️➰,vnx.prvt,,@.larissaq_prv letztens,1-6-2022,
591,Verrickterrick,verrickterrick,,Omg grad hat mich so jemand angerufen und ich hab aufgelegt höhö 😏,1-6-2022,
592,Fynn,djay888,,Das ist bei mir auch passiert nur das die nichts gesagt haben,1-6-2022,
593,Tom,tom.lp77,,@Jury.r6 @Jago😼,1-6-2022,
594,Ange,angy_r1811,,@mxybe_johanna hüfe,1-6-2022,
595,charlie,0407chiara,,@cuteeeee498,1-6-2022,
596,𝐌𝐄𝐑𝐋𝐄,merle_.gr,,@anny.bse,1-6-2022,
597,𝓓𝓲𝓶𝓪,dimasaleem657,,@0s1nc1ty0,1-6-2022,
598,esther🌱,estheriguess,,@wh0sciana @14melka bei mir exakt,1-6-2022,
599,Johannes,johannes_27251,,Bei mir war das auch so mit den nummern,1-6-2022,
600,Luna,thegirlwhodrnkthemoon,,hab jetzt son Anruf blocker für so bekannte spam nummern,1-6-2022,
601,☺︎︎,einfachnuryolo,,@einfachnurlolol,1-6-2022,
602,♥︎♡︎ ℒℯℴ𝓃𝒶 ♡︎♥︎,l.cgn,,@matilda_koe38 hab geheult als die mivh angerufen haben,1-6-2022,
603,Mia,MS4wLjABAAAA8VXY1CbdCXj_cvPYSP3Phdz8oWZbV8UsR588ULA64l7QoSlMUUvZCwWYEABl4ggM,,@melanieknebel6,1-6-2022,
604,moin 12345,anele0314,,hatte ich schon war nur immer in der Schule als die angerufen haben,1-6-2022,
605,Aakinpur,.misopohnie,,habe gestern davon 6 anrufe bekommen und alle blockiert,1-6-2022,
606,#BESTECOMYOUNITY,legit_is_sad,,@jessiiiii.rbe,1-6-2022,
607,BorussiaOnTT,borussiaontt,,@evangeline9211,31-5-2022,
608,Marie_hat langeweile,marie_hatlangeweile,,Bei mir haben die irgendwas mit america gesagt,31-5-2022,
609,Shy Guy,shyguy2504,,"Ich wurde heute angerufen, danke ich hab dein Video gestern gesehen",30-5-2022,
610,eneska6161,eneska6161,,@k.sxna grad bei mir passiert 🤣,30-5-2022,
611,bruh,4dr7ana,,@jxvanayu,29-5-2022,
612,✨,__svenja_____,,@lilli_164,29-5-2022,
613,Silli,sillitrance,,@qx.vxvx @flottesguerkchen,29-5-2022,
614,stupid_like_me✨✨✨,nobody_is_stupid,,ich gehe da erst ganich Ran und lege sofort auf,29-5-2022,
615,CammyDreams,cammydreams,,wurde nach viedio angerufen,29-5-2022,
616,romy_731,romy_731,,@user2568998756,29-5-2022,
617,Hi Cuties🌺🐸,asthetic_vikki,,Die sagen immer etwas von Haus und Polizei da ich kein Englisch kann erzähle ich immer was ich heute noch machen 🥰,29-5-2022,
618,Sassa und Tabspüllung,sassa208,,Meine Mutter wurde angerufen sie sagte das sind inder die englisch reden,29-5-2022,
619,W3dnesd4y,candyyy.cane,,wurde so oft angerufen von denen letztens😭😭,29-5-2022,
620,Lulana,lunalulana1,,Be mir heid mol öber vo holand ahglüde🙄und 2 mol die glichi delefo numere ich ha beidi nid ab gno 😂 ich ha kei luschd zum disgudire 😂,29-5-2022,
621,M,m0043g,,@pervinn.12,29-5-2022,
622,ڶㄖx,der..eine.bosner.q,,Das ist mir vor einer Woche passiert,29-5-2022,
623,Armadilomon13,armadilomon1354,,Ich gehe nicht an Nummern dran die ich nicht kenne,29-5-2022,
624,Mariella Schultze,m_s0.2,,4 Anrufe ist ja noch harmlos,29-5-2022,
625,Kati_hfmstr,kati_hfm,,@monbebeberryss,29-5-2022,
626,Tamara🖤🤍,ly.tams,,bei mir wurde schonmal 2 mal angerufen und meine Schwester hat die 2 nummern dann blockiert,29-5-2022,
627,.,makodorin,,die sollen mal anrufen mir ist langweilig und ich will mir nen Spaß machen😅,29-5-2022,
628,White Angel,ziegenbart_cokoohei,,hab ständig Anrufe die nicht zurück gerufen werden können😳,29-5-2022,
629,Hanna,_hanna_ht,,Habe das momentan auch… singe denen immer was vor🙌🏻,29-5-2022,
630,cosima,cosimaxr,,@blackpong666,29-5-2022,
631,Matija Cosic810,matijaffm,,Ist bei mir auch passiert ich Krieg von denen immer Nachrichten,29-5-2022,
632,JulianBSC,julianhbsc,,Ich hab auch aufgelegt,29-5-2022,
633,miri.faak,miri.faak,,7 Anrufe davon an einem Tag gehabt 🙈 bin nach dem zweiten garnicht mehr dran gegangen. jedesmal andere Nummern.,29-5-2022,
634,just me,theyluv._jasii,,ich bin noch nd strafbar,29-5-2022,
635,:),aliciasarah._,,Mich hat mal wer wegen dem Diebstahl meines Laptops angerufen. Ich besitze keinen Laptop. 😂,29-5-2022,
636,Amrei-2008🏄🏼‍♀️,typisch.amrei,,Wurde während meinem Unterricht angerufen,29-5-2022,
637,Sara:),14_sarax,,Aber was passiert wenn ich nicht auflege?,29-5-2022,
638,Janine,janine_hathaway_97,,Hatte ich am Mittwoch auch. Nur halt angebliches Gewinnspiel. Beim 4. Mal bin ich dann dran gegangen und habe meine ganze schlechte Laune abgelassen.,29-5-2022,
639,Tom Suermann,ghost123knu,,danke für die info,29-5-2022,
640,tiktok_sperrwarnung091⚠️,tiktok_sperrwarnung091,,Wünsche mir so einmal von denen angerufen zu werden,29-5-2022,
641,uhh,island.giyal,,BEI MIR WAR DAS AM DONNERSTAG STÄNDIGG,29-5-2022,
642,Octavio,_schaudty,,Nicht nur bei LinkedIn feier ich dich sondern hier auch 🥰❤️,29-5-2022,
643,FIFA 22 ps5,luca_str1202,,Bei mir wurde auch immer angerufen 😳,29-5-2022,
644,Andy,tzuma1,,"Mein Email Fach ist gehackt worden, seit dem log in versuche auf sämtlichen Plattformen und ständige Anrufe über jeweils andere Nummern",29-5-2022,
645,😐🙄,bckbse,,wurde letztens 40 mal angerufen diggaaa,29-5-2022,
646,Thomas Strick,tommy_estee,,Hab ich seit gestern auch schon 4x gehabt 😅,29-5-2022,
647,♧,dilan_s006,,einfach mir letzten in der schule passiert 💀 @sarah_s070,29-5-2022,
648,𝑪𝒊𝒏𝒆𝒎𝒂𝒕𝒊𝒄,j0k3rchanga,,Ich habe zum Glück meine ruhe. 😅😁,29-5-2022,
649,LadyShine1989,ladyshine1989,,"Deswegen gehe ich nicht an Nummern, die ich nicht eingespeichert hab",29-5-2022,
650,;-;<3,mentally..ill..lol,,Ich geh generell nie ran. Naja außer wenn mich jemand von meinen Kontakten anruft aber auch nur bei meiner mom oder Stiefvater oder so.,29-5-2022,
651,Elvis/amate 🚨🥷🏾,elvis.7717,,@lazar.offizielle meinst du das,29-5-2022,
652,Resi,ruskajaraja,,@gojosleftarm,29-5-2022,
653,finn.fuxi,finnfuxi,,"Und woher weiß man dann, dass das jetzt Europol ist ?",29-5-2022,
654,.,fredamageuxh,,Hä ich nehm garkeine Anrufe mehr an 👹,29-5-2022,
655,Index,yindex_,,Bohr geil ich will das die mich anruft😂,29-5-2022,
656,Grandplat,road_to_grandbronze,,hä einfach nie ran gehen oder zur mutter rennen,28-5-2022,
657,j.r2009@601,jasmin.rose_83,,Wer wurde auch alles angerufen,28-5-2022,
658,hxnter_zitate🚬🖤,hxnter_zitate,,War bei mir so Hab aufgelegt weil ich kein Englisch kann:(,28-5-2022,
659,Lena Nomaus,lenanomaus,,hatte ich auch,28-5-2022,
660,Rania Rania,mcu.mina.t_t,,Ich die keine Sim-Karte hat.,28-5-2022,
661,sad_toasty,sad_toasti,,Mein Vater wird am Tag 500 mal angerufen,28-5-2022,
662,Katharina Henning525,katharinahenning1982,,"Zwei Mal, bin nicht ran und habe gleich die Nummern blockiert, da ich jede blocke die ich nicht kenne 😂",28-5-2022,
663,Cancer572,_random.x.stuff.x.lol_,,"Man kann bei vielen Handys einstellen, dass Spam und Scam Anrufe direkt abgelehnt werden",28-5-2022,
664,ARMY💜,a.r.m.y..14,,Kann man dran bleiben oder passiert dann irgendwas,28-5-2022,
665,Ley,camisa.a,,ich geh einfach garnich ans telefon🤷🏼‍♀️,28-5-2022,
666,//cailin._.catx//,xxdummer_fischxx,,Wurde mal jeden Tag von der selben Nummer genau um die selbe Zeit angerufen :'),28-5-2022,
667,emma,emmayzin,,@ella.hsmn @feli.bitiyev @whotfismattiaa genau das haben die gesagt,28-5-2022,
668,Tabea,bambi_bea_,,3 tage hintereinander mit 6 anrufen wahr so nervig zum Glück jetzt nicht mehr,28-5-2022,
669,Pasclin🤪🌺,yourlove195,,Ich gehe sowieso nicht an Anrufe die ich nicht kenne dran 😅,28-5-2022,
670,idk,_s1mp4ur.dad,,wurde an einem Tag drei mal hintereinander angerufen 😭,28-5-2022,
671,RedzētPrātu20Boy,edwinscamansofficial,,Besser die Telefon App von Google die sperrt das meiste automatisch von Spam,28-5-2022,
672,Ephraim Sweetvoice,ephraim_sweetvoice,,Saß mit Kartell am Tisch,28-5-2022,
673,Nadine Obermüller,naddelli2707,,"Ich google immer die Nummer. Wenn die nur negative Einträge haben, dann wird blockiert. ixh geh nie ran",28-5-2022,
674,Robert,bloodymare87,,"Dann sag einfach :""ok dann kommt mich abholen😂""",28-5-2022,
675,🪴,user927367981,,@th1s.jelen4,28-5-2022,
676,Anas_605er,madjidanas18,,dankeeee Mann bei mir war so dankeeee🥰,28-5-2022,
677,...,.xxyuum,,@itsme.celi ey im bus weißt no,28-5-2022,
678,ピアソフィー,_xdspiaaa.0_,,Mich hat das vor 4 Tagen auch angerufen 😅,28-5-2022,
679,Clara,claraaug2006,,@al3k2.lt safe das war wie bei dir,28-5-2022,
680,ღayLeeNღ,bl_artist0,,geh erst gar nd dran lol mein Handy schaltet sich sonst ab und ich kann nicht mehr auflegen und nix machen bis die andere Person auflegt XD,28-5-2022,
681,~🎇Yoimiya🎇~,yoimiyas_little_firework,,Wurde letztens auf Klassenfahrt von der „Strafverfolgung“ angerufen hab bei strafv- aufgelegt 😅,28-5-2022,
682,Sleepy.Ant🐜,florissimo360,,Ich geh bei fremden Nummern immer ran mit: Elefantenjagdverein T*tet was trötet wie kann ich helfen ?😂😂😂,28-5-2022,
683,clicksteinchen0,clicksteinchen0,,Junge ich würde auch schon zwei Mal davon angerufen,28-5-2022,
684,----,pauli_a__,,ist bei mir auch so. ich bekomme mittlerweile täglich 5 Anrufe. ich blockiere die Nummer und wir haben auch schon zurück gerufen aber die können ja 1,28-5-2022,
685,.,samooojakooo,,@amilahajric @larissablaco @goezdesahinnn wisst ihr noch an meinem geburstag ich hatte 15 Anrufe,28-5-2022,
686,¿ ᴉɥ llǝʍ,lisabanel,,das passiert mir seit gestern den ganzen tag 😅,28-5-2022,
687,Flashs Tochter .fanpage,mercy_west.allen_ae,,Meine kleine SIs ist das auch passiert sie ist 7 Jahre alt nach der Schule auf dem Weg wurde bei ihr angerufen sie hatte so Angst und ist weinend,28-5-2022,
688,Flashs Tochter .fanpage,mercy_west.allen_ae,,Ich war mit meiner Freundin und wurde angerufen und habe laut gemacht nach ein paar Sekunden zuhören hat meine Freundin mein Handy genommen und,28-5-2022,
689,𝒞𝒶𝓇𝑜𝓁𝒾𝓃,cxly.x,,@fxna.lxy,28-5-2022,
690,selam,dreiachtneunbruder,,@fabberisha oops,28-5-2022,
691,hanna,y0itz.urfav,,Hab ich bekommen omg,28-5-2022,
692,Kätzchen,lele11023,,haben wir auch auf der Arbeit 😅,28-5-2022,
693,Emi<3,emi_tt_real,,@_banapfel_,28-5-2022,
694,N I N A,nxna1601,,Die haben mich auch angerufen lmao. Die Nummer hat direkt aufgelegt als ich rangegangen bin,28-5-2022,
695,puddlwudel🐩✨,puddlwudel,,@kleine.zuckerfee OMG DES WAREN DIE DIE MICH ANGERUFEN HATTEN UND MEINTEN ICH JÄTTE WAS MIT DROGEN ZU TUN,28-5-2022,
696,Barbarakauert,marley.l2,,das komische war eine Nummer kam aus Kroatien,28-5-2022,
697,🖤🧇Waffle🧇🖤,_waffle_h4ck,,ich nehme nie anrufe an wenn ich die nummer nich kenne,28-5-2022,
698,Ammar,ammars_barbershop,,Hatte auch schon den Anruf 🥺,28-5-2022,
699,♡,.lucie.cq,,meiner Oma ist das passiert die hat gleich die Polizei gerufen und hat Anzeige erstattet,28-5-2022,
700,Justinシ︎,justin_sco,,@j0hnnytard ahh,28-5-2022,
701,e m i l y,emily_pml,,@sweet_angel0307 jetzt wissen wirs 😂,28-5-2022,
702,raisa,vibewith.raisa,,@vibewith.leni Digga,28-5-2022,
703,Charleene,chili.ie,,😳😳ist mir auch oft passiert,28-5-2022,
704,Bärchen,baerchen.2021,,@ich...bin_anonym123,28-5-2022,
705,Betty 🇬🇭,betty_524,,@040_alicja weißt du noch bei mir wir haben solange geredet bis er aufgelegt hat und ich rufe die ganze Zeit zu rück,28-5-2022,
706,Muhammed 💪🇲🇰,bigbabo09,,junge letzte woche gfühlt 30 mal haben die mich angerufen 😂😂,28-5-2022,
707,yayy,llee.dakota,,@paxline.w,28-5-2022,
708,Ruslan,ruslanpaul0,,"Ich musste mein tablat aus machen,da die jeden Tag Tag die 20mal angerufen haben",28-5-2022,
709,maya,maya.sfe,,@kunicheek,28-5-2022,
710,Lara <3,daskrummel_,,"alter ich würde um 4 Uhr morgens eif angerufen und hab nicht abgehoben, woraufhin ich dann später zurückgerufen hab, und da war auch dieses nicht",28-5-2022,
711,sophia.sellmeier,sophia.sellmeier,,@ouze2u,28-5-2022,
712,ich bin araberin,jasmknabi,,@63njnq Vallah bei mir auch,28-5-2022,
713,Aurelia Luise,aurelialuise,,@isabxxllaaa,28-5-2022,
714,dr1p🥷🏼,smoke.my.dr1p,,Danke das du das klärst ich habe es nicht verstanden,28-5-2022,
715,ok,y0urfav.georgi,,eine Frage ich werde immer von eine private Nummer angerufen seit 8 Monate weißt du es vielleicht wieso?,28-5-2022,
716,Luan_AlBo,i._.user,,Wann soll ich wissen wenn der wirklich real,28-5-2022,
717,ソフィアオウマxmx,sophia_ouma,,Ist mir mal am am Montag oft passiert!😳,28-5-2022,
718,Morgentauhexe,morgentauhexe,,Hatte das auch. Sofort aufgelegt,28-5-2022,
719,Silas,silasx0,,Ich werd immer davon angerufen danke für die Info🥰😅,28-5-2022,
720,FSgaming,fliegendersproutbam,,ich wurde vor 2 min von burton on trent angerufen,28-5-2022,
721,ghost_clan87876,ghost_clan87876,,"hallo,ich habe eine Frage wie kann man jemanden auf Android blokieren",28-5-2022,
722,Max,maximal_51,,Jo Das hatte ich 2 Tage lang die ganze Zeit,28-5-2022,
723,marie_vt06,marie_vt06,,Ich hatte ganze Zeit so Angst alter hahahah,28-5-2022,
724,.,jxst.alisa,,ich wurde 13 mal am Tag angerufen war irgendwie gruselig,28-5-2022,
725,user213666511650,roeyle,,"Ja, ich auch. Hab direkt wieder aufgelegt",28-5-2022,
726,Edit_420,editsanime.18,,Deswegen hab ich Spam und id Schutz an😅,28-5-2022,
727,Givo Mattheo,givofuchs,,das passiert mir seit 2 Wochen fast mehrmals täglich. auch ich hab probiert zurück zurufen was nicht geht. Bin aber nicht drauf reingefallen,28-5-2022,
728,<3,chanslittlesunshine,,Ich sag eif : sie rufen an und ich lege auf,28-5-2022,
729,hi,paul_der_ist_cool_1_,,danke für die Info,28-5-2022,
730,Itz_jannis202,itz_jannis202,,Ich wurde gestern 3 mal angerufen😳,28-5-2022,
731,Darkstone,darkstonenh,,"Ich wurde auch 6,7 mal angerufen😳",28-5-2022,
732,𝑁0𝑟𝑎.𝑐ℎ4𝑛,n0ra.ch4n,,@0hobis.sprite0 meine mom wurde gestern so angerufen,28-5-2022,
733,1inthemillion,1inthemillion,,Dachte die Stimme hat liverpool gesagt 😅 egal einfach aufgelegt,28-5-2022,
734,Z3lda,dioabi100,,Immer 157 oder so,28-5-2022,
735,MK|SnIpErBoT13,mk_sniperbot,,"Mein Bruder sagt immer:,, hör auf anzurufen oder ich töte deine Familie"". Ja... Das mache ich jz auch",27-5-2022,
736,(:,_its._.me._.sophie_,,@_soulhorse_fabia,27-5-2022,
737,𝑳𝒊𝒔𝒂 𝑮𝒓𝒐̈𝒃𝒆𝒓 ت︎,lisa_rabi17.3,,@a.k_sweetie,27-5-2022,
738,really_peter,737_danny_der_echte,,ich hör mir das immer erst an wegen dem lachfläsch 😂😂😂,27-5-2022,
739,100-800🥰🥺1000🥺,mixed_tik_toks,,@paris_fangirl @b_sangster_hiswife @titzi0409 @eduarda.r2,27-5-2022,
740,✨таисия✨,taissia.bry,,@fckthislifelol,27-5-2022,
741,bnha__dabi,bnha__dabi,,@lovemusicww,27-5-2022,
742,ichhabkeinennamen2021,mabye.im.a.fish,,Bei mir wurde auch mehrmals mit verschiedenen Nummer 5 mal am Tag angerufen ich bin nicht rangegegangen habe sie aber alle blockiert passiert jetzt w.,27-5-2022,
743,Jess,jess13_ca,,@son98star,27-5-2022,
744,Kimfinity,kimfinity,,"@_xalxx_ lol das genau war bei mir, hab alles richtig gemacht 😏",27-5-2022,
745,Katharina,katharinaleokadia,,@46zelo,27-5-2022,
746,selin✌🏽✌🏽,selind2g07,,@dianamer._,27-5-2022,
747,dumm hallt,vibes__withme,,Ich wurde 20 ma angerufen bis jz und ich jedes ma so : i Can't english bye 😅,27-5-2022,
748,leooo,leo.yvng,,@itsxnono,27-5-2022,
749,melis,turkmel1s,,wurde von Türkiye angerufen hab mit dem gelabert er wusste nicht das ich Türkin bin er hat dann von selbst qufgekegt,27-5-2022,
750,Ash <3,whosxsh,,@xv.merle,27-5-2022,
751,fynn,fynnqyr,,@grycep @larafsy2,27-5-2022,
752,carina,carina.fnz,,@17.edaa,27-5-2022,
753,Le,le_nth,,@ale__isf @skye..04,27-5-2022,
754,.,argentmccall_,,@whosgonca,26-5-2022,
755,user6765739474325,annabell.brmn,,@a1.a6m Ähm Ja da siehst du es,26-5-2022,
756,Matias L19,mlps32,,"@kp_was_ich_nehmen_soll2 hattest du vielleicht so was?
Wie denkst du ? an es real ist?",26-5-2022,
757,SPE_edits,peterparkeredits3,,@_.mr._.cr._lv._anonym._,26-5-2022,
758,madita,madita.btt,,@ida_379,26-5-2022,
759,Zoé,zoe05100,,@sophie.006_,26-5-2022,
760,✨Cecile✨,rollinggg.thunderrr,,@larabaaa,26-5-2022,
761,ABBYYY,abby.mrn,,@helen.lne,26-5-2022,
762,user6067023821113,fabiv_schr,,@Marieee <3,26-5-2022,
763,Margarete,margarete123lol,,@milla_1012 @meeeerleeee.e @jonas34877 lol,26-5-2022,
764,🫂,.dzenaa,,@p0isend,26-5-2022,
765,camila,camila_acm_,,@de_la_ni2203 !!!!!!,26-5-2022,
766,Kira?,k1ra..duh,,bei mir passiert das aber die rufen immer mit der anderen nummer an obeohl ich blockiere,26-5-2022,
767,MaryJane666,marry.jane666,,@kakazu94,26-5-2022,
768,hinav,h_nav06,,@daria_maria.7 siehst du das war nicht die Polizei,26-5-2022,
769,💗JOJO💗,justynasj96,,@kerstinhagedorn90,26-5-2022,
770,123,der_lolop,,Kriege ich dann Ärger wenn ich die am Telefon durch beleidige 😅,26-5-2022,
771,i.luve.you4q,i.luve.you4q,,@wyvvny,26-5-2022,
772,dieegens,dieegens,,Wie kann man Nummern auf iOS blockieren? Bekomme random Anrufe und kann sie nur stummsalten. Kann man die bei Apple blockieren?,26-5-2022,
773,soli,soli8o,,@gaaabbbbzzzzz,26-5-2022,
774,❤,alisaaa.044,,@prvt_0133,26-5-2022,
775,Stay,thh...hairband,,@_its_me_h de hom mi gestern o gruafa,26-5-2022,
776,<33,urfavorit.gay,,"wurde einmal angerufen aber woher haben dir meine nummer?!:,)",26-5-2022,
777,tja,istealyouremmiol,,@estherschrr omg ich glaub das war bei dir,26-5-2022,
778,alexandra,wantstodie.com,,@romxna_17 @n1knakn1k1 das sind solche Nummern die mich immer angerufen haben wo ich dann angenommen habe,26-5-2022,
779,Ilias.trq,ilias.trq,,@ayooabdel,26-5-2022,
780,Lou,lou44678,,@s.oph7,26-5-2022,
781,🤷🏼‍♀️,.m1dlene,,Wurde gestern 2 mal und letzte Woche auch voll oft junge das regt so auf und ich rufe einmal zurück und da steht halt die Nummer ist nicht vergeben,26-5-2022,
782,🤍,_bambieboo,,Ich werd eh nie angerufen,26-5-2022,
783,<~~~,sandraausbremen,,@izz_celina787,26-5-2022,
784,❥,39hailey,,@sarah.ehfl,26-5-2022,
785,@merle_x,merle..x,,@greta.hlng,26-5-2022,
786,doresa,do_resa.btw,,@h.4nne,26-5-2022,
787,.,misato_lover,,@gxenocidejack OMG DAS IST IMMER BEI MIR,26-5-2022,
788,klara,hrv.klaraa,,@nicolapenija omg😂😂😂,26-5-2022,
789,Lissy,72lissy_12,,@tiktok_maxim_ aha jetzt weiß ich Bescheid 😌,26-5-2022,
790,crashycrash82,crashycrash82,,Ich habe aufgelegt und gelacht😂 Die rufen nicht an... Die kommen einfach!😂,26-5-2022,
791,Typical.kc2,typical.kc2,,@hannah.tie @itzzronja Ja genau das hatte ich die ganze Zeit,26-5-2022,
792,grace,grace.mrt,,@mieke828,26-5-2022,
793,Der Weihnachtsmann,der_weihnachtsmann_67,,bro musste Nachsitzen wegen dennen weil mein Handy im Unterricht geklingelt hat . Aber ich verstehe nicht ich blockiert die Nummer und die könnenAnruf,26-5-2022,
794,It’se me,mikaeyn,,@freshe_gurke_08 jap genau so sah das bei mir halt aus 😂,26-5-2022,
795,lara,krs.lara,,@chantayws79,26-5-2022,
796,♱,sabo.vfx,,@synix9999,26-5-2022,
797,_emilia_120,_emilia_120,,@idalmao0,26-5-2022,
798,Mariella𓆉,xx.maariella.xx,,@laura_dhm ??!!!!,26-5-2022,
799,julia,ju1iahatdichlieb,,@annelie_bhm,26-5-2022,
800,♉,__xfinix__,,hab auch die ganze zeit anrufe bekommen bin einfach nd rangegangen lol,26-5-2022,
801,clara,vdhclara,,@x.nel.li,26-5-2022,
802,whoisshe,discofairy9,,@celine.tpwk,26-5-2022,
803,selin,selinnntnn,,@nisaornk16,26-5-2022,
804,sara,sx.ra.xx,,@pia.raze jetz wissen wirs,26-5-2022,
805,Kmphs,nommi12345,,Jungeeee deshalb rufen die an seit wochen kommen jeden tag mindestens 4 anrufen sogar aus groß Britannien,26-5-2022,
806,𝕒𝕟𝕘𝕖𝕝𝕚𝕟𝕒,angelina.nextdoor,,@helovesangelina die haben bei meiner Arbeit auch voll oft angerufen,26-5-2022,
807,🇹🇷😍🤟,alisyailaydameismybabes,,Bei mir war es so amazon aber von England?das wir es nd bezahlt hatten hab auf gelegt bin zu meiner sis gerannt und die Nummer war nd vergeben…,26-5-2022,
808,s.briesach20,s.briesach20,,@lea__frank,26-5-2022,
809,,zz_m3l1n4_zz,,@bsoios_girl @n3ll1.2008,26-5-2022,
810,✨SARAH✨,sarahs.live0,,@maybe.leni4,26-5-2022,
811,karla_x.4,karla_x.4,,Ich gehe dann halt einfach nd ran😂wenn mich eine fremde Nummer anruft,26-5-2022,
812,Larissa𓆉𓆉,larissa_zglm,,"@motor.hub8 genauuu des wurde letztens gesagt, als ich meinte ich kenn des land gar nicht",26-5-2022,
813,linh miau,l1nhie,,@th.uwu,26-5-2022,
814,Anna🇦🇲🦚,user.030720,,@s0heila.15 mein vater ist rangegangen hat den beleidigt und aufgelegt 😂😂,26-5-2022,
815,.-.,nxrabtw,,@tabeavorderecke,26-5-2022,
816,MYNAMEISSHITON,mynameisshiton,,Ich wurde auch angerufen aber bei mir wahr meine Nummer aber am Ende eine 1,26-5-2022,
817,rita,rita.bcht,,@elena.zmr,26-5-2022,
818,🇹🇳🇹🇳,die.eine.aus_tunesien,,@helena_ist_sad siehst du lieber nd rangehen,26-5-2022,
819,¡,user92819382817,,@aatrrf,26-5-2022,
820,🍃,weintraubensindbaba,,@_lele_48 omg das hatte Ich!!,26-5-2022,
821,LiNA,koelina_,,@monaberndt792,26-5-2022,
822,Theresa,theresa.shwz,,@tschohaensn mein Bruder,26-5-2022,
823,MarvVfB,marvinvfb0109,,@tan1401ja,26-5-2022,
824,🤍,lara.06030711,,@kurd_0603 @lenasndr_ DAS IST MIR DOCH PASSIERT MIT DEN ANRUFEN also da wo ich die auf englisch angeschrien habe HAHA,26-5-2022,
825,Muhhhhhhhhhhhh,ichmagkuh_,,@goofy00700 ich hatte das neulich irgendwie 4 mal an nem Tag oder so😭😭😭,26-5-2022,
826,vanessa,_vanessa169,,@_sabi_br_,26-5-2022,
827,kim 💌,kim_cz3,,@marie_cz3,26-5-2022,
828,Mv._.senpai,mv_senpaii,,@.s1mplexlina,26-5-2022,
829,salibonani.salibonani,sali.sahali,,wurde auch angerufen und mein Bruder,26-5-2022,
830,<3,justrandomp3rs0n,,@okamelie0 oh-,26-5-2022,
831,.,join.an01,,@yourfavlibo4 bei dir,26-5-2022,
832,hatice,userrr38383838,,@theyluvdilo Guck 😠😠,26-5-2022,
833,Katarina Lukac,katarinalukac1,,@aree.grl,26-5-2022,
834,🌸𝕚 𝕕 𝕒🌸,thg.ida,,@letti.ida das war bei mir schon SOOOO oft,26-5-2022,
835,⚡𝓢𝓽𝓻𝓪𝔂 𝓴𝓲𝓭𝓼 ⚡,hyunjin_americano_tree,,@the_beauty_of_skz ………,26-5-2022,
836,Anna,ovt3r.rafe,,@leilaadam._ holllllyyyyy,26-5-2022,
837,josi,jusi.ef,,@celyn_wy,26-5-2022,
838,ރ,buket46m,,@vallahgucknicht,26-5-2022,
839,CrackedMemeHub,crackedmemehub,,Die haben mich heute mittag angerufen und haben was von copy your Nummer gesagt 😬,26-5-2022,
840,s,sophier_19,,@alan_021295,26-5-2022,
841,Chxrz,the.chxrz,,@levi.the.human,26-5-2022,
842,HuskyWeber,huskyweber,,Ich werde angerufen und nach 5 Sekunden legen die wieder auf,25-5-2022,
843,Milfhunter,milfhunter_20,,@_tam0_0 @jonm_01 @yan35nik,25-5-2022,
844,krokooo311,krokooo311,,"Wenomechainsama
Tumaiarbisaun
Wifenlooof
Eselifterbraun",25-5-2022,
845,Liv,kakemopups,,@marie_onl,25-5-2022,
846,Mh stimmt wirklich,bin_der_coole_oktopus,,😭😭😭😭😭😭😭😭Ist bei mir jeden Tag gefühlt 10 Mal😭😭😭😭😭😭😭😭😭😭😭,25-5-2022,
847,🇪🇬,elisaa.hamburg,,@ilyama.hmb JUNGE,25-5-2022,
848,Hendrik,hendrik_wenzel,,@_erlay_ 😂 und deswegen ganze Galerie gelöscht😂,25-5-2022,
849,IcyMotos,icymotos,,@laroshh_,25-5-2022,
850,🤍,laralax,,@qtulaq OMG WEISST DU,25-5-2022,
851,Ilona,ihundy.07,,@die.belami Ehhh ja also ich ruf dann mal nich die Nummern zurück 💀👍🏻,25-5-2022,
852,kiara.mag_kuchen,kiara.mag_kuchen,,@annaamgermayer,25-5-2022,
853,user5500144075677,epicchristian12345,,wurde 2 mal angerufen habe beim ersten mal aufgelegt und beim zweiten mal habe ich ihn beleidigt,25-5-2022,
854,X,xenia.ft,,@vivienmnae,25-5-2022,
855,Manux1,1xmanu,,"Anleitung zu ungenau, sitze jetzt im Gefängnis weil ich Europol beleidigt und blockiert habe 😂",25-5-2022,
856,EMMA,emma.01.09,,@jenna.lhf,25-5-2022,
857,elias😶,elias_0022,,@dark_boylol,25-5-2022,
858,Kadir Artar,kadirartar86,,Wie geht das ?,25-5-2022,
859,.,anonym1509000,,@sallyyqz das ruft dich also immer an😭,25-5-2022,
860,_miaaaaa.blr_,_miaaaaa.blr_,,@kittikatt,25-5-2022,
861,Annika,annika1808_vs,,Danke für die Tipps,25-5-2022,
862,Annika,annika1808_vs,,Ich wurde mal einer unbekannten Nummer angerufen,25-5-2022,
863,Nora:),nori200807,,@aka_julia,25-5-2022,
864,*-*MÂŸÃ *-*TÀË*-*,maeyosh99,,@k.__.m5. شوفي هاد يلي صار معي,25-5-2022,
865,lara,x8lara15_,,Wurde noch nie von nem Spam angerufen,25-5-2022,
866,Soph_lost,soph_lost,,@user738253deinemom @juckt.dich.nicht.jo vllt war das die Nummer heute im Unterricht,25-5-2022,
867,:(:,annikammm,,Ich gehe nie dran wenn ich die Nummer nicht kenne 😂😂,25-5-2022,
868,Jaxob123,jaxob_123,,@pauline.akms omg die haben dich angerufen 😳😳😳,25-5-2022,
869,.,sophixx.ee,,@anna🤍,25-5-2022,
870,Johannes Gießberger,mark.suckerberg,,"Das erklärt so einige Anrufe von random Nummern, die ich in letzter Zeit bekommen hab😅",25-5-2022,
871,𝐚𝐧𝐞𝐬𝐚,anesaaaaaaaaaaaaaaaaa,,@andhi.e,25-5-2022,
872,🇷🇸❤️,stolze.serbin.1,,@idk.who.you.are_26 die haben mich 100 mal angerufen,25-5-2022,
873,فايزة💟,faiza.zag,,@.m3lt3m weist du noch bei mir,25-5-2022,
874,🇷🇺🇰🇿,vikibxlz,,Ich blocke die immer aber meine mom wollte zurück rufen habe ihr gesagt soll sie net machen hat sie dann net 😂,25-5-2022,
875,Call me Lee | Leehara,leehara.cos,,gut dass ich anrufe immer ignoriere auch wenn ich die Person kenne 🤥👍,25-5-2022,
876,Lena Jablonski,pampelmusenkuchen,,@xeniaxinchi @fabianoscelentanos,25-5-2022,
877,Anime__edit_haikyu:),anime__edit_haikyu,,@n0t3mma_,25-5-2022,
878,Ilayda,il.ayda10,,@aadea04,25-5-2022,
879,𝑨𝒏𝒏𝒊🪐,anni.sce,,@yaoishipperin,25-5-2022,
880,elisa,elisa.sxl,,@paula.492o4 DAS hatt ich auch,25-5-2022,
881,🫀,exmy.0,,@rvd.toni,25-5-2022,
882,💘 И a ø м i 💘,n.estelle07,,@dieeine.aus.italia,25-5-2022,
883,Vivii,vivii.xy,,@natalie.blw hatte ich auch😳😂,25-5-2022,
884,mina,minasophiie,,@yasmine.030 war das nich letztens bei dir,25-5-2022,
885,Sophie,jucktniemanden02,,@linprescot bei dir neulich???😳,25-5-2022,
886,Leonie,leonie_ru_,,@lini_09 des sind safe die anrufe die ganze Zeit,25-5-2022,
887,Brkn,aceiibroken,,"heute 3 mal, was ist das😂",25-5-2022,
888,DemonNekoAngel,machistwinsister,,@satans.black @its.ajax @sebby__cosplay,25-5-2022,
889,Molle,molle2712,,@dasistjay was mache ich dagegen bzw. wie/wann hört des wieder auf bin grad zum 3 mal angerufen worden,25-5-2022,
890,(×_×),zer0o_0o,,@eleay.0106,25-5-2022,
891,Marian,marian.zim,,@angelina_.lez heute morgen schon,25-5-2022,
892,Maxihateinhandy,maxihateinhandy,,Mich hat mal eine Georgische Nummer angerufen,25-5-2022,
893,𝕄𝕚𝕟𝕒𝕥𝕠 ℕ𝕒𝕞𝕚𝕜𝕒𝕫𝕖⚡,dereineshqiptaraus01,,kann eh kein englisch,25-5-2022,
894,rewww.w,rewww.w,,@amelie_5153,25-5-2022,
895,hungary_official,jessi_ist_geil,,@mate_ist_geil,25-5-2022,
896,c_c,__clxlia__,,@diana.hdfv das hast du auch,25-5-2022,
897,☕︎☁︎𝑲.𝒚.𝒐☁︎☕︎,kyo_core_,,"@josh.kasi
@notimportantforyu
@freaky4trauma",25-5-2022,
898,elli,elliqrl,,@fideosxlocos,25-5-2022,
899,YunaLua,yunalua_,,@austrian_empress,25-5-2022,
900,Deflash,deflash2605,,Was passiert wenn ich dran bleibe? Kommen dann Kosten auf mich zu?,25-5-2022,
901,𝕾𝖙𝖚𝖙𝖙𝖌𝖆𝖗𝖙🇬🇷,734theo,,@zizou_legit7 @user3149950547755,25-5-2022,
902,user136432166416,pascale_brg,,@timmy24cool @fine_vs @anna.frlll,25-5-2022,
903,nelly🍓,n3llynqx,,@helene.rcm oha das war das bestimmt,25-5-2022,
904,✨Jaz - Pls don’t spam like ✨,a.wandering.ghost,,Ich hab unbekannte Nummern unterdrückt weil mir das seit Jahren aufm Sack geht,25-5-2022,
905,ntx,ntx17465,,"ich 5 mal, habe mir extra eine Schutz app geholt",25-5-2022,
906,ℕ𝕖𝕝𝕖 ʕ•ᴥ•ʔ,feuergirl999,,@dbkeii_ ich glaub davon wurde ich mal angerufen als tom auch da war und ich hab dann sali bonani gesungen hab😂,25-5-2022,
907,Rocky <3,r0cky.the.cute.cat,,Ich werde seit mehren Wochen von irgendeiner Nummer angerufen ich leg immer auf lol,25-5-2022,
908,Imtschebell,imtschebell,,Ist immer lustig ein paar Minuten mitzuspielen xD,25-5-2022,
909,FU@K,pauli.11112,,@just_.me_leonie,25-5-2022,
910,Maggus,nurfleischmachtfleisch1,,Ein Klassenkamerad wurde von denen im Englischunterricht angerufen😂,25-5-2022,
911,K@n@ke,du5t9r,,WIESO HAB ICH DAS NICHT FRÜHER GESEHEN,25-5-2022,
912,EmOoo,robloxemooolmao,,@allways...lipton 😳 wusste ich,25-5-2022,
913,Mrs.dino,mrs.dino.1,,@sarina.tha13,25-5-2022,
914,<3,ju.kanns.halt,,Ist mir heute passiert...,25-5-2022,
915,mika,v4mphuush,,@tasija.20 safe waren des die HAHAHQH,25-5-2022,
916,Mary,black_swan_marry,,@lilyy_1213,25-5-2022,
917,Chiara La Juppa,chiaralajuppa,,@alexapomelo,25-5-2022,
918,Amira♡,amira_mlv,,@annxbl.mlr ich wurde gestern drei mal von drei verschiedenen Nummern angerufen hahaha bin aber nicht ran gegangen deswegen kp ob es die waren oder nd,25-5-2022,
919,Ju,princessthe1st0,,@.kxrx haha vllt die Nummer die dich die ganze Zeit anruft,25-5-2022,
920,Damn😆,tysxe,,ich werde die ganze zeit von Nummern angerufen die ich nicht kenne gestern 20 mal am tag und gerade wo ich denn Kommentar geschrieben habe wurde ich-,25-5-2022,
921,Maxim,max_mine_life,,ich wurde schon 5 Mal angerufen,25-5-2022,
922,Lanchen ;-;,lanchen04127,,@tara_9125 😂😂,25-5-2022,
923,Argjend🇦🇱,argjendklm,,@fejzullah103 @ethem2002,25-5-2022,
924,taraneh :D,tarschii,,@mandana.edt omg das war in französisch wahrscheinlich,25-5-2022,
925,Polina,polinarutouzumaki,,@iamkindatalliguess,25-5-2022,
926,Berfin,shi.berfin,,Digga sie haben mir gesagt meine Identität wurde gestohlen☠️Ich hatte so ein Lachflash darauf😂😂☠️☠️,25-5-2022,
927,OpiumAbi,opiumabi,,das hatte ich gestern einfach 2x hab mich schon gewundert,25-5-2022,
928,єιℓєєη,mrs.eilaa,,@sophie_stl hattest du das nicht mal,25-5-2022,
929,💚❤️,notkaysmits,,@emilyknxo jetzt weiß ich was das am Montag war 💀,25-5-2022,
930,Y0urfav.Amir08,y0urfav.amir08,,Aber was wollen die damit bezwecken ?,25-5-2022,
931,Diese_Palastinänserin,diese_palastinanserin,,@da.anxiety_ @diese_eine1305 Ich glaube das waren die die uns angerufen haben,25-5-2022,
932,CaliTower089Wesh,calitower089,,Naja hab letztens ausversehen mal zuerst Milch statt Cornflakes rein…..,25-5-2022,
933,♥︎ARMY-STAY♥︎,army7mah,,@zitate.from.aziza ehm- alsoo ich wurde gestern 7 mal angerufen von verschiedenen Nummern und habe sogar 2 mal die beleidigt....😀sogar auf eng💁‍♀️,25-5-2022,
934,Fortnite Edits🎮,faze_david1356,,hast du Redmi???,25-5-2022,
935,Sibel🧞‍♀️,s1belakn,,@lil_ugc,25-5-2022,
936,la_va_my_le0,la_va_my_le0,,ich würde rein stöhnen und auf legen 😂,25-5-2022,
937,✨Hobbylos✨,vanigacha_editytfan_,,@goldi...likes_itachi.lol Wichtig,25-5-2022,
938,⛔FΓΣΨZΔL⛔,derfreyzal,,"""Nicht stören"" aktivieren, Ausnahme auf Kontakte einstellen...Zack Ruhe ✌️",25-5-2022,
939,SłБΞŁ,sib3lc,,@erdemcosgun,25-5-2022,
940,enrique🤜🏽🤛🏽seo1975,enrique_seo1975,,Ich fand es ein nettes Gespräch.Wir haben alles am Telefon geklärt & danach hab ich mein Handy zerstört wie sie es mir gesagt haben.,25-5-2022,
941,Jin <3,kim_mj_9207,,@dieeineaussyrien15,25-5-2022,
942,tibi,blt.tibelya,,@kiko.blt,25-5-2022,
943,katharina K.,kedektiv99,,@naddy1708 musste direkt an dich denken 😅,25-5-2022,
944,celine_reinert,celine_reinert,,@mariereinert,25-5-2022,
945,Lisa,lisa_prvt28,,@leni_prvt11 das war das was dich in Sport angerufen hat,25-5-2022,
946,Oliver,bjg_tomcom,,Habe ich schon gut 20x erhalten,25-5-2022,
947,🤍,lana_mdc,,@josie.brsk,25-5-2022,
948,user1234567890,tina.cgn0,,@sara_xcs,25-5-2022,
949,Spidey2116,spidey2116,,@buckybarnes2711,25-5-2022,
950,di1808diana,di1808diana,,Ich wurde auch ich hatte sehr Angst weil die haben gefragt welche Adresse habe ich,25-5-2022,
951,Joline,w.j0line,,@bxll_a,25-5-2022,
952,Celiah,ichwillwieder4sein,,@hannaa.29,25-5-2022,
953,✞︎𝑇𝑜𝑏𝑦✞︎,ehrlichtab,,@lea._.gslr @lynn.tws,25-5-2022,
954,EBЯU ЯΛNΛ,ebru.rana,,@guennervivien das war es also,25-5-2022,
955,Makoto,_lordmakoto_,,blockieren hat nichts gebracht bei mir wurde 6 mal von verschiedenen nummern angerufen. nach dem 3 Anruf bin ich garnicht mehr dran gegangen,25-5-2022,
956,Lisa,i_dont_kxow0,,Ich geh gar nicht erst ran😂,25-5-2022,
957,🤝,ameeceline,,@miasophie.hmn jetzt weiß ich,25-5-2022,
958,lea,sleepthrughuralarm,,@_jolinaaaaa_,25-5-2022,
959,neee,haejnk,,@oememn,25-5-2022,
960,Alina,alxna__1,,@merxe._.15_,25-5-2022,
961,celine,celine.esa,,@_emskiii_,25-5-2022,
962,.,ballett.dancer.1,,@lala.kosovo,25-5-2022,
963,randa_you,randa_you_,,@maro__you @riri98mommy @Maja,25-5-2022,
964,pain,dan_qlf34,,@susann.mh @heva_rsd @lias_slave hatte vor 1-2 Monate 4 solche Anrufe an 1 Tag bin aber nie ran gegangen,25-5-2022,
965,ɐuılǝɓu∀,theywantangelina,,@🇬🇷,25-5-2022,
966,🌻الله🌻,zsadat.musavi,,@mariam_16.5 @@sayeda.zahra @marvidwtdbidwtla,25-5-2022,
967,💘,_jxcline_,,@victoria_hbn hab ich auch,25-5-2022,
968,🖤,ksp_duhan,,„tränen“ 27.05 ❤️‍🩹🤞🏻,25-5-2022,
969,Tik Toker,usert0dqtr3stn,,meine e-mail wurde gehackt ich habe ein Abo beim x Box Gamepass der Hacker hat das Passwort der E-Mail gendert das pas Wort kan ich auch nt mer Endern,25-5-2022,
970,laura,blume562,,@juliana.brk,25-5-2022,
971,lole6152,lole6152,,"ultra viele Anrufe bekommen,immer ignoriert dann einmal rangegangen höre""this is a call from Europol""und sofort aufgelegt weil sowas geahnt hab",25-5-2022,
972,🤍,aleavirgina,,@niko_rs_,25-5-2022,
973,funnyapexedits,apexclip_funny,,Hab da letztens gesagt ob ihn sein Job wirklich so Spaß macht und dad er sich nene neuen Job suchen soll daraufhin wurde aufgelegt xD,25-5-2022,
974,💞💞,lara_x49,,@susunextdoor ah das war bei dir,24-5-2022,
975,🦋𝑀𝒾𝒶🦋,miia.blg,,@lavinia_delaseras,24-5-2022,
976,Juliana,julirot15,,@nelly.w.26,24-5-2022,
977,Esma.msti,esma910,,@just.meee16,24-5-2022,
978,Nur Franck,nurfranck,,Genau die haben mich heute 10 mal angerufen 😭😭,24-5-2022,
979,Luci,lucianashn,,@sphbeck das war doch letztens,24-5-2022,
980,Pauline,pauline.14.10,,@.lisa.1998,24-5-2022,
981,Ben Luka Schneider,ben1234789,,@lucam069 @countdestroyer069,24-5-2022,
982,Anni,13hexe55,,@Evelyn Alekseev,24-5-2022,
983,nico.shb_,nico.shb_,,@annx.ltz,24-5-2022,
984,Nilaytuerk,nilaytuerk_43,,@e.baserr,24-5-2022,
985,Oldhardwareprojects,oldhardwareprojects,,Wurde aich von einer unbekannten Nummer bei WhatsApp angerufen,24-5-2022,
986,Coco,jo_ann_jo_ann,,@hanneshacker13 vileicht war das heute bei dir,24-5-2022,
987,Its_Baldina_Majka,baldina_majka,,Man nennt das auch VoIP oder?,24-5-2022,
988,ᵗʸʳᵒⁿ-ʷᵒᵇ,0607.tyron,,Ich würde deren ganze Generation beleidigen bevor ich auflege 😬...,24-5-2022,
989,Balkes10,balkes1o1o,,@tweakzz_x,24-5-2022,
990,💰,ichwillnurgeld1,,Hat jmd Butter in hay day ??,24-5-2022,
991,Hugo Nagelt,digga.vallah.film.heute,,"entweder lege ich auf, oder tu so als würde ich bei Microsoft arbeiten",24-5-2022,
992,angelina,angelinaa._16,,cool danke,24-5-2022,
993,giuli,giuli__15,,Warum gehen immer alle Menschen ran wenn sie eine Nummer nicht kennen 😂 ich geh nie ran,24-5-2022,
994,Ellliiiias,lolulal,,hatte das heute 5 mal beim 6 mal rangegange u d gesagt ich kann kein englisch,24-5-2022,
995,♡︎,jolie.crt,,@mia_b1n ...,24-5-2022,
996,Holger,holgr90,,Bisher hatte ich etwa 17 Anrufe dieser Art - immer eine andere Nummer 🙃,24-5-2022,
997,Sali bonani,bujar_frangu,,@feridef06 letztens,24-5-2022,
998,Faibs08,faibs08,,was passiert wenn man ihn beleidigt,24-5-2022,
999,ChrisjC,lookball_jc,,@user653210986 lol des war bei mir au,24-5-2022,
1000,🖇️𝙼𝚒𝚛𝚒🖇️,schimmeltinker,,@sese.2810 das war dieser Anruf den ich drauf hatte😳,24-5-2022,
1001,:),kim_vsl,,@annika.2009a ahhh,24-5-2022,
1002,Amy,amynx_,,@_s0fia86 vielleicht wirst du deswegen dauernt angerufen,24-5-2022,
1003,merle,merle.gnw,,@taya.pl,24-5-2022,
1004,Laurin,buddylaurin12,,Die hatten mich 2 mal angerufen ich hab aufgelegt weil bin zu dumm für englisch 😅,24-5-2022,
1005,Userin <3,user17328004514440,,ich wurde vor 2 st angerufen und meinte ich hab keine zeit und hab aufgelegt 😂,24-5-2022,
1006,edit acc,netmie_edits,,genau das passiert mir auch😳😳😳@lolmaster22e,24-5-2022,
1007,Undercover,qundercover,,Mich haben heute und gestern 4 verschieden Nummern angerufen ich gehe nicht dran weil ich sie nicht kenne😶‍🌫️,24-5-2022,
1008,Maya 06,maya_06x,,@brianna_06x @tbhidkwhatimdoinghere @sophie_t1711,24-5-2022,
1009,Hiro,hiro_hd,,@lizabumaye bei dir,24-5-2022,
1010,kiril13760,kiril13760,,а можна руски или украинский?,24-5-2022,
1011,....,actuallytina,,@htpps.deine.mom.is.gay EYYYY KANNST DU DICH NOCH ERINNERN ALS DICH DIE EINE NUMMER ANGRUFEN HAT UND ICH ZURÜCK RUFEN WOLLTE ??,24-5-2022,
1012,(ง'̀-'́)ง,1s4.b3l,,@.dontmesswithmelol wurdest du nicht letztens davon angerufen?,24-5-2022,
1013,._.,_______caro_______,,@o.674,24-5-2022,
1014,Epic:SaengerAura7222,dark_aura7222,,@alex.2301,24-5-2022,
1015,Vicky,vicky_mchx,,@jeli.lelle,24-5-2022,
1016,lomi,lomi.99,,@nobodynoshadow,24-5-2022,
1017,Finja,f_kraus21,,@..me..anna @meike_.zndf.08 mich haben ja auch mal so viele Nummern angerufen😅,24-5-2022,
1018,Snowrra🇵🇱,snowrra,,@nicht_deine_perle_03 vielleicht ist es das was dir grad mit den Anrufen passiert?,24-5-2022,
1019,Til Strecker,ltaksss,,@kiliboy.06,24-5-2022,
