,Comment Number (ID),Nickname,User @,Comment Text,Time,Likes
1,hazzzzy2,hazzzzy2,,What camera do you use,3-6-2021,
2,thecroupier2134,ttfnlaswelt,,This fact was made for you and your channel hahahahahaha love it,3-6-2021,
3,Spencer · Ersteller,scambl,,"And when he gets used to web swinging, Miles is at 24 FPS like Peter!",3-6-2021,
4,Shiv,shiv.parms,,I thought something looked a bit choppy during this scene 😅,3-6-2021,
5,ty,thylcr,,THE LOOP yall aint see the loop!!!???!??!!,3-6-2021,
6,grau opppppppp,poffpuff10,,what if the spider-man was 120fps?,3-6-2021,
7,PancakeeGuy,pancakeeguymc,,They also made it so if you pause it on any frame it would look like a picture from a comic book,4-3-2022,
8,GigaFart,gigafartmegapoop,,@305.bella i love this movie,4-6-2021,
9,Yes,ollie_the_tomato,,@sinister._.sylveon huh,3-6-2021,
10,Nice,hayat0o,,His max potential is 34 frames,3-6-2021,
11,iNsErT name? :3,insertname123aa,,@hannahcoy1 @mallorymae3 one reason why I love this movie,19-6-2021,
12,Arc,archperiphmore,,@sjucjdjie when my brother told me this it was so cool bro like this movies sick,4-6-2021,
13,Nobody,nocturnallk,,Gamers be complaining it’s below 144 fps,29-6-2021,
14,Kala squad,kalasquadleader,,Is Gwen 34 FPS you know if I you know,4-6-2021,
15,Tike,tikeishere,,Into the spiderverse is a masterpiece,3-6-2021,
16,candie_bitch,candie_bitch,,"the whole movie was a masterpiece, as an artist i was more invested on how they animate the stuff than the actual story and plot of the movie",3-6-2021,
17,𝓕𝓾𝓬𝓬 𝔂𝓸𝓾,fucc__off__,,The attention to detail in that movie is why it’s my favourite I’ve watched ever,3-6-2021,
18,paradox,paradox156,,nah the reason peter is at 24 is because it shows hes from another universe,3-6-2021,
19,cathal Quigley,cathalquigley2,,i thought it was because peter was from a different universe and was different because his earth moves 24 fps,3-6-2021,
20,Dsaru,dsarux,,heyy i like your tech information but you look like singer for weezer by the way i like what u do 👍,3-6-2021,
21,Aiden Skeen,randomperson123420,,When he meets our dimensions Spider-Man his spider senses change from purple and green pursuing a path of greed and crime as his uncle to red and blue,12-6-2021,
22,Jasmine,jnewman135,,That’s so cool,3-6-2021,
23,ford focus 😀😀😀,2012_ford_focus,,♥🔞is obama here🔞♥,4-6-2021,
24,Akaaa,akagenn,,you learn something new everyday😁,3-6-2021,
25,Lucas Isaac,lucas_isaac29,,Woah that’s rly cool,3-6-2021,
26,i,extremestupidity8,,cool,3-6-2021,
27,drk,derek1896086,,why is this guy not verified @tiktok,3-6-2021,
28,K.P,thetruth470,,yeah same goes for the amazing world of gumball,3-6-2021,
29,gubblewubble,gubblewubble,,POV: they did it to save money,3-6-2021,
30,Finley Townley,ftownley908,,@austintechtips from wish 😂😂😂😂,4-6-2021,
31,Wooper,.sami_____,,I REMEMBER BEING SUPER BOTHERED BY THAT OMG IM SUPER SURPRISED IT HAS A MEANING,4-6-2021,
32,Dean,deanzurich,,I mean it's my favorite movie for a reason 😏,3-6-2021,
33,henroshima,henroshima,,my mom said im artists,3-6-2021,
34,Need a Psychotic Girl,iluvdeftones831,,I honestly think the artists were just lazy,3-6-2021,
35,😐,mikeyloco_424_2,,Imagine 60 FPS,3-6-2021,
36,Brad Reed,sosbraddii,,How would you feel if directors Fury,3-6-2021,
37,Brian 1.66,brian1.66,,1 minute ago,3-6-2021,
38,Andrew,danielalex_2233,,Is that in Disney plus or naflex,18-10-2021,
39,Syff,syffbtw,,So the real one that die can 60fps,14-8-2021,
40,Dekustan,treya_ss,,"thats why i love this movie the art,vibe,animation and writing is all so good",9-8-2021,
41,Eendekak,eendekak,,Not true,7-8-2021,
42,MR GUNSMITH,mr_gunsmith,,and theres also a part where miles is 60 fps at the part that hes on an edge of a building,1-8-2021,
43,♤,kalarautakari,,y’all notice his face didnt sync with his voice?! At the first part,19-7-2021,
44,Blinged_as_FUG!!!,uzui.tengen.hashira,,Wasn't it also used to have more of a cpmic book feel,3-7-2021,
45,Nick Nelson's bra,c_jems,,ok why did gwen know about the hair invident but the dimension thing didn't happen yet,29-6-2021,
46,user8121666440546,zboy7218,,Its not just in that scene its in most of the movie until miles breaks out of the chair in his room Im pretty sure,29-6-2021,
47,blobular,meeestick,,thought this was gonna be a r34 joke,27-6-2021,
48,this_is_going_to_be,this_is_going_to_be,,eri beats goku,25-6-2021,
49,Minecraft,seakingpanda,,Nobody: English teachers,24-6-2021,
50,taking a break,reechatgaming,,leave @acrello alone,23-6-2021,
51,DreamSMP sucks🤢🤡🗑️😐,matthewdallas08,,the lag is also in the Miles game when you have the SpiderVerse Suit,21-6-2021,
52,anya :),lost_soop,,into the spiderverse is quite possibly one of the best movies to ever be made,19-6-2021,
53,Froguse,frogues_z_pirate,,Why that’s it’s the best spider man movie,19-6-2021,
54,Deutschbuch,traphousekitchen_,,What was his First Name?,19-6-2021,
55,Madame pings husband,marsvpy,,To get more information look up 34 rules of spider verse! 😁😁😁,19-6-2021,
56,camzilla2003,mushuggamailman,,Spiderman into the spider-verse is a animated masterpiece,19-6-2021,
57,Isaac Schroeder,isaac.schroeder13,,That’s not politically correct,16-6-2021,
58,gabe failed the math test,_jbaz_,,this movie is an actual masterpiece,16-6-2021,
59,Oscyboy,beepbeepelote,,best movie of that decade,15-6-2021,
60,clock,mrcircloc,,Well spiderverse is a used comic strip book 🌚,15-6-2021,
61,⠀ ⠀ ⠀ ⠀ ⠀ ⠀,darealfox,,This movie is a MASTERPIECE💀,15-6-2021,
62,Wyatt Lefan,dustcloud35,,Also the first time Disney ever did 2 different frame rates at once 😁,14-6-2021,
63,It’s dé,mean_yeen,,The answer is 47,14-6-2021,
64,Dullzie,dullzie,,no im pretty sure its because miles is a universe with a comic style and old peater parker is from a regular i guess universe,14-6-2021,
65,Emil,49ers_legacyyy,,And that’s why I watch it 20 times,14-6-2021,
66,Runn3r20,runn3r20,,english teacher moment,14-6-2021,
67,cello,idontkmowshit,,or they didnt have money to do miles in 24,14-6-2021,
68,Dom,dom3630,,I was wondering why it looked like that,13-6-2021,
69,Alex,jawstache,,"I loved that movie, it was so good",12-6-2021,
70,tikboy42069,tikboy42069,,English teachers when the author writes the sky is blue,12-6-2021,
71,Roberto Lara2056,hamburbur02,,lol,12-6-2021,
72,🫣🫣,f21ry4,,Can you explain the end of vampire diaries when damon saw Stefan even tho he died,11-6-2021,
73,ourohog,ourohog,,Peter B. Parker,6-6-2021,
74,Lucsky,luchas1313,,Hi (sorry for my bad English),5-6-2021,
75,S.D.P member:YEET_teterts,od_hunting,,so thats why it took 1year+,5-6-2021,
76,Omnitrixhero10,omnitrixhero10,,"Fun fact,this is same thing they did in the game",5-6-2021,
77,Original,unremoted,,you counted the frames?,5-6-2021,
78,shek,shek_10,,No wonder the fps was like 💩,5-6-2021,
79,Jamon,jamonster123,,I've watched the movie 7 times and counting and never once noticed it wasn't 60 fps!,5-6-2021,
80,Michael Jackson,zatuug_,,I just had another spider man spiderverse vid above this,5-6-2021,
81,homsiano,homsiano,,quen was like 35,4-6-2021,
82,d.shirman,xshirmanatorx,,"Miles is animated in 2s, means that he moves a lot then moves a little so it looks a bit wonky, which shows that he is not good in the beginning.",4-6-2021,
83,dayvid,dayv1d1,,into the spider-verse has to be one of the best spider man movies,4-6-2021,
84,Jason L,jasonlatoracca,,At what point doez miles finally reach 24 fps?,4-6-2021,
85,Benjamin Krozkin,_benji_288,,Bro you look like hunter from Ginny and Georgia,4-6-2021,
86,HSFUT,hsfut09,,Where can i watch it,4-6-2021,
87,ThatPrivateNerd,thatprivatenerd,,isnt it also the whole movie the spider-people all move at 24 the rest of the characters at 12,4-6-2021,
88,D:,lost_leonard_,,Tbh I though this was gonna be a r34 joke,4-6-2021,
89,Xx_ButterFinger69_xX,octohelmi,,So you‘re a Pro with 24? Yeah that explains why my life is in 1,4-6-2021,
90,Medo,kharabtz,,who else knew that from the game,4-6-2021,
91,user9110892490817,jordan_09047,,I’m still learning new stuff about this movie amazing,4-6-2021,
92,Tyler Akpik,tylerthecreator907,,I seen that before every second it gets blurry around miles,4-6-2021,
93,That.Kid0g,thatkid0g,,so moralis isn't going as many miles as Peter as quick? SO SORRY HAD TO DO IT 😂😂😂,4-6-2021,
94,Vzekiel67,vlopez6798,,If I had a dollar for how many times I’ve heard this fact 🥲,4-6-2021,
95,isley,forisley,,this is actually pretty cool keep up the good content,4-6-2021,
96,RealReaperMask,realreapermask,,genius,4-6-2021,
97,Ray Ash,realheelash,,He's just lagging,4-6-2021,
98,user1702056140897,bo4rager,,I love how people still seeing spiderverse interesting facts and details,4-6-2021,
99,Penguinz,mrpenguinking,,"the comment: ur really good at explaining these things
Me: everything I learned from this guy is just frame rates",4-6-2021,
100,idk-bro,idk_what_to_put_here567,,nah Miles just forgot his rgp,4-6-2021,
101,haizi,haiziizzudin,,"it was so good 🥰🥰, kudos to the animation team 😁",4-6-2021,
102,George,geo_how,,"How are people still finding this out? I have heard so many people bring up this fact in the past couple years, that its actually insane",4-6-2021,
103,.,camerongaveup,,artistic but replace the r with u,4-6-2021,
104,therealogeal,therealogeal,,I have to say it is the most beautiful crafted animated movie ever.,4-6-2021,
105,Alex,alexzanderrr_,,I think peater was also shot in doubles,4-6-2021,
106,𝙅𝙏ت,j..a..y..d..3.n,,bro this is why this movie is the best,4-6-2021,
107,claire,coochietran,,@richarddo98 okay that’s kinda cool,4-6-2021,
108,Faucet Failure 💧,thedripisforeva,,nobody fights theae days it's always guns 😫,4-6-2021,
109,MlLK,ithrowunderhand,,@hiddenmoviedetails again 😳,4-6-2021,
110,C,_blingblingboy69,,the spiderverse us a masterpiece,4-6-2021,
111,bookle,b0okle,,This should've been covered by the did you know guys lol,4-6-2021,
112,Someone,cg_savgrery,,the more you know,4-6-2021,
113,BBメMingoΩ,demon_opc,,miles now: 10000000 fps,4-6-2021,
114,(ノ^_^)ノ Beans,beanssama0_0,,I thought you were gonna joke about r34,4-6-2021,
115,grape,microwaveandbacon,,pffft can't even run 60fps 🤓,4-6-2021,
116,. ..ˈ⃢ˈ⃢ˈ⃢ˈ⃢ˈ⃢ˈ⃢ˈ⃢ˈ⃢ˈ⃢ˈ⃢ˈ⃢ˈ⃢ˈ⃢,itsmetal456,,who doesnt know this already,4-6-2021,
117,Tùng Phạm,tungpham2612,,i thought it just because of that their come from different universe!!! but this make sense,4-6-2021,
118,Glock19,glock2023,,The whole movie was pefect,3-6-2021,
119,Enosara,iateyourechocolate,,I expected an r34 reference,3-6-2021,
120,Tayyab,tayyab.issa.paki,,@strikerhmmm and you wonder why I like this movie so much,3-6-2021,
121,Big Papi,bigpapisky,,thought it was to represent them being from different universes,3-6-2021,
122,user1333421226542,troybut,,Or going by one or two,3-6-2021,
123,JefieTheGamer,jefiethegamer,,Gwen is at 34 fps just search it up,3-6-2021,
124,ClimaxReacher69,climaxreacher69,,my eyes are hurting,3-6-2021,
125,max,maxdelgadooo,,@brynn_bealey such a good movie omg,3-6-2021,
126,Haern,tiktokhaern,,"Check out the Book, The Art of Into the Spider-Verse",3-6-2021,
127,🗿,allsalesarefinal,,i’m still finding out stuff about this movie 🔥,3-6-2021,
128,Ite,ite_letsgetstarted,,There from different dimensions miles is on a different frame rate anyway,3-6-2021,
129,OlexiD_Mario,olexi_mario4015,,yh they did it like that to make it look like spiderman was more smooth with his swinging,3-6-2021,
130,RandomShit,random_shit425,,"can u explain the noise in screen, like what is noise reduction and block noise reduction",3-6-2021,
131,DIO BRANDO,daddydio_69,,I heard that from corridor crew first but ok,3-6-2021,
132,Sure,iyedee03,,Aight I’m rewatching rn,3-6-2021,
133,mo,virtulmoxd,,i prefer peter,3-6-2021,
134,Minecraft diotite,minecraft_diorite.0,,They combined strips and tech 😳,3-6-2021,
135,Aidan,aidan.tali,,such a creative movie,3-6-2021,
136,My name keeps getting ban 😐,4_doors_more_hores_lmao,,I knew he looked wired,3-6-2021,
137,🗿,dividec1oud,,That movie is the best movie imo,3-6-2021,
138,.,_tieme,,Why dont they just use 60 fps for peter parker and like 40 or 50 for miles,3-6-2021,
139,david,daveist,,yup my favourite movie,3-6-2021,
140,⠀whopper,whoppper,,@rajtjikoeri @theb1gw @daantjebelgers omg dat is echt slim,3-6-2021,
141,k,bigboydaddy81,,This is why I love this film,3-6-2021,
142,gage Cessac,gagecessac5,,The leap of faith scene always gives me chills,3-6-2021,
143,Nolan Hubbs,www.nolan_hubbs.com,,this movie got taken off netflix. rip,3-6-2021,
144,Philopateer Amir,dvlucifer,,wow,3-6-2021,
145,Unoriginal mf,massanem,,@bop_ts01 I love this,3-6-2021,
146,Bryson McKell,brysonmckell,,"but how did they do this, did they keep 2 frames for miles the same while peters changes?",3-6-2021,
147,No,iwatchlolihentai50,,Nice,3-6-2021,
148,P. Prokeš,mr.prokes,,Cooql,3-6-2021,
149,Sean Abregana,sean_242012,,hi,29-6-2021,
150,BowlOfSpaghetti,bowlofspaghet,,The exaggerated swagger😫,4-6-2021,
151,Saketh Patibandla,sasipas1,,When he said artistic at first I thought he said autistic,4-6-2021,
152,Rush D.A.,hi_crash,,Or because his black,4-6-2021,
153,Sappie,realsappie,,is it me or does miles fall backwards with the exaggerated swagger of a black teen⁉️,3-6-2021,
154,Cora,axiov,,I thought this was gonna be another r34 joke,3-6-2021,
155,King Thanos,paradox499,,This movie hurt my eyes👎,3-6-2021,
156,pingu,pingu70,,what's a megapixel,3-6-2021,
157,Shane4372,flash4372,,You so copped @sarinagov,4-6-2021,
158,Definetly mad,56bit,,"YES I DID KNOW THAT, LITERLY EVERYONE MADE A VID ABT THAT, I DO NOT CARE",29-7-2021,
159,Yo!,hammu_be,,"the song is annoy me when i'm lisneting, i'm not good listening english. not my main language",4-6-2021,
160,WC3🦾,warryncamp,,Spider ham: tf is FPS,28-6-2021,
161,oatmeen,oatmeen,,moral of the story: if u noob u low fps,3-6-2021,
162,Kage,..kxge,,Whoever came up with that idea should’ve gotten paid extra,3-6-2021,
163,Chilltornetta,chilltornetta,,If Myles had rgb he would be a pro,3-6-2021,
164,TITO LOWIS,titolowis,,Who here keep hearing about this fact in tiktok but with different people?,4-6-2021,
165,NOTComplexSlayers,notcomplexslayers,,I love this vid like and I’ll explain,26-7-2021,
166,Mari 🫠💙,n01sy,,"Where are all the comments?
︎
︎
︎
︎
︎
︎
︎
︎
︎
︎
︎
︎
︎
︎
︎
︎
︎
︎
︎
︎
︎
︎
︎
︎
︎
︎
︎
︎
︎
︎
(pin this)",29-6-2021,
167,.,moschroom,,"Where are all the comments?
︎
︎
︎
︎
︎
︎
︎
︎
︎
︎
︎
︎
︎
︎
︎
︎
︎
︎
︎
︎
︎
︎
︎
︎
︎
︎
︎
...",12-7-2021,
168,Lovre,lovredev,,Why do beginning of you videos the voice isn’t synced with face and the few seconds it speeds up and fixed,6-6-2021,
169,Cameron,c.ameron.bro,,yo is this copied?,3-6-2021,
170,bzzz,buzzz67,,credit?? i thought i ve seen it somewhere,4-6-2021,
171,Recons,ig.recons,,Can you rate the Razor kraken x gaming headset I’m not sure if I should buy it,3-6-2021,
172,Use Code Cozlol 🖤,cozmecatic,,THATS SICK,3-6-2021,
173,Free Tha monkeys,www.freethemonkeys.com,,Yo who tf is that😱,10-8-2021,
174,Squidlard 👿,squidlard,,ThAt is just being lazy af,11-6-2021,
175,chaseronii,chaseronii,,That’s sick honestly,4-6-2021,
176,happyiven,happyiven_hd,,"that's why I hate the movie, I can't watch it, it's the opposite of smooth and it hurts my eyes",4-6-2021,
177,Matias,chrishowardsutherland,,sounds lazy to me,3-6-2021,
178,Austin,austin_butcher,,I fucken love this movie,4-6-2021,
179,Navraj Sangha,navrajsangha0,,I thought you said autistic💀,3-6-2021,
180,Brad Reed,sosbraddii,,No one cares theonly good Spiderman is the org 3 And just a heads up there’s never been,3-6-2021,
181,ginger,verysexyginger,,i just think miles has a bad build ngl,3-6-2021,
182,…,animeandwhatever_,,AND THIS IS WHY WE NEED A NUMBER 2!,19-7-2021,
183,mars,fembeat,,watch some use interpolation,15-6-2021,
184,9YOM,9yeroldman,,"it’s all actually 24 fps, miles is just animated on twos (a movement for every two frames) while peter is on ones. basically the same thing tho",15-6-2021,
185,Anton Tran,ommetaphoba,,They made Gwen Stacy at 34 FPS just search up that rule,14-6-2021,
186,rassasinn,rassasinn,,@aylalool fax,14-6-2021,
187,lex,leksington1,,and gwen came in at 34 fps to show her mastery over peter's rusty web slinging for more info go to gwen rule-,4-6-2021,
188,🧟,jxxime_,,miles gets disowned,4-6-2021,
189,Diablo,_justdiablo,,I misheard him and thought he said autistic,4-6-2021,
190,sosa,sbh9n,,12 fps noob,4-6-2021,
191,Yanu,yanunotavailable,,Peter has some sick gear with the 24hz monitor SHEEESH,4-6-2021,
192,Mason,.t1k_tac,,Bruh I got higher fps than both lol,4-6-2021,
193,heh,heleduspog,,the fps man,4-6-2021,
194,Jalen M. LaFountaine,lafountaindrink,,it just makes it look more clunky which would make sense,3-6-2021,
195,We are Fatily,fatilyyy,,I’m autistic too,3-6-2021,
196,Henry Guzman,henry_egb,,Is there a movie that has been shot at 60fps? Do you think they will ever do that if theres none,3-6-2021,
197,uncleshrek6969,cokekobottle,,you've explained fps for the 1000th time now,3-6-2021,
198,kacpergam,kacpergam,,why did I hear autistic at the end,3-6-2021,
199,Dom,bully_m4guire,,and at the end of the movie when he jumps off the crane he's at a higher frame rate,3-6-2021,
200,Idk,elimination_gamesyt,,I thought you were gonna tell me to look up Miles Morales rule thirty four or some crap lol,3-6-2021,
201,jardaspk,jardaspk,,"I thought that both were 12fps and they weren't synced up, and when Miles got used to swinging they synced them up :D Is Peter actually 24?",3-6-2021,
202,🔥☄️Xgamer360☄️🔥,xgamer360offical,,@graffski08,3-6-2021,
203,Kelvinfiti,prankbros_uwu,,1,3-6-2021,
204,rixxull,rixxull,,@peskypotato,3-6-2021,
205,Kyle,smart04202069_fanaccount,,@wheresthepeaches 😍😫,4-6-2021,
206,Max,maxwiegand,,@n8_simonson,14-6-2021,
207,Tchinen723,tchinen723,,@hiddenmoviedetails,4-6-2021,
208,…,pha1anx,,@bruh_im_straight,3-6-2021,
209,Mustafa,_musali,,@h_mmm1,3-6-2021,
210,Vannis,mr.bumbih,,@libertycityjacoby,14-6-2021,
211,K.,pinheadlarry77,,@straw_hat_goofy,3-6-2021,
212,Harry,reverse_phez,,@nat.song.07,19-6-2021,
213,joeyrere,sawcondeeees,,@adamibrahim54,4-6-2021,
214,F1 central,f1_central12,,@adhaxy,7-8-2021,
215,Walter White,dr_marvel1,,@legend.71_,19-6-2021,
216,Leobrooklyn99,kwaasee,,@straw_hat_goofy,14-6-2021,
217,Isiah,isiahvaz,,@moolikeadrian,12-6-2021,
218,Yo Mama,rawc0237,,@colorofspaceprod,4-6-2021,
219,Daniel Webb,dxniel.webb,,@hannydare,4-6-2021,
220,cameron,cameronscl,,@kouswifee,4-6-2021,
221,Definitely not artur,arturh62,,@dancing.ewok,4-6-2021,
222,Trenton,trent.cox1227,,@lilmeatman099,4-6-2021,
223,kai turner,_kaiturner,,@rajeemsboyfriend,4-6-2021,
224,Logan Saunders,saunders_0321,,@tbd420,4-6-2021,
225,Sneaky_ Dalton08,sneaky_dalton,,@2019newton,4-6-2021,
226,Kage Tudor,gibbyisking037,,@sleepy_nevan,4-6-2021,
227,reece7,reecelark7,,@uk.seann,4-6-2021,
228,Diego,itz_diego117,,@billie_c4m .,3-6-2021,
229,Matt,mattagu,,@mri222,3-6-2021,
230,Smugboon,smugboon,,@_waterbear,3-6-2021,
231,Nikita,nikify07,,@theintroverz,3-6-2021,
232,Wolf,trvp_wolf,,@onecheese27,3-6-2021,
233,Ketsuna,ketsuna_,,@the_crazymonkey23,3-6-2021,
234,MamitaDyla,mamitadyla,,@superdragon5555,3-6-2021,
235,gunniboy,peter_from_dedpool2,,"@vikohk:pin this
　 ＼＼
　　 ＼( ͡° ͜ʖ ͡°)
　　　 >　⌒ヽ
　　　/　 へ＼
　　 /　　/　＼＼
　　 ﾚ　ノ　　 ヽ_つ
　　/　/
　 /　/|
　(　(ヽ
　|　|、＼
　| 丿 ＼ ⌒)
　| |　　) /
ノ )　　Lﾉ
(_／",18-7-2021,
