,Comment Number (ID),Nickname,User @,Comment Text,Time,Likes
1,🐸,your_favourite_lesbian_,,Samsung chillt einfach so in der Schale,24-3-2021,
2,ari ✿,addismeli0,,YALL THE IPHONE DIDNT BREAK IT WAS JUST A WARNING TO COOL UR PHONE DOWN BC IT CAN EXPLODE BC OF THE HEAT!!!,23-3-2021,
3,Bruh Moment,heyitsthatoneguy05,,"Samsung better, and if u a iPhone user with a cracked phone, don't even respond",27-3-2021,
4,𝔨𝔦𝔯𝔲_𝔠𝔥𝔞_🇷🇺🇰🇿,_kiru_cha_,,samsung wie Nokia 😂😂,13-4-2021,
5,💜👾💟☔️💜,hearts4j1hy0,,yall its a warning its gonna explode💀,23-3-2021,
6,Panna !!,amvkatsuki,,iPhone better,23-3-2021,
7,Truly Divine,truly_divine_,,limagine arguing over a phone🤡🤡🤡,23-3-2021,
8,Call of duty mobile,codmobleislife,,SAMSUNG FOR LIFE,23-3-2021,
9,🦋 Jam Jam 🦋,withney159,,I always knew Samsung was better 😌,22-3-2021,
10,nah 🚪🚶,aguili,,Kids grow up these are just phones 😐,23-3-2021,
11,RICH,._gary_the_cat_,,Samsung is the king,23-3-2021,
12,Evan,evantrevino14,,Yes bc ima put my phone in hot water,24-3-2021,
13,Spazticツ,spazticxd,,"the iphone dident break iphone can detect when theres hot water on it, samsung cant. iPhone > Samsung",27-3-2021,
14,🇹🇩,andrei_.471,,iPhone Best ever,22-3-2021,
15,doggo,spion_doggo,,apple:dieser schmerz er ist unerträglich samsung:mir ist kalt,31-3-2021,
16,rebox.rl,rebox.29,,Apple nimmt Samsung Teile lmao,13-4-2021,
17,Líńk,hardware_link,,Iphone is smart and automatically turns out to save the phone,24-3-2021,
18,Dyneecia Thomas,user8335854723956,,the phone siad im in water,27-3-2021,
19,King_flame,validtrxp._jordannn,,Samsung isnt better because it didnt warn u it was too hot its a good thing the iphone did that,24-3-2021,
20,Fee🦋,lafee_brln,,Samsung beste,31-3-2021,
21,︎ ︎ ︎ ︎ ︎ ︎ ︎ ︎ ︎ ︎ ︎ ︎ ︎ ︎ ︎,bjarne9841,,"Warum macht man sowas🥲
Gib das Handy doch einfach mir😏",24-3-2021,
22,FormelFire🔥,formelhub,,Bei Apple kam da sogar die Hitzewarnung,31-3-2021,
23,❤️Nickes❤️,fanpage.nickes,,"It’s Mila time und die jindouis sind dabei
It‘s Mila time und Nader ist dabei
It's Mila time und Louisa ist dabei
it's Mila time und Mila ist dabei",16-4-2021,
24,TT,.ttvibes,,Samsung ist halt am besten😌,24-4-2021,
25,Sentiixx 😂😅,sentiixx,,"Weil es manche nicht Checken : Das Iphone ist nicht Kaputt, apple gibt bei bestimmten Gefahren Warnungen, wie zb jetzt das Wasser. Wegdrücken - Fertig",16-4-2021,
26,teume,treasxre.0708,,@.lindx._ ignorier wieder video ich kann dieses eine tt mit columbus net anschauen,17-6-2021,
27,narancia😪😪,bartu_yg,,ich glaub bei iphone war es nur eine meldung wo stand das das handy überhitzt ist,24-4-2021,
28,VfL Bochum 💙🤍,luca.1848,,Anleitung zu ungenau iPhone jtz kaputt samsung läuft noch,31-3-2021,
29,felise,felise.bzc,,Gib mir doch das iphone🥲😭,31-3-2021,
30,Kevin,ich_bin_irgendein_typ,,"Das iPhone hat schneller aufgegeben, als Frankreich",25-5-2021,
31,.,xd.trxy,,Iphone zeigt nur Warnung ist nicht kaputt ist mir auch mal passiert mir ist Wasser vom Wasserkocher aufs Handy gelaufen 😂,13-4-2021,
32,FridgeFuckerToyotaBosniaJesus,bucheinband,,Nächste folge: wir schneiden 2 Fahrräder auseinander und schauen welches fahren kann,9-4-2021,
33,user7552165418959,lol45678990,,IPhone verdient halt hauptsächlich mit der Marke,11-5-2021,
34,beeschta,beeschta.hz,,@ranim.alib deswegen hat mein Handy in der Suppe und im Waschbecken überlebt HAHHAHAHAHAH,16-4-2021,
35,collien,collien1510,,@_fr0g.ktty ich checke diesen fight nt ich finde beide gleich nur iPhonedesign ist meine Meinung nach schöner unddieEmojis deswegenwollteichein iPhone,16-4-2021,
36,Anime,idk_how.to_name,,WARUM STREITET MAN SICH WELCHES HANDY BESSER IST?!,13-4-2021,
37,müslüm,muesluem.63,,nice mehr als 2k€ weg,13-4-2021,
38,der der immer recht hat,safu_342,,"iOs ist besser als Android 👍
︎︎
︎︎ⓘ falsche Informationen wurden entdeckt",21-4-2021,
39,:\,lea.jxlie,,Das arme iPhone,13-4-2021,
40,🫶,mariama.drm444,,Handys sind für sowas auch nicht gedacht also beweist es garnichts😭,27-4-2021,
41,Sprüche,lavin_860,,An alle iPhone hat eine Warnung gegeben was Samsung aber nicht getan hat,17-6-2021,
42,sinjin.me,sinjin.me,,Metall erhitzt halt schneller….,25-5-2021,
43,Laura,wochenendwanderlust,,von der qualität her samsung und von der Leistung Apple jz geklärt,17-4-2021,
44,.,lovely__beads_liveacc,,ich hab samsung aber apple ist besser,16-4-2021,
45,xpz.exe,razva.kun,,digga das Samsung Handy is auch wasserdicht .-.,16-4-2021,
46,.,shajenaa.kft,,wie niemand checkt dass das iphone nur eine warnung anzeigt dass die hardware beschädigt werden kann.,16-4-2021,
47,Julia,julia.mo_,,Ich mag Apple trotzdem mehr 😂 ( meine Meinung),16-4-2021,
48,weebtamins,weebtamins,,Digga handys sind nicht für kochtopf gefacht😂,16-4-2021,
49,Unknown,unknown06._,,iphone hat halt Herstellungskosten von ungefähr 400-430€ kann man nichts machen🤠,16-4-2021,
50,...,liese_3306,,Ich denke ich muss es net erklären das haben nämlich schon viele kommentieren aber mal real wer schmeißt sein Handy schon in kochendes Wasser,16-4-2021,
51,Jxnxs,jxnxs7,,Beide funktionieren und Apple gibt sofort eine Warnung bei Samsung würde es also einfach ohne Vorwarnung kaputt gehen,16-4-2021,
52,Mia Sunshine,miabolo_3,,Wer ist Team Appel hier bitte keine Samsung Leute 💁‍♂️,13-4-2021,
53,✞︎ ♡︎ 🄶 🄾 🄳 ♡︎ ✞︎,itz...leaxx,,YESSS SAMSUNG (kein hate an iPhone User),13-4-2021,
54,Marlon,handygamesandmore,,Über Haupt wer macht heißes Wasser über das Handy so wichtig das das nicht kaputt geht …,13-4-2021,
55,Lunaaa <3,skayla2810,,Asso dings Man kann 1minute video drehen dings one Part 2,13-4-2021,
56,(;,menacingbison81,,"Das iPhone zeigt nur an das,das handy überhitzt ist sollte das Samsung eig auch weil die Handy’s kurz davor zu explodieren sind kenne mich damit aus.",13-4-2021,
57,aarusha.selvan,aarusha220123,,Samsung idt ebrnt besser,31-3-2021,
58,Wissenschaft,bildungsbeauftragter,,Hätte man zumindest mein aktuelles Samsung nehmen sollen.,31-3-2021,
59,Jan,jxn_118,,samsung halt eben besser,16-4-2021,
60,Ja ka,toeniessiebzehn,,Hab iphone und ?,13-4-2021,
61,𝕯𝖆𝖗𝖐 𝕬𝖓𝖌𝖊𝖑🍃,its._.me.vivi,,Samsung ist eben besser @dana_alw @xxpurplenightxxx,12-6-2021,
62,🕑,baddiesontheroad,,@.lukasmcg Hier siehst du wie gut Apple ist,28-6-2021,
63,...,uh1h0_.klan,,Samsung hat mehr Qualität als iPhone,20-6-2021,
64,rin,rin.bou,,"Samsung so: Danke für die erfrischung Bruder, habe seit 2 Jahre nicht mehr geduscht😂😂😂",17-6-2021,
65,Matthias Hohwiele193,erindja,,"Nokia, heiß ? lächerlich, ich bin sogar feuerfeste.😅😅😅",17-6-2021,
66,🚗🚗🚗,aizarawrr,,IPHONE IST NICHT KAPUTT GEGANGEN IPHONE HAT EINE WARNUNG BEKOMMEN HAHAHA WAS SAMSUNG NICHT HAT ;),17-6-2021,
67,user1378664578868,missytinka,,hab einfach samsung😂,17-6-2021,
68,.,i_love_celia,,Das heist ja nicht gleich das Apple schlechter ist beides ist gut,17-6-2021,
69,Liza,lilaarts26,,IpOhNE iSt BeSsEr!,17-6-2021,
70,nika🇮🇷,1.nik4_,,"""IPhone ist besser""🤡",17-6-2021,
71,♡ C⃨h⃨i⃨a⃨r⃨a⃨ ♡,xofficial.chiarax,,Ich checke nd was es Leuten bringt zu diskutieren welche marke besser ist,17-6-2021,
72,Sho<3,ethitsstrangerdsmp,,samsung einfach am chillen😂,12-6-2021,
73,HP Fanpage,snape.fp1,,Samsung ist halt besser,12-6-2021,
74,𝖑𝖎𝖆𝖒𝚔𝚊𝚢𝚊,.liamkaya,,Wenigstens hat apple eine sicherheitssarnung,12-6-2021,
75,🇵🇱🏴󠁧󠁢󠁥󠁮󠁧󠁿🇩🇪,eclipwxe,,danke furs maskieren wur probieren aus,12-6-2021,
76,🥷🏿,iced0utandri,,Ey kids seid mal froh das ihr ein Handy dürft,2-6-2021,
77,Malte Osterbrink,maltex217,,Können wir uns drauf einigen das Apple eig besser ist aber Preis Leistung Samsung?,15-5-2021,
78,Sufixd30000,sufixd30000sufixd,,Schade ich darf nicht mehr in kochend heißes Wasser mit meinen Handy Baden,12-5-2021,
79,MrMagic341,mrmagic3852,,das passiert wenn man falschen leuten geld gibt,9-5-2021,
80,Keanu Balzer,keanu_blz_,,Bei Samsung Platz der Akku einfach gleich,8-5-2021,
81,Jxliiiy,jxliiiy,,Junge jetzt wieder diese Werbung im Kopf dieser Song,8-5-2021,
82,Leo <3,stfu..leoo,,"Bei Apple ist es eine Warnung das das Handy überhitzt bzw. Die Temperatur zu heiß ist, bei Samsung würde es nach paar Minuten von alleine ausgehen",2-5-2021,
83,Yadx.61,yade_61trabzon,,Apple ist besser,28-4-2021,
84,aylin,aylinbuteragrande,,samsung ist halt besser,28-4-2021,
85,….🥱,di_no089,,Bei anderen viedeos hat iPhone gewonnen,28-4-2021,
86,𝕸𝖎𝖆,mia...sk,,einfach in reis legen,27-4-2021,
87,Zonnakin,zonnakin,,Alle sagen samsung is besser aber checken nicht das das iphone das wasser direkt erkannt hat und nicht kaputt ist wtf😬,26-4-2021,
88,jugram,kimgdomofromania1919,,iphone ist besser 🤡🤡🤡😂😂,26-4-2021,
89,Chief_mitsuki,chrollo_mitsuki,,Ja man weil mein Handy ja auch in Nudel Wasser oder yumyum Suppe reinfällt 😂,26-4-2021,
90,Maya,anime_girl_senpai2,,Samsung so endlich ein Bad,24-4-2021,
91,user9557265435830,daniel_dauersteif2,,✨das ist was anderes✨,24-4-2021,
92,TikaMika,tikamika_hd,,an alle auf dem iphone kam nur ne warnung,24-4-2021,
93,Tobias Merk60,tobias_6754,,DaS WaSseR beIm IPhoNe iSt ViEl WärMeR,24-4-2021,
94,Jason Müller,fortnite_pro_ez_clap,,Ich koche auch immer gerne mein Handy 😁,24-4-2021,
95,Spam=block,anime..anime0x,,Eif Geist der Apple kontrolliert,24-4-2021,
96,<3,that.one.vbitch,,Samsung will halt dass man es auch Unterwasser benutzt,24-4-2021,
97,Bananentyp 🍌,bananen_sind_leckerrrrrr,,So jetzt an alle das iPhone ist net Schrot gegangen oder so es hat nur angezeigt das es sehr heiss ist und beide Handys sind Wasser dicht,24-4-2021,
98,Franzeeyy😻👍,franzi.yk,,Funfact: beide Handys sind gut wie sie sind,24-4-2021,
99,Malek_Khodr47_Hermanos,malek_khodr47_hermanos,,der hat voll auf iPhone gekippt,24-4-2021,
100,Yaroooo,yarooo.1,,Umaru ist Stärker,23-4-2021,
101,ami ☁️,amelie.basicss,,Ihr wisst schon das das iPhone net kaputt gegangen ist sondern in einen Schutz Modus gegangen ist 🤡,23-4-2021,
102,🐉,bubuyaku,,Samsung ist äußerlich besser aber innerlich ist iphone besser😂,23-4-2021,
103,lea_prvt89,lea_privat728,,beide sind nicht kapputt gegangen bei iphone ist das nur eine wasser warnung das wasser im handy ist,18-4-2021,
104,.,_silbertruhe_,,beide gleich gut nur das i phone mehr kostet und es halt schneller kaputt geht dafür ist es sicherer,18-4-2021,
105,Jannik_lzn,jannik_lzn,,Ohje jetzt muss ich mir ein Samsung kaufen weil ich eigentlich täglich mein Handy koche,18-4-2021,
106,XiaoOnCrack,pauplaysgenshin,,ich glaube das ist zufall,17-4-2021,
107,⇝༼⃤✪꙰⃠ɾͥ6.ƙͣxͫʅιαɳ✪꙰⃠༽⃤⬳,r6.kxlian,,Das Samsung geht nach paar Sekunden aus,16-4-2021,
108,pretty mf,actimo78,,bei apple so:ihr handy ist überhitzt 😂,16-4-2021,
109,marlen,marlen_12.05.2008,,Und bei Nokia: Wasser und Schale explodieren 😂😂,16-4-2021,
110,adelina,adelina.berliin,,Trozdem bleib ich bei iPhone,16-4-2021,
111,968,playboiii_leon,,i PhOnE iSt BeSsEr,16-4-2021,
112,Mohsnnad Alkafri,mbleiz2,,IPhone ist besser,16-4-2021,
113,Elisa🫶🏻,elisa_bzn,,Mache mein Handy auch immer in kochendes Wasser,16-4-2021,
114,al!na,alinxflm,,SaMSuNg iSt hAlT beSSeR,16-4-2021,
115,.,18.isamedin,,Samsung ist gut iPhone ist gut iPhone ist bisschen viel besser Fertig🤝,16-4-2021,
116,Maria,maasshahw,,Huawei vs Iphone?,16-4-2021,
117,Emir,derqanaqe,,Dieses Mal echt in Reise legen,16-4-2021,
118,Kamran,kamr4n_,,mein mutters iphone vs mein vaters samsung😂😂😂,16-4-2021,
119,ղエじՖ,nilli_boy,,Samsung: die sauna ist voll geil,16-4-2021,
120,<3,felina.hope,,Ein iPhone ist auch nicht da um es im Wasser zu baden,16-4-2021,
121,rgrefg_2443,rgrefg_2443,,Was steht in der Nachricht bei Apple ?,16-4-2021,
122,🆗,5a719o,,wenn man zu viel Geld hat:,16-4-2021,
123,Arda,ardauzm,,@ardriannn welches ist besser HAHAH,16-4-2021,
124,.,16.merlee,,Junge ist doch egal welches Handy jz besser ist beide sind gut hä,16-4-2021,
125,Idk,.hii.aw,,Alle machen hier grad ✨Handy shamming✨,16-4-2021,
126,i love finn,froggxfinn,,wie er es straight aufs iphone kippt,16-4-2021,
127,.,mr.__.anonymm,,Beide Marken sind gut nur das Betriebssystem von Apple ist schlecht,16-4-2021,
128,<3,vibingwithanne,,@juli_lott eif in reis legen,16-4-2021,
129,✨✨,me_sara_1,,Ist Samsung neue Nokia Oder was,16-4-2021,
130,alex,curs3dalexx,,Qualität Hält Halt länger nh @karrottenkid_,16-4-2021,
131,Tinos Legowelt,tino_de,,Darfür ist auch kei. Handy gemacht 🤦‍♂️,16-4-2021,
132,babygirll😍❤,not.ya.baby,,es ist halt samsung😏,16-4-2021,
133,Dababy,juliqn999,,? Was soll das jetzt sagen? Das ich mein Handy leider nicht in ein wasserkocher fallen lassen darf,16-4-2021,
134,.,zwiebeldoener,,Wie keiner hier bemerkt dass Apple gerade besser ist😂 Samsung gibt keine Warnung Apple schon,16-4-2021,
135,ˡᵉᵒⁿⁱᵉ,.leonie.wbr,,hä nir weil bei samsung weniger passiert ist heißt es das samsung besser is oder was lmao (ich hab nichts gegen beide marken),16-4-2021,
136,Styler,schweinespeck,,Das IPhone fühlt sich nicht wohl,16-4-2021,
137,🖤,annxleex_,,Mach ma mit nokia,16-4-2021,
138,Tik Toker,usergvfj5l9al8,,Beim iphone kam eine wasserwarnung während das samsung rungespinnt hat,16-4-2021,
139,Timo Werner,timo_werner_1996,,Ist ein Handy für Wasser gemacht? 😌,16-4-2021,
140,LOL-_- __,ezclap388._.111,,iPhone würde sagen das WAsSeR wAr hEIßer,16-4-2021,
141,Kante,blasrohkobold,,Das iPhone ist net kaputt gegangen,16-4-2021,
142,꒷꒦꒷‧˚₊‧꒦꒷꒦ ꒷꒦‧˚.⁺꒷꒦꒷‧˚꒦,obsessed._with.you,,Die Wasserkocher erinnert mich an Todoroki 😅🧊🔥,16-4-2021,
143,🇬🇳🇧🇷🇪🇸,deinelatina09,,Beides ist geil ich verstehe nicht warum man Handys vergleichen musst ufff,16-4-2021,
144,._.,p2osw,,Leute es bringt euch nichts über Handys zu streiten,16-4-2021,
145,_krank_,ileas_ffm,,ich hab das gleiche Handy von Samsung und das ist Wasser dicht🤦‍♂️,16-4-2021,
146,Sussy baka Amongus floppa,cchhrriiss777,,Was ist jetzt der Unterschied? iPhone hat es besser gemacht weil er eine Warnung abgegeben hat,16-4-2021,
147,User,jarno.xr_,,beide haben es geschafft apple hat halt ne warnung wegen wasser gemacht und ja samsung halt nix,16-4-2021,
148,Hey,.....nuts,,meine Mutter Handy ist fr in die Toilette gefallen und sie hat es dann in Reis gelegt und am nächsten Tag hat es wieder fr funktioniert,16-4-2021,
149,𝑆𝑒𝑙𝑒𝑛♡︎𝐴𝑦𝑙𝑖𝑛,aylin.1603,,Der schüttet es direkt auf iPhone daran mal gedacht😏,15-4-2021,
150,Ömer Salih Kaya,oemer__kaya,,"Iphone ist auch Wasserdicht zumindest ab Iphone 8. Das Iphone ist NICHT kapput gegangen da stand nur eine Meldung zur Info, dass im Iphone Wasser ist",14-4-2021,
151,🤍ᴍ• ᴀ •ʀ •ʏꨄ︎,xmary..zpt,,samsun hält es aus weil keine warnung,14-4-2021,
152,Karoo,karoo.69,,Was ist das für ein Samsung 😅,14-4-2021,
153,ida,drinksoyya,,Ich bleib bei Samsung😌🥺,13-4-2021,
154,ok,handfusss,,"JUNGE ALLE HANDYS SIND GUT OKAY? DA GIBT ES KEIN ""AbEr iPhOnE iSt bEsSeR""OKAY?",13-4-2021,
155,natalia,natalia.warszawska,,wofür,13-4-2021,
156,Amelie,me_ame2,,Ja ich glaube das kommt auf die Versionen an haha,13-4-2021,
157,Denis,xx_denis_x,,Junge die sind nd zum kochen gemacht,13-4-2021,
158,Halil,nixnix270,,Das iPhone hat nur eine Warnung bekommen,13-4-2021,
159,nsix._.best._.girl,mono._.best._.boy,,mein Handy ist nicht Wasser fest aber es passiert auch nichts wenn es kurz rein fällt (Samsung),13-4-2021,
160,user7043328316707,ich_liebe_kekse1121,,Wenn man ein Huawei hat,13-4-2021,
161,.,fabi29.swl,,Aus diesem Grund holt man sich ein Blackberry,13-4-2021,
162,ohnezahn2009💕,ohnezahn2009,,Ich gehe immer mit meinem Samsung eher meine mama im Meer schwimmen 😂😂😂,13-4-2021,
163,Paul,paul28072009,,Was ist das für ein Samsung,13-4-2021,
164,bread,bread_aerospace,,mein Samsung ist bei einem Unfall aus dem Auto gefallen und hat noch funktioniert,13-4-2021,
165,celine,cel1ine4,,ja junge aber wie hoch is die wahrscheinlichkeit das ich mein handy in heißes wasser schmeiße,13-4-2021,
166,user1444708920245,michael.crl,,Heute gibts Apple Suppe,11-4-2021,
167,Beomgyu and felix are my bias,yongbok213,,Samsung ist gut apple auch,4-4-2021,
168,⚽ ❤️,dieeineaus..089,,An alle die huawei habe is das wasserfest? 😂,4-4-2021,
169,.,fortniterchuu,,Funfact sie macht alles auf das Samsung,2-4-2021,
170,Rabay,schraggy2.0v,,"samsung hilft iphone, wollte nur sagen",2-4-2021,
171,m@ddox,maddoxisalive,,An alle die es nicht verstehen Samsung hat nur eine höhere Hitzeresistenz,1-4-2021,
172,ilayda,ilayda.915,,wer kocht auch sein iphone,31-3-2021,
173,Jpgw3..2229.eo~~~¿¡ww,coolesaxolotl,,"Warum eif warum :,)",31-3-2021,
174,Aram,aram2021.1.2,,Samsung beste,31-3-2021,
175,xenom,xenom221,,du weißt 60 sekunden ne,31-3-2021,
176,🤝,quatrokujo,,@idk_my.name_ nicht die diskutierer in den kommis,31-3-2021,
177,Tik Toker,nfsfannigabalsdontbegay0,,Samsung sitting there and cilling,23-3-2021,
178,Sharona🤪,gayirani,,samsong is a diffrent breed.,23-3-2021,
179,user8893442013494,ttvdaddyclaps,,iPhone is the best,23-3-2021,
180,Mahi,mahi.0008,,Samsung is chilling,23-3-2021,
181,A face,wydtb0,,Samsung won,23-3-2021,
182,Micka23,mickar23,,which one is which lol I have a pixel so,25-3-2021,
183,C&PR RAILWAY FAN/CAR FAN 😉😉,2008525d,,SAMSUNG 🥰,23-3-2021,
184,Gurnoor Singh,_gsingh.__,,Samsung better,23-3-2021,
185,⠀ ⠀ ⠀ ⠀ ⠀ ⠀,bigbrolicdude,,tell me how iPhone better than Samsung,27-3-2021,
186,Spicy · Ersteller,miran24_,,Check out Part 2,23-3-2021,
187,웃꒯ꋪꋬꉔꄲ웃,_.fw.draco,,yessir Samsung isthe king,27-3-2021,
188,Hello,haj8575,,Why do people do phone wars it litterly a preference like I had the XR but wanted to switch and I enjoy samsung more😂,24-3-2021,
189,Haru Nakamura,haru._nakamura._,,@phone_warpolice y'all need to grow up it's just a phone 😑,23-3-2021,
190,🎀 💗 💗 🎀,pink..bug,,I honestly don't mind having a Samsung or iPhone I just want something 💀,24-3-2021,
191,I didn’t quit,multjple,,Samsung didn’t win whys everyone saying that,23-3-2021,
192,Jaay,atl_jaay,,The fact that people actually think that hot water can mess an iPhone up no it just shuts off when it reaches a certain temperature 🤡,27-3-2021,
193,Darvin Bog,69godzilla69,,It just says that iphone is hot idoots and they turn it off bcs they dont want your phone to broke like samsung want,22-3-2021,
194,Thin blue thin red,thinblue_and_red_line,,My friend had a Samsung charged it then woke up one day and the inside had burnt like a crisp had my iPhone for 2 years now and been dropped lots of,23-3-2021,
195,?,ivxlcz_2709,,Imagine even having a phone 🤡🤡🤡,23-3-2021,
196,icetea,stim_pilot_,,I’m an iPhone user I regret buying it androids are way better,27-3-2021,
197,Fbi,fbifoundyou,,Samsung users chilling when their Phone is about to explode,23-3-2021,
198,gunnerman6,gunnerabbit6,,Why do Samsung ppl get angry if we phone war but they can't like bruh😑😑😑,23-3-2021,
199,chicken♤,chickennugges67,,when i get ready ima put my phone in water bc it a Samsung😳,24-3-2021,
200,HEHEHAW,15maxi08,,for Samsung this is nothing because of this the Handy give no Warning,24-3-2021,
201,Nick🥸,nyc_nickkk,,I like iPhones more but Samsung has my respect,27-3-2021,
202,Antonio Villalobos,antoniovillalobos1,,iPhone is better but Samsung has way better phone designs,27-3-2021,
203,Lol,darciva,,Sad how Samsung did not give a warning,28-3-2021,
204,8/24,lluvfaygo,,iPhone hella Overated,27-3-2021,
205,Anthony,copilot09,,samsung waterproof.,27-3-2021,
206,Point God429,s.w.e.r.v.en,,iphone users will find anything to say after samsung winning lol,24-3-2021,
207,goshtin,fw_german_mf,,Samsung 🥵🥵🥶🥶🥶🥶💪💪,27-3-2021,
208,jungkook,jungkooktheestalllion,,Samsung built diffrent,16-4-2021,
209,YA,plabtreb922,,The phone turned off so it doesnt overheat not from the water,28-3-2021,
210,DailyAviation747,dailyaviation747,,All the iPhone was saying is there’s water in it you’re Samsung didn’t do that so don’t be saying Samsung is better,28-3-2021,
211,𝐾ℎ𝑙𝑜𝑒❤️,khloe_0127,,That’s cause you out the water on top of the iPhone when you did that it messed up you didn’t on Samsung,27-3-2021,
212,Treythatboy,yungeen_trey1,,Samsung didn't even break,25-3-2021,
213,User19694202127,user19694202127,,That’s a good thing for apple lmao. That’s supposed to happen. Y’all samsung people’s have fun when u leave ur phone out and it blows up,24-3-2021,
214,laciee.,theeyaadoree,,iPhone has good quality don’t get me wrong SOME Samsung’s do but i would rather get a iPhone just because I can do more stuff on it .,24-3-2021,
215,trey,ayo.dtrey,,@alyssahbabyyy this ur phone 😬,27-3-2021,
216,Chris,chris.cato2008,,iPhone was just saying water located would you like to power off I think we won😂😂,27-3-2021,
217,Idk a username 🤷🏽‍♂️,youngboijo,,But what are you doing that you phone ends up in hot water,27-3-2021,
218,Subscribe to my YT,zfect_gaming,,OMG SAMSUNG JUST SURVIVED HOT WATER IT IS SO MUCH BETTER THAN IPHONE IPHONE SO BAD OMG,27-3-2021,
219,✟,proudmagyar,,Az iPhone hamar feladta xD,16-4-2021,
220,majelle,majell.e,,Why should I put hot water in my phone?,31-3-2021,
221,Zay,gottaluvvzay_,,Lol iPhone was better THATS what saves ur phone it’s telling u that ur phone is in too hot water and Samsung dosent 😳,28-3-2021,
222,Jacob,jacob_lindenbaum48,,Samsung is better but iPhone is more popular,27-3-2021,
223,.,curnhubs,,Ayo i have the same phone as samsung,27-3-2021,
224,Ultra bo,ultrabo28,,I mean that how they blow up 🤷🏾‍♂️,27-3-2021,
225,✨random Roblox Ian edits✨,thatrandomrobloxediter,,Samsung im right here but mine would break ether way bc it has crackd😏,26-3-2021,
226,wahts ur doinss ?,lynlynn.alokoaa,,@chill.boieizel and people think iPhone is better,25-3-2021,
227,Babyface._.Shae,babyface._.shae2,,Samsung squad at dont be shy where yall at,25-3-2021,
228,hola,clxuds_manga16,,I'm happy I have a Samsung now🤠,25-3-2021,
229,YaBoiTeK,yaboitek,,iPhone is literally dog water,25-3-2021,
230,chimp,tripp.stanger,,"samsung 🤡
apple 🤡
android 🤡
Nokia 👑",25-3-2021,
231,😍,2065s,,iphone wins it warned u that its getting hot bc it can explode bc of the heat,24-3-2021,
232,no,nateisyummy,,that's the phone I have the Samsung Galaxy s8,24-3-2021,
233,Harry Iafrate,harrywithamullet,,it didnt turn off it got a temperature warning but ok,24-3-2021,
234,Melissa,nichtmelissakln,,Bruh Samsung didn’t even know it was water around it while I phone send a warning,30-5-2021,
235,Sophia0913,sophia1224466,,I’m never getting a Samsung my opinion,27-3-2021,
236,sylixshyper❣️,syb_sylix,,the iphone won watch the whole video 😂,27-3-2021,
237,Talen,talennnn,,"Simple solution to this “war”, don’t put your phone in hot water",27-3-2021,
238,king,king_marcu_14,,lmao😂,25-3-2021,
239,🍃pika🍃,xiao_.anus,,Samsung aguento mais,4-6-2021,
240,Moritz,mxritz.015,,iPhone win,31-3-2021,
241,Titoesz,casualdudeswhokiss,,It’s just a warning,28-3-2021,
242,minecraft noob,javieroof27,,"tbh i don't have any, I have a Nokia 🤷",28-3-2021,
243,🥷🏾🖤,dumbazz_ja,,What did the iPhone say ?,27-3-2021,
244,Idk,periods450,,Samsung gang,27-3-2021,
245,Okay,okay..die,,@mehhhhh246 seee like we said they are better,27-3-2021,
246,KidZuu111,zuu.da.kidd111,,SAMSUNG GANG!!!!!,27-3-2021,
247,Omar💫☁️⚽️,nagato.uxumaki,,Samsung 🦾,27-3-2021,
248,_quan_01,_quan_01,,Samsung gang,27-3-2021,
249,ˢʰᵉᵉˢʰ,shioyax,,@amiraskye get an iphone😏😏 gang gang🤙🤙,25-3-2021,
250,Rando American,randoamerican,,iPhOnE iS bEtEr,25-3-2021,
251,Fire blade,firebladeoliversg,,l always new iPhone was better,6-1-2022,
252,alasow,cadaado1,,Samsung!😏,19-6-2021,
253,👹🏃‍♂️,your.moms.fav.6.9,,bUt aPpLe iS sTiLl bEtTeR! No its not samsung is thr best i dont have one but its just facts,12-6-2021,
254,S,selina.sophie._,,@brudi_1610 @brudi_1610 ⁉️I MISS THE RAGE ⁉️MISS THE RAGE ⁉️I MISS THE RAGE ⁉️I MISS THE RAGE ⁉️I MISS THE RA I MISS THE RAGE ⁉️I MISS THE RAGE ⁉️,2-6-2021,
255,Laur.na.🫶🏾,laur.na.ngr,,@makiss22 @l.o.u.a.n.e.a.0.9 nell en sueur 😂😂,31-5-2021,
256,Ethan,dailylumine,,Imagine fighting over phones,30-5-2021,
257,Sophia :),sophia._.ba,,It’s just giving a warning,5-5-2021,
258,Queen🦋🤒,yrh._slimaz,,is this real,1-5-2021,
259,Aylin 🧚‍♀️ (zendaya),aepzndya,,Samsung and iPhone are both good,28-4-2021,
260,Sina 🤍,benvssolo,,IPhone instant dead,28-4-2021,
261,.,m.a.r.i.a_47,,Nokia is better 🥵🥵🥵,23-4-2021,
262,𝙢𝙮𝙩𝙯𝙯,.mytz,,@.lxsi @leftyvn iPhone on top 😂😂,18-4-2021,
263,dina,dinaknowsbest,,good to know in case my phone falls into a pot of boiling water,16-4-2021,
264,_Ichi_neggs_,_ichi_neggs_,,And that's Samsung s8 I think 😂,16-4-2021,
265,.,dudefxckyou,,Why?,16-4-2021,
266,Jesus loves you very much :),bubble..p0px,,Imagine arguing over two phone brands 🤡,16-4-2021,
267,Jimin’s bitch 🧚🏻,bpbts_love0,,okey but why tho,16-4-2021,
268,alessia 🇷🇴,52.alessia,,samsung + iphone =👑 done ✔,16-4-2021,
269,Janice <3,izzz_janice81,,Apple is better,13-4-2021,
270,issa 🤷🏻‍♂️,chrono.w,,iphone fr said ima head out 2 seconds after,13-4-2021,
271,leftrose💕,bennani._.hiba,,samsung is the king👑 No bla bla iPhone users,1-4-2021,
272,★𝓐𝓷𝔂𝓪★,anya050.x,,mijn tel is water proof lo,1-4-2021,
273,🫶🏻,user0263729814,,ATLEAST THERE IS A TEMPATURE WARNING ON IPHONE LMAO,1-4-2021,
274,I used to support adds,emmamiu88_,,that is not a Samsung it's a LG phone 😂,1-4-2021,
275,Katzen>Hunde,that.one.katarina,,Do cold water pls,1-4-2021,
276,🇮🇶🇩🇪,blurryfrosch,,No matter what you do you ain't gonna convince me to buy an android,31-3-2021,
277,lionel040512,liogamer_fifa,,samsung💪,31-3-2021,
278,🇪꙰҈҉꙱⃤,blqcky_,,Iphone is not dead thats a mode iphone is better🙂😌,31-3-2021,
279,what tf,.not.xiao,,"i was reading :
HOLY WATER TEST PART 1",30-3-2021,
280,😈,idc.narco,,baby on baby😈,28-3-2021,
281,Yeeet,sunkistberrylemonadelife,,Why are people arguing over phones it’s like toddlers playing toys “,28-3-2021,
282,Gabe MC 🦆🦆,_ohimtotted_3,,"The iPhone did not break idot sit just told you,it touched liquid I still works😂😂",28-3-2021,
283,Mike Kadum,mikekadum,,Samsung is so laggy,28-3-2021,
284,Jayde 🫶🏽,_spooky_dinosur_,,My iPhone is water proof I learnt hard way 😂,28-3-2021,
285,prostate police,bonor.donor,,I have lg :D,28-3-2021,
286,Reece Boswell,___reece___21,,iphone FOLDED,28-3-2021,
287,beepbeep,jimmywindham,,I am guessing that he used a water proof iPhone and used a old Samsung,28-3-2021,
288,Iven LaMont,iven_lol,,the fact I own this phone😂😂😂,28-3-2021,
289,Hello,ggue27,,A phone is a phone and if you didn’t work for it you should be grateful😁,28-3-2021,
290,Aba,lightbreathhh,,bro if I'm in boiling water last thing I'ma worry about is my phone,28-3-2021,
291,J.,_brymalv_,,good thing i'm not falling in a pool of boiling water,28-3-2021,
292,𝑛𝑜𝑎ℎ,specialedgarfield,,People are saying “that’s why Samsung is better” like how often do you accidently pour boiling water in to a empty foil bowl with your phone in it,28-3-2021,
293,Why are you here,smrufmerf,,There is a option to use 60 secs btw,28-3-2021,
294,prick,eroslations,,im so happy im switching from iphone to samsung in a while 😧,28-3-2021,
295,Regular guy,officialunbornduck,,of they both waterproof phones hen it's fair but if 1 in is waterproof and 1 is. not it's not fair (samsung user),28-3-2021,
296,.,lovesashleyyy,,You guys put a video in iPhone,28-3-2021,
297,Spooks,yo.spooks,,And y’all call Samsung bad,28-3-2021,
298,Sadie,chrissimp3,,It’s just warning you that your phones getting hot so it really don’t matter,28-3-2021,
299,⭐️,killua._zoldyck__,,A phone is a phone but i personally like iphone better,28-3-2021,
300,That_person that is_depressed,that_pppteroctyl,,Samsung is water prof so,28-3-2021,
301,J😈,jdagoatt,,At least our battery don’t fall out when we drop our phones 🥱,28-3-2021,
302,Lmao,kinkindontplay360,,i hve an Android and a iPhone and tbh I can't let go of my Android🥺🥺,28-3-2021,
303,evil_chickens,evil_chickens0,,the iPhone was done and the Samsung was just chilling 😂,28-3-2021,
304,Kylie,kyleloveslexiig,,"you know how many times I've dropped my phone and I don't have screen protector on it, I have a samsung? a million times, hasn't broke",28-3-2021,
305,👎🏼,ii.amm.bryson,,I have iPhone and Why is everyone battling in the comments,28-3-2021,
306,Kayy💛🤟🏾,darealist4._kayy,,Samsung’s are slow and that’s why I have a iPhone it’s better in my opinion and it’s battery last for 3 days,28-3-2021,
307,Jayven Giosa,jayvengiosa,,all the iphone kiddies are pressed 😂,28-3-2021,
308,no,abortionsbytev,,not me on the broke people side of tik tok imagine having a android if you’re broke just say that[cry],28-3-2021,
309,.,balllzz_yt,,That’s probably because it’s water any phones gonna break if it’s in water long enough 😂,28-3-2021,
310,🧳,liltrini,,I’m fine with my I phone thank y’all😌,28-3-2021,
311,kanye,drumbreak,,Still not gonna buy a samsung lol,28-3-2021,
312,ZenitsuFlashin⚡️,zenitsu_flashin,,iPhone cracks mad easily but it’s still better,28-3-2021,
313,Lee Reh,0.45632086,,Samsung users be saying android is better Until their parents buy them an iPhone and they switch up so quick 🤣,28-3-2021,
314,Yeeter Peter,golden_goofy,,I will take over,28-3-2021,
315,Hailee,maybe.hailee,,"I have dropped my samsung in slime, the bathtub, and the sink and it's perfectly fine lol",28-3-2021,
316,Daily dose of everything,dailydoseofeverything8,,iPhone it just telling you it’s to hot Samsung doesn’t,28-3-2021,
317,birds,kaitlyn_exists,,If water gets in your phone's charging port don't put your phone on the charger. It will catch fire,27-3-2021,
318,😈,yo_bf_a_bum,,YALL SAYING SAMSUNG BETTER BC A HOT WATER TEST😂😂😂,27-3-2021,
319,😈,yo_bf_a_bum,,It’s not 😂 just bc of this 😂 iPhone was better look it up e,27-3-2021,
320,Jelan Smith,berealmane,,imagine thinking u poor if u dont want a $1000 chunk of glass that breaks with one drop 😂😂😂,27-3-2021,
321,M3ntalfckingphsyc0,d6rl1ng._,,iphone be like:i tried to scream....but my head was underwater😂😂,27-3-2021,
322,Idk,user7362882732,,"iPhone, it can detect water in the charging port or speaker unlike Samsung 😳",27-3-2021,
323,ZY😵‍💫,prettygirlzyyyyyy,,Get a Android✍🏽,27-3-2021,
324,ya boi,yaboi2232,,iphone makes people feel like the phone is good quality when samsung actually makes the phone good quality,27-3-2021,
325,Vibe Central,soulzzi,,Watch the full vid iphone won 💀,27-3-2021,
326,No,plaugeverse,,Bro the iPhone detected that hot water was on it,27-3-2021,
327,_HarmanSinghhh,_harmamsinghhh,,I have I phone but ik Samsung Is better,27-3-2021,
328,COD:Stardylan2,your_boy_dylan_on_cod,,iPhone wayyy better,27-3-2021,
329,anthony,minecraftgod5000,,todoroki realizing that a phone is stronger than him 😃,27-3-2021,
330,Jacob,ftwftwtdtwtdtw,,iphone may have lost in this one but at least we don’t have to go get a new phone in 2 weeks😂,27-3-2021,
331,pharoah dunn,baby_sola8,,yeah phones and hot water go together🤓,27-3-2021,
332,kpop for life,yanderekxlls13,,yall arguing about wich phone is better but the true winner Is the dora flip phone 360,27-3-2021,
333,Rbms,shrimpybot1012,,The iPhone didn’t turn off it just said I’m in water and who pours hot water on their phone,27-3-2021,
334,DA HOOD CLIPS,theyloveplugg,,me over here having a Samsung:,27-3-2021,
335,Tik Toker,ikebewildin,,real talk who finna drop there phone hot water,27-3-2021,
336,StayMad,coletwastaken,,The IPhone pulled up its warning screen if you’re wondering,27-3-2021,
337,Chase,chase_b._,,"Android is tougher quality, but very slow",27-3-2021,
338,Aymerich,aymerichh,,Samsung :🤡 iPhone: 🤡 people who don’t do phone wars :👑,27-3-2021,
339,𝔻𝕒𝕝𝕝𝕒𝕤,_____plankton,,U do realize the iPhone didn’t break it just gave a warning,27-3-2021,
340,Spockrock,spockrock,,Opinion but iPhones better.,27-3-2021,
341,Idk,.maybe.noah,,@michaellamb003 where’s Nokia,27-3-2021,
342,Jaylynn😩🏳️‍🌈,jay._2_.valid,,the fact that I have the exact same Samsung 😂,27-3-2021,
343,Kevin🖤,_fyb.kevin,,Am on iPhone and Samsung is better cause I had it’s all my life,27-3-2021,
344,Cooper,_daddy_cooper,,idk what u guys are talking about i’m rocking with the flip phone,27-3-2021,
345,Plattnm.jk,s_jr.kd,,Phone wars 🤡 but truly iPhone better,27-3-2021,
346,man uz annoying og get a life,_ok_moms,,I feel like iPhone is more like style and Samsung is just strong no hate,27-3-2021,
347,Espyy,esppy_0o,,yall just get iPhones cause it's a trendy phone but Samsung is god tier,27-3-2021,
348,mama coco,ewocheze,,y'all still doing phone wars??😭,27-3-2021,
349,iambrainless,limasjaden,,this is why I have a Samsung,27-3-2021,
350,John,johnrowinski14,,Samsung wayyyy better,27-3-2021,
351,Jacob🦧🦧,wrlds_on_drugs,,I mean imo Samsung is worse but has way better durability,27-3-2021,
352,🫣,ryanfrmdawick,,My phone not getting put in boiling hot water so ion have to worry about that,27-3-2021,
353,😵‍💫,lil.man_cr,,I think I’m gonna get an iPhone because I gently put my android on the table and now it’s shattered but this video shows that iPhones are bad as well,27-3-2021,
354,graham,gunnervlone56,,iPhone has security settings so the phone shuts down and isn’t ruined,27-3-2021,
355,Walter Joe,walterjoe03,,I’ve dropped my iphone in a pool and guess what nothing happened,27-3-2021,
356,shid ion kno anymore,shidionknoanymore,,I don’t get it why are people saying Samsung is better the iPhone didn’t even break it went into an app,27-3-2021,
357,TTV/vividne0n,vividneon.val,,y’all saying “samsung better than iphone” who drops there phone in super hot water?. plus apples security system is way better ☠️faster response too,27-3-2021,
358,estebangudrap,estebangudrap,,Samsung,27-3-2021,
359,Solo_soldier-,limitlessskamal,,I hot both so 😏,27-3-2021,
360,Big papa,flynn_viar,,Y’all saying apple died first all it said was that it was in water and you should turn it of,27-3-2021,
361,Zay💜😈,zayy.qt,,Not people in the comments doing phone Wars😂😂,27-3-2021,
362,⠀ ⠀ ⠀ ⠀ ⠀ ⠀,wasupbros13,,"@spazticxd：the iphone dident break iphone can detect when theres hot water on it, samsung cant. iPhone > Samsung",27-3-2021,
363,welen,welen__,,"durability and reliability= android
performance and camera= iphone",27-3-2021,
364,that one guy,omgblicky,,BLACKBURDY IS BETTER 😈😈🥶🥶,27-3-2021,
365,Abandoned tiktok account,thatonepersonwhodgaf88,,Clearly 90% of these comments didn’t watch the whole video on yt😂,27-3-2021,
366,Tik Toker,joeskneecap,,I had a Samsung and an iPhone dropped them both down the stairs and my Samsung stopped working😂,27-3-2021,
367,♥︎♡♥︎♡♥︎♡♥︎♡♡♥︎♡♥︎♡♥︎♡♥︎,bruhstolemapancake,,"No one:
Nokia:𝚘𝚔𝚊𝚢 𝚖𝚢 𝚝𝚞𝚛𝚗",27-3-2021,
368,Pigeons030,w_._.y,,Samsung> iphone in performance but were all used to Apple because it used to be better so we don’t really wanna switch,27-3-2021,
369,Brady,bubbag248,,Camera check,27-3-2021,
370,Big_.dadonn 💪🏾💪🏾💯💯,niiaaaa_.dadonn,,Nawww I’m still rockin wit iPhones,27-3-2021,
371,ﾠ,._.wallace,,A yes I’m going to let my phone randomly fall a pot of hot water one day don’t worry,27-3-2021,
372,Tik Toker,shyshehulktwin,,I have dropped my iPhone multiple times and there’s no screen protector and it still hasn’t had a crack in it.,27-3-2021,
373,999 xxx,swagboyqt3,,I'magine doing phone wars in 2021,27-3-2021,
374,Cookies 😩❤️😩❤️😩❤️😩,hunggi8,,The I phone was getting a over heat warning,27-3-2021,
375,Marzz,mars.solos.goku,,As an iPhone user samsung better their screens ain’t that sensitive-,27-3-2021,
376,frank sinatra,whospayton012,,i literally dropped my samsung in the toilet and it still works 😂,27-3-2021,
377,aedan,apexwarehouse,,Idc I like iPhones,27-3-2021,
378,User,shortsmartass.com,,The iphones r better they give notifications letting you know your phone has been to hot and it need to cool off,27-3-2021,
379,Alex P,alexp001,,So iPhone won?,27-3-2021,
380,No,ew.lond0n,,samsung lasted longer ot wins,27-3-2021,
381,iZiino766,iziino766,,Because everyone pours hot water on their phones,27-3-2021,
382,hi I play Roblox,ghhcsukn,,Water doesn’t make Samsung better there both good😂,27-3-2021,
383,Add your name,if0rgt,,The iPhone didn’t die it just gave u a temperature warning now do it without hot water,27-3-2021,
384,Jack,elija_mckinley,,Samsung is more durable but iPhone has a better core and bigger community,27-3-2021,
385,Jibreel Ajmal,nightfury29671,,SAMSUNG IS BETTER LOOK AT THE STATS LOOK AT MY LAST VIDEO,27-3-2021,
386,Orphans,mightgetbannedlol,,Why do you guys care so much it’s just a phone 😐,27-3-2021,
387,.,kenaiifrench,,I’m not tryna start nun but y he specifically poured the water on the iPhone ?,27-3-2021,
388,Zilaco,memesblf,,Hold on so y’all are saying Samsung is better because it just a normal thing to put your phone in pan of boiling water ok makes sense,27-3-2021,
389,twitch user: retailplayz,_godrx_,,Nokia vs Samsung,27-3-2021,
390,You,logan_the_ravens_fan,,Ok,27-3-2021,
391,adriana,multixmoonii,,my samsung broke when it fell of small stall-,27-3-2021,
392,jaevan,jaes_house,,You can put ur phone in water?,27-3-2021,
393,Jacob Haysley,themaskedfellow1,,"Y’all talking smack about iPhone like I have a phone that has lasted 5 years now, y’all just don’t know how to take care of things😂😂",27-3-2021,
394,😎🤘,fantum_08,,no iphones are better cause it can detect whenever there heat or not but samsung can’t... so iphone is built better,27-3-2021,
395,Idk what to write for this,user4635274936,,Idc what anyone says but iPhones better that’s just what I think because I grew up with iPhones and not Samsungs,27-3-2021,
396,🌴🌴🌴🌴,luke_ginosss,,Yes bro cause I’m gonna drop my phone into boiling hot water,27-3-2021,
397,rafay,.rafayshahid,,putting a phone in boiling water and seeing which one lasts longer doesn’t define which one is better,27-3-2021,
398,I_MISSED_THE_JOKE_092,big_ben098,,samsung better and its final,27-3-2021,
399,Urmumandme,urmumandme,,Androids might be bettter but I’ll keep my iPhone,27-3-2021,
400,m3 n0 sussy b4k4,impost3r_n0_sus,,What does the warning on the IPhone say,27-3-2021,
401,Rayden_(tran,raydenbruuuuh,,I'm Samsung and I agree,27-3-2021,
402,_,._kevin.c2,,It’s cause iPhone wants you to take out the water or it’s to hot to warn you cause it can cause damage unlike Samsung,27-3-2021,
403,Gökü§öłö§,ztszsz,,Don’t matter apple still better lol,27-3-2021,
404,Commentary,commentaryrahvq,,this is why i have a samsung,27-3-2021,
405,Brandon,.theyhatebrando,,all you samsung people in these comments have no brain the iphone has protocols for being in water the samsung did absolutely nothing,27-3-2021,
406,matt cheek,mattycheeks6,,What did the iPhone say,27-3-2021,
407,nobody?,.zuzqe,,It’s funny how people say Samsung is better😂 there both good phones it’s just if someone was to get a phone for the zoom in it would be Samsung,27-3-2021,
408,🧑🏾‍🦯,elfkilledyou,,But I watched many of the same video and iPhone won lmao 😂😂😂😂,27-3-2021,
409,pov.ur.a.dumass,pov.ur.a.dumbass,,on a Samsung rn,27-3-2021,
410,Elijah’s world,elijahs__world,,I have an iPhone and Samsung is better,27-3-2021,
411,Jar jar chad,gengarchad,,Samsung are water proof,27-3-2021,
412,Reposter,3.0m4,,Do android vs Samsung,27-3-2021,
413,evan,lqlqlz,,When are you gonna put your phone in boiling water,27-3-2021,
414,Keithten,keithten,,Samsung is better,27-3-2021,
415,Soleil,xo.soleil.ox,,I have samsung and I dropped my phone in the toilet at least 5 times and it is still good as new😂,27-3-2021,
416,_Sheluvswilliams,_sheluvwilson,,At least our phones don't get laggy when you have so many stuff open at least we have way better quality,27-3-2021,
417,Christian,papacb,,Samsung better because it can be in boiling water. Give me one valid reason to have that feature and I’ll cashapp you $5,27-3-2021,
418,♡•twixeeny•♡,twixeeny,,@igetsadsometimes get rekt,27-3-2021,
419,Xxjrx.x,xxjrx.x,,imagine still haveing phone battles in 2021 🤡🤡🤡🤡,27-3-2021,
420,-_-,officalsharkgaming,,I think all phones are good,27-3-2021,
421,Idek,iamdild0,,iPhone is better lmao,27-3-2021,
422,🇵🇷,luvmannyyy,,I’m everywhere lol,27-3-2021,
423,Braylan Thompson,bray_tho,,"You guys act like iPhone doesn’t have better Quality,service,download speed, camera(s) quality, etc.",27-3-2021,
424,Florida 🌴🐊📍,dieseltrucknation,,American vs Japanese,27-3-2021,
425,Caleb Buford,mrbuford2,,iPhone does the smart thing,27-3-2021,
426,mfug,mfug33,,lmao the iphone just gave a heat warning,27-3-2021,
427,zojang,zojang,,"iphone is for flex, samsung is for results",27-3-2021,
428,Kate Artesani,my_other_name_was_take,,The iPhone didn’t brake it just detected that it’s in water,27-3-2021,
429,Anime,an1mevide0s0,,yessir,27-3-2021,
430,Glennda Baker Fan,glendabakerfan,,What are those diggity dang iPhone users gonna do when they accidentally pour boiling water from a teapot onto their cellular communication device 🤓,27-3-2021,
431,mike🐐,aliasmike5k,,who drops there phone in hot water,27-3-2021,
432,Always Happy Gang,dead.goawaynow,,Samsung was like damn yo fingers got rly hot😂😂,27-3-2021,
433,Tre,401_tre12246,,Mad android users 😂,27-3-2021,
434,pew pew pew pew pew pew pew,altokirby,,to everyone saying apple is better u are only saying that because it cost more u need to realize they make their stuff over priced,27-3-2021,
435,Jay Faygo,jaywalqs,,Only people with Android say it’s better cause they to poor to buy a iPhone lmao,27-3-2021,
436,Sosa,___sosa_,,"Tbh y’all are all Baby’s iPhone users, Samsung users, y’all realize Y’all are fighting over a PHONE that’s another level of sad😂",27-3-2021,
437,Bj,bj2986,,I saw one where it was the opposite,27-3-2021,
438,Apple User566363,maxawesome1,,It may be waterproof but iPhone has things that are way better than Samsung,27-3-2021,
439,Lucas,lucasbtwf,,I mean I have an Android but I'd rather have an iPhone cuz I like it better but Android and iPhone are equal,27-3-2021,
440,cole horwedel,cole_012345,,apple is better,27-3-2021,
441,Small Shake,justifish,,I have both. But WHY ON EARTH WOULD IT BE IN HOT WATER,27-3-2021,
442,linus,patrickbateman_07,,you know iphones are waterproof and can last 30 mins in water,27-3-2021,
443,Limbo,limboed_,,He put an apple phone that wasn’t water proof against a Samsung that was like bruh,27-3-2021,
444,Iota kamado,stevethebuilder07,,Fun fact : just don’t drop your phone in water,27-3-2021,
445,ok,der_linu,,samsung: Wasser?? AHHH Hintergrund ändern 🤓,16-6-2021,
446,milana,miil4na,,DIE ARMEN HANDYS :C,28-4-2021,
447,JabbasPalaceGuard,jabbaspalaceguard,,Weil mein Handy auch täglich in kochendes Wasser fällt,16-4-2021,
448,Ali,xalix274,,Samsung ist für Gering Verdiener,13-4-2021,
449,tensu,tensu9,,"Ich bin mir nicht sicher ob mein Handy je in heißem Wasser sein wird, denke nicht also iPhone besser",11-4-2021,
450,.,2swagforevery0ne,,junge diese Kommentare „Samsung/iPhone is besser“ LMAO NERVT ND IHR KIDS,30-5-2021,
451,Say-Hi-To-Doggo,forgottensolidier,,alle apple fanboys und girls neee apple iss trotzdem besser 🤡🤡🤡 this uuu🤡🤡🤡🤡,16-4-2021,
452,Ly🦋,ksjartsy,,"Oh Gott- kommen jetzt echt die 10 jährigen Kinder wieder, die nen fucking Handy Krieg führen müssen?😀",17-6-2021,
453,🧔🏽‍♀️,okkkkkkk1019,,Alle die sagen iphone is besser beide haben selben dis usw 🤡,17-6-2021,
454,Törke🇹🇷,e.dmr_1818,,🤡🤡🤡Apple trotzdem besser 🤡🤡🤡,17-6-2021,
455,Merian,x.merian.x,,"iPhone schützt sich halt, im Gegensatz zu Samsung, was dann einfach Schrott geht 😌",12-6-2021,
456,Fenja ist Perfekt💗,_robloxvibeezzz_,,Why sind alle Samsung User so toxisch,30-5-2021,
457,oi,reeiiioooo,,"Menschen die streiten welche handy Marke besser ist: 🚮
diggah wir haben andere Probleme und ihr so DAS IST BESSER NEIN DAS IST BESSER MIMIMIMI",27-4-2021,
458,me,i.dont.l1ke.this.live,,Kannst du mal aufhören die Handys wir shito zu behandeln,17-4-2021,
459,🤍𝒮𝒾𝓃𝒶🤍,sina.dr7,,Diese Kommentare🚮 alle Handys sind gut. Und alle die jzt noch rumheulen und meinen „das Handy ist besser als das“ 1),16-4-2021,
460,.,lill.y_481,,wie die ganzen IPhone nutzer jz mad sind BAHAHAHA,16-4-2021,
461,Lana,layn.vibe,,NUR WEIL MAN EIN SAMSUNG HAT BRAUCHT MAN SICH NICHT FÜHLEN ODER ANGEBEN ODER TUN ALS WEHRE MAN WAS BESSERES,16-4-2021,
462,.,dermilchholendevater,,ich finds voll lustig wie hier alle IPhone Nutzer beleidigen,13-4-2021,
463,Maku 💠,maku_kienjutzu,,"Ich der sich nicht mal das wasser leisten kann:
👁️💧👄💧👁️",4-4-2021,
464,Spazticツ,spazticxd,,Just cuz your to poor for a iPhone doesn’t mean android is better 😂😳,27-3-2021,
465,iqusw,iqusw,,Apple:🚮,13-4-2021,
466,🥷🇦🇱🥷,albaner0637,,Nah is nt,20-4-2021,
467,mark,markrip_,,y'all it's bad that the Samsung stayed on cuz if it gets to hot it can just break or blow up 💀,28-3-2021,
468,Hanna,hanna.decourcey,,Samson rock and I want one but I’m stuck with an iPhone,28-3-2021,
469,Idk,mortsupremacist,,yall i say androids and iphones r equally bad and good.,28-3-2021,
470,Someone,riley20084,,I droped my phone in the toilet and it lasted 10sec,27-3-2021,
471,Mimi,sheluvs_mimi,,People who does phone wars 🤮. Dora phone 🥵,27-3-2021,
472,👹,pauxxxd,,iPhone is overrated,27-3-2021,
473,Ball Zak,yungboylevi,,Lesson here: don’t submerge your phone is hot water,27-3-2021,
474,Can’t tell,lixxtells,,Y’all know Samsung lost the first one😂,27-3-2021,
475,CHARGERS🅿️🅿️,__.lighting__,,Apple is for rich people,27-3-2021,
476,#Dave-Peter007,davepeter7,,des gens rêves d'avoir un et toi qu'est ce que tu fais.,11-5-2021,
477,.,g.singh_06,,To all the people Who are saying that the iPhone died yall stupid it shut it self down so it can’t get wrecked frickin dum,27-3-2021,
478,Quinten,itz_quinten32,,that’s bc iphone turns off to back the stuff up samsung stays on and it’s just a phone that doesn’t work besides the pics there that doesn’t work,27-3-2021,
479,einfachso🥥,user1604811912,,@jol1na74,16-4-2021,
480,Johanna,johannna.mb,,@josan.witdahoodie,16-4-2021,
481,Emilia<3,emiliqvs,,Can y’all shut up and use the phone u have ur annoying,17-4-2021,
482,👑𝓒. 𝓗. 𝓘. 𝓐. 𝓚. I👑,chiaki_youname,,I love you Samsung 😍 💗 💛 💓 ♥ 💖 😍 💗 💛 💓 ♥ 💖 😍 💗 💛 💓 ♥ 💖 😍 💗 💛 💓 ♥ 💖 😍 💗 💛 💓 ♥,31-3-2021,
483,💟,chaesieun,,"Samsung users are hella annoying like we get it, Idc if your phone can fly I just like iOS more",16-4-2021,
484,🥶🥵,._king._231,,@hi_bye.bro,14-4-2021,
485,ja,ixtachii.xy,,@mems.431,16-4-2021,
486,Fire_panda,fire_panda98,,@leonard7.4 @xaimzizi,16-4-2021,
487,🏳️‍🌈random user⚔️😘💅🏳️‍🌈,rand1m_user,,@hannes.der.kanns,16-4-2021,
488,ᶠYͧoͨᵏu,theartofnr7,,@kingbossgamer721 🤷‍♂️,13-4-2021,
489,Are you lost bbg,g0atboi12,,@mrdan286,13-4-2021,
490,:/,icantknowyou,,@www.im_chair.com glad I don’t put my phone in hot water,13-4-2021,
491,counting caskets,coutingcaskets,,who tf would put their phone in boiling water anyways?,27-3-2021,
492,Classy man,rudol.von.stroheim.35,,@koschka_alive,24-4-2021,
493,I know you like feet,useru9k46fvh1v,,Samsung is better and idk why I phone users with cracked ass iphones make fun of people for haveing Samsung's,27-3-2021,
494,✨💫Lion💫✨,lmly.lio,,They say Samsung is better but have you ever seen someone flex a Samsung? They only flex iPhones and Nokia cuz Nokia’s a goat.,27-3-2021,
495,iZiino766,iziino766,,Y’all really arguing over phones like how sad is your life 😂😂,27-3-2021,
496,Some boy,your_local_ugly_boy69,,@.kooky_idi0t,28-3-2021,
497,Tik Toker,_surfacebook3goated_,,Who? Cares,28-3-2021,
498,Salsa😮‍💨,_salsabell_,,Ya nty I like my I phone,28-3-2021,
499,Mi,tik_tok_is_musically,,"Quick question, why tf would you pour hot water over a phone? And how would you go about dropping it in hot water?",27-3-2021,
500,iZiino766,iziino766,,Notice how it’s all the Samsung users being toxic and shit,27-3-2021,
501,꧁𝕔𝕠𝕨𝕟꧂,www.tiktok.com.cown,,@s_mon.xde,24-4-2021,
502,brandon,brandon27o6,,"please, someone tell me why my phone would need to resist 500 degree water",27-3-2021,
503,eve,1evelynn,,@reggie_cuhh LOOK AT THIS,23-3-2021,
504,Miss floppy Minaj 🧘🏽‍♀️,floppyminaj,,The iPhone didn’t die it gave a warning and turned it self off 🤦🏽‍♀️,23-3-2021,
505,your my chld if you followed,sm3llyt0es_6610,,"Todoroki watching this
vid:👁💧👄💧👁",23-3-2021,
506,obckpckgtrlledup,the.realest.slimeto,,SAMMY GANGGGGG,23-3-2021,
507,Majd,majdwaad2,,"cool anyways, ⚠️ATTENTION⚠️ON THURSDAY THE 25TH WE ARE HAVING A DREAM APPRECIATION DAY WHERE WE WRITE PARAGRAPHS AND MAKE SURE HE KNOWS WE L",23-3-2021,
508,Keana🫦,keanaaaaaaaaaaaaaaaaaaaa,,(I‘m an IPhone user) Samsung is better,23-3-2021,
509,Aysel,aysel_.23,,"apple:🤡🤡🤡🤡💩☠
samsung:🤡🤡🤡🤡💩☠
dora phones:🥵😤🤠👍👑",23-3-2021,
510,Sarah,tiddies.1,,"iPhones are water proof, I’ve dropped mine in water like 15 times and it’s fine",23-3-2021,
511,ur mom,thugging.it.out,,*Boiling hot water,23-3-2021,
512,eve,1evelynn,,@reggie_cuhh THIS IS WHY ANDROID IS BETTER,23-3-2021,
513,𝔄𝔫𝔤𝔢𝔩𝔢𝔰,vibexangels,,thought apple was strong meh the battery be lasting 1 second anyway,23-3-2021,
514,Fuck off❤️,abi.killme,,Imagine having tiktok 🤡🤡🤡,23-3-2021,
515,YASIEE♡,smallpuertorican,,Samsung gang wya,23-3-2021,
516,…,jaydenthedumbasn,,Bruh what’s the problem with IPhone?,23-3-2021,
517,hi,daddy..calm...down,,"iPhone:🤡
Samsung:🤡
Dora phones:😩👑",23-3-2021,
518,Editing/random,cqrvfx,,Ghost just be: 👉📱,23-3-2021,
519,Anya,russiancleaner,,the only good thing about apple is all the emojis 😂😂😂 (I have android),23-3-2021,
520,Emma<3,emmacanino,,Guys the I phone didn’t break it was a warning to cool ur phone down !!!!!!,23-3-2021,
521,Kenzi💜🙄,they_.luvv_.kenzi,,that's why I got a samsung,23-3-2021,
522,.,namjoonsbae1,,Why u guys acting like were actually gonna dip our phones in boiling water? This isnt gonna change my mind 😂,23-3-2021,
523,user6503234501731,em_cooney009,,that's why I have a samsung,23-3-2021,
524,Devon dances,devon.2020,,I am Samsung yassssss wwwhhhhhooooo,24-3-2021,
525,𝖕𝖗𝖊𝖙𝖙𝖞 𝖉𝖆𝖗𝖑𝖎𝖓𝖌ꨄ︎,clxrrity,,Yet iPhone still better,24-3-2021,
526,Jolein🍂,jole1n,,@dias.wiering so naar de keer dat t in Spanje zo warm was dat m’n tel oververhit raakte en k hem in de koelkast gelegd had,24-3-2021,
527,💙BLOBFISH💙,your_mom_is_mine4,,ya samsug just doesnt let you plug your phone in till its dey but iphone...,24-3-2021,
528,14 💖💛💙pan (pm don’t work),my..glow_up,,I dropped my Samsung and water and it died I drop my iPhone and water like three times and it’s fine,24-3-2021,
529,bïgdïćkwhör ⠀,fa1rycur3,,lmao i don’t want ugky àss emojis sorry,24-3-2021,
530,🦋💅🏽🌸✨🔥🎂🔫💕,zuriadatkid,,hah iphone not the best you already tried the smasung dont even test then LG or the android,24-3-2021,
531,Aubs 🪐🌪,thoughtlessnessssss,,Mine literally can survive through anything 🥲—iPhone user AND CAN WE STOP DOING PHONE WARS!? SAMSUNG AND IPHONE SUCK DORA PHONE IS BETTER 😌,24-3-2021,
532,👴🤝.,cyb3r__r0tt3nm1lk,,It wasn’t broken it just had a warning,24-3-2021,
533,⠀ ⠀ ⠀ ⠀ ⠀ ⠀,_imjustchloe,,these Samsung comments are making me feel secure.. I'm a Samsung user ❤😂,23-3-2021,
534,yuh,tagshush,,"𝙮'𝙖𝙡𝙡 𝙘𝙖𝙣'𝙩 𝙡𝙞𝙚 𝙩𝙝𝙚𝙮 𝙙𝙞𝙙 𝙨𝙩𝙖𝙮 𝙖𝙡𝙞𝙫𝙚, 𝙖𝙡𝙩𝙝𝙤𝙪𝙜𝙝 𝙎𝙖𝙢𝙨𝙪𝙣𝙜 𝙞𝙨 𝙢𝙤𝙧𝙚 ""𝙙𝙪𝙧𝙖𝙗𝙡𝙚 𝙤𝙧 𝙥𝙡𝙖𝙨𝙩𝙞𝙘"" 𝙨",23-3-2021,
535,🧸,eggakira,,I only have iPhone bc I can FaceTime and my whole family has it so like ye,23-3-2021,
536,Helo Boi,iamenderballs,,i phone went 📱➡️💀,23-3-2021,
537,The newest kittenkirlia,kittenkirliaaaaa,,@kittenkirlia,23-3-2021,
538,user2307337795620,kinkinayy3,,samsung is the best,23-3-2021,
539,caro,yetslee,,who actually puts boiling water on their phone?🤨,23-3-2021,
540,Ur late. Click follow ♥️🥲.,ur_fav_brunette2020,,Why? Just WHY.,23-3-2021,
541,🏳️‍🌈,._that.gae.mushr00m._,,@v.unixqe SAMSUNG WAS A BOSSSS,23-3-2021,
542,chillin,chillinwithjacob,,yesssiiirrrr,23-3-2021,
543,SAULOO,saulrodriguez25678,,@pops_fn_,23-3-2021,
544,🙇🏻‍♀️🙇🏻‍♀️,milo__eilish,,I still ain’t want a Samsung it just don’t look good lmao,23-3-2021,
545,Josiah Collazo,team_dino_fruit,,yes I made the like 13.1k 😳😱,23-3-2021,
546,🫶🏽,xoitaa,,Ima stick with my I phone lol,23-3-2021,
547,YT: Skoupy (Please subscribe),skoupyfn,,It was just a warning bruh,23-3-2021,
548,Praise❤️,.prwzii,,@anime.watcher11 🤨👆 SEE,23-3-2021,
549,<33333,yourfavoriteblackielmao,,LMALMA.AKAMAMAMLM @itsnotkira1,23-3-2021,
550,Jessx13,x.1.jessie.1x,,Samsung is better. Just saying 😂,23-3-2021,
551,.,lilllyyyyyyyyyyyyyyy,,this is why havei m g a Samsung is not a roast. lol,23-3-2021,
552,eli?!?.!)/8/$:&/&.,dw4rfs,,I wanted that iphone... :(,23-3-2021,
553,Treydae,treydae5,,whenever I get water on my Samsung I think there's ghosts playing with it [cry],23-3-2021,
554,hiii I'm back from tik tok😁,nikki.likescampcamp,,I'm on a Samsung,23-3-2021,
555,İPhoneSE,famiphonese,,Why everyone says samsung is better it just warns us theres water in phone wtf,23-3-2021,
556,Mill 🫶🏽👩🏽‍❤️‍👨🏾,inlovewkamille,,You’re acting like every phone is supposed to be waterproof like it’s a phone Ofc it’s going to react like that,23-3-2021,
557,Hallotard,hallotard,,A ghost,23-3-2021,
558,.,.coolkidszz,,Y’all ovi gonna say Samsung is better if you have one.,23-3-2021,
559,⠀ ⠀ ⠀ ⠀ ⠀ ⠀,itsaineka,,I have a Samsung and it has good quality guys,23-3-2021,
560,quitting never gonnaseemeagian,htelizabethxpar,,"people with samsung, 😏",23-3-2021,
561,.,f0und_th3n_l0st,,and people make fun of me for being a Samsung person-,23-3-2021,
562,ru.,ru_bug,,You guys are dumb IPhone won bc it didn’t break it was a warning to cool down your phone.,23-3-2021,
563,😐,mariebearssalt,,the newer ones are water proof they used an older iphone and what looks like a newer samsung just saying if ur gunna test it make it fair.,23-3-2021,
564,Atomic.Dee🤍,deeee22222,,Lmaooo it was poured directly onto the iPhone tho 😂,23-3-2021,
565,Callie <33,callie_33,,wait till the toxic iPhone users realize there are Samsung parts in their iPhones,23-3-2021,
566,Kermit is amazing😂🤘🐸,ilikedogsnow,,The iPhone isn’t broken it’s just a message that you have to get the water out if phone or sum like that,23-3-2021,
567,hay hay🍇,itshalleeeeee,,I thought the iphone was water proof😫,23-3-2021,
568,___𓀐𓂸____o.2,ayyy.ayden,,Samsung did not win nor did apple thsi only part one bozos,23-3-2021,
569,lol,strwberrikitten,,"imagine arguing over a phone, grow up. both are equally good. i thought we ended phone wars back in 2018",23-3-2021,
570,Yellow,luv4gl0cksss,,I have the same Samsung,23-3-2021,
571,Jaiyana❤️,itz._.jaiyana,,a iphone gives you a warning it to hot let it cool down I know becuz my mom's phone did that 2 years ago at disney it was hot it gives notifications,24-3-2021,
572,Ⓑ︎Ⓐ︎Ⓨ︎Ⓛ︎Ⓔ︎Ⓔ︎,ur.girllbaylee,,@lexi_me_duh_backup2,23-3-2021,
573,Simpforlife,i_love_my_mutuals,,lol now I understand why when I dropped my phone in the toilet it still worked,23-3-2021,
574,Nejla<3,mjuziknejla,,"IPhone🤮
Odher phones❤️People who make phone wars🤡",23-3-2021,
575,Jeremiah Snoddy,jeremiah_snosdy,,@chxrsglamm u just mad cuz u got an iphone and u dont wont ppl to make fun of it,23-3-2021,
576,Chipipis 😽,arletggonzalez,,"people with any phone:👑
people with phone wars:🤡",23-3-2021,
577,roaches only,ihave38kids,,😐,23-3-2021,
578,Be who you are for yo pride,millies_next_victim,,Jokes on you I got iPhone and an Android 😈,23-3-2021,
579,Ben,b.e.n.h.a.l.l,,the apple phone wasn’t broken it was a heat warning-,24-3-2021,
580,…,yaboi_cwazy,,No because I dropped my phone in burning hot water before and nothing happened and I have the 12,24-3-2021,
581,cherish👻,csmx_x,,This is why when you get and apple phone make sure its water proof,24-3-2021,
582,Desirae,desirae_dls333,,Samsung will always be better,24-3-2021,
583,😨,urmomslittletoes,,lets not have phone wars,24-3-2021,
584,I love p0nba,belvitq,,I'm switching to an iPhone in a few hours👁👄👁,24-3-2021,
585,Lúm đồng tiền,x2v95x80h867,,Samsung's are water proof😅,24-3-2021,
586,laffy,kyojuroloyalty,,@unf1m1l14r4cc0un7,24-3-2021,
587,😋,08.24.22,,iphones are trash* continues to use newest iphone that was a rip off of the 11 but still*,24-3-2021,
588,Bye😔,thedivastar.angels,,It's the putting phones at war for me I'm younger than half of y'all here and I'm more mature- ok pal-💀,24-3-2021,
589,Cherriah 1234,cherriah10andnaomi,,You put the water on iPhone not Samsung,24-3-2021,
590,girlboss,yummywaterbottles,,Lol-samsung krew where you ar,24-3-2021,
591,Toxic ayaka Stan👑,itzmonika2,,I really like on how Apple automatically turn off the phone due to the hot water knowing it doesn’t resist and could be damange but Samsung can be san,24-3-2021,
592,sarah-joy<3,theyluvvv._.sarah,,Half of y’all saying Samsung is better I bet y’all got iPhones 😅,24-3-2021,
593,im adopting my followers!!!!,glitching_tv_head,,I'm watching on Samsung right now😏,24-3-2021,
594,Lucy,trippyhippie_555,,SAMSUNG also tells you if theres moisture detected inside you're charging port,24-3-2021,
595,Morgan👴🏻⚾️,itzz.mxrgan,,Dora phone won't be in the water cause its a 👑,24-3-2021,
596,kaylee,strangerelevenhopper,,i still like iphone better,24-3-2021,
597,Vaeh,nforrester08,,I honestly like Samsung's better,24-3-2021,
598,`~ Krown ~´,xkrownk,,"When you drop your Samsung every single time still perfectly fine
Dropping iPhone : Breaks in half",24-3-2021,
599,davinaa🤎,davina.j,,"yall are so dumb, its a warning😭",24-3-2021,
600,💗💓ZANIYA💗💓,queen_niiyya,,Not y’all starting phone wars🙄✋🏾,24-3-2021,
601,几ㄖ 爪乇卂几丂 几ㄖ!!!!,xxrobloxgirlweebxx,,Actually it was just giving a warning none of them won,24-3-2021,
602,Girl it's_(unique),is_unique1,,iPhones are not good that's why I stick with regular phone,24-3-2021,
603,Abby♡♤♧,abbigails587,,@kmiller_576,24-3-2021,
604,Lee<33,okay.whos.she,,@lil.bo._peep._,24-3-2021,
605,transportation🚇🚍🚋,charlidem0865,,that's why I have a Samsung,24-3-2021,
606,Meatloaf,moldy_meatloaf,,Imagine not having a dora phone,24-3-2021,
607,j,__jordii__,,Y’all saying that the iPhone broke like they gave a warning unlike Samsung....,24-3-2021,
608,Lashona G,lashonagrrrrrrrr,,the Samsung is broken still it's just glitchy I have a Samsung and I dropped it in water and had to get it fixed,24-3-2021,
609,♡Monique♡,little...heart,,my mom have the same Samsung phone,24-3-2021,
610,soph ;),sophiethev,,"no thanks, i choose facetime",24-3-2021,
611,IM dESTINY,gurguaa,,samsung ⭐⭐⭐⭐⭐⭐⭐⭐ apple ⭐⭐⭐⭐⭐⭐⭐⭐,24-3-2021,
612,👀heyyy y'alls👀,n_is_swaggyig,,android,24-3-2021,
613,♡prxncess Slime♡,xxslime_girlxx0,,@toxicxpsycho9,24-3-2021,
614,yo yo yo it's ya boy lexie,lexie_hasnolover6,,IPhone.put it in some rice,24-3-2021,
615,naruto💛🖤,imgonnabehokagebelieveit,,I have an old samsung- my phone type is not liek that samsung i want it,24-3-2021,
616,KASHINBRE,kashinbre_,,SAMSUNG IS THE GOAT,24-3-2021,
617,PurpleGlassCow<3,purpleglasscow,,thats why my phone survies,24-3-2021,
618,.,cije030d93pk0,,I'm on a Samsung RN bruh,24-3-2021,
619,A Disaster :),aggressiveaizawasimp,,lmao imagine not having a nokia,24-3-2021,
620,______________________________,____________3462,,Oh plz it’s just a temperature warning,24-3-2021,
621,angelika <3,angelika.ah,,neither of them won-,24-3-2021,
622,That's so Gacha,_gacha..oceanxvibes,,if you put water on a Samsung it will do stuff you don't touch like I did it and my phone was scrolling thru tiktok and likeing everyones post😅😳😂,24-3-2021,
623,🄸 🄵🄾🄻🄻🄾🅆 🄱🄰🄲🄺,cam_uzamaki,,The only thing good is camera quality,24-3-2021,
624,ICU,idiot.from.maes,,the iPhone isn't broken it went in to over heating mode and that's a good thing unlike Samsung,24-3-2021,
625,XXXTENTACION FAN❤,edits_of_my._.pets,,I have a Samsung😳,24-3-2021,
626,Gen🤰🏻🔫,x_.gen.x,,It’s a warning to let your phone cool down now if it’s hot Samsung won’t tell you and you can blow up there for..,24-3-2021,
627,Eesa Adil,eesaf1_95,,iPhone 12 is 6 metres and 30 minutes so iPhone wins,24-3-2021,
628,LESBIAN♥️🧡🤍💞💜,fr0sty.cheeri0s,,y'all stop doing wars it's a phone like be grateful someone people can't even get one,24-3-2021,
629,Adonis,2play.adonis,,glad im samsung,24-3-2021,
630,ello,cookieeeeeeelol,,What did the iphone say-,24-3-2021,
631,Sierra Francis,sierrafrancis3,,what the hell is the point of a iPhone oh wait I know bc dumb ppl want to be popular like... iPhone's don't do nothing,24-3-2021,
632,zandarruby2.0,zandarruby2.0,,samsung a bosss,24-3-2021,
633,user1863852265102,liyah_587,,Proof,24-3-2021,
634,user1863852265102,liyah_587,,My iPhone water,24-3-2021,
635,Tyranae 🫶🏾,tyranaeee1,,the Apple phone isn’t broke it’s literally says phone is to hot dumbass,24-3-2021,
636,Private Party🥳🍾,iamababymomma,,thats why i got a dora phone🤑🤑 🔥,24-3-2021,
637,It’s Kenzie y’all,btskenzii,,I dropped my phone in the pool it was fine only turned off lol-,24-3-2021,
638,Anonymous,kamwittak1,,no one won,24-3-2021,
639,Uhhhh,ahhhhhh_uhhhh,,This makes me feel better about not having 1000 dollars to spend on a phone:),24-3-2021,
640,Niyanna Ballard,yourgirlniyanna,,Samsung-👑Apple-👑 people who have phone wars-🤡,24-3-2021,
641,PeachCobbler🍑,peach_cobbler5,,what is supposed to prove?,24-3-2021,
642,NotJJ😳😎😈,notjjfr4,,Dummy y’all saying the same sung won who would but boiling water on a phone?,24-3-2021,
643,nobody reads this,ur_fav_kara,,That’s why I have a Dora flip phone 😎🆒,24-3-2021,
644,Aila,ailaa..chopan,,Me on a computer:,24-3-2021,
645,yo step daddy🕴🏿,vee_dakidd,,Yeaa....I’m still sticking with my iPhone 😭✋🏽,24-3-2021,
646,Fade🕷,fadesedgy,,iPhones 👑 androids👑 people who complain ab their type of phones 🤡🤡🤡🤡,24-3-2021,
647,Only to watch tiktoks,canyoupaythebills1,,@baddietiktokpur：Adroids do the same thing . Me : nobody ask it’s embarrassing to say you got anything but a Samsung or iPhone in 2021,23-3-2021,
648,user8915970850891,hannahmojo18,,I have the new Samsung 20,24-3-2021,
649,lariah,your_local_dream_smp_fa0,,I got a Samsung Galaxy s7 how bout yall,24-3-2021,
650,Doggo,stoptiktokcults,,when rich kids are doing a progect in the science fair,24-3-2021,
651,melanie🪞,err_melaboo,,Or you could get a water proof I phone.,24-3-2021,
652,miles,..serenity.com,,glad to have samsung-,24-3-2021,
653,❤️🖤,katiee.mr,,Isn’t the iPhone telling you there is water I can barley see the notification 😂,24-3-2021,
654,Jaziry,jaziry11_lol,,And my phone still stands 😏😏,24-3-2021,
655,💘💘,xoxo.lilly111,,Yes go android I have one right now that’s what I’m using🧋🧋🧋🧋🥸🥸🥸🥸🥸🥸🥸🥸🥲🥲🥲🥲🥲🥲🥲🥲🥲🥲🥲🥲🥲🛼🛼🛼🛼🛼🛼🤍🤍🤍🤍🤍🤍🤍🤍🤍🤍🤍🤍🤍🤍🤍,24-3-2021,
656,mikey harmon,mikeyharmon3,,Now plug it in a enjoy is saying MOISTURE IN PORT BEEEP BEEEP BEEP UNPLUG,23-3-2021,
657,temi<3,activ.txmi,,iPhone and Samsung r both amazing end of convo 😛,23-3-2021,
658,millie junior,dark1e.mj,,"why are y’all acting like the iphone broke , it just gave a water warning.",23-3-2021,
659,lifeisamovie,homieissmack,,samsung let's go😁😁,23-3-2021,
660,ruby x👍,ruby.wren,,@lucymm25,23-3-2021,
661,Katie💙,ofcthats._katelyn,,Nothing happened to the iPhone it was just saying you need to let your phone cool down 😂,23-3-2021,
662,♡Monica♡,m.o.n.i.c.a_vaz26,,me with the Samsung:👁👄👁,23-3-2021,
663,?,eq..mak,,I mean they can both break so it don’t matter tbh,23-3-2021,
664,😃,theofficialnavy,,Both are better,23-3-2021,
665,Fake.-story’s.-,robloxfakestorys57,,iPhones are still smart,23-3-2021,
666,Rat,www.y0urmom.c0m,,Samsung and nokia= tanks,23-3-2021,
667,Isabel 💞,isabel.rennisonx,,I only just got my samsung working again and dont say it's an old one it's from 2019,23-3-2021,
668,Nickel Coin,nickelcoin,,iPhone shut down it didn’t die 🤦‍♂️,23-3-2021,
669,Tu Madre,vxlqyr,,Sam,23-3-2021,
670,King savvy,bruh_savvy,,I new iPhone was better,23-3-2021,
671,Anthony Fulton,anthonyfulton01,,I knew both was going to win😁,23-3-2021,
672,Shawn Woods,shawn_wrld777,,Samsung better,23-3-2021,
673,OreoshitDifferent,oreosshitdifferenty,,samsung is chilling bruh,23-3-2021,
674,Katie,katielowden32,,Maybe because u shouldn’t put a phone in hot water woow have u never thought of that,23-3-2021,
675,✰Thaily and Oso ✰,thaily_._,,My mom use to have a Samsung and it’s cracked,23-3-2021,
676,fay henderikse,fayhenderikse,,You splenshes it literally ON THE IPHONE,23-3-2021,
677,Nobody,ihttps.laiii,,This is why I don't bring my phone in the bathroom,23-3-2021,
678,🤷‍♂️,userfx41m97mgo,,why samsung kids get mad whenever there stuff breaks and but when iphone breaks we dont say anything and they say there phone is better 😂,23-3-2021,
679,zoia🙂,little_blackie1,,the iphone users are now affended😂 but it's just a phone they both still work right?,23-3-2021,
680,jimiya 😻,moobluus,,It’s fucking hot water what do u think it’s gonna do to a high quality phone 😭😭😭,23-3-2021,
681,Redgirlnyee,redgirlnyee14,,No Samsung does that you on crap bro?,23-3-2021,
682,Lily,yourfavorite_white.girl,,samsung BETTER,23-3-2021,
683,♍️,virgo.hatepageeee,,🙄,23-3-2021,
684,Safa 💜,yourfavouritekashmiri,,@cqzc 😌😌,23-3-2021,
685,....,lilyy...vanillyy,,samsung has a really good touch screen idk why-,23-3-2021,
686,"""CEO""Hos_joesugarmama.it",hos_lunidraw,,im have Samsung 😌,23-3-2021,
687,Jade just jade,jaddeey1,,Samsung,23-3-2021,
688,This world has broken me,ybm._kell,,i have an iphone but i like both they are cool,23-3-2021,
689,Turtles🐢,.feen4elijah,,iPhone suck they keep making them and they not even getting better,23-3-2021,
690,The chosen one🖤,lulfredo3,,@dannyphantom263,23-3-2021,
691,🐹🐰🐱🐱,jagalskardjurr,,Can we pls stop “which phone is the best” thing?,23-3-2021,
692,Victoria Campbell,victoriacampbell15,,yeah samsung,23-3-2021,
693,21,send_help_4_21_2021,,glad I have a Samsung A10e 😅,23-3-2021,
694,Kevin,kevin_bossman5,,J,23-3-2021,
695,Quandale Dingle Jr 🐿,official._phoenix,,Bc ur pouring it towards the iPhone,23-3-2021,
696,𝐵𝑎𝑚<3,sav.bam,,At least apple is trying to give you a warning that the phone is getting hot,23-3-2021,
697,𝓀𝒾𝓀𝒾,th3b1tchkiki,,SAMSUNG🥰,23-3-2021,
698,.,user536953555,,@sudenaz._010,23-3-2021,
699,•osh xx•,_.oshiax,,pouring it on a iphone more than a samsung ngl,23-3-2021,
700,Glen Taylor,glentaylor06,,samsung,23-3-2021,
701,Hecker,katten64,,#Stop phone wars,23-3-2021,
702,Don’t even ask😭,z.3233,,Still tho iPhone better,23-3-2021,
703,Hecker,katten64,,4 years old be like:Samsung is better😏:this user=🤡🤮 Stop phone wars Samsung=🤑 Iphone=🤑:The user who text it=🤡🤮 both is best😌,23-3-2021,
704,Lynn,lynnkooistra,,samsung just chilling there like nothing happened👑,23-3-2021,
705,Kevin,kevin_bossman5,,Is king,23-3-2021,
706,Kevin,kevin_bossman5,,Iphone,23-3-2021,
707,Axtro,axtrogetsnobitches,,It’s warning that there is something really hot surrounding it,23-3-2021,
708,Hi 👋,i.miss.you.claudia,,iphone is life,23-3-2021,
709,🫀.,m.madisynnn,,I mean Android has been out before iPhones 😐🤷🏽‍♀️,23-3-2021,
710,4nem,staysxfe_,,Do an iPhone XR,23-3-2021,
711,Yessindh,yessin.080,,Redeom ej,22-3-2021,
712,abonne-toi,clovis.gmr,,oui Samsung,22-3-2021,
713,Jr,2fye____jr,,Ghost just messing with the phones,22-3-2021,
714,user1234567890,uuusser1234567890,,"I use apple and have a android,THEYRE BASICLY THE SAME BRO.",23-3-2021,
715,rosie,rosieisurfavginger,,"Why are y’all proud abt this😭 what’s the point of it standing up to hot water, ur never going to put ur phone in hot water💀",23-3-2021,
716,Get me to 200💕,theyluvvlissaa_,,imagine arguing about which phone is better but they do the same thing,23-3-2021,
717,Heyyyyyy 👁👅👁,official.roshni,,In (uk) summer last year my phone got overheated a lot and I was so confused cuz my 6 year old Samsung tablet never did that,23-3-2021,
718,AAAAAAAAAAA,homie_iscool1_,,team samsung,23-3-2021,
719,Aymaan,17.10.21h,,Iphone is still on if people arent realising it is just asking some question as the water apparently touched a button,23-3-2021,
720,:(,light._green._puppy._._,,"Iphones:🤡🤡🤡🤡🤡
Samsung's:🤡🤡🤡🤡🤡
Dora and Tomas phones:🥵🥵🥵🥵🤤🤤🤤",23-3-2021,
721,Wait what😟,lexi.i_guess,,proof iPhones break faster @morganelizabeth25,23-3-2021,
722,al :),aliqtc,,@..trxpical_fidgets.x.,23-3-2021,
723,⠀ ⠀ ⠀ ⠀ ⠀ ⠀,mestermeling,,Samsung be like:I can breathe under water,23-3-2021,
724,Khalidat Yusuf290,elephant.shawty,,dora phones fire🥵🥵,23-3-2021,
725,Angel⚡️🧸,bloxburggirlsschool,,Man the ghost really played wiht the Samsung phone,23-3-2021,
726,ikdiegeen naamweet😂😂😂,wildechipsverslaafde,,👌❤️,23-3-2021,
727,Exclusive_kolby,exclusive_kolby,,iPhone said water in speaker,23-3-2021,
728,dEmI🙋🏼‍♀️,kleinisfijn.nl,,SAMSUNG ARE THE BEST!,23-3-2021,
729,user6957992169556,henk575263,,eeee samsung maat beter altijd,23-3-2021,
730,🤎,solanasslut,,I phone gives a warning,23-3-2021,
731,♥️,c.myaaaa,,iPhone won android users when ur iPhone gets too hot you have to put it in the freezer 🥰,23-3-2021,
732,Voalinq,voalinqq,,Wtf you do all the water by the iPhone,23-3-2021,
733,Roshonda Sanders,roshondasanders1,,samsung gang where you at,23-3-2021,
734,Ate ate ate,urtrollingl,,@.slix_ Samsung built diff😩❤️🥵,23-3-2021,
735,<3,the.official.evie,,NOT PHONE WARS,23-3-2021,
736,.,ayo.1bitch,,bruh and if iphone turn of second earlier like why tf would you be in hot water with phone,23-3-2021,
737,🙊,jeneques,,iphone is week lmao,23-3-2021,
738,dailylifrofhim,dailylifeofjourney,,why am I'm happy I got a Samsung,23-3-2021,
739,fnaf fan,frankie._.loera,,samsung🤡🤡🤡 Iphone🤡🤡🤡 nokia🥶🥵🥶🥵🥶🥵🥵🥶🥵🥶,23-3-2021,
740,🫶🏽🫶🏽.,iiluvvmee,,HAVING THAT STIMMY CHECK BE LIKE😂-,23-3-2021,
741,HIIIII,mtb.exclusive,,see this just shows samsung has a better screen sensor,23-3-2021,
742,🖤Jolie Berry🖤,its.0nly_jolie,,SEE THIS IS WHY I HAVE AND ANDROID,23-3-2021,
743,(●’◡’●)ﾉ,thereal_muichiro,,im on samsung,23-3-2021,
744,Kai supremacy,jordynvsv,,K,23-3-2021,
745,Anastasia 😋,stasiasedits,,Lmao iPhone is just warning y'all to cool down the phone,23-3-2021,
746,lois cotton,loiscottonn_,,@.scarlettmillar how come their phone survived :(,23-3-2021,
747,Just staying alive 💁‍♀️♥️,iiamia,,It’s not because of the water it’s the heat most iPhones are waterproof,23-3-2021,
748,🪑🪑🪑🪑🪑🪑🪑🪑🪑🪑🪑🪑🪑🪑🪑,myfypis_drunk,,Iphone 👎 Samsung👎 Dora phone 😩😫😍,23-3-2021,
749,⠀ ⠀ ⠀ ⠀ ⠀ ⠀,ayellowminionlover,,"""Iphone is better"" Okay then what makes it better",23-3-2021,
750,harry_potter,fiene.potter,,"iphone👍
samsung👍
people who have phone wars🤡",23-3-2021,
751,kai ♡🌦,kaixcloudy,,The iPhone just got a heating warning,23-3-2021,
752,Munchkinnn,_mia.stole.my.hoodie_,,Yall they just like iphones for the emojis 🙄🤚,23-3-2021,
753,𝓙𝓮𝓷𝓷𝓲𝓕𝓵𝓻𝓼♡,jjenny.xo2,,told y'all samsung is better,23-3-2021,
754,pau!!,.lovinqpxula,,samsung be moving by itself 😭,23-3-2021,
755,ישוע הוא מלך,sasukesgirlfr1end,,Samsung for the win babyyyy,23-3-2021,
756,?,aashl3yk,,y’all sad still comparing phones 😐,23-3-2021,
757,^w^,stressed_cow,,GUYS ITS A WARNING OF HEAT ON THE IPHONE THE SAMSUNG DID NOTHING,23-3-2021,
758,Christopher Lopez,fandom_ehhh,,"well iphone heats to much... ex ( no hate for the game please.) I used a iphone 6s to play fornitw and dam I would play controller with it, it would",23-3-2021,
759,Jitske.vdm,jitske.vdm,,samsung 20 min later *glitches and screen turn black* me:*puts it in rise with hope it still stays alive* *phone alove but still black screen* me: WhA,23-3-2021,
760,Jakub Yoon,jm_sarenka_yoon,,SAMSUNG FOR LIFE LOSERS,23-3-2021,
761,Yagurl_nayy🤎.,yagurl_nayy,,Me:always putting my iPhone in water and nothing happening ps..I got a iPhone 12 pro max,23-3-2021,
762,𝚗𝚞𝚖𝚋𝚎𝚛 1 𝚜𝚒𝚖𝚙,theyluv._zay_xoxo,,🅂🄰🄼🅂🅄🄽🄶 gang✌🏾👁👅👁🤳🏾,23-3-2021,
763,Name,that.kid.pea,,but I have Samsung Galaxy and when I play roblox my phone can roast chicken,23-3-2021,
764,𝓣𝓸𝓴𝔂𝓸_𝓭𝓪𝓻𝓵𝓲𝓷𝓰,phantoms_deadly_dear_,,I don’t see the difference between the phones! THEY ARE PHONES THEY DO THE SAME THINGS!!! iPhones are not better nor are Samsung!,23-3-2021,
765,dsmp,ashlyn...innitt,,that's why u get a samsung my boiis @...glowinqxeliza,23-3-2021,
766,Daily memes 😮‍💨🤙,crashley_649,,Lol I like how everyone is saying that’s why you get a Samsung no you get an iPhone it’s way better,23-3-2021,
767,RDR2 😀,reddead_redemption_,,Yall rlly have money to waste,23-3-2021,
768,emma,emmadaviiis,,yall the iPhone is still on 💀 it says it has water damage and to not charge it or sum,23-3-2021,
769,🙋🏽‍♀️,notmiafaye,,Everyone saying Samsung but why would you out yur phone in hot water anywyas 😭,23-3-2021,
770,sarah🙄🖕,heysxrah,,"I think apple is still better, the quality, the screen, and the style do y’all agreee?",23-3-2021,
771,Daniel 🖤💕,m0xx0f,,Samsung is cracked 😤😤,23-3-2021,
772,Bwalya>>>>,ur_unclesguza,,Me chilling with my phone looking at the stupid comments:😂😂😂,23-3-2021,
773,😎,.__br_uh._,,"i use apple, i like it",23-3-2021,
774,SheHates.kyree,kyreebeensteppin,,the ghost just paying with the phones,23-3-2021,
775,🥵💚💅 ❥,jae_.00,,iPhone better,23-3-2021,
776,Me,peyton_nerenberg,,@foxwolfgurl_xd,23-3-2021,
777,I forgot,potato..gaming,,so its waterproof?,23-3-2021,
778,sabrinamyers2007,sabrina_myers07,,I got Samsung Galaxy a10,23-3-2021,
779,AG7,moonlightbae056,,Wen water go on android it does nothing 😂😂😂 my phone fell in a pool and nothing happpen,23-3-2021,
780,harvey,harveykett,,Samsung is better though,23-3-2021,
781,𝕬𝖘𝖍𝖑𝖊𝖞.𝖒,____ashley______,,imagine ppl fighting over phones🤡,23-3-2021,
782,NOTHING HERE,random._.edits.art._.etc,,"SAMSUNG ISENT EVEN WATERPROOF, WELP WE KNOW ITS SAFE NOW😂",23-3-2021,
783,MartinThePotato69,martinthepotato69,,I dropped my samsung In a lake and got it back with a fishing rod. btw it wasent water proof. still alive today,23-3-2021,
784,jreezybreezy,jreezybreezy123,,Technically Samsung didn’t win Apple just turned itself off so it wouldn’t over heat to explode or something,23-3-2021,
785,Kristian <3,p1ercedharmoni,,Y’all the iPhone was giving a warning to cool down the heat,23-3-2021,
786,~! Roxanne wolf !~,roxy.the.wolf__,,wait... is my phone Samsung or android cause I have a Samsung 21A,23-3-2021,
787,Nah,peytonnn_6,,Samsung 😎,23-3-2021,
788,Hola 😝,skys69420,,samsung say more better,23-3-2021,
789,idk,mayoforeveridk,,fyp! 😁,23-3-2021,
790,beautyblade#4433,deepcoatedeyes,,SAMSUNG IS STRONG,23-3-2021,
791,♡︎ railei,r41.l31,,Y’all saying Samsung but notice how iPhone gave a warning?,23-3-2021,
792,.,1take.zz,,my phone was aakimg me up trying to tell me that it was over heating by doing repeated vibration and it woke me up because i was laying on it,23-3-2021,
793,Ethan,ilovechloe.bsmom,,People who do phone war🤡🤡🤡🤡🤡🤡🤡🤡🤡,23-3-2021,
794,I love every Space-flowers!,akthar_1210,,@anipetrova121,23-3-2021,
795,Sunnyshifting,sunnishifting,,Hold up did the Samsung just tale a screen shot or am I trippin,23-3-2021,
796,🍋🥭,rasberry.furs___,,Samsung just chilling like hey am.i drowning? meh,23-3-2021,
797,タニヤ,creepho3..._,,that is why i got my samsung at the pool cuz they be op and sometimes waterproof 😏,23-3-2021,
798,Sens,d.e.a.r.diary._,,I have the same Samsung but I but it next to water it started to make noise but I think it can survive,23-3-2021,
799,ami unavailable,devastatedami,,"can u guys not do phone wars, its just phones 🤷‍♀️",23-3-2021,
800,SparkleMaven,zuzinator123,,"Apple just gave a warning that it was to hot and that they should turn off the phone, it didn’t break",23-3-2021,
801,Scion Jones,thatboy_teega,,I still prefer a iphone over a android anyday of the weak,24-3-2021,
802,Shrek for life,mon_aaaaaaaa,,@ ´,23-3-2021,
803,hannah,xilikesissorsx,,AYO GET YOUR PHONE OUT OF THAT WATER,23-3-2021,
804,‍,kugizuna,,"Samsung: ahh~, that's a little too sensitive 😏😫",23-3-2021,
805,Oden,odensofresh,,Bro Apple just has better security when it’s hot it tells you to get it cool down or it explodes same thing with android except it doesn’t tell you,23-3-2021,
806,Bacon ganster😎,hesmydummy,,@starlight_.moonz._.lol woww,23-3-2021,
807,fish,.beidouz,,I like how they got so Much money they use it on phones that Will die but like who whouldnt do that if you where Rich?,23-3-2021,
808,Zing Zing,zingzing82,,Samsung gang,23-3-2021,
809,wijtske :),wijtskedrtiktoks,,geef mij gwn die iPhone,23-3-2021,
810,Jerome,jaquaviontavious38,,freegbillz,25-3-2021,
811,Tiktok Musically,wwe.tiktokmusicaly,,Samsung is king😏,25-3-2021,
812,Shutupitsthomas,shutupitsthomas,,iphine said ✌,25-3-2021,
813,Suzuki_Kingquad750,kingofthequad,,"why do u pour it on samsung more, Like do it even.",25-3-2021,
814,NoahFromHR,noahfromhr06,,The iPhone ain’t broken the mf Samsung just doesn’t have the warning lmao,25-3-2021,
815,Skyler,skyler_cospay,,@mimoo_8,25-3-2021,
816,Deku-cun🥺🥺🥺,nevaeh.1232,,Lol I won,25-3-2021,
817,$Margamer20,sycolittlecost55,,Samsung is better,25-3-2021,
818,♡Luna/Moon♡,chocolate_milk_weirdo_2,,samsung🥰🥰🥰,25-3-2021,
819,kenny,kenny.n445,,Good thing I don’t boil my iPhone,25-3-2021,
820,robert likes pizza,robertlikespizza,,@what.whaa,25-3-2021,
821,Ryan,rydawg575,,Why?,25-3-2021,
822,Zoxsoumi,zoxsoumi,,Pls- Not everyone starting PHONE wars again- Just stop it.,25-3-2021,
823,𓆉︎,b3athegreat,,Ok now do Nokia,24-3-2021,
824,sheshhhhhhhhhhhhhhh,tiktok77_4,,iphone vs samsung and samsung wins,24-3-2021,
825,KendallFS,_.kfs_,,Samsung gang,24-3-2021,
826,ellaaaá💨,cartiidarulaa,,samsungs gang where yall at,24-3-2021,
827,ANXIETY KILLIN ME💔,th3yl0vej4y,,Actually it’s Bc he used hot water for the iPhone so it was tryna warn him to cool it down it didn’t break so the iPhone won,24-3-2021,
828,AssassinT47,poshthecatt47,,samsung won 😁,24-3-2021,
829,Got any money? 💰,chaotic_z,,"Here come the iPhoners batten down the hatches, board up the windows and pray cuz a storm's a comin. ❄",24-3-2021,
830,Zari,ilovemesumwhiteboyz,,Samsung a hybrid ion know what iphone doin😂,25-3-2021,
831,HBKJAY🥺💔,theyenvy_jad,,@prettyluh_.mericolee,25-3-2021,
832,amerie 🙈,eirema._,,It’s waterproof- y’all r stupid,25-3-2021,
833,Caden,yk.caden04,,Samsung is shit🤣🤣,25-3-2021,
834,Elijah da goat ync,elijahdagoatync,,I PHONE GANG,25-3-2021,
835,Almightyadaplug🅰️🅱️,almightydagoat,,Iphone turned off to save ur phone 😂,25-3-2021,
836,LONLON🤍,lil.londyn,,Let’s not start phone wars😐,25-3-2021,
837,🥷,17ontop,,My iPhone is water resistant lol,25-3-2021,
838,angel,incorrect..1,,iphone for life,25-3-2021,
839,🎤🍾,sensirweds,,Y’all don’t know the apple phone jsut gave a warning right- plus both phones didn’t turn off no point in fighting,25-3-2021,
840,eli_gamer3113,eli_gamer05,,Samsung is better confirmed,24-3-2021,
841,zayzay,zayzayw68grrr,,Samsung wins yay,25-3-2021,
842,TB the goat,tbb..tampabaybucs12,,cap I dropped my phone in hot water it did not do that I have iPhone,25-3-2021,
843,jayla,jaylaperrell,,y’all it’s literally just a phone💀✌🏼,25-3-2021,
844,ur.homie_ny,urss.trxllyny_,,Samsung gang 🇰🇷📱,25-3-2021,
845,scream gang,xxxtentashionfanbase269,,Samsung gang,25-3-2021,
846,welcome!🐶❤,avags1,,Samsung I m on🥺,25-3-2021,
847,four,.ajgotrizz,,yall if you watch the whole video iphone turns on after and samsung has burn marks,25-3-2021,
848,Plxto.Cyle💫,d1.cyle2x,,Y’all lame asf still comparing phones a doing wars😐👌,25-3-2021,
849,bad bleep 🤑😈🖤💜,cocogirl4life,,I got a Samsung 😁😁😁,24-3-2021,
850,900?🥺🥺🥺,they_diorr.tete,,YASSSSSSSSS SIRRRRRRR PERIOD 😝😝,24-3-2021,
851,Ezra,thatboy_ezra,,iPhone gang,24-3-2021,
852,zayy .,zayycrxzyy,,yall all excited but who is gonna pour BOILING watet on their phone.,24-3-2021,
853,gabby and danica,crackhead.besties0,,I have a samsung,24-3-2021,
854,Muhammad🔥🔥🔥,fwskinnynuts,,iPhone is water proof it’s the temperature is too hot so to save the phone it automatically turns it off,24-3-2021,
855,Toxicblueberry!,toxicc_blueberry,,@toxicc_blueberry:the bad thing aby getting water on a Samsung it presses random buttons,24-3-2021,
856,RadBouttaBag💰💯,rad_bull408,,DO YOU IPHONE USERS REALIZE THAT APPLE USES SAMSUNG PRODUCTS IN IPHONES AND YOU GUYS PROBABLY BOUGHT AN IPHONE CUZ EVERYONE HAD ONE🤦‍♂️,24-3-2021,
857,♡ Michael ♡,michaelafton.officialrat,,@infectedmaddie Samsung is the boss UwU,24-3-2021,
858,Unknown,theunkn0wnhuman,,only people who have a samsuge can like,24-3-2021,
859,.,uuujjjujju,,uuj😏,24-3-2021,
860,Fite_7,fite_3,,Why is everyone having phone wars it is just a phone gosh it doesn’t define you for what phone you have,24-3-2021,
861,-,cstamhe,,Maybe I’ll get a Samsung,24-3-2021,
862,Alex,alex4lifer5,,or just don't put water in your phone,24-3-2021,
863,Keep a going🥱,marshmallowdaddy0,,iPhone better cuase it has a safety warning,24-3-2021,
864,user8800106130882,danitheboss2,,iPhone took the L real quick,24-3-2021,
865,eddie❤,10_points0,,@sammyboydino WHATS BETTER ON.,24-3-2021,
866,e,a_penguin__,,"the comment section are so smart, they even fight about which phones are better 😂",24-3-2021,
867,Shayla2x,litshaylaaaa2x,,SAMSUNG GANG WYA,24-3-2021,
868,👁️👄👁️,rubyalatorre4,,SAMSUNG SHOW THEM WHOS BOSS,24-3-2021,
869,H.W,galactic_thug,,People really be saying Samsung is good but if the phone got hot and broke it wouldn’t ever even warm you,24-3-2021,
870,.,legendarygodzila,,Samsung Is A BOSS,24-3-2021,
871,𝕭𝖆𝖉 𝖌𝖎𝖗𝖑😮‍💨💕,pimpinxlayya_,,iphone be tripping that why I don't like I phones they break so easy and the charger mannn don't get me started with that now😂😂😆,24-3-2021,
872,bored,aestret,,BAHA I HAVE A SAMSUNG PHONE AND TABLET,24-3-2021,
873,💕,..wocki,,samsung is better this proved it😂,24-3-2021,
874,Mimi,charlid2008,,Samsung rules,24-3-2021,
875,hi,stranger_things_fan479,,"ᵐʸ　friend
　　　　ʰᵉʳe　 ʲᵘˢᵗⁱⁿ
　ʰᵉˢ　already taken　　　ᵃⁿᵈ　hes
　　　　ᶜʳᵃᶜᵏᵉᵈ　 ᵃᵗ
　ᶠᵒʳᵗⁿⁱᵗᵉ　my　 guy　Uhhh 😩",24-3-2021,
876,Fabiloso-im so loco,b23count,,Imagine having a 200 dollar Android,24-3-2021,
877,Sae-Byeok,muffintime029,,a phone is a phone okay,24-3-2021,
878,Jaidyn☆✨,itsjaidyn.r,,I dropped my 1phone on a pool before and it was fine,25-3-2021,
879,Felixdasher,felixdasher,,samsung💪💪💪💪💪💪💪,24-3-2021,
880,🤍Cenaya.🤣,itscenayaa,,You was pooring it only on the iPhone,24-3-2021,
881,aydenisgood_,aydenisgood_,,the water wants to watch tiktok on the samsung,24-3-2021,
882,user2205715891567,phoenixalpha0,,see Samsung is better,24-3-2021,
883,MasterKai,godknowskai_,,Bro it literally was on a overheating screen it didn’t even break lmao,24-3-2021,
884,♡︎𝖙𝖆𝖐𝖊𝖓♡︎,ewsstfu,,yalll grow up there just phones 😐,24-3-2021,
885,Mali Madness,everyone_hates_mali,,people only use apple because they're trendy,24-3-2021,
886,Ilikethegame,ilovegta38,,iPhone gang were you at,24-3-2021,
887,NoScopeJayde<3,jangamer56,,YESSIR,27-3-2021,
888,IRiskyRenz Renz,overman080,,Samsung is a king iPhone been cocky lately,27-3-2021,
889,may may283,may_samm,,iPhone knows there is hot water so it shuts down to prevent damage 😁😁,27-3-2021,
890,Anthony Simpson,itsyaboianthony_33,,team samsung!!💯,27-3-2021,
891,Rat😽😽😽👍👺👺👺👹👹👿😈,frickyachickenstrips3602,,It’s a warning it didn’t break,27-3-2021,
892,Rat😽😽😽👍👺👺👺👹👹👿😈,frickyachickenstrips3602,,Samsung broke,27-3-2021,
893,Ya boy kash🥱,fw_.kash0,,Samsung I'm built different 😤,27-3-2021,
894,Kamden,bleeshy14,,Who tf boils their phone?😂,27-3-2021,
895,Aiden Cabrera,dumbboiaiden,,Imagine doing phone wars obviously the best one is the vtech peppa pig let’s chat,27-3-2021,
896,WC XnolimitX,indatrenches73,,Imagine doing phone brand wars if u do slap urself,27-3-2021,
897,I'm done with life,xclusive._ty,,I have a galaxy,27-3-2021,
898,Exitzxl🕷,exitzxl,,the new Samsung screens look cleaner imo,27-3-2021,
899,♡,unsneeze,,HAHAHAHA YESSS,27-3-2021,
900,Blackie 1,blackie14_0,,People say Samsung bad but they got 8k 8K bro iPhone don’t have that,27-3-2021,
901,Nicxks,nicxks__,,I think iPhone just puts a warning earlier 😅,27-3-2021,
902,Jasielwilkers21 snap add me,jdav4lidkidd,,why! u wast two good phones!!!!!,27-3-2021,
903,menace brayden😈,im.brayden.lol,,Bruh I jumped into a pool with my phone and it didn’t break,27-3-2021,
904,Stella Cute,jasonderulo967,,Do I need a Samsung,27-3-2021,
905,Gio boy,yourboiisback111,,ayyyy,27-3-2021,
906,Kamrin,kamrin_rodriguez,,Samsung users make up any excuse they can to say there phone is better than a iPhone when they know deep down the IPhone is better😂,27-3-2021,
907,Lucas,picklelover6969696969,,How bout we say they both will break,27-3-2021,
908,Mad bozo😹😹,userg24ppwem7a,,Hm,27-3-2021,
909,Follow me or your deadʕ •ᴥ•ʔゝ,daddysmd2027,,Boys im getting samsung,27-3-2021,
910,Luke Farrell,luke14farrell,,@dababy.real.tik.tok you awake,27-3-2021,
911,Tyrese,wkeyuzumaki,,Casper keep playing with the phones,27-3-2021,
912,gone,tiktok_1sjti,,bro you poor water on Samsung you just be going on every app you have,27-3-2021,
913,Hi,simplyskeeter,,Yea I wanna go back to Samsung,27-3-2021,
914,Rein,7rein7,,um just so you guys know samsung works in any kind of water I have a hot tub and use my phone in the water so no iPhone is still shit,27-3-2021,
915,✝️Jose✝️ Hernandez ✝️ 🐊✝️,joseeccuh,,[cute][cry],27-3-2021,
916,5M555,ouneverknow,,samsung is better,27-3-2021,
917,hi,addison.loving.fidgets,,Samsung are water prof so Samsung 🤴 king,27-3-2021,
918,vap,vapisbetter,,If u want trash and ass graphics get a samsung,27-3-2021,
919,Jacob Blanco,jacob__blanco,,Jesus Christ is everything!!! 🥰😁,27-3-2021,
920,Rhyan A. Mendoza/Ram Mendoza,clowney_prodz,,Water is clicking random buttons lol,27-3-2021,
921,raiderkid16,raiderkid16,,@connorlarson69420 🍎s suck,27-3-2021,
922,🌚🗿🌝,frost121boy,,iphone really put a put a thingy that said overheating 😂😂,27-3-2021,
923,Unknown,unknown_being21,,"Yes, da water just randomly moved the screen",27-3-2021,
924,J😜U😇J😁U,theyenvyjewel,,Kennedi,25-3-2021,
925,Mom,urmum_1000,,Let me go get my old Samsung,25-3-2021,
926,Milllllllllllz,mr.mills13,,iPhone powered its self down which is better so it does not get fried the Samsung just takes the heat,25-3-2021,
927,Makayla/Deann,makayla_mix,,samsung help im under the water TwT lol,25-3-2021,
928,Your moms bed❤️,06.16.22l,,not yall saying that samsung is worse because it didnt detect If it was hot or not like yall just mad that Samsung is better just say it lol,25-3-2021,
929,Loyalty over love 🙌🏽😴,mxrlietookyobxtch,,iphone didn’t break so iphone still better,25-3-2021,
930,Adrian,ac3v3gas,,Iphone like hol up bro stop,25-3-2021,
931,nanaa🧿,ilovejahhh_,,why😃,25-3-2021,
932,Gay✧◝(⁰▿⁰)◜✧,blazingfoxplayz,,Samsung was like: what is this wet stuff?,25-3-2021,
933,wtf u looking at🙃🦋💙,nikki._theyluv,,ANDROID GANG WHERE YALL AT,25-3-2021,
934,spook <3,wrd2dagreats,,Bro Almost everyone who had an android and gets an IPhone switches up rq,25-3-2021,
935,Jay,bozoybum,,@daliyah_24cod @,25-3-2021,
936,kayla,kaylaa_spamzzzz,,samsung for lifeee,25-3-2021,
937,user5342461614897,rachellechery5,,I have a Samsung,25-3-2021,
938,Hi everybody! 😋,kimoradavisofficial,,Y’all so childish lmao arguing about a phone. Half of y’all can’t afford a phone 🤦🏾‍♀️,25-3-2021,
939,.,s4r1y4lol,,Iphone didnt break it showed a warning and why are yall arguing over which phone is the best oml,25-3-2021,
940,🖤,yrslandon,,Most Samsung are waterproof well the new ones I had a Samsung before it was older,25-3-2021,
941,dndjjdd,shortykindabaad,,idk why you guys are having phone wars. apple just gave a warning. its not broken,25-3-2021,
942,:(,homoloser.con,,Yeah cause I always put my phone is hot water,25-3-2021,
943,Lemonzz✨🍋,lemonzzxzz,,Ngl this got me mad but I’m not gonna hate-,26-3-2021,
944,ellie :),imaginehavingamullet,,@addison_marie1112,25-3-2021,
945,Jello :],j3llo_queen,,So that's why my phone didn't break in the bath yesterday,25-3-2021,
946,🤎 .,jada.reneee_,,iPhone gang,25-3-2021,
947,it’s Emaly,eemaly2,,iPhone for life,25-3-2021,
948,Jobugcheese,imkiddingchill0,,People still do phone wars BUT let me say the difference. Iphone is better in advertising not peformance. Samsung is better at peformance not ads,25-3-2021,
949,𝑺𝒌𝒚🐋💙,zander_lgbtq,,So true,25-3-2021,
950,.,urfav_maddy._,,thats why I have a Samsung 😏🙌🏽,25-3-2021,
951,SpankyCake,spankycake1,,Put peoples credit,25-3-2021,
952,Adrian Villa,adrianvilla57,,iPhone gang. Sorry,24-3-2021,
953,john fitzpatrick,johnfitzpatrick34,,thats the resaion i have a android,25-3-2021,
954,Makinzie🤍,mrhine.15,,"do Samsung vs Nokia, I have a Nokia lol",25-3-2021,
955,Cutebaby_bella,cutebaby_bella2,,YALL THE PHONE DINT Break it was a warning to cool the phone down,25-3-2021,
956,<33,rayscoolest,,mostly because i don’t put my phone in hot water for one for two apples detect water quite quickly and for three who still does phone wars?,25-3-2021,
957,VeNoMMMMM>:O,real_vycerate,,I actually have a Samsung,25-3-2021,
958,braylan_patton,braylanpatton,,Samsung just built different,25-3-2021,
959,💕 Ray,yagurl_,,I’m never gonna put my phone in hot water so it doesn’t matter 🤨,25-3-2021,
960,Hi,.aubree_.x,,Samsung 🤮 the emojis ugly that explains,24-3-2021,
961,Mirandacast,mirandacast123,,Samsung build different,24-3-2021,
962,Hi:),fw.favii,,Lmao im not paying 1000€ more for a better camera,24-3-2021,
963,Lucas,luv_lucasd,,Samsung just vibing,24-3-2021,
964,I LOVE THE COLLECTOR FROM TOH,mylife12683,,my samsung the in 24 horas LATE 🌓🌒🌑🌑🌑🌑🌑,24-3-2021,
965,VIRGOAT🐐💫.,_ohsotay1,,Yea the Samsung maybe waterproof but yo phone won’t be able to charge! Waterproof or not!😂 iPhone still better!,24-3-2021,
966,On my other acc,90s...qt...bxtch,,This why l want a Samsung but my mom like no it dumb apples are so better,24-3-2021,
967,mads🪬,mady.hate.page,,apple and samsung:👑. people who start wars:🤡. plus apple just had a warning saying it was getting heated around the ohone,24-3-2021,
968,1.4k,.char3melio,,As a apple user its pretty obvious Samsung won,24-3-2021,
969,Werido🖤,werido.tf,,I have a iPhone bc if I get a Samsung my classmates will make fun of me,24-3-2021,
970,rarrrrr,baboon_penis,,everyone just gets iphone cos it's the trending phone but they dont think how good android rlly is,24-3-2021,
971,lil curry licker 🍛,saturated.guac,,Samsung already learned there lesson on exploding phones,24-3-2021,
972,Ððñ†rê😴🦧,kingdon_01,,iPhone warns you but the sams don’t,24-3-2021,
973,😜,mari1yaa,,@not._.creative 😏,24-3-2021,
974,i frew up,.c0ff_e,,...IM SORRY WHAT-,24-3-2021,
975,Olivia Edmond817,oliviaedmond5,,"@christian.cookie:∩――――∩
|| ∧ ﾍ　　|| 𝗱𝗼𝗻𝘁 𝗳𝗼𝗿𝗴𝗲𝘁 𝘁𝗼 𝗽𝗿𝗮𝘆
||(* ´ ｰ`) __ || 𝗯𝗲𝗳𝗼𝗿𝗲 𝘀𝗹𝗲𝗲𝗽
|ﾉ^⌒⌒づ`￣＼
(　ノ　　⌒ ヽ ＼
＼　　||￣￣￣￣￣l",24-3-2021,
976,Flame🔥,.fiame,,Samsung's are very water reactant they process water as if it was someones finger for no reason,24-3-2021,
977,Maria,jeranisha_maria,,"Sorry I phone I am Samsung ,Samsung better iPhone is a wise of money",24-3-2021,
978,rose_dases,rose_dases,,@pretty_kitty.xo and you say iPhone are better,24-3-2021,
979,💞,val_hd2,,there both good,24-3-2021,
980,-,missrandomxoxo,,19 POUND SAMSUNG GIFTCARD WHO WANTS IT😂,24-3-2021,
981,Logan Bliss,loganbliss1,,Maybe I should switch so Samsung 🤔,24-3-2021,
982,B@ddionika,bxrbii_nicki,,The iPhone didn’t even break it was just warning to cool down so it won’t overheat an blow up and the Samsung can also blow up lol,24-3-2021,
983,♡_𝓹𝓻𝓮𝓽𝓽𝔂𝓵𝓲𝓵𝓫𝓲𝓽𝓬𝓱,misschanelqueen8_,,hahaha well at least Samsung doesn't explode,24-3-2021,
984,philly📍,pr3tty_maddie0,,that's why I got Samsung,24-3-2021,
985,user385989,its_me_the_best_comiden,,And that's why people who have a Samsung are Fire 🔥🔥🔥,24-3-2021,
986,Toni,ton1.bln,,Er nimmt ein neues Iphone und ein älteres Samsung und samsung gewinnt trz,24-3-2021,
987,.,melixxa.jz,,Beide sind gut How you See,24-3-2021,
988,Whatsupp,pergo_life,,what does those words on the iPhone say? Cuz I wanna know,24-3-2021,
989,Toga fan page,himiko_toga10203,,𝕊𝔸𝕄𝕊𝕌ℕ𝔾 𝕀𝕊 BOSS😎,24-3-2021,
990,Mama Steve >>>>>>,defnotariza,,iPhones suck,24-3-2021,
991,𝙶 𝚁 𝙰 𝙲 𝙴 ☀︎︎,.graciieeeee,,But why would you ever do that on purpose????,24-3-2021,
992,🌻 stream smiley 🌻,sunfloweryeri,,*vibes in android*,24-3-2021,
993,野野良猫 感動猫動画 猫猫 感動猫動画 猫野野良猫 感動猫動,the_black_gamer56,,"VIVA SAMSUNG
IL TELEFONO SAMSUNG FUNZIONA ANCHE CON UN BUCO ○ IN MEZZO",24-3-2021,
994,sabis 5th grade<3,.sabisgrade5,,this is why I love samsung,24-3-2021,
995,♫,__tripxy__went__where__,,iPhone 12 13,24-3-2021,
996,𖢇,.n2ka,,@23.yade,24-3-2021,
997,Tonys_editzzz,ttonyy_editz,,Nokias still better,24-3-2021,
998,Rylan Crawford471,ugly_ahh_boi1121,,"𝔸𝕃𝕃 𝔾𝕀ℝ𝕃𝕊 𝔸ℝ𝔼 𝕋ℍ𝔼 𝕊𝔸𝕄𝔼 𝕓𝕪 𝕁𝕦𝕚𝕔𝕖 𝕎𝕣𝕝𝕕
""0:35 ━❍──────── -5:32, ↻ ⊲ Ⅱ ⊳ ↺
VOLUME: ▁▂▃▄▅▆▇ 999%""",24-3-2021,
999,Morgs✨⛸,1mn0tcrack,,Each phone has something better then the other 😐,24-3-2021,
1000,A,whatttttttttttttt_0,,Y’all really think Samsung is better bc of this. Your never gonna come across something where you will drop your phone into hot water lmao,24-3-2021,
1001,Budgie master,budg1es.bac0n.pancak3,,Thats why you get iphone. It gets u a warning unlike amazon.,24-3-2021,
1002,Wannie,juanniejuan,,The iPhone was already broken and you poured it right on top of it like it wasn’t going to do anything,24-3-2021,
1003,😃I regret The change,weird._.blonde._.90swolf,,O-O I'm lucky I got ☆~☆ SAMSUNG,24-3-2021,
1004,slug toes 😝,biggzaddyaaaa,,Samsung gang lol but get out bc the I phone bout to explode,24-3-2021,
1005,Paytn Rose,urfavgemini230,,YOOOOOOO APPLE SUCKS,24-3-2021,
1006,user20212503916,julian37801,,apple weak Samsung gang better most black people have Samsungs which is better😏,24-3-2021,
1007,felix,felix_krankens_shovel,,why is Samsung's screen so fucking sensitive though 💀,24-3-2021,
1008,Shadow banned 🧍‍♀️,muslimxqueenie,,Samsung is the new Nokia,24-3-2021,
1009,.,gibbster._,,YUH.,24-3-2021,
1010,Aliyah,lalvadre,,"""IPHONE THE BEST"" hm?",24-3-2021,
