,Comment Number (ID),Nickname,User @,Comment Text,Time,Likes
1,fєℓιχ ✪,realfelix0,,"Oh nvm, this requires jail break and it’s a risk for you’re phone. Not a big risk but I rather keep my phone as it is",6-3-2021,4140
2,Daria Montella,icygurl__,,TUTORIAL ON HOW INSTALL CYDIA ON IPHONE?,6-3-2021,2777
3,:>,qr0.s,,Ich finde die App Cydia nd,6-3-2021,167
4,Magaly🤎,itz.magaly0,,Is mine the only one that doesn’t have cydia ??,6-3-2021,1392
5,sarah,sarahxptz,,HALLO DEUTSCHLAND🤝,6-3-2021,3
6,🧾,mrs.number,,@.pardon.me yeah I’m not finna jailbreak my phone,6-3-2021,1
7,︎ ︎ ︎,wxzyz.lol,,I got cydia and you can’t even search that up on it😒,6-3-2021,2
8,Ralph.JT,ralph.jt,,How to yailbreak your phone on the latest version,7-3-2021,1
9,Yea… no,elenathespookygirl,,Hast du villeicht nh app wo man die farbe ändern kann von der zeit?,6-3-2021,1
10,🚯,ssp5der,,Can you do a tutorial for your lockscreen plsssss,7-3-2021,1
11,💫🏀,khaan.lwd,,I cant find the app !!,6-3-2021,13
12,n,nr.8110,,@itsonlymewys @arshhoo @armeen._.2004 do it,6-3-2021,2
13,Anabel92,anabelarechiga,,It doesn’t work I tried,6-3-2021,155
14,Simoonrigal,police173636282,,Hello who is cydia,6-3-2021,176
15,Eelionni🥶,tonttutoljanteri69,,how to download cydia,6-3-2021,120
16,🫶🏾,vosuls,,mane thats to much bro i thought it was gone be simple 💀 you gotta do a jail break and everything,6-3-2021,55
17,jackwarda,jackwarda_ttv,,Make a tutorial how to download cydia 🥰,6-3-2021,704
18,Dani_srt,dani_srt392,,Tutorial on how to download cydia,6-3-2021,131
19,Libbypannell1,libbypannell1,,How do I get cydia,6-3-2021,55
20,︎ ︎ ︎ ︎ ︎ ︎ ︎ ︎ ︎ ︎ ︎ ︎ ︎ ︎ ︎,06.kamilaa,,@26.charlo hier Tutorial aba mach nd kann sein das es dein Handy kaputt machttt,14-3-2021,0
21,HaZe_FloW,haze_flow3611,,Wenn ich das eingebe kommt das nicht,11-3-2021,0
22,Josh,josh___________innit,,Er ist gut,9-3-2021,0
23,Flythejuice,flythejuice,,Was ist ein jailbreak ?,8-3-2021,0
24,Mille,milletangen,,@m.i.l.l.e der,8-3-2021,0
25,Car Tok,alexczerner0,,Geht es auch mit der demo version weil ich schreibe es rein und kommt nix raus,8-3-2021,0
26,ɐlǝ,elagervalla3,,@ernesagervalla ik vind da nie,8-3-2021,1
27,…,lena.fca,,Ich finde diese App nicht,7-3-2021,0
28,Celine,celinexvdh,,@janine.wdz guck erst das andere Video,7-3-2021,3
29,😑😑,_yax_chee,,Wie haist das Ep,7-3-2021,0
30,Angelina,itzmeangelinaa,,Kannst du bitte noch mal den video posten ich finde nicht 🥺🥰,7-3-2021,0
31,Tik Toker,imyouandyouaremelol,,Wie lädt man sich cydia runter oder ehergesagt wo?,7-3-2021,1
32,Menendez Guardians Defenders,freemenendezbrothersfr,,Warum ich kann nicht das Download machennnnnnn whyyyyyyy,7-3-2021,0
33,Nati🖤😁,_.zuerichnati._,,Wo kann man Cydia runterladen ich finde es nicht,7-3-2021,0
34,513,deraus513,,Leute macht das nicht ihr müsst euer Handy jailbracken,7-3-2021,0
35,🌶🌶🌶,riskus59,,@sxlin.29 ahh,7-3-2021,1
36,GURKIIIII🥒（＾ν＾）,mikey_boiii_,,@anniilein_ Probier dann das😂,7-3-2021,0
37,Laura :),laura.sd_,,nous les français en sueur car ont comprend pas l’anglais 🥲,6-3-2021,716
38,Hanna Háda,.hanna_0118,,"@flocuka_ az egyik videójában kérdezted, hogy ezt hogy lehet csinálni. Hát itt van!❤️",7-3-2021,1
39,andrea,andreabrunerr,,il problema è come installare cydia sad,6-3-2021,46
40,Celine,celinexvdh,,Ist das gefährlich ? Also kann da was passieren ?,7-3-2021,0
41,DD,denovak_,,"I can't find the CYDIA app, pleaseee make a tutorial!!!",6-3-2021,26
42,🧛🏻‍♀️,gustaclf,,Tutorial on how to download cydia,6-3-2021,5
43,🫂🧑🏻‍🎤Mystique😶‍🌫️🤓,itachiwife07,,What’s the name of the app,6-3-2021,1
44,anthony,anthony.897,,if you’re gonna jailbreak do it on an old phone not the one your currently using it’s not worth it,6-3-2021,87
45,.,penelope.eeeeee,,raga ma non è che poi mi sciupa il telefono?,6-3-2021,17
46,Ggggg,xcggdudy,,How to install cydia???????,6-3-2021,66
47,FW•_•isaiah,fw_isaiah00,,Does it work on iPhone 8 ??? Plz answer,6-3-2021,25
48,Adin Brate,adinsinanovich,,Dark snapchat broo,6-3-2021,19
49,e j,mari.del.rey,,"Wait so you need one app, and through that app you can do many things?",6-3-2021,41
50,𝒄𝒉𝒍𝒐𝒆𝒆 <3,chloe.cmr0,,@ca_mille345 il est là !!,6-3-2021,1
51,A1,a1_bigz,,Bro how do u get cydia,6-3-2021,10
52,𝙸𝚚𝚡𝚡𝚝𝚎 シ,iqxxte,,I am French and not English,6-3-2021,12
53,🔥God🔥,ig_.risanek._,,@julianalexanderthies how to download cydia 😂😂😂😂😅,6-3-2021,7
54,Jordan,userjj669,,What’s the source,6-3-2021,5
55,🥱,andreaxgamer17,,I can’t be bothered to do all of this just to change colour to my battery 😂,6-3-2021,6
56,Kaaydeeh,eassidebabey_,,Where do I go after like you going to fast,6-3-2021,5
57,Marcos Morales,marcosmorales275,,"Where is the tutorial for jailbreak?. You are the master , regards from México 🇲🇽 🙋🏻‍♂️",6-3-2021,7
58,Thaïs 🌞,thais_jbt,,@titia.bilikaa meuf,7-3-2021,1
59,Raphix,raphixxxx,,How to download cydia 😊,7-3-2021,206
60,Chris.x,.chris.x,,I thought it was an actual setting thing nah i need to jail break my phone,14-3-2021,173
61,TK78,chakra.amv,,Les gens qui veulent installer cydia aller dans les paramètres dans général après profil après cydiafree et vous installer en haut à droite,7-3-2021,78
62,Corent1,corentin_l,,CYDIA CE TÉLÉCHARGE VIA SAFARI,7-3-2021,55
63,III_petrova,another_ira,,В Аппсторе нет его,8-3-2021,21
64,🫶🏾🫶🏾,spieslady,,Les gars si vous le faites sachez que votre téléphone ne dépend plus d’Apple mais de jailbreak,7-3-2021,11
65,RP7,rp7official,,I can’t find the app on the App Store,8-3-2021,10
66,Daniel Yancey,danielyancey70,,Hey my colors isn’t showing why’s that??? Yes my phone is jailbroken?,18-3-2021,8
67,Azmi,user7hhj4u0m01,,Tutorial at 1 Millionen followers🥰,7-3-2021,6
68,Elroey,elroeycohen,,@maor_ash14 תסביר לי איך עושים את זה😩,8-3-2021,5
69,❤️,funny__video31,,terog Tell me how you installed cydia,12-2-2022,0
70,🇵🇹 🇧🇦 🐐,dzekice,,I don’t have Cyrus,1-2-2022,1
71,Yousef,kostaro_viago09,,Guys you must check his YouTube channel he did tutorials,8-1-2022,0
72,⠀ ⠀ ⠀ ⠀,itripke,,Repo?,30-10-2021,0
73,👨🏾‍💻,003looloo,,you’re half a year late dude,27-9-2021,0
74,Satan dougie,satandougie,,It says the apps not trusted,27-9-2021,0
75,"Someone, anyway",nullified07,,What’s the repo,18-9-2021,0
76,K Lee,katylee666,,How to download cydia?🧐,20-8-2021,1
77,rip Swavy 🕊💔🤞🥺,pretty_mor,,How do u get cydia,3-8-2021,0
78,𝙹𝚔𝚕𝚘𝚙𝚖𝚗𝚗𝚋,jklopmnnb,,Btw l want to see how to download cydia because my is not worki😁😁,2-8-2021,0
79,.,rolig_brunett,,I don’t find the “Cydia” app:(,31-7-2021,1
80,I follow back Instantly sheesh,24k696lovelife,,How do get cidya,20-7-2021,0
81,IstroeR6,6226227.9,,repo,13-6-2021,0
82,Wormys.lol,wormys.lol,,Tutorial on how to jailbreak,10-6-2021,0
83,Viv,dumb.vexy,,when i search colormybattery on cydia nothing comes up,8-6-2021,1
84,❤️,it_marianagoz,,I don’t have that on my play store 😭,7-6-2021,0
85,ketavarxo,user9710372920482,,How download cydiaa??,5-6-2021,0
86,CRISTIANO,cr7sooo,,CYDIA HOW DOWNLOAD,20-5-2021,0
87,Jacob,jacobyin0,,what is the app called,17-5-2021,0
88,Ariunaa benn❤️,ariunaa026,,app name😅,16-5-2021,0
89,qi,iqieqie19,,Did u pay for using cydia?,15-5-2021,0
90,.,ic_3cv0,,Please how to download Cydia 🥺,13-5-2021,0
91,😱YOU😱,_bh_you_,,nie mam tej aplikacji mam iphone 10 s max i nie mam,1-5-2021,0
92,jackiepayne2004,jackie.chayne,,@shellymarie98 I wanna do it but I’m scared it’s a lot of pretty jacks,1-5-2021,1
93,🤘🏻🅱️,f2trappy16,,What that app called,30-4-2021,0
94,Je t'aime Olivia,sevan_domont,,Il se lance pas le mieux 😅,26-4-2021,0
95,dying for nyash,imtalles0,,@veryrareshordy try this,24-4-2021,0
96,😋,.kiimberlii,,how do yoy get cydia,20-4-2021,0
97,Fashion_Photography_Unlimited,unlimited_photography,,I did it but keeps saying that the resources weren’t downloaded and I have ios14.1 btw,7-4-2021,0
98,S3ood,0yysi,,How I set the color,3-4-2021,0
99,Mac,macxuzis,,Not worth it,22-3-2021,0
100,serena,immajussaysum,,i’m sorry i’m not jail breaking my phone for this that’s too risky 💀,21-3-2021,0
101,vicky <3,ayo.its.vicky,,wait- it like doesn’t work for me. i respringed it a lot of times,21-3-2021,0
102,⠀ ⠀ ⠀ ⠀ ⠀ ⠀,yourlocalmexican__,,You play brawl stars too?!?!,21-3-2021,0
103,Ok,ant_.06,,Looool people don’t know what jail breaking is 😭,20-3-2021,0
104,712PM,adrianjacksonburr,,You have to jailbreak ur phone don’t,20-3-2021,0
105,spike_thebeardie,spike_thebeardie0,,Grrr,20-3-2021,0
106,Vontaaaa,vil_land,,Let’s play brawl stars😂,19-3-2021,0
107,jadenbt,jadenbt,,@multiflush comment on fait pour désinstalle cydia ??,19-3-2021,0
108,🏳️‍🌈Allibug19🏳️‍⚧️,yorkielover120,,How do you do that ?,19-3-2021,0
109,mimu4ever77,mjlandry007,,I can’t find cydia,17-3-2021,0
110,＊,3900soldier,,What’s the repo,15-3-2021,0
111,Kylie Gaver,kagaver20,,Literally doesn’t work,15-3-2021,0
112,Cait :) 🦋,ccait_linn,,I don’t see “cydia” in my App Store,15-3-2021,0
113,Carlos,413wheelielife_carlos,,How do we get cydia,15-3-2021,0
114,<3 <3,itsss.liz,,I does not show up I can not find cydia,15-3-2021,0
115,Von!,vonfrmda302,,Same,15-3-2021,0
116,🦋C•I•N•T•I•A🦋,cintia_gomez6,,The app,15-3-2021,1
117,🦋C•I•N•T•I•A🦋,cintia_gomez6,,What is it call,15-3-2021,0
118,Ray,maysees,,Hold up! Jailbreak is back?! I need this in my life!!!!,15-3-2021,0
119,Mmmmmmnfghk,mjmindset,,I can’t find,15-3-2021,0
120,Samantha Webb,samanthasexyy,,What kind of phone do you need to do this,14-3-2021,0
121,Merete,futuregilf696,,make a turtorial on how to download cydia,14-3-2021,0
122,🚀👽NNA🎚,blacknonasa,,I text Cydia in App Store. This is not found,14-3-2021,0
123,Xrysxid,xrysxid,,How do u get the app 😭,14-3-2021,0
124,XCUVYx,nyc._.alex0,,@barrbbiee loookkk,14-3-2021,0
125,nikki<3,ncole._,,can i do this on my xs Max,14-3-2021,0
126,🧢🚫 patience,happykidpatience16,,So it’s jail brake 🥺🥺🥺,14-3-2021,0
127,ziøn!,whyzionn,,i haven’t jail broke a phone since iphone 5,14-3-2021,2
128,Ashton,a.s.h.t.o.n_t.a.y.l.o.r,,What the hell is Cydia I can’t find it anywhere. Your a really good tutorial person,14-3-2021,1
129,LA🤍💙,dannyboi1985,,Can I get a tutorial,14-3-2021,0
130,Yanapab20🇲🇽🇵🇷❤️,yanapab420,,What lauguage is that,14-3-2021,0
131,luke siwinski,lukesiwinski,,@austinc922 these bad for ur phone?,14-3-2021,1
132,Hayden,haydend06,,Guys don’t jailbreak. Apple won’t fix your phone if it breaks and cydia slowly breaks your phone. Do it on an old phone,14-3-2021,0
133,Mrs. sugondese,ocno39,,POV: you see all the comments about not seeing it because nobody can find it including me.,14-3-2021,0
134,Tyler,imty_05,,I have to pay,14-3-2021,0
135,Kam,kamryndelgadillo,,That’s to much work,14-3-2021,0
136,Hannah Lynn,hann._.h,,what’s cydia?,14-3-2021,0
137,faith W,d0wnfalls,,No nahh I ain’t gonna jail break my phone,13-3-2021,0
138,av.1L1a.b_,av41l1a06,,what is jailbreak,13-3-2021,0
139,Jayden Singh,jaydenssingh.1,,Why can’t I find cydia,13-3-2021,1
140,Romessa :),jus.rocken.and.rollin.by,,Ok I’m sad now cuz I’m not risking anything illegal 😂😂,13-3-2021,0
141,jenny,mid_jenny,,when i open my cydia it do not let me search it up,13-3-2021,1
142,Phat Poptart,phatpoptart0,,I can’t find the video on how to download it,13-3-2021,0
143,addison,addisonlewy,,@claire_20080 this is the tutorial,13-3-2021,0
144,Toby,toby.dorrian,,How to install cydia,12-3-2021,0
145,ruby,.rubyreilly,,@maddyhyslop this is how you can change the colour of ur battery,12-3-2021,0
146,kyeturley,ballz_man,,Is it Ana pp,12-3-2021,0
147,Jye,heyitsjye,,Bro can you do a vid on how to install the app,12-3-2021,0
148,user356209,logan.hayles,,But how do you get cydia,12-3-2021,0
149,Cæmèœñ,tiwhatup,,Bro there isn’t a video,11-3-2021,0
150,Sam,gamingwithsamytbackup,,Lls do a tutorial on how to get cyida pls,11-3-2021,0
151,dani jansen van vuuren🖤,imdxaddysprincess,,this doesnt work in south africaaa,11-3-2021,0
152,Catelyn Henderson,catelynhenderson2,,Is it safe for your phone ?,11-3-2021,0
153,Wsg,elenas.life18,,I’m not getting that from Cydia I’m literally not getting anything from it,11-3-2021,0
154,Danni-marie Cornwell,xxxdannixxx,,It won’t let me get cydia,11-3-2021,0
155,_violette06_,_violette006_,,@boldecheerios merde il faut une autre appli,10-3-2021,0
156,cory judd,cj_swervee_,,Cydia,9-3-2021,0
157,ellie 🤍,x_e.williamson_x,,Please can u do a Cydia download tutorial,9-3-2021,0
158,JimJam,klxndike,,Can it break or hack your phone?,9-3-2021,0
159,Connie 💗,xox..connie,,How do u get cydia,9-3-2021,0
160,Mr Samalam😎,_.mrsam._,,pov: you used android🥺,9-3-2021,0
161,kianmurie,kianmurie01,,Is Cydia on the App Store ?,9-3-2021,0
162,Freddie,freddie_landale,,@ttv_bigbull123 does this work,9-3-2021,0
163,NotSilencer,prod.notsilencer,,You can’t install it off of the App Store,9-3-2021,0
164,harrys house🪩,sushiirry,,Yeah nvm,9-3-2021,0
165,ami x,x.amiprivvv.x,,@brok3n_p3opl3 i can’t find the app cydia,9-3-2021,0
166,dave,m8_dave,,Me,9-3-2021,0
167,Tyler,_.tyler07,,yeh I’m not doing that cuz of jailbreak,9-3-2021,0
168,The mctavishmctee12 on Xbox,mcteeplayz,,Cydia,9-3-2021,0
169,The mctavishmctee12 on Xbox,mcteeplayz,,What if Curia doesn’t work,9-3-2021,0
170,HOODMEMES,universal.king,,is this and about android?,9-3-2021,0
171,Alysha <3,alyshapalmerrr,,I’m not gonna jailbreak my phone bc I don’t wanna break it 🤠,9-3-2021,0
172,ً,emqleeee,,?What s the name of the program,9-3-2021,0
173,ⒺⓁⓄⒹⒾⒺ,.elodievowlesx,,@.poppygriffiths aww I thought it was actually on our phone and apparently jail breake is a risk for your phone 🥺x,8-3-2021,0
174,ffion Evans,fifevz30,,@xieleri need to do this 😂,8-3-2021,0
175,Annabel 🤎,annabelstrangex,,@kelcie_marie.14 nvm it’s effort,8-3-2021,1
176,ً,emqleeee,,What s the name of the program?,8-3-2021,0
177,𝓥😈,itswendd,,@iosifcaldarasi can u help me do this x,8-3-2021,2
178,alex.oszi,bravchitas,,How to download cydia,8-3-2021,0
179,Isa 🤍,isa08280,,Que aplicación es ?,8-3-2021,1
180,😃,idfkmolly,,@_idek.juliaaaa_ woah,8-3-2021,0
181,Iwanna Christofi,iwannachristofi,,@mr.apple.gr gia pes tin gnomisu se ena video sou,8-3-2021,1
182,Ashleen Foster,ashleenfoster2,,Make a tutorial to download the app 🥰,8-3-2021,0
183,Celine,celinedahegvas,,Where do you fond cydia,8-3-2021,0
184,Mommy Lover,milfzzz._,,Jævla neger Cydia finna jo faen ije,8-3-2021,0
185,øfficial.sassi,sassi_rth,,@fabimhdt da!,8-3-2021,1
186,Roblox_keo,rbxx_keo_rbxx,,Name App ??🥺🥺,8-3-2021,0
187,Farendinerdeilig,duerhomo1,,Hva heter appen?,8-3-2021,0
188,camille,camille_cueille,,@antoine_dht_4 regarde c pour changer ke couleur de la batterie,8-3-2021,0
189,LuxTesarion,luxtesarion,,@theguywhoasked2k lol,8-3-2021,0
190,user671240123663,hamboo3,,App pls?,8-3-2021,0
191,WarRioRKiNg Official,ricky_gamer_wk,,"Raga non fatelo sono app , non certificate apk , rischiate di danneggiare il telefono.",8-3-2021,0
192,✨,_nelciii__,,Make tutorial haw to download cydia pls 🙏,8-3-2021,0
193,𝗧𝘀𝗲𝗹𝗺𝗲𝗴_𝗖𝘄𝗶,tselmeg016,,App name 🥺pls,8-3-2021,0
194,Billbo15,billbo64,,where can you do if you do not have cydia??????😁,8-3-2021,1
195,Panos_Drolapas,panos_drolapas,,Theres no tutorial,8-3-2021,0
196,😮‍💨,viacloud,,"Can u tag me i cant find the video, where u download cydia😁",8-3-2021,0
197,Mollan aka Nollan,molliebengtsson,,CYDIA PLZZZ,8-3-2021,0
198,😈Jessica🔫,...jessica08,,Tutorial on how to download cydia plsss,8-3-2021,0
199,t_s_a_k_i_r_i_r_i_s,t_s_a_k_i_r_i_s,,Make again a tutorial how to download cyndia,8-3-2021,0
200,user2686211490734,litsupeeposer,,Jai pa trouver comment on peu maider stp,8-3-2021,2
201,AR-001,notosuperleag,,A tout les français ne le faites pas c payant 3€,8-3-2021,0
202,Holà modo,misterfysha,,Sa a marcher merci beaucoup,8-3-2021,0
203,Lara,rmbt.l,,C’est que pour les iPhone X aussi,8-3-2021,0
204,Sjolin,sjolin02,,TUTORIAL ON HOW INSTALL CYDIA ON IPHONE?,8-3-2021,0
205,Sachou,sachouubtw,,un vrai jailbreak ce fait sur ordinateur pour ce qui ce demande,8-3-2021,0
206,Davide Bena,davidebena0,,safari mi dice che la pagina non può aprirla perché l'indirizzo non è valido a me sul primo link che esce scrivendo colormybattery,7-3-2021,1
207,Alexis Alexis,alexisalexis215,,Pk je peux pas,7-3-2021,0
208,Neyorzz59,neyorzz59,,jai un Samsung,7-3-2021,1
209,Shoots_Editz08,jreddevil_16,,Mak a tutorial,7-3-2021,0
210,Hacked,sussygirlbu,,Help how do I downgrade from 14.5 to 14.4 so I can jailbreak,7-3-2021,0
211,Fly_derbi,flyflo_360,,J’ai r conpris,7-3-2021,0
212,Nicholas mandini,nicholas.mandini,,How to jailbreak,7-3-2021,0
213,couc’s😯,adamso.wa,,Sa abime ton tel ? 🥲,7-3-2021,0
214,1 + 1 = 3,marsianeque_perrotatavro,,THANKS!!!!,7-3-2021,0
215,louna,louna.lm,,@bkainaa @0.sbwn.0 je comprend pas,7-3-2021,1
216,ঔৣÐâřҟŦﺂℜêঔৣ,julio_houat,,Quand je recherche dans l’appli sa ne me met rien,7-3-2021,0
217,axelle,_.axelle.._,,@nono250407 le tuto,7-3-2021,0
218,Jenny berentsen🤗,jenny.berentsen_,,Tutorial on how to download vydia,7-3-2021,0
219,🇲🇦,gwn_iemand.xxx,,Can you make a tutorial “How do you find the app Cydia”,7-3-2021,0
220,🇲🇦,gwn_iemand.xxx,,I don’t find the app CYDIA,7-3-2021,0
221,2/10,kochamksieciunia,,ej to jest bezpieczne? XDD,7-3-2021,0
222,:),its.sxam8,,@cede0709 meh mues eh app ha😬,7-3-2021,1
223,I.,sabes03,,This feels illegal,7-3-2021,0
224,Talops,talops,,nvm my i still have 2 years of warranty aint risking that 💀💀,7-3-2021,0
225,eerruuttoo,eerruuttoo,,@lume.znl faut surtout pas faire sa ton tel sera beugerrrr je l'avais fait avec mon iPhone 6,7-3-2021,0
226,Opheliatequila,opheliatequila,,German,7-3-2021,0
227,Pierre,pierrot815,,Comment on telecharge cydia,7-3-2021,0
228,<3,j.nnak0,,@neji_hyuga52 cest cadeau,7-3-2021,0
229,calistua,calistakuppens,,@g1ng3r3 lol gaanwe dit doen,7-3-2021,1
230,187michal,187michaal,,jailbreak🙄,7-3-2021,0
231,Ness⚡️,in.ee.s,,@in.e.s.27,7-3-2021,0
232,katie🤍,katied.xox,,The app isnt there,7-3-2021,0
233,💖T-P-W-K💖,emeliepemeliepepparot,,I can’t find the Cydia app,7-3-2021,0
234,tina💗,t.mrqss,,c’est payant putain toujours hein,7-3-2021,0
235,<3,kip_curryyy,,Cydia isn’t there in the App Store,7-3-2021,0
236,Isadoraシ,isadora.rdin,,You need to get iPhone 12 Pro. If u doesn’t have 12 u can’t do that. U searched up and it comes up then,7-3-2021,0
237,maya,mayagrimsich,,How do u install CYDIA???,7-3-2021,0
238,maya,mayagrimsich,,TUTORIAL ON HOW TO INSTALL CYDIA ON IPHONE?,7-3-2021,0
239,Rhiannon Welch,rhiannonwelch7,,It doesn’t work on iPhone XR,7-3-2021,0
240,user1378627509568,olalandy,,Ja nie znalazłam tej aplikacji,7-3-2021,0
241,natalochee,nathouchee,,"hi bro, does the battery use more fast or not ?",7-3-2021,0
242,Morhi,m_o_r_h_i,,How to install cydia?,7-3-2021,0
243,🤍,ayoitsdad,,Whats the name of this app?,7-3-2021,0
244,Ami🤍,_sz.amira_,,@szofyyy_ @szlk_jazmin,7-3-2021,0
245,𝓬𝓪𝓽𝓮,caterinaalivi,,How I can search it? I download Cydia but then I can’t found the colour battery,7-3-2021,0
246,J-K.H^3^,its.jk4,,I just installed cydia😳😏,7-3-2021,0
247,Silke Gliksman,silke_gliksman,,What is the name of the app?,7-3-2021,0
248,Bella,bellaminina23,,I just put mine on mode off,7-3-2021,0
249,ITZ ME GELO,sheluvss.me,,Tutorial how to get cydia?,7-3-2021,0
250,sylvia chodorowska,syla_dorek,,A nie jest tak ze gdy mamy cudie to tracimy gwarancje,7-3-2021,0
251,brooke,therealdadsnatcher,,I don’t have it 😁,7-3-2021,0
252,Heeej!,hejsanssvejsan2,,I can not find the cydia,7-3-2021,0
253,a,saggy_swaggy,,i thought that said clamidia.........,7-3-2021,0
254,•Hisbae,_jgilligan60_,,OMG YOUR NAME IS JULIANNA MINE IS TOO AHH,7-3-2021,0
255,kailyn,kailynsimard,,yeah a jailbreak . how about no,7-3-2021,0
256,layna 👼🏻,drpepperwater69,,too much work.,7-3-2021,0
257,Lil dubu,kebab2022,,Cydia is not on appstore,7-3-2021,0
258,Maryjane❤️😩,im._.herogz420,,How do you download Curia,7-3-2021,0
259,Lia,liadiaz_,,I don’t recommend this is not safe,7-3-2021,0
260,zel,jiminsleftcheekss,,You should do how to get spotify premium for free😏,7-3-2021,0
261,🥺,aperson2410,,How do I make my homescreen like that????,7-3-2021,0
262,Aliyah_K.M🤍,kuzi123456789privv,,@xox_aria_xox @briengwenya @livs_priv_ 🙄to much effort,7-3-2021,0
263,ems,dilfsareseggy,,does this work on the iphone 12 pro?,7-3-2021,0
264,☆𝘋𝘪𝘤𝘦 𝘬𝘪𝘴𝘴𝘦𝘳 ☆,h0n3y8un,,My Cydia won’t search when I try 💔,7-3-2021,0
265,car,macksluva,,Yea no,7-3-2021,0
266,Gabut :v,sosisenakkki,,Is it safe,7-3-2021,0
267,EmilySmith5163,emilysmith5163,,What kind of phone is that because it says it can’t download it,7-3-2021,0
268,Emma,xluv.emzx,,It’s or frees,7-3-2021,0
269,Joline,dejolinee1,,@noor.d1nmakedonturk omg,7-3-2021,0
270,kaylee,kaylee_acton_,,nvm ion wanna jail break 😁,7-3-2021,0
271,Guri,guri__001,,How to jailbreak ios 14.4 in a13,7-3-2021,0
272,etnahC,__say0,,ok but wats ur brawl stars name?,7-3-2021,0
273,nessa,_nessamoreno,,i’ll just put my phone on low power mode 💀,7-3-2021,0
274,she/her,heartsforvalida,,@s1mp_w0lfy mach sonst du tot,23-4-2021,0
275,SamarAli,seem11,,Open Cydia,17-5-2021,0
276,King savvy,bruh_savvy,,What the hell is Cyrus,5-5-2021,0
277,Imabeastboi 1632,imabeastboi,,Can you add my brawl stars 😂😂😂,30-4-2021,0
278,𝓐𝓑𝓞𝓢𝓘®,vn.vk,,"Please, what's the name of the app?🥺🥺",23-3-2021,0
279,Fxck_kenzx,kkenzx1,,@avoidhallie 🙂your welcome,9-3-2021,1
280,Meisha Gallagher,meishagallagher,,too much effort,8-3-2021,0
281,Axel.neff,axel._.nf,,tutorial how to download cydia,8-3-2021,0
282,M,v.rr,,What’s the source,7-3-2021,0
283,danny,imthedirtydann_y,,step one: jailbreak your phone,7-3-2021,0
284,Bean,jaydogger69,,People still jail breaking their phones??,7-3-2021,0
285,.,jgffvbjjg,,how do we get that app🤦🏽‍♀️🤦🏽‍♀️🤦🏽‍♀️this shtty as$ tutorial,6-3-2021,21
286,.,wallpaper__engine,,Please do a videos on how to get it for iOS 14.4,7-3-2021,1
287,kirktoolz01,kirktoolz01,,click on the IG button on my profile and inbox directly for help💯,6-6-2022,0
288,user8417093059379,maticbaker,,Thanks to everyone that recommend WINTOOLZ on Instagram he just help me unlock my iPhone 12 Pro Max .,20-2-2022,0
289,user9274284466637,treyrizzle04,,What does the cydia logo app suppose to look like. Can’t find it,19-3-2021,0
290,Dylan Parikh577,dylanparikh1,,Don’t do this. it fries ur phone,7-3-2021,0
291,Ondrej,ondrej.4,,Fuck offfff🤦‍♂️cydia tutorial???? Fuck,8-3-2021,0
292,Joseluis Zabala,joseluiszabala,,Like if you like not fuck up your phone by downloading cydia😁,14-3-2021,0
293,Gwizlem,gwizlem,,STOP ASKING FOR A TUTORIAL ON HOW TO DOWNLOAD CYDIA HE ALREADY DID IT,1-4-2021,0
294,Simping,theybumsyt,,its fake,15-3-2021,0
295,pedrocantu2005,pedrocantu156,,Is this a scam,14-3-2021,0
296,agnésaren🤨😩,agnesaren,,@stellaamc0 du ser jätte jobbigt🤦🏼‍♀️,8-3-2021,0
297,tmo.17_,tmo.17_,,FAKE!!!!!,7-3-2021,0
298,🥷,ism__49,,Il faut jailbreak son téléphone et ca c nul,7-3-2021,0
299,Eiril,31r1l,,Tf i dont understand,7-3-2021,0
300,Roro,roro_ryt,,Fake,7-3-2021,0
301,osc_dhn,osc_dhn,,Bon c’est nul sa marche pas,7-3-2021,1
302,𝙇𝙞𝙯 🤍 .,its.liz.10,,isn’t jail break nad for your phone? someone please tell me bc im confused. ppl are saying yes and no,13-3-2021,0
303,Shush,gkxurose,,why rd do i keep getting iPhones vids I don't have a shitty iphone,9-3-2021,0
304,𝕸𝖆𝖙𝖍𝖎𝖘🫀,mathis.bnc,,Pour ceux qui veulent l’installer tapez cydiafree.com et après allez dans profil dans paramètres général,7-3-2021,1
305,hannah🧎‍♀️,h4nnahenriquez,,I’m sorry but people like you annoy me a lot,14-3-2021,0
306,Dominicanhonda,dominicanhonda,,Slow tf down,13-3-2021,0
307,Bobbi mckenzie🏳️‍🌈,bobbimckenziee01,,You need to pay for it,8-3-2021,0
308,Carlota,carlotanovoo,,Hacker?,8-3-2021,1
309,hisfirstlady,luuvkii,,Can you do a downgrade on tikok ?,7-3-2021,0
310,bortotommy,bortotommy,,A Tweak for buy coins for free in evergreen game ???? 😍,6-3-2021,1
311,Cam Mills,cammersmills,,Step 1 - Jail break your phone 🤠,6-3-2021,1
312,Скамер,antixrist01,,You know tweak for Brawl Stars?,30-6-2021,0
313,Jonsy🏴󠁧󠁢󠁷󠁬󠁳󠁿🐑,officialethanjones,,Jailbreaking is illegal,25-4-2021,0
314,opiumbitetonight,opiumbitetonight,,damn nvm. not tryna jailbreak mah shit,21-3-2021,0
315,spike_thebeardie,spike_thebeardie0,,Wtf is Curia,20-3-2021,0
316,JulianM618,julianm618,,When I search that up all I see is hacker stuff,15-3-2021,0
317,Gabe,sticky_blunt,,"to get cydia you need to jailbreak, the only jailbreak working LATELY has been checkra1n which is only on mac and linux",12-3-2021,0
318,ᵕ̈ ITS KYLIE BITCH💨🍃 ᵕ̈,hey..its..potato..head,,Ok so u show open the white one and then u open the brown one are u an idiot,12-3-2021,0
319,Briony Lewis,x_briony__lew_x,,Cuida isn’t good it jailbreaks ur phone,9-3-2021,0
320,Chris502🇬🇹,chris_04.g,,How tf can I install that app ? Can someone explain me please ? 🥺🥺🥺🥺,9-3-2021,0
321,valerie,houlevalerie,,thats sus af,9-3-2021,0
322,I dont know why are you asking,peopelannoyme,,And of course it requires an app with a subscription,9-3-2021,0
323,archyah,archyah1,,"DONT DO IT, it jail breaks ur phone which makes so apps un useable",9-3-2021,0
324,sadhbh’s.spams🫥,spam.sadhbh,,Cydia doesn’t come up for me,8-3-2021,0
325,Shoots_Editz08,jreddevil_16,,Don’t do it everyone once you do it the only way you can get it is by contributing money so it’s a scam,7-3-2021,1
326,𝓬𝓪𝓽𝓮,caterinaalivi,,Oh shit you have to pay for it,7-3-2021,0
327,🧸𝒟𝒶𝓂𝒶𝓇𝒾🌙,dzmri,,Unfollowing,14-3-2021,0
328,Ein Mensch,_itsz_oe_,,@itsmephlipp_,6-3-2021,2
329,_alizee🇵🇹🇪🇸,_alizee2,,@kakashi.76_ @lyylouu08,6-3-2021,1
330,naruto👱🏻‍♂️,sasuke_itachiuchia,,@veronika_xyz,7-3-2021,1
331,tabea,snitschned,,@katharina.meusburger,7-3-2021,1
332,malin🫶🏼,malinfrustol,,@wfrossenfiskeline,8-3-2021,1
333,Noelli 🧚🏻‍♀️,noellislife,,@charly_sonnenberg_,8-3-2021,0
334,✨🦋Leandra🦋✨,leandra.xm,,@lysk2008,7-3-2021,0
335,Asli🤍,asl11520,,@juicymausi,7-3-2021,0
336,Lᴇɴɪ?¿,favcapr1corn,,@lena_567a,7-3-2021,1
337,pew pew,24finiq,,@hoffbrd,7-3-2021,1
338,🎀 𝓕𝓵𝓸́𝓻𝓪 🎀,florensziaaa,,@__alexx69,7-3-2021,0
339,Chiara,nxw.chiara,,@emilyliebtgian,7-3-2021,0
340,2115,ju.tynkaa,,@xluniax2010 @nikolletta09 @xywa.pjoter.srupkins,7-3-2021,0
341,✠♛𝕿𝖆𝖗𝖊𝖐☣︎𝕶.𝕴.𝖅♛✠ ✠♛𝕿,gmxplayer132,,Lasst die Finger von nem Jailbreak wenn ihr nicht wisst was ihr da tut weil ich seh schon viele wollen aber kapieren nicht wie so was funktioniert.,18-5-2022,0
342,.,brkdjs,,@loresaa_01,7-3-2021,2
343,❥𝐿,_beyza.66_,,@www.nisan.de,7-3-2021,1
344,juliana💞.,juliana.babyy,,@meghanb21,6-3-2021,1
345,Ur favourite Gemini 😉,tannaz13871,,@tara_z11,7-3-2021,1
346,🎀 𝓕𝓵𝓸́𝓻𝓪 🎀,florensziaaa,,@petramajercsak,7-3-2021,1
347,n a t a l k a,natalia.zarembaa,,@999moon.11.1 @xxbodzia_xx,6-3-2021,1
348,Zwola Nakaa,zwolanakaa1,,@masnogank007,6-3-2021,1
349,Courtney,lilttlecourt16,,@michelee107,6-3-2021,1
350,Anaïs,a.anaisl,,@5.....points,7-3-2021,2
351,Roselyn,divacuproz,,@druglord73,6-3-2021,1
352,ner,idontusethisaccountlol79,,@naeve.r @cyberm0l1,7-3-2021,2
353,Hi :),mads.0841,,@shannon_flagg14,7-3-2021,1
354,pau,paulinechevalier_,,@valentine.chvlr,6-3-2021,1
355,eviemnr,eviemnr,,@angel.bsrd,6-3-2021,1
356,nati😃,duszek1232,,@zosia.stepaniuk,7-3-2021,1
357,Anniss♡︎,anniscigarroa,,@funwithamberly3,7-3-2021,1
358,🔫,.brtdz,,@tanie.narkotyki,6-3-2021,2
359,hannah 💘,hbeyer8,,@kgorton2,7-3-2021,1
360,𝓞𝓵𝓪ꨄ,1704xv,,@xyzhyb,6-3-2021,1
361,Minecraft,minecraft..net,,@clarky._.boy24,6-3-2021,1
362,🎀 𝓕𝓵𝓸́𝓻𝓪 🎀,florensziaaa,,@__hannah.15__,6-3-2021,1
363,ella,ellafosterrr,,@averagehoee,7-3-2021,1
364,Kylian Prevel,kylianprevel,,@ganaache,7-3-2021,1
365,𝖲𝗈𝗉𝗁𝗂𝖺,_anonym.girl_13,,@_riverdale_fp_13_,14-11-2021,0
366,shitpost...josefine,shitpost...josefine,,@mia_mikkelsen_,26-8-2021,0
367,Moaz Elawa,_moazelawa_,,@mohamedelawa4,25-6-2021,0
368,londynnn_5,londynnn_5,,@jadawilturner,7-6-2021,0
369,💎,naleya_sherwaniii,,@razo.malikm,13-5-2021,0
370,Mason Tomlinson52,masontomo1,,@faithellis.x,30-4-2021,0
371,Айгалек,vygerm,,@publiccbutter,25-4-2021,0
372,𝐒.✨,s.slhi,,@serdjana19,10-4-2021,0
373,Abby,avril_bauzon,,@lorin_data07,5-4-2021,0
374,Grrrrr,strawberrywig,,@charles_hott,24-3-2021,0
375,Jaydenpaz,jaydenpaz_,,@f.a.r.t.e.d,22-3-2021,0
376,faith.buttersxo,faith.buttersxo,,@lexy_lewis_xo,21-3-2021,0
377,Luna,lunaaa747,,@cool_girl5927,20-3-2021,0
378,user467890,iamaliceperini,,@annasalva_15,19-3-2021,0
379,user467890,iamaliceperini,,@angelicarav,19-3-2021,0
380,Jo_23052005,jo.23005,,@luisa.ptrs,17-3-2021,0
381,🥀Marcus Uchiha ♠️,_uchiha231,,@0vonny0,15-3-2021,0
382,.,lolitssjeii_,,@therealmyha,15-3-2021,1
383,❤️‍🔥,iamjasmyne._,,@maya__.mya,15-3-2021,0
384,luke siwinski,lukesiwinski,,@cadenhuston1,15-3-2021,0
385,abby🥳🤑🥰,abbyleftwich,,@valerie.araujoo,14-3-2021,0
386,lexi bass,lexibass04,,@thereal_broussard,14-3-2021,1
387,bellagersh,bellagersh,,@hriannabowell,14-3-2021,0
388,summerrr🙈,oooooo.111,,@bugaboo.kitty.editz,14-3-2021,0
389,laurenn,laurenxwelsh,,@sofia_scigiel,14-3-2021,0
390,rubi <3,l0ve.rubi,,@urdadspimple,14-3-2021,0
391,kyla,kylamhmm,,@rcky.flames,14-3-2021,1
392,Hi 🫶🏽,w1nterduh,,@iluvyoutink @uh_heylol @t5ina,13-3-2021,0
393,QueenC,its.riirii__,,@,13-3-2021,0
394,QueenC,its.riirii__,,@@,13-3-2021,0
395,talia,talia_mobley,,@.sheylajohnson,13-3-2021,0
396,olibia,oliviadeforge,,@alexandrapelletier_,13-3-2021,0
397,alex1708,akex1708,,@sif_enevoldsen,13-3-2021,0
398,Ashley Bernhardt,_ashley.bernhardt_,,@joel_plows,12-3-2021,0
399,mel,mel.upfield,,@caitlinbensley05,12-3-2021,1
400,Eva ❥,evaachild,,@avaa.cp,12-3-2021,0
401,🤍,janea_rogers,,@samantha_ralston8,12-3-2021,0
402,Lacy enthusiast 🫡,theassarchives,,@ameli.o247,12-3-2021,1
403,jayda,3jayda3,,@g3tfukd,11-3-2021,0
404,_singharmaan_,iam_armaan23,,@_mohamed.aboueissa,11-3-2021,0
405,Lilly’s very private,lilspriv.account,,@lolalenoir.x,10-3-2021,0
406,chlo🫶🏼,_chloegodfrey,,@_emilybrierley_,10-3-2021,1
407,𝗱𝘂𝗰𝗸𝘆❤︎,du6ky,,@its.rileybear,9-3-2021,0
408,matilda :),tildamatilda09,,@eljcoolj,9-3-2021,0
409,💋,cleaning_cooking.1,,@s.a.m.a.n.t.h.x,9-3-2021,1
410,ells,ellaaaa421,,@crisiant19,9-3-2021,1
411,Lilia <3,lilia.freeman,,@ayrasetty,9-3-2021,0
412,hannah:),user6381027461819,,@sophie.12348,9-3-2021,0
413,Macyyy😵‍💫,macyb_x,,@mairead_07,9-3-2021,0
414,Jess,jess6772_,,@yo_gal_jess,9-3-2021,0
415,🤍,clohb1,,@taylamaix01,9-3-2021,0
416,Ellis Vamplew,ellis.vamplew,,@phoebe.sutherland,9-3-2021,1
417,Daisy👈😝,c0minnasock,,@xx.amyleigh.xx,9-3-2021,0
418,☻,czyzykowska,,@napiorkowska_,9-3-2021,0
419,jodi x,jodihaley,,@alyshahaleyy,9-3-2021,0
420,Lauren,xx_lauren_xx1,,@ashleighmclellanxo,8-3-2021,0
421,kayla x,u.s.e.r..333,,@xox.ashleigh.xox13,8-3-2021,0
422,.,diamondxox19,,@m1.12z_,8-3-2021,0
423,iris,user2228542731,,@_catherine_x,8-3-2021,0
424,.,itsaeliyah,,@@xpaula.cxx,8-3-2021,0
425,annaadem,anna_demm,,@okdude.lol,8-3-2021,1
426,miriam,mirijury,,@elena.huslr,8-3-2021,0
427,...mairi...,jj200514,,@yoshi27042,8-3-2021,0
428,Matilda,matilda.sclz,,@tinihxx,8-3-2021,1
429,AJ 💯,aj_14_aj,,@alana_03x,8-3-2021,0
430,T,tia_23xx,,@amelia_xo1,8-3-2021,0
431,Marie__,_.mm_rr_ii_ee,,@alex_74_agy,8-3-2021,0
432,Vasia,vasilikh.srk,,@joanna.s20,8-3-2021,0
433,~je rend~ 🧁🥰,la_fille329,,@moi_1650,8-3-2021,0
434,Karoline,karoline.h.k,,@sadvshappy3,8-3-2021,0
435,Carmen💕,carmen_32198,,@real._mimmi,8-3-2021,0
436,ëłšå,elsadfrt,,@r.loris,8-3-2021,0
437,Camylle Dubois,camylledubois,,@elisa.evrard,8-3-2021,1
438,sa,sara.fanone,,@pampina_scema08,8-3-2021,0
439,Liv Holm,livholm,,@laurademuth,8-3-2021,0
440,Nora-Marie,nora.thn,,@c01012003bb,8-3-2021,0
441,Vincent Desjardins,vincentdesjardins27,,@leo.bujold,8-3-2021,1
442,celia💎,cel.lyaa,,@morgane.733,8-3-2021,0
443,Megan Timmons,boutchoumeg,,@_.11h11_,8-3-2021,0
444,Nathan.1005,nathan.1005,,@emthequeen22,7-3-2021,0
445,Hassen,yasser63730,,@abu_joud.963,7-3-2021,0
446,Kate Cuddihy ❤️❤️,katexcuddihy,,@keeva_x0x0,7-3-2021,1
447,Seremuchacha,sese_stephan,,@gorkma8,7-3-2021,0
448,Emma Battini,emma_battini,,@altanasaralou,7-3-2021,0
449,ᒍOᒪIᑎᗩ⚡️,jolina.srz,,@s6med,7-3-2021,0
450,Ana-Maria Lorena,anamarialorena0,,@cristiana_557,7-3-2021,0
451,mayaa,maya.jhl,,@nora.vdl,7-3-2021,0
452,🤎,leyla.6_,,@laah_gitana,7-3-2021,0
453,user1430709781994,reftiago,,@margot__dns3,7-3-2021,0
454,Eda,eda.tkm,,@luv.bug.elii,7-3-2021,1
455,skooooooT,sko.t.nis,,@_usel._,7-3-2021,0
456,Jarne Vandoren,jarnevandoren,,@elinevandoren @amber.vandoren,7-3-2021,0
457,Lana ✨,fournel.lana,,@afournel.47,7-3-2021,1
458,.,user6263672722,,@celialovecarti,7-3-2021,1
459,Dimitra 🦋,dimitraa0102,,@mayanese_ @stella.20.02,7-3-2021,0
460,b e c c a 😟<3,beccaaaa.__,,@anonymous_ginger2,7-3-2021,0
461,clo<3,majoisclothilde,,@sach_clo,7-3-2021,0
462,Klara,jagarklara,,@idaedelsvard,7-3-2021,0
463,ola,xolisiaaa,,@ta.jasne,7-3-2021,0
464,<3,lena_kucz,,@zofalmao,7-3-2021,0
465,Anastasia,anastasia.flp,,@leyth_jlrt,7-3-2021,0
466,Miri,04.miri,,@_emmii.xx_,7-3-2021,0
467,Killyane Bouras,kdrssssdhs.dz,,@my_name_is_no_ @xiaoyaksha,7-3-2021,0
468,Nobody,bruhyourmad,,@domka242,7-3-2021,0
469,𝒿𝒶𝓃𝓃𝒶🥀,janna_nmyr,,@karolinagazdecka,7-3-2021,0
470,S.alicja°,ast0dulska17,,@idzikowskaaa,7-3-2021,0
471,𝑀𝑉 👸🏽,maceyvince.x,,@._lola_x,7-3-2021,0
472,riana,riana10120,,@jennifer20.06,7-3-2021,1
473,kirstin❤️‍🔥,kirstinturnerr,,@sarahmartynxo,7-3-2021,1
474,shahzad,shahzadjahans,,@shaniaheyvaert,7-3-2021,0
475,Isaiah🤎,denisgirlfriend,,Yea no,6-3-2021,0
476,Average Star Wars enjoyer💪,same_2019,,Do please best wallpapers for iphones. Btw i have a Iphone se 2016😅😅,6-3-2021,0
477,Anni,anni.zth,,@leni.brdt,6-3-2021,0
478,Mazarrk,mazarrk,,Cydia,6-3-2021,0
479,Aurora,iaiamamu,,@martimartimartmarti,6-3-2021,0
480,catarinaシ,catymmartins,,@iris.mateus,6-3-2021,0
481,Jessica Fraley,jessica._.blondie24,,@rylie_burton14,6-3-2021,0
482,Σοφ Καϊτατζή,dyke_it_out_,,I don’t trust this shit,6-3-2021,0
483,Mj,mj_975,,@kadie_tabor,6-3-2021,0
484,abby x,abbywebberr,,@idontknowman230 ok don’t do it,6-3-2021,0
485,Prettyluh_i.z.a,prettyluh_i.z.a,,Where do you find that app??,6-3-2021,0
486,Asking for skins on csgo,cs8goks,,How to install cydia,6-3-2021,0
487,𝑱𝒂𝒔𝒎𝒊𝒏𝒆,lavish_jazzy,,Not y’all asking how to download a app,6-3-2021,0
488,Elina,frtz.elina,,Whats the App Name Again? I ganz Rind the App,6-3-2021,0
489,¿?,itsyaboyw1ll,,@immstonks,6-3-2021,0
490,Mj the “spy”,mjj34444,,@marslolliez,6-3-2021,0
491,Per Jonny,jacob08__0,,How to download cydia,6-3-2021,0
492,Aina🌼,_aiiiinaa_,,@reeychel_,6-3-2021,0
493,👾,qtxywe,,@juxste.moi03,6-3-2021,0
494,✞,killl4a,,@yocellen nvm,6-3-2021,0
495,_kusz,_kusz,,@mvxjv @rejwerska,7-3-2021,0
496,isa,bintollhdf,,@n1vts,7-3-2021,0
497,🦀,artxrosalie,,What it called tho,6-3-2021,0
498,"ⓢⓐⓝⓝⓔ {0,7k}",xxsanne2003xx,,@verahulshof0,7-3-2021,0
499,Andre 🗽,dregloball,,Na that’s mad work just for me to ignore it,7-3-2021,0
500,𝓒𝓱𝓵𝓸𝓮́_𝔁𝓱𝓲𝓶𝓲𝓴𝓸,chloe_x_himiko,,@himiko_anm,6-3-2021,0
501,Nat<3,mimddp,,@,7-3-2021,0
502,Zain Wahid,zainwahid7,,Can you do a tutorial how to download ciyda on iPhone,6-3-2021,0
503,Tiziana Friedli135,tizianafriedli0,,@_leandrafriedli_,7-3-2021,0
504,R U B Y R U I Z 💋,rubymaer15,,Can we see ur Minecraft worlds?!,7-3-2021,0
505,🇲🇦🇵🇱,ethan._uck,,@16eva.57,7-3-2021,0
506,caitlyn,caitlyn1207,,I don’t want to risk it,7-3-2021,0
507,niko,niko87632,,how to get cydia,7-3-2021,0
508,Noah Jones x,noah.1x,,@ellie.spam.x7 wow,7-3-2021,0
509,𝓭𝓪𝓳𝓱,dxjh.txtixnx,,Dont try this its jailbreak and can mess up yo phone,6-3-2021,0
510,louis🤲🏻,louisdpw,,Wie kann ich die App runterladen?,7-3-2021,0
511,Celina,celina23.11,,@mxlx_xy,6-3-2021,0
512,Casey Page 💗,xocaseypage,,@xoalicepickford,6-3-2021,0
513,Follow back🧢,yapisan0,,Do a video how to download cydia,6-3-2021,0
514,marta<3,m.zablockaa,,@bigszlong,6-3-2021,0
515,Mazarrk,mazarrk,,Where tf do I get Curia,6-3-2021,0
516,Keren karsenty,kerenkarsenty_,,@edennn28,6-3-2021,0
517,Mongole2.0😁❤️,mariepou2003,,@mems..101,6-3-2021,0
518,eyk,elifyarenkara,,@mirayogz,6-3-2021,0
519,rock ☆,vxmpriz,,bye asf that’s too much,6-3-2021,0
520,chinya,chinya3011,,@21o7coco,6-3-2021,0
521,Emily,emllyi,,I HAVE 14.4 SO ITS GONNA BR ASS,6-3-2021,0
522,@nicole.wats,nicole.waterss,,you never did a tutorial to get cydia i checked your whole page and theres none,6-3-2021,0
523,.jula_a_,.jula_a_,,@o_voloszka muszę to wypróbować haha,6-3-2021,0
524,Jos,_jos,,Don’t jailbreak unless the warranty on your phone is up. It voids the warranty,6-3-2021,0
525,<3,user975281001,,@britt033_,6-3-2021,0
526,...,_summer.xox1,,Is it even safe,6-3-2021,0
527,Angellina🥵🤍,angellina2206,,how do you get cydia on iphone can’t you do a tutorial on that please,6-3-2021,0
528,Zack,jt8177,,How do you get the app,6-3-2021,0
529,𓆈,_jvliaq,,@julciajoom co to na cydia ja to chceeee ale jakkkk,6-3-2021,0
530,Kira;),kira_fishtorn,,@jess_...420,6-3-2021,0
531,Julia<3,xx.julia_0,,Tutorial on how to download Cydia?,6-3-2021,0
532,janita,janita.moi,,@oonakalliokoski pitäskö,6-3-2021,0
533,Soda pop,sodapop9614,,Lmao you have to jailbreak your phone for cydia 😂😂😂,6-3-2021,0
534,Sherin-Charifa,sherincharifa,,@rxbxcca_snl,7-3-2021,0
535,.,user5315270803160,,@lulbabyneli1,7-3-2021,0
536,xx,x_lily_x34,,@lexiegracerose @lowkey_ellax,6-3-2021,0
537,Bgd ᶠYͧoͨᵏu,bgd275,,"Hi if i am doing that on my iPhone 7,I can call give messages and somethings like that ?",6-3-2021,0
538,Lynnheijnen,lynnheijnen,,App name ?,6-3-2021,0
539,E,alvarado_956,,It’s jailbroken idiots,6-3-2021,0
540,bella ❤️‍🔥,beellaaa.g,,: (,6-3-2021,0
541,aiden3,aidenl03,,I wouldnt do it cuz its kinda a risk for your phone but idk,6-3-2021,0
542,LINOUCHE La pépite,linaorl_06,,@s_a_m2k07,7-3-2021,0
543,Jenny,jenney.lmx,,@prrivatdiesdas,7-3-2021,0
544,Lynnheijnen,lynnheijnen,,Tell me how,6-3-2021,0
545,em,em.hill2,,cydia isn’t even in my appstore,6-3-2021,0
546,Linamelbye,linamelbye_,,@jolunddrugudal,7-3-2021,0
547,natalka,nataliehalouskova,,@_luciechuda_,7-3-2021,0
548,Candice,candicespam13,,@__19h24__,7-3-2021,0
549,Tessa_only,tessa_0nly,,Help,6-3-2021,0
550,Elena Mattiucci,elenamattiucci,,@vincenzonardino0,6-3-2021,0
551,Yofavvirgo💕,yofav_virgogf_,,I looked at ur old videos and nun of them show how to get cydia,6-3-2021,0
552,Cammy,cambam__7708,,Umm I can not find cydia this is a lie,6-3-2021,0
553,Doei,ceny_corn,,@liefs.sophiax ik wil dit met jou doen 😂,6-3-2021,0
554,🎀 𝓕𝓵𝓸́𝓻𝓪 🎀,florensziaaa,,@loretta.87,6-3-2021,0
555,Cammy,cambam__7708,,And I have the Same phone in the video,6-3-2021,0
556,🙅‍♀️🫶.,issabe11a.a,,huh how do you download it,6-3-2021,0
