,Comment Number (ID),Nickname,User @,Comment Text,Time,Likes
1,K4R69M,kareemhoussami,,"Pov: you tried it , doesn’t work",16-4-2021,2319
2,🇽🇰,user17.02.22,,iPhone 11 sagt nein,18-4-2021,79
3,Alex Alphonso,itsalexalphonso,,It didn’t work,16-4-2021,357
4,Lily_dunoff,lilydun08,,doesn’t work for me,16-4-2021,5
5,C E L I N E,celine.gte,,iPhone xr sagt ne,16-4-2021,74
6,Stijn,thundernl,,"GUYS CALM DOWN, HIS PHONE IS JAILBROKEN, HE CAN DO ANYTHING HE WANTS WITH IT!",18-4-2021,1
7,❥,ceydaa.u34,,WARUM GEHTS BEI MIR NICHT.-.,17-4-2021,28
8,Mikayla,mikayla_nelen,,Hi this is the how is this cap 🧢 company how may I help you,18-4-2021,1
9,𝒆𝒎𝒎𝒂 ❥,emmxx.2312,,Hab iphone 12 und es geht net,18-4-2021,3
10,عبود 🌚❤️,abood_unstoppableman1,,Not working 😒🙄,16-4-2021,70
11,T G S O ⚡︎,tgso_5207418,,Settings toturial,16-4-2021,32
12,tuana,albanerin.elvana,,Leute jail brake,16-4-2021,5
13,▫️,honestlydope,,step one jailbreak ur phone,16-4-2021,6
14,Naruto999,naruto99923,,How do I do that,18-4-2021,6
15,a.m1,amamshlga1,,why is not it working?,16-4-2021,9
16,.,az12432,,It’s not working,16-4-2021,26
17,ryan,r6y9,,Welcome to the cap store🧢,16-4-2021,623
18,🧿✰𝓑𝓻𝓪𝓽𝔃✰🧿,bratzz669,,Tutorial ???,16-4-2021,167
19,KAWAKIIS🅿️,rayluvsblakis,,It’s jailbroken 😌,16-4-2021,48
20,Jerry Cuba,jerrycuba,,Jailbreak! Tweak über Cydia,23-4-2021,0
21,Jonny,iw_truckspotter_jonny,,Und wie,20-4-2021,0
22,Black_51719,black_51719,,Fechter nicht 🥺,19-4-2021,0
23,@R,ryanhaditya,,Sini Indo yang gak bisa,17-4-2021,99
24,pucek,kadek_tara,,Pingin banget kalau di dork gak ada warnanya,18-4-2021,5
25,A.,_kestos_,,Cap 🧢,17-4-2021,1
26,ㅤ,f.denhaagggg,,@b.denhaaggg ik die het probeerde🥲,17-4-2021,6
27,Silke Benaets,silkebenaets,,@dagmarknutsx wist gij dit ?,18-4-2021,2
28,Bogdan™️,bogdantm1,,@flaviustl ce teaca mi am luat,18-4-2021,1
29,Resleting,resletingg,,Yg langsung nyobain tapi gabisa?,18-4-2021,44
30,Fn sweats,kai_and_rose,,It doesn't work,25-4-2021,20
31,𝓨𝓸𝓼𝓮𝓵𝓲𝓷 🫶🏼,la_guera903,,I’m over here trying and it doesn’t even work,13-5-2021,11
32,Buell,x_buell67,,What is the source for Cydia ?,2-5-2021,9
33,Nathan_dvcx,nathan_dvcx,,iPhone 11 ca marche pas,29-4-2021,6
34,Nes,theycallmeagnesh,,Kenapa gabisa anjir,18-4-2021,6
35,Divid3r,voltrex_fn,,Welcome to cap 🧢 store,23-4-2021,5
36,F,jry72,,Apakah kita orang indo dibodohin?,20-4-2021,5
37,Imaginenotknowingher,tat.one.weirdo,,Does not work ;((,31-3-2022,0
38,ebro633,ebro633,,Tutorial,12-3-2022,0
39,dyue9ow892lt,dyue9ow892lt,,Chi minh voi ban,9-3-2022,0
40,Skye,2skye8,,How do you do that,27-2-2022,0
41,Amy,amy_whelan02,,It doesn’t work,3-2-2022,0
42,emre2021_tik,style_1.tiktok,,It doesn’t work,3-1-2022,0
43,Eva😑❤️😜🖤,evazermenopena,,Me tapping my screen for 30 minutes 😂😂,29-11-2021,0
44,Baddia_baka_masen,yourmomxxn,,It jailbroken iphone,21-11-2021,0
45,dokotasroch,godkid897,,I mean cop,13-11-2021,0
46,Kishor Paneru,kishorpaneru,,love this song.. 🥰🥰 song title plz..,11-11-2021,0
47,miachavez7589,miachavez7589,,Cap 🧢,17-10-2021,0
48,Liad.U,liadu48,,Dint work,15-8-2021,0
49,jimena🥀,jimena_c7336,,Cap,8-8-2021,0
50,kayla the Queen 👸 😍,newt123456,,Cap 🧢,5-8-2021,0
51,C3zAR,itzz_c3zar5527,,Nope,4-8-2021,0
52,Marcela,....mar00,,WHAT PHONE DO U HAVE!!!,4-8-2021,0
53,Bernadette 🦋,iambernadette89,,How,10-7-2021,0
54,𝒁𝒂𝒓𝒆𝒆𝒏♥︎,zareennasimi,,I can’t work,6-7-2021,0
55,Bian,dino_minion23,,Auto nyobain tapi ga bisa😅,5-7-2021,0
56,Thọ Trương,ductho994,,IOS ?,29-6-2021,0
57,Cardo_ 乂 𝐉𝐀𝐖𝐀𝐒𝐎𝐅𝐓°,cardo_iwan123,,STEP BY STEP????????????????😈,25-6-2021,0
58,Raawwr,abuy229,,Gak bisaaa,23-6-2021,0
59,meron,meron.co,,niceeee,23-6-2021,0
60,Lhiberty Salino,lhibertysalino,,Not working🥺,22-6-2021,0
61,Shantal,shantal07222,,Doesn’t work🥺,20-6-2021,0
62,𝖓𝖚𝖗𝖚𝖑,nsjunaidi_,,tdk berkesan pun.,19-6-2021,0
63,ANH HEO 🇻🇳,anhheotv,,Lại jaibreak à 😂,18-6-2021,0
64,Mohamad Firdaus,pidutrojeh,,How to brighten the North,17-6-2021,0
65,C,lilihadi02,,Berkali kali aku tap hp ku ngga bisa😂,17-6-2021,0
66,Reine Santos Javier,reine.javier,,Did’nt work on my phone,16-6-2021,0
67,Rinna | Rins.Oily🍃,rinnaas_,,Ga bisa nehhh,16-6-2021,0
68,Cah pati,ronipraditaca,,Aq coba kok gk bisa,14-6-2021,0
69,Alice_rblx,kawaii_berrymilk,,How did you do that?,10-6-2021,0
70,.,jayden__white,,cydia source??,8-6-2021,0
71,Janad!,luv.janadi,,Bro I was so excited too,4-6-2021,0
72,Shit acc,sexwt,,Repo??,4-6-2021,0
73,b,bravinthb,,NAME,4-6-2021,0
74,rares,rares.mj,,his phone is jail broke. cmon,2-6-2021,0
75,kevinkggraves,kevinkggraves,,What a joke !,1-6-2021,0
76,🦋Erisa’s Aesthetics 🦋,erisas.aesthetics,,I tried it on 12pro max and it doesn’t work,30-5-2021,0
77,.guccigang27,.guccigang27,,Didn’t work . Tsk,30-5-2021,0
78,𝙱𝚎𝚕𝚕𝚊💕,luv.x.charli17,,POV: u tried it and it doesn’t work,30-5-2021,0
79,CentruxTV Show,0x.txm.x0,,iPhone 11 pro says no :((,29-5-2021,0
80,Mai Trachoo,maitrachoo,,ลูกตาผมหายอีกละ จกตาเก่ง😂,26-5-2021,0
81,Bhend,sdng_insecure,,Gabisa🥺,23-5-2021,0
82,Ainiii 🐝,ainislleh,,woww,22-5-2021,0
83,blushingboutiqueph,rx.pharmacist,,Just listen to the music and earn money LEGIT 💯❤️Click the link in my bio to earn money online 💯❤️,18-5-2021,0
84,Lilly Laredo,lillylaredo3,,How Domingo that to change my color?,17-5-2021,0
85,Jen O'Neal,jmoneal78,,Doesn’t work,17-5-2021,0
86,Mia,mnfoodi,,Fancy,17-5-2021,0
87,𝔸𝕞𝕣𝕚𝕥 𝔹𝕂,amrit2460345535180,,Didn’t work 😬,17-5-2021,0
88,Ashley Wells,ashley_wells93,,It doesn’t even work lmfao,17-5-2021,0
89,Launah,launah.grace,,When you have the 6s🤡🤡🤣🤣🤣,17-5-2021,0
90,Shantavia,spoileddolly,,I have the 12 and it doesn’t work,17-5-2021,0
91,Welcome to my crazy life💙💙💙,ashleyeckert6,,I tried it didn’t work,17-5-2021,0
92,Samantha Hamby,samantha_hamby,,I have the 12 doesn’t work,17-5-2021,0
93,angie mary,angiieemaryy,,That don’t work,17-5-2021,0
94,Shunda Underwood,pandadragon1,,That don’t work,17-5-2021,0
95,Kaden,exotic_clan602,,It’s not working,17-5-2021,0
96,Amber Glaze,amberglaze2,,I tried that it didn’t work,17-5-2021,0
97,Ｉｍ ｏｋ ｒｉｇｈｔ?,swerxz_,,Nobody knows about jailbreak huh,16-5-2021,0
98,Byyaol,houstondavo,,Cap,16-5-2021,0
99,His Baby,lovemycop,,It doesn’t work on the iPhone 11 apparently,16-5-2021,0
100,Jaylin 🥹,qweenjaylin,,This Is cap 🥱,16-5-2021,0
101,Miss_queen_585,miss_queen_585,,Doesn’t work,16-5-2021,0
102,Matteo_Vanhie,matteo_vanhie9,,Pls,16-5-2021,0
103,Matteo_Vanhie,matteo_vanhie9,,Tutorial?,16-5-2021,0
104,Deleted!!,ladyyjasziituh,,It says Jailbreak,16-5-2021,0
105,jimmyneutron,jimmyneutron008,,Jailbreak?,16-5-2021,0
106,🥀h a n t u B R O K E N🍂,hantubroken,,"Sy ketuk2 lbih dr 5x dh,xleh pon😅",16-5-2021,0
107,Bbyraaa_,nurshafiraa_,,Kenapa xr tkleh,16-5-2021,0
108,Shawna-Nichole Y. Escala,shawnanicholey.es,,It’s jailbroken that’s why,16-5-2021,0
109,Tasha,stitch_angel_1996,,How u do that 😱😱😱,16-5-2021,0
110,Crimson Cabrona,cheryladeleon68,,Didn’t work,16-5-2021,0
111,PinayinEgypt🇵🇭🇰🇪🌻🦩,jamchui06,,Didnt work😳,16-5-2021,0
112,Betty,bettypiercey897,,Not working,16-5-2021,0
113,Annabelle,ahg_2006,,That’s bs,16-5-2021,0
114,TripleCheese,syamzneikko,,lipakkkk,16-5-2021,0
115,Yung Nellz,yungsavynellz,,Dnt werkk,15-5-2021,0
116,||💗𝙵𝚊𝚒𝚛𝚢💗||,kieyourgf,,App?,15-5-2021,0
117,𝖈𝖍𝖆𝖗𝖗𝖆𝖊,charrae_moreno,,i cant and i even got the iphone 11,15-5-2021,0
118,not_ kaylee,urfav_kaylee1,,It does not work 🥺🥺,15-5-2021,0
119,Pleas🍃💕,th3yadore_.pleasure,,don’t work,15-5-2021,0
120,talia,doyouwantsomeholywater,,you have to jailbreak your phone i think,15-5-2021,0
121,Mayra,nailsxalebella,,didnt work,14-5-2021,0
122,kristinarobert500,kristinarobert500,,Doesn’t work on 12pro,14-5-2021,0
123,VICTORIA HARRELL,harrellvictoria16,,It don’t work,14-5-2021,0
124,Mrs.Havatove,rodricana_5,,I have iphone 11 and it doesn't work 🥺,14-5-2021,0
125,Aubrey,peaceaub1,,Doesn't work,14-5-2021,0
126,Maddie Murphy,tomhollandlover747,,Doesn’t work for me,14-5-2021,0
127,Bellaboo’smommy,tishinaraehansen,,Doesn’t work go figure,14-5-2021,0
128,Selfi queen Jess,selfiqueenjess03,,I think we need to do the new update,14-5-2021,0
129,Lilibet,elizzyann,,Don’t work lol,14-5-2021,0
130,tana,tana454521,,What mine don’t do that,14-5-2021,0
131,James Doud,doudjames18,,Says jailbreak too so,14-5-2021,0
132,Catya,ms_brownskin210,,Didn't work,14-5-2021,0
133,Andrea Steines,boss.mom12,,Doesn’t work,14-5-2021,0
134,Leah,benlifils,,It doesn’t work,14-5-2021,0
135,Olivia K Smith,user8606515775150,,it don’t work,14-5-2021,0
136,Kelsey Williams,kelseywilliams09,,I have the 12 and can’t do it,14-5-2021,0
137,mistin81,mistin81,,It didn’t work,14-5-2021,0
138,T.a.l.i.y.a.h_110,blueberrymuffins28,,It’s 🧢 it doesn’t work,14-5-2021,0
139,Sierra.Rose🌹,sierra.rose.18,,Cuz it’s for the 12 🙄,14-5-2021,0
140,Bella,bellaminina23,,How to change the color of ur dock,14-5-2021,0
141,Kim Memmer,mamma_memmer,,Not working,13-5-2021,0
142,Kenzie Marie🥶,kenzzxmxriiee,,"Doesn’t work for the 12, I tried it",13-5-2021,0
143,DragonRain,flyerfan60,,Don’t work,13-5-2021,0
144,❤️MING-LING CARTEL💙,meilingcartel21,,Doesn’t work 🙄,13-5-2021,0
145,❤️✨Addison✨❤️,addison002,,How did you do that,13-5-2021,0
146,sarahelzbth23,sarahelzbth,,Doesn’t work for me.,13-5-2021,0
147,Melo 🛸🕺🛸🛸🐐,theyluv.melooo,,Cap i tried,13-5-2021,0
148,Dime,cutie._.latiya,,That is a lie it do not work,13-5-2021,0
149,McKinleystites,mckinleystites12,,It’s don’t work,13-5-2021,0
150,Madison🌿,madison1653,,I tried it and it didn’t change😂,13-5-2021,0
151,Amy,amybarnish,,Have 12 pro max. Does not work,13-5-2021,0
152,DET,detdet900,,REPORT DOESNT WORK!,13-5-2021,0
153,Kareena Naidu,kareena_j_naidu,,Didn’t work,13-5-2021,0
154,Sha Hanafi 💞,shafiqahanafi20_,,Mcm mana nk buat mcm ni,13-5-2021,0
155,🇦🇺,haydennnnnn.gc,,Doesn’t work,13-5-2021,0
156,bruhhhh2nd_accountttt,its_ya_boi_treagan_08,,it’s called jail break,13-5-2021,0
157,baileychu8,baileychu8,,Cap,13-5-2021,0
158,Brynlee Mosher,brynlee_58,,You are literally using keynote nice try cap 🧢,13-5-2021,0
159,Von&lisey,vonnlisey,,Tutorial,13-5-2021,0
160,𝐽 𝐴 𝑍 𝑍 𝑌 ❥꧂,lavishh_jazz.y,,Free caps here 🧢🎓🎩👒,13-5-2021,0
161,Muhammed,clash.studio787,,Same,13-5-2021,0
162,𝙰𝚄𝙱𝚁𝙴𝚈🍋💕,a.u.b.r.3.y11,,Cappp,13-5-2021,1
163,…..,504.yasser,,Cap,13-5-2021,0
164,brandon,littleversatile,,how,13-5-2021,0
165,Cooper Stafford,coopdog20201,,agree,13-5-2021,0
166,Four doors more hoes,_fourdoorsmorehoes_,,How iam supposed to do this thing pls tell me,13-5-2021,0
167,Thought.u.blocked.me,thought.u.blockedme,,It didn’t work,13-5-2021,0
168,Bonnie,bonniek20,,Don’t work I got the 12,12-5-2021,0
169,Reyhan Savero,ryhnsavero_69,,enggak bisa 😂,11-5-2021,0
170,🅰️ 𝓡𝐤𝓪,szxark,,G bisa njir😌,10-5-2021,0
171,Perumahan Tasikmalaya,cecep.mulyana,,Lakh hese teu bisa uy,9-5-2021,0
172,Ra🌻,illyou7,,Ip se gak bisa njer,8-5-2021,1
173,TALHA,talha_khaan7,,Not Working 😬,7-5-2021,0
174,꧁☘︎︎𝓬𝓪𝓱☘︎︎꧂,eycahhhh_6,,didnt work,6-5-2021,0
175,k_kormendy19,k_kormend19,,Tutorial for iphone 7 and 6s,6-5-2021,0
176,FaiziSatar,faizi_satar,,jb,6-5-2021,0
177,okuk71,okuk71,,it didnt work for my iphone 12,5-5-2021,0
178,Hoang Anh Do,hoanganhdo54,,Cap,4-5-2021,0
179,Derick Hall,fortniteguy_20,,CAP,4-5-2021,0
180,ewn.co,ewn.co__,,lol xr not working ?,4-5-2021,0
181,『 V͜͡INA 』 〆,chrischua9003,,It’s only for jailbreak guyss 😌,3-5-2021,0
182,charlie_fan_page411,charlie_fan_page411,,I tried that and it didn’t work 😳,2-5-2021,0
183,∞︎︎𝑨𝒏𝒈𝒆𝒍∞︎︎,pty....angel,,Cap,30-4-2021,0
184,Big dev 78,devon_78,,That’s cap it don’t work at all I tried it like 5 times,30-4-2021,0
185,𝖬𝖺𝗅𝖺𝗂𝗄𝖺<𝟥𝟥,https.malaika,,Aww it didn’t work for me,30-4-2021,0
186,mega•mind😼,fw.ninaaaaaaaaa,,Bro it don’t work,30-4-2021,0
187,mackenzie.crawford-d,mackenzie.crawford20,,How do you do that,30-4-2021,0
188,jordan 🕸,_smp.dream.xx,,tutorial?,30-4-2021,0
189,James / Jamie pape,james.9991,,Cap,30-4-2021,0
190,Bust down Rollie avalanche,kasen.norris,,Cap,30-4-2021,0
191,Kashp63,kashp63atyourmomhouse,,It is not working,30-4-2021,0
192,〽️Curly Hair Kid 🧑🏻‍🦱 ,a_nik_star3,,How tutorial pls🥰🥰,30-4-2021,0
193,✨Me.✨,guus_jansen_nmgn,,Welke app,30-4-2021,0
194,Тейлор Джонс,tajcg2024,,Can you do this on a iPhone SE,29-4-2021,0
195,F1stealthy,f1stealthy,,You tought🤡,29-4-2021,0
196,Kerem,kerem.630,,Howwwwwwwwwww,29-4-2021,0
197,Jarzon,jarzon1,,You have to jailbreak your phone,29-4-2021,0
198,Coop748,cooper_fellen,,Cap,29-4-2021,0
199,Ben Dover,riky_102,,Is it just me or do none of his tutorials work,29-4-2021,0
200,happykaur450,happykaur450,,It’s not working I use I phone 11 pro mix,29-4-2021,0
201,user8741607398633,gagak.hitam11,,Harey kena scam bulan posa ni,29-4-2021,0
202,Ñicøłë Wiłłïämš,india_w112,,It’s didn’t work 🥺,28-4-2021,0
203,JiMBO,jimbooo06,,aku tertipu di bulan puasa .,28-4-2021,3
204,Chelsea Ngalai,chelseangalai,,iphone 12 pro mAx tak boleh mcm mana setting,28-4-2021,0
205,Tre,nawfsidebaby713,,Mines work,28-4-2021,0
206,PRESHY,lolfunnyweird,,Cap 🧢,28-4-2021,0
207,user668107,dragonwomen88,,It didn’t work for me I have the IPhone XS,28-4-2021,0
208,☕️Kopiii_Ngabrett☕️,secangkir__kopi,,yessss teu bisa 😮‍💨,28-4-2021,1
209,🇮🇶Sivana🇮🇶,itss.sivana,,Ne,27-4-2021,0
210,Cooper Hochhalter❤️,that406chick,,It done even work for the 12 pro max,26-4-2021,0
211,Lilly Romero,mathesonlilly21,,I didn’t work and I have a iPhone 8 Plus,26-4-2021,0
212,spuggie,vvvjessica,,The hashtags literally say jail broken lol,26-4-2021,0
213,Badgirldurty. 💋💋💋,annallawson,,Does it work on a iPhone 12 and I tried to do it and it Didn’t do it,26-4-2021,2
214,💜미란다 가르시아💜,sweetmiri07,,Nor even,26-4-2021,1
215,Sam Wegrzyn,samwegrzyn0,,Cap,25-4-2021,0
216,Dana Marie,dana_marie_,,it don’t work,25-4-2021,0
217,<3,m.maddiieeann,,I have the same phone and it didn’t work .,25-4-2021,0
218,Melo👽,melo.prvtttt,,How,25-4-2021,0
219,thoughtsofjake,jakeinpain,,cap,25-4-2021,2
220,Diana,__dianaa__5,,@_demi_avalos how,25-4-2021,0
221,Fife,fife5972,,Nope don’t work,25-4-2021,0
222,Capri Evans,redram86,,Yah this didn’t work I’m thinking an app,25-4-2021,0
223,Badassbitch,badassdragon100,,Just tried it doesn’t work 😒,25-4-2021,0
224,🦋✨BrittnayAnn✨🦋,brittnayyy04,,Doesn’t work an I have the iPhone 12 max pro 😑,25-4-2021,0
225,Tamera Smith,tamerasmith0,,Don’t work,25-4-2021,0
226,Nobody loves me 🖤🖤,tommacdonald_fannnn97,,Doesn’t work,25-4-2021,0
227,Nicole Kalbes,nicolekalbes,,It don’t work and I have the 11,25-4-2021,0
228,suhaan,soupsoupsu,,IM DONE WITH ALL THESE COMMENTS SAYING THIS IS CAP! THIS IS CLEARLY A JAILBROKEN PHONE AND HE DOWNLOADED THAT APP THINGY,25-4-2021,0
229,MGMC,middlegeorgiamudcrew,,Is there a jailbreak for iOS 14.4.2,25-4-2021,0
230,Karson,karson1314,,I have an iPhone 8 you can’t change the color of the dock,25-4-2021,0
231,𝔸𝕝𝕖𝕩 𝕞𝕒𝕣𝕜𝕖𝕝,alexmarkel30,,It’s jailbroken,25-4-2021,0
232,Becca Lynn,becy_lynn123,,Doesn’t work for the 11,25-4-2021,0
233,Lizzie‼️🧿,..lizzie3,,Doesn’t work,25-4-2021,0
234,jovana,theyluvvjovy,,@anja.570 uh it didn’t work,25-4-2021,1
235,🥰Ma’Lijah💙....,drippy_malijah,,How do that,25-4-2021,0
236,𝑸𝒖𝒆𝒆𝒏 𝑩𝒓𝒊𝒕𝒕𝒏𝒂𝒚,queenbrittnay1990,,What iPhone is this for.,25-4-2021,0
237,Daniella,danigirlishot18,,How can I do this,25-4-2021,0
238,Daniella,danigirlishot18,,How can I get,25-4-2021,0
239,Alycia gabriel,gabrielalycia1979,,Doesn’t work for the 12 pro max,24-4-2021,0
240,Alexis Herreman,alexisherreman,,It didn’t work,24-4-2021,0
241,Stacie Lynn,stacielynn71,,Doesn’t work,24-4-2021,0
242,🐬Abby🦋,abbyroxs2000,,Where do I go to do that,24-4-2021,0
243,🤍Tay🤍,privatelife_talynn,,How you do that???,24-4-2021,0
244,❤️ Johnnie Hostetler ❤️,johnnierochelle,,DOESNT work,24-4-2021,0
245,Jon,jon19832,,Didn’t work,24-4-2021,0
246,jessicalynnwinters.1,jessicalynnwinter2,,I can’t get mine to do that how u do it,24-4-2021,0
247,Mark A. Patton,tnbearchub,,I have a 12 pro Max and it's not working,24-4-2021,0
248,Natty,fidget101_dancer,,CAPP,24-4-2021,0
249,Montaque Tacneaux,montaquetacneaux0,,lit can’t wait getting new iPhone 10,24-4-2021,0
250,Desil,desil_king,,How do you do it,24-4-2021,0
251,lol,shxadow..clonejutsu,,How,24-4-2021,0
252,Go Oilers Go,wtxz6,,no thanks,24-4-2021,0
253,.,instinctiverygirl,,Don’t work for me,24-4-2021,3
254,Daniella,danigirlishot18,,How can I do that,24-4-2021,0
255,sophia,sophia_bitxh_21,,I have 12 pro Max tell me how do that?,24-4-2021,0
256,JASMINE🌷🎨🎧🎲📸🌷,jannel78,,I have iPhone 11 mine not work,24-4-2021,0
257,Tyler Warren,tyler_warren,,Capp,24-4-2021,0
258,Ricky,ricky.rm,,It doesn’t work,24-4-2021,0
259,Mei Gilgen,meimei.x,,Doesn’t work on 11,24-4-2021,0
260,.,ftp.ari8,,cap store,24-4-2021,0
261,Anahi,gisselerodas,,I got an iphone 12 and its not working-,24-4-2021,0
262,user4199784091600,mall_yoda5,,Didn’t work on my 11,24-4-2021,0
263,Brandon,brandon_chaka_boy,,It’s cap,24-4-2021,0
264,Maricel Marie,wildflower4088,,I try it didn’t work,24-4-2021,0
265,°•inez•°,inezbarr_88,,🤣🤣🤣not me trying it,24-4-2021,0
266,Nickee,tradeeemistakes,,Half of this comment section is clueless,24-4-2021,0
267,ᡕᠵ᠊ᡃ່࡚ࠢ࠘ ⸝່ࠡࠣ᠊߯᠆ࠣ࠘ᡁࠣ࠘᠊᠊ࠢ࠘~~~~♡,zerotheidiot404,,Capp🧢,24-4-2021,0
268,Gabby Paciotti,gabbypaciotti1,,what phone can do that ?? I got the iPhone 11,24-4-2021,0
269,Flukes,flukes77,,Doesn’t work,24-4-2021,0
270,user7148979665633,sml619,,Doesn’t work! LIES!!!!!,24-4-2021,0
271,Lalu Sartini,campinglife_crazycamper,,tutorial please 🥰,24-4-2021,0
272,Gromek life,dawid.gromek7,,It dose not work,24-4-2021,0
273,Yes Sirrr Sirrr,yessirrrsirrr,,the name of the repo or name of the tweak,23-4-2021,4
274,Renada McGeorge,renadamcgeorge,,It’s not working on the 10,23-4-2021,0
275,🔫()-()🔫,tosterix,,Fale,23-4-2021,0
276,lulu,petitgameuryt_off,,Appli,23-4-2021,1
277,Pyaje Phyo Linn12,pyaephyolinn35,,I can’t,23-4-2021,0
278,john7220223,john7220223,,Not working,23-4-2021,0
279,_.evakord._,evakordali,,@mr.apple.gr δώσε μας τα φώτα σου😅,23-4-2021,0
280,ÃĽÝ§HÃ ĎÁÝ,alyshaday28,,How do u do that,23-4-2021,0
281,Beba,bebachris,,Dont work,23-4-2021,0
282,amandavos73,butterflyluv08,,I tried it doesn’t work,23-4-2021,0
283,Cb clan,crossbone5674,,Cap,23-4-2021,0
284,Gucci Tiger 🐅,vortexnation213,,Doesn't work on iphone 12😬,23-4-2021,0
285,𝕃𝔻ℍ 𝔹𝕆𝕐ℤ,imarunravi,,JAILBROKE😂,23-4-2021,0
286,madi,madi_jazzy,,Mine didn’t work,23-4-2021,0
287,erika,eeerikab81,,It didn’t do it,23-4-2021,0
288,🦅Khalil Achakzai🦅,khalil_achakzai001,,My phone didn’t work 🥺,22-4-2021,0
289,IOxliess,ioxliess,,Welcome to cap store 🧢 20$,22-4-2021,0
290,Military_contetnt_105,military_content154,,Cap,22-4-2021,0
291,Hailey,cutiepies1997,,How can u do it ??,22-4-2021,0
292,Kyaw Gyi,kyawkyi890,,Jailbroken,22-4-2021,0
293,user2083556258798,i_play_hockey11,,Why is this cap,22-4-2021,0
294,Mohammad Shahiran639,shxrnnxsr,,Jailbreak bruhh,22-4-2021,0
295,O L U W A P E L U M I,ms_pelumiii,,It doesn’t work for 11 pro max,22-4-2021,0
296,O L U W A P E L U M I,ms_pelumiii,,It didn’t work,22-4-2021,0
297,iTzyaboy_GG,itzyaboy_gg,,How did you do that 😳?,22-4-2021,2
298,❤️🧸🌸✨🌈,vvki25_cutay,,Cap,22-4-2021,0
299,Watcharapong Tapthon,watcharapongtapth,,เครื่องมัน เจล,22-4-2021,0
300,Lio,.goofylio,,Wait is that the iPhone 13,22-4-2021,0
301,JUSTIN ❤️🥰😳💕,justincaca0,,Cap,22-4-2021,0
302,Larissa,southerngirl108,,Can you do this on a iPhone 7,21-4-2021,0
303,kenangan manis,calontongg,,Sini argentina yang gabisa,21-4-2021,1
304,King Jamarion,kingjamarion2,,Not working,21-4-2021,0
305,niezam,khairulnzm02,,sembanh,21-4-2021,0
306,Lan Anh,lananh.huynh,,Need to notice : Only for iphone jailbreak,21-4-2021,0
307,April mae Tanedo,aprilmaetanedo4,,How?? Not working iP xr 😅,21-4-2021,0
308,Hen-Hen,hends_wenxing,,Itu IOS jailbreak kali makanya sebagian orang belum bisa,21-4-2021,0
309,NamTran19,namtran190497,,Sao tao không làm được,21-4-2021,0
310,គង់ រត្តនះ៚,gourmetproject2,,11 bro max Can you change it?,21-4-2021,0
311,John Richardson,babeyoda34,,So can you tell me how to do this plz NOW,21-4-2021,0
312,mackayla🪴,totallynotmackaylalol,,Cap,21-4-2021,0
313,𝑁𝑦𝑦...🖤.,nhylaaaa8,,The cap,21-4-2021,0
314,꠹ꪮꫀ ꪶꪖ᥇ꪊ,joelabuu1,,android?,21-4-2021,0
315,𝖘𝖍𝖎,shiiyourbae,,G sabi,20-4-2021,0
316,Hamizan👱🏼,haziq401,,Asal aku tak boleh,20-4-2021,0
317,Vũ Thống Nè,vuthongne,,11 Pro Max?,20-4-2021,0
318,Vany🦀,anmntvny7,,Knapa gw gabisa njir,20-4-2021,0
319,e,yesthisislucas1,,I want to answer the video please 🙏,20-4-2021,0
320,Dtn.jakob,dtn.jakob,,Tutorial on how to jailbreak your phone? Kinda pointless showing us stuff we can’t do just saying bro,20-4-2021,0
321,Panca Oklanda,panca_oklanda,,Ga bisaaaa,20-4-2021,0
322,Fitri Indriani,keponyaindri,,Not working,19-4-2021,0
323,justmine,justmine48,,for what?,19-4-2021,0
324,Ardiann,ardianhsn_,,Gbisa njir xs max,19-4-2021,0
325,Otokae,otokae,,jailbreak,19-4-2021,0
326,𝙀𝙓𝘾 ✘ 𝙕 𝙀 𝙏 𝙎 𝙐 ツ 🇲🇾,_zetsuml,,Its work only 12 pro 🧢,19-4-2021,0
327,Queen 🐻,queen_ny69,,ทำไม่ได้🥺🥺,19-4-2021,0
328,gabrianadityaonyyy,adityaonyyy,,xr gabisa kah?,19-4-2021,0
329,Danang Dwi,danangurclown,,jailbreak ?,19-4-2021,0
330,Léana 🎠,leana_vrpe,,Ça marche pas,19-4-2021,0
331,Aku.yy,syantikkkk.yy,,Kok gak bisa ya,19-4-2021,0
332,༞☠︎Pr3tty𝐥𝐮𝐡-𝐧𝐚𝐝𝐢𝐚𝐡🧿,n.a.d.i.a.h.1,,It isn’t working,19-4-2021,0
333,no one,acaso228,,Non funziona,19-4-2021,0
334,محمد,azrnjmi,,Pokewak goreng,18-4-2021,0
335,Ehh Harry Lahh,abang_lejen46,,hmmm tk ley XR,18-4-2021,0
336,bella,bellasappier,,lmaoo why did i actually try this 😭,18-4-2021,0
337,PewMax,bimasyhptr,,hoax,18-4-2021,0
338,syedamirullll.__,syedamirullll._,,iPhone X tak bole ke ?,18-4-2021,0
339,I M 4 A,kerlaofficial,,tutorial,18-4-2021,0
340,Ini Ilham,ilhammm123,,Jailbreak only yah guys,18-4-2021,0
341,Zmrslsbl,zamiraslsbl,,Gbisa anjer,18-4-2021,3
342,Pinpen Lapitan,pinpenlapitan,,You have to jailbrake your iphone,18-4-2021,0
343,kikiuu🪸,unofficialkeey,,gabisa euy🥲,18-4-2021,1
344,Netizen,netizenplus_62,,JAILBROKEN😂,18-4-2021,3
345,Dedi Efendi,anakpetanimanis,,Ngi bisa njir,18-4-2021,0
346,🤘🏽🌀⚡️⭐️🌊💝🍭🤣🌸🪸🛼🐬🍑,supersussygiada,,It doesn’t work,18-4-2021,0
347,fazrul,fazrulygy,,look more android,18-4-2021,0
348,Calon Ayah,rudityadika,,androit,18-4-2021,0
349,🛼🫧💭,senj4icah,,tokleh pun abe🥲,18-4-2021,0
350,asia,la_massiotta,,NON VA,18-4-2021,0
351,💚,28cristian_,,Aplication?,18-4-2021,0
352,Michelle_Benjamin_Aesthetics,mbaesthetics22,,doesn’t work,18-4-2021,0
353,Tudung Letups,ashhannas,,Jailbreak🥰,18-4-2021,0
354,user2849335102525,user59200244,,Does not work,18-4-2021,0
355,MAE,08eam,,How,17-6-2021,0
356,Sivan.Farhad,sivan.farhad,,Very nice,19-4-2021,0
357,Sadplace,lakkerjy,,How,1-5-2021,0
358,Encik Xkenal,encik_97,,So easy,22-5-2021,1
359,MtShukoqq,mtshukoq,,I doesn’t work,16-5-2021,0
360,Gian Gian,giancarlo888,,Doesn’t work,4-5-2021,0
361,Dynamo,sabundynamo_157,,How,3-5-2021,0
362,Kavin Haran,kavinharan0,,It didn’t work,23-4-2021,0
363,renamcewen,rinamcewan,,How do u do that,23-4-2021,0
364,Someone👾,s.omeone11,,iPhone 12 ? Pro ? Max ? Or iPhone 13 ??? Y’all till me,22-4-2021,3
365,IlamsWifey,his.wife8,,It doesnt work,21-4-2021,0
366,♾🤍🖤𝓨𝓸𝓾𝓼𝓲𝓯🖤🤍♾,yousifysb,,Tutorial pls,16-4-2021,21
367,1.ch8,ch897hl,,Hey bro can you unlock icloud?,17-4-2021,3
368,Herikperez,h_perez2001,,Cap,16-8-2021,0
369,Oxoxox,_aku.aku2,,Cannot for my iphone,4-7-2021,0
370,⠀ ⠀ ⠀ ⠀ ⠀ ⠀ ⠀ ⠀ ⠀ ⠀,v7feril,,The Name,23-6-2021,1
371,QuânLH,quannguyen7787,,T ấn thụt cả màn hình vẫn chưa đc là sao,19-6-2021,1
372,dallas,notdallassliva,,*me fiercely tapping my dock*,6-6-2021,0
373,user binod chitrakar 17,user5638798325956,,I can try bt its not working on my phone i have a 12prow max brow,29-5-2021,0
374,W0lli,w0lliisfunny,,Ppl dont understand thst u have a jailbreak phone,17-5-2021,0
375,kak joh,kak_joh,,12pro max here n it didn't work 😏,16-5-2021,0
376,🥰Ma’Lijah💙....,drippy_malijah,,How jailbreak it,25-4-2021,0
377,Adfyjbvh,sgjkloutv.26,,Sao Việt Nam k làm đc nhỉ🇻🇳🇻🇳🇻🇳,21-4-2021,0
378,De la Cruz,owen13325,,CAp,21-4-2021,0
379,𝐓𝐮ấ𝐧 𝐁𝐢ê𝐧 - BG 🥀🌺☘️,bienbacgiang_95,,Ae Việt Nam! T sẽ đến sớm thôi 😌,20-4-2021,0
380,ToMi,tomi_juztomi,,Iphone12pro max doesn’t work too bro ..,18-4-2021,0
381,MaNap92,simanap92,,Tutorial please,16-5-2021,0
382,🛸,boywrlddd,,"S T O P , T H E , C A P",19-4-2021,0
383,Udaiveer Balhan,temporary233,,It’s a jailbreak tweak that’s how he can do it,17-4-2021,1
384,emre2021_tik,style_1.tiktok,,If you could help me do it I would like,3-1-2022,0
385,dokotasroch,godkid897,,I mean cap,13-11-2021,0
386,dokotasroch,godkid897,,That’s cab,13-11-2021,0
387,☁︎︎ᗩᗴᔕTᕼᗴTIᑕ☁︎︎,aestheticweirdsomeone17,,Not working,7-11-2021,0
388,Josh,_joshresnick,,cappp,17-5-2021,0
389,King,kingvasquez30,,Tutorial please,16-5-2021,0
390,🥔🥔🥔chips🥔🥔🥔,potatochips740,,A tutorial plsss,1-5-2021,0
391,🥔🥔🥔chips🥔🥔🥔,potatochips740,,Can you do it in a iPad 😳😁🥰,1-5-2021,0
392,Nawaitu Sambogo,sumimalaysia1,,jailbrake,20-4-2021,0
393,ZZ⬜️⬛️⬜️,zzk176,,Antat ahh kauuu😏,19-6-2021,0
394,shad/broke heart💔🔫,lostshad,,cap,18-10-2021,0
395,user8137195969401,user8137195969401,,How u did that send me the app,29-4-2021,0
396,Raymon Li,raymonli,,Fake,8-1-2022,0
397,ＹＯ,christabria24,,Sialan nipu😂😂,28-6-2021,0
398,GiL More,gilmore2186,,Fake,22-6-2021,0
399,cyborgkuro10,cyborgkuro10,,Wkwkkw jailbreak,19-6-2021,0
400,krisSharpness,krissharp29,,Mwesit...,13-6-2021,0
401,૮₍´˶• ᴥ •˶`₎ა,firdlnn,,Not funny,16-5-2021,0
402,Hazelnut latte,ftnifzln,,Scammm,16-5-2021,0
403,MΛƧ_Ⱥղ,mas_an_,,nggabisa anjng😌,16-5-2021,0
404,Ddar,apo19750719,,This fake iphone. Hahaha,16-5-2021,0
405,@am1n😍,jit_trippinglookingahh,,Fake,16-5-2021,0
406,🫀.,4ll4ur4,,I feel stupid now,14-5-2021,0
407,RobloxianChampionAndjay😆,thehottestboyyoueversee,,Fake,14-5-2021,0
408,Gabby,gabriella.707,,LIES,13-5-2021,0
409,Adimereview,adimereview,,Liar,11-5-2021,0
410,Mr__parteek,mr__parteek2,,Fake all 😏,4-5-2021,0
411,Rodrigo Arias,rodrigoarias987,,This is all fake don’t try it,30-4-2021,1
412,🥊,buklejunior,,Fake,29-4-2021,0
413,Ik,jurrexzxz11,,Fake,29-4-2021,0
414,cabe_rr,cabe_rr,,Tff bro that is 🧢,29-4-2021,0
415,Yla,ylawhatever,,Scam,28-4-2021,0
416,Starsfornightliights,starsfornightliights1,,Cap asf,28-4-2021,0
417,Tom Götz,_tom_2006,,Fake kaka,26-4-2021,0
418,user1994527464571,bigbaby179,,Liessssds,25-4-2021,0
419,alirammaaaa,alirammaaaa,,Lies,24-4-2021,0
420,Fanny ¿,_vsxfannyy,,kapp asfff🧢.,24-4-2021,0
421,Kyle Pioletti,kylepioletti,,Lies,24-4-2021,0
422,Monique Gonzlaes,moniquegonzlaes,,Ok stop messing with us n tell us how u did it please,24-4-2021,0
423,Anthe_30,ante_30,,Fake,23-4-2021,1
424,🔫()-()🔫,tosterix,,Fake,23-4-2021,0
425,Renner Richard,ricsifiu_,,Fake,22-4-2021,0
426,Shin Thant Nari,scarlettstn,,Scam,22-4-2021,0
427,Joseph,oonlights0,,Fake,21-4-2021,0
428,uɐun⅄ツ,sugarflytrans,,Ternyata jailbreak😂,20-4-2021,0
429,Knz,knzoo7,,Jailbreak ini mah,19-4-2021,0
430,Bartek_154,bartektoziomal2,,Fake,19-4-2021,0
431,✝️,brian_fury14,,Stoppp lieingggggg,18-4-2021,1
432,Adem,il.blixem,,Fake,18-4-2021,0
433,💖JULLAN💖,brunetten_linnea1,,Fake,18-4-2021,0
434,Jessica M Kent,jessicamkent,,Don’t wrk,16-5-2021,0
435,⭐️,internet.serlii,,It don’t wrk,29-4-2021,0
436,CHEY CHEYtv,cheycheytv5,,CAPPPPP.COM,25-4-2021,0
437,KWoods33,woodsk_32,,Don’t work for iPhone 8 Plus I’m over here tapping like a dummy,24-4-2021,0
438,gethin 🖕🏽,gethin0811,,FAKEEEEEEEE,9-6-2021,0
439,ᴊᴜɴɢᴋᴏᴏᴋ_ғᴏʀᴇᴠᴇʀ😉,___aashma__,,This hacks fake😏😏,7-6-2021,0
440,uh.lauren,uh.laurenp,,I think its for ppl w/o a hoke button,16-5-2021,0
441,Dms,lisa_.nimo,,That’s weird 🤦🏾‍♀️,16-5-2021,0
442,Steve,deadalltime,,Load of crap don’t work,14-5-2021,0
443,daniel yanev,danielyanev6,,idiot name of the app in cydia,2-5-2021,0
444,Melanie,melaniemelop,,How can I do that on my phone,25-4-2021,0
445,da yoda,generalrevo,,Doesnt work,21-4-2021,0
446,nplays.,.stupidt,,What’s the tweak name,19-6-2021,0
447,Владимир,b.g_volodya,,Name of tweak?,9-6-2021,0
448,Hi,x_kxkx,,"That shit,s cap",26-5-2021,0
449,🐐,ric2valid_,,Bullshit,23-5-2021,0
450,jaz,weeeeeee009,,bro u talk shit it don’t work,16-5-2021,0
451,ñø,b1g0h3ad,,what kind of iphone u got my shit don’t do that,14-5-2021,0
452,Lulmaemae24,lulmaemae24,,That shit DOESNT work stop the mf cap,14-5-2021,0
453,stop stalking for my name,savagequeen041019,,I’ve tried it already and it looks so dumb on my end,13-5-2021,0
454,Jose 😄,j_pineda.2007,,Is dockolor tweak?,6-5-2021,0
455,Bae Heła,baehela,,Tweak name plz?,29-4-2021,0
456,Badgirldurty. 💋💋💋,annallawson,,Can this work on a iPhone 12,26-4-2021,0
457,Marie Rosario,marierosario61,,This shit don’t work it fake,25-4-2021,0
458,user5791466074530,mommy2amia,,bs shit dont work,25-4-2021,0
459,cored,odie1974,,This is such bullshit,24-4-2021,0
460,🥷,thxm.trt,,What is the tweak calledv,22-4-2021,0
461,Account disabled,gh0st._.lol,,NAME OF TWEAK FOR CYDIQ PLEASE IM BEGGINY UOUU PLESSS,22-4-2021,0
462,Zaid Tariq |زيد طارق,0.f9l,,What’s the tweak name for the gravity on your iPhone plzzz,19-4-2021,0
463,𝓜 𝓪 𝓻 𝓵 𝓮 𝔂⚡️🪶🦆,marley_offical1123,,none of these work the fuge,18-4-2021,0
464,k,adrianpalmieri_,,Imagine trying it and following him,20-4-2021,0
465,Burger 🍔,rosi_diddi,,@clxrx._.mxrie,25-4-2021,1
466,Bojana,s_bojanaa,,@eli_13_11,18-4-2021,1
467,Sophie Rawlings,sophierawlings,,@awh.itz.ellie.xo,18-4-2021,1
468,ffion.booth,ffionboothxox,,@ashleighmale1,18-4-2021,1
469,nikola💕,.justnikola,,@naomisfatshlong @.alexaaa._,17-4-2021,2
470,🤘🏼,kwnaaa.loco,,"✨Welcome To The Capstore✨
🧢-(Standard) 1$
⛑-(Medical Cap) 10$
👒-(Women’s Hat) 35$
🎓-(Graduation Hat) 50$
🎩-(Top hat) 100$",17-4-2021,1
471,🥷🏻༄𝔸.𝕚.𝕣.𝕂.𝕠༄🥷🏻,a.i.r.k.o,,@terresourire,5-4-2022,1
472,Kathleen,kathleenneill02,,🧢🧢🧢,11-3-2022,0
473,Leon Angel Morales,bardi_x213x,,🤔,28-11-2021,0
474,Kaede♡,my_rilakuma,,🧢,8-11-2021,1
475,Molly Wedman 🇬🇪 straight ✊🏻,sammyhughes3560,,😬,7-11-2021,0
476,🚺Hailey Hanses💜,haileyhansen456,,@michael.the.king26,6-8-2021,2
477,dyls9raf481s,dyls9raf481s,,😂😂,3-6-2021,0
478,gina_wke,gina_wke,,@mia.wke,29-5-2021,0
479,🫶Maggie🫶,totally.not_.maggie,,🧢,22-5-2021,0
480,A C H I N G 4 1 1,xyd.ach,,@hellojordan7,17-5-2021,0
481,ffm,maira_ffm,,Geht nicht,16-4-2021,0
482,<3,tbhc_xo,,cap,16-4-2021,0
483,🤍Karis🤍,xoxo_karis1xoxo,,How,16-4-2021,0
484,♡︎ ava ♡︎,avaeggers,,cap,16-4-2021,0
485,Kennedy Lampert,kennedy_lampert,,This is all cap,16-4-2021,0
486,WKvd02🩸,wkvd02,,capppp,16-4-2021,0
487,Cemre 💗🫀,cemrek09_,,I have 11 it doesnt work🥺,16-4-2021,0
488,Truharding xd,kaptajnunderhylder,,fake,16-4-2021,0
489,brokenfactory,brokenfactory,,jailbreak fp,16-4-2021,0
490,dermark209,dermark209,,Funktioniert nicht Schade 😐,16-4-2021,0
491,Potential Diamond,_.potentialdiamond,,It’s don’t work,16-4-2021,0
492,Douwe Van Mechgelen,douwe.vm,,Cap 🧢,16-4-2021,0
493,گیانەکەم کە پێم ناگەی مەوەڕە1k,88uchiha_itachi88,,🧢,16-4-2021,0
494,GRIzzĒR,_grizzer_,,Tutorial pls🥺,16-4-2021,0
495,Advice xxx,tipss_3,,Nooo it’s not working,16-4-2021,0
496,Jah 🥳😚,_.bbygoatt,,It don’t Work !!!,16-4-2021,0
497,ꪊᦔꫝ𝘴ꪮ̈ꫀꪀ𝘳ρ𝓽᥇ጕዕጌዕቿጕቿክጊክዪጌፕፕ,didnekwjw,,Wait I done it will it jail real my thing,16-4-2021,0
498,(:,atx.danaa,,Cap,16-4-2021,0
499,HAHA,_.axnoym,,Geht nicht,16-4-2021,0
500,Richard Walter,rw_neuer,,Fake,16-4-2021,0
501,klejddii_,klejddii_14,,Jailbrake,16-4-2021,0
502,Ο ΜΠΑΜΠΑΣ ΣΑΣ,yo.mike.chill,,@mr.apple.gr jailbreak?,16-4-2021,0
503,Ο ΜΠΑΜΠΑΣ ΣΑΣ,yo.mike.chill,,@mr.apple.gr,16-4-2021,0
504,yoooo,ishitmypantsbro_,,everyone saying it’s cap. His or her phone is jailbroken,16-4-2021,0
505,eda,eda_.tr,,hey is it possible to jailbreak ios 14.4 and if yes could you drop a tutorial please :),16-4-2021,0
506,Venesa🇽🇰🇦🇱,venes_vm1,,Cap,16-4-2021,0
507,K,ks.825,,Welcome To the cap store,16-4-2021,0
508,Kalli,kalli354,,😂,16-4-2021,0
509,👻👻👻👻👻,omiros.k_07,,@mr.apple.gr ????,16-4-2021,0
510,Sam🥶🥶,nle44_2001,,I tried it and it doesn’t work,16-4-2021,0
511,David,david.brln,,Ich versuche das seit,16-4-2021,0
512,fede👩🏽‍💻,aciredeffff,,@__chiara.falleri,16-4-2021,0
513,🦕,user461747389,,IPhone XR sagt nein,16-4-2021,0
514,JMldlm,jm1604_,,Menteur 🤥,16-4-2021,0
515,Bdbd Bssbsb,bdbdbssbsb,,Me: Buying an iPhone XS Max for that and it doesn’t work,16-4-2021,0
516,sziasztokk!!♡︎,_the..mommy_,,FAKE,16-4-2021,0
517,Mug man,mug_man11,,Cap,16-4-2021,0
518,🦋☘️Naomi☘️🦋,_trippyynaomi_,,How???,17-4-2021,0
519,claudiaaaa,awhxclaudiia,,it doesn’t work,17-4-2021,0
520,Yuul_vandendyck_,yuul_vandendyck_,,Iphone x doesnt work,17-4-2021,0
521,leni <3,leni.ist.swaggy,,iPhone 11 sagt nein,16-4-2021,0
522,PsychoPath,ignpsychopathh,,its not working,17-4-2021,0
523,Lala,lala_2_,,https://vm.tiktok.com/ZSJhVNS2D/,17-4-2021,0
524,Lala,lala_2_,,Like,17-4-2021,0
525,Dovilė Koceku,dovilekoceku,,didnt work,17-4-2021,0
526,Doggy the white dog123,thedoggywhite123,,IPHONE ONLY!!!,17-4-2021,0
527,yukiii <3,sim9n0902,,ist fake,17-4-2021,0
528,Cs,mdm8w,,Thats jailbraked iphone 😬,17-4-2021,0
529,Jaydent,jaydeeeeennnnn,,Cap,17-4-2021,0
530,Féline🤍,feline.v.w,,Xs?,17-4-2021,0
531,DinFavorit,dinfavorit_6,,Tweak name?,17-4-2021,0
532,Lilly Mallen,lilmal3,,Not working on 11,17-4-2021,0
533,Stephen Curry' fan 30,tj_tmujin,,tutoroil pls🥺,17-4-2021,0
534,Макс,mila6ka__,,what version ios?,17-4-2021,0
535,Nine Eleven,whitebull31,,Ohne Jailbreak geht garnichts. Sollte man in so einem Video vllt erwähnen,17-4-2021,0
536,Cooper.,heybub.x,,caaapppp,17-4-2021,0
537,Kurdo_Freak,kurdo_freak,,Fake?,17-4-2021,0
538,Zack,darkfate78,,This work for IPad Air 4th gen?,17-4-2021,0
539,Крутой мамонт,onevere,,Jaikbreak in iPhone 10 is good idea ?and I don’t speak English is good,17-4-2021,0
540,Belastingdienst,www.belastingdienst.com,,What’s it called,17-4-2021,0
541,🐰𝓚𝓻𝓲𝓼𝓽𝔂🐰,cwyatt39,,How do you jail brake it,16-4-2021,0
542,Milly Cortinas,seahawkslove2020,,Umm mine didn’t do it!!’n,17-4-2021,0
543,B,its.brandyyyyy,,I didn’t read that right,17-4-2021,0
544,♡︎,sarulllah,,How you do this,17-4-2021,0
545,:),youok.idocare,,Show US pleasss,16-4-2021,0
546,AM 𓅓,4m4nnn,,Bruuhhh it doesn’t work for Xs max😫😫😫😫😫,17-4-2021,0
547,🇦🇱,elizaa.lu,,iphone X sagt nein :(,17-4-2021,0
548,Collin Van Landuyt,collinvanlanduyt,,Fake,16-4-2021,0
549,Zack,darkfate78,,Nvm it do not work,17-4-2021,0
550,Julia♥️😊,deaf_offical_julia,,iPhone 11 funktioniert nicht 🤔,17-4-2021,0
551,Chance Cochennic,chancethelazer,,fake,17-4-2021,0
552,Trent,trent_on_tiktok157347885,,🧢,16-4-2021,0
553,Timmy Santiago,kidnappedmaysa_17,,Compatible for iPhone 6? 😂,17-4-2021,0
554,L!ZZ!E🖤👻🥀,cheeseballs1205,,Yooo can you show me how to do that my guy😭,17-4-2021,0
555,Jing ♫,jingloveyou4,,Hey please reply me I can’t install uncover back pls tell me how to fix iOS 12.5🥺,17-4-2021,0
556,Regamol,regamol,,jailbreak first,17-4-2021,0
557,Miles,miles2x_,,Modddddded,16-4-2021,0
558,Mike Guglielmi,mikeygugs,,Cap,16-4-2021,0
559,حمود 🫶🏼🫶🏼,c.l.d.y,,🧢,16-4-2021,0
560,_zuz_an_ka_,zuzanka_.aaa,,@__jul.cia sprawdź czy u ciebie działa bo u mnie nie,16-4-2021,0
561,🖇,_aasgarli099,,@_youdontknowme13,23-4-2021,0
562,..,user3748193748194,,Mitos.is The Game,16-4-2021,0
563,Siep.Lemonade_,siep.lemonade_,,iPhone 11 sagt nein 😭,16-4-2021,0
564,𝑖𝑛𝑠𝑡𝑎 6DZY 🫶🏼,79_l,,شسم الاداة؟,16-4-2021,0
565,💗💗,jazmine.3417,,How,16-4-2021,0
566,x1,johannabanana44,,Cap,16-4-2021,0
567,Pro.At.App,pro.at.cars,,Cap,16-4-2021,0
568,Ant🏝5️⃣,anthony.luviano,,👎🏾,24-4-2021,0
569,Styll_08,styll_08,,@mr.apple.gr,16-4-2021,0
570,mariabazakou,user92370172638,,@.markellant,18-4-2021,0
571,Katty💪🏽😎,macylaneshepherd,,@🥺,19-4-2021,0
572,μaριοs,marios.vrg,,@mr.apple.gr ?,21-4-2021,0
573,Kevin,not.kevin05,,Cap,16-4-2021,0
574,Shirout20381,shirout20381,,How?,16-4-2021,0
575,Tyra,tyrablue,,Pls tutorial,16-4-2021,0
576,Human Human760,qk_874,,make tutorial!!!,16-4-2021,0
577,Faisal Azizi,faisal_azizi0,,@mudasirsadat,21-4-2021,0
