,Comment Number (ID),Nickname,User @,Comment Text,Time,Likes
1,.,blehh_41,,will u ever DO A TUTORIAL THO??,16-8-2021,
2,.,deaktiviertoki,,tutorial wird nie kommen,1-10-2021,
3,Juls Repo,juls089_official,,"heißt BioProtect, ist ein program das man nur durchs jailbreaken Machen kann :)",5-9-2021,
4,Ibtisaan Ibrahim,ibtisaanibrahim0,,How did you do that please show me🥺🥺🥺🥺🥺🥺🥺🥺,16-10-2021,
5,Caroline,carebeartina,,I got locked into snap DONT TRY THIS,24-10-2021,
6,🌹💋LUNA💋🌹,luna_lee_33,,How do you do that I literally need that 😂,4-10-2021,
7,Going Private at 100k,henry.up,,Nobody can open my apps now 😳😏,14-8-2021,
8,——DXB1,8.8s1_,,DO A FREAKING TUTORIAL!,30-9-2021,
9,ZeyTriick,zeytriick_,,Tweak : A-shield on Cydia,14-8-2021,
10,user939163,samsanw123456,,TUTORIAL PLSSSSSSS,22-9-2021,
11,<3,arcillya_0,,@athea9791 😳 this,20-10-2021,
12,Tiegame,tiegame.s,,How,24-10-2021,
13,EeHH128,eehh128,,Jailbreak an alle die Fragen,24-9-2021,
14,Anonymous,anonymous2.097,,PLS TUTORIAL IM BEGGIN U 🥺🥺,15-8-2021,
15,Ethan,ethangreenbob,,I need this,15-8-2021,
16,Vickie Nguyen❤️❤️,xx_sparklecake,,Did it,15-8-2021,
17,;,randomprofile112,,after jailbreaking can i update my iphone safely?,2-9-2021,
18,Laxce115,laxce115,,Part 2 plz,15-8-2021,
19,tony,tony_jer,,you never do a tetoreal,16-8-2021,
20,I like joe,joemamaintheback3,,Help tell me,15-8-2021,
21,ayishwa,ayishwa.ndr,,Was ist jailbreak,16-8-2021,
22,ꫝﺃ,idkfelicity._,,TUT,16-8-2021,
23,Lorenzo,lorenzovanderleeuw,,Wanneer tutorial,30-9-2021,
24,Yanis,yaniso9395,,Tuto🥺🥺🥺,15-8-2021,
25,Lilly,leylagashi09,,How,15-8-2021,
26,Polo maike sudas,minkilas,,its easy,14-8-2021,
27,Jaceiiiii,jace6600,,Jailbreak of course,15-8-2021,
28,lola_pry,lola_hcd64,,Tuto,15-8-2021,
29,I love me and I love you❤️,mimzyleahiqiquq,,You never do part two!!!!!,15-8-2021,
30,Elizabeth,e_robinson947,,And how do i do his,15-8-2021,
31,🫶🏻,fregleyirl,,anyone know how to do this w android?,15-8-2021,
32,Mohmmed12 Al_Nassar,mohmmed12al_nassar,,How do you do,12-11-2021,
33,̷̧̟̭̺͕̜̦̔̏̊̍ͧ͊́̚̕͞,.svenne,,What jailbreak tool should i use? I got an iphone 11,30-9-2021,
34,Estcool,estcool_,,sur Xiaomi aussi même avec l'empreinte id ou un code,15-8-2021,
35,Klier,klierdev,,"Ur iphone needs to be jailbroken, if u have an iphone xr/xs or newer and above ios 14.3 its at the time not possible",30-9-2021,
36,The wok,suiii596,,Tutorial pls 🥺,16-10-2021,
37,Univers_Snake,snakee_972,,you can jealbreak your iPhone under iOS 14.7.1,15-8-2021,
38,𝒟,dilruba42,,@_kader075 dit wil ikkkk,10-9-2021,
39,leongjyrevci8,l...xoeon,,Tutorial pls,15-8-2021,
40,Mr_ ducky,shadowball7371,,Not breathing till tutorial 🤐,22-9-2021,
41,JokeVR,jokevr_,,Tag me in the video thay explains how I do that,15-8-2021,
42,Brods48,brods48,,He won’t do a tutorial tho,26-9-2021,
43,ewron,dawidiscoolinroblox,,HOW,15-8-2021,
44,Ranjot Bhangu🦁,king_perfect92,,Tutorial plz,16-8-2021,
45,ghjiii,mj.ko,,어떻게하죠??ㅠ,15-8-2021,
46,NobIessee,nobiessee1,,How,15-8-2021,
47,OliverOU1,ulset1,,How do I get it😁,15-8-2021,
48,Retro,xretr0x1,,How do I get unc0ver,14-8-2021,
49,Itz_fukin_Will,simply_asixn,,How,15-8-2021,
50,cineva,xboris147,,Pls tutoria🥺,8-10-2021,
51,1 + 1 = 3,marsianeque_perrotatavro,,@papitas_saborjamonproxd pro,14-8-2021,
52,shterionpulakev,shterionpulakev,,Please tutorial,15-8-2021,
53,Mild,pelergulung,,Next tutorial,15-8-2021,
54,𝕍𝕒𝕝𝕝𝕖𝕒𝕞𝕚𝕟𝕖𝕣𝕏𝔻,valleaminerxd,,Jailbreak? XD,1-10-2021,
55,blondin,emmaemmaaaa2,,HOW,14-8-2021,
56,Tai,vackou.vasic,,Tutorial please,15-8-2021,
57,Natalie,butter_cupp2544,,Wow,14-8-2021,
58,amrhassan_713,amrhassan_713,,How,1-10-2021,
59,Roman😜,romanc320,,Howwww,15-8-2021,
60,Justin Thompson,queenjt2022,,How can I do that,15-8-2021,
61,Luke Garrett,lukesgarrett,,I would love that,15-8-2021,
62,Lea,lea..xd14,,I need this 🤌🏼,16-8-2021,
63,SHIBIL IRFAN,shibilirfan0,,How?,14-8-2021,
64,Yeab,yeab_ownes12,,How do you do that,14-8-2021,
65,"RIP X, cuenta muerta…",nicolas37alcantara2,,Tutorial,14-8-2021,
66,little Itachi,littleitachi_,,Pls tell me I really need it,15-8-2021,
67,Adel Bylka,adelbylka42,,J'ai jailbreak d'iOS 14.3 avec mon iPhone 11 🥰,3-9-2021,
68,aleksandar,rodicc_14,,how can i download wallpeper,15-8-2021,
69,ʆḙṽ⑂ᾰԻ,levyar7,,Tutorial here,15-8-2021,
70,🇺🇸 / 🇩🇰 - ^_^,leaniny,,How to bypass: Step 1 Restart IDevice,14-8-2021,
71,.,nicolas_maalouf09,,Jail break😭,14-8-2021,
72,paien.,sempritbakar,,Tutorial pleasee,16-8-2021,
73,Jabin Sleepers,jabin414,,Who would put a lock on camera but not on photos,17-8-2021,
74,Ganbat Aska,askabeasty,,"Once i buy iphone 13 pro , im gonna use my Iphone X specifically for Jailbreak .",14-8-2021,
75,Wally,u_callme_lazeru,,How,16-10-2021,
76,giada💕,_sonogiada._,,tutorial pls,4-5-2022,
77,Chaos_zayn,chaos_zayn,,Tutorial,24-4-2022,
78,💙💎 o.vld 💎💙,o.vld,,How do you do that,21-4-2022,
79,Jhen,jhen.tan,,tutorial,15-4-2022,
80,luw u<3,trqsh.hqhq,,my 2018 android having it-,19-3-2022,
81,Aimanshaikh,aimanshaikh4444,,How plz tell me tutorial,16-3-2022,
82,kittycute053,kittycute053,,How do you do that?😌,13-3-2022,
83,NI’MAAAAA 😋,gwn_nimaaaaa,,TUTORIAl!!!,9-3-2022,
84,Car Videos for WATCHING,boomp35,,How,5-3-2022,
85,G6n1,lyrics_g6n1,,Tutorial plzzzzz🥺🥺🥺,28-2-2022,
86,Hii,respect_offical_10,,How,26-2-2022,
87,—мевину пупок,pupokmewinuu,,TUTORIAAAL,26-2-2022,
88,Ervin Cenbaza,ervincenbaza5,,Titorial,13-2-2022,
89,Datunkownkid_🤞🏽❤️,k..cc__,,Show us how 😭😭😂,9-2-2022,
90,🙂Hi 🥳🍻😂,caitlinv33,,Pls tell us how,23-1-2022,
91,Ragiv Passos,ragivpassos,,Hawkw,23-1-2022,
92,STOPKNOW,stopknow,,How 😭😭😭😤,23-1-2022,
93,Bᴀʙᴀʏᴀɴ👑,itssssurrr____,,Please tutorial 🥺🥺🥺🥺🥺🥺🥺,22-1-2022,
94,flitttyflight,flittty,,Turtorial,21-1-2022,
95,flitttyflight,flittty,,Do the tir,21-1-2022,
96,no,auraz.o,,Ye ikr,21-1-2022,
97,Carl Dela Peña,theflash824,,You keep posting iPhone tricks but your not showing tutorials,21-1-2022,
98,~𝙍𝙖𝙛𝙖𝙮 ❤️‍🔥🔪,idkmaybe_rafay,,Tutorial plsss,21-1-2022,
99,…,.koblavska,,Tutorial 😁😁,19-1-2022,
100,Saifullah.000,saifullah.000,,How to do,18-1-2022,
101,my,ninikoo_2,,Tutorial,17-1-2022,
102,EFO,efo_481,,Where is Tutorial,16-1-2022,
103,Apple User735743646,jader684,,Tutorial please please,16-1-2022,
104,Dr.Zahraa Mazin 🌹,zahraa_.mazin,,How do this ? Please I need know 🥺,16-1-2022,
105,Haiping Wang,haipingwang6,,TUT now pls,14-1-2022,
106,User1010101010,user9274148696,,Please put the tutorial in youtube 😭😭😭😭,13-1-2022,
107,Özkan,ozkanisaev,,Can you do totorial 🥺🥺,11-1-2022,
108,DOBROJEDAJEDOBRO,_dobrojedajedobro_,,HOW😳,11-1-2022,
109,Sam,samr20121,,waneer tutorial,9-1-2022,
110,xboiys,xboiys,,How,8-1-2022,
111,Doctor_loile,dusutay_futbol_,,Tutorıal plsssssssss,2-1-2022,
112,graco :),gracie.millerx,,wattpad users rn:👁👄👁,2-1-2022,
113,💛💛Vivisilva💛💛,colorsvivi,,Tutorial ??,29-12-2021,
114,Mini,fwd_missimperfect,,Where Is Tutorial 👀😏,28-12-2021,
115,amazin gg,user2345716,,how?,27-12-2021,
116,.,user278262527,,ur never going to do a tut are u 🤨?,21-12-2021,
117,Jorge Peralta,jorgeperalta22,,TUTORIIIIAL,15-12-2021,
118,eduardomanquero,eduardomanquero,,How,15-12-2021,
119,Melinda 🦋,melinda.b7,,Tutorial plas 🥺,14-12-2021,
120,是嘉忱呀！（全网互关）,user0208036693,,how how how how,12-12-2021,
121,Chy Niron,stakehacksrokkhmer,,How to place😳,9-12-2021,
122,Free crop,team_sverige_gta_5,,Pls do a tuto,8-12-2021,
123,juliemdorado,juliemdorado,,Tutorial pls,7-12-2021,
124,Vincenzo Cassano,vincenzo_553,,This is a chekra1n jailbreak for the iPhone 10 and older is it?,6-12-2021,
125,Jad Karabach768,mr_mbappe_fan,,I Will do this to my safari,4-12-2021,
126,_.SocialCredit._,_.socialcredit._,,Lock your WHAT 🤨📸,3-12-2021,
127,🔱𝐃𝐚𝐧𝐠 𝐜𝐚 𝐥𝐞𝐦🍭,dangcalem,,@tuanngocday anh ơi,30-11-2021,
128,Ćao,cc8.0,,Plsssss tutorialllllll🥺🥺🥺🥺🥺🥺🥺🥺🥺🥺🥺🥺🥺🥺🥺🥺,27-11-2021,
129,Bruh_Itz_Kiara,shawty_damonswife,,How,23-11-2021,
130,Linaexxn,floverkkolovesfromis,,TUTORIAL PLS🥲,20-11-2021,
131,em,0mg.th3y.k1ll3d.k3nny,,so are we gonna get the tutorial or..,18-11-2021,
132,🌸Mer-yeem🌸,mameya12,,Tuto 🥺🥺🥺🥺,15-11-2021,
133,YHLQMDLG,nicolehs.02,,TUTORIALLLLLLLL,14-11-2021,
134,YHLQMDLG,nicolehs.02,,TUTORIALLLLLLLLLL,14-11-2021,
135,chri._21012_,chri._21012_,,Do the tutorial pls,14-11-2021,
136,boo 👻,medmedbooooooo..floofs0,,He never makes tutorial,14-11-2021,
137,Reagan rose,reaganrose14,,will u ever DO A TUTORIAL THO??,14-11-2021,
138,Hbzhg,hbhzb1,,Tutorial,14-11-2021,
139,Fortnite Pro,fazeclawzyyt,,HOW,14-11-2021,
140,Alessandro,guercio31,,TUTORIALLLLLLLLLLLLLLLLL,14-11-2021,
141,Alessandro,guercio31,,BRO PLS,14-11-2021,
142,Alessandro,guercio31,,TUTORIAAAAAAL,14-11-2021,
143,❤️I…Love…you..3000❤️,nellie080306,,I follow now so Can you show,13-11-2021,
144,appleuser64986890,appleuser64986890,,How?,13-11-2021,
145,Trigo Jaral,trigojaral7,,Fr,13-11-2021,
146,I’m a gay dinosaur 🦖,dragons_dsmp,,DO A TUTORIAL NOWWWWWW WE ALL GETTING MADDDD!!!!!!!!!!!!!!,13-11-2021,
147,………….,estefanyvillarreal95,,Howwww,12-11-2021,
148,✨ A D I L A D E✨,adilades..rqandms,,Tutorial here 𐃸,12-11-2021,
149,trstybaf123,trstybaf123,,How,12-11-2021,
150,Laraya Bibler-Dunn,larayabiblerdunn8,,how where you get this,11-11-2021,
151,The Kevin,thekevin4,,Good I broke my Face ID with some water,11-11-2021,
152,Bryia,princess_bryia,,How,6-11-2021,
153,noor_schaap,zenoemenmenoot,,Plsss tutorial i am gonna follow you🥺,5-11-2021,
154,𝐿𝒾𝓁-𝐵𝑜𝓏𝑜,xxravenripkdx,,Pls tutorial i folowed you,3-11-2021,
155,Scarra Omori,scarra_omori,,Normally i don't do recommendations but #crackytoolz on Instagram is an exception I got my device unlocked successfully,2-11-2021,
156,tripzgamer8,tripzgamer8,,Tutorial?,2-11-2021,
157,🌸Your Emuu😘,it_s_emuu,,Tutorial please bro,2-11-2021,
158,Savage_besties,savage_bestie_edits,,WHEN WILL U EVER DO A TUTORIAL,31-10-2021,
159,Limue69,limue69,,How,31-10-2021,
160,MaskMan,followbacking3second,,i followed tutorial,30-10-2021,
161,user5481855929271,olivialeonard37,,Where is the video,30-10-2021,
162,Andreaaa💕,_14andreaaa_,,Tutorial pls!!,27-10-2021,
163,:),cartof081,,Pls tutorial,26-10-2021,
164,Leomoon,leomoon73,,Tutorial plsss,24-10-2021,
165,No name,i_have_no_name_21,,Tutorial,24-10-2021,
166,Jesseヽ(^o^)丿,jack_games00,,Tutorial pleaseee,24-10-2021,
167,Reihoonkaftari,reihoonkaftari,,ok how😐,23-10-2021,
168,veronika,veronika.thesupercoolkid,,IM NOT BREATHING TILL A TUTORIAL BC ITS BEEN SO LONG,22-10-2021,
169,gachx_x,gachx_x,,Tuto,20-10-2021,
170,ვა ჩე,n1mrgoofy,,Plis tutorial 🥰🥰,19-10-2021,
171,m,mrvyav,,Pls make a tutorial 🥺.!,18-10-2021,
172,zeyno,xay.no,,you will never do a tutorial do you? do it now please,18-10-2021,
173,Hunter Shadows,huntershadows,,tutorial please,18-10-2021,
174,Jazlynn,jaz_0522,,Tutorial plz,17-10-2021,
175,🦋,random.girl894,,TUTORIAL PLEASE!!🥺😫😫,17-10-2021,
176,♡︎Ryttare♡︎,galen_manniska,,How???,17-10-2021,
177,seleneramirez0119,seleneramirez0119,,DO IT,17-10-2021,
178,My honeydolles,chinesefood85,,Can we get the tutorial like where can we see the tutorials,16-10-2021,
179,andreigrecu77,andreigrecu7777,,How can I do this can you show me pls,16-10-2021,
180,😮🖤🙄,..kileyidc.0,,How,16-10-2021,
181,...,sot_92,,TUT plzzz,16-10-2021,
182,whatlizsays,whatlizsays,,Jow,15-10-2021,
183,𝙻𝚎𝚊-𝙼𝚒𝚗𝚊,leaminapetersen,,Where’s tutorial,15-10-2021,
184,ANIME POWER,robert_nolimits,,tutorial plss,15-10-2021,
185,BjNicopior12,bjnicopior12,,How,15-10-2021,
186,🥀𝔻.𝕙𝕒𝕟𝕤𝕖𝕟🥀,bare.dani_,,Tutorial,14-10-2021,
187,😋,m.ar._ii,,‘N,12-10-2021,
188,L.F.C,lfc.darwin,,It’s jailbreak,11-10-2021,
189,Romy Romytje van Poucke,romytjevp,,Tutorial ??????,10-10-2021,
190,🌚,xfucktherestx,,how😭😭😭,4-10-2021,
191,Samuel Sammut,saminamine2,,Can you do the tutorial,3-10-2021,
192,jskekc,jskekc10,,how can i do tht can u tell me,3-10-2021,
193,𝑎𝑙𝑖𝑠𝑠𝑎’,officialissa_,,Please Make a Tutorial!!!,3-10-2021,
194,Qurbani,itsmammad1,,How plz?,2-10-2021,
195,editingacounts,editingacounts,,Pliiiizzzzzz titoriallllllllllllll,2-10-2021,
196,Andreas,__.zaxarias.__,,@mr.apple.gr βοηθά 😳😳,1-10-2021,
197,🌴✨,chivsambeek,,@tijmenravesteijn ishsis,1-10-2021,
198,Mariam,mariiam.mahmoudd,,how,1-10-2021,
199,🇦🇱Ziggeboy🇧🇦,sabah_gusani,,App name ?,1-10-2021,
200,user7238158987666,kevinkevinoke,,Tutorial please,1-10-2021,
201,Am.,llambll,,Where is the tutorial?,1-10-2021,
202,𝘔𝘦𝘴𝘴𝘪👑,leomessi7bd,,Please turorial,1-10-2021,
203,Minou,user.reem.18,,how i want know pleas,1-10-2021,
204,へへ🐉,imbd_w,,How plz ?,30-9-2021,
205,Anouk :),anoukh._,,gun mij die tutorial,30-9-2021,
206,Youssef,youssefjj21,,Jailbreak,30-9-2021,
207,JB,jaydeebryan_,,TUTORIAL,30-9-2021,
208,Temelem dokiwiets,yeet4510,,Tutorial plss,30-9-2021,
209,tee on hyvää,finishboy_88,,HOW!!!! WE NEED TO KNOW,30-9-2021,
210,Join hamster colt😎,hamstercolt420,,Tutorial?,30-9-2021,
211,Memes4life,lifememesz,,Tweak name?,30-9-2021,
212,Hehe😂😂,julian.myrvang,,Tutorial,30-9-2021,
213,Eyy,mori9000000,,Part 2,30-9-2021,
214,OnlyHax HU,hackertesco,,tweak name?,30-9-2021,
215,mohammedeisa12,mohammedeisa12,,How,30-9-2021,
216,hardwuär gambo 😎,hardware_gabo_,,Tweak Name?,30-9-2021,
217,Baptiste Deliveyne,username5171719039938,,Part 2????? 🥰🥰🥰,30-9-2021,
218,シ︎,0229_abe,,Pls,30-9-2021,
219,シ︎,0229_abe,,How pla,30-9-2021,
220,Benji_._Fan,benji_._fan,,Imagine if the face id sensors break😂,30-9-2021,
221,pepijnvanderwerf,pepijnvanderwerf,,How,30-9-2021,
222,فارس بن محمد,i5n8y,,ترا ب جلبريك وتحياتي,29-9-2021,
223,Imagine stalking,shiii_trippin,,Lmao androids had that since 2016,29-9-2021,
224,今個本。,aurelien__dewin,,? tutorial when,29-9-2021,
225,axeldibuchomejia,axeldibuchomejia,,Tutorial?,29-9-2021,
226,Zaid Riyadh,zaidzz_99,,How????,29-9-2021,
227,Joe Mama,crazindian,,thats an inbuilt function on all androids😂,29-9-2021,
228,yakupsenturk1,yakupsenturk1,,Pls tag me in tutorial,29-9-2021,
229,Maurits,maurits.kers,,Howww,29-9-2021,
230,🤟🏼🤟🏼🤟🏼marty,user37282923783,,POST THE TUTORIAL,28-9-2021,
231,Begula_829,follow.back._.5.second,,Can u show me how do to this??? Plz,28-9-2021,
232,🅗🅤🅝🅣🅔🅡,hunterboock,,Is it possible to do it with Touch ID?,28-9-2021,
233,F,jefavoelaziglii,,I know it without jailbreak,28-9-2021,
234,🤍✨,asma.elbb,,How,26-9-2021,
235,🖤สวัสดี🇹🇭🖤,short07_here,,How did u do that??,26-9-2021,
236,ok,knifesob,,@yoshieoo looking for these rn bc i need to lock discord 😳,26-9-2021,
237,Haizea,nothaizea,,Can someone please tag me in the tutorial,26-9-2021,
238,.,mr.kiki_,,Tutorial plssss,26-9-2021,
239,Yasmineee’,yasm1ne.2,,Howww Please tell,25-9-2021,
240,❤️-Ugnea-❤️,ugnea2021,,Tutorial,25-9-2021,
241,daanrietveld,daan..rietveld,,Tutoryol,24-9-2021,
242,Jayden,jd.boxz,,the first u wanna do it => jailbreak 😂,23-9-2021,
243,MediaRedia,mediaredia,,Will u ever DO A TUTORIAL THO??😂😅😅,23-9-2021,
244,Gishiii,gishz.z,,How,23-9-2021,
245,🦁 Leo 🦁,lengzai87,,It’s jailbreak,22-9-2021,
246,Dog Eater,r4v.dc,,You will never do a tutorial,18-9-2021,
247,Sophiax,supitssophiaxx,,How,14-9-2021,
248,𝗿𝗮_𝟭𝟰𝘇🕷.,x.7iivv,,How please 🥺🥺🥺,13-9-2021,
249,Faryda,farydaismail_,,Tell us pls,13-9-2021,
250,Jadis,xunmos,,need,13-9-2021,
251,Tjena 💯🔥⚽️,_shutdown08_,,Can you do a tutorial plz🥺🥺🥺,11-9-2021,
252,farzadkohkan123,farzadkohkan123,,Which is app?,11-9-2021,
253,H 🖤🕊,aleen.hasson7,,Tutorial,11-9-2021,
254,Thaleaaa,thalea.nys,,Tutorial plsss,10-9-2021,
255,Lachie Norqs,lachienorq,,what is cydia,10-9-2021,
256,Bails,baileeboss1,,HOW DID U DO THAT,10-9-2021,
257,Dinlokalegizz0,dinlokalegizz16,,Plleasss tutprial,10-9-2021,
258,Brielle,_brielle.idk,,BROOO HOW,10-9-2021,
259,Rebekka,rebekkaefteland,,tag me,9-9-2021,
260,Willi,onlywilli,,Tutorial?,8-9-2021,
261,Jers 💙,emo_at_h3art,,Tutorial please! 😁 I love your vids!,7-9-2021,
262,Love United 🇵🇰,manchesterunited_7777,,Where is that to Torio,6-9-2021,
263,Anouk!,anouk.tiktok,,HOW,5-9-2021,
264,yungdagger wyfe 🀄️😈 .,hescreamiscream333,,HURRRRRY,4-9-2021,
265,💜💛,10ka_maribora,,Tutoriall?!,4-9-2021,
266,LIGHTyagamie,avgyagami,,Tutorial please,3-9-2021,
267,Amixo270532,amixo270532,,Pls totorial,1-9-2021,
268,bára,bara._.soltova_,,Tutorial pls,1-9-2021,
269,Trolledfr,edislorik,,Plsssss🥺🥺🥺 tutorial,31-8-2021,
270,Isaiah Abusdal,isaiah.abusdal,,Tutorial!!!!!!,31-8-2021,
271,najrazaimovic,najrazaimovic,,Howw,31-8-2021,
272,Ayyss_,ayss.61,,tuto pllsss,31-8-2021,
273,lonelygirl,puteriqistina01,,Tutorial pls🥺,30-8-2021,
274,user6532300333079,only_dhia_,,please show how,29-8-2021,
275,Jakob,jakob_4747,,Please tutorial,28-8-2021,
276,NocturnalSky6,nocturnalsky6,,Tutorial please,26-8-2021,
277,SAS🧸,khx_ex,,Witch version ?? Of ios,26-8-2021,
278,🤍Helena🤍,helenagiordano_,,I FOLLOWED NOW DO THE TUTORIAL!!!!!!!!!!!,25-8-2021,
279,Lithurshan Vijayakum,lithurshanvj,,How to make,25-8-2021,
280,Minesh L Gurung,mineshlgurung,,app name,24-8-2021,
281,Aaron,aaron_twaws36,,@lily.the.dinosaurrr I swear he never does tutorials and I really want this one,24-8-2021,
282,raththa011,raththa011,,how to make that,23-8-2021,
283,Katiesmith 🇬🇧,katiers_brain.dead,,how,22-8-2021,
284,@gbiyek07,ohaolohorung,,How to do this,22-8-2021,
285,Jacob,hanging_with_mygnomies5,,Tatorial pls,22-8-2021,
286,Mohmmed Khleel,mohmmed_khleel,,كيف اول عربي,21-8-2021,
287,tictoker,yourdad_vr1,,it’s app lock,21-8-2021,
288,dibron06,dibroni06_,,Turorial pleaseeeeee🥺🥺🥰,21-8-2021,
289,jumanadabliz,jumanadabliz,,But do it on the iPad plzz,21-8-2021,
290,jumanadabliz,jumanadabliz,,I followed u from long time so tutorial nowww,21-8-2021,
291,dlovell072006,queen_bee20213,,how??!!!,20-8-2021,
292,Dani 🇪🇸,r.dani.a_,,Tutorial?,20-8-2021,
293,Chris Yepes,chris_yepes,,my guy never does tutorials tho 😭,20-8-2021,
294,baya,bristolbayaaa2016,,where’s the tutorial ?,20-8-2021,
295,Richy307,cutlassrichy307,,How,19-8-2021,
296,hellfire521,hellfire521,,PART 2 PLZ PLZ PLZ,19-8-2021,
297,♤,syn.cray,,It’s ez to do,18-8-2021,
298,Thea,theawestergren,,Howwwww,18-8-2021,
299,Dogs are cool🦮🐕‍🦺🐶,izzyboynton,,How,18-8-2021,
300,lucas,lucasvngthm,,do a tutorial,17-8-2021,
301,hasoon,hasantx3,,What is jailbreak I searched it on App Store and didn’t find it🥺,17-8-2021,
302,Spam acc<3,codeimhere,,How???,17-8-2021,
303,I love my cat❤️❤️,missi_best_cat,,Tag me in totorial,17-8-2021,
304,🌪,p.vidolova17,,Howwwwwww,17-8-2021,
305,ʂąཞıą ƈơ℘ყཞıɠɧɬ=ცƖơƈƙ ♡︎ꕥ,sariaplayss,,Not breathing until this guy makes a tutorial!,17-8-2021,
306,GamingWithSky,gamingwithisabela,,What app are you using or is it built into the phone?,17-8-2021,
307,Sofiane Yahia,sofianeyahia,,Tuto pleaseeeeeeee,17-8-2021,
308,Matty b,mattyice489,,Dude u never do a tutorial come on,17-8-2021,
309,user6532300333079,only_dhia_,,please tag me show me,17-8-2021,
310,YEET,pc.sangy123,,Jail break,16-8-2021,
311,Follow me I’ll follow you,josephgarner20120,,Can you please show us how to do all this cool stuff,16-8-2021,
312,✋𝐀𝐫𝐭𝐢𝐬𝐭 ✋,ida_ekstrom10,,Please tut,16-8-2021,
313,__johanna__036,__johanna__036,,Tutorial pls,16-8-2021,
314,<3,alvqxe,,Does it work on iPad? And HOW?😳,16-8-2021,
315,Hey wanna ride?,bgamble.24,,When I have glasses on and don’t want to take them off,16-8-2021,
316,Nolllll🤍,____nol_____,,Tutorial??,16-8-2021,
317,Philipp,phil_26w,,And where is the tutorial now??,16-8-2021,
318,Ali Brook905,ali11986,,How please,16-8-2021,
319,Dude.LH,triangle.hub,,How,16-8-2021,
320,Shoooo0615,shooooo0615,,How,16-8-2021,
321,dengs,dingd0ng,,tutorial pls,16-8-2021,
322,Hi,fucryou,,Tutorial,16-8-2021,
323,𝐻𝑎𝑛𝑛𝑎ℎ,hannah.ghh,,TUTORIAL!!pls,16-8-2021,
324,I COLLECT LEGO AND MODEL CARS,dominickonboard,,HOW 😳,16-8-2021,
325,Your mom,riszz22,,Where,16-8-2021,
326,quitt,anvsqfx,,Is that jailbrek?,16-8-2021,
327,ψ(｀∇´)ψ,blisx71,,Guys what is the app where we can put a password on them,16-8-2021,
328,Mikaela🖤,mikaelarose1822,,How do u do that,16-8-2021,
329,Andria Shioshvili,andriashioshvili5,,tutorial,16-8-2021,
330,Someone,wavexsz,,Tutorial plissssssssssssss,16-8-2021,
331,Zafeemma,zafeemma,,Howw,16-8-2021,
332,River,rivern_1,,How,16-8-2021,
333,Sierra Ann Cleveland,datomato1203,,What how?,16-8-2021,
334,Isaiah,young._athlete,,No tutorial yet?,16-8-2021,
335,Stx_perez_956,el_perez_956,,"Not 100% privacy Bc in iOS 15 apple is gonna check all your pics,vids,and chats😭😭",16-8-2021,
336,Elijahmaster109 YT NRT_physics,nrt_krxzy,,Pls tutorial,16-8-2021,
337,Jawad,0kxz_,,Who?,16-8-2021,
338,O L I V I A,olivia_brown31,,howwwww,16-8-2021,
339,Follow is Biden=🗑,nathans_dumb,,Please tell me how,16-8-2021,
340,🌴𝙴𝚁𝙸𝙲𝙺🌴,erick81013,,How,16-8-2021,
341,H,hangaspaam,,Plase tutorial🥺,16-8-2021,
342,Your gf Izzy⁉️ 😻,izzykiwii,,Tutorial PLISS,15-8-2021,
343,Rosali Herbert,rosali_prive,,Part 2 plz.,15-8-2021,
344,lance011505,lowkey_dorian,,I need this please tag me when you do the tutorial,15-8-2021,
345,die drei !!!,mariefranzikim_,,TUTORIAL,15-8-2021,
346,Loading…,bamboooxx,,How do I get jail break,15-8-2021,
347,luka,luka_232,,HOWWWW,15-8-2021,
348,ʚ♡ɞ,koookiitty,,Where is the tutorial?,15-8-2021,
349,Roblox boy,hiimrobloxboy,,Howw,15-8-2021,
350,Roblox boy,hiimrobloxboy,,Please,15-8-2021,
351,Maitechu_14,maiketchup_14,,Tutorial?,15-8-2021,
352,David_amfxy,david_amfxy,,Yes please tutorial,15-8-2021,
353,Nicola Ventre,nicola_ventre,,Please tutorial,15-8-2021,
354,Aki be követ visza megy eskü,noeltamas,,Tutorial now,15-8-2021,
355,Gabriele Carlucci,gabri_carlucci,,Do this tutorial already 😡,15-8-2021,
356,💅🏻SPOILD_BRAT💅🏻,chickenpinapple,,Bruhhhhh i need it,14-8-2021,
357,Matti Gremmo,matti_gremmo1078,,Tutorial pls,14-8-2021,
358,JuniorNYC23,flyguyj__19,,How I get that,14-8-2021,
359,Kal,dpw.kali,,HURRY UP. I NEED THIS LMAO,14-8-2021,
360,Ghost,xghosttxd,,I want this,14-8-2021,
361,Tik Toker,hockey.airplanes.train,,Fist 😳😳,14-8-2021,
362,Hunter,hunterchipapi22,,First,14-8-2021,
363,Zack,__zackthegk__,,I want a tutorial I am getting iPhone X,14-8-2021,
364,Ron,ron1371,,Howww,1-10-2021,
365,ItzJoud123,itzjoud123,,HOW,31-8-2021,
366,Jami1x1,jami1x1,,how?,15-9-2021,
367,JELAI,jelaivarquez17,,how,12-9-2021,
368,Layan Sayegh625,i.love.the.weekend,,How,10-9-2021,
369,Ray,ripashtary._1,,How,16-8-2021,
370,Naeb,naeb43,,How,19-10-2021,
371,The bad boy,austinac68,,How,19-10-2021,
372,Hi,brocily_boii,,Tutorial pls,16-10-2021,
373,whatlizsays,whatlizsays,,How,15-10-2021,
374,Lizazzooo,lizazoooooo,,Pls add tutorial,7-9-2021,
375,Majdghadban,majdghadban2011,,How,29-8-2021,
376,richctssboy,awhjoel,,How?,28-8-2021,
377,Santaijaabaa,manggakelantan,,How???,22-8-2021,
378,👑Queen👑,____ladyy____,,Tutorial please 🥺,22-8-2021,
379,user6740698149125,rob154263,,Tutorial?,16-8-2021,
380,Serinah,naya1233337,,How,15-8-2021,
381,Djamil Berisha,codelimaj,,@_emelyhbrger_ WTF wie ?,16-8-2021,
382,Diriszackrisson,diriszackrisson,,Show us now!!,15-8-2021,
383,TylersFarmdisplay25,tylersfarmdisplay25,,How can u do that with Touch ID ??,15-8-2021,
384,roblox romania🇹🇩,andrei.rblx1503,,HOW HOW HOW I GIVE U ALL MY MONEY,16-10-2021,
385,𝓐𝓲𝓷𝓽------𝓷𝓸----𝓼𝓲𝓶𝓹,officialphtixel,,Show us Pls,16-10-2021,
386,Australian,kangarookane,,Come on we need the tutorial,10-9-2021,
387,vanessa🦟🦗🦟🦗🦟🦗,20crickets08,,Tt please,28-8-2021,
388,💓,dinfavoritblondiin,,Show us,27-8-2021,
389,:),lexman11,,Parti 2 👇👇👇,16-8-2021,
390,🏀YASH PATEL⚽️,yashpatel24k,,First😳🥰😏,14-8-2021,
391,normalperson,username21374292,,Tag me in the tutorial l,15-8-2021,
392,DB,bigting053,,Bro this is sick,15-8-2021,
393,.,svlxqz,,ur always showing and saying follow for tutorial but u never do tut,15-8-2021,
394,Oliver😌,oliver.the079,,Always follow for tutorial but he never ever place one,14-8-2021,
395,Emma ❤️🥵,emma_1025,,Ummmmmm I neeeeed to k,15-8-2021,
396,Äæ ‘ ã,poosay12,,"it sound like it said ""Lock your ass with Face ID""",15-8-2021,
397,MARLIES,marisse1906,,Pleaseeeeee tuterlial pleaseeeee i follow you,15-8-2021,
398,…..,su.cked,,How do I use tweak then,15-8-2021,
399,Victor Toro,victorpepper,,Is there any chance for a iphone 11 with iOS 14.5.1 to be jailbroken? 🥺,14-8-2021,
400,Lilly,leylagashi09,,I’m already following u,15-8-2021,
401,user3917399226968,loquerapampara,,Brooo how I need this so fucking bad,15-8-2021,
402,Moha Mk,hoyga2,,Where contact buddy,15-8-2021,
403,ASTRO,sky_gen2,,POV : tu porte un masque dans le bus,15-8-2021,
404,Oluwa_blaqie30,westernay30,,I highly recommend SCOTTOOLZZ on Instagram he's the best when it's comes to unlocking,15-2-2022,
405,Carl Dela Peña,theflash824,,Your just making us to follow you,21-1-2022,
406,Savage king,a4dnan,,Do a fucking tutorial,12-12-2021,
407,leo_bellaiche,leo_bellaiche,,Tuto 👇,29-10-2021,
408,Cammi830,cammi8300,,Add @buy_id1 on telegram i got 5 diff states ID from him.,6-3-2022,
409,Lisa Daniels3213,lisadaniels323,,I strongly recommend @Gadgetshacker he is really good in UNLOCKING devices he helped with mine.😬,5-3-2022,
410,pigment,prettycknw,,@VETCK_CYBER on Instagram is the best 💯💥I have seen at ios jailbreak.. helped me out to jailbreak my iPhone Thanks.........🥰🥰,4-3-2022,
411,pigment,prettycknw,,@VETCK_CYBER on Instagram is the best 💯💥I have seen at ios jailbreak.. helped me out to jailbreak my iPhone Thanks.........🥰🥰🥰,4-3-2022,
412,mercywanye,mercywanye,,LEXTOOLZ 0N INSTAGRAM FIXED MIND SUCCESSFULLY WITHOUT MUCH COST,17-12-2021,
413,Car clan,mohamedabdi9065,,The text to speak or wet-ever said ass instead of apps 😂😁,31-10-2021,
414,Enjoy and have a great day😌❤️,nada_tiktokss,,HOWEWWWWWWWWW,17-10-2021,
415,💄,uniqueeebabieee,,show us,16-8-2021,
416,🇦🇱RⁱeᵃᵐcZo🇦🇱,reczo.albania,,Jailbreak,30-9-2021,
417,Ragiv Passos,ragivpassos,,Óleo eB,23-1-2022,
418,Shay_xoxo,shayleighjohnsto2,,Don’t show us this if you won’t do a Face ID ghee,17-1-2022,
419,treyhussaney,treyhussaney,,the phone will explode if you are disturbing the battry,27-12-2021,
420,ßRANDON🙀,elhispanico_brandon,,Who else isn’t finna ignore that it sounded lock your a*s with face iD,29-10-2021,
421,I don’t know,boring_shit420,,bruh they never do the tutorial just unfollow him,23-10-2021,
422,Jotaro,madcauseimrighthaha,,Don’t use that Tweak. It messed me up once.,29-9-2021,
423,ivann,vanasiose,,how???,29-9-2021,
424,Paullila,paulila.a,,Tutorial,14-8-2021,
425,Jɑde,jeyyyydd,,hope all have an iphone😌,14-8-2021,
426,Gabitzu Best Tt Stunter👑,gabitzu._.the._.stunter,,Follow for the tutorial But where are the tutorial😂,14-8-2021,
427,Brian,bandit286,,Please show me in chat :D i followed,3-10-2021,
428,sodaaintdead,sodaaintdead,,Whats your discord so you can join a united states coast guard 😅,13-9-2021,
429,Original. David junior 2,fantastiske_lukas_bl,,Please. Show. U’s. A. Like alle you videos and. Follow just. Show,15-8-2021,
430,L.D,l_devall,,You never do tutorial and it’s so annoying,26-2-2022,
431,Caydence,caydencesmithofficial,,WTF ARE ANY OF YOUR TUTORIALS 😬,17-10-2021,
432,Yveves,yvvescup,,Show the tutorial stop click baiting,22-9-2021,
433,stuff,robloxtherino0,,Bro we followed show us we getting tired of u don’t show us we just gonna unfollow,18-8-2021,
434,Jae,yourdailydoseof_jaelynn,,"I have seen so many videos that say follow for a tutorial, and yet not a single tutoriall weird how that works😐",12-11-2021,
435,iHelper,_ihelper_,,Jailbreak -> BioProtect XS,16-8-2021,
436,syafiqqq<3,syafiqqq000,,https://vt.tiktok.com/ZSJWe9jXk/,16-8-2021,
437,aarr909,aarr909,,Pls pls how to do pls pls I will do like also and follow pls 🥰🥰,18-10-2021,
438,Dogs!▼・ᴥ・▼,minecraft_roblox_pigeon,,Tutorial with my comment please,16-8-2021,
439,💿✨noora🔫⛓,dnoora111,,Please tell me how to do this please I followed and liked 🥺,16-8-2021,
440,RAHOZ,rah0zz,,You need jailbreak 100000%,14-8-2021,
441,John Israel Llorca,johnisraelllorca,,ButTt HOW!!’,22-9-2021,
442,XD Gaming,xd_gaming_001,,I follow you,15-9-2021,
443,leonita,niitaa.76,,He just wants followers,10-9-2021,
444,Little-Grinch,thelittleauzzie,,Yo who’s joining me in locking our browser history now tho,2-9-2021,
445,Adriandjt🇩🇴,xbladrian_,,It said lock your ass Face ID,27-8-2021,
446,You,_bynxonswitch_fyp,,Who else heard lock your ass with Face ID 😂,20-8-2021,
447,Johanna🤍,thanks.for.coming0,,"I have waited for the tutorial for a long time, I am gonna unfollow if the tutorial doesn’t come out this week",19-8-2021,
448,Adam Alkhatib,adamnalkhatib,,Who else heard “lock your ass with face ID”,18-8-2021,
449,kayne23angel.vr,kayne23angel.vr,,Lock your as what I heard,17-8-2021,
450,KoeKim,koekim1218,,Done follow,16-8-2021,
451,Idk,yeahbaby19,,Bro you say follow for the tutorial and you don’t do shit,16-8-2021,
452,Modi,ahmadshogair,,How can i jailbreak using ch1ckrain,14-8-2021,
453,Jeremiah Sandoval,jeremiahsandoval0,,I am not jailbreaking my damn phone!!!!,15-8-2021,
454,Haily,hailyxtannous,,@jaz_orr WTFFF u wanted this fir ur messages bahahah find the tutorial now hahah,10-9-2021,
455,marryjoseph450,marryjoseph450,,"Keep the good work on BRAVETOOOLZ on Instagram, you be surely be bless you deserve much more",17-12-2021,
456,marryjoseph450,marryjoseph450,,It's true if you don't take risk you won't see no result thank a lot to BRAVETOOLZ on Instagram and those who recommended him,17-12-2021,
457,mischa,mischasdumps,,Bro I followed this guys for so many tutorials I will unfollow 💔,3-4-2022,
458,Pain,matthewreyes386,,Please do it because it keeps on looking at my privacy stuff😅,6-11-2021,
459,Nicholas Papiccio,nikstar112,,They never do tutorials don’t bother following,17-8-2021,
460,Bella,myracah,,WHERE IS THE TUTORIAL?!?!?!,20-4-2022,
461,🌙🖤,melatwojakumpela,,czy takie aplikacje są bezpieczne?,27-3-2022,
462,100k ❤️‍🔥❤️‍🔥 x,megan_parker_xxx,,How,8-3-2022,
463,dyknok17eluf,dyknok17eluf,,@leonhart154,30-9-2021,
464,Cameron Mercer,cameronmercer68,,@zanevek,15-8-2021,
465,Ekhlas,ekhlas_ismail08,,@north_star_boys,25-9-2021,
466,ZeyTriick,zeytriick_,,@Luzak,31-12-2021,
467,pablito,paablogoross_,,@nanibf_,1-10-2021,
468,Leonardo,__leonardo._,,@mr.apple.gr,1-10-2021,
469,user7311130563273,user7311130563273,,@🔝apple clinic ??,30-9-2021,
470,Qamishlo,bnt_qamishlo,,@hayve_pubg,30-9-2021,
471,,s.u.m.m.e.r.3,,@90stelladog,28-9-2021,
472,.,mr.kiki_,,@yelizk24 😳,26-9-2021,
473,jennifer,iheartfrozenpeas,,@elin_102_,25-9-2021,
474,DeinUronkel,deinuronkel,,@user9292822192,25-9-2021,
475,Đức Huy,duchuy10012004,,@tuanngocday,4-9-2021,
476,Hiếu Vương,h1eu7,,@vinhvatvofake,3-9-2021,
477,𝓝𝓲𝓽𝓪🖤,h.ist_,,@www.altina,17-8-2021,
478,Bảo Như,quynhliek,,@ltb3101,17-8-2021,
479,Naty,natyv23,,🥰🥰🥰🥰🥰🥰🥰🥰,17-8-2021,
480,abdelrhmanfftt,abdelrhmanfftt,,@julianalexanderthies,16-8-2021,
481,abdelrhmanfftt,abdelrhmanfftt,,@issaayman4,16-8-2021,
482,abdelrhmanfftt,abdelrhmanfftt,,@esraahosni92,16-8-2021,
483,welcome to my account💛🦋,axbreyplayz,,@yeret22,16-8-2021,
484,Brandon,brandon_lohman,,@blohm__316,16-8-2021,
485,Diannn x,xo_.dian._xo,,@maria.xo.b,15-8-2021,
486,ℰ𝓋𝑒𝓁𝒾𝓃𝒶,eveelinaa.1,,HUUUUUUR,14-1-2022,
