,Comment Number (ID),Nickname,User @,Comment Text,Time,Likes
1,vdaddy,vcallmedaddy,,Thomas phone > z flip,5-7-2021,1286
2,Hmmm,meteoroidshot,,Hey Austin big fan waiting for the next mystery tech😁,5-7-2021,584
3,xXlinus_sex_tipsXx,xxlinus_s3x_tipsxx,,Omg it’s Linus tech tips!!!,5-7-2021,241
4,♥ 𝐀𝐅𝐠нⒶ𝓷𝐢ร丅𝐚ή ♥,hitier.1945,,He's phone is way better than your phone no 🧢😂,5-7-2021,8
5,tinnko,tinnko007,,"nahh,thomas is WAYY better",5-7-2021,128
6,.,kleinjc3,,Wouldn't be surprised to see it on mystery tech,5-7-2021,2
7,Maximus 😩,nothypermax,,Ayo Austin build me a pc I'm poor 🥺,6-7-2021,1
8,Dawson,dawson12602,,Yo it’s Marques brownlee,5-7-2021,32
9,Tik Toker,b1g.biack.m0nkey.baiis,,Thomas the train phone is better then Samsung,7-7-2021,5
10,AquaTurtlez,aquaticstudios,,Thomas flip phone > z flip.. Literally.,5-7-2021,16
11,⠀ ⠀ ⠀ ⠀ ⠀ ⠀,.gbs23,,"Cool...Anyways here’s the Recipe for brownies:
1/2 cup butter
2 eggs
1 cup sugar
1/3 cup cocoa powder
2 teaspoon vanilla extract",7-7-2021,1
12,Homophobic,elegant.racist,,there's nothing that can separate the Z-Flip from Austin,6-7-2021,3
13,atillateraliberationarmy,domtorreto14,,Hey Austin when’s wish review,5-7-2021,1
14,idk,anime.edits1106,,the Thomas phone wayyy better than yours,7-7-2021,1
15,Ethan,ethan_does_starwars,,Love your reviews Austin you inspired me so much,5-7-2021,1
16,J MAN🦸‍♂️,jayden0563,,No one could be Thomas The flip phone😤,3-8-2021,1
17,Grandma,shi1nraz,,Thomas the tank lol,5-7-2021,8
18,a.random.guy,officialdwaynefr,,OMG IM A BIG FAN ARE YOU GONNA MA ANOTHER BROKE VS PRO?,6-7-2021,1
19,Luke Sloan,lukesloan4,,GET THAT ON MYSTERY TECH RIGHT NOW LOL,24-7-2021,1
20,🇿🇼,anoxy._,,thats busssin😬😬,6-7-2021,2
21,Magfoor,techfleeceisshite,,@caydeigh this is ur phone😂,5-7-2021,2
22,JJMuteq,muteqtv,,Gen z flip,7-7-2021,2
23,whathappened,monteisalty,,day 12 of asking austin for PC,7-7-2021,1
24,Jaylen🤪❤️🇩🇴💙,whos._.jaylen,,Is wishtery tech discontinued???,6-7-2021,1
25,Richard Zorola,rzoro5000,,This week on mystery tec......,5-7-2021,2
26,JoeBurger,psychoneuroticburger,,fax,5-7-2021,1
27,Syth96,syth96,,beans,5-7-2021,1
28,Thebottytucher,the_botty_toucher,,Damm 😂😂,5-7-2021,1
29,𝔎𝔥𝔞𝔫,user4444444180,,madara defeats hashirama,30-9-2021,1
30,Elpitonero69,elpitoneron,,2010 Dodge Charger,7-7-2021,1
31,Carson Collins,the_cooking_show2,,His is better,7-7-2021,1
32,Far,stinkydrink,,Ok,5-7-2021,1
33,Nob,nob.cool,,Why is this not pinned?,5-7-2021,1
34,mr. stick,shhmystic,,hi austin i’m austin,5-7-2021,0
35,lucio,imnot.lucio,,ok austin,5-7-2021,0
36,Arctic,arcticpcs_,,Kewl,5-7-2021,0
37,Nathan 👑🖤,illusionstallion,,I'm watching one of ur videos rn 😳,5-7-2021,0
38,Brandon_,brandonj095,,Hey can I please get a pc,5-7-2021,0
39,Deniz👑,deniz12435,,Early for the Frist time,5-7-2021,0
40,Ok,nottheepicklegod,,Hi,5-7-2021,0
41,Issac Benitez,urmumm222,,do a review on it😂,5-7-2021,0
42,XYZV,yazo32,,rlly,20-11-2021,0
43,Dave Shimkus,daveshimkus,,one UI 3.1: has anyone seen one UI 4.0?,23-10-2021,0
44,made in heaven,harambe378,,sheesh that a hard flex but I have the Dora limited edition and cocomelon gaming set up no flex,1-10-2021,0
45,LittleFella🥚,littlefellaegg,,he's phone still better no cap,30-9-2021,0
46,Wid Dee,widdee,,pujabi powers!!!!,29-9-2021,0
47,̶g̶h̶o̶s̶t,user233334444,,he be living in year 600000092929,27-9-2021,0
48,𝗜𝗥𝗲𝗧𝗥𝗼𝗠𝗮𝗡,thekraberisfromtitanfall,,goodbye z flip you're gonna be replaced,27-9-2021,0
49,AKtok.artist,facelesstok,,when you use it you can summon a train to ride,25-9-2021,0
50,Cihan,ccccsss0,,Hi,5-7-2021,0
51,gnome nom,gnomenomm,,no childhood?,24-9-2021,0
52,Adolf,austrianmoustachepainter,,You look like Austin Evans,13-9-2021,0
53,@lennartpoiss,lennartpoiss1,,Review it please,10-9-2021,0
54,Void,lz_void,,its the pc dude,6-9-2021,0
55,.it's.giwrgos.,.tzavellas,,tomas has drip,5-9-2021,0
56,FINIX,finixart,,Its the same phone different color,5-9-2021,0
57,anime_enjojer,anime_enjojer647374,,bruh he got Thomas phone I only have Barbie phone😡,5-9-2021,0
58,hehe sexy sam,i.fukk.little.kids,,@vcallmedaddy you gqve him the inspiration to get that phone,5-9-2021,0
59,Mochitaya brālis,simplebluter12,,bruh austin in his videos keeps flexing his phone,5-9-2021,0
60,churro,churroozs,,nanda,5-9-2021,0
61,Sameer Mohammed,sameermohammed78,,can afford it doe,5-9-2021,0
62,Ducky,ducky622,,Hey austin When will we get a review of the tomas the tank egine TV,5-9-2021,0
63,user1357723674221834473737,user1645333234343443565,,fire bro🥶🥶🥶🥶🥶🥵🥵🥵🥵🥵,2-9-2021,0
64,𝓜𝓲𝓴𝓪𝓼𝓪 𝓐𝓬𝓴𝓮𝓻𝓶𝓪𝓷,mikasa_ackerman678,,thomas >z flip,24-8-2021,0
65,ʕʘ̅͜ʘ̅,mexicanusername,,He’s speaking my language,4-8-2021,0
66,neo,neoaza._,,get the spiderman flipphone,3-8-2021,0
67,Ku$angi,igetaround96,,Mans got the iPhone 13,3-8-2021,0
68,idgafanymore21,idgafmore21,,Austin I am a really big fan of your vids on YouTube!!,3-8-2021,0
69,ayjayjayden,reeeevr0,,Sheesh were can I get that phone,2-8-2021,0
70,Hunter 😈🫠,confronter_hunter,,Hi Austin I love your videos so much it would make my day if you replied with “hi”,2-8-2021,0
71,AntonioCast:)),alexofc07,,imagine flexing your phone😑nah buddy Thomas is better,2-8-2021,0
72,planrock12437figetmaster,hispanic_gregheffley,,THOMAS THE TANK ENGINE PHONE,1-8-2021,0
73,tchiuameni_will_pocket_VARca,honest_varca_fan,,Lollllll,31-7-2021,0
74,MOMMYMULKER,mommymulker,,yoooooo was gooooood austin my guy,27-7-2021,0
75,ante geia,autosonarkomanhs,,Yoo austin i had no idea you have tik tok,22-7-2021,0
76,Explicit,explicit.1,,Can you buy me a pc,22-7-2021,0
77,giwrgoss,giwrgoss.07,,Can you put iPhone on Samsung or samsung on iphone?,16-7-2021,0
78,Reagan Smith,comiccinema,,"yooo I didn't know you are on tiktok , I've been watching your YouTube vids since forever 😂",15-7-2021,0
79,Idkmyname,retro_gamerr,,Yooo I still have one of those,14-7-2021,0
80,Rafael,ui_juma,,Thomas phone has better specs than your PC,13-7-2021,0
81,Dylan,dchipa.08,,Well its atleast an upgrade😂 love your vids btw,13-7-2021,0
82,road to 1k,25888tiktok,,the best phone better than iPhone 12,12-7-2021,0
83,UnderFell Sans 💀,under.fell_sans,,Tomas tank won 100%,11-7-2021,0
84,xxxlilone,xxxlilone37,,Not as cool as Thomas the tank engine phone,11-7-2021,0
85,Turki,.delsin,,Austin?,11-7-2021,0
86,tameemmustafa,.ducxy,,sheeeeeeeesh damn,10-7-2021,0
87,_hm.d_,.dxz7y,,don't showoff he has a better phone,9-7-2021,0
88,Fak3,fak3_h1pex,,I watched all of your videos and it has made me build a pc,8-7-2021,0
89,Thomas RBLX,thomas12kmi,,My name is Thomas 😭😭😭,8-7-2021,0
90,KABOOM !,alalusyih,,YOOOO MR AUSTIN BIG FAN I WATCHED EVERY MYSTER (wishtery) TEC VIDS,8-7-2021,0
91,Tik Toker,racistumisnotpog,,I am getting a s21 ultra 😁😁😁😁😁,8-7-2021,0
92,丂卂ㄩᗪ,ymkn_s3ood,,RAVI??,8-7-2021,0
93,The37arson,not_real_united_kingdom,,Tomas is better,8-7-2021,0
94,TmanC,tmanclifton,,AYOOOO IM THOMAS!😂,8-7-2021,0
95,Mliky2k,mliky2k,,lol,8-7-2021,0
96,dmryan08,dmryan08,,Drip🥶🥵🥵,8-7-2021,0
97,tom,thomsnguyn,,bet 😈,8-7-2021,0
98,Chicken,6_chicken_9,,CHCIKEN Meow,8-7-2021,0
99,no im not actually brewstew,brew.stew_,,I love your vids,8-7-2021,0
100,Erik Lysne,eriklysne8,,A man with class,8-7-2021,0
101,kitler army,snickers4613,,am jelas,8-7-2021,0
102,LILDARKIE21,lildarkie21,,Lasagna,8-7-2021,0
103,dnd kid,dnd_kid2,,I had that,8-7-2021,0
104,Harsshil,harsshil_26,,how much RAM does Thomas have?,7-7-2021,0
105,Lxzer,lxzer__,,Wait when did Austin get a tik tok account? 😂😂,7-7-2021,0
106,The sun,julianjerp,,HE STILL WINS🥶🥶🥶🥶🥶🥶🥶🥶,7-7-2021,0
107,Ifollowback,whatdadogdoin80,,Hes phone is bussin,7-7-2021,0
108,Chunky Tachanka,chunky.tachanka,,No wayyyyy vcallmedaddy popular now,7-7-2021,0
109,Carlos Serrano,carlosserrano667,,Austin your finally on tik tok!,7-7-2021,0
110,💣,askixn,,@averagejoewo this you?,7-7-2021,0
111,wedgchjvhljpinlnmkvhf,jksppwiehbnfmxlzpaowub,,notice me,7-7-2021,0
112,Bilal,bilal.bk11,,dude I remember those things I had a Toby maguire Spiderman tho,7-7-2021,0
113,VLXNE,vlxne.plugs,,Bro that cost like 100000000000000000000 zillion trillions,7-7-2021,0
114,al4x bowm8n,earnhardt_fan_3,,n o i c e,7-7-2021,0
115,thegod202008,thegod202008,,why dose he have to flex on me bro,7-7-2021,0
116,Falsesquid,falsesquid,,Hi austin,7-7-2021,0
117,Ꮙ ⱽˣᴸᴼᴺᴱ Ꮙ,teamez_fn,,IPhone is cool,7-7-2021,0
118,rex,trolldogs_the_forbiden,,his is better,7-7-2021,0
119,J̸a̸y̸,thewaysofjay,,First,6-7-2021,0
120,Mello,mellohaha,,Jerry solos,6-7-2021,0
121,CACTUSMANiskool,cactusmaniskool,,I love ur videos,6-7-2021,0
122,cringe talks,ilovemalia823,,its so expensive tho,6-7-2021,0
123,卩ㄖ尺Ҝㄚ..ㄖ,porky..o,,yes austin good,6-7-2021,0
124,Idveal,idveal,,poor,6-7-2021,0
125,Mayonnaise,yaboigrey227,,Dude you went to the same high school that my brother goes too,6-7-2021,0
126,⁉️,suugest,,yo is that Linus tech tips⁉️⁉️,6-7-2021,0
127,somalipirates🥷🥷,kingofthesomalipirates,,Thomas phone is better,6-7-2021,0
128,green head,greenhead2106,,sheesh i need that thomas phone,6-7-2021,0
129,💀,ogfer8,,Sheeeeesh,6-7-2021,0
130,Connor,connor.chur,,this kid goes to my school how crazy,6-7-2021,0
131,Alif,alifysm,,i didn't know u have tik tok until now lol,6-7-2021,0
132,ldeee💕🇨🇳💅,ldeeeiscool0,,thomas 🥵🥵🥵,6-7-2021,0
133,kokomis wife,matthewpangweii,,yoo my favourite tech channel is on my fyp,6-7-2021,0
134,made it in heaven,enricopucci03,,sheeeeeeeeeeeesh,6-7-2021,0
135,TTG,thetortillagang,,Austin can you do a video about the Walmart gaming gear,6-7-2021,0
136,You mom,freezemaverick,,Linus has a tiktok wow,6-7-2021,0
137,😄Diego😄,l340l,,nooooooo,6-7-2021,0
138,Dimitris Galanos,buttplug69.420,,can you show us your pc setup?,6-7-2021,0
139,xbecr,mystical38,,you valid,6-7-2021,0
140,⚽️Fútbol⚽️,rsx7_ed19,,HIIII,6-7-2021,0
141,Wap Sounds,chill_content,,Pin for no reason,6-7-2021,0
142,Leon,may.28thh,,i love your reviews,6-7-2021,0
143,Jerry fanpage lol##,didndjdjdjdjsienhtuc,,I love ur vids,6-7-2021,0
144,bruh,jittley,,You rockin the screen crease?!?!,6-7-2021,0
145,I follow back✅,jayphysics,,Thomas is better😏,5-7-2021,0
146,Top G,real_massive_legend,,Buy me the ps5 rn,5-7-2021,0
147,big boy baby,ui.boy,,oh my gawd it's fire,5-7-2021,0
148,HizliYarisTR,hizliyaristr,,Ayy look who it is!,5-7-2021,0
149,Nathan2008,www.imaclown2.com,,Hey guys its austin,5-7-2021,0
150,Vicnoto,vicnoto1,,𝙾𝚔,5-7-2021,0
151,.,bradleyfrombloc,,Yo unbox therapy,5-7-2021,0
152,Mr.PuppetJunior,mr.puppetjunior,,thomas phone > EVERY PHONE,5-7-2021,0
153,Charlie Bradley,cherryhead08,,I have the Peper pig phone,5-7-2021,0
154,urbrotherfromanothermother,theyarewatching4,,Z flip literally obsolete but Thomas phone will never be,5-7-2021,0
155,mhnji82863,mhnji82863,,"i'm indeed very grateful to Linda, I would not have achieved this success if not for her work. thank you 🥰@florence___linda",5-7-2021,0
156,Giga Chad,chad_official69,,hey its Leenus teaching types,5-7-2021,0
157,Melt,obeymelt,,say hi if you like cheese. say no for beans.,5-7-2021,0
158,Cyloyd_EK3,cyloyd,,Thomas phone > life,5-7-2021,0
159,Spream,minatori_,,When wil the next broke vs pro,5-7-2021,0
160,Robloxh9lp,robloxh9lp,,how much RTX does the iPhone 13 have and how much storage cards,5-7-2021,0
161,Aripp ♂️,arippppp13,,still not near Thomas phone,5-7-2021,0
162,The-cowboy-trooper,thecowboytrooper,,yeah I'm also gonna have to sell my phone,5-7-2021,0
163,"crveno nebo, sprema se oluja",domaci_marxist,,Does king respond?,5-7-2021,0
164,Snadimehu,snadimehu,,Hi uncle austin,5-7-2021,0
165,goggle_box73,cta_pogo,,no cap,5-7-2021,0
166,2020 was the worst year,ryanreynoldsnut,,Hey guys this is Austin 😩,5-7-2021,0
167,a,notilia,,Thomas phone review?! 🧐,5-7-2021,0
168,Mr_knowledge_Gonk,mr_knowledge_gonk,,Yo guys just got my Power Rangers 🟥🟦⬛️🟩🟨 phone 📱 🥶🥶🥶🔥🔥🔥,5-7-2021,0
169,jedj106,jedj106,,when did u get tiktok,5-7-2021,0
170,ポテー,potato09lol,,𝙸 𝚕𝚘𝚟𝚎 𝚞𝚛 𝚟𝚒𝚍𝚜 𝚊𝚗𝚍 𝚢𝚘𝚞𝚢𝚞𝚋𝚎,5-7-2021,0
171,bruno,moldyshoes,,gimme a ps5 😈,5-7-2021,0
172,Ivan,oddaxolotl,,WHENS THE NEXT BROKE VS PRO ⁉️⁉️,5-7-2021,0
173,Indianboi,indianboio,,hey it's kevin kenson!,5-7-2021,0
174,Damien Trevizo,spitfireformula4,,what abouth the Motorola RAZR flip,5-7-2021,0
175,Eric Ohanyan,hhhhhhteexeric,,yo love your yt,5-7-2021,0
176,Yechiel,fancytb,,Far more Superior,5-7-2021,0
177,Haunter,haunter108,,MYSTERY TECHHHHH NOWWWWWWWWWWW plz...,5-7-2021,0
178,Hi,52e46,,hey austin this is guys,5-7-2021,0
179,Krasimir Ganev,maniaka00,,hi can I be in challenge who can built a pc faster i bet,5-7-2021,0
180,ChairEater,userwn6kccjozd,,out with the old in with the new,5-7-2021,0
181,menno,thugloan,,hey Austin it's guy here,5-7-2021,0
182,michael,michael..oshea,,who else is waiting for a new mystery tec video,5-7-2021,0
183,ThatGuyDestiny,thatguydestiny,,is that the pixel launcher on a z flip?,5-7-2021,0
184,Julian.,isiah_009,,"hello Austin, how are you doing today?",5-7-2021,0
185,chris,haizsharpe,,is that austin evans from linus tech tips?,5-7-2021,0
186,🐿ʙᴏɪ🐿ᴡʜᴀᴛ🐿ᴛʜᴇ🐿ʜᴇʟʟ🐿 ʙᴏɪ🐿,lazarlazarbadlol,,lol,5-7-2021,0
187,mustafa,goatpattinson,,MUTUALS PLS,5-7-2021,0
188,Dan,whyfancy,,Yo Austin,5-7-2021,0
189,Sebastian,killercrocquemonsieur,,Hi austin this is guys,5-7-2021,0
190,ㅤ,.jegv,,Hi Austin :3,5-7-2021,0
191,1993 Mitsubishi 3000GT VR-4 TT,3000gt.vr4.twin.turbo,,Hey guys That is Autin,5-7-2021,0
192,Deacon,deacon_chumbley,,Hi,5-7-2021,0
193,Modestas Mogenis,voblyn,,Does Linus tech tips bootleg respond??? 🤔🤔🤔🤔🤔🤔🤔🤔,5-7-2021,0
194,jxp,jaden._p,,unfortunate 😔,5-7-2021,0
195,₳łĐ₳₦ ₳,ajayers807,,YES,5-7-2021,0
196,FEEFER 09,feefer09,,Lol,5-7-2021,0
197,RealMaster,realmastereng,,yeah 😩😩😩,5-7-2021,0
198,Omar,datboygouda,,What happens when it reaches its fold limit?,5-7-2021,0
199,Bryguy275,potatos.hehehe,,sheesh its good,5-7-2021,0
200,Kisi⚡️,whoiskisi,,Early,5-7-2021,0
201,stray_ray💀💜,stray_ray0,,Oof Thomas the tank engine,5-7-2021,0
202,デュオ,duoify,,hi love your vids,5-7-2021,0
203,User149422592,user948394629363,,So true,11-7-2021,0
204,Brayden Chapman,braydenisfast,,Sheeeeeesh,8-7-2021,0
205,Ved4n1,ved4n1,,u can't ever been the Thomas phone ever.,5-7-2021,1
206,dennis!,howmuchforahug,,hey austin you acting cute,5-7-2021,1
207,anthony,simply_chopper,,sheeesh 🥵🥶,5-7-2021,0
208,xbox_ps4freak,xbox_ps4freak,,Sheeese🥶🥶🥵🥶,8-7-2021,0
209,intachi,fugi952,,sheeeeeeeeeeeeeeesh,7-7-2021,0
210,Hans,lukaismatt,,wait he look like candyken,7-7-2021,0
211,Tik Toker,maszdika,,bro u can't even afford the phone😂,7-7-2021,0
212,Mario Lopez,envixity.vr_,,Sheeeeeeeesh,7-7-2021,0
213,Your mom,lucas.is.cooled,,HEY GUYS THIS IS AUSTIN,7-7-2021,0
214,",",she.loves.blake0,,Sheeeeh,7-7-2021,0
215,thetrash69,thetrash69,,Can I trade you then,6-7-2021,0
216,❄,hinokamiicyy,,rip Z Flip 🥺,6-7-2021,0
217,P.J. Williams,pjthegreat2,,Sheeesh you on tik tok,6-7-2021,0
218,.com,.com561gamli,,Android is much better,6-7-2021,0
219,Simos Katsiaris,cms_cy,,"contact Henry from MxR, he will help you steal it 😂",5-7-2021,0
220,[Ahyan],bluebird.645,,“See I’m talking to your mother right now”,4-9-2021,0
221,MemeHub,yukersensie,,Thats trash thomas is better,20-9-2021,0
222,Vincent,sillysalmon4488,,Austin’s forehead is big enough to be the railroad for Thomas😂😂😂,5-9-2021,0
223,Joseph Lara,joseph23lara,,You’re going bald 😏,6-7-2021,0
224,c̸h̸r̶i̴s̷t̸i̵a̶n̴,christlannn,,im one of the first 20,5-7-2021,1
225,Sam Schmitt,samcat116,,Oh god don’t tell Myke,8-7-2021,0
226,Sis VS bro,thagmiser,,No you can’t out smart thomas the train,8-7-2021,0
227,.,weed_is_gud,,Flexing Not Cool,13-9-2021,0
228,𝓜𝓲𝓴𝓪𝓼𝓪 𝓐𝓬𝓴𝓮𝓻𝓶𝓪𝓷,mikasa_ackerman678,,stop flexing😂,24-8-2021,0
229,never gonna give you up,happymoduser,,only Android iPhone sucks,7-7-2021,0
230,Ꮙ ⱽˣᴸᴼᴺᴱ Ꮙ,teamez_fn,,Samsung sucks,7-7-2021,0
231,lol..,local_someone5,,Guys wtf,6-7-2021,0
232,Daniel,daniel.lovet,,Omfg,5-7-2021,0
233,noobeycubeyt,noobeycubeyt,,dont need to rub it in 😂,7-7-2021,0
234,Ifollowback,whatdadogdoin80,,Ur not good,7-7-2021,0
235,RIPCHIPS,r1pch1pz,,Bruh his is better than yours,6-7-2021,0
236,Payton🤪,paytonsmind,,Can you also get me one while you’re at it?,5-7-2021,0
237,McNugget.Main.243,mcnugget_main243,,hey guys this is austinnnnn 🥰,5-7-2021,0
238,Alex,osumaniaalex,,Waiting for another mystery tech video where Ken spends Austin’s life savings on stupid tech and nut branded tech,5-7-2021,1
239,ٍ,coolhomie,,BRO shut up the “tomas te-tan-gesh PHOEN” IS BETTTER,31-7-2021,0
240,james timmons,jamestimmons139,,bruh i gotta have that Thomas the tank engine phone,26-7-2021,0
241,Mikhael L,mikhaeluim,,Definition of a downgrade,18-7-2021,0
242,Bobux,dofkiuxl,,give me 15.000$ gaming setup if ur cool,8-7-2021,0
243,moth,nubplayer28,,the Thomas tank phone has more ram and processing power than that,7-7-2021,0
244,Tooby,tooby_content,,He Austin I subscribe to you on YouTube And one of my favorite videos was when you bought stuff off of wish.com and when you buy a PS five and there r,7-7-2021,0
245,Rita dale,adolfrita,,Fuck Linus tech tips Austin is so much better,7-7-2021,0
246,user8978636172446,boomiebooms2009,,Bro why the first guy just be flexing on us bro,7-7-2021,0
247,hola,ccortezz0,,ayooo i got to get me one of those top notch,7-7-2021,0
248,KingK,icegod40,,Yo zflip sucks what time is the train shush,7-7-2021,0
249,darrellthornton34,darrellthornton34,,can I have the phone I'm bro that's almost as a engine phone is a kiss baby toys,7-7-2021,0
250,Forden greeman,quandaledingleaintfunny,,Thoughts on Bitcoin mining with a GT 710?,6-7-2021,0
251,your.moms.stinky.beans,beriiqop,,how does your z-flip not have a crack in the middle wtf,6-7-2021,0
252,Idveal,idveal,,bruh imagine having the zip phone for 3 buxs Thomas new phone costs like 56 month and and he's rich AF for that you are poot,6-7-2021,0
253,ECOLOR LED,ecolor.official,,"Hi, I'm Adam from Ecolor inc. Your videos are great. We have some really cool RGB light strings and smart rainbow lamp for you to make videos.",6-7-2021,0
254,Alex Espinoza,reekid35,,sheesh Thomas the train,6-7-2021,0
255,A7,ryryr0o,,geez just slap a thomas sticker on ur z flip,5-7-2021,0
256,Happy man,ilikeappleballs25,,Can u build a hackintosh or install windows on a m1 Mac?,5-7-2021,0
257,So you not gon follow,zrxzays,,Bro why TF is this making me laugh 🤣,5-7-2021,0
258,Sarmanthegamer,joke_isnt_funny_chara,,hi am a big fan i know i have not be following a long time it will be great if ypu reply,5-7-2021,0
259,Obi-Wan Kenobi,obiwan_kenobi420,,@http.lxgan,6-7-2021,0
260,Obi-Wan Kenobi,obiwan_kenobi420,,@http.lxgan,6-7-2021,0
261,jatjat,jatjatth,,@dropz_579,5-7-2021,0
262,𝓝𝓲𝓬𝓱𝓸𝓵𝓪𝓼,nicholas_arias,,@allenmoney2,5-7-2021,0
263,jamesishere,.__.zenitsu_alt.__,,@enmustities @jamesandmeforlife,6-7-2021,2
264,🤪,luke_persi,,@lachiesanderssss @sushibo123,5-7-2021,2
265,A guy from fortnight,wegee_plush_offical,,@bendy_gamer_lol_xd12393 😏,9-12-2021,1
266,COPY pAste liTe,copypastelite,,@badi_enc_axmal,5-9-2021,1
267,6431cruzz,6431_cruzz2006,,@jackhuichapa,5-9-2021,1
268,🥖,grandbaguettes,,@youmissedthejokeidiot_,3-8-2021,1
269,classified_history_man,classified_history_man,,@outlaws_to_the_end_rdr85,3-8-2021,1
270,Nathy,newfacefilters,,@_ismysi_,8-7-2021,1
271,wvi,ogjh,,@sumerixofficial,7-7-2021,1
272,Travis😈,monexxs,,@goldenalex2 @theycallmeknees,6-7-2021,1
273,WAGGY1,domanddiesel,,@yes.its.cole1,6-7-2021,1
274,Luard,zenluur,,@ilikeakeno,5-7-2021,1
275,Joshua LOST,boomerstyle2,,@boop.moon,5-7-2021,1
276,unknown Guy,who_j.0e,,@nabilharidass20299,28-9-2021,0
277,so2_SyAZ,so2_syaz,,@tsg_eivys,14-9-2021,0
278,no.,okay..i..pull..up,,🪑🪑🪑🪑,12-9-2021,0
279,Just a normal guy,neon_fett,,😂,5-9-2021,0
280,Jack,jack.faiello,,@georgeisaprick,5-9-2021,0
281,Illusiongames,illusionsgameyt,,@bibbaob48,4-9-2021,0
282,Spider man,mastercooper7,,@stormymetal07,3-8-2021,0
283,Soma,s0_yu,,@ivan_aguilera0,2-8-2021,0
284,Lucca Aiken,luccaaiken,,🥵,1-8-2021,0
285,Andi Perryman,mtb_pezza,,@rexbilly,12-7-2021,0
286,Daniel Bar,daniel_br5.7,,😂😂😂💀,11-7-2021,0
287,Sanderstelmokas,sstelmokas,,@trevor_loodus,8-7-2021,0
288,Ash,ashtheastronaut,,@lilchickenugget_,8-7-2021,0
289,braydenlandis5,braydenlandis5,,@jaxsonlandis11,8-7-2021,0
290,Jackson Friesner,jacksonfreeze2,,@daviesdominator,8-7-2021,0
291,Ty,th30n1yru13,,@kinkychickenwings,7-7-2021,0
292,fanter,disnotmee,,@anthony.ggs,7-7-2021,0
293,тяαє,triple9trae,,@jayden_$,7-7-2021,0
294,Ramaris Begay,arizonaman21522,,@beanz0o0,7-7-2021,0
295,Angus Hutchison,da.big.dino,,@dr.frootloopyt,7-7-2021,0
296,narutokun,kakashi_hateu,,@4lifersssssssssss_2,6-7-2021,0
297,Beer video0000001.,sadiahakeembotore,,@,6-7-2021,0
298,yo,creapx1snipers,,💀,6-7-2021,0
299,Tik Toker,yuorca,,@streamsnipeking.p,6-7-2021,0
300,zionsplashs09,zionsplashs09,,@zay_703 😂,6-7-2021,0
301,num,_..heisenberg,,@no.shit.sherlock,6-7-2021,0
302,user6158168764095,lazi093,,@youmissedthejokeidiot_,6-7-2021,0
303,Goku12,bossbabymemeice,,@youmissedthejokeidiot_,6-7-2021,0
304,suey,jojothebest420,,@youmissedthejokeidiot_,6-7-2021,0
305,user1860036591528,averybirmingham1,,@residentevil928,6-7-2021,0
306,Rayz,1rayzstuff,,@yoz._rr,6-7-2021,0
307,481 🐐 I Sheikh 🍃💨,fw.susgay,,@manlike69420,5-7-2021,0
308,K,o_k092,,@you_did_not_get_the_joke,5-7-2021,0
309,ʕʘ̅͜ʘ̅,nix_does_whatever,,@4nnie.gur 😢😢😢,5-7-2021,0
310,Tik Toker,emily134669,,😂😂😂,5-7-2021,0
311,oNNeX,a.r.a.b.u.2.1,,@ezbro00,5-7-2021,0
312,Youssef,youssef.tx,,@khilafaflag,5-7-2021,0
313,Mkoxsw5,mkoxsw5,,@sadobesebee @.yuepeng,5-7-2021,0
314,𝓝𝓲𝓬𝓱𝓸𝓵𝓪𝓼,nicholas_arias,,@official_spongebob69,5-7-2021,0
315,who u💣💣💣,ahnaf_109,,@abou,5-7-2021,0
316,Spot,spot.the.diff,,😂,5-7-2021,0
317,DakaKrishna,dakakrishna,,@ggtyvvftyhhgg,5-7-2021,1
318,koyyy...,evo_spirit_editz,,"z flip maybe Snapdragon 888
Thomas phone Snapdragon 999🥶🥶",5-9-2021,0
319,No name,thegayrat4,,@theofficialweeb07 this is Gucci tyjrhjjyrjhrk,3-8-2021,0
320,M The Jim,laserd1046,,🥶🥶🥵🥵🥵🥵🥶🥶🥶🥶🥵👍,31-7-2021,0
321,Dino is op,dinoisop,,@casualanimefan1 @user9152641600728 @natalieu__283,31-7-2021,0
322,Finn,finn_steiner11,,@its_char1 @quackduckfly @henrymccrea123 @willmccrea0,31-7-2021,0
323,Andres,fishandres,,7,22-7-2021,0
324,ELBj09,elbj09,,Hahaha,12-7-2021,0
325,Lol,wait_its_you,,His phone 🥶🥶🥵🥶🥶🥶🥶🥵🥶🥶🥶🥶🥶🥶🥶🥶🥶🥶🥶🥶🥶🥶🥶🥶🥶🥶 yours 😐😐😐😐😐😐😐😐😐😐😐😐😐😐😐😐😐😐😐😐😐😐😐😐😐😐,8-7-2021,0
326,giostefanile,giostefanile,,M,7-7-2021,0
327,Flam3zy,flam3zy_0,,@hunter_chillax @rubensperm @.ya.boi.jay,7-7-2021,0
328,maullll,uncleburhan,,BOOOOOOOOOOOOOOOOOO,5-7-2021,0
329,void,kos_void,,︎,5-7-2021,0
330,Camilo,camilooo55,,"@mrbeanman985：This is the only comment lol
︎︎
View replies (49) ︎ᨆ
︎
︎
︎
︎
︎
︎
︎
︎
︎
︎
︎
︎
︎
︎
︎
︎
︎
︎
︎
︎
︎
︎
︎
︎
︎
︎
︎
︎
︎
︎",2-8-2021,0
331,dariusthekid,lildarkiesisdaddy,,@terrrorrist,10-7-2021,0
332,-,pushlng.p,,🥶🥶🥶🥶🥶🥶,6-7-2021,0
333,moobatron,gabethechuncky,,@liljigjig,7-7-2021,0
