,Comment Number (ID),Nickname,User @,Comment Text,Time,Likes
1,Soap😂🎃🤖alec,alec_plus_amani,,CAn you make fun of ken for me,7-7-2021,214
2,GarGoyleWerner,gargoylewerner,,2 months salary used to be the standard. Y’all want the biggest ring to brag but it’s just a rock 😂 the pc can do so much more,7-7-2021,132
3,Help me,jdgilsdorf17,,I mean if its his bank account then she can't really get mad,14-7-2021,16
4,Vex,vexxmeow,,Wish i had a good pc 😂😂 Like thats ever gonna happen😂😂😂😂,22-7-2021,3
5,TsunadeBigTities,tsunadebigtities,,no way Austin has become one of the dads on tiktok 😂,7-7-2021,14
6,totallynotpablo,_escobar07,,Uncle Austin how u been😁,7-7-2021,39
7,james timmons,jamestimmons139,,this would be me straight up if i had the money but i got that hp omen 870-224 not to great for game development but works,26-7-2021,2
8,whathappened,monteisalty,,day13 of asking austin for pc,8-7-2021,0
9,Toast,nochilltoast,,guys austin is not gonna give u guys a pc,7-7-2021,1
10,:/,1v1meinskylanders,,hey this is austin,7-7-2021,0
11,HaloTheguy,halotheguy,,Day 1 of asking for a PC,7-7-2021,2
12,Gundam Geek,gundamgeek,,1st ig,7-7-2021,2
13,Thebottytucher,the_botty_toucher,,Still waiting for mystery tech Austin,7-7-2021,0
14,nope,sorry_no_username_usable,,prioritys,7-7-2021,0
15,Chicken,6_chicken_9,,Bruh,8-7-2021,0
16,matt man,sbsm4zeus,,we need a new mystery tech video 🥺,7-7-2021,0
17,norm,xxfaze_kevenxx,,Can I have a pc,7-7-2021,0
18,v1per,v1per200,,2nd probably,7-7-2021,0
19,Spiderboi,aesthetxcz17,,hello,7-7-2021,0
20,bezalel avrhamy,childrenofburback,,was that a stock cooler 😳😳😳,7-7-2021,0
21,:),p0lishaviator,,that laugh got me laughin 😂😂😂😂,8-7-2021,0
22,kaden,kaden0753,,Austin,7-7-2021,0
23,gremlin6400,leonidas400,,I never knew you were on tiktok,7-7-2021,0
24,Ryan Twomey851,budheavier,,Nah he's sleeping in that chair for a bit 😂,7-7-2021,0
25,PogDream,pogdreamwastaken,,@austintechtips I met u irl ;),7-7-2021,0
26,Blackericdenice,blackericdenice,,Austin laugh 😆,8-7-2021,0
27,Emo On Your Arm,emo_on_your_arm,,I'm cause I'm asking my mom for it for christmas,14-7-2021,0
28,🐤ILIKEDUCCS🦆,lostboiakaduky,,You look like Logic (the Rapper),9-7-2021,0
29,Ekaansh,ekay987,,I can’t stop watching this😂,8-7-2021,0
30,Random Vibes,.random.videos80,,legendary laugh😁,7-7-2021,0
31,CURAHEE!!!,cptnwinterz101,,good choice,7-7-2021,0
32,🖤,truthfahl,,Gots to see it through ma boi,17-7-2021,0
33,annika niclasen,annika_niclasen,,hatta er signar!!,11-7-2021,0
34,Explicit,explicit.1,,Can you buy me a pc,22-7-2021,0
35,Diz,dizzzy404,,aeh heh heh heh,21-7-2021,0
36,Random Clips,seenpeents,,Austin I have a question?!,15-7-2021,0
37,v1per,v1per200,,hi austin,7-7-2021,0
38,thememester50,thememester50,,Hey hey hey,7-7-2021,0
39,what's good,laydenknasel5,,best tik toker on this app,7-7-2021,0
40,Tik Toker,keywl,,NOT THE ALCRO 😭,10-7-2021,0
41,Liam Hill,l14m_h1ll,,I have to ask what are your thoughts on the new Nintendo switch oled?,7-7-2021,0
42,user661837,mijuiu,,Sourta early,7-7-2021,0
43,user2410239020418,jackoc001,,😂😂😂😂😂😂😂😂 I just love your yt man best wishes from England,4-8-2021,0
44,user8303242306270,kaiser_brown14,,Well it is an upgrade,4-8-2021,0
45,Best instalock Jett main,obeeval,,Hey guys this is Austin,28-7-2021,0
46,mansion owner,ballar_dollar,,"PLAY TITANFALL....
.
.2",12-7-2021,0
47,popular gaming 3.0,populargaming3.0,,yes,7-7-2021,0
48,connor,conie_boy,,This was funny Austin.,7-7-2021,0
49,Dylan,_user_dylan,,lol,5-8-2021,0
50,Grouchy,grouchyow,,lmaoo,7-7-2021,0
51,Joseph,joseph0993,,hi!,7-7-2021,0
52,Liam Hill,l14m_h1ll,,Hello!,7-7-2021,0
53,TXAntreas,txantreas,,EXACLTY BABYYYYY😂,4-8-2021,0
54,TeenPregnancy1001,teenpregnancy1001,,I mean it was an upgrade,14-7-2021,0
55,B'rye Ahn,bryeahn,,anyone who buys any diamond has fallen for corporate propaganda hook line and sinker.,7-7-2021,1
56,Jᴏᴠᴀɴ 🥂,wholelotta.vonn,,Ⓘ This message is only available to TikTok users 𝙋𝙧𝙚𝙢𝙞𝙪𝙢.,9-7-2021,0
57,NotPatGar,notpatgar,,Ⓘ This message is only available to TikTok users 𝙋𝙧𝙚𝙢𝙞𝙪𝙢.,8-7-2021,0
58,🧊,isidro_a_sanchez,,"Asking for a Computer won't get you guys one, it sucks but they aren't rich.",7-7-2021,0
59,Faze ducky,fazeducky7,,Austin you should make a video upgrading a Xbox one controller and put scuffs on it and nice color plate for the front and grip back plate pls,7-7-2021,0
60,Baksteen,horus_28,,or a retainer for a divorce lawyer,22-7-2021,0
61,Emo On Your Arm,emo_on_your_arm,,that's a 500 dollar prebuilt off of amazon,14-7-2021,0
62,grape,undying_waterfall,,She dumb think about a ring 😂,9-7-2021,0
63,Bobux,dofkiuxl,,give me 15.000$ gaming setup if ur cool,8-7-2021,0
64,Zain Jafrani,zainjafrani,,Austin Marriage tips,7-7-2021,0
65,Aiden,hinchyman13,,@dylan__aus @the_core7 @levi_death6,5-8-2021,0
66,Connor,connor.platek,,@noah.gamache,27-7-2021,0
67,Zlateral_MARIUS,zlateral_marius,,@shehab1405 @b4s1ttt_tx 😂,5-9-2021,1
68,wuxiashia,wuxiashia,,@mehe141 😂😂,6-9-2021,1
69,JuancitoLopez16,juancitolopez16,,@hjonk_69,7-7-2021,1
70,nick M,nickm821,,@becca_lynn_,16-7-2021,1
71,evo,evo77pl,,@polskipingwin218,13-9-2021,1
72,bella salvatore,bellasalvatore07,,@youtubercrewsong,1-9-2021,0
73,i can beat goku 🤡🤡,laxus.editz___,,😂😂😂,25-8-2021,0
74,Malek,ma1ek0,,@maaaze_n2,7-8-2021,0
75,SynergyOnTiktok,synergyontiktok,,@redje71,5-8-2021,0
76,Josh Rhodes,joshr5501,,@wepackedpepsii,5-8-2021,0
77,kingkon,kingkon025,,@oshea1544,12-7-2021,0
78,;-;,connor_c09,,@cai_the_duck,10-7-2021,0
79,parker.levy,parker.levy,,@.t.eee,10-7-2021,0
80,Sashu Prakash,sashuprakash,,@a_jardav,8-7-2021,0
81,Dylan,sancho.time,,@kea.tan,7-7-2021,0
82,Truths.exe,truths.exe,,@jessna09,8-7-2021,0
83,Senpra,realsenpra_,,@gc3live,7-7-2021,0
84,Senpra,realsenpra_,,@d0m3popperxlosx,7-7-2021,0
85,eriksan,eriksan34,,I,5-9-2021,0
86,Andres,fishandres,,6,22-7-2021,0
87,KelsMuhGels,kelsmuhgels,,"pin this
　 ＼＼
　　 ＼( ͡° ͜ʖ ͡°)
　　　 >　⌒ヽ
　　　/　 へ＼
　　 /　　/　＼＼
　　 ﾚ　ノ　　 ヽ_つ
　　/　/
　 /　/|
　(　(ヽ
　|　|、＼
　| 丿 ＼ ⌒)
　| |　　) /
ノ )　　Lﾉ
(_／",7-7-2021,1
