,Comment Number (ID),Nickname,User @,Comment Text,Time,Likes
1,Jed,alwaysjed,,Do they have white I think that would be a fire color,23-1-2022,111
2,RCDN,rcdn200,,Watch them cost like 200 dollars for a case,23-1-2022,33
3,"Alex,s Page",alexp_oneawesomeguy,,First step: already own a PS5,30-1-2022,6
4,Kevin Roman,kevinroman8,,Not PlayStation making console covers when they can’t even make enough PS5 Consoles☠️,2-2-2022,4
5,MrMARVELite,mrmarvelite,,Color panels doesn’t makeup for lack of consoles!,23-1-2022,30
6,Korbin,dullys_are_hot,,instead of paying 50 dollar for it paint the white one,30-1-2022,1
7,Sith Lord,thesithwillriseagain,,Can’t enjoy it when we can’t get out hands on it,6-2-2022,1
8,mikryll,mikryll,,cool but how about play station makes more ps5s,30-1-2022,11
9,RS3Chris,rs3chris,,Thanks to @Alicia I’ve had a PS5 since launch 😎🔥👍🏼,30-1-2022,1
10,user9406563196958,i_hate_sully,,This is a eeally good idea kinda reminds me of the switch joycons,1-2-2022,1
11,maxtonbusa,maxtonbusa,,If your struggling to get a ps5 just get Walmart plus,30-1-2022,1
12,Cody Glen Hurley,codyglenhurley,,Xbox 360 front face plate😂,4-2-2022,1
13,Goat🐐,sheluv_eliel,,I need one of those I already got step one got a ps5,30-1-2022,1
14,Shermantank1105,shermantank1105,,"I love my console covers on my ps5, I have the red ones and finally got a official red PlayStation",28-1-2022,1
15,Francisco Cruz,xxfrvn,,"Instructions not clear, does not include ps5",28-1-2022,1
16,CabbageFlaps1,cabbageflaps1,,Just paint the originals,5-2-2022,1
17,Bryan Smith,bman10131,,The only problem with this is there are no PS fives. For them,3-2-2022,1
18,😀,your_everyday_npc,,fancy router,29-1-2022,3
19,Chandler,thechandalorian99,,Lol like I could get a ps5,1-2-2022,1
20,Grace Chong,ohhsilver,,I want it but don’t have a ps5 😅,3-2-2022,1
21,Josh♥️,joshuahbeams,,Lol I painted mine red day 3,5-2-2022,1
22,Christian Smith,smittyonone,,our you could just paint it,28-1-2022,1
23,asav2fly,asav2fly,,@wxvy_nb1 I don’t know if they have a for the Digital,2-2-2022,1
24,amelia mae,ameliamae.makeup,,@havensonsiefeet77 PINK,27-1-2022,1
25,🩻,.zkxs0,,Paint it ??😂,25-1-2022,1
26,ඞ Xab ඞ,xabdier,,@wetmatt OHHHHH DAMNNNNNNNNNNNNN,24-1-2022,1
27,stephany ovando,stephanyovando1,,😻 i do it olive it,25-2-2022,1
28,Carolyn 🪐 🌺,c.didonato,,I NEED IT,3-2-2022,1
29,bubblenugget,1039ft,,starting at $100,2-2-2022,1
30,ashthasmoke89,ashtonmoore260,,where to get them,2-2-2022,1
31,leaving this account,cheattools.cc,,xbox could never,2-2-2022,1
32,Andrew Moore,andrewmoore6332,,How’d you get it I need it,1-2-2022,1
33,Purple Sausage,lostsocks97,,@MichaelFrewin_ @Aedan haha some of the comments 🥲🥲,30-1-2022,1
34,BeanBuster,masterbean4220,,what if I have a digital edition,29-1-2022,1
35,Speedycat yt,speedycat_yt,,Do they have the black cover ?,25-1-2022,1
36,🇨🇦 GorillaPac for GFAM 🇨🇦,truthaboutpac29_gfam,,where do we get them?,24-1-2022,1
37,threegamers927,threegamersvr,,My mom just got me a ps5 😁,24-1-2022,1
38,Memedoggo,dankmemesandranfomstuff,,"Austin, I watch your yt videos I love them, they are so good :). I like mystery tech the most",2-5-2022,0
39,CIROWILLIAMS,cirowilliams2022,,So dice😍😎🤙😍,26-4-2022,0
40,earphoneser,linktoma,,Wow,21-4-2022,0
41,William.Baasch,william.baasch,,Im sorry little one,10-4-2022,0
42,Alpha,itz_mathew,,bruh i need to get a ps5 first,19-2-2022,0
43,KemO,kembol28,,I want to buy a ps5 someone show me where to buy from in the UK,13-2-2022,0
44,🫶🏾💕,xo.honcho,,he just called y’all broke btw,12-2-2022,0
45,Jonathan,lurkinglamario,,Show us how to get one first 👀,4-2-2022,0
46,Rxtzy.warzone,mtb.rxtzy,,I had a look at price it’s 50 pound so I carnt get it,1-2-2022,0
47,Superfly,daniel_a_person,,but its $50,31-1-2022,0
48,Brianna Hook,mimikyu_lov3r,,I watched yesterday’s Mystery Tech with the goofy looking Razor face mask; as always looking forward to the future Mystery Tech videos!,31-1-2022,0
49,alpha,kraken_nathan21,,just spray paint the plates,31-1-2022,0
50,Cody Preston,codypreston18,,You,31-1-2022,0
51,Benito Herrera910,therealben23,,I honesty been able to find ps5s but the xbox series x is impossible for me even graphic cards are easier to get,31-1-2022,0
52,Brandon,brandonso_nice,,The ps5 is a blast and I hope everyone get to experience what it’s like to play one,31-1-2022,0
53,Shadvi,shadowviper7z,,What existing ps5,31-1-2022,0
54,krug,.krug,,or you can just hydro-dip for a fraction of the cost,31-1-2022,0
55,Cesar Corona,coronalokz,,lol buying covers its a good start to BUILD my OWN PS5 lol 😆 gotta start somewhere 😂😂😂,31-1-2022,0
56,Eddie 🥶,the_marshian,,are these sold by sony?,31-1-2022,0
57,user2263804670922,justinericksonrep,,what is a ps5?,31-1-2022,0
58,LLcash x,doodawtf,,Price?,30-1-2022,0
59,motherofthree233,motherofthree233,,If only I can get one 😅,30-1-2022,0
60,Carter Matthews,z2carterm2006,,These best be like 15$,30-1-2022,0
61,Dream_er5,your_local_dream_blob,,What is the ventilation on that thing it looks like it has no airflow,30-1-2022,0
62,Zachary,zlongart,,"I love the white, but I’m so tempted to get the red because that is my favorite controller that I’ve got",30-1-2022,0
63,Jah,jt..unkown,,We’re to get shells,30-1-2022,0
64,maynor,big_toe_the_third,,only 200,30-1-2022,0
65,I am on YouTube and twitch,ricardolikegames,,where can I get one??????,30-1-2022,0
66,MaseTheSans,dumbie_bumb,,Dude I just want A Ps5,30-1-2022,0
67,E,aaaaaaaah55,,They’re doing everything but make more ps5,30-1-2022,0
68,omg,.__ed,,Plasti dip the original ones,30-1-2022,0
69,Fuck_outta_here,just_a_guy_with_taste,,Does it come with a ps5 ?,30-1-2022,0
70,Official Bryce,_itzbryce,,POV: you have old gen😭,30-1-2022,0
71,Kyle,kylebretn,,How much was it,30-1-2022,0
72,nowayjose,realslimejose,,Step 1: your not getting a ps5,30-1-2022,0
73,Baka-kun,baka_demon.baka,,Me Panting it,30-1-2022,0
74,No,dgl0ks,,@bigboyjohnosn @bobthebob011 I made mines,30-1-2022,0
75,𝓐𝓷𝓭𝓮𝓻𝓼𝓼𝓸𝓷🫶,premeshadow,,Black would be cool,30-1-2022,0
76,/_🎱_\,yu_gi_fo,,Where can I buy these. Want the midnight black and cosmic red so they match my controllers🔥,30-1-2022,0
77,Dean the pimp,dean_the_pimp,,How much does it cost cause I have a ps5,30-1-2022,0
78,Troy,itz_troy321,,where do I get those console covers I have the ps5,30-1-2022,0
79,Amohelang,amohelangstance,,Where did you buy it,30-1-2022,0
80,Chayton,chayton_riner,,Linux tech tips😏,30-1-2022,0
81,BBG,hotel_soap,,Bold of PlayStation to assume I was able to get one,30-1-2022,0
82,BBC Kazy,they.luv_kazy,,I could go to my local family dollar buy a can of blue spray paint for 10$ and save 70 bucks,30-1-2022,0
83,Alexander Soto,asoto_19,,I might get one 😳,30-1-2022,0
84,Cam♓️,7.6.2cam,,Where to get them,30-1-2022,0
85,ChevyS10,chevys10_,,Wait…is that red,30-1-2022,0
86,Hi,tu.shawty.org,,play it save and get ur self some raps,30-1-2022,0
87,𝑩𝒐𝒏𝒊𝒕𝒂ꨄ︎,jazlynn.bonita,,do purple,30-1-2022,0
88,cowboy,djcampbellsoup,,I was eligible for one but I didn’t have enough money,30-1-2022,0
89,Ryker_run1213,ryker_run1213,,where do you get in ?,30-1-2022,0
90,Your mom,yo_mama304,,Just spray paint it,30-1-2022,0
91,Young in’,gothamthugwayne,,I didn’t need that lil subtle jab at the end lmfao,30-1-2022,0
92,Æ,provin.k,,Do they have it for the digital version bc that’s what I have,30-1-2022,0
93,InkedDemonn,inkeddemonn,,so they took the time to actually make branded covers since everyone else was already doing it for them. but they couldn't drop more ps5s.,30-1-2022,0
94,Edson,edson.c14,,can i get a white one,30-1-2022,0
95,Latavious,latavious_jinglebottom,,Me who has an Xbox watching this video:,30-1-2022,0
96,slim,si1mv,,Bro it’s been like 6 months and I still can’t get my hands on one 😭,30-1-2022,0
97,Alex,al3x611,,I got the same red ones they look dope,30-1-2022,0
98,Dude,bajablast_in_ur_ass,,Genuine question: how much these cost?,30-1-2022,0
99,Anttt,she_fwant,,Error message: Get one first bozo,30-1-2022,0
100,dhdhdhsh,user172772727277272,,I need this,30-1-2022,0
101,Billy Hargrove is my husband,iloveeggolove11,,They just want money huh,30-1-2022,0
102,Not2brag,not2brag,,Wait people have ps5s?,30-1-2022,0
103,Dade,2famous.dade,,How much are they and we’re can I get them ?,30-1-2022,0
104,Giochamp007 Official 🐺💙💚,giochamp007._.official,,@michael_meyers0 get these in red!,30-1-2022,0
105,.,not._derrick,,could they focus on actually getting more ps5 s before making accessories,30-1-2022,0
106,The.real.fat.thor,thore31b,,but do they have the small X O Tingle and squares stamped in the mold like the normal white covers,30-1-2022,0
107,Reese the Iso king,fuegodominicano,,Maroon,30-1-2022,0
108,I don’t have one,kurruptful,,Ima get a red one,30-1-2022,0
109,jacksoncapalot,jacksongris881,,how much are they,30-1-2022,0
110,Aaron Keaner,sherlock501,,it's a shame Sony is so greedy they shut down smaller companies so they can't take the money all for themselves,30-1-2022,0
111,Riley,billz_mafia12,,I have had black ones since December just not from PlayStation,29-1-2022,0
112,XK042309,xk042309,,tip: they dont hqve the ps logo but they sell cheap ones on amazon that do the same thing... i already have black ones,29-1-2022,0
113,Edits🧡,mrjedits1289,,They don’t got it sold no more my ps5 is white I want it black so bad,29-1-2022,0
114,Maniac?,first_lilmarvel,,I just bought a ps5 dkin wrap,29-1-2022,0
115,Nosey,thatnoseyguy,,I would get it but I think my white covers look more sleek and futuristic,29-1-2022,0
116,Danny Lopes,dlopes532,,Where can you find them?,29-1-2022,0
117,Twins fan lol,thecwhite1,,@nuke_tdleader get these,29-1-2022,0
118,🫁 m r o t i n g 🫁,mroting,,"@grizzm09 looks cool, you have a ps5 ig",29-1-2022,0
119,Andreyu258,andreyu258,,Get me a ps5 first,29-1-2022,0
120,Favian Ulloa,favo713,,are this official ?where can you get them at,29-1-2022,0
121,Trionyx216,trionyx216,,Thats lit but if only any of the next gen consoles were available,29-1-2022,0
122,uri 🫃🏾,urieldropemoff,,Xbox 360 vibes,29-1-2022,0
123,.-.,canelaa108,,me with my ps5 covered with anime stickers,29-1-2022,0
124,TJ,tranisate27,,I’m not buying plastic for 70$ even if I used PS,29-1-2022,0
125,Meme hub,lollillollollollollollol,,All that for something that is impossible to get,28-1-2022,0
126,Jah🥷,ripxjahh,,I got a ps5 now😂,28-1-2022,0
127,water,carter.water,,austin evans,28-1-2022,0
128,Hi bbg,whatupbbg123,,I’m going to get the Black one it matches my control,28-1-2022,0
129,Zarude,v.a.de.r,,I have 1,28-1-2022,0
130,Emouryu,emouryu,,did those finally drop? i want the pink one 😳,28-1-2022,0
131,nmatherne13,young_pissa,,@a_s_h_r_ I don’t like Sony but that’s a cool concept,28-1-2022,0
132,Rafael Perez,rafitron,,if only if I could find one,28-1-2022,0
133,dixon ,deaxcapalot,,@jeremyonexpo W,28-1-2022,0
134,jackson,fw..nyx,,i might have to cop for my red ps5 controller,28-1-2022,0
135,Zæ 👾,hey_siri_send_help,,@koithealchemist you need the purple ones,28-1-2022,0
136,Cløver,hahafunnycomic,,I want a purple one,28-1-2022,0
137,𝐷𝑎𝑚𝑜𝑠 𝑤𝑎𝑟,d_warfelmusic,,@Austin Evans has sony announced when the other colors besides the cosmic red and black covers will be released,28-1-2022,0
138,YO,etierr9,,Can you do a video on the other colors😅,28-1-2022,0
139,✞✞✞ just Chillin like Mr.WEST,shortboyj,,Ima try the black cover,28-1-2022,0
140,Trafalgar Law,trafalgar_.d._water_law,,yeah i’ll use them once i can get a ps5,27-1-2022,0
141,Ryder,ryd.e_.r,,Mine don’t exist,27-1-2022,0
142,Erik Calderon,3rikc11,,Can’t u just spray paint it,27-1-2022,0
143,user762108637008,bryciiii,,People came out with this right when the ps5 came out and sony sued them what a shame,27-1-2022,0
144,KALYNNN!!!!!,whoiskalynyn,,@hailee_swag that is so cool!,27-1-2022,0
145,Theiikos,lunnamoon0,,Yeah also over 100$,27-1-2022,0
146,Dylan,dilly.dilly.dilly,,I did black and white on mine 😎,27-1-2022,0
147,big kam 💪,cougarsboyfriend,,they can make more colors but not more consoles 😭,27-1-2022,0
148,fearnomanorgod🇵🇷,fearnomanorgod,,"oh look, the only thing a PS 5 is good for seeing that there's not going to being any good games in 2023.😏😅",27-1-2022,0
149,Rumble,rumble029,,We can’t even get a ps5 in stock to buy u talking about covers lol,27-1-2022,0
150,usha,urfavelmo,,Step #1 find a ps5 in stock,27-1-2022,0
151,German A. Montiel,germontiel716,,How much do the panels cost?,27-1-2022,0
152,Ethereal Blue Night,etherealbluenightsky,,they did d brand dirty,27-1-2022,0
153,Kevin,wzduck,,Love the vids,27-1-2022,0
154,Deltarune enjoyer,deltarue_enjoyer,,There’s a way that you can get the covers for only a couple dollars and in more colours,27-1-2022,0
155,Damn Daniel‘s,shawncodringtonthesave4,,Hi,27-1-2022,0
156,shy,corrcted,,@sxrro I WANT THIS,27-1-2022,0
157,mini,miniuwu,,where u get that from,27-1-2022,0
158,Mike_VBS,voxboothstudios,,Need a Ps5 first 😅,27-1-2022,0
159,Bmunontop,jadenirwin09,,Where did u get them,27-1-2022,0
160,Causal_weirdkid,casual_weird_kid,,I kinda wanna see what my ps5 would look like black,26-1-2022,0
161,Loading…..,zerscxz,,I want a new color,26-1-2022,0
162,yes.,milino_tomato,,where can i get them,26-1-2022,0
163,User878979,eric34567789,,Yay no thanks 55$,26-1-2022,0
164,facts,fact.,,It don’t look right lol,26-1-2022,0
165,Adrián Castillo Aguilar 🐍🥀,vlxne.adri4n,,They ran out before I could get one 🥲,26-1-2022,0
166,ٌ,jc.t8,,Does austin reply+we need mystery tech now i keep wathcing the old once every day😂,26-1-2022,0
167,Ryan C,ryancab23,,That’s a nice wifi router,26-1-2022,0
168,Jevaun Ferguson,mr.hershey02,,Or save money and just paint it,26-1-2022,0
169,GageO'neal,gageoneal123,,I got mine for $500 lol,26-1-2022,0
170,Devon Pennington,devonpennington38,,I have a ps5,26-1-2022,0
171,What the dog doing 🤔🤔🤔🤔🤔,whatthedogdoing417,,Where did you get it at,26-1-2022,0
172,ywncam,ywncam,,that’s tuff,26-1-2022,0
173,idiot,gonkyscronk,,its giving math folder,26-1-2022,0
174,Christian I go by Chris,chris_the_editor,,Step 2 get a color cover,26-1-2022,0
175,Vsplaah•,vsplahh,,Imma get a black cover,26-1-2022,0
176,Child of yah Micah,micahgeter,,Just the same ol colors as the controllers,26-1-2022,0
177,darineay,darineayy,,Step one get a ps5 first,26-1-2022,0
178,Heather,specialeyemom,,That kinda looks pink not red,26-1-2022,0
179,Jason Jacobsen,jayjay8090,,That’s sick. Ima get a blue one for mine! 🔥,26-1-2022,0
180,RobertLain,robertlain,,that's why they sued some company for making these,26-1-2022,0
181,I <3 Daneisy 🦋💍❤️,theyluv._kxr,,Where do you get them from?,26-1-2022,0
182,Conner👌,dat_guy_conner,,for all y’all arguing about the xbox being better the playstation has a Vr which end the argument,25-1-2022,0
183,Sean,shezieman,,Wrap it in vinyl for 10 to 15$....cant walk in a store and buy a ps5 anyway so it dont matter.,25-1-2022,0
184,daniel,4hnnd,,@saulvldz might get a black cover,25-1-2022,0
185,Abdulaziz Al Amoudi,itsayyze,,But imagine the customs u can make bro istg it will be fucking 🔥,25-1-2022,0
186,_Hima_warii,_hima_warii,,They pop off just bro spray paint is $50 cheaper,25-1-2022,0
187,.,______.__1_1,,How y’all still not have a ps5? I got in 2020 lol,25-1-2022,0
188,Thepokecollect,thepokecollect,,How much are the covers going for?,25-1-2022,0
189,Tik Toker,chupapi43086,,step 1: get ps5 out of living room after u no longer have covid 😂,25-1-2022,0
190,Luis Carreon842,luiss.817,,Where can I buy this 🥺,25-1-2022,0
191,spaghettilingueni,spaghettilingueni,,I got black and white and yellow and lime green,25-1-2022,0
192,⬤⃢⬤,malias77,,I had a black skin on my PS5 since may 20th bro😂,25-1-2022,0
193,😐,bjarrett318,,It looks like a stack of colored paper,25-1-2022,0
194,LOL,treiisolos,,It’s also call spray painting,25-1-2022,0
195,CardinalsAllTheWay,cardinalsalltheway,,Imagine not having a ps5 yet,25-1-2022,0
196,.,boredape04,,Carbon fiber?,25-1-2022,0
197,Edgar Gonzalez,edgar_g04,,Or just take off the covers and spray paint them😂,25-1-2022,0
198,キッスランド,oxyroob,,Where do you buy these need to buy a black one and purple one,25-1-2022,0
199,💯,fwjace69,,Thanks I’ll ask my mom if I can change the color,25-1-2022,0
200,Master Tebet,tebetram0,,What’s a ps5😔I haven’t seen one of those in stores,25-1-2022,0
201,🦁♌️🍜,trippyfarts,,The color looks like sherburt,25-1-2022,0
202,𝕄𝕒𝕣𝕚,cryticx1,,I just put an itachi wrap on mine,25-1-2022,0
203,_c.ha.d____s.a.n.d.e,hellomynameischad,,yall still don't have a ps5🤧😭🤣,25-1-2022,0
204,Emily,pika_pi025,,I Need the blue controller and panels 😍,25-1-2022,0
205,B A B Y G O A T,jamai2turnt,,Where can I find this 🤔,25-1-2022,0
206,Travon Young,lost.n.smoke,,"Yup, I need the red one",25-1-2022,0
207,Omar Adawy,omar.adawy,,Where can I get one?,25-1-2022,0
208,winters_6poptart,winters_4562,,it would be good If I had one I have a PS4 but I want a new 5,25-1-2022,0
209,Brian Thompson,t_3_d_0,,Much cheaper to paint them yourself lol,25-1-2022,0
210,Andreyas Montanez🇲🇽🪖,_andreyas.m,,Ima do black so it runs faster😏,25-1-2022,0
211,Noneyabuisness,zylzaa,,Looks to hard won’t be using,25-1-2022,0
212,Shemar,shemarokand,,I have PlayStation 5,25-1-2022,0
213,polo,polo..net,,xbox is better,25-1-2022,0
214,MarMar,clipdabih,,Can’t do that cuz I’m not buying no ps5 from a scalper I love my ps4 lol,25-1-2022,0
215,Cyzcer,cyzcer,,My flex is I have one,25-1-2022,0
216,Brycen,fortniteg0d1234_brycen,,Do they have 9ne for a digital version?,25-1-2022,0
217,Nathan Anderson,nandersz,,bout to be $500 on stockx,25-1-2022,0
218,Cookie,r.o.n.y.a.l.e,,I have on just not the color thingy but I’ve no clue where to buy it,25-1-2022,0
219,DJ D0gman,dj_d0gman,,First,25-1-2022,0
220,Tik Toker,user52267222,,Before Sony released their official covers there were company’s making these exact same covers for a lot cheaper,25-1-2022,0
221,melikcats,henry_zelle,,D brand did it first,25-1-2022,0
222,Anthony Hureskin,myself_darkness,,I’ve got one Costco came in clutch with 6 left the month it came out,25-1-2022,0
223,ThaRealNWIJD 🛸,therealnwijd,,This dope might order for my Ps5 since I have the red controller 😎🤘🏾,25-1-2022,0
224,Stx.angel_956,stx.angel_956,,Where can I get the covers,25-1-2022,0
225,Ballislife95,babypac95,,Where can you buy these at,25-1-2022,0
226,GHOSTE👻BOYE,_kapptain_kush_,,And each side panel will be 100 bucks,25-1-2022,0
227,football,that_1_football_dude,,So basically Nintendo switch joy cons😅,25-1-2022,0
228,Daddydrew,cloutedrew,,Were u get it from,25-1-2022,0
229,Glory,2004hoodrich,,Damn bruh it’s 2022 and y’all still ain’t got a ps5💀,25-1-2022,0
230,isizjzj,user1qb80c161w,,spray spray,25-1-2022,0
231,hi,maxbear33,,yeah but they cost a lot of money but spray paint only cost five bucks,25-1-2022,0
232,Kingpxoxo,proxeys_wrld,,How do you get them,25-1-2022,0
233,Myself,sagmade_dave6,,How do you get blu,25-1-2022,0
234,Gunzo H.,gunzo_n_hambone,,Why would you buy these!? I just put stickers on mine,25-1-2022,0
235,エイドリアン,yka.adrian,,Ima get red,25-1-2022,0
236,aidanq7yrsgomez,aidanq7yrsgomez,,do you ever heard of spray paint,25-1-2022,0
237,Pokemon Cards,realfalconsgaming,,We’re can I get it?,25-1-2022,0
238,🧑🏻‍🦯,thatmag_,,imagine how much they are better of just using cans bruh,25-1-2022,0
239,Cruzz,cruzz451,,That would be cool if I had a ps5 and the covers weren’t 50$,25-1-2022,0
240,Miki,8miki24,,Where do u get them?,25-1-2022,0
241,lxrdskulfac,lxrdskulfac_xxx,,A new skin💀,25-1-2022,0
242,T.Rex415,t.rex415,,I’m just saying this but do they have it for digital PS5s?,24-1-2022,0
243,Brad,kingbradley50,,How much do it cost,24-1-2022,0
244,Sus🥶🥶🥶,panda_chase4,,Why don’t you just paint it,24-1-2022,0
245,Anthony Heightland,anthonyheightland,,Do you know you can just paint it yourself,24-1-2022,0
246,Ramon Castillo,___holy_water__,,aren't they like 50$,24-1-2022,0
247,Typical Toyota prius owner,me_not_acc2,,why couldnt you just paint the white one,24-1-2022,0
248,Rocks,rocks.tv,,Just take off the white one and paint it,24-1-2022,0
249,Jedi Knight Xzavien,jedi_knight_xzavien,,What's a PS5?,24-1-2022,0
250,Bigneil,bigneil75,,“grab your existing PS5”,24-1-2022,0
251,Xoxoxoxoxox,dtxo33,,"Xbox bro 😂, ps5 doesn't have any value, right now 😁",24-1-2022,0
252,nggars,treshyxgqd,,most def gonna cop a blue camo,24-1-2022,0
253,victoria,vxctoriaa.9,,@dripydre4l dang,24-1-2022,0
254,Ladawn,remy_1982,,Where did you get them at,24-1-2022,0
255,James Daigle,justjames0122,,spary paint,24-1-2022,0
256,CJ Magistrado,cjjccjj__,,I wish I had a ps5,24-1-2022,0
257,Antonio Roman,prince_capalot7,,How much and where do I get it ?,24-1-2022,0
258,EstebanG7,estebang007,,Just 2 colors bro not a bunch. 😅😂😂,24-1-2022,0
259,Alan,alan51206,,Are those Cover easy to find?,24-1-2022,0
260,Luca,lucadmac,,Why is Sony manufacturering this instead of the actual product PS5,24-1-2022,0
261,firsttoaster,toasterman55,,you guys cant find ps5 my walmart you can buy one right now,24-1-2022,0
262,Ryan,kuro2413,,Or buy a Xbox,24-1-2022,0
263,R3TRO-7000,r3tro7000,,thank God I got mine,24-1-2022,0
264,Rvmz214.,rvmz214,,Oh great now I can buy a skin for the ps5 before I can get a ps5,24-1-2022,0
265,Jose Sanchez,smokeybear39,,I Own PlayStation 5 and I don't even like it I am buying an Xbox,24-1-2022,0
266,Marc Miranda,samuri923,,That looks pink more than red,24-1-2022,0
267,Tim O’Shea,timo23232,,Bro what I got a brand new ps5 from my boy for 500 last week,24-1-2022,0
268,Cheyanne,cheyanne891,,Imagine you order this and a ps5 and the ps5 never arrives so your stuck looking at ps5 covers,24-1-2022,0
269,Dee Kelly,ogxdee_,,Oh my god not the covers 😂,24-1-2022,0
270,Ali,xghostyghostx,,that's not red 💀,24-1-2022,0
271,Ang3l,rh3a___,,Drop your PlayStation and it’s gonna come apart like an android,24-1-2022,0
272,Brandon Kibe,brandonkibe66,,I wish 🥲,24-1-2022,0
273,dittoシ,downbadditto,,nah I'm gonna sell my PlayStation and buy an xbox 😏,24-1-2022,0
274,彼が来る,.komba,,How much is it ?,24-1-2022,0
275,🎮Danny🎮,dannyhernan209,,@theconfuzedman you should get one of these,24-1-2022,0
276,Charles Lewis Jr. 🖤🎯,nolimitcollection_,,Y’all late D Brand had black plates first 🥴🤣🤣🤣,24-1-2022,0
277,༄NBEAURA༄,nbeaura,,Thats red,24-1-2022,0
278,SomeKramerGuy,somekramerguy,,Do they have a release date yet?,24-1-2022,0
279,FlanCakes,flancakesmakes,,remember when they sued plate-station out of existence,24-1-2022,0
280,Levy,levyitup,,Are these available in stores,24-1-2022,0
281,Hub of randomshit69,randomshit_hub105278,,I might buy a blue one,24-1-2022,0
282,_Slimexant_,_slimexant_,,For the people that don’t have ps5 get it from stock x it’s legit and I got mine when I couldn’t find one ur welcome,24-1-2022,0
283,gohanultra110,gohanultra110yt,,I'm prob gonna get the black ones,24-1-2022,0
284,Anthony Mitchell,zolphdiggler,,I have the black dbrand v1 on mine. Love them. Hope more colors come out,24-1-2022,0
285,yvngboyg5 🤹🏽,yvngboyg5,,"Bro, I can’t even get a damn ps5",24-1-2022,0
286,Ghostinthemask,ghostinthemask,,Cant you just 3D print them without buying them?,24-1-2022,0
287,Vultur30fL1ght,vultur30fl1ght,,Where do i buy them i need this,24-1-2022,0
288,Martin,martin909ca,,sometimes i forget the PS5 is real and some people have it,24-1-2022,0
289,rabrav,soinspirational,,Waiting for extremerate to make translucent atomic ones,24-1-2022,0
290,Jose,jose_joise,,I want black,24-1-2022,0
291,Trent Vester,trentvester7,,Thank,24-1-2022,0
292,Callum Donovan,callumjdonovan,,I’m of the opinion that the original white is superior.,24-1-2022,0
293,Sin,lyriansins,,didnt Sony literally sue someone for making custom plates?,24-1-2022,0
294,SumTingWong😪,forever_knoxie,,Welp guess i gotta buy the light blue one with the controller,24-1-2022,0
295,Ismael Chaves,ismaelchaves7,,did you scratch it again ?,24-1-2022,0
296,austin 🫶,akiraishere,,you guys are still struggling to get the consoles HAHAH💀💀💀💀💀,24-1-2022,0
297,Reddit,redditstories_1109,,I did this and my ps5 console shell broke in half 🥺,24-1-2022,0
298,💀,l.j_l07,,£30 if anyone is wonderful how much money,24-1-2022,0
299,fresnobeee,fresnobeee,,idk what's gonna last longer. covid or still not being able to get the PS5,24-1-2022,0
300,raeed,raeedskot,,this is a great template for some art,24-1-2022,0
301,KillaConcep97,killaconcep97,,Where can I buy this,24-1-2022,0
302,Matt Rowe,mr.roweboat,,Putting my panels back on was terrifying because of how much force that last button takes to click in,24-1-2022,0
303,Muhammad Masood,nlestudios,,"when this console finally has games, wake me up when september ends",24-1-2022,0
304,Johnny💫,fl.jonathan,,Where do I get that,24-1-2022,0
305,Forrest,cheyennes.bf,,Or just paint them and not have to pay 40 dollars,24-1-2022,0
306,Liljuice Kidson,liljuicekidson,,I don’t see why I would bother doing this not even worth it honestly the 700 I spent on just one console is enough it’s no better then a ps4,24-1-2022,0
307,⠀ ⠀ ⠀ ⠀ ⠀ ⠀,void_zyro7926,,Bruh you could just take off the normal shell and spray paint that,24-1-2022,0
308,Nicholas Ortiz,misfortune98,,id have a better chance at winning the lottery than getting a ps5,24-1-2022,0
309,Skywalkinflores,skywalkinvibin,,Ended up camping outside with a buddy and thankfully managed to get a ps5,24-1-2022,0
310,medszilla,medszilla,,"L console, get an Xbox 😬",24-1-2022,0
311,skins898,skins898,,"thanks, now I can spray paint them lol 😂😅😐😑",24-1-2022,0
312,Elias,carwileelias,,where can i get them,24-1-2022,0
313,Bossman Tezo,bossmantezo,,I got a red ps5,24-1-2022,0
314,Lol,rinqo25,,is that pink or red?,24-1-2022,0
315,DungEater,caretaker80,,Spray paints like three dollars,24-1-2022,0
316,woodhernandez89,woodhernandez8,,I need a black 1 or a ps1 grey,24-1-2022,0
317,Mitchell Smith,mitchellsmh,,Filmed on a Nokia 3310,24-1-2022,0
318,JRODMCLFY,jrodmclfy,,just get some spray paint,24-1-2022,0
319,Gaby Familia,ga5657,,Have on Amazon for 34 bucks,24-1-2022,0
320,Ayyo Fattyy,ayyyo_fatty,,Where can I buy these ?,24-1-2022,0
321,Jay,snivez3,,I want a boneless ps5,24-1-2022,0
322,🤡̵̛͔ 💀̩̲̜ 👁️⃤ 💀̩̲̜,ben.alls,,@hzjoe this true?,24-1-2022,0
323,Thmemeshow,thmemeshow,,Thanks,24-1-2022,0
324,Aaron Caldwell,they_lyin95,,It shouldn’t be 50$ tho that’s ridiculous,24-1-2022,0
325,3arc_alext,3arc_alext,,Spray paint 😬,24-1-2022,0
326,yæs,sensualpumpkin,,saw that those are $50 for one,24-1-2022,0
327,Luca Barnes,lucab_19,,Xbox: Buys blizzard for $70 billion PlayStation: We have colors!!,23-1-2022,1223
328,geico save 15%,firulias_,,Imma get a black cover so it can run faster😳,23-1-2022,371
329,Chad Gigga Adowel,chad_adowel,,pls send me one!!!!,5-2-2022,0
330,Ya tu sabe,yatussabeonel,,"Dude? Is this an official product? Damnnn a small company started doing this, Sony sued and they shutdown 🥺. They just stole the idea",29-1-2022,0
331,The Domin8tor 3049,thedomin8tor3049,,*breaks cover by pulling too hard*,25-1-2022,0
332,B,brysonelite,,That cool n all but u can’t run 1440 on 120hz,25-1-2022,1
333,ABTOOWAVY,abtoowavy,,thats sickkk @Seager @E @itsNatnael,25-1-2022,2
334,Wiwiw,hehehehheheh40,,How tf do people get ps5 there out of stock everywhere,27-1-2022,1
335,Wyatt L,.aubreysaidstink,,I'll just paint it myself,30-1-2022,0
336,King_jejdtlrr,king_jejdtlrr,,Ik this would probaly be easy but im not taking any chanes my dumbass would somehow screw this up,25-1-2022,0
337,Wendriel,wendriel,,"boooooooo, screw Sony and their trigger happy lawyers, use @dbrand 's side panels and skins",24-1-2022,0
338,mrMaldives,mrmaldives,,gay,2-2-2022,1
339,Kristian Srbinovski,kristianluvscarti,,@Anthony do this to ur ps5🤫🤫,30-1-2022,1
340,Chris Tiko lee,chrislee544,,"Imagine arguing woth each other on how their favorite console is better than another person's,just a songle video enrages people and start a war!",17-6-2022,0
341,Highdra,hiighdra,,hear me out.. spray paint,3-2-2022,0
342,Keegan or snow,kaito_takahashl,,just get spray paint,31-1-2022,0
343,_aldo.x,_aldo.x,,"selling my ps5, dm on ig for info",30-1-2022,0
344,big daddy dom,dom.daddy69,,imagine not having next gen consoles 🤣👎👎,30-1-2022,0
345,Andrew,unofficial_dre,,Or u can paint spray the white one🤷🏽‍♂️,30-1-2022,0
346,✨Bailee✨🎀👛😜,b.a.i.l.3.3.3.3.3..3.3.3,,I’m so happy I got a pe5,30-1-2022,0
347,FinalHours,nutmaster18,,sweet I would If I had one,30-1-2022,0
348,I HATE FEMBOYS,arize.user,,They should make one and put a dust filter on it,30-1-2022,0
349,ZappierHat5827,zappierhat5827,,Customizable wifi router,30-1-2022,0
350,risen1x,risen1x,,How much,30-1-2022,0
351,Imagine_,dangbrothatsstuff,,Or just spray it for 5 bucks instead of 30,29-1-2022,0
352,dagger is still a loser,.dagger.7,,step 1: get money,28-1-2022,0
353,⠀ ⠀ ⠀ ⠀ ⠀ ⠀,generatedusername15563,,Ripoff Linus.,27-1-2022,0
354,user409685590957,ajb4486,,Or simply paint the existing one 😳😂,27-1-2022,0
355,yourdead1171698,thecockeliminator,,Or paint it yourself,27-1-2022,0
356,dani3l_vasqu3z,dani3l_vasqu3z,,Give me yours,26-1-2022,0
357,Adam Grushkevich,adam_grush,,@slothy.goat ze drip,26-1-2022,0
358,Rene🙆🏻‍♂️,8kkrene,,@ozziber u should get black,25-1-2022,0
359,Carterthegoat,yaboi_c_dog_,,Or spray paint ur own,25-1-2022,0
360,Unknown_user,user98522341,,Who wants a Gaystation 5?,25-1-2022,0
361,Blank,a_silent_walker645,,existing ps5 your joking right. right,25-1-2022,0
362,zerox0s,zerox0s,,this is cap obviously no one's even seen a ps5 in person,24-1-2022,0
363,Dark Rebellion,darkrebellion7,,Darkplates did it better,24-1-2022,0
364,Unbound_Character,zombiex1001,,Og black is the best 🚫🧢,24-1-2022,0
365,Luciano Sanchez,itslucianos,,Selling a ps5 hit me,24-1-2022,0
366,Failed Abortion,faileduhhbortion,,Why not just paint the white covers 😅,24-1-2022,0
367,.,butthurtt123,,Fire !!,24-1-2022,0
368,Vibing cat,catvibingtokevinpollka,,The Linus tech tips ps5 skin is better it just has his face stretched down the console,12-3-2022,0
369,Tristin,thelgndtristin,,Lmfao GrAb YoUr ExIsTiNg Ps5,4-2-2022,0
370,jaimè,jaime2cool4scool,,even playstation know they console ugly asf,2-2-2022,0
371,Ur dad,sleepytv.hvh,,PS5 covers-60$. Spray paint and paint tape - 15$,29-1-2022,0
372,Mindless,mindlesscreed,,Sucks these consoles are ass,28-1-2022,0
373,Jermiah🥸,jwiththemullet,,Lost me at “Grab your existing PS”,28-1-2022,0
374,MAX,ponygeneral2,,I would of gotten one if it wasn’t so ugly,28-1-2022,0
375,just a trash editor,set_your_heart_ablaze13,,damn waste of money😂,28-1-2022,0
376,تايف,muslimstaani,,Who remember's PSP NESS From the PSP ultimate vdo 😂😂😂,27-1-2022,0
377,Teddy Black240,teddyblack223,,Why would you buy that just pull them off and spray paint them,27-1-2022,0
378,Cmc845,cmc845,,Can I be the 1st in preorder line for PS6? PS5 be dated by the time it’s available,26-1-2022,0
379,yeah,yourmother20025,,"lmfao no fucking way, this shit looks like a 5th grade school folder",25-1-2022,0
380,krypticreaper327,krypticreaper327,,First you have to actually get a ps5 cause all the scalping wanktards got them all,25-1-2022,0
381,r.j.madnezz,r.j.madnezz,,Just wrap it like a car,25-1-2022,0
382,user8134611013381,badsort,,Wrong all you have to do is pull down.,25-1-2022,0
383,vincent buchanan,vincelovesmilfs,,Can release dumb colors but not the console. Lame asf. There’ll be a damn ps1000 before you can get the 5,25-1-2022,0
384,send,outforaripbud,,eh yo gimme your covers ill custom wrap them or dip them lmao peasants buying colored covers if its removable it can be painted lmaoo,25-1-2022,0
385,I’m child of god,nickthepro777,,Sick,24-1-2022,0
386,Kayla Friday,killermittensxx,,Lol stupid,24-1-2022,0
387,Seth Hirsch,sethhirsch,,Sony and Microsoft can both get fucked,24-1-2022,0
388,daddy_bergeron,daddy_bergeron,,If you actually gonna pay $50-$60 for a cover then you need help seriously. I’d take that white 💩 off and go spray paint that,24-1-2022,0
389,Bob,userz7wnx145dw,,Buy me a pc dog,27-1-2022,0
390,serenity,uhh.serenity,,i just spray painted mine,26-1-2022,0
391,Josh Hut,mysteryunkownbacon,,Plasti Dip to save money so you can reuse your original Ps5 covers,25-1-2022,0
392,ㅜㅁ나ㅐ,tupata_m1nka,,where TF do u buy the casr,24-4-2022,0
393,DJ_GOT GROVE🥶🏀🏈,dj_boi1,,Idc,25-1-2022,0
394,roby staples,robyjay510,,So we still can’t get the consoles because the companies are shit but they making customization options,24-1-2022,0
395,Smalluglykid,smalluglykid,,"Stop making ps5 content, regular people aren’t allowed to have them",24-1-2022,0
396,Iceeyz,iceeyz_,,Funny Fact: A Fan made a Shop where you can buy those panels with cool Designs. Sony sued him and stole his idea.,25-1-2022,0
397,Nines,pimp_daddy_9s,,My broke ass still has the PS4 dude,25-1-2022,0
398,Angel Rodriguez,eiinyaa_se,,sexy,24-1-2022,0
399,Tyler J. Adams,grizzlytadams45,,"I love how Sony got pissed at people selling or making their own colored plates, then comes out with this a year later",24-1-2022,0
400,Kaden,k.a.d.e.n.1.8,,Couldnt u just spray paint it for like $10,27-1-2022,0
401,Minato Namikaze,father.minato,,I have enough for like ps3 slim,25-1-2022,0
402,Wyatt,d1_._.wyatt,,buy a black one so it runs faster😃,30-1-2022,0
403,Jabnova,jabnova,,"All the hype for a console that's about to get demolished by Microsoft. I'm glad the scalpers did what they did, they can keep em now 😂",26-1-2022,0
404,♟,gravekeeper.777,,it looks like construction paper,25-1-2022,0
405,𝓵𝓮𝓿𝓲𝓽𝓪𝓽𝓲𝓷𝓰,trqos_,,I’m happy keeping my white one,25-1-2022,0
406,Donavan Oswalt,grandmasdirtyoyster,,"lmao y’all still trying to get next gen? Find a good deal, meet at a police station take a picture of their plate.",25-1-2022,0
407,Arturo Monreal 📸,arturomonreal10,,PS5 is nothing that exist 🚩🚩🚩,24-1-2022,0
408,Pop Locks,poplocks602,,That’s if you can find a PS5 at original price none after market prices 😂 people need to stop supporting the sCaLpErS,5-2-2022,0
409,elchikibabys,elchikibabys,,this guy tawted no cap he's an adult but acting like a kid being stubborn saying if you can find a ps5,24-1-2022,0
410,Jamaree,itsmaree4x,,wish it was this ez for xbox if u tried this for xbox u gotta be too careful for my likings,24-1-2022,0
411,Austin,austin_9_in_4m,,I am a sub,30-1-2022,0
412,Andrew,obj_prodzz0,,@kxsh.2,30-1-2022,0
413,Braybray😉,bl_brady,,@helenkellarismydad,30-1-2022,0
414,El_logeto,little_log1n,,@Michael Keil,25-1-2022,0
415,‘,fourblunts,,@.twxnk @cristaxes @its..kobee,30-1-2022,2
416,Leonel Luna,toledo.luna,,@michel.6.9,31-3-2022,1
417,Charlie Andrews,charlieandrewsss,,@HarrySteer,6-2-2022,1
418,JT,jt.song,,@alec.30,31-1-2022,1
419,Noémie Daunais,noemiedaunais,,@jeffreyouellet,30-1-2022,1
420,Cooper grima,coopergrima_,,@j02nahhh @_.lucas.1,30-1-2022,1
421,your bf,daddyy_ek,,@yourmomsfavkiddd,30-1-2022,1
422,Noquemacuh,noquemacuh16,,@natalieamor04,29-1-2022,1
423,devin🥷🏿,urstrulydevoo,,@official.daylin,29-1-2022,1
424,Jack,jacko_91,,@Andrew,27-1-2022,1
425,S.C,bledbled88,,@always.be.zen,27-1-2022,1
426,Kai,ohkaixalt,,@lareize @_sizzl_,26-1-2022,1
427,ramirezchrisopher.cr,chris.tazz,,@alexiayani,26-1-2022,1
428,JJ.arcs,jj.arcs,,@michael_gianz14 @jmxrzzz @,25-1-2022,1
429,Jessica Marie Jones,jessicaj402,,@fatboy595,24-1-2022,1
430,Jonathan Correa,jayyyxcyy,,@_.citlali_xo,24-1-2022,1
431,Itz.Angel.G,angel.gutierrez01,,@luvskiiiiii,24-1-2022,1
432,kurtdavis881,kurtdavis881,,@brianna.renee0,24-1-2022,1
433,bamhugo315,bamhugo315,,@bladeofseas,24-1-2022,1
434,Omar Adan,omaradanpr,,@idelissenicole,24-1-2022,1
435,:),lqstsouls,,@kutechika,24-1-2022,1
436,Peakin out the blinds,_pglass,,@ndolinshek,24-1-2022,1
437,I'm nog(dante),youreaveragemexican,,@aashtrray @wafflcat,24-1-2022,1
438,Ben,noodle_osu,,@fattyfortune123,20-2-2022,0
439,nevaeh,iluv.binx,,@trxppylo,15-2-2022,0
440,SimpFor;)Kaymen,aye.itskayyy,,@sheloveced1 @exclusive.brandon0,13-2-2022,0
441,Javi,caseclosed._javi,,@oscar_2_turnt @greg2_turnt,2-2-2022,0
442,Seedatedprick Aquarius ♒️,seedatedprick,,@plantsvsombies,30-1-2022,0
443,Deshawn,luh._.shawn,,@cksupremek @mr._._.mk,30-1-2022,0
444,big ole ting,bigoleting2,,@Kam,30-1-2022,0
445,Ü.R.Â.Q.T😩🙏,not.mf..adrian,,@sickdave547023,30-1-2022,0
446,Tik Toker,gregs.tiktok,,@ethanjustvideos,30-1-2022,0
447,dAmOn :),spyro089,,@daigan_gunz,30-1-2022,0
448,Quex427,quex427427,,@jose Bojorquez,30-1-2022,0
449,ant,asenna06,,@justinaloisa,30-1-2022,0
450,.,georgiewatkins,,@isaiah.w.7,30-1-2022,0
451,Tristan Nadolny,tristannadolny,,@Nathalie Nadolny,29-1-2022,0
452,Chase,chasers26,,@kobeisnmbr1,29-1-2022,0
453,mason,masonhoward92,,@singlemumsinyourarea,29-1-2022,0
454,Jamie,sloth7sg,,@wrath7sg,29-1-2022,0
455,"New phone, but belugaMaNLolol",imjustbetterthau,,@Domingo Fernandez,28-1-2022,0
456,Who?,shruxeds.alt,,@Dylan Barron,28-1-2022,0
457,Matthew Yansen👑👑,m.dotttbinpaidd,,@d.dottttttt_14,27-1-2022,0
458,hoodrichko,kofiupnext,,@ogzdez,27-1-2022,0
459,♡,.444demii,,@🥷🏽,27-1-2022,0
460,Popa4pf,_popa2x,,@3wayysai @Yooooooooo,27-1-2022,0
461,Tariq,tariqmah_01,,@hasanmahmood1956,26-1-2022,0
462,EskomZA,eskomofficial_,,@silver_on_130ms,26-1-2022,0
463,😹,amy2finee,,@𝘼𝙎𝙏𝙍🌏𝙒𖦹𝙍𝙇 @JAY💜🤟🏾🖤,26-1-2022,0
464,Blade,blade_says_hi,,@apexwarehouse,26-1-2022,0
465,Justin Finnigan,1968fordranger,,@lemonjuicer2,26-1-2022,0
466,toitle 🐢,fran..1_,,@briveros__947,25-1-2022,0
467,"Gamer boy,my yt",destroyer161081,,@wz_fishboi,25-1-2022,0
468,tizzle,_tizzle_,,@talan.loza17,25-1-2022,0
469,⠀,javi2o,,@pcrkie,25-1-2022,0
470,🌊,victor.e22,,@sleepy_domestic,25-1-2022,0
471,_אאєгเς๏гєאא_,_xxericorexx_,,@reechanclaman,25-1-2022,0
472,jorjie😩🥸😎,jorja_rc,,@luvs.air,25-1-2022,0
473,Raiden,lg_datguy,,@jake3044.name,25-1-2022,0
474,281 Gaming,ryantwin281,,@adam95273,24-1-2022,0
475,tobias 🧎🏾‍♂️,tobiasromani,,@KC,24-1-2022,0
476,Hi,food_diyly,,@sergiomontelongo64,24-1-2022,0
477,:)🤪👍🏼,musk._.died,,@flix_demon,24-1-2022,0
478,🍃,lb.carlos_,,@coldviewss,24-1-2022,0
479,user8361377269177,jenniferclark1996,,@user9393353527012,24-1-2022,0
480,Frostybox,frostybox.funi,,@mrmonkeyman828,24-1-2022,0
481,user8797164435699,swayvelazquez,,@mrcheekz1 @marquitoz95,24-1-2022,0
482,Jon Brito,christopher_5454,,@jonathan_santiago67,24-1-2022,0
483,A,a.11110,,@milliejoness1,24-1-2022,0
484,🤡̵̛͔ 💀̩̲̜ 👁️⃤ 💀̩̲̜,ben.alls,,@d0ugh__,24-1-2022,0
485,Hahaureadthis,hahayoureadthis1,,@rezotui @Daddy Yankee rich boys🙄,25-1-2022,1
486,Elmo fan 999,graysonearl503,,Haha,25-1-2022,0
487,Limo-Jet,limojett,,✍🏼Find ✍🏼 a✍🏼Ps5✍🏼,26-1-2022,3
488,💮,kuiht_,,@willthegeneral,30-1-2022,0
489,bk.leo,bk.leo,,@3arti,26-1-2022,0
490,OG_gangastreet,og_gangastreet,,ps5✅ ps5 covers❌,26-1-2022,0
491,yates,wack_y14,,@noodle_badoodle,24-1-2022,0
492,Abraham Velasco,abrahamvelascoofficial,,@glitterbrows,24-1-2022,1
493,Luis,yuhvlxd,,@tysippin,31-1-2022,0
494,Dylanislost_,dylanis_lost,,@i_hate_logbait,30-1-2022,0
495,Christoleyobxtch,christoleyobxtch,,@q.t.a.r.t.i.c,30-1-2022,0
496,Damario,agorapho,,@wockprelude,30-1-2022,0
497,aguirre3_,aguirre3_,,@bigpeppasix9,24-1-2022,0
498,Lupes,lupes.209,,@amandeep.fsf @vyamamoto80 @lilpimpe209 @moots.moots,24-1-2022,0
499,@nt🦧,amags0528,,@ronaldmcdonaldsfatpp,24-1-2022,0
500,ҜΔM🏀🕺,.kamswrld,,@Parker McCandless,24-1-2022,0
501,rob,robcxplt,,"Austin, Please i want my family back.",24-1-2022,0
502,Brandon,kleptoz,,I think it's pretty dang awesome. No need to buy a whole ass other console because it has a video game character/graphic design on it.,24-1-2022,0
503,Java 🥶,java9854bfi,,Or you could just spray paint the white thingy to make it pink or watever,24-1-2022,0
504,Matthew Archbold,matthewarchbold,,Gloss black in the middle makes all of them look 🤮🤮,24-1-2022,0
505,Pechous,west10pechous,,Where do you get em at I want to do that to me and my dads ps5,24-1-2022,0
506,Ghaz,slyybatt,,Pull them forward?,24-1-2022,0
507,Zummbi Zombie,zummbizombie,,I like the white but honestly this peeked my interest,24-1-2022,0
508,Tyler,twright270,,Your voice pisses me off,24-1-2022,0
509,Alex 🔥,aalexdeluca,,@luke.owen,24-1-2022,0
510,user7377815598265,stia_sti28,,Dam he cut everyone ass broke boys😂,24-1-2022,0
511,I forgor💀,davin_young,,so they can make new panels but can’t make more consoles?,24-1-2022,0
512,YoungDineroHero,youngherozero,,If only i had a ps5,24-1-2022,0
513,Evan Bellew,m11sta,,I mean you could also spray paint the cover right?,24-1-2022,0
514,🏂,complexcesar,,crazy how they had this in mind all the time,24-1-2022,0
515,Danny Gonzales,dannygonzales42,,Isn’t better just to paint the original one?,24-1-2022,0
516,Jacob Barron,ja.cob.08,,@Mikeypro007,24-1-2022,0
517,Kevin Zarate-Jasso,kevinzaratejasso17,,I just got my ps5 today,24-1-2022,0
518,Clay,blaywhit,,Probably outrageously priced for plastic,24-1-2022,0
519,Michael Power,michaelpower86,,"So the filed cease and desist order to someone making these when the PS5, just so they can take the idea and sell themselves. Sony are a-holes",24-1-2022,0
520,5yn7hbedtine,susvusasusaizz,,consoles are always so ugly,24-1-2022,0
521,No Name,machead2001,,That red goofy asf,24-1-2022,0
522,Paul,paul_glancey,,@jaydenwoodlock2,24-1-2022,0
523,⚭,mik8il,,@nishaancheema,24-1-2022,0
524,Michael,michael.c0421,,where do you buy them,24-1-2022,0
525,Walterino713,walterino713,,@Christina Pena,24-1-2022,0
526,Jose19,joserios_313,,Find them nowhere,24-1-2022,0
527,David,demonpearl17,,just use spray paint,24-1-2022,0
528,Gcarlo26,gcarlo26,,Goes great with the ps5 that i cant get my hands on…..,24-1-2022,0
529,Ajinn,11ajinn,,Where the websites for it,23-1-2022,0
530,🚫,neverpostsanything,,What's a PS5? Never seen one in person. They don't exist.,23-1-2022,0
531,keels🤍,keeley.louise_,,@sophiecapewellx bean should get one,23-1-2022,0
532,Joaquin,j.monayyy,,FIRST OF FUCKING ALL LET THERE BE “ENOUGH STOCK” FOR ME TO BUY A PS5 in the FIRST PLACE -_-,23-1-2022,0
533,Welovebrownskingirls🫶,wspdame,,Here me out spray paint it,23-1-2022,0
534,itscracknlacknyo,itscracknlackn,,I got one but I think the white looks clean enough,23-1-2022,0
535,bob,jordy_886,,I got black,23-1-2022,0
536,Bethan Marshall,bethanxmarshall,,@kaycee.a i want a ps5 for this,23-1-2022,0
537,Platanity2k,platanitoy2k,,HEY GUYS THIS IS AUSTIN N NO GIVES A CRAP ABOUT THESE LOL,23-1-2022,0
538,bppm,bigppmann69,,I want a black PS5 so then I can run faster,23-1-2022,0
539,ricky,rickyfromthe6,,bought a ps5 for my son he hardly plays it lol 😅,23-1-2022,0
540,Daniel,danieliscool1234,,Step 1 get a ps5,23-1-2022,0
541,aston,astonmcsavage,,@hc for u,23-1-2022,0
542,Diego,_d_1_e_g_0__,,How much r they,23-1-2022,0
543,interlined71,interlined71,,Who needs a ps5 😳,23-1-2022,0
544,Leon Killeen,leonkilleen3,,We’re tf u get them,23-1-2022,0
545,Jadrien Imanol,urpapi69,,Step 1: find step 1,23-1-2022,0
546,blank,blankwastaken1,,I just got called a broker,23-1-2022,0
547,hulkscoochie,mamiwontu,,@m33chas,23-1-2022,0
548,who cares?,featuringphoenix,,i can’t wait to have colors and no ps5,23-1-2022,0
549,Kole,adamwhitfield14,,Step one: Spend your life savings on a PS5,23-1-2022,0
550,.,brxndj,,Getting a Ps5 ist that hard😂,23-1-2022,0
551,Jr,s1imee,,Wow nice you guys can change covers! PC can switch anything to diffferent colors 😏,23-1-2022,0
552,Kaas_skate,who..is_joe,,There are no white ones😡🤬,23-1-2022,0
553,Celestial.Nix,celestial.nix,,@uneasybrian @zeekpls @nevetsgaming @joseph_nuts these look sick,23-1-2022,0
554,DaleH🛸,dalehazell,,XBOX,23-1-2022,0
555,Elemental Void,bsbl_kam,,Step 1: buy a pc,23-1-2022,0
556,Alex💚💫🇩🇴,heartl3ss.alex,,@lil.yan_,23-1-2022,0
557,Ian,xx_ian._xx,,or just remove the original panels and spray paint it,23-1-2022,0
558,Shadi,y_u_on_my_page,,is there any for the digital version,23-1-2022,0
559,Bella B,jayizzledog,,why not just paint the original covers if you want to change it??,23-1-2022,0
560,ch1n0,sn00py_75,,I have the red controller so this would be dope,23-1-2022,0
561,nick mclean,nick.mclean,,what about the digital edition,23-1-2022,0
562,Logan.,itslogan..0,,Spray paint is typing…,23-1-2022,0
563,domonte.hayden,domonte.hayden,,"Yo, everyone complaining can’t find one, just fo on Facebook marketplace, and find smt then when u go pick it up open the box to make sure it’s in",23-1-2022,0
564,B-1256,spartan._.1256,,Aren’t those like 70 dollars?,23-1-2022,0
565,Mauk,maukwastaken,,ayo offbrand linus tectip on tiktok?,23-1-2022,0
566,Achlys_Gone_Rogue,achlys_gone_rogue,,"Ok,2 is not a bunch and you don’t change the color of your ps5 you just interchange the face plates",23-1-2022,0
567,🐹,saem_floop,,@m4x1chu,23-1-2022,0
568,🚰,justdrinkmorewater,,They 100 dollars,23-1-2022,0
569,Gio,g10o.o,,Must b nice 😪,23-1-2022,0
570,pjbrad007,pjbrad007,,@dbrand whatchu think,23-1-2022,0
571,everything_i_say_is_true,buathabaqa,,wow i ask,23-1-2022,0
572,❤️‍🔥❤️‍🩹❤️‍🔥❤️‍🩹❤️‍🔥,thatkidlove,,Where get I get it at,23-1-2022,0
573,Hudson Anderson,hudanderson,,Or take your panels off and paint them yourself,23-1-2022,0
574,iphonemoss,iphonemoss,,Or just paint the original,23-1-2022,0
575,Cocodelicioso,cocodelicioso,,The PS5 isn’t real.,23-1-2022,0
576,Valid,i_love.men0_0,,I’ll just buy spray paint,23-1-2022,0
577,Isaac Almaraz,doorroostain,,can u make me a 3080 pc,23-1-2022,0
578,Abdiel Avila,abxielap,,how much is it doe?,23-1-2022,0
579,francisRioslovera,francisrioslovera,,don't waiste you money just get an xbox,23-1-2022,0
580,Dalton King,king.dalton11,,you realize we gotta get the console first right? like they actually have to sell them in stores,23-1-2022,0
581,Kiki,_kikiangel_,,that's pink,23-1-2022,0
582,TRF_$zmata,xxxx_thatepicgamer_xxxx,,Hey Austin,23-1-2022,0
583,Mark1,markm01,,@shawtysayshebad,23-1-2022,0
584,⠀ ⠀ ⠀ ⠀ ⠀ ⠀,dimi._.14,,@stephen_curry130,23-1-2022,0
585,Luca Tisa,daddychilll69420,,Austin I’m a HUGE fan could you comment?,23-1-2022,0
586,Monkey_vr5,monkey_vr5,,@natechaos,23-1-2022,0
587,Mailedyourmum,datpandaoverthere_,,I got a PS5 anyone want?,23-1-2022,0
588,CamSSG_,camssg_,,They smart for having this,23-1-2022,0
589,Tik Toker,jacob_14x,,Where do u buy these,23-1-2022,0
590,Kidda sohneyo patokoa,peacefulljatt6o4,,I can’t bealive people still don’t have ps5s bruh what,23-1-2022,0
591,envelopegrAvy,envelopegravy,,lmfao physical DLC now.... rofl...,23-1-2022,0
592,Coco,ukuellette,,it's a good alternative as to buying another whole console just for color and design,23-1-2022,0
593,IDGG [I don’t get girls] 🥷,zendayaismywifee,,Where can I find one?,23-1-2022,0
594,😎,ajpullsmadgirls,,If I could get one 😂,23-1-2022,0
595,𝙎𝙖𝙢𝙨𝙪𝙭𝙠,samsuxk,,where ken,23-1-2022,0
596,P O P 🖤,yooo_pop,,3D print a PS5,23-1-2022,0
597,user3756546301304,xxx_zv,,I had mine since February of last year,23-1-2022,0
598,Jonathan Zwar,zwargeist,,Now all everyone needs is a 3D printer 😂😂😂,23-1-2022,0
599,ᕕ( ᐛ )ᕗ,zdisembodied,,just run the console with no plates. ultimate air flow.,23-1-2022,0
600,King Hayford,kinghayford01,,I got the midnight black ones,23-1-2022,0
601,ho,ye56277272766382992662,,can you show the other colours,23-1-2022,0
602,Dylan Marshall,dmarsh11,,Bro how do u ppl still not have a ps5 wtf I got mine in 2020,23-1-2022,0
603,isaac,iisaeth,,@appleuser27243330,23-1-2022,0
604,JB,trolltrace28572,,Not a good time in gaming to get a ps5,23-1-2022,0
605,elmonodesanturce,elmonodesanturce,,got my ps5 covers... still no ps5 🥺,23-1-2022,0
606,rayhan 🤲📿🇧🇩,rayhanwastaken,,@reis_20203,23-1-2022,0
607,5’4 bunny,kurtisluveveryone,,@danielloveseveryone IM COPPING,23-1-2022,0
608,Machu,machu012,,I think I might get one for mine,23-1-2022,0
609,user6933385519596,brockmel.25,,What’s price,23-1-2022,0
610,ملِك,vargas.1204,,omg is that Scarlet Witch?!?!,23-1-2022,0
611,𝔸𝕌𝕊𝕋𝕀ℕ,capital_of_texas,,@b.hughes57,23-1-2022,0
612,David Crigler,davidcrigler76,,Imagine still not having a ps5😂,23-1-2022,0
613,Christopher Marques Jr.,cmar0809,,Where do you get these,23-1-2022,0
614,Rz7,raji7979,,@xamraed30404,23-1-2022,0
615,The wok and John xina,lord_tachanka_09,,It’s me the real mega mind I need to stop Titan the flying ginger to do this I need your moms credit card please send me the front and back,23-1-2022,0
616,ll GuiiLTY ll,lacruzin2,,How much like $70 ?,23-1-2022,0
617,Ok,.kaidenferris,,"First task, beat up a kid for a ps5",23-1-2022,0
618,Gundum GX,gundumgx,,Cool you can you change the color of something you can’t get and that cant get any games for awesome,23-1-2022,0
619,Joseph,fw_.joseph._,,Where can I get rhis,23-1-2022,0
620,Shadowyaseen,shadowyaseen,,Where can I get one?,23-1-2022,0
621,joe mama,deg_19e,,that's so dumb you have to pay a lot of money for two cases you can literally spray paint it,23-1-2022,0
622,Im jus valid,bbg.vxlid,,glad i has a ps5,23-1-2022,0
623,GlitchCube,glitchcube,,At least you don’t have to buy a brand new ps5 whenever there’s a limited edition,23-1-2022,0
624,PSALMS 92:12-15,royalconservative,,That think this makes up from the fact that they are about to lose 50% of their game catalogue?,23-1-2022,0
625,Omar,omarchez8,,you guys can't get a ps5?? 🤣🤣🤣🤣,23-1-2022,0
626,Anthony,amgonzo623,,Get a red face plates and make custom Spider-Man 😌,23-1-2022,0
627,🥵Dr.Phil🥵,i_am_dr_phil,,Where did u buy it,23-1-2022,0
628,Tristan Lussier,m1chael_sc0tt,,sooooo that's gonna be the closest thing to own a PS5 🥲,23-1-2022,0
629,J H,jonga753,,Sony making everything except the ps5,23-1-2022,0
630,ㅤ,k0rb1e,,just spray paint the plates that come with the console,23-1-2022,0
631,Andreas,andreas__1,,Step one: get a ps5😭😩,23-1-2022,0
632,edwinhabibe,edwinhabibe,,Smells like broke in these comments,23-1-2022,0
633,Iain Alexander,iainalexander3,,am gladd u showed this coz i had no idea how take them off haha,23-1-2022,0
634,Oswald,theonlyoswald,,they are like $80 or something kinda sucks,23-1-2022,0
635,Extraordinarywhips,extraordinarywhips,,@Matthew Carlisle,23-1-2022,0
636,Chris,chris.l.17,,When I got mine I didn’t throw away the box it looked so cool,23-1-2022,0
637,Sophie Clewley,defectivefruit,,how y’all not got ps5s yet,23-1-2022,0
638,🩻,flexqzz,,imagine not having a ps5,23-1-2022,0
639,user4011856605617,johnny_appleseed87,,Except you can’t get a ps5,23-1-2022,0
640,D,hozloved,,@wxvychase,23-1-2022,0
641,Anthony Wolf,dirtywolf0143,,The white looks the best😂😂😂😂,23-1-2022,0
642,❣︎𝙺𝚄𝚈𝙰 𝚇𝚈𝚁𝙸𝙻𝙻🇵🇭シ,iiihisoka_,,If I was y’all I get a black 1 one so it’s runs faster,23-1-2022,0
643,Art,hharutt,,Bro we can’t even get a ps5 let alone change the color,23-1-2022,0
644,Murry,murr_sy,,@coleu.5,23-1-2022,0
645,Hey excuse me,crazy.sacha08,,Virus virus,23-1-2022,0
646,DawudZ,dawudzja,,Controller tutorial please,23-1-2022,0
647,✞︎𝙹𝚊𝚡𝚘𝚗シ︎,jaxon.hoops,,@Wyaa,23-1-2022,0
648,Colethebowl420,colethebowl420,,Those look dope,23-1-2022,0
649,Walking 20-10,1millionbottles,,Zzzz,23-1-2022,0
650,shit.-.,thee.kkk,,i have a ps5 and tryna find ppl to play with,23-1-2022,0
651,🧐,theyluv_vilo,,We’re can I get that cover,23-1-2022,0
652,voidoncrack,voidoncrack1,,@nsg.polxrz,23-1-2022,0
653,Rodri,_1rodri,,@abraham_8a1,23-1-2022,0
654,B I G G I E ➐,opp.tay5,,Half red half white,23-1-2022,0
655,Estevan,estevan_4444,,@ajiggle,23-1-2022,0
656,Vahan Avet,vahanavet,,Instead of spending the 60$ on the shells with different colors. Go buy spray paints. And get the job done for 10$,23-1-2022,0
657,Subiedelphia,subiedelphia,,I'm okay with the standard color. My changed to dust 😂,23-1-2022,0
658,ImmortalRice,immortalrice,,It would’ve been cooler if Sony didn’t threaten to sue other companies for making covers with a cool design,23-1-2022,0
659,CEO of Saints Hat,jazzyjaz1499,,i have a spare one disc version for 750 dm and i’ll text you on ig you’re interested,23-1-2022,0
660,Carlos,sensei_sanchez,,@fortnite26518,23-1-2022,0
661,Edgar,_edgar_sanchez_,,That will be $70,23-1-2022,0
662,Kaleb Aaron,kalebaaron00,,Lol you lost me at “existing PS5”,23-1-2022,0
663,Chris,s4c119,,Where do you get it?,23-1-2022,0
664,amy,aaamyjayne,,link??,23-1-2022,0
665,raj,ciscoclaasy,,Well this is great considered I was nervous I got a small scuff on my ps5 😅,23-1-2022,0
666,Payton Wilson,payton_is_steezy,,Why don’t you just take the originals off and spray paint them,23-1-2022,0
667,dan,isimpforkiyoshi,,@hellspawn87 for ace,23-1-2022,0
668,💕✨kassi✨💕,lilbobeep1,,@luvkasss,23-1-2022,0
669,SKMeinHerzBrennt,skmeinherzbrennt,,nice i just need a PS5 😰,23-1-2022,0
670,Eddiefreshhhh,eddier5,,how much ????,23-1-2022,0
671,Ron Stars,ronstar44,,So this is why they were mad a Dbrand 😬,23-1-2022,0
672,bryan dhanraj,bryandhanraj,,must be nice 😢,23-1-2022,0
673,Jamie,0legacee0,,Step 1: have money,23-1-2022,0
674,AR Guru,ar_guru123,,“Get a ps5 first🤓” bruh y’all just haven’t been actively trying to get one,23-1-2022,0
675,Jt1252,jt1252,,"Mine is clear, even the black parts. It’s like it is not even there.",23-1-2022,0
676,ɟ,lmtimbs,,where do u buy the from,23-1-2022,0
677,Joel,mundomontinegro,,"Yet, you have a PS5",23-1-2022,0
678,Tonto nelly,tontonelly,,overpriced,23-1-2022,0
679,Parașcan Claudiu-Valentin,parascanclaudiu2881,,Had dbrand do them first then stole the idea from them. Pathetic,23-1-2022,0
680,😳r6._.Dylan._.r6😏,r6._.smoke._.r6,,😂,23-1-2022,0
681,103623,.jhhfrrnhxjs,,@ae.cam,23-1-2022,0
682,Adrian Smondulak,ad_sm0,,@camerong_3110 idk if u want that,23-1-2022,0
683,Tom,elloitstom,,Okay I bought the covers . Now just to get a ps 5 😁😂😂,23-1-2022,0
684,Dylan 🤠🔧,anylimiter,,@Shauna here u go,23-1-2022,0
685,Luca,corrupted_pump2,,@FrozyEdits,23-1-2022,0
686,L246P,l246p,,£50 for a sleeve tho,23-1-2022,0
687,Isaiah,isaiah.robertson,,Plot twist: the cover costs more than the ps5,23-1-2022,0
688,Kevin M Bourne,kingdraxon,,Oh let me just put that on my imaginary PS5,23-1-2022,0
689,user1738212488578,pooosa_,,where do you get them,23-1-2022,0
690,Caden Macaluso,caden.mac,,Ima get the blue ones,23-1-2022,0
691,TFJO,thefallenjediordergame,,"Yeah, they cost like $50. People were selling them like a year ago for like $25 bucks but Sony sued",23-1-2022,0
692,Shaunlonz,shaunlonz,,Knowing me I would try to pull it off and break it,23-1-2022,0
693,JacobThornton2003,jacobthornton2003,,I would somehow end up breaking mine 😂 im good,23-1-2022,0
694,haydenfairweatherrr,haydenfairweatherrr,,Must be nice,23-1-2022,0
695,Sturdyboi,sturdyboi_3,,They are mad expensive I heard tho,23-1-2022,0
696,Drew,millerr.edits48,,Are they available,23-1-2022,0
697,Daniel,imthedarkness0,,they are well overpriced,23-1-2022,0
698,Danny Cavazos,dac1287,,I got a brand new ps5 sealed for sale whoever wants it,23-1-2022,0
699,Jf,jedi.mp3,,paint it.,23-1-2022,0
700,Entertainment foryou,editsbyrobbie,,@qlxttie,23-1-2022,0
701,ILOVEPINK💗,heyitspinkie,,Where do I buy them?,23-1-2022,0
702,…,user188523985,,I’m so grateful I have a ps5 :),23-1-2022,0
703,Bruno madrigal,bruno_madrigal636,,Not cap 🧢,23-1-2022,0
704,Worst_fornite_player,its.zay21,,How u get this,23-1-2022,0
705,Joseph Gaspar,offs3ason,,are the sony branded ones released yet?,23-1-2022,0
706,乃尺卂ㄚᗪ乇几 😮‍💨😶‍🌫️,brayden_reid,,@Ethan Rossiter,23-1-2022,0
707,Nic,kiuano,,what about digital version,23-1-2022,0
708,mezbinladen,mezbinladen,,ya tight i got a black ps5,23-1-2022,0
709,RandomRick,rand0mrick,,is that pink or red?,23-1-2022,0
710,I luv Santa 🤫,bxbyballs.sus,,@username.g_og,23-1-2022,0
711,user7478886285944,tkbaha626,,Huh I think the the 360 did something similar,23-1-2022,0
712,Zachary,swifty7401,,now I see why they sued dbrand,23-1-2022,0
713,LETHAL_CONTROLS,lethal__controls,,I rather buy the Dbrand version it looks better,23-1-2022,0
714,Meme Delakaka,memedelakaka,,Or you could just paint it,23-1-2022,0
715,albertoarroyo340,albertoarroyo340,,Where can you buy it,23-1-2022,0
716,🦧,itz.justchris,,@youtube_gtchris,23-1-2022,0
717,🦧,itz.justchris,,@thatboisus92,23-1-2022,0
718,Marcell,mmendo13,,@sebastianmendoza165,23-1-2022,0
719,Emir,j3m1r,,@zsnep,23-1-2022,0
720,Jordan Timmerman,jordan.timmerman,,It’s not hard to get one people you just have to try a little,23-1-2022,0
721,lol,rodwavelastburger,,W,23-1-2022,0
722,Joseph Humphrey,josephhumphrey5,,Are these Sony official?,23-1-2022,0
723,Wsg.Mari_,wsgmari_,,I need one fr fr,23-1-2022,0
724,A-L-F-I-E•R,mtb_madness10,,Do they do Xbox ones ?,23-1-2022,0
725,Ryan Krull,kingrpk,,Cool router bro,23-1-2022,0
726,Alex Schultz,aaschultzy13,,so this is why they tried to sue dbrand,23-1-2022,0
727,Tennyson Lane,tennysonlane,,"it'd be nice if they didn't cost $55... I already paid $500, why do I have to pay $55 for a plastic cover?",23-1-2022,0
728,Chavez,aidenpossible,,That’s pink 😳,23-1-2022,0
729,Frazier,frazier7,,Xbox is better than PlayStation,23-1-2022,0
730,kaan,kaandonmezz,,@@ospina29 @Omar Elsanhoury cop or drop,23-1-2022,0
731,Razziie,razziietv,,I just spray painted mine 😑,23-1-2022,0
732,STPlayerz,stplayerz,,$55 dollars for them lmao,23-1-2022,0
733,Cilaires707,cilaires,,So we can find the covers esy but not the actual console,23-1-2022,0
734,dark_to_the_max,dark_to_the_max,,I have so I doing this,23-1-2022,0
735,anthonyanderson343,anthonyanderson343,,Just like Apple Watch,23-1-2022,0
736,Ryan,ryanshetayh,,"Yea not paying anymore more than 600 , bc yea your crazy",23-1-2022,0
737,SHOOTING POINT,shooting_pointofficial,,"step 1: get a white pat
step 2: spray paint it",23-1-2022,0
738,damien,roxyshotboyfriend,,@sebastianochoa777,23-1-2022,0
739,alienbookhorse,alienbookhorse,,it's kind of crazy no other console has done this before,23-1-2022,0
740,John,icy_blem,,now paint your own design on it hehe,23-1-2022,0
741,Sam Mohrfeld,ferda_samuel,,@jacobjaeger23 Austin,23-1-2022,0
742,Andre brown,andre_ed1tzz,,How much do they cost,23-1-2022,0
743,(ST) STEVE IS IN YOUR DREAMS,rider_of_hog,,Step one: get ps5 step 1B: stop YouTubers from buying all of them for give aways and demolition videos,23-1-2022,0
744,^,yayel.xa,,"seems that they had this plan, then a company jump on it before them getting them out and had no choose that to sue them.",23-1-2022,0
745,Tony Andino,brooklyninfamous,,I’ve had mine red since the first week the Ps5 dropped plastic dip works wonders,23-1-2022,0
746,nob,hob._.nob,,all I want is a inverted 2tb ps5 is that to much to ask for,23-1-2022,0
747,Luis,2jzluis,,I need a black one for mine,23-1-2022,0
748,Mesean Green,meseangreen,,Where is it,23-1-2022,0
749,Adam_58523,adam585230,,@rickybobby_6 red looks good!,23-1-2022,0
750,🥦👦🏽,br0cc0li_b0y,,PS was like I think we should make console covers instead of the console itself,23-1-2022,0
751,Christian.Velez,christianapplefan,,Just ordered the red one to match my red controller and it looks amazing,23-1-2022,0
752,Harls,harls_16,,Love my PS5,23-1-2022,0
753,darko,hurricanesn1pes,,bro they need this for Xbox,23-1-2022,0
754,Logan Saunders,saunders_0321,,@tbd420,23-1-2022,0
755,subie sally,02subiesti,,so sony sued dbrand for having the idea first because sony was lazy to make them???,23-1-2022,0
756,⚪️🔵93:20🔵⚪️,xavizulifex_mcfc,,Where’s the old “Hey guys! It’s Austin!”,23-1-2022,0
757,geo_5.7,geo_5.7,,I just vinyl wrapped mine lol,23-1-2022,0
758,Wyatt Bobby,wyatt_bobbynebraska,,I would do one side white and one side red,23-1-2022,0
759,Zurell11,zurell0,,or u can gust change colour with 2$ graffiti spray can,23-1-2022,0
760,𝘾𝙤𝙣𝙣𝙤𝙧,connor_keegan,,@Kai,23-1-2022,0
761,Cameron moran,c..moran90,,@bmckenna6820,23-1-2022,0
762,Chris Smith,chrisanthony95,,Would be nice to get one first.,23-1-2022,0
763,[as],lil.nas.x.dild0,,You got the worst color,23-1-2022,0
764,Pok3Dabs on steam,rlpok3,,sounds like@Omar Raja,23-1-2022,0
765,Pok3Dabs on steam,rlpok3,,sound like @omar,23-1-2022,0
766,It’s Ghost or Emma,noneggistent20,,Couldn’t u just get spray paint,23-1-2022,0
767,Magic Mike,magic_mikeg,,Go get a PS4 Bc Sony cares about the consumers,23-1-2022,0
768,KryptoniteFrost,kryptonitefrost,,lol ps5 is a myth. I never seen one IRL.,23-1-2022,0
769,curryriceandbeans,curryriceandbeans,,Nah I'll wait till the knockoffs drop their price to competed with SONY its just plastic. Someone 3D prints these for free even better,23-1-2022,0
770,NeedForSpeed2004,nfs.2004,,I’d probably give a PS5 some sort of Net Yaroze theme,23-1-2022,0
771,farina19,farina194,,Can you change the leds tho because the blue won’t look good,23-1-2022,0
772,Rami👀,ramialbanna11,,I got a black one,23-1-2022,0
773,Romasu,romasu_,,what's the point 😂 you still can't get them 😂,23-1-2022,0
774,/Vinnie\,vp1_4,,@nathan_slaback43,23-1-2022,0
775,Yusefull,yusefull,,@_sanchitbabu,23-1-2022,0
776,Yusefull,yusefull,,@piemix @itzmemoiz @,23-1-2022,0
777,Meme Hub 🟧⬛️,swooshieontwitch,,Me who doesn't have a Ps5 😌,23-1-2022,0
778,don't tag my user ok,dbl.karorot,,color,23-1-2022,0
779,don't tag my user ok,dbl.karorot,,or just cooler the white in something amazing for like $2.00,23-1-2022,0
780,Ribski Jr,ribskijr,,Gotta wait for em to hit Sweden now,23-1-2022,0
781,Robert Latta,robertlatta,,@tylerbrockbank0,23-1-2022,0
782,EthanR,epeeps05,,Just paint the white one it’d be so much cheaper and you can choose what shade and color you want,23-1-2022,0
783,Alex,b0redasfuck,,Anyone know when the purple one comes out ?,23-1-2022,0
784,JLEO,jleostudios,,"I have a ps5 that i dont even use, its so mid. Just buy a pc",23-1-2022,0
785,luke040806,lukey040806,,Please can you show black because I dont know what colour to buy,23-1-2022,0
786,Daniel,danielyako_,,I got the black one and my ps5 is looking sooo good,23-1-2022,0
787,steven,steven.cooper44,,@james_zaz,23-1-2022,0
788,CHASE,chasehitsblitzball.nukes,,@hoopin.with.jay,23-1-2022,0
789,Louie Angel,louie_angel909,,This nerd be telling us if we can find one😂😂😂 bro you don’t know where I get my stuff 😂 ain’t in the store like you 😂,23-1-2022,0
790,nyc.daniel,nyc.daniel920,,I’m waiting for the blues one to come out,23-1-2022,0
791,amypatterson911,amypatterson911,,PS5 doing what Xbox 360 did back in the late 00s,23-1-2022,0
792,Fernando Carrera609,fernandocarrera063,,if its that easy to get the shell out. just paint it yourself,23-1-2022,0
793,myoldaccgotbanned,rl.calebyoungtiktoks3732,,Zhc gonna make custom ps5 covers,23-1-2022,0
794,Anthony,adimarz9,,That’s beautiful,23-1-2022,0
795,Jacob Martinez,jacobmartinez288,,Spray can,23-1-2022,0
796,Lina,lina_chauhdry,,@tobytheturtle999,23-1-2022,0
797,Daddy Dutch,daddydutch80,,How the Sony marketing is ramping up their shit after Microsoft bought al gamemakers 😏😂,23-1-2022,0
798,Joshua,wutdolputhere,,@dmgisking,23-1-2022,0
799,.,mrknighteditz,,i got one since it came out 😎,23-1-2022,0
800,Checho.,chechopu,,@joaquin.romero__ @sebastiancordova__,23-1-2022,0
801,jaden isik 🪬,jadenisik,,@♥️ ✨💫 SLAYYY,23-1-2022,0
802,chase,chase_beyer,,makin everything but ps5s,23-1-2022,0
803,Josh Bullock,jbullock_,,Push back 😂,23-1-2022,0
804,Lokxz_101,lokxz_101,,Let me get my ps5 Oh wait I don’t have one,23-1-2022,0
805,Alexander,alexander_professional,,At that time the third-party has forbidden Sony to sell it and now they do it themselves for a more expensive price 😂,23-1-2022,0
806,Owner of lef,elmo_.gt,,@bricktheboss1234_vr,23-1-2022,0
807,user6549858146179,dltdltcjp,,so they can make this but not actual ps5s?,23-1-2022,0
808,fishing,little_white_ranger_06,,So I did it his to my cousins ps5 to give him red white and blue you know custom made and now it’s broke,23-1-2022,0
809,Kyle,kyle.w9,,Black runs faster,23-1-2022,0
810,I’m kinda funny,bubs.vr,,Step 1. Find a PS5,23-1-2022,0
811,Franco Paniagua,tamagogobaby,,"Hey Austin, can I get a ps5? I don’t need the covers",23-1-2022,0
812,kicktap,kicktap,,1 one get a ps5 step 2 pay 60 dollors for colored covers step 3 regret that u didnt spray paint it,23-1-2022,0
813,user3758012607799,jacobduker0,,where can you get it,23-1-2022,0
814,𝓢𝓮𝓻𝓰𝔂🦋,lov3sergy,,@Dunsin,23-1-2022,0
815,em,winniethefoolll,,it’s the scarlet witch,23-1-2022,0
816,MUNCH.13,munch.13,,These been on Amazon for a while,23-1-2022,0
817,Jason🦧,jasonschotl,,@natethomson37,23-1-2022,0
818,Edwin_best123,edwin_best123,,Aren’t they like $50,23-1-2022,0
819,Shgaws,fronkywazz,,@xdstealthy,23-1-2022,0
820,Gabe,gabemilla18,,Id find a way to break it I’m not gonna try it,23-1-2022,0
821,micah,micah2717,,I watch your YouTube,23-1-2022,0
822,kilanjiii,kilanjiii,,@OMARI,23-1-2022,0
823,user7045645527208,user7045645527208,,Where can I get one,23-1-2022,0
824,Angel,angelkhan,,Tbh it’s expensive it’s like a price of a game not worth it I’ll buy if it’s like 10 dollars it just color changes,23-1-2022,0
825,Ralph rodriguez,matrix3148,,where did you get those?,23-1-2022,0
826,v2_myst_v2,v2_myst_v2,,I prefer the original colour,23-1-2022,0
827,HooyoanTV📺⚽️,h00y0antv,,I can’t even find one 😂,23-1-2022,0
828,Yasin Ayad,arabienguy69,,I know,23-1-2022,0
829,Ben Dog,shrimisaho,,"Damn i bought some off brand shells awhile ago, should’ve waited",23-1-2022,0
830,Cody Johnson,codyjohnson83,,step one get a ps5,23-1-2022,0
831,boo,queen_octa8,,i rather paint it,23-1-2022,0
832,Miloshplayz,miloshplayzyt,,Or u could just spraypaint the plates,23-1-2022,0
833,Thomas,thomaskraj606,,You can prolly just paint it for less,23-1-2022,0
834,Save Tom 2020,sacetom2020,,Cool but what games they got,23-1-2022,0
835,Yes,imblack11006,,@kuzity,23-1-2022,0
836,_,dooperdipper3000,,I like how you actually know how to take the covers off properly @Linus Tech Tips,23-1-2022,0
837,user8142225070998,mralanowski,,Where did you get them from?,23-1-2022,0
838,Pape Diop😈😈,lilblackboipopo,,Do they have a cover for digital Ps5s because mine is digital,23-1-2022,0
839,Mr. sock,johnnyjohnnyspapalefthim,,i have a ps5 do you know if i can get a black one,23-1-2022,0
840,S,whutth3fuc,,Next show me how to get a PS5 Austin,23-1-2022,0
841,vic,svictor.14,,@youwontcare,23-1-2022,0
842,🙄owen🙄,yaboy0wen,,@snowymcocow,23-1-2022,0
843,Big PAPA,sam_lazary,,@mr_rylax @h20what,23-1-2022,0
844,Cmk,cmkjordan,,How do I buy them ?,23-1-2022,0
845,Splash God,splash_god,,This is awesome!!! Now I need a PS5,23-1-2022,0
846,OffensivePerson69,offensiveperson69,,Bro I already see like a Karen video saying she’s gonna sue PlayStation for only selling her 2 parts and not the console,23-1-2022,0
847,user5125237285176,lesswalked,,Get a ps5 first 😂,23-1-2022,0
848,резкий,sheluv._.eliii,,Imagine not haveing a ps5,23-1-2022,0
849,Greg Douke,silver.978,,There only sale two colors for right now.,23-1-2022,0
850,Lorenzo,lorenzo_insogna,,How much is a ps5 in canada?,23-1-2022,0
851,Declan,tbhdeclan,,Nah I’m gonna get on,23-1-2022,0
852,yair,..yairr,,def getting the black one,23-1-2022,0
853,Brandon Montgomery,brandonmontgomery17,,till it over heats and melts,23-1-2022,0
854,Josh🏳️‍🌈,prideprinceblm,,I might but red or blue on mine and a Spider-Man sticker,23-1-2022,0
855,Tiktok,tiktok_communications,,i mean just get a spray paint and do a custom one,23-1-2022,0
856,luke,lukecollins22,,@thatkid_cletus306,23-1-2022,0
857,Izzy,ashamedassassin,,"Woah that’s so cool, now where the fuck can we get the ps5?",23-1-2022,0
858,Potato,cheseburger101,,I need it,23-1-2022,0
859,xeon,rokxyyy,,BRUH IM WATCHING BUILDIND THR ULTIMANT PS5 WHEN YHIS CAME ON MY FYP,23-1-2022,0
860,Alex Link,alexlink11,,"""hey guys it's austin"" what happen to that man",23-1-2022,0
861,Ghost DamianYT,chishow26,,StockX,23-1-2022,0
862,Mo S Jawid,mosjawid,,"wouldn't know, couldn't get one",23-1-2022,0
863,Jimothy Wang,jimothywang,,Any news about a PS5 release to the public?,23-1-2022,0
864,joji,fluffy_panda23,,I gave up on a ps5 gonna have to wait 3 years,23-1-2022,0
865,jack,jgmawhite,,@seblanez,23-1-2022,0
866,southern,southernbbq,,I will not buy these Sony stole the pattern from the creator Of these face plates,23-1-2022,0
867,🐿️ᵇᵒʸ🐿️ʷʰᵃᵗ🐿️ᵗʰᵉ🐿️ʰᵉˡˡ🐿️,fatjammie,,@liam_1479,23-1-2022,0
868,Man Utd,man_utd7,,@dilzarora,23-1-2022,0
869,Angel H Alfonso,heliosmx,,"Microsoft-buys all video games in the universe
Sony- lets change the color of your console..
Winner= Sony",23-1-2022,0
870,🦍🔥,wyautt,,Nah I’m fine with my white case 😂,23-1-2022,0
871,Luke C,lukec7777,,How much does it cost,23-1-2022,0
872,Ryan,coolguy191,,Me and my friend just got a ps5 and I like the original color,23-1-2022,0
873,Jaxon,lxwkey_jax,,Ps4 players check in,23-1-2022,0
874,Tik Toker,diam0nd_miner_74,,or just spend 5 bucks and spray paint the original ones,23-1-2022,0
875,Chris Burgess7889,chrisburgess1974,,what a load of crap!!!😂😂😂😂,23-1-2022,0
876,Sohan,sohan17361,,These plates r 50us dollars 😂 so I would just paint the white one lol 😂,23-1-2022,0
877,Ashton,ashton_stermer,,Where do you get them,23-1-2022,0
878,City🔵🐬,cityfooty,,Can even get a hand on one 🥲🥲,23-1-2022,0
879,me,buzzing__,,I got a ps5,23-1-2022,0
880,rudekidd1,rudekidd1,,Looks good but not worth the price.,23-1-2022,0
881,D4rkL0rd,d4rkl0rd89,,@r33bad drippy ps5 like your controller,23-1-2022,0
882,vxhuq,vxhuq.v4,,the legends on TikTok 🤨🤨,23-1-2022,0
883,good at rocket league,thunderbird00072,,@exceptedfiber76,23-1-2022,0
884,Taha Qazi,tahaqazii,,Sony is cancer,23-1-2022,0
885,wee woo,humanfying,,linus techtips @linustech,23-1-2022,0
886,🦖🦖🦖,d4ad_pixels,,just spray paint😂,23-1-2022,0
887,Ty😮‍💨,trxpstar_ty,,@uk_quotes_6,23-1-2022,0
888,Zoro,user_anime666999,,there a batter thing that call grafity,23-1-2022,0
889,rudylopez8057,rudylopez8057,,@kinglarryyyy,23-1-2022,0
890,Iwan Price 2005,iwanprice5,,@suiiii77_77,23-1-2022,0
891,Cadevolpicelli,cadevolpicelli,,@Andrew Valentino⚾️🏀⚾️🏀,23-1-2022,0
892,Ashlyn,ashleighspartnerincrime_,,@ashlynspartnerincrimee_,23-1-2022,0
893,𓆘𓆘,divrision_ghost,,that's pink,23-1-2022,0
894,Genesis.Babb🥰,antisocial_gen,,@luv.gotcha @yxng_heartless,23-1-2022,0
895,Mr Macabre,mr_macabre13,,am I the only that can see it as pink and not red?,23-1-2022,0
896,bruh,bruhther07,,ok? does improve gameplay?,23-1-2022,0
897,user9594767413870,hummeraxe,,That’s pink not red my dude,23-1-2022,0
898,Anthony,anth.ony18,,This is great now I can change the color,23-1-2022,0
899,69_Kerem_69,69_kerem_69,,PS5 INSTOCK IN ARGOS,23-1-2022,0
900,Ddioplkhmner,hhppionk6179,,Can you get them in target or walmart,23-1-2022,0
901,Teeqix 🇬🇧,resortpc,,you still watch linus texh tips religously? i see some copyright infringment with that name Austin Evanatic,23-1-2022,0
902,Fionn Dineen,greyshark16,,or you can just spray paint the covers,23-1-2022,0
903,Coconut Rum,tropicalcaribbeanpirates,,I have that controller color,23-1-2022,0
904,разъем,jackichang5549,,60 bucks for some spray painted shell 😭,23-1-2022,0
905,Damian Martinez,damianmartinez112,,I want to do this to my ps5 but do they have all black panels,23-1-2022,0
906,Cloudz,cloudz_nissan,,"I'm too scared I'd break the white ones, also i still think that the white looks best so it's staying on",23-1-2022,0
907,Bryan A,sincerelykaotic42,,Why pay more money with Sony brand when I got mine off Internet cause I paid $10 for mine and worked great,23-1-2022,0
908,Khazi_Cr,khazi_cr,,I wanna see the black one,23-1-2022,0
909,Oh budalla.,vandam_zh,,now u can see how cheap they made it,23-1-2022,0
910,🍃❄️,.cullun,,@mason.clarke_,23-1-2022,0
911,Spooky,xx_seekers_xx,,I was gonna get a PS5 for my birthday like last year but still can’t find one,23-1-2022,0
912,Kanye_enjoyer,krok_luka,,White is still the best,23-1-2022,0
913,Max O’Neill ⁉️⁉️,instinct_345,,U can get ps5s on stock x that’s where I got mine,23-1-2022,0
914,jacob,jacob__daves,,where can i buy one,23-1-2022,0
915,Miguel,matemme_plz69,,bro i cant even get a ps5,23-1-2022,0
916,Mrcowmoo,mrcowm00,,They only made two,23-1-2022,0
917,Jay ✞,stfu.jxden,,@fw.kyler,23-1-2022,0
918,TKO x IVAN,tkoxivan,,Construction Paper,23-1-2022,0
919,user4996854273532,life_of_sergey,,I support dbrand and Sony can screw themselves,23-1-2022,0
920,No one likes u,assxndzzz,,@jayydenrl @sc_wxzzaa,23-1-2022,0
921,HiAgainSteve,hiagainsteve,,nah why is this the first I've heard of the tiktok and why is AustinTexhTips so funny to me,23-1-2022,0
922,Waj1d,waj1disepic,,I have a ps5 but is it worth it to buy a color cover?,23-1-2022,0
923,Dre,cashoutdre27_,,Where are they at,23-1-2022,0
924,Michael Murphy,a_murphys_law,,I just spray painted mine. cheaper,23-1-2022,0
925,Antolin Cosme,spyder_guy,,I got scammed 3 times for a PS5 FML,23-1-2022,0
926,ʙᴀɴᴛᴇʀ ɪɴɴɪᴛ,j.xshe,,I need,23-1-2022,0
927,Will,wahwhil,,And Microsoft out here buying activision,23-1-2022,0
928,Tye,tye_2460,,I mean I bough off brand ones that are actually better🤣🤣,23-1-2022,0
929,😮‍💨😮‍💨,cyprus_c15,,@leonashcroft there u go,23-1-2022,0
930,.,redvq17,,Xbox: Buys Activision Blizzard Playstation: here change the color of your ps5,23-1-2022,0
931,Bruno,bee_run,,tht ain't Red 😅,23-1-2022,0
932,uhh,suionsui,,me with my ps3 🥵,23-1-2022,0
933,Joshua Bolton,dark_raven1997a,,well too late Playstation i got Dbrand Dark Plates Straight Away 🥰😂,23-1-2022,0
934,tøby_ikin91,toby_ikin91,,why would I do that to my ps5,23-1-2022,0
935,elijah,elijahmaestas_,,How much are they,23-1-2022,0
936,AJ,ajamala_,,@hamzajamala,23-1-2022,0
937,Zach,big_zach_03,,$50 for color no a can of spray paint is like $5 and you can change color when you want,23-1-2022,0
938,Yousaf Ali1,yousafali1_,,I have one but if I pull to hard I would be scared that I might break it 😂,23-1-2022,0
939,FÖRK,enchanted_fork,,@Sony yoooo bro you can change ur ps colour get on this song,23-1-2022,0
940,Read my bio,officialparsi3yp3merch,,All the people who complain about not having a ps5 acting as if scalpers dont exist. Just pay the extra $100 🤡 Best thing I ever did.,23-1-2022,0
941,qxksz____road_____to________5k,qxksz_7_,,@vibez.rynx,23-1-2022,0
942,J73stead,j73stead,,I have 1 but the white covers look nice so I’m just gonna keep it the same,23-1-2022,0
943,konnosmolos,konnosmolos,,@mysta.gaming πιστεύω ότι θα το θέλεις,23-1-2022,0
944,ashtikkytokky,ashtikkytokky1,,$45!,23-1-2022,0
945,Hakan,moemoesch,,@langekoerd1 bro haal zwarte,23-1-2022,0
946,user25693681598435,user75611024758497,,Price?,23-1-2022,0
947,Elliot,elliotjack9,,@leahkate15x,23-1-2022,0
948,21 wrld,21_wrld,,do they install better than the aftermarket versions??,23-1-2022,0
949,Nathan,exiledwolf92,,and how much do these cost,23-1-2022,0
950,user8698539780298,danielson717,,Wait you guys got a ps5?,23-1-2022,0
951,kuba,ilovewomanandamogus,,I think i will order one for my ps5,23-1-2022,0
952,Boi,help_0_o,,@sergio_da_goat,23-1-2022,0
953,Anish Sharma,anishsharma720,,@tlo_02 u should make ur black,23-1-2022,0
954,Alfie baines,alfieth0mas,,@dylan08123,23-1-2022,0
955,Serg,imnotserg,,@hyper167,23-1-2022,0
956,Patrick Gonzalez,patrickgonzalez0,,we need more ps5 systems first!!!!! 😬😬,23-1-2022,0
957,Gi-Hun,_scrolzz_,,Where do you get them?,23-1-2022,0
958,Olti😘,oltibrahiimi,,@ḙℵᖱԻ!,23-1-2022,0
959,anakin skywalker,anakin.._.skywalker,,I got a sticker one,23-1-2022,0
960,JackboyXL,jackboyxl,,Just got a ps5 yesterday for 550 so humble,23-1-2022,0
961,D1 aka darren,o2trumendos,,Make them solid gold L for miniminter,23-1-2022,0
962,3boodAl7asan,3boodal7asan,,Sony is a copy cat,23-1-2022,0
963,Carson,tess_tickle09,,@Hi,23-1-2022,0
964,F,35fris,,I’m gonna get one,23-1-2022,0
965,Justin Augustus,justinaugustusnyc,,I ordered dark plates from dbrand,23-1-2022,0
966,Jaswinder,jb_lifts28,,1 year anniversary to my ps5 today,23-1-2022,0
967,ItsKevin1492,itskevin1492,,@mazdacat so you can replace the scratched one 😳,23-1-2022,0
968,.,.zakk_13,,I’m tryna be like u my boi,23-1-2022,0
969,Evotz,evotz,,What's ps5?,23-1-2022,0
970,Shivan,xskumarrtiktok,,You can just spray paint it for 2$,23-1-2022,0
971,mr_paradox1,mr_paradox1,,I’ll be sure to do this when I can get one,23-1-2022,0
972,irrvlo,irrvlo,,"as an xbox player, nice",23-1-2022,0
973,Emzee🥵🥵🥵🥵🥵,emzee.skywalker,,Yo Austin I've subbed to ur yt for a couple years now do you reply,23-1-2022,0
974,5hrō0M,theonetwothree._,,finally,23-1-2022,0
975,Conor Luby69420,c0n0r69,,Damn if Santa was real id have one,23-1-2022,0
976,jorge12jaguars,j.h000p,,Where do I even get these from?,23-1-2022,0
977,Mikazuki5,mikazuki5,,Doesn’t matter no one can find one at retail 😐,23-1-2022,0
978,+18,only.for.the.boys.18,,Are making a video for the steam deck steam deck ??,23-1-2022,0
979,💜,noursalehh1,,@alisaab7155,23-1-2022,0
980,hi,itzjay_24,,bro I love your videos on yt your such a great YouTuber never give up and keep up the good work!!😁,23-1-2022,0
981,.,mt.douglas__,,"Help I got a disk stuck, and it’s not a normal ps5 or PS4 disk, and I’m unable too get it out",23-1-2022,0
982,Tik Toker,jaklwjsns,,Spray paint is cheaper,23-1-2022,0
983,TheAmbientLights88,theambientlights88,,😂😂😂😂😂😂,23-1-2022,0
984,Amygdalios,amygdalios,,cUstOmIZaBle,23-1-2022,0
985,user9945090854822,rr24..42rr,,for the low low price of 50 bucks for a damn color change,23-1-2022,0
986,Cool man,mr..googly,,@hudsonhitshomers do this,23-1-2022,0
987,Gouled🤩,gouled_4pf,,@vibes.galoore achete toi la couleur noir sa va marcher plus vite,23-1-2022,0
988,rarefied_fish7,rarefied_fish7,,We need more broke vs pro on yt,23-1-2022,0
989,Thomas Benson,thomas_benson06,,Where do u get them from,23-1-2022,0
990,Dan_tt,dan_on_tt,,I’m ordering them now so I can change it,23-1-2022,0
991,MJ,blabpav567,,@Linus Tech Tips,23-1-2022,0
992,USER,user12575437754,,Where can I find these,23-1-2022,0
993,@ducky,duck408r,,buy third party on Amazon or etsy way cheaper Sony over charging,23-1-2022,0
994,stevecruz505,stevecruz505,,Yeah be nice to be able to get a ps5 first and for most,23-1-2022,0
995,....,sirz_maskdassassin,,The pink one is the best idc,23-1-2022,0
996,Cold_shreddies,cold_shreddies,,I have black side panels,23-1-2022,0
997,Matt,mattb_b5,,red. looks pink,23-1-2022,0
998,yocjcbdnsngm,mcchicken2567,,@aaden.is.awesome,23-1-2022,0
999,i_unsername_i,i_unsername_i,,Step 1: get a ps5…….,23-1-2022,0
1000,taylor,tntaylor.4585047,,Aint they like £50?,23-1-2022,0
1001,smexy monkey,beans_xx57,,where can you get em,23-1-2022,0
1002,🔛Luke Keane🔝,lukekeane905,,@arasbigbossman,23-1-2022,0
1003,Yolise🫶🏻,yoliseee,,@jero_bloxz,23-1-2022,0
1004,Geko,gekoeditsz,,Austin I’m to lazy for this,23-1-2022,0
1005,pablo vazquez🙏🏽,xonank,,mid,23-1-2022,0
1006,Peter Gerber,petergerber6,,wow real world micro transaction that earned with pay to win... lol's,23-1-2022,0
1007,You a,garbearhi,,Xbox lame but ist still my console for life,23-1-2022,0
1008,0_0,3v4n96,,I think I might get black ones and keep one of the face plates in the same black and swap the other one so then it would be black and whit,23-1-2022,0
1009,Drew,evantube.bartolozzi,,Bro no one has a ps5 yet,23-1-2022,0
1010,0_0,3v4n96,,I can’t find the legitimate PlayStation ones all I can find is fake ones,23-1-2022,0
1011,.,.__.___.___.___._,,white is better in my opinion,23-1-2022,0
1012,wrld_ali,urmum.com1245,,From where are the plates from?,23-1-2022,0
1013,Roel,flippenstein_was_taken,,you can just spray paint the original ones,23-1-2022,0
1014,L4Z1 Phoque,mapyco11,,But why? It's the ugliest console from all time. Why would you make the sh!t pink!,23-1-2022,0
1015,Haroon,haroon_eqball,,I dont think I wanna change my ps5s color. it looks clean when its white,23-1-2022,0
1016,trolley man,tjx.07,,@xevarose.x,23-1-2022,0
1017,ToAsT_CrUnCh555,im_toassty,,????? Can you show one the ps5 with no disk version of the pa5,23-1-2022,0
1018,esad,esadprooo,,60€💀💀💀💀,23-1-2022,0
