,Comment Number (ID),Nickname,User @,Comment Text,Time,Likes
1,rhevvyx 0.3 🗿,vomitsm,,apple in 10 years:this is the first pop up camera technology,27-11-2020,
2,Oscar Lam,laminatortv,,People who argue over which brand is better 🤡,22-11-2020,
3,Josue Anaya,josueanaya13,,"wait hold up...on the last one, did the back camera become the front camera????
if thats the case....thats smart AFFFF",22-12-2020,
4,Puppyclips,puppy_clips1,,Well now you know when the FBI is watching you,13-2-2021,
5,Hooded,hoodedmonk,,me with my OnePlus 7 pro 😅😅😅,22-11-2020,
6,Amin Gara,amingara4,,do you americans know of the existence of Android and other branda phone?,5-12-2020,
7,Z3r0 :),joeelkhoury7,,Why is he using a Samsung and there is iPhones in the backround😅😅😂😂,8-12-2020,
8,💐🍄🍡,lomito_con_salsadeajo,,galaxy s20 version BTS,1-12-2020,
9,hitman19955991,hitman199522,,Those are The Secret FBI agents,25-11-2020,
10,user556354919369,studbiscuit69,,Android and Apple should make a phone together and the camera should be used from Apple devices and the processing system should be Android,21-11-2020,
11,Danny T,0_dannyy_0,,Doing phone wars = 🤡,27-11-2020,
12,Mitchell Tapia,whatsupguysitsyaboi,,Does nobody in the comments realize you can do this on an iphone too lmfao,24-11-2020,
13,OnePlus USA ,oneplus_usa,,Hi 👋,9-12-2020,
14,⠀ ⠀ ⠀ ⠀ ⠀ ⠀,nixozo,,YOU FORGET HAUWEI Y9 PRIME😏😏,1-12-2020,
15,A,minion.overlord,,iPhone users: bUt 3 cAmErAs,22-11-2020,
16,Mo,mo.al.1,,"Das erste hab ich, nur zu empfehlen",5-11-2020,
17,SHE,she_gurl,,"that's ANDROID dude. android are for business. IPHONES are only selfie expert.
just sayin.",1-12-2020,
18,カービィ,kerbytech,,Whait what,2-7-2021,
19,Maxen,sparky067,,You missed the Galaxy A80…,6-1-2021,
20,NIALL'S POTATOE 🇮🇪🍀,niall.is.my.fav,,I have Phone camera like first one HUAWEI P SMART PRO😁,10-12-2020,
21,عہبہدآلوٌهہآبہ,0o2.1,,جماعة هواوي y9s👈,4-11-2020,
22,🤍🖤,dreamgot._,,Yo tengo el primero y me choca la camara jajajjaja cuando sale hace un ruidito y la cámara no estan buena es original xdxd,14-11-2020,
23,✨🍰,bunny._.batata,,"@b4by._.g1rl._.h0n3y nem pense fia,cê não tem maturidade pra isso ;-;",11-11-2020,
24,:),gonza2.5,,el FBI cuando abres Google,29-11-2020,
25,ironman004,mrvlfst,,уууух трудно будет чехол достать ради такого телефона...,28-11-2020,
26,Filix7_,filix7__,,jakej je to mobil??,4-11-2020,
27,Петя,ed82bre,,"У меня honor 9x, там тож камера выдвигаеться",28-11-2020,
28,세븐틴에 진심인편,svt_jonna_salanghae,,아 앀ㅋㅋㅋㅋㅋ 카메라 렌즈가 귀여워 보인적은 처음이네,7-11-2020,
29,joji,maickol_record,,"resulta mejor este sistema, pensa k las camaras buenas son las traseras, y si quer3s sacar una buena selfie con la trasera no hay iphone k la supere",27-11-2020,
30,الله حيهم,iraq0011,,A80 احله واحد بدوير الكامره😬,29-11-2020,
31,k,stargfk.zo,,"Teniendo el Huawei Y9 prime 2019, puedo decir que aunque no sea gama alta, es un móvil muy potente. 👌🏻",13-11-2020,
32,cymoooo,cymo_o92,,جوالي هونر X9,10-12-2020,
33,Greg,greqsss,,gadgetin versi luar nih😳 2.0,8-11-2020,
34,Edward Bedoya,edwardbedoya4,,👁👁 Y el comentario del que le duele los iPhones?,25-12-2020,
35,.,obsessedmashiho,,الاول نفس مال عمي والي يصورون بي هم نفس مال عمي وتلفوني خلو سكته 🤡🔪💔,2-12-2020,
36,Oskar Kotowicz,w_i_k_t_o_r_j_e_c_h_n_a,,A gdzie samsung a80?,21-12-2020,
37,Jrufh,user3116140580442,,Ese video está siendo grabado con iPhone 11,31-12-2020,
38,fania,hrlycreek,,Mi papá tenía el primero y se le cayó la cámara JAJSJAJA,22-12-2020,
39,ftoon 💞🌼,user1959122715320,,عندي تلفون الأول واخاف لما أتصور أسقط التلفون 😂😂,30-11-2020,
40,Simón Velázquez,simonevelazquez_21,,"Noo dembele, yo pense q eras de apple",30-11-2020,
41,MR.LUIS.,mrxxluisxx,,El mio es el huawey Y9s,30-11-2020,
42,Brian,something_fizzy,,I got a Huawei y9s it has a selfie camera like the first one,27-11-2020,
43,Kim beso💮,bring_out_your_bitch,,لو معي ذا الجوال كان ما اخلي الكاميرا ماتطلع 😂,21-1-2021,
44,لا اله الا الله محمد رسول الله,7swd_,,الجوال الأول زي جوالي😂😂🤧💔,1-12-2020,
45,Faycel,faycel2013,,الهاتف الثاني ايش نوعه 😳😳😳,15-12-2020,
46,❀,flvxrrl,,I HAVE THE SAME PHONE 😂,3-2-2021,
47,Robin Welle,robin890764,,thats actually an zenfone,5-1-2021,
48,DARK,sabo_38,,الA80مسوب عليه,29-11-2020,
49,ㅤㅤㅤㅤㅤㅤㅤㅤ,caua13kb,,aqui e Asus ZenFone né papai respeita,30-11-2020,
50,؏ٛـبدالله اެݪـ شࢪيـان .⋆꙳,_t_tnt,,هاي 😂😂😂😂😂@m_f_3_0,11-1-2021,
51,3312,_dorimeameno,,El mio es Huawei y9 Prime,10-12-2020,
52,filip,fikaa1212,,where is Samsung A80,25-12-2020,
53,.,wokpw,,저거 무슨폰임??,16-12-2020,
54,Jackson,jackson_abcdefgh12345,,Why is there 6 comments?,3-7-2021,
55,☕✨a.n.i.m.e✨☕,a.n.i.m.e2227,,الهاتف الاول عدياه بس انصح لا تشترو لا بيه لاك,16-2-2021,
56,Iam Dream,theedrream,,@real_unruly256 he z here did u see him,8-4-2021,
57,🍄Softball player🍄,neavah_13,,Lol,5-3-2021,
58,Carlos,carlosamg_,,"OnePlus 7, Oppo, and Asus Zenfone 7. I got that OnePlus Mclaren baddie lol",29-11-2020,
59,Alejandra,alejandra.enr,,@its_lizzie24 @perladarianrd en el último han de salir en súper hd,4-1-2021,
60,Kevin Ramirez,jesus_19.2,,el último cuál es?😂😳😳,21-12-2020,
61,sajmon,user_mu5er,,@kacper2008kicek xd,29-11-2020,
62,@Ferxxx.com,dn_ferxxx,,es rica dice,1-12-2020,
63,Scpanda Technology,scpandatech,,Cool,23-4-2021,
64,Gustavo Luiz,_gugulu,,Quer pra ganhar 10 reais pra mais? É só baixar PicPay e se cadastra e coloca o código promocional 32NTML,21-12-2020,
65,™️,one3561,,آنا جوالي هواوي y9 2019,20-12-2020,
66,مصمم فيديوهات,red_er7x,,هواوي,11-12-2020,
67,✨⛸✨,pattinaggio.13,,Haa però ha ripreso con l’iPhone 11 😅,28-11-2020,
68,Tom,user5003212052549,,wow🥰🥰🥰🥰🥰🥰🥰🥰🥰,26-3-2021,
69,Doua Hadjer,moha_213213213,,c pas très discret pour filmé en cachette😂,31-12-2020,
70,Hector Uriol,hectoruriolxd,,F por los q no lo tienen 🥺,30-11-2020,
71,🇲🇽✨disgoarsting shiet✨,kpop.dc_,,"I wanted to get the first phone, but the Verizon store ran out 😭",22-10-2021,
72,🐍🐍,k_410_4h,,ma lA80🥺🥺,28-11-2020,
73,DiegOo,muhameddiegoo,,"ازاي اخلي الشاشة تنور كداا لما افتح الكاميرا
حد يقولي ونبي",11-1-2021,
74,Jamaya,queenkim_.1,,"Him:Don't ask where we get these ideas
Me:😳😌 😭😄WHERE'D YOU GET THE IDEAS",1-4-2021,
75,2HA.,7ur.03,,@fuinr14 @o9yne 😂😂,20-1-2021,
76,AIDIL,aidil...bot46,,ᴍᴇ: ᴏɴʟʏ ᴄᴀɴ ᴡᴀᴛᴄʜᴇᴅ,9-1-2021,
77,𝓵𝓸𝓿𝓮 𝓹𝓲𝓷𝓰❤️,pun_052,,2,3-1-2021,
78,Sajjad Naji,sajjadnaji6,,شنووو نوع الجهاز الثاني اسمه 🥰,24-12-2020,
79,nesuko chan xd,_.a._mandi._,,yo tengo la primera,21-12-2020,
80,Sophia,lililiu06,,"😬
👕
👖
Lui c Bernard il a 0 an à chaque like il prend 1 an à 1000ans il meurt.",21-12-2020,
81,titorrioz124,titorriozzz,,how many cameras has this ?,9-12-2020,
82,you found me congrats ig 🙄,lululightyyy,,Who else is reading the arguements in the comments? 😂,8-12-2020,
83,roblox girl❤️,roblox_ale01,,io ho il 2,3-12-2020,
84,Caroo,carolina_tejero,,Did you see that the phone that they used for filming is a iPhone... 😳🤦🏽‍♀️,28-11-2020,
85,Lara Prates,lawolfstar_black,,"o meu Motorola sobe a câmera tbm, mó brisa",21-12-2020,
86,Drift king,rashasd_the_king,,hmmmmm and what phone is this,4-12-2020,
87,Møhį Àlşŕhéf,dj_3vil_spe3d,,@pearl....alb 😳😂,8-12-2020,
88,user7577971316487,hillarynicholas1,,"@hillarynicholas1:please @mkbhd I can't afford an iPhone, can I get one from you please 🙏 so that my videos would be of high quality 🙏🙏🙏",21-9-2021,
89,Cony Varas,conyvaras_,,Y si se daña una pieza ps murio cámara 🤷🏽‍♀️,23-12-2020,
90,ᡕᠵ᠊ᡃ່࡚ࠢ࠘ ⸝່ࠡࠣ᠊߯᠆ࠣ࠘ᡁࠣ࠘᠊᠊ࠢ࠘𐡏,lebensfakt333,,@__queen_eva__ c.c,1-12-2020,
91,???,im_n_in_2_years,,Oigan😈no😈abran😈el😈link😈que😈dice😈 p0®n0😈g4y😈de😈enanos😈albinos😈es😈un😈virus😈que😈cambia😈los😈espacios😈por😈 diablitos,31-12-2020,
92,Him,yaboii269,,Lemme see the back of that plsssss,10-2-2021,
93,15K,mainslime15k,,Whats the 3rd one called,1-1-2021,
94,👑,j0sephbornre4dy,,Oppo,31-12-2020,
95,Majo 🤪,majo29061,,mi 9 t pro 🥰,30-11-2020,
96,TOYOTA.PROD,toyota.prod,,тем временем самсунг за 120 касарей тенге у которого поднимается камера и переварачивается,28-11-2020,
97,Hi,_______________.hi,,WWWWOWOOOOWWWWW PLS.GIVE TO MEEEEEEEEEE I AM POOORRR,8-1-2021,
98,LegenDa,legendatop1,,У меня Хонор 9Х и на нём камера выдвигаеться😬😁,28-11-2020,
99,🐍,whoizdav,,@kanyekonnoisseur bro theirs like 11 comments,3-7-2021,
100,<3.,inl0v3._,,👁💧👄💧👁 how ? @nyctablet2019,5-1-2021,
101,Gabi Genua,ggenua,,@haroldpestano me da fastidio responderte en el chat. Que buen uso del audio pal video jajaja me encantó,29-11-2020,
102,👁️👁️,lsmchxrry,,Yo tengo el primero pero no se puede disimular x k quieres tomarte una foto y sale un ruido y como k.... 😂,29-11-2020,
103,I'M GONNA BE A STAR⭐️🌟🌠,kurniaanjaymabar,,hp yang terakhir namanya hp apa ?????,11-2-2021,
104,. ᵕ̈,empanadasdkk,,¿Cuál es el último?,26-12-2020,
105,Maryorie Boza,maryorieboza3,,@gianmarcotl 😳,13-12-2020,
106,Factmachines,just....factsbro,,Bro last time I watched your channel was ages ago like 3 years and now your on tik tok congrats bro,28-12-2020,
107,P0ll0_7,p0ll0_7,,anche il mio Oppo Reno 2z lo fa 😂,26-12-2020,
108,Jeremias Naranjo,jeremiasnaranjo3,,goku le gana,23-12-2020,
109,Kaylani Bowie,kaylanibowie,,what the heck,10-12-2020,
110,.,shiba_138,,"pra qm quer saber que celular è esse,é o novo ZENFONE 6",29-11-2020,
111,Pedrolunaaa,p3dro__luna,,"mi 9t, onde plus (n lembro qual) e o ZenFone da Asus",8-1-2021,
112,Akis_Bertzo,akis_bertzo,,I have the firt,3-1-2021,
113,JeanClaŰdio 8,jeanclaudio_88,,Qual preço desse Brinquedo. .,25-12-2020,
114,Bishop,bishop_epperson,,No comments lol,3-7-2021,
115,Cristine Rose,cristinerose4,,"If y’all are still going off on my iPhone, you guys need to get a life outside of Tiktok drama starting 😂😂😂",31-12-2020,
116,Santiago Jesus Santo,santiagoj05,,cuál es el último alguien me podría decir,25-12-2020,
117,IFW69,ifw_69,,Good morning,22-6-2022,
118,firejolt,firejolt,,What kind of phone is that,9-4-2022,
119,Ashley Spurlin,paramnesya,,Love the use of this sound.,21-1-2022,
120,Bawesome8621,bawesome8621,,oneplus 7 pro . love that phone 😏,20-1-2022,
121,Harsh playz,harsh_playzyt,,lol 😂😂😂,21-12-2021,
122,bad boy,bellygym0,,Miles Morales😑,20-12-2021,
123,user440793528424,alfonymama,,yo quiero ese celu,26-9-2021,
124,koky3545,koky3545,,اخر جوال ايش اسمه,21-7-2021,
125,Safwan,spicy_popcorn54,,low comments,3-7-2021,
126,imperallady,imperallady,,wow,22-6-2021,
127,TomLisun666,tomlisun666,,good idea,7-6-2021,
128,💤,_rsria,,الاول جوالي🌞👍,20-4-2021,
129,JOSUE ANTONIO MENDIO,gu3tpl4y,,aa amnsito mijo xde,6-4-2021,
130,عنـوش,yos_3002,,ً,5-4-2021,
131,Nicole @ yt,nicolecomyt,,jjajaja,26-3-2021,
132,🧺|| Kyoya ||🧺,l0v3mys3lfk,,Thats sickkkkkkk😏😏,22-3-2021,
133,hello,thatfatkidcallededgar,,𝕀 𝕨𝕒𝕟𝕥 𝕟𝕠𝕨,22-3-2021,
134,tu furro de confiansa,ekfurro,,cual es el 3,22-3-2021,
135,Sasuke._.uchila,sasuke._.uchila._uwu,,eu quero,22-3-2021,
136,Ci Chris,cichris,,I want one. Is this even realistic,8-3-2021,
137,Noor _245,love36986,,😂😂😂احنا معندناش الحاجات احنا اخرنا تليفون نوكيا او هواوي، بس انا الحمدلله سامسونج😂😂😂,5-3-2021,
138,Harmony,harmonyquinn_,,Are these even available in the US?,22-2-2021,
139,morning,morning615,,a80,20-2-2021,
140,😚fay😚,thatbestbabyboi,,@phonerepairguru 😂😂,15-2-2021,
141,scooterz,scooterz_got_editzz,,welcome to The Future iPhone 100😂😂,10-2-2021,
142,lihangyj123456,lihangyj123456,,👍👍👍👍👍👍👍👍,24-1-2021,
143,MAIKL,aryacraft5,,🥰🥰🥰🥰🥰,21-1-2021,
144,h,kirstenandjanineandakies,,3,21-1-2021,
145,Osama Mohamed,osama___xd,,where is galaxy A80,18-1-2021,
146,Tranel Hill-Barrett,tjdadj17,,There’s someone watching me,18-1-2021,
147,Sosha💙✨,sosha.official,,"My brother you should share the names of the phones ✋🏾😂
Pls thooo",16-1-2021,
148,⁜,vecna.zz0,,what phone is it,16-1-2021,
149,Alen 🤝🌚,z_ll23,,That's android man android have more futures 😌,16-1-2021,
150,MIMI CHA😋🍯,.nah._.16,,تبغي تصور سكيمي تفيق عليك😳😂😂,16-1-2021,
151,𝐻𝑆𝐸𝐸𝑁 𝐴𝐼𝐿,hs_e_en2,,اخير واحد كلكسي A80,16-1-2021,
152,Ramiro Garza,ramirogarza77,,😂😂,14-1-2021,
153,KB,ww.k.4.n.i,,Nvm,13-1-2021,
154,👸your queen👸,jocilynlukbanpedraji,,realme c15. case,13-1-2021,
155,FROWG,frowg.com,,😂😂😂 FROWG 🐸,12-1-2021,
156,Fathi,fathibech0,,a80,11-1-2021,
157,Bongi Twala,joshyboy665,,I fr though it was the phone talking,11-1-2021,
158,every girls dream,noodles2305,,samsung A80,11-1-2021,
159,o.star.ma,o.star.ma,,"ميسي التنين,",11-1-2021,
160,tik toker 👍🏻,qjxjp,,جيش الجالكسي💪💪💪,11-1-2021,
161,Amogelang Matseke581,amogelangmatseke0,,Can you give me one phone,10-1-2021,
162,БЕЕЕЕЕЕЗ СПААААМААА БЕЕЕЕЗ СПА,bez_spaaamaa,,Первый похож на honor 9x как у меня,10-1-2021,
163,T|-|[- 0,theo_bach51,,do more 🥺,10-1-2021,
164,Jacques de kock,supersprt,,Can I please have an IPhone?,9-1-2021,
165,Jose_Juan_,josejuaaan_,,"Por suerte yo tengo el primero, el One Plus 7 Pro 😎👍",7-1-2021,
166,⛓️Ray⛓️,rayiris_,,"Um dia eu tava na Havan, minha irmã e minha prima abriu a câmera levou um susto porque o coiso tinha subindo e tirou uma foto",7-1-2021,
167,when the pain is unbearable,ztxa0,,hai,7-1-2021,
168,Kaung Khant,kaungkhantshwetoe,,Samsung A8😂,7-1-2021,
169,Plz go sub to my yt Chanel,the_xtra_clan,,What phone is that,7-1-2021,
170,✨,dragaana..m,,You take a Huawei P smart Z if you want a camera as your first phone,6-1-2021,
171,David Morales,saskia1427,,y yo aqui con mi nokia 5,4-1-2021,
172,Levente Kovács,kovi.levi,,A80?,4-1-2021,
173,사람,ssallassalla_000000000,,a80은?,4-1-2021,
174,Igor de Oliveira Santos,igor_oliveiras,,hahahahahahahah,4-1-2021,
175,user5958321513600,el_invisible301,,Podría ser el comentario con más likes🥺,3-1-2021,
176,.,user1234524081806,,yo viendo que los forros de atrás le sirven a mi teléfono😳,3-1-2021,
177,Johnzel Novida,johnzelnovida1,,Huawei,1-1-2021,
178,user41942417555,realezer08,,the best is Samsung A80,1-1-2021,
179,.,lalo._62,,Simp,1-1-2021,
180,Gustavo Gonzalez,gustavo_agf,,"Feliz★* 。 • ˚ ˚ ˛ ˚ ˛ •
•。★Navidad★ 。* 。
° 。 ° ˛˚˛ * _Π_____*。*˚
˚ ˛ •˛•˚ */______/~＼。˚ ˚ ˛
˚ ˛ •˛• ˚ ｜ 田田 ｜門｜ ˚
Un feliz año",1-1-2021,
181,nathan💀,nate.kinch,,but why???,31-12-2020,
182,👻 IG&SC: @dianbarry7 🇬🇳 🌍,dianbarry7,,android family🥰,30-12-2020,
183,عb د,tomas_ly1,,لا اله الاالله,30-12-2020,
184,Token Keli Ring,tokenkeliring,,My mom has the first one 😂😂😂,30-12-2020,
185,CarGuy284,carloverguy38,,2 one is the oppo rino 2??,30-12-2020,
186,lex,_asxel_,,Asus ngab 😳,30-12-2020,
187,ヒヒ,wtfisthis430,,what phone?,30-12-2020,
188,.,antonetteg_p,,That's old,29-12-2020,
189,I am live for ever bro 😂 😂,.r_h2,,الa80😳😳😳😳@m.h_553 الاخير😂😂😂هذة حسابي الثاني,29-12-2020,
190,Memer,memerr164,,Android power,28-12-2020,
191,fără sunet,aveny_so2,,Salut,28-12-2020,
192,Kevin Canales,kevin_canales17,,That’s just can ruin easily,27-12-2020,
193,user9971773198245,falomesmosim,,o primeiro e da motorola minha mãe tem 🥰,26-12-2020,
194,Its_ CeeJay,iits.ceejay,,If IPhone & Android had a baby 😂,26-12-2020,
195,Louis Lucius Lee,louis_lucius_lee,,what phone that at last one,26-12-2020,
196,Ahmad Umbara,umbr666,,iphone mana bisa wkwk,26-12-2020,
197,Nanda <3,nandacomamor__,,"A CÂMERA DO PRIMEIRO E DA MINHA MÃEEE
aliás estou comentando com ele",26-12-2020,
198,BOH xPODIYA,_podiya_16,,😳why man can u pls send one for mee toooo,26-12-2020,
199,Joel Oyarce,joeloyarce,,a,26-12-2020,
200,to nie ja,thefranz100,,A co to za telefon? ktoś powie?,25-12-2020,
201,Flame Logic,burrito.commentary,,Its tecno i ahave the canom 16 one,25-12-2020,
202,pavlos💸,_pavlosx,,@_spyrosxx to proto en to diko s,24-12-2020,
203,رفيف ✨🥺🥰🦄🤩😀😍😘💓💕💖🦄🦄,sahdenjwab,,؟؟؟؟؟؟؟,23-12-2020,
204,Vila Corevado,off_with_your_heads,,what phone is this,22-12-2020,
205,ih wibu🗿☝️,unknown..1911,,yg ke 2 itu oppo reno 2 yak yg ke 1 itu reno 2 f betul???,22-12-2020,
206,Netuno. 🔪,eoeden,,eu achei fofo,22-12-2020,
207,Shortmf,raven._.babydoll,,its all fun in games till the camra get break,22-12-2020,
208,José jalfaro,isrrra87,,"el 3er dispositivo se trabó
así que no creo dure mucho si eres fan de las selfies",22-12-2020,
209,🍄🐸Estar e Yris🐸🍄,eclipsede.saturno,,Meu primo tem uma dessa,21-12-2020,
210,Emiliano,emiliano_gzalez,,Cual es el tercero,21-12-2020,
211,OLGIER,tsm_olgier,,where is samsung a80,21-12-2020,
212,xanderamador07,xander_amador.07,,Galaxy A80🥰,21-12-2020,
213,Víctor Dourado,dourado_ofc,,cadê o a80,21-12-2020,
214,HK,user16373829189,,Samsung a80,21-12-2020,
215,Ratatouille 👍,ratatouille_de_oculos3d,,isso se chama inovação mamadores da apple,21-12-2020,
216,csvc___,_lejla_cau_,,1 huawei p smart pro,21-12-2020,
217,World’s Most Liked Cat,worldsmostlikedcat,,how many cameras does that phone have??????,21-12-2020,
218,Август,young_captaine,,у меня первый),20-12-2020,
219,sheinov,fake_slowmo1,,samsung a 80🥰🥰,20-12-2020,
220,JadeNotfound,6plain9,,I have the oppo f11 pro,20-12-2020,
221,alex ryski 1 0,p..m26,,ооооооо шо,20-12-2020,
222,Zeeel Dias,d.zeeel,,Your phones really amaze me ❤ pls notice me 😞,19-12-2020,
223,Mateus H. Dias,mateushd09,,Faltou do Galaxy A80,18-12-2020,
224,Бека,saparbay13,,а80,18-12-2020,
225,SHEET,roeybautista_,,that's the reason why Android is better than Apple,17-12-2020,
226,فَجر ألـ؏ـودة؟ 🇮🇶,f___________jr,,جوالي اول واحد 💃,16-12-2020,
227,°•°,terry.tu,,@_fjr3 تلفونج اول واحد.,16-12-2020,
228,❤️,no.name.guyy,,which one is that third one?,15-12-2020,
229,ULTRAMEN 😈,ultramen_ijoooo,,j2 prime nyimak ngab,13-12-2020,
230,user269009738876,williamhudson188,,thank god ya opened tiktok,13-12-2020,
231,Erwan,erwanou72,,j'ai le deuxième l oppo Reno 2,12-12-2020,
232,dupa cie cisnie,twojamamahikaru,,fbi agent's : 👁💧👄💧👁,12-12-2020,
233,شمبقبق,u22ki,,😂😂😂😂,12-12-2020,
234,Mi smo hamsteri i vukovi🥶🐺🐹,vekicarpravidarmar,,taj fin ima moja sestra i ja,12-12-2020,
235,يوسف مصلح,yousef_muslih,,U.,11-12-2020,
236,Memy tygodnia !!!,meme_pikachu,,@szymonkosik0 xd,11-12-2020,
237,anoo_,anoo_bts,,ويلي الجمال,11-12-2020,
238,Dax,zak_9_,,بعد كم سنه يحطون رجلين,11-12-2020,
239,Laurent 👀,dontmindmejustwatching07,,🔥🔥🔥,11-12-2020,
240,Mm,m.qoh,,انا الاخير,11-12-2020,
241,إلياس | Elyas,elyasrdd,,لكم ان تتخيلوا ان اخر جوال الوحيد في العالم الي يصور فديو بدقة عاليه ب٩٠ فريم,11-12-2020,
242,Lia,lia_12120,,شنو هذني الجوالات,10-12-2020,
243,Miguel Jiménez,miguel.jimenez.0119,,"Disculpa necesito tu ayuda para ver si puedes promocionar mi producto, es por una buena causa por fis🥺",10-12-2020,
244,ANKROS,zhs023,,У меня 1😁,10-12-2020,
245,Syxnix1301,miguel_1301,,y,10-12-2020,
246,♾,gllox.e,,يمكن التليفون الـيہ ينزلونه جديد يرش عطر,10-12-2020,
247,💅,cookiesnails,,What's the phone who said good morning?,8-12-2020,
248,deniH,denimaleni,,fbi open up,8-12-2020,
249,Indiphile Madlala,itsindi2020,,"what's the name of this phone,must buy😅",7-12-2020,
250,james,james._glover,,I also have the Xiaomi 9t pro,5-12-2020,
251,nini,web_.mah_2,,@umagay._ se superaram na apple,5-12-2020,
252,𝔸𝕞𝕚𝕟 𝔼𝕝𝕘𝕙𝕠𝕦𝕔𝕙,amin_ewp,,Samsung A80 is something like this too,4-12-2020,
253,Tortoise_milk_74,tortoise_milk_74,,I have the 1st one😂,4-12-2020,
254,𝐃𝐎𝐌,_1.970,,A80 ?,4-12-2020,
255,صــوفــي,2v.1i,,ول A80 وين مالتي 🥺,2-12-2020,
256,Luis,luisao_99,,cual es el 2do cel??,2-12-2020,
257,☆_♡ suka kamu,lopelopews,,Kalo aku lebih pilih samsung a80 blekping😌,1-12-2020,
258,jai,tone_wow,,thats oppo reno,1-12-2020,
259,ANTHONY ARAUJO DA SI,sem_eosto,,o primeiro é da xiaomi pelo que eu me lembro o MI 9,1-12-2020,
260,yo,love_mistki,,el mío se primero😅,1-12-2020,
261,NIIK,nktoons123gmail.com,,"qual o problema da câmera fica normal reta no cll na frente
e qual o problema da câmera normal?",1-12-2020,
262,محمد,user5z2n,,اني رقم 1,30-11-2020,
263,69,xasourakhs6,,@xarabinichaki 😅😅😅,30-11-2020,
264,↫↫↫↫↫ ➃lᶤ𝓎Ｋ０ ↬↬↬↬↬,3liyko0,,hi🥰,30-11-2020,
265,ikyuna,fuesugi,,первый у меня в руках HUAWEI P SMART Z 😁,30-11-2020,
266,Stripe,stripewuf,,I have zenfone 6 uwu,30-11-2020,
267,Cosmos,cosmos_400,,Мой страшный сон😂,30-11-2020,
268,tuta0026,hijodetuta,,que celular es el ultimo?,30-11-2020,
269,lovvvve,lovvvve8,,🥰,30-11-2020,
270,محمد,cv69cv,,"A80
شنو وضعه؟",30-11-2020,
271,Bernardo Piaseski,reidocarro,,🆁︎🅾︎🅸︎,30-11-2020,
272,｡ﾟ･ (>﹏<) ･ﾟ｡,ab.o1__,,انا عندي ايفون وهونر مرتاحه ؛-؛ .,30-11-2020,
273,Adonis Mateo 🙅🏽‍♂️,adonismateoyt,,😂,30-11-2020,
274,loord 3alae,mahdjoubialae,,ware isit a80 Samsung,30-11-2020,
275,Μαριος,mariosktk,,Εγώ έχω το ποτό και είναι τελειο,29-11-2020,
276,Roxana 😘😘😘😘,andrei_roxana_55,,J'ai le 1er😊,29-11-2020,
277,EL Sloot,jamessloot13,,HUAWEI?,29-11-2020,
278,𝚘𝚕𝚐𝚊♡︎,_olga18._,,I have the first one 😂😂😂😂,29-11-2020,
279,Marawan Mahamed,marawanmahamed73,,اي نوع الموبيل الاخير😂,29-11-2020,
280,FEIO,ziskash,,wooow legal😁👍🏻,29-11-2020,
281,Ok,bruce_wayne_orginal,,esa madre no te va a durar,29-11-2020,
282,Dj32,mzd___,,What about the samsung a 80,28-11-2020,
283,Miladis Patiño De Ji,milys0827,,El último teléfono cual es?,28-11-2020,
284,❄️🩸Snowowow🩸❄️,sangboo_75,,Ma sœur a le premier,28-11-2020,
285,SussyStef,idontcare._.___._,,That’s so easy to brake tho,28-11-2020,
286,It's a human,solodami,,yo le doy a los dos 🌚😍,28-11-2020,
287,Razan♥,razan587,,I need iPhone please for the college 💔😕,28-11-2020,
288,Ed,sevencer0seven,,A mi me da miedo que se me dañe mi camarita :'(,28-11-2020,
289,Lucas Amaral,lucasamaral351,,só faltou meu a80,28-11-2020,
290,vasco,patofodasse,,"mam, where a buy this?",28-11-2020,
291,Maximiliano Martínez,maxicharrua,,Dembele haciendo comerciales 😛,28-11-2020,
292,aslis,aslis_uwu.1,,@lesxluciano_ 😂😂,27-11-2020,
293,"Твоя мама, прекрасный человек",molnyia_makvin,,"У меня хонор 9х, тоже выдвигается ')",27-11-2020,
294,Данил Белов,danik001k,,что за последний телефон ?,27-11-2020,
295,Bread,_shrigga_sus_,,I have a camera lile that,27-11-2020,
296,Heart Hacker0120,nhaobi0120,,what is the model of last and second phone?,27-11-2020,
297,🎐,slo.y,,je m’attendais tellement pas pour le dernier 😂,27-11-2020,
298,Adlylit,adlylit,,😂😂😂,27-11-2020,
299,c_scott295,c_scott295,,I have to say my friend thought my oneplus 7t pro selfie camera was a vape and he got excited,27-11-2020,
300,madcookie4,madcookie4,,Ape and Android together eat camra and prossessing time,19-8-2021,
301,user1289128234530,lombardisebastiano536,,oppo,14-1-2021,
302,Dianahm,ana_swan_,,"El último es azuz sefone 7 pro con un costo de alrededor 25, 000♥️",29-12-2020,
303,albertoquicas,albertoquicas,,q móvil es ese,25-12-2020,
304,user269009738876,williamhudson188,,becuz of ya i buyed the ipad pro 2020,13-12-2020,
305,وسام شراحيلي,user14952715,,اش اسم الجوال واش اسم الشركه حق الجوال وبكم سعره,1-12-2020,
306,98SJN,98sjn,,Samsung also has a front camera phone like the A80 they,1-12-2020,
307,Sean,sean.mvxk,,Well a case on that would be an issue,28-11-2020,
308,Sammi🔥,sammi_dynasty17,,what's the first phone😐,11-2-2022,
309,Jaeden F,67balloons,,what's the name of the last phone??,27-12-2021,
310,Fire Lord Zuko,lord_kizukai.editz,,Amazing,2-12-2021,
311,Techy Jefe,techyjefe,,Those are dope but I bet they are a lot more expensive and take up quite of bit space in the phone.,31-10-2021,
312,🎀Roxana Georgiana🎀,roxana.g1,,what phones are those ?🥺,2-10-2021,
313,hmd.exe,hmd.exe,,tbh 1+ nailed it with the elimination of the front cam,6-7-2021,
314,ycharge.store,ycharge.store,,Uhm woah!!! 😱😱😱,23-6-2021,
315,Inky,inky_demongamer,,How,13-6-2021,
316,reo the roblox pro,reotherobloxpro.1,,what is that phone,18-4-2021,
317,Aden white,dr.axolotl_roblox0,,You get a face reveal look on the phone,7-4-2021,
318,Girl 💋.,ffivo1,,الجوال الاول زي جوال خالتي القديم,7-4-2021,
319,Elchamber Okay,elchamberokay,,Which phones are those? LG 🥺.,7-4-2021,
320,betvenom 903,betvenom,,what is the last one,7-4-2021,
321,Reyna Sanchez,reynasanchez1975,,I only like it cause Let’s say that if someone hacked into your phone and they can see you through your camera then they can’t because it gets put,2-4-2021,
322,user6925096654221,water_flower1,,Manz siad 😳,30-3-2021,
323,user9032896590359,sl_dhana2,,what is that 3rd phone😳😳,24-3-2021,
324,(⊃｡•́‿•̀｡)⊃,urveryswaggyyy.ily,,Huh-,24-3-2021,
325,....,.70oqw,,i have the first one lol,22-3-2021,
326,B r o,puro_the_protector0,,Hacks,15-3-2021,
327,Cara,carabliss_,,Omg!! I want one!! Y’all are genius!! ✌️💜🦋,11-3-2021,
328,Perla <3,just.me.and.ma.dog,,My phone is the first one hauawei Y9s right?,8-3-2021,
329,skididobopbopanetflixoriginal,yesmamee,,ok but like where's my upgrade?,20-2-2021,
330,Jayden Medrano,jaydenmedrano4,,What Kind of phone is that,14-2-2021,
331,spammm,mxryckespxm,,ayyy I have the first one,14-2-2021,
332,Want some food? 👶👶👶👶👶👶👶,kyrvsall_twerk,,What kind of phone is dat,8-2-2021,
333,🇮🇪Armando🇮🇪 💪😜,armando_sefu456,,what phone?,31-1-2021,
334,KEISHA0909,fakekeisha,,i wis u can help me,20-1-2021,
335,Arnold_gyan,arnold_hm,,dembele😂,19-1-2021,
336,Ghostface,jackskeletontaken,,My phone be like: :0 the f-,19-1-2021,
337,عبود,0zs.d,,انا اول وحده😂,19-1-2021,
338,..,kievn2,,"اباوع عل موبايل ❎
اباوع عل كرسي المكسر ✅",18-1-2021,
339,Génesis Nashuatec🌻✨,gene.nash.cospobre,,Yo quiero,18-1-2021,
340,ONE GAMER,urieltx,,Me regalas uno :( mi celular esta bien estrellado y es uno de generación de hace 3 años,17-1-2021,
341,ヤエシンプ,yaes1mp_,,@prakuror_uzb @twp_mortal @awpterminator hi 😂,17-1-2021,
342,Joe,joe__x8,,Ive the first one😁🥰,17-1-2021,
343,Fathu123,fathu040,,hey give me one phone plsss😭,15-1-2021,
344,🤍,ham_.2145,,@srsr19o5 hi,15-1-2021,
345,Hesham - هشام,hesham12367898766,,the camera is so good,15-1-2021,
346,mostafa العاب ١٢٣,mostafa99007,,"سيبكم من التلفوانت ركزولي على مقشرة الجزر الي ورا الي سعرف
ها قوق ال٣٠ الف😂😂😂😂",14-1-2021,
347,Lerato Morudu,leratomorudu1,,is it iPhone,13-1-2021,
348,KB,ww.k.4.n.i,,What phone is that,13-1-2021,
349,Ftm Tm83,fatema34fayez,,عرض التلفونات وهو يصور بايفوت 😏😂,11-1-2021,
350,"'I love books""",theglobloglabla,,I have the first one 😕💔,11-1-2021,
351,Houssni Youssef,houssniyoussef,,can u give me 1 for make video on youtube becus i wanna help my mother 😊,11-1-2021,
352,Tatan,iamtatan,,galaxy A80 where ?,11-1-2021,
353,Joyce,joycegoviri_,,my cousin has the first,11-1-2021,
354,Youssef Mohamad,youssefmohamad8,,can I have one from this phones😂,11-1-2021,
355,the kpoper girl,its_thekpop,,give me one😳,10-1-2021,
356,AvCreation,avaslayer,,yep thats my phone the huawei y9 prime with the pop up selfie😏,10-1-2021,
357,Derek.Cruz,derek.cruz1010,,I can't even afford a good phone right now. 😅,8-1-2021,
358,(😜)MR.NO_NAME(😜),mr.no_name_61,,as i hve seen a80 is the best,7-1-2021,
359,Me,dangmarcus1,,Can someone pls tell me what this phone is called 😁,3-1-2021,
360,solitaire,fx_twenty,,@lslssldkdk 😂😂😂😂😂😂,3-1-2021,
361,miskezza,miskezaa,,its samsung galaxy a 80,2-1-2021,
362,MOONIONS,hagios_,,reasons why android is better than iPhones,1-1-2021,
363,Lorenzo Mirarchi,gx__lollo__,,Come si chiama il 3??,30-12-2020,
364,Athira✨,athira2007rajaneesh,,@k.s.premathilaka buy this phone,28-12-2020,
365,Hasindu Madusanka510,hasindumadusanka1,,i want iPhone😳😳🥺.from sri Lanka 😔,28-12-2020,
366,Нежная душа,gentlesoul48,,Кайфова🥰🥰🥰,27-12-2020,
367,turi ip ip turip,whksuw,,me siento orgullosa y no se porque :D,26-12-2020,
368,Madhu Regmi,madhuregmi5,,give me one of those😂😂,26-12-2020,
369,CamLover,camloverrr,,Now this model what's the model it is?😳,26-12-2020,
370,pat,patrk55,,Ay that's my phone!!,25-12-2020,
371,V._.80,comandante_at,,c rie,25-12-2020,
372,The Studio,thestudiolabs,,whats the third one ?,25-12-2020,
373,Dyar,aeecv,,That was a great one 😂,25-12-2020,
374,Baztac,baztac,,Make whit the iPhone 😂😂😂😂😂😂,25-12-2020,
375,Dylan Munilal,dylandynamicyt,,what kind of phone is that,24-12-2020,
376,.,zagaz_ff,,a ver pa cuando iphone,23-12-2020,
377,Omar Yvng Venom,omaryvngvenom,,What phone is that,22-12-2020,
378,O. Alejandro Gomez De P,alx_gt_de_p,,"Next iPhone 50, hell yeah!!!!😅😅😅😅",21-12-2020,
379,yo soy Ironman,carlosislas95,,muestralos por la parte de atrás,21-12-2020,
380,Sabawon Mohammed,sabawonmohammed,,I think,21-12-2020,
381,Ayub Jemal,ajt939,,what's the name of the 3rd phone😳,21-12-2020,
382,amine,e.uee,,لدي في تليفوني الاولى,21-12-2020,
383,Kat,akabane_kn,,wow!,20-12-2020,
384,Huseyn,shushapubgm,,What's that 3 rd phone name,18-12-2020,
385,GODZILLAWINS2022,godzillawins2022,,samsung a80 nice,17-12-2020,
386,سايكوهاك🇦🇪🇸🇦,qa_a,,@unn__i الاخير حلو,17-12-2020,
387,Abdo Labgaa,abobiii_cr7,,ممكن اسماءهم بليييز 😳😳,17-12-2020,
388,im joking you fucking m,reaperomi,,what a phone,17-12-2020,
389,IZUKU,lzukumadorea,,شباب تنصحوني اشترس A50 لو لا,17-12-2020,
390,Chiku Khan,mnoman108,,name of this mobiles,16-12-2020,
391,𓆪 ✯•⇣™ 𓆩🇺🇲⃤حلا𓆪,4rptx,,اول تلفون معي هواوي y9s 😁🥰,15-12-2020,
392,Marialove🇰🇭✨🏳️‍🌈,_lothloth_,,please help iPhone12 😭 from cambodia 🇰🇭,14-12-2020,
393,user269009738876,williamhudson188,,i read all of your reviews,13-12-2020,
394,user269009738876,williamhudson188,,i follow you on youtube,13-12-2020,
395,Kenadee ✨💕,kenadee_hp,,Wow😐,13-12-2020,
396,…,khzcv,,у меня тож так,13-12-2020,
397,Ден,pubg_deni4ka1112,,Huawei p smart z pls,12-12-2020,
398,FortniteSrb,...oqnjen16,,"@ognjen16:𝑳𝑶𝑽𝑬 𝑩𝑳𝑨𝑪𝑲𝑷𝑰𝑵𝑲
︎︎
︎View replies (9999)
︎︎
︎︎
︎︎
︎︎
︎︎
︎︎
︎︎
︎︎
︎︎
︎︎
︎︎
︎︎
︎︎
︎︎
︎︎
︎︎
︎︎
︎︎
︎︎
︎︎",12-12-2020,
399,Mohammad Nhmi,mo7ammad980,,A80,12-12-2020,
400,ayo,mystically__,,Samsung A80 Does that too🥺,12-12-2020,
401,حَـمـد 👤.,26y_l,,احلى جهاز الاخير يمكن A80,11-12-2020,
402,Roso✌🏽❤,roso93rus,,ФСБ:🗿,11-12-2020,
403,OT ⚡ Z I Z W A R,dvdx9,,وللللللللللللللللللللل اصلا مو عمليا 💪 وتقدر تنكسر,11-12-2020,
404,𝙰.𝚉.𝙾㋛︎,euzuz_1432,,الجوال الأول زي حقي ترا اكلمك منو😂,11-12-2020,
405,Maur N,sahuuuul,,the first one was a Huawei Y5 i think.,11-12-2020,
406,KevinBcherrawi,kevinbcherrawi,,What samsung is this,11-12-2020,
407,Bh,cucu.corvette,,I Am The First One Right Now Im Using😂😅,11-12-2020,
408,Karton,top_karton,,good night 😅😅😅,11-12-2020,
409,لول,user11693759,,Can I take one😂😂💔💔,10-12-2020,
410,Luotolle,luotolle,,what phone is the last one😳,9-12-2020,
411,sa69d😮‍💨,s69di,,I have the second one,9-12-2020,
412,Gail Canlas,gailcanlas24,,Can i have one? Please?,6-12-2020,
413,user8798373371063,user484925458,,What are those name??,5-12-2020,
414,Mr Bosco,wabosco,,Where the best of all #samsungA80,3-12-2020,
415,Omar,qw.sm,,انا تلفوني هيك الكاميرا بتطلع🙂,3-12-2020,
416,🌚,7z9ii,,جوال الثاني زي جوالي,2-12-2020,
417,Руслан Грудзинский,user744204955,,у меня первый это ми 9т,2-12-2020,
418,"💗Cheese,Chess,Prawn",putli_is_putri,,Hp apa itu???? 😳,2-12-2020,
419,Denis Albescu,_denis_xd_.1,,you miss a80😅,30-11-2020,
420,.,4lc.l,,@springflower760 اول واحد موبايلج 🙂😂,30-11-2020,
421,𓆩CR7𓆪𓃬,u.3rc,,اول واحد جولي يعيال 😂,30-11-2020,
422,ok,isaidokdude,,wait isn't that the galaxy a80 lol?,30-11-2020,
423,✨🥽𝙨𝙖𝙢𝙤 𝙈𝙖𝙜𝙞𝙘🥽✨,magic...magija,,i have a 1 phone🥺,29-11-2020,
424,hrcgtbyy,hrcgtbyy,,what is the phone?,28-11-2020,
425,Iyan Maina,iyanmaina,,Asus,28-11-2020,
426,(:,frulfsstmalwhqtjwtjfwetj,,A80,28-11-2020,
427,Alex Rodriguez,aalexrodriguez04,,Is that an Samsung ?,28-11-2020,
428,chill bro,em1_ya,,i have poco f2 pro 🐸💔,28-11-2020,
429,0o0,_i_am_idiotx_0,,I have huawei P smart Z and my fone have the camera,28-11-2020,
430,egal12399,egal12399,,OnePlus 😍 beste 😍,27-11-2020,
431,Никитосик,true_shenya,,name of last one ?,27-11-2020,
432,JustMnwr,1i9,,😂😂😂😂,30-12-2020,
433,PachVsus,pachvsus,,😂😂😂,23-12-2020,
434,Mogus12,progamer1824,,So cute,14-12-2020,
435,jman733,jman7334,,@hisham.hashim 😂,10-12-2020,
436,!PROFIL HACKED!,06042009_,,😂,27-12-2020,
437,dazefye,dazefye,,i like the second one,9-12-2020,
438,vanessa,vp20205,,Omg so funny 😂,2-12-2020,
439,𝕾𝖍𝖆𝖗𝖇𝖎𝖑-𝕬𝖇?,sharbill_,,Second one😬,29-11-2020,
440,Romain Neimbo,nyann_nmbo,,The last one !,27-11-2020,
441,Michael Afton Emily,offical__michleaftonemli,,How,31-12-2020,
442,KassimxBaba,kassimxbaba_,,How?,30-12-2020,
443,:3,imraneem_,,@nadinegh8 😭😭😭😭😭,11-12-2020,
444,𓅷𝐷𝑈𝐶𝐾𓅷,www.br0k3duck.com,,@brookie_cookie_005 aw,7-12-2020,
445,Omphile Aphane,omphilejt,,can i please get one,1-1-2021,
446,casada?,nao_sei_519,,É da Samsung?,5-11-2020,
447,.oxxdzyy,krenciol_2115,,mam to coś z wysuwanym aparatem to jest Motorola,10-3-2021,
448,Plat_H,plat_h5271,,Vivo V17pro terlupakan 😂😂,7-1-2021,
449,Pak Maon,pakmaon04,,atleast can make people who cant affort iphone happy . its enough already .not every people can buy iphone .,22-12-2020,
450,تكتم,entpp,,الاول نفس كاميرتي,10-12-2020,
451,Juuulien,rjf_500,,T’es en retard dans la technologie mon gas,7-1-2021,
452,Juan Carlos Guzman,6jei6cy6,,One Plus💪🏻💪🏻,25-12-2020,
453,Aymen Pcer,aymenpcer,,اعطونا اسماء الهواتف,2-12-2020,
454,Zlconic,zlconic,,😂,15-12-2020,
455,SpookySquash951,gregstout2,,I saw you today. Good luck in the championship tomorrow.,24-10-2021,
456,Papathijmen,papathijmen,,"fifahermanos, kijk men fifa 125k pakket lmaoo😂🥰",11-12-2020,
457,Ethan Arredondo,v6bee_,,WHY ISNT YOUR BIO “WELCOME TO TECHTOK”,10-3-2021,
458,Expired love💀💔🖤,you_locel_cat,,Oh my God he on X game mode😂😂😂😂,5-3-2022,
459,Gavin Magno,gavmagnusx,,imagine the last one detached and hovered,20-1-2022,
460,Roblox mrflimflim3272,alex_zzz27,,The new android sheesh🥶🥶🥶🥶,19-4-2021,
461,IKHMAL FAUZI,kllervxx,,why u dun review the mi 10 ultra and asus zenfone 7?,20-2-2021,
462,✨너의 누나✨,yungbbyellzz,,shm not yall wanting to get an android now 😂,15-2-2021,
463,Jadiel Aqua,jadiel.aqua,,That black kid reminds me of someone from share Mann,4-2-2021,
464,Galaxy,inteligente1516,,"Hurry to buy limited quantities . Visit our store, buy 50 dollars worth and you'll win a 10%off coupon Link to description",21-12-2020,
465,kya jada,kyajada,,"To some off the people in the comments I just wanna say, you can't get mad/rude at somebody just cuz they think android is better 🤦‍",3-1-2021,
466,Z$0F¥🧸,xyzsih,,@zsofi.45 miafaaasz,3-1-2021,
467,Diego Escobar,diegoescobar871,,Jajaja ahí valió madres Instagram xd,30-12-2020,
468,『KOF〆iJet』,yokooooooo.__,,[angry],22-12-2020,
469,wonk chonk kong,wonkchonkkong,,this is cheating,16-12-2020,
470,,givinggirlsc0k3,,"Don't get fooled yall, i have the first one and its annoying af",4-1-2021,
471,🍂A.l.o.s.h🍂,little_dude69,,?Mi I like iOS even if i Have android,22-12-2020,
472,Mah Gawd,theyluvaimi,,it’s all fun and games till your system gets hacked,22-3-2021,
473,laule,rip_coco0,,me with infinix s5pro,21-1-2021,
474,lil Nasc Wave,ntandocele466,,Let's confuse apple fans 😂😂,15-1-2021,
475,Joo,_______x_______________d,,Imagine having that but your cameras still suck,5-1-2021,
476,Chamod lakshan,user203078865,,Can you send me iphone 12,26-12-2020,
477,Sabawon Mohammed,sabawonmohammed,,One pluss 7 pro. End asus,21-12-2020,
478,Kerry Husbands,bajanshoppa,,This is funny as fuck,2-12-2020,
479,Rafaelmaprincee,wesyeeweppp,,"those phone has awesome camera man so cool.....💗
why don't you just give it to me, I don't care what phone as long it a phone. bruh😏😏",1-12-2020,
480,JUAN ENRIQUE ♡♡♤,twitchjohn507,,this ansu fati,29-11-2020,
481,David Sampson,_.davees._,,first one is infinix s5 pro,31-12-2020,
482,Kazziqueh,gut.ros,,Once my camera opened up in my pocket and gave me the filling that I was being pocket lifted. Next thing you know and I was making out with yo mama.,17-12-2020,
483,JoWHn aRviHn,crookshanksthecat,,"me: asked to pic an iphone or android
my brain: iphone so you will look rich and cool
my other brain: f iphone, their batteries suck
me: *takes both*",1-1-2021,
484,chou,chou32411,,samll tiktokers let's support,20-1-2021,
485,𓆙.,amira_x47,,@rysll77 زيادة متابعين🥰,19-1-2021,
486,Ur boi George,george_dibble9,,@luke.dibble6 @.yeadil @aricthebest @connie_in_spirit,26-10-2020,
487,rien je regarde juste ton comp,rientkt,,ses bien les cam pop up ou pas ?😬,26-10-2020,
488,Acetaminophen,600mgtylenol,,What year is this?,2-11-2020,
489,Michaellylep,michaellylep,,I was just watching you review the PS5 remote yesterday night,2-11-2020,
490,joey,.asapdoggy,,وصلو العرب للتيكنولوجيا @itzmetitan شو ضل 😂,27-10-2020,
491,Following back raccoons,im_racoon_man,,No I need my FBI agent,26-10-2020,
492,hi guys,..aja0,,kalo muncul sendiri berarti ada yg-,27-10-2020,
493,Mohammed Bilal™,bilal.qb,,hahaha 🤣😂,27-10-2020,
494,Corey Gallienne,coreygallienne,,@coffeedo,28-11-2020,
495,Alex_wpi,alex_wapi,,Perso honor 9 x comme le premier,26-10-2020,
496,lilchorizo02,lilchorizo02,,"you'll see it on the iGay 20, watch",26-10-2020,
497,daddy,wamilte,,"oppo reno2z, чилл",27-11-2020,
498,GLOW,jharam07,,뭔 폰이예요?,27-10-2020,
499,christian.wolf,chrissiboy01,,@david,27-11-2020,
500,m-o,_kq_1,,@star013rhida,26-10-2020,
501,Darth Tonserac,the_sith_lord_of_tiktok,,What the fuck it that?,26-10-2020,
502,.Jus.a.lingo.,.jus.a.lingo,,The dude on the phone like 👁👁,26-10-2020,
503,...,toriiii.l,,My only worry is the amout of dust I'd need to clean up if the sides gets dusty,27-10-2020,
504,Caitriona O’Neill,caitriona2006,,@ailbhedoherty,31-10-2020,
505,user1062693372125,ponchik167,,первый телефон у моего папы,30-10-2020,
506,❤️,rrjnuvrso,,@hug00s,30-10-2020,
507,Hodaya_shneor,hodaya.shneor,,איך אני אצלם חתיך ככה בלי שהוא יראה שאני מצלמת אותו,14-11-2020,
508,Tiemo Bantle,brawlstsrs96,,ich hab auch so ein Handy mit ausfahrender kamera das Huawai p smartZ😌,27-10-2020,
509,Thiago Nogueira,amigodoiogurte,,@franciellymatias3,30-10-2020,
510,dannysanchez_14,enlightenmetothysmother,,@alondra_890 😂,26-10-2020,
511,anton,viliager,,Why are these phones like Anakin? 😂😂😂,27-10-2020,
512,J.D.,jdfelda,,Seems like a pretty major failure point.,27-10-2020,
513,.,become_a_chad,,i like how everyone never talks about xiaomi phones like theyre good,26-10-2020,
514,Brady Guild,bradyguild,,Thank you markass,27-10-2020,
515,user5220231558146,.draxytv,,hold in hold on: where is the Samsung Galaxy A80??😳,10-11-2020,
516,🫥,ohev_,,can you please do the BLU G90 PRO 🥰😁,30-10-2020,
517,Luke Singer,bosco1250,,The second one is clean af,30-10-2020,
518,Chess Chess,gasp0d,,Pop camera are garbage. If I butt open my camera app on accident....,27-10-2020,
519,🐻👧🏼,mascha.kascha,,Das erste Handy ist mein 😂🥰,13-11-2020,
520,Bro what,jaco.b_10,,"◢✊🏽◣            ◢✊🏽◣
✊🏽✊🏽✊🏽◣ ◢✊🏽✊🏽✊🏽
◥✊🏾✊🏾✊🏾✊🏾✊🏾✊🏾◤
    ◥✊🏾✊🏾✊🏾✊🏾◤
         ◥✊🏿✊🏿◤
              ◥ ◤",30-10-2020,
521,Massimilianodaleoo,massimilianoo17,,@veronica.aloisio,13-11-2020,
522,Gerben Remmink,gerben.remmink,,@chiel18 jij @ruben_kosters,26-10-2020,
523,Sasha_02,gingerzwerg,,@28marie_ dachte kurz Malick,26-10-2020,
524,Jordni,mosszs,,@yakult.life phone cases...,26-10-2020,
525,Mossy stone brick,mossy_stone_brick,,Mossy stone brick,30-10-2020,
526,Heen Bóng Tối♓,dhcute.05,,Reno 2f,26-10-2020,
527,Nursun,nursun_schmidt,,iPhone 12 gang where u at,27-10-2020,
528,NanaBanana,roblox._.no.top.up,,team android😂,17-11-2020,
529,nk,n3idas,,second was nice,9-11-2020,
530,Daniel Petrus Burger,danie_burger,,@chantelcaldeir Die eerste foon. Dis die Huawei Y9S 😍 Dit lyk so satisfied 🙃,9-11-2020,
531,Fthom,fthom,,Το τελευταίο είναι υο καλλίτερο... (γνώμη μου),15-11-2020,
532,Donny,firedon33_,,which one is that?,26-10-2020,
533,❤️ⓥⓘⓚⓘ❤️,itz__vika__,,чё за телефон?😵,9-11-2020,
534,Shezz Naidoo,shezznaidoo,,@lonellab,30-10-2020,
535,.,b2t01,,عطيني وحد,26-10-2020,
536,Ali,www.alijay.com,,@fatimaisfly you should duet,26-10-2020,
537,👁👄👁,hisoka_gonuwu,,Is that the iPhone 12,27-10-2020,
538,Romàno,busto_x_rusto,,"Android's are not nearly as expensive, built better and have more features. If you want a small computer in your pocket, apple is not it.",26-10-2020,
539,Jawn papi sauve,305_leo,,what phone is that ?,26-10-2020,
540,rainorshine,rainorshine_,,@lilchimx,27-10-2020,
541,JOÃO PEDRO FONSECA MARTINS_,ja01602,,"1-XIAOME MI9T
2-SEVIRA PRA PORCURAR
3-ZENFONE 7",27-10-2020,
542,Tik Toker,fvck.carlooo,,ma ľA80??,14-11-2020,
543,.,rasicclana,,I have this first phobe,14-11-2020,
544,⭑𝑽𝑰𝑰⭑,gs300s,,pop up and down headlights except cameras,26-10-2020,
545,a+c=d,veinz.z,,@koksusahsih,27-10-2020,
546,Brandon,brandon.san2,,Yep filming on a iPhone 11 😂,26-10-2020,
547,Antoine,antoine_akltchff,,@flyziee,26-10-2020,
548,RiceChibiChan,ricechibichan,,But y is this so cute🥺,27-10-2020,
549,Ｎｎｄａａᵍᵃⁿˢ`,nndaagblg,,udh di hps ya bund konten nyah?,11-11-2020,
550,a,autzzzssssq,,cual es el ultimo?,11-11-2020,
551,pam,pamconkeso,,@sophiach22 me dio risa JA,11-11-2020,
552,giaccu,giaccu_,,@__marie_14 @darksoreax,11-11-2020,
553,antwon :3,antwon_sheesh,,Iphone be like after seeing this tiktok: 👁👄👁.......iphone 13!,11-11-2020,
554,Sto caxxo,fan_marvel_07,,Io ho il huawei p smart z ed è lo stesso al primo che si alza la fotocamera,26-10-2020,
555,ТОФФИКС,toff1x_,,у меня выежная камера как в 1 ч камера,26-10-2020,
556,Mihai Sas,ogmihai,,@smuliacmihai,26-10-2020,
557,Emma,emmausai_,,Io o il primo,11-11-2020,
558,Milka_csoki,_.emily._40,,Ce telefon este?,11-11-2020,
559,ℒℯ𝓃𝒶,part2oflena15,,ich habe das erste 😂,11-11-2020,
560,Alisa💕,alisayasaevofficial,,wow,26-10-2020,
561,Florencia Jara,florrrrrrrrchi,,el 3 es flama para las selfies,11-11-2020,
562,E,airwilksontello,,apple creates a “walled garden” beautiful on the inside but impossible to get out (switch to android with ease). google would never.,27-10-2020,
563,Fckintonymontana,fckintonymontana,,@nasimka123,11-11-2020,
564,Moritz,mxritz.015,,Samsung is shit,26-10-2020,
565,Андрюха,naruto._.loveramen,,3 й вариант лучше,11-11-2020,
566,M7arts_,m7arts_,,#oneplusgang 😁,27-10-2020,
567,.,kagami1_,,Первый это 9 х,26-10-2020,
568,𝙼𝙰𝙽𝙳𝚈 ♡,mandy.y_,,@urielrojer_,26-10-2020,
569,youmna.hakoun,youmna.hakoun,,@nadabk68,12-11-2020,
570,adamtheog,adamcano4,,what phone is that,26-10-2020,
571,ysabella🃏,ysabellaxz,,@agatha._.lind hii,26-10-2020,
572,Max,user.name.is.not.here,,@l_love_002,12-11-2020,
573,yoan parkour,yoan_hrv,,@alessio_hml,26-10-2020,
574,🐤,ihaveeswag,,"У меня такая же камера и я телефон ни разу не ронял, камеру использовал примерно 4 раза в месяц, и спустя год она сломалась",12-11-2020,
575,Riman,riman.chowdhury,,Imagine the phone case 😂,27-10-2020,
576,Flea Market,topmiusek4,,"@sport_news22
фига себе",26-10-2020,
577,Angel Carrillo,angel_carrillo29,,@estefani.xlbores el de las tres cámaras w,26-10-2020,
578,#ThePrincessClub,monkeykupkakes123,,what freaking iPhone is this,26-10-2020,
579,pilot buttah,buttah43,,@banana2979 phone case designers again 👁👄👁,26-10-2020,
580,اسأل على اسمي,user1341238701396,,لا تقهرني انا شايل هواوي 5😢,30-10-2020,
581,What's-his-face,carl_salami153,,Yes,26-10-2020,
582,Stiven Vargas,stivenvargas3,,"Pero si, grabado con Iphone 😁",11-11-2020,
583,God Beanos,bean0s_69,,me and my dad have same camera like a first phone,26-10-2020,
584,: عطعطے 🤩🤍. ⠀ ⠀,at5l,,مشكله الجلكسي 🌝@a9tl @hemo.bs @ha_fm2,27-10-2020,
585,𝑪𝑶𝑳𝑶𝑵𝑬𝑳,colonel_formal,,الجوال الثاني زي جوالي,30-10-2020,
586,.,glownekontoicekick96,,@kenny_disco czy to ty w aparacie na ostatnim telefonie?,31-10-2020,
587,RealGonkyBoy,xxgonkdroidxx,,These are useless tho. Just have a camera on the front and back like apple.,29-10-2020,
588,Esteban/\Chilel,estebanz89,,Is a nice phone 📱 😳 I saw 👀 $500,26-10-2020,
589,,apple__craxkhead,,I give that a week before it breaks,22-11-2020,
590,Mario,mariobide_248,,El mio hace lo mismo,26-10-2020,
591,JMM,kikc_jm,,@emely5446 wtf I’m gonna break that if I had that😂,22-11-2020,
592,Justin,justin.s53,,the first one was from xioami right?,29-10-2020,
593,CR7 ♕,8ip_7cr,,@am.n07,5-11-2020,
594,Hanna Hernandez,hannav23,,CEO of phone cases 😳ight I’m out,29-10-2020,
595,𝓒𝓪𝓻𝓸𝓵,hi.inday0ishichips109,,me with oppo and had the 2nd camera👁👄👁,27-10-2020,
596,…,goresoaked,,@radwitch,21-11-2020,
597,Emaan,urfavmoslim,,@itsnotraabiahdumbo,26-10-2020,
598,💪John Cena💪,im.john.cena.lol,,I’m John Cena lol!!!!,21-11-2020,
599,Juhász Zoltán,juhaszzoltan0,,@graywool01,31-10-2020,
600,kelli ,kelli.peterson,,we love the masks marques!,27-10-2020,
601,Geoffery,.geoffery,,bruh,26-10-2020,
602,Sifilit,tifilis,,@iraravenwood 😂😂😂😂😂,27-10-2020,
603,Veera,veeraphandian_,,haha,27-10-2020,
604,-_-,mxisrs,,Now that i have an ios i just want to switch to android who with me ➡️➡️➡️,27-10-2020,
605,nitroType,rtsusidjfkifidkdkficifrm,,Nice😁👍,26-10-2020,
606,Christopher Thornton,christhornt0n,,@celestebell7,26-10-2020,
607,Erik_hey,0erikv0,,@la2164,29-10-2020,
608,.,axiaix,,When I was younger I thought of cameras that pop out of phones and now they exist wow 😳,26-10-2020,
609,SD,sdsonoio,,"Carino l'ultimo, si potrebbe usare i soldi per la fotocamera interna e creare una sistema che giri l'esterna così da non avere un buco nello schermo e",26-10-2020,
610,Gavino the Great :),gavino.the.great,,I like the last one but it might be too flimsy rip :(,26-10-2020,
611,☮️🤍,prajwaldarlamimagar20,,""" Believe me iam %$ Prajwal🥰 """,24-11-2020,
612,NWATRUCKIN💰,steadypimpn,,That’s badas$,24-11-2020,
613,Mari,maggie_chi,,@moomoocow3,26-10-2020,
614,Это я,kizel_pel,,Я у которого А 80🗿,31-10-2020,
615,Devin Teer,devinteer,,What is the best phone to purchase in 2020? Especially for someone looking to get involved with AR and VR? LidAr is a must.,26-10-2020,
616,eesham.bhagwandeen,eesham_bruh,,@queennady96,26-10-2020,
617,Uwitonze :},chlnaza,,@aaliyah.wenham m,20-11-2020,
618,Jay,w1spify,,@that.one.hispanic.kid,26-10-2020,
619,⠀ ⠀ ⠀ ⠀ ⠀ ⠀,echofwanime,,ok,23-11-2020,
620,Zar,z.a.r.b.a.r,,No one... My FBI Agent:,29-10-2020,
621,Rick Astley,thesneaky,,Ich hab das auch,29-10-2020,
622,Tonio Ibarra,tonioibarra,,Más cosas que se les pueden descomponer,26-10-2020,
623,SophiePikaEvo,sophiepikaevo,,@manuelrodriguezri89,27-10-2020,
624,James Hopkins,james_hopkins_vo,,@venti_boba_tea,22-11-2020,
625,minwasss,minwas_,,@kwstisss,31-10-2020,
626,iz.hak,ishy911,,Wow,22-11-2020,
627,Ana Ruiz🇸🇻,anaruiz925,,👁👄👁,30-10-2020,
628,Boondoggler Sans,boondogglersans,,i'm sure it will be flawless and never break unlike every other Thing similar to this.,27-10-2020,
629,hani melab,hanimelab7,,الا رسول الله,30-10-2020,
630,Андрей аймхикович:),xekonn.n,,А хуавей пи смарт про 😔😔,26-10-2020,
631,Igor,igornikpopov187,,Агенты фсб фбр цру анб каждое утро,27-10-2020,
632,Tray,mykio_king,,IPhone 200,18-11-2020,
633,🌚♥️Menly🌚♥️,maceu2020,,"У меня был Xiaomi mi 9t pro(это который первый в этом видео) просто бомба,и ты можешь понять когда за тобой следят(камера выдвигается)",26-10-2020,
634,Maxipad💋🙈,chunkmouse,,@athenaburzawa THIS IS SENDINGKE,26-10-2020,
635,"PubgNihBoss😏, EpepBurik🗿",iamgarsolant,,Blackshark 3 nyimak🥴,18-11-2020,
636,el pepe,el_nachosxd,,lo invitamos cordialmente a su sucursal mas cercana a pagar esos dispositivos. gracias,26-10-2020,
637,sakalareswill,sakalareswill,,@thequinshow,26-10-2020,
638,qijrnanfna,_____yopo______,,son Android y graba con un iPhone 😂,26-10-2020,
639,Jefferson Salazar,jefferson2167,,Wait so how does the back look like?,18-11-2020,
640,Straight😈😈,manu3012071,,@tim.xt,30-10-2020,
641,elizabeth <3,_elizabethm_,,@random_todoroki_weeb,26-10-2020,
642,Pictéo&co 📸📹,picteo.co,,et ta iphone qui sort le 12😂,26-10-2020,
643,ellie,notelliottlayman,,@.anniesullivan,17-11-2020,
644,JaketheMuss,jake.the.muss,,@jordanw88,27-10-2020,
645,Rosa,iknow.thepiecesfit,,"@chrisruiz8a I love this sound, I think it was meant for this video xD",29-10-2020,
646,Medine,madina_475,,1- cisi benim ablamdaki,17-11-2020,
647,Octet,satyr959,,@sea_and_sun1,27-10-2020,
648,.,lasisosbaronas,,Fbi agent - fuck,26-10-2020,
649,...zxki,...zxki,,@nikolicbiljana_,26-10-2020,
650,Sara,inspirationsbycamila,,@jonave11,29-10-2020,
651,George,george_oneill13,,They aren’t android this account made the phone😂,27-10-2020,
652,Trung đinh và 98.4K người khác,trung2909.tg,,ai còn camera thò thụt 🤚🤚 team oppo điểm danh,27-10-2020,
653,kelso🚮,malemilf,,"wait that 3rd one is so smart, keep the same quality front and back 😳",26-10-2020,
654,Your momma,smokeymonnn,,@hi.its.jackie.88 dad's phone.,26-10-2020,
655,TizioKaio,tiziokaio_,,Samsung A80,26-10-2020,
656,"꧁༒☬フアンパ☬༒꧂,",creperr_aww_man,,@raulrojas2562,31-10-2020,
657,school acc,iz.wonn,,i have the first one @waterinmybutthole @saikikusuos_s.o,19-11-2020,
658,bitch,whatgood18,,yo look at the mirror 😂,24-11-2020,
659,you forgot yo apple,idkkk549999,,coooool😁,19-11-2020,
660,"Battleship's Gaming,",th4t.0ne.k1d,,what phone is it,27-10-2020,
661,𝓛𝓘𝓛 𝓝𝓞,pgrepzyt,,"Phone case companies: ""IGHT IMA HEAD OUT😒➡️🗿""",27-10-2020,
662,empty,bbac0nz_,,I only have the first one 🥶💀,19-11-2020,
663,Gustavo Guedes,gustavoguedes215,,@milenaalvesguedes,27-10-2020,
664,P,pey._.pey4,,Why do people argue over phones,27-10-2020,
665,Doughnut,dough_nut,,Its cool but it would break easily,26-10-2020,
666,Swarm,swarmy_warmy,,hOw dOo yOu cOmE uP witH thEsE idEas,18-11-2020,
667,شخص ما,brr022,,وش اسم الجوال الاخير,26-10-2020,
668,hil_mimi,happy_clowns777,,mine is the second one😁,27-10-2020,
669,G⠀w⠀u⠀c⠀a⠀t,gwucat,,nah iPhone will have that in 70 years when they realize they forgot to copy android,26-10-2020,
670,8oogabooga,ahhsjdndnfnfj,,@bily_big_stick @poopdog69,27-10-2020,
671,Jesus Perez,jesusperez8379,,@yanixanmeza00,26-10-2020,
672,Micheal Otieno,michealotieno,,huawei😳😏😌😁,27-10-2020,
673,Pete,ptrwg_,,@ming.mp4,26-10-2020,
674,Wesley Noordeloos,wesjuh,,I have the first one. I hate the second. Which is the third one?,26-10-2020,
675,StaleMovesMcGee,stalemovesmcgee,,"Ok, but the one that flips the rear cameras to the front 🔥",26-10-2020,
676,Andres Cordero,andrescordero1,,@felipe._665,27-10-2020,
677,arjun ✅,arjung3000,,Only on an android phone does this happen,26-10-2020,
678,FBI Agent,rockinham,,The FBI agent has many cameras to go to 😂,26-10-2020,
679,Ricardo Lamas,ricardo_lamas,,The ultimate creep phone,26-10-2020,
680,chupapi,chuuuppaaappiii,,What's the 2nd Phone Name And Model,26-10-2020,
681,𝐴𝐺𝐻𝐼𝐴𝐷,optonka,,No not cute as miata 😂,26-10-2020,
682,No,shefwzay___,,😂😂😂😂@jennileemoore89 @emmamoore71 @,27-10-2020,
683,Munzo,munzoo__,,I have one of Those its an Honor P Smart Pro,26-10-2020,
684,Kcm,eevrek,,Who else hates the notch on the iPhones?😭,26-10-2020,
685,ok,limes4321,,@dracoswifey004,26-10-2020,
686,YuhBetch🇰🇪🇳🇱🧑🏽‍🦱,quandale_dingle8888,,yeah samusung is bad. yeah🙄 sorry i cant spell,26-10-2020,
687,Ori,kiibored,,ngl samsung is doing better than apple rn,26-10-2020,
688,heres_butler,heresbutler,,Ah good ol oppo reno,26-10-2020,
689,Lucy Bartlett,lucy.art_world,,I have the one plus 7t pro,27-10-2020,
690,Memestrada,memestrada_official,,Yall see that front camera quality THAT SHIIZZ CLEAR,26-10-2020,
691,My dogs!,mydogsandtiktok,,Why is this weirdly funny! 😂😂😂,26-10-2020,
692,Jackson./hicks,jackson._hicks,,Bruh in public you see that camera flick up it’s gonna be awkward af,27-10-2020,
693,👑,kn1025,,I’m confused,26-10-2020,
694,LJ,.username.account,,How do you even put a case on it??,26-10-2020,
695,Aceu,fers_cool_acc,,@boku_no_pico55505 @memegod448 @jreezyisop this makes me want to switch,26-10-2020,
696,danik_luchshi,danik_220,,что за трубка,26-10-2020,
697,.,yd1uzumaki,,Xiaomi is the best,28-10-2020,
698,Shasheeeesh,kubu_11,,TF has this world come to LMFAO,28-10-2020,
699,𝚖𝚊𝚢𝚊𝚊 <𝟹,nottell1ingu,,Apple could never,28-10-2020,
700,Cody Cotterman,codycotterman,,@thatorangev90,26-10-2020,
701,Abe Steffen,abe.steffen7,,fučk androids,26-10-2020,
702,Ian,._tomy._,,@angel.sanchez27 @kosoku,26-10-2020,
703,Nobodyknows,westaysturdy,,wow,26-10-2020,
704,Matua,matuasalas,,I’ve never been so early to an MKBHD video in my life 😳,26-10-2020,
705,Sean Dowling,fr33rid3r33,,"This video made my morning, I think it's time to get off of TicTok and be productive!",26-10-2020,
706,Roro,le_roro_bunneh,,“W-why did you pull out st-step bro?0” 🥵🥵,28-10-2020,
707,Had the whole squad laughing,hadthewholesquadlaughin0,,Samsung is actually better than iPhone but a lot of ppl like iPhone bec of the setup if u did not know without Samsung iPhone would never been a thing,26-10-2020,
708,H̸A̸N̸S̸,ghosthansm,,Please I don’t want a phone war in here so let’s all just enjoy how cool this feature is,26-10-2020,
709,Siimp,siimplicitii,,People that are just discovering MKBHD have missed YEARS of the best content on YouTube.,26-10-2020,
710,Random,some.guy.u.dont.no,,my camera makes a sound when it pops up. I have the one plus 7 pro 😂 and it just goes ✨brbrrrrrr✨,26-10-2020,
711,SSR Casper,ssr__casper,,ยี่ห้ออะไรเหรอครับแล้วราคากี่บาทครับ,28-10-2020,
712,Isaac Wrld,isaac_wrld,,May I please get the iPhone 12,26-10-2020,
713,Brian,yourprinterguy,,I always wonder what you do with your excess tech. You can’t use dozens of phones at the same time 😂,26-10-2020,
714,poot,p_o_o_t_,,What phone is this,26-10-2020,
715,matt Holliday,mattholliday,,7 pro gang,26-10-2020,
716,drollins928,desmondrollins,,What phone is that,26-10-2020,
717,Bahaa :),bahaaa_1,,shot with an eye,26-10-2020,
718,Bachelorfrog,bachelorfrog,,coming to the iphoney 32,27-10-2020,
719,Sadik,sadik.ahm,,"Slide to the right, slide to the left, cha cha real smooth.",26-10-2020,
720,Koala Studios,irohsart,,what phone is that,26-10-2020,
721,kyle,kylef3,,Lol,26-10-2020,
722,cam,cameron...taylor,,@sophie...mcclam,27-10-2020,
723,Dr. Satan,hoarsecorck,,Give me the $2K Samsung phone 😏😏,26-10-2020,
724,Jeremiah Robinson,jeremiahrobinson48,,And people say androids are trash (iPhone user btw),26-10-2020,
725,Soul,soulmagik,,I love this 😁,26-10-2020,
726,Linguinisauce,linguinisauce,,"If the phone does it by itself you know the FBI,government or hacker is watching you 😂😳😬",26-10-2020,
727,lily,lily.attaway,,@hippiebtch,27-10-2020,
728,🫣What’s up🫠,deadofwrite_ej,,Switching back to android I see,27-10-2020,
729,diehard bimmer stan,bronsolosurfavplayer.org,,casually flexes iPhone 12s in the back,26-10-2020,
730,Seraphim.,seraphim47,,What the hell,26-10-2020,
731,✨Anime✨,animekachow,,Yo This is why im team Android,26-10-2020,
732,『yuichi』,blk_scorpionzz,,what phone is that,26-10-2020,
733,Michael Salvador,salvac_,,@beautywithdeb Ugh I’m so geeky that I love tech humor.,26-10-2020,
734,matthew.fulbrite,matthew_fulbrite,,"You should review any games you've recently played.
""So I've been playing Boku No Pico for 2 weeks...""",26-10-2020,
735,DAHYUNS GF ❤️❤️❤️,aeflores17,,@peppapink19 😂,27-10-2020,
736,allseason231,allseason231,,The first one is so cute🙈❤,26-10-2020,
737,🙏🏾🙏🏾🙏🏾yuhh,yothxtscrxzy,,What’s the point,26-10-2020,
738,Victor Silva,vicsilsan,,Not going to lie this makes me feel more safe because I am always cared people are watching me while I am doing something 😳,26-10-2020,
739,Silent Urbex,silenturbex,,@jasminlyon7,28-10-2020,
740,ON野菜ヤ人,onyasaiyajin,,これはぜひ開発して頂きたい,28-10-2020,
741,︎︎︎ ︎ ︎︎,blitzeryds,,j'ai l e 1 bg,27-10-2020,
742,Pr0cess,officialpr0cess,,The good morning one sent me to outer space,26-10-2020,
743,Justin,justinvil,,so basically android users can’t put a case on their phones? 😂,26-10-2020,
744,Sep,sezepmm,,@emmaharbi,26-10-2020,
745,Ibo,iba1905,,@iremxgnd06,26-10-2020,
746,Aidan,shootyscooty,,first one was the OnePlus 7 Pro that's the phone I have now love it!!!,26-10-2020,
747,Alpha,alpha_aspect456,,WHAT PHONE IS THIS,26-10-2020,
748,frnk,frnk.13,,@janiemendozaa,28-10-2020,
749,wan,wann._._,,"when you relised that,the second phone,that's the phone i'm using now😳",28-10-2020,
750,semisi Taufa,monkey_piss86,,Wow so unnecessary 😶,28-10-2020,
751,Andrew Yang | Humanity & Math,humanitymath,,One plus is the best,28-10-2020,
752,Jboynes07,jay_wavyy_21,,Broooo I saw u in math after u we’re trying to help my mom pay for my bag for school ur awesome man 🤯🤩,28-10-2020,
753,Aleksandra,_ba4tk0wiak,,@wiktoriaprzeorek,8-1-2021,
754,TJ,concreteboyy,,what was that last phone,28-10-2020,
755,🎀💖🌸🍨💗,pinkolishus,,why cant there be only 2 phones then we dont have to be overwhelmed by getting the new phone every time and phones probaly would not be such a big thi,27-10-2020,
756,🚔ØFFIŒR👮‍♂️,oneplvs,,Samsung aka android will always be the best 😁 for me atleast others have different opinion,26-10-2020,
757,julius,julius.knr,,@nathalie.pfr24 😂,10-1-2021,
758,Minion2408,minion2408_spam,,the first one was the oneplus 7t the second one was a phone from oppo😁,27-10-2020,
759,Axel Bright,axel_bright,,@andreszavalab,7-1-2021,
760,MJ🖤🥶😈,rhetor1ca1,,ℂ𝕠𝕦𝕝𝕕 𝕪𝕠𝕦 𝕘𝕦𝕪𝕤 𝕘𝕚𝕧𝕖 𝕞𝕖 𝕒𝕟 𝕙𝕠𝕟𝕖𝕤𝕥 𝕠𝕡𝕚𝕟𝕚𝕠𝕟 𝕠𝕟 𝕞𝕪 𝕤𝕠𝕟𝕘 𝔹𝕚𝕘 𝔽𝕦𝕟𝕕𝕤 (𝕣𝕖𝕔𝕖𝕟𝕥).,27-10-2020,
761,ジョン ༒︎,johnisss_,,Huawei,26-10-2020,
762,Queeny Martinez^_^,queenyapostle,,i have the first one😂😂😂,28-10-2020,
763,( ͡° ͜ʖ ͡°),lena.ozimek,,@szymanskaanna,7-1-2021,
764,Hi,notomhssecretaccount,,@jenkinsf34 look at how cool these are,26-10-2020,
765,Alpha Noogiepuss,macadamia.butt,,Phone cases lookin at these phones like 👀👀,26-10-2020,
766,Kenan,kenan..303,,I have the 2😎,27-10-2020,
767,Mina,mina.zaky,,Imagine if Android and Apple made a collab where Android uses its bomb phone designs and Apple lets them use IOS,26-10-2020,
768,theronjohn21,theronjohn21,,Back camera is a good idea,26-10-2020,
769,Иванов 🥱,danny.maximoff,,BUT RECORDING WITH THE OG IPHONE 🤷🏻‍♂️🤷🏻‍♂️🤷🏻‍♂️🤷🏻‍♂️🤷🏻‍♂️🤷🏻‍♂️🤷🏻‍♂️what does that mean,27-10-2020,
770,Brady Jordan,rbradyjordan,,Good morning Kanye,26-10-2020,
771,₵₳ⱤⱠɎ฿Ɇ₳Ɽ,winchesterfamily67,,@x0palx,28-10-2020,
772,josé 🌙,avocadoy20,,I'm loving these videos man hahaha keep going,26-10-2020,
773,Darren Barnard,darrencbarnard,,🤣🤣🤣,26-10-2020,
774,Bailyn Anderson,bailynanderson,,✨🌌🌠,27-10-2020,
775,Andrew Shih,therealshihan,,Phone case designers: 😭😭,26-10-2020,
776,Damon is mine😛😉😜,lizzy_queen2,,Hi😁I🙃like🤩cookies😋wsp😗with🧐that🙁cookie😔wsp😡wsp😍with😇that🥰cookie😭,27-10-2020,
777,Yess Veyron,yessveyron,,@danonino14_,26-12-2020,
778,TikTok User,tiktokuser4891974682,,iPhone is way better than Android,26-10-2020,
779,Daniele,danielecantcook,,watch apple do this in a couple years,27-10-2020,
780,alien,nassredi_n,,@belaidbijo24,23-1-2021,
781,Dawud Farooqui,doodie_77,,yo what phone is THAT,27-10-2020,
782,.,akulaotaku_alv,,@chapiagarcia.0 es como tu otro teléfono,27-10-2020,
783,Je,elmo_isamaterialgworl,,Lmaoo poor dude who has to make the phone case,27-10-2020,
784,Minor repair,min_01823,,iphone 12 notch : How are you?,27-10-2020,
785,Tommy Lein,tommymixesitup,,this is good 😂 i love that your on tiktok it definitely has helped my business grow even at 8k followers 👍,26-10-2020,
786,CongaBeat,everybodyconga,,"well, thats called privacy!!! if instagram records you, you would've known, because the camera pops up! its actually brilliant anti hack idea!!RIP SPY",26-10-2020,
787,nick_hlrs,nick_hlrs,,@marialena_pp3,28-12-2020,
788,Cristiano Ronaldo ☑️,wndaniiss,,part last is that a Davies...😅,28-10-2020,
789,yeah,im_just_a_whxore,,FBI agents: 😿😿😿😿😿😿😿,26-10-2020,
790,Monica Licea,monicalicea7,,I have the first OnePlus 7 pro and I love it! no glitches and runs so fast!,28-10-2020,
791,zeck abdullah 🇲🇾,zeckabdullah,,#BoycottFrenchProducts,27-10-2020,
792,PS+,_elcolo_,,mi 9t pro🤩,26-10-2020,
793,@KalebDoman,dubprince304,,@samanthadoman,27-10-2020,
794,Jwill81105,jdubilliam,,I’m sorry but imagine you out in public and you on sc and try to take a picture you know how weird that looks. There’s just a little stuck hanging out,26-10-2020,
795,Fortnite king,hb_plays_,,my frend have 1 pofone in this vid😏,26-10-2020,
796,Max,max012307,,@ellaroberts70,28-10-2020,
797,For real,__fr__,,Now if a pedo has that phone we finna catch em so no more Gemini,26-10-2020,
798,Josue,juggin.j,,yall ait getting these new androids cuz yall friends and other people gonna make fun of you for having it 💀,28-10-2020,
799,Kakashi,aminajackson012,,Chip.de von amerika,26-10-2020,
800,youssef,youssefbawab1,,@christianebwb,18-1-2021,
801,مْـــــحـــــمـــــدْ 🦅🇮🇶,lln5t,,جماعة الايفون ⬅️⬅️⬅️,18-1-2021,
802,Lucero,adamovenus,,@ww.nao el ultimo telefono👀,26-10-2020,
803,Hiii,gloomy.child0,,Look at the quality 😌👌🏾,27-10-2020,
804,Kilroy,jz_17_,,Say goodbye to having a case 😳,27-10-2020,
805,Gabriel Koury,kooury1,,@karinaaraujo321,26-10-2020,
806,"loki, wanda and doctor strange",loki.wanda.doctorstrange,,where do these ideas come from tho??,26-10-2020,
807,Jonathan:v,jonathan....0121,,Lol,26-10-2020,
808,Louis,acer1790,,"Quick question, where do you come up with these ideas? Thanks",26-10-2020,
809,Mithras,son_of_baldur,,good morning lol😂🤣,26-10-2020,
810,🐧,mvhs_scioly,,Early,26-10-2020,
811,h,waltethecreator,,h,26-10-2020,
812,🫤🩸,payomoraleta,,Eee soy él primero en comentar,26-10-2020,
813,itz_hilarious,itz_hilarious,,Woah technology at another level,26-10-2020,
814,برعلي 🧸,os_ali02,,الجوال الاخير وش نوعه ؟؟؟,26-10-2020,
815,.,ksrh.99,,يصور هوواي وجواله ايفون 11😂,27-10-2020,
816,Heber,heberwebb,,Hey,26-10-2020,
817,Angel,angeltoons_official,,Let me guess recorded on iPhone 12?,28-10-2020,
818,فهد,5_7ha,,ها يعيال ننقل؟,26-10-2020,
819,Kim heno💚,haneenhassan144,,الأول زي تبعي,27-10-2020,
820,Traffic light racer,sosleepy187,,I miss seeing your bedroom reviews,26-10-2020,
821,renekopecky,texassuperman,,Here befor this goes viral at 506 likes... don’t forget about me...,26-10-2020,
822,ᗰᗩᗰᗩ ᗩᒪI,jssryhyg,,@casanovabenjov,27-10-2020,
823,David,gucci_supreme_kim,,@lolaa09093,26-10-2020,
824,Emilio Ornelas,emiliomakesmusic,,ill stick to my blue messages lol,27-10-2020,
825,Celloooo,lilsingaboi,,Good morning lads!,26-10-2020,
826,Nani,nanimanfr,,Ayo what phone is this 😳,26-10-2020,
827,OK,francespeaksfrench,,I see that Corsair chair in the background,26-10-2020,
828,Noah,b1gdaddyduffy,,@inacrowd,28-10-2020,
829,OK,francespeaksfrench,,Ooh is that the new HomePod mini I see in the background?,26-10-2020,
830,Sloomxd,codm_209,,زيي أنا y9s,26-10-2020,
831,💖DRUM💕,drummagical,,@gumballgregory,26-10-2020,
832,Me?,cheezit2o,,Hiiii,26-10-2020,
833,Teo Ivancevic,teo.ivancevic,,Bro your videos really make my day 😁,27-10-2020,
834,Daniel Rodriguez,danielrodriguezzez,,boy I’m first comment gimme something,26-10-2020,
835,justin,flx.ig,,woah,26-10-2020,
836,Moises Garcia,moisesgarcia504,,Hi,26-10-2020,
837,💋 ❤ 💋,m_gemza_,,@gorniak___,30-11-2020,
838,Nach,_nacch,,😂😂😂 keep up the good work g,26-10-2020,
839,Lucas,lucas.woop,,ok but does that really matter when it sends all your information to the chinese government? wait.... that's already happening with tik tok lol,26-10-2020,
840,Sunny,.sungwonn,,"Love it, Keith",26-10-2020,
841,Justinliao,justin.liao.7712,,"@OnePlus 7 Pro,oppo reno4,zenfone7pro",27-10-2020,
842,rochi 09,_rocio_028,,@rocioperello07 @chachasuwuwu,1-12-2020,
843,Vinny Chu,vinny_chu66,,Morning,26-10-2020,
844,Kyaw Min,kyawmin_39,,Thoughts on the IPhone 12?,26-10-2020,
845,A savage,uglysxvv,,How h get all this stuff bro tell us immediately,28-10-2020,
846,eysu ❛ ᴗ ❛,dxndxnxcxx,,@_danace,19-1-2022,
847,Ryan James,ryanjames453,,People say androids are bad but there fun and cool phones😁,26-10-2020,
848,chris 🪬,brownricehaven,,1 min gang,26-10-2020,
849,mingming_yaoching172,mingming_yaoching,,Early,26-10-2020,
850,Hi,somewhatfunnyperson0,,You really made this video just to flex your iPhone 12 on us 😔,26-10-2020,
851,atif sa'Aadat,saadat1202,,😻😻😻,29-10-2020,
852,Jason Sanders,sandersjason0,,Nice,26-10-2020,
853,Sondos Yousef,2x.ur_,,@ayayousef05,26-10-2020,
854,516catmanblocks ‼️,cameronblohm,,@btb.alvarado,26-10-2020,
855,Taj hans,tedthedude27,,This fits perfectly,26-10-2020,
856,𝖘𝖍𝖊𝖊𝖘𝖍,skfjas,,that second one tho😳😂,26-10-2020,
857,Man City 🌃,mcfc.editzz,,Hey,26-10-2020,
858,⏯,exobori,,Apple 🍎 Vs 30 different brands,28-10-2020,
859,🍄,exodoomturbo,,Apple 🍎 vs 30 different brands,28-10-2020,
860,︎︎,yourz4l,,This is what I needed in life😁,26-10-2020,
861,𝕊𝕥𝕖𝕒𝕝𝕥𝕙𝕤𝕙𝕒𝕣𝕜𝟙𝟞𝟠,stealthshark168,,What phone is that??,28-10-2020,
862,I’m a O̷l̷d̷e̷r̷ s̷i̷s̷t̷e̷r̷,error_sans24,,@sanstheskeleton824 sans checking on Lindsey XD🤣🤣😂😂,28-10-2020,
863,Queengirlygamer,girlygamer1341,,Cool 😁,28-10-2020,
864,SQ_2004,sq00004,,@malak_qaddumi @nadaqaddumi,11-12-2020,
865,idk,menzi1242,,what's the last phone,26-10-2020,
866,Be wise with decisions,all_islam.x,,@wardaally7,11-12-2020,
867,ㅇ?,seam45,,ㅇ?,27-10-2020,
868,Cjn,theginganinja2,,Wtf,26-10-2020,
869,kolokoy,listenlooknlistennlearn,,hows about u give us a cinematic vlog of ur frisbee skills mate,26-10-2020,
870,煉獄 杏寿郎,vincent.glck,,@valentin_emilian,27-10-2020,
871,Bobert,bobertgarzaa,,It’s all fun and games until the camera turns on a little light from the cams😳,26-10-2020,
872,Captain amorito,capitain_amorito,,OOOPPPPPPOOOOOO,26-10-2020,
873,ballllls,ffrissky,,that’s so tacky,26-10-2020,
874,John Alvarez,thejohnalvarez,,Hahahahaha,26-10-2020,
875,Baeleigh,baeleighrae,,Y’all wait a minute. Isn’t this an iPhone tho? Look at the background AND the sides of the phones. Only iPhones have those lines and design 👁👄👁,27-10-2020,
876,vika,vikititita,,case?,27-10-2020,
877,119.180.169.19,idkwhattowritehere0909,,what phone,27-10-2020,
878,✨Sundrop✨,def.not.peypey,,@emmy0__0 😂,27-10-2020,
879,Juju,0101000001010000pp,,It’s all fine until u drop it while it’s open 😳,26-10-2020,
880,Anahi || 3.1k,accioanahi,,What gets me mad is that i phone users compare an iphone 12 to a Android from like 2017💀🤚,27-10-2020,
881,Kaden,wetbread11,,dude I am a big fan of you video,26-10-2020,
882,Tiffee,inacrowd,,😂😂,27-10-2020,
883,;,0.sasori.0,,primul telefon îl are si prietenul meu,31-10-2020,
884,.....,chucutun123,,Vean mi ultimo video 😳👍,31-10-2020,
885,Brandon Pafford,bpafford84,,This is awesome!,27-10-2020,
886,✨shit content✨,yunaisnotperfect,,@lea_istperfekt aww,30-10-2020,
887,my life is my life.,mtblife_dreamlife,,i have 1,30-10-2020,
888,I will make a basement now,cjbasketball22,,That’s the iphone 12😳,28-10-2020,
889,_.solco._,_.solco._,,@_.alexandrusa._,30-10-2020,
890,Konstantinos,konstan1199,,@https_nini 🥰🥰🥰,31-10-2020,
891,Ok,griisyx,,Uh-,27-10-2020,
892,ZZZ😴,swzr1,,what phone is that,28-10-2020,
893,Antonio,antonio.f15,,I HAVA HUAWEI P SMART Z,31-10-2020,
894,omar,o.zepeda760,,i have the first one😏,28-10-2020,
895,Joker,cu0.5,,and a 80,31-10-2020,
896,Tiktok is kind of stoopid,stillgumba02,,Hoi!!!!,28-10-2020,
897,Romeo,romeofloresmontan,,I this the 12,28-10-2020,
898,♡Ty,geekyalexx,,What do you like better? iOS or Samsung,28-10-2020,
899,Azrael Mangers,cheo1_._,,i have the first one i actuall like it,28-10-2020,
900,Thekingisjowell,kingjowell.nyc1,,Where did it come from,28-10-2020,
901,Courtland McAdams,courtland_mcadams,,"Y’all say android is better but riddle me this, what about the phone case",28-10-2020,
902,Tjo följer tbx,lenclanen,,：VARNING TILL ALLA SVENSKAR VI SKA TA ÖVER TIKTOK COPY & PASTE OCH KOMMENTERA DETTA PÅ ALLA VIDEOS DU SER 🇸🇪🇸🇪💪💪👑,30-10-2020,
903,HJ,birren0,,@urqgfm,31-10-2020,
904,isaiah,augustthings,,@megdivinegrace,31-10-2020,
905,MOÑO,3stoytriste,,Yo tengo el primero 😂😂,30-10-2020,
906,Gary Traynor,garytraynor36,,damn oooooo,28-10-2020,
907,Cd.Arseni,cd.arseni,,They are all samsungs.,30-10-2020,
908,Ilija civcic,ilijacivcic_98,,Model all please?,30-10-2020,
909,Enes,enes.hooper,,Vivo,30-10-2020,
910,Ernest Marcial,yrhghnssrnst,,zenfone 7 😍😍😍,31-10-2020,
911,dog,po0hsh1esty,,I have the second one,31-10-2020,
912,user8655372048846,private_barney_style,,Android = superior hardware 🍎 = superior software and marketing,27-10-2020,
913,Mrs. Weaver,the_wife_of_this_pfp,,My cousin has the first one and she got it from China,28-10-2020,
914,Ok Ok,itsfine132,,thats a dumb idea for a camera,30-10-2020,
915,🗿,milkyjash,,both phones are good you don't need to compare them Android have things iOS don't and iOS have things androids don't have,28-10-2020,
916,Jimbo nuetron,dareslmastayoda,,I own the first one 😂,28-10-2020,
917,푸르르르른,baekojing,,뭐지...두번째 카메라 왜 불편하지...,28-10-2020,
918,Albinobama,itsalbinoobama,,"the only thing I wish my android had was an iPhone camera, its hard to beat those. and I have the S20",27-10-2020,
919,Michael,mcstuffyourmom,,But he’s still filming on an iPhone 💀,28-10-2020,
920,user4203929482,smotosmacka,,Samsung on top,27-10-2020,
921,Trenton Douglass,trentdouglass1,,onne spill and ur done,27-10-2020,
922,Peaky_stop0,peaky_stop0,,Moy phone honor 9x premium,31-10-2020,
923,Ну тип,mmmyyyyrrrrrr,,У меня 1 телефон,30-10-2020,
924,Wiam🐺,wiam.kemal,,Phone name?,31-10-2020,
925,JJ,yungnj,,I like the second one,28-10-2020,
926,user1758304866142,brady_christensen69,,i have the 1+7pro mclaren edition what are your thoughts,30-10-2020,
927,Official_930,thaddeus930,,"I like how I have the first phone , one plus 7 pro😎😆😅😂",1-11-2020,
928,M1CH4EL,mikael.yang,,"iphone 2 years later ... THIS IS THE NEWEST AND MOST ADVANCED INNOVATION ON ALL SMARTPHONE
android👁👄👁",30-10-2020,
929,Hi 🎶,danafero1,,@reneeferroo,30-10-2020,
930,Чел,acax_pyc,,У меня тоже выдвижная камера,31-10-2020,
931,Beatrizz 🌧,francesinhaa,,O maninho lá: 👁👄👁,1-11-2020,
932,TK,appleninja23,,I just came to the comments to see which phone was the second one. y'all really still having an apple v android argument?,28-10-2020,
933,Edgar Gonzalez,edgargonzalez06,,the first Is a one plus 7 pro i have one very como,28-10-2020,
934,bichevich,bichevich9,,"последний топ, впервые такое вижу",30-10-2020,
935,Tyhia.a,whotyhia,,bye bye iPhone,27-10-2020,
936,Кенди🫠,kot_kendy,,"ФСБ :так, теперь это будет палевлно",30-10-2020,
937,28Krystal56.👑🦄🤍💖💙🦄👑,28krystal56,,Are they iphones and or androids that's sooo cool how they do that,30-10-2020,
938,TR7MCI,tr7mci,,الثاني فخم,30-10-2020,
939,Oscar Gordon,flipfn,,@cgorneda5 for all y'alls pics,28-10-2020,
940,enrique omg☑️,enriqueag28,,El primero es el que tengo yo,1-11-2020,
941,hailey,_h4ileyy,,@ella_ella_bobella111,27-10-2020,
942,NEXAR,n7r_22,,انا جوالي الثاني وتعالو شوفو تصويري بالانستا,30-10-2020,
943,Abram,abbraaaaam,,u can use it as a beer opener,28-10-2020,
944,alyssium,fricken.bats,,y'all flexing on us with some tiny little add ons that don't really improve much...? it just looks fancier,31-10-2020,
945,Abylaikhan,abon_090104,,У меня тоже хай 😂😂,30-10-2020,
946,why,imwockie,,Why is everyone arguing about phones like literally nobody cares let the company’s do what they want to do if u don’t like the phone then don’t buy it,28-10-2020,
947,Ezra Farsya Fakhriza,ezrafarsya,,ASUS ZENFONE 7 PRO NI,30-10-2020,
948,Your American Boy,uramericanboi,,it's cool but you couldn't put a case on it.,27-10-2020,
949,Shrimp,shrimp_wita_limp,,Watching this has been the best moment of my 2020,1-11-2020,
950,Evan,evan_boland,,Phone cases will not exist if phones are being made like this,31-10-2020,
951,Orlando,orlando_r14,,Phone case makers: yea....I’m finna head out 😑,27-10-2020,
952,☺︎︎,.omarr.0,,@fortnitearabic,31-10-2020,
953,Ricardo Lopes,rickylopes91,,Now smartphones have pop-up headlights,30-10-2020,
954,Nnwnffnfnfl Lflflflf,nnwnffnfnfllflflflflff,,are those motorola cause my aunt has the second one 🤔🤔🤔🤔🤔🤔🤔,1-11-2020,
955,vein,veingreckiy,,Заметь чувак в маске😂,30-10-2020,
956,Sebix 3330,sebix_3330,,O to za tele(,30-10-2020,
957,j2t6b,j2t6b,,Is it not common knowledge that Android is the more popular of the two? Its just more people our age talk about iPhone,28-10-2020,
958,☬⋆ТᎻᎬ༒ᏦᎥᏁᏳ⋆☬,yahya.king01,,telefonlarin adini bilen yaza bilir mi,31-10-2020,
959,King Alooshy 🤴,king_alooshy,,@yoboyamr,31-10-2020,
960,Mario Deleon,mariodeleon36,,how do u make that u could be rich,28-10-2020,
961,Luis Santana,luissouzapll,,o segundo celular é qual ?,30-10-2020,
962,user2137463829265,cristopher711,,If u put the first camera that poped up on a phone I would buy it 👌🏾🗣💯,28-10-2020,
963,zayed king,zayedpubgking,,what is the second phone,30-10-2020,
964,Demisaur / noeneon,noeneonmusic,,the fuck is the last one,28-10-2020,
965,_catstacks,_catstacks,,😂😂😂,28-10-2020,
966,Nick Nelson,nicknelson187,,My friend has the first phone,28-10-2020,
967,davor,stojanovski05,,samsung A80,30-10-2020,
968,Herry Xu Jr,herryxujr,,Thiz video has been recorded by iPhone 🥰,28-10-2020,
969,Denilson,dennylol210,,where is the A80?,28-10-2020,
970,Maxwell,caponenez,,lmao omg,31-10-2020,
971,Essam Ibrahim,essamibrahim7,,@zaynhajaj,31-10-2020,
972,Jacob Hurst,mrs.stifler,,Phone cases has left chat,27-10-2020,
973,Alessandro,acerions08,,the samsung a80?,31-10-2020,
974,user,user396425096,,@lumia.me 😂😂😂😂,31-10-2020,
975,Rosé,chillspades,,awe thats cute,28-10-2020,
976,Was machst du hier?,n0theree,,@pelingaming,31-10-2020,
977,Robert Judge,robertjudge7,,@seth1731,31-10-2020,
978,Stefan,therealstefanlofven,,One plus 😍,27-10-2020,
979,RęptīłėžRÇÙTË,reptilezrcute,,"iPhone been greedy and not being what Steve Jobs did in innovating, Android got to innovating.",27-10-2020,
980,🤍,.blondeistablondein,,@jasminonjaatelo miks repesin tälle😂😂😂,1-11-2020,
981,‼️your friend‼️,just_crysii,,@hey1_0 @theodora.d11,27-10-2020,
982,Kelvin Mark,kelvinmark9450,,Names of phones please,30-10-2020,
983,Clarenec,needafriendpokemongo,,HUAWEI P SMART Z,1-11-2020,
984,gg jaybird sauce,sheeshm7m7,,Is that a homepod mini?,30-10-2020,
985,69,_user_69____,,What is the name of the last phone,30-10-2020,
986,Trevorpetersen,trevorpetersen12,,what phone is this,27-10-2020,
987,Devan Rome,thebrainpal,,What phone is this?,27-10-2020,
988,Chandler Adams,okc_chillin,,I have the 1st one it's called the OnePlus 7 Pro,27-10-2020,
989,ortizJM,jovannielysortiz,,@yarizbethpaganvaz,30-10-2020,
990,𝐕Ξ𝐍♀𝐌☹︎ ☻︎♡︎,gojo_je,,my phone is like the first one its a pop up camera😂,31-10-2020,
991,Angelina,ang_elina01,,1 вариант уменя такая камера,31-10-2020,
992,JuanEc_Yt,juanec_yt,,El primero es el S9,31-10-2020,
993,mohamadedelby2007,mohamadedelby1,,@mahmouddoughan8,30-10-2020,
994,I like chees,bryanbigcheesh,,@dinonugget._.brittany bruh did they really make a phone like this is kinda cool so then the fbi won’t spy on you if you get what I mean,31-10-2020,
995,Twinky,cody5522,,“Oh is that a log in ur pocket or are you happy to see....oh that’s ur camera...😒”,27-10-2020,
996,Rendi Hermawan,relocations11,,but you still record with the iphone,31-10-2020,
997,Carlos Goodger,carlosgoodger,,They would break off really easy,31-10-2020,
998,singh satnam,givimiani87,,What phone is that,31-10-2020,
999,mario.sherf,mario.sherf,,@wt_itachi magnifique le Samsung en dernier 😳😳,31-10-2020,
1000,Chandler Adams,okc_chillin,,I have the 1st one😂,27-10-2020,
1001,dghhhfddhh,laura.makayla4liferr,,@dc_anjuna,27-10-2020,
1002,______________________________,anngannguujunnguaq,,Huawei p smart z?,30-10-2020,
1003,🪵📺🤎,denverheathcott0,,That just even dummer then iPhone 12,27-10-2020,
1004,Nor Al Sulaiman,noralsulaiman8,,🥺🥺 وتدمر الايفون,30-10-2020,
1005,Dyzio,.dyzio_,,Ej 3 to jaki?,30-10-2020,
1006,Owen Doss,odoss32,,@taylor02345 idk why but they’re adorable-,27-10-2020,
1007,that's_my_puppy_dog,kamtheman7395,,what phone is this,31-10-2020,
