,Comment Number (ID),Nickname,User @,Comment Text,Time,Likes
1,Danny,dannyis2valid,,sheeesh the macbook pro is wearing airpods🥶🥶🥶🥶,2-3-2021,
2,Fardin Ahmed,fardin7ahmed,,That MacBook Pro is fully ICED 🥶🥶❄️❄️🧊🧊,2-3-2021,
3,TheWeekndIsTheGoat,abelsknd,,Introducing the ice Mac Pro 🥶,3-3-2021,
4,pau_vendreell,pau_vendreell,,Apple rn: Oh that's cool... let's make them pay 200 more for that feature,2-3-2021,
5,Marshmello Chewy,marshmellochewy,,is it normal if it smoke's cause mine does,2-3-2021,
6,CJ,cj_2027,,I can turn my laptop off with my AirPods Pro case,2-3-2021,
7,ëtërnäl,tbm_eternal,,instructions unclear. how do i obtain an apple watch and a macbook?,2-3-2021,
8,Sam Johnston,samjohnston215,,what will Apple think of next?,2-3-2021,
9,Keletso,itss_keletso,,Love you MKBHD❤,2-3-2021,
10,kevin,kevin._.mahoney,,@partyshirt chain,3-3-2021,
11,Troy G,tgregoire07,,What about the mag safe,2-3-2021,
12,Flourish Planner,flourishplanner,,Hahah I love this😂🙌,2-3-2021,
13,🎞️,naracione,,hi markass,2-3-2021,
14,Gladwinjoseph,gladwinjoseph07,,I saw you on top gear,3-3-2021,
15,Stefan Warecka,techmagnet,,Why I never knew this 😂,3-3-2021,
16,Alexander Overwrite,alexanderoverwrite,,@partyshirt Pls try this out,2-3-2021,
17,Zac Stracener,zac.stracener,,why has tiktok not put a safety warning on this?,2-3-2021,
18,Dhruv Dixit,superdastro,,What about the case?? 😏,4-3-2021,
19,Bocil Caper.,ichigokurosakixx,,@partyshirt please try this bro 😂,4-3-2021,
20,Sumner Server,sumnerserver,,"Also, sometimes, if you set an open MacBook on top of a closed MacBook *just right*, the open MacBook will think it’s closed and go to sleep.",4-3-2021,
21,Maqsood Ilahi,ilahiofficiall,,so we say it technology? People are lazy so even they hold lightweight airports. come on.,2-3-2021,
22,66ryder,66ryder,,they're not the pros tho,2-3-2021,
23,user597191,bigsecret121,,wow that's gotta be apples one of the best innovation in last couple of years,2-3-2021,
24,Adriel,.shaahin,,@mkbhd what’s the first thing I should do on my new MacBook Air?,3-3-2021,
25,Jesus Corral,j.larroc,,Can I have one of your extra MacBooks?,3-3-2021,
26,Pink Portrait,pinkportrait,,Me having none of this: neat!,2-3-2021,
27,rich_ostrich,rich_ostrich,,They actually did that just incase you want to display your $2100 macbook pro on your refrigerator,2-3-2021,
28,Josh,joshys36999,,@sophie.mae_x is this what you were on about,3-3-2021,
29,ThiccySupreem,the_poop_in_the_corner,,Me still waiting for a video on keyboards 😐👀,2-3-2021,
30,Ryan Gil,xxryangil,,I tried attaching my 12 pro max and it does cling to it. But dont overdo this one coz it can do some damage especially on the cam,4-3-2021,
31,doodoo,_doodoo,,"how do you have regular airpods and a $2500 macbook
pros/max ftw",3-3-2021,
32,teddy,teddy.siddy,,First,2-3-2021,
33,prash,prash.makes,,"This is the least dangerous time I've heard someone say ""don't try this at home"" on tiktok 😂",2-3-2021,
34,Kelsey,xxx_azn_r1c3r_808_xxx,,But can it hold a iphone?,2-3-2021,
35,Divine,divn_01,,Apple really using magnets for innovation😁😂...no hate btw it's cool👌,2-3-2021,
36,not the turkey,nottheturkey,,you can also do it with the speakers on an iphone!,2-3-2021,
37,Krish Shah,krish.s35,,@graceysprivaccountx：ME AND MY FRIEND ARE DOING A CHALLENGE TO SEE WHO CAN GET THE MOST NOTIFICATIONS. CAN YOU PLEASE HELP ME WIN THIS.,2-3-2021,
38,Sammy Ajani,sammyajani,,Can you send me that MacBook to try? Mines not workin for school no more😪,4-3-2021,
39,Zed James,zedricklamar,,I used to place my Carmen lip balm there just so I wouldn’t lose it. 😂😂😂,3-3-2021,
40,Jeames Granger,jeamesgranger,,"That's bonkers, I wonder what iPhone 4 can do 😏",2-3-2021,
41,Undead Pixel,undead.pixel,,We all know you have that oneplus 9 somewhere being used,2-3-2021,
42,Candys,itscandys19,,Some people are really going to try to flex with this😅,2-3-2021,
43,smth,user118389326,,People don’t care if you are first,2-3-2021,
44,POKEEYY,pubg_pokett,,@partyshirt try this please 😁,6-3-2021,
45,user659786691295,activity420,,I love how magnets are being used. Little things like They keep my iPad case square and safer.,2-3-2021,
46,K_sohal3112,k_sohal3112,,First,2-3-2021,
47,Cruyff,ourteam47,,Finally the legend is back,2-3-2021,
48,Big dog Siri,bossman933,,Mad,2-3-2021,
49,DidsLive,didslive,,POV: You are listening to this on full volume with your AirPods magnetted to your MacBook,3-3-2021,
50,Rufus,rufusxa,,Bruhhh,2-3-2021,
51,Kelsey,xxx_azn_r1c3r_808_xxx,,But how do they work 🤔,2-3-2021,
52,Reiner Braun,plotarmoredtitan,,"Marques, do u still play ultimate?",2-3-2021,
53,user9453126785581,chukwuezugo,,Wow 😁😁 really need a laptop like this for school,18-6-2022,
54,Tchai,tamer_conbabiere,,"Don’t worry I won’t do it at my house , I’ll do it at a friends house",20-3-2022,
55,#MPR,mightyddave,,"Literally did this, too late😅",31-1-2022,
56,Chy,theonechy,,Don’t work with pros,21-1-2022,
57,nobody,rosalie.t.tattoo,,where is the touch bar 🥺🥺,19-1-2022,
58,bad boy,bellygym0,,Miles Morales😑,20-12-2021,
59,farziz482,farziz482,,"knowing me, u will close the lid first day I put them there",7-12-2021,
60,yes,zenereye,,tried it at home sorry 💀,2-12-2021,
61,MANN,neslo_p4n4s,,not for the airpods pro😂,17-11-2021,
62,€ MEMO,outside7l,,อย่าหาทำ 😂 ถ้าลืม คือ.. จอแตก,26-10-2021,
63,SpookySquash951,gregstout2,,I saw you today. Good luck in the championship tomorrow.,24-10-2021,
64,abtinjavadzadeh,abtinjavadzadeh,,@emadfr8 it is great,11-10-2021,
65,Jan Uhelj,qul1x66,,be careful macbook!! oh no he can't hear us he's wearing airpods!!,17-8-2021,
66,Munro McLaren,munromclaren,,I just learned this today. I noticed my friend hanging her AirPods from her MacBook. My AirPods Pro are too heavy to be held by the magnets though.,15-7-2021,
67,Qwerty,applesaregood7769,,Anyone realize his battery was at 69%,14-7-2021,
68,Andy🌴🌴,truelove6988,,That's been on all MacBook pro😏,13-7-2021,
69,H,rainbowshark023,,u used to be able to do it next to the camera,3-7-2021,
70,My name is Caleb:)<3,mrblade60000,,That is literally the Best way to flex,8-6-2021,
71,Luce,luc_official15,,I dock my vape there,29-5-2021,
72,user4837244627570,az5046612,,"But then your airpods battery would eventually die, whereas in the case they would be charging",29-5-2021,
73,🇮🇶𝐀𝐖𝐒 𝐍. 𝐁𝐀𝐐𝐈𝐑🇮🇶,a_7ws,,وين لكيت هاي الكلاوات 😂,28-5-2021,
74,danzilla rose,danzillarose,,wud be more impressed if it charged them 🤷‍♀️,13-5-2021,
75,ousskittens,ousskittens,,apple magnets are strong,8-5-2021,
76,Kuba Borkowski,duck.army,,you can put mb into sleep by touching an airpod near the speaker,4-5-2021,
77,Ellis Chadwick,ellischadwick.1,,@partyshirt fact or cap?,3-5-2021,
78,Radu Bocicor,radubocicor,,This changed my life,2-5-2021,
79,👁👄👁,plemmingfiet,,You can btw also put the cap of your Apple Pencil 1st gen on the bezel of an iPad... very useful in fact😅,1-5-2021,
80,Rhysand,rhysand99,,I’ll be using this,29-4-2021,
81,Matthew,matthew_the_nerd,,It looked like the laptop had ears. 😂🤣,26-4-2021,
82,Sam🏀,sam_smily720,,I use my Apple Pencil cap with my computer,22-4-2021,
83,..,3bdulla_gb,,And there u have a MacPods pro 😅,21-4-2021,
84,kush budha,kushbudha1,,always apple products just because u like,15-4-2021,
85,abc,paizz.3,,nice 🥰🌷🌸🙌🤝,6-4-2021,
86,1averageman,1averageman,,Overpriced machines,5-4-2021,
87,ZohaanInTokyo,zohaanintokyo,,Walang magawa si brownie 😂😂😂,5-4-2021,
88,the12toad_man,stubby_gremlin,,ah yes my favourite airpods/apple watch holder,3-4-2021,
89,sophie28:2811,sophiekferns07,,Ah yes marquessss,3-4-2021,
90,notorious,ennysza,,macbooks or android laptops?? i can’t decide and i’ve got exams coming up,2-4-2021,
91,Hilmi Isa,hilmiisa,,and then close the macbook.,31-3-2021,
92,Chris aka GOAT,chris_aka_goat,,@chris42045 you,28-3-2021,
93,Yasro Maestro,yasromaestro,,I will definitely try this at home 😂,27-3-2021,
94,Tik Toker,miss.rerezhang,,"You can also put your apple pencil there it's actually really stable, but useless",27-3-2021,
95,Tiktokistrash,tiktokistrash028,,who copy this? @techburner8 or @mkbhd,19-3-2021,
96,🌿J I A N A 🌊,jiana_spams,,I always do that,18-3-2021,
97,Camilo Castro,miloandrs,,"Apple users ""This is SOOOO innovative"" 😂😂😂",17-3-2021,
98,di,sirvdrsgv,,@partyshirt can you pls do this? 😁,16-3-2021,
99,Nxsty BN,nxstybn,,I’ll just try it at the park not home got it ✍️,16-3-2021,
100,Ryan Kent,ryan_kent98,,Does the Macbook air work too?,15-3-2021,
101,Josh Hodgkiss,shutterbugnerd,,"People who think the Mac is a flex. have no idea how expensive your camera shelf is, or phone drawer 😂",15-3-2021,
102,Eduard,eduarddoesvideos,,Imagine having an airpors case couldn’t be me,14-3-2021,
103,CarsWithBarrington AN Toyota,carswithbarrington,,LOL,14-3-2021,
104,Adolf Healer,ochujeje,,no i? 😏,13-3-2021,
105,Justwatchinyall,justwatchingyall,,I did try it at home and it worked with my Apple Watch,12-3-2021,
106,lee Westbrook,leewforpresident,,Yea but it darkens you screen,11-3-2021,
107,user1325251,mikotouchiha077,,don't try this at home😳,11-3-2021,
108,.,not.ezi,,why is the keyboard so small. like they could do so much with all that space like add a keypad onto the keyboard or something.,11-3-2021,
109,digipe3900,digipe3900,,I always put my Apple Pencil up there while I work!,10-3-2021,
110,Ethan Arredondo,v6bee_,,WHY ISNT YOUR BIO “WELCOME TO TECHTOK”,10-3-2021,
111,Ethan Arredondo,v6bee_,,MARQUES,10-3-2021,
112,aditya,aditya.bajaj,,@lucca_020 drippy,9-3-2021,
113,fabiha,fabihahahaha,,I do the airpods thing allll the time,9-3-2021,
114,Black Harry Potter,black_harry_potter,,Apple on apple crime,9-3-2021,
115,Ahmad,ahshlo,,Mac book? Nah 2500 dollar airpods holder,9-3-2021,
116,Dm ing Kanye 🐻,dm_ing_kanye_everyday,,👾wow,9-3-2021,
117,Not John,not.john1,,Most laptops have magnets like that.,8-3-2021,
118,Dejan,itsoutofcontext,,Apple thinks of EVERYTHING,8-3-2021,
119,Grey Little,greylittle14,,Hey um how come there wasn’t a logo on the back,8-3-2021,
120,Blackericdenice,blackericdenice,,Dope,8-3-2021,
121,hadi,lockdown_cornerback,,nice,7-3-2021,
122,Angela Beshara,angelabeshara7,,ayo my mac got drip 😳😳🥶🥶🥶🥶🥶🥶💧💧💧,7-3-2021,
123,Niklaus,heartless.klaus,,That’s gonna damage the lcd of the macbook,7-3-2021,
124,Ashi,ashi.hsajkajahsha,,It does work lol😳,7-3-2021,
125,DialEka,dialeka1,,Can i try this at a public cafe ?,7-3-2021,
126,Denzel Ibariza,denzinhoo_24,,@partyshirt legit?,7-3-2021,
127,Chavey Laseras,chaveylaseras,,I need laptop for class. I hope to receive one from you 🥺 Thanks!,7-3-2021,
128,Jun Jin Wong,junjinwong,,I saw your draft when you dropped it 😅,7-3-2021,
129,Nate da doggy,natedadogge,,Tried it but my MacBook doesn’t work anymore,6-3-2021,
130,Vincent van der Meer,vinneighpinneigh,,I tried this on my Acer laptop but the magnets are reversed so it pushes away my galaxy buds...,6-3-2021,
131,LMFAO,dangphung21,,I fell like im in @partyshirt world,6-3-2021,
132,john367390,john367390,,Sometimes you can also hold an Apple Pencil 2 on the MacBook speaker grill XD,5-3-2021,
133,_diego_,diegoherrera22108,,for you to know it ruins the battery,5-3-2021,
134,Klinta Pūce,pecuminjsh,,"Too late, going to try this at home right now!",5-3-2021,
135,Marvin Mateó,marvin.quero.lanche,,colocar o iPhone 12,4-3-2021,
136,,,,wow it Just Works,4-3-2021,
137,,,,"Nah, the laptop just wants to be flexing too 😂😂😂",4-3-2021,
138,,,,WHAT,4-3-2021,
139,,,,Don’t try it at home.... hm I already did😏,4-3-2021,
140,,,,You were bored?,4-3-2021,
141,,,,usefuless 😂😂,4-3-2021,
142,,,,Yeah im not going to try this at home cuz i don't have a mac,4-3-2021,
143,,,,Not necessary...,4-3-2021,
144,,,,Ok I’m going to use it in the store ..,4-3-2021,
145,,,,why though.,4-3-2021,
146,,,,how do they work?,4-3-2021,
147,,,,You’re so late to this,4-3-2021,
148,,,,so nice 🥰🥰🥰🥰🥰,4-3-2021,
149,,,,drippy 🥶🥶🥶🥶,4-3-2021,
150,,,,Aren’t iMacs like this too?,4-3-2021,
151,,,,Who knew omg,4-3-2021,
152,,,,It no work on the pros ):,3-3-2021,
153,,,,what about the iPhone 12,3-3-2021,
154,,,,"Yes, I Knew That Before You Even Say It.",3-3-2021,
155,,,,can I get one🥺,3-3-2021,
156,fareed 🏙,fareedxhaq,,Drippyyyyyyyyy 😁,3-3-2021,
157,Sergey Bekharsky,bekharsky,,And now you should close the lid,3-3-2021,
158,seble,sesz547,,5 minute crafts?,3-3-2021,
159,hFathurohman,hfathurohman,,kocak,3-3-2021,
160,John Frenchman,johnfrenchman,,for when your speakers don’t want to work right!!,3-3-2021,
161,Waze,wazeytiktok,,welcome to fact or cap @PARTY SHIRT,3-3-2021,
162,Kiki,stormi.days,,Do you have any reviews on the best tablets for editing?,3-3-2021,
163,user6269438240544,llollzzzzz,,I can’t wait to wig ppl out with the AirPods,3-3-2021,
164,Voice Notes🖤,thevoicenotes,,Hi I miss you,3-3-2021,
165,Rudra,handsanitizer691,,I’m not gonna try it at home because I’m broke,3-3-2021,
166,Jason Morgenstern,jdnyc_718,,that seems sturdy,3-3-2021,
167,oliver,oo1ive,,Okay,3-3-2021,
168,Thomas Linzi,tlinzi,,"Apple fans be like ""Steve Jobs discovered magnets!"" 😁",3-3-2021,
169,2008 Ford Escape Limited,2008fordescapelimited,,Lol y are u still on Catalina,3-3-2021,
170,Cambo Fixing,cambofixingofficial,,My idol,3-3-2021,
171,Adam,adambheir0,,but my laptop is at home where do I try it,3-3-2021,
172,Donald,_.donald,,enjoy seeing you on the Tok more,3-3-2021,
173,Nick,nickelg3,,why thank you marques,3-3-2021,
174,Bergesmiguel,bergesmiguel,,Why tho,3-3-2021,
175,George,georgerunsla,,You can also put the airpod case!!,3-3-2021,
176,Razzle Dazzle,razlze,,Bruh where do I try it then?,3-3-2021,
177,Richard Carrillo Jr.,richardcjr,,I’m trying this when I get home.,3-3-2021,
178,B,carolinasfirstl,,looks like a great way to accidentally break the screen,3-3-2021,
179,thesatyenrao,thesatyenrao,,This was so useful and useless at the same time 😂,2-3-2021,
180,Trey Bugatti,treybugatti,,Does it work with 12 pro max?,2-3-2021,
181,thecomputerc,thecomputerc,,That is...something.😂 Here's a question: What's the best gaming laptop to buy out of the box today?,2-3-2021,
182,Bolin,prison.mike_scott,,damn daniel,2-3-2021,
183,Rehman,rehmzn_,,Hi,2-3-2021,
184,hughielewis,hughielewis,,you need to update your macbook pro to macOS bigsur,2-3-2021,
185,kingsaif2099,kingsaif2099,,That was always a thing with MacBooks,2-3-2021,
186,Samuel Masuka,tapiwasam,,don't most laptops have magnets though,2-3-2021,
187,Zarefie 🪐,zarefie,,@lola_abdelal “don’t try this at home” 🥲😭,2-3-2021,
188,Yeudy,yeudy_,,✨innovation✨,2-3-2021,
189,GāhDamn The Apothecary,aaimnr_,,innovative lol,2-3-2021,
190,Jan Makuc,janmakuc,,Dell has that as well on their XPS models,2-3-2021,
191,Connor Gerst,cgerst,,wElCoMe tO fAcT oR cAp,2-3-2021,
192,Ryan,ryanyrn21,,so where we supposed to try it? at school or?,2-3-2021,
193,Amira,techleet,,@jeremiah_michael it’s growing 😳,2-3-2021,
194,Moses Solomon407,moses1q,,ok I won't try this at home 😉😉😉😉😉,2-3-2021,
195,Tiktoker,sidestep337,,Seriously I watch u on yt and now ur on my tiktok fyp 😅,2-3-2021,
196,user,user173haqeh739jzj0,,True innovation,2-3-2021,
197,Alan's Point,alanspoint,,what about velcro 😅,2-3-2021,
198,emiiiiii,emilianoooov,,That’s crazy,2-3-2021,
199,VFX Creator,tunde_thecreator,,don't try this at home though 🤔,2-3-2021,
200,❤shehzad❤,shehzadahmad34,,nice 🥰,2-3-2021,
201,Shrey Patel,user888181120,,"But wait, don’t try this at home 😂😂😂",2-3-2021,
202,Elliot The Dev,pwnedbyelliotthedev,,I what??,2-3-2021,
203,R,dicksoutforharambe,,the macbook can't hear us it got airpods in,2-3-2021,
204,Yale Stark,yale_stark,,Cool 😎,2-3-2021,
205,.,just_pressing_buttons,,"yeah, that was a trend like 3 months ago lol",2-3-2021,
206,urbrotherfromanothermother,theyarewatching4,,Samsung watching this: 👁👄👁,2-3-2021,
207,Ross McLean,ro.ss.co,,But can you find the magic spot where the AirPod case puts the Mac to sleep 😉,2-3-2021,
208,Sam-Bryce,sbmtech,,Ayo,2-3-2021,
209,user7779747468112,user7779747468112,,Don’t worry I won’t try this,2-3-2021,
210,Onkel hans bauge,julebauen,,What happened to the ps5 giveaway😬,2-3-2021,
211,Cassidy Freeman,cassidyfreeman_,,Dope,2-3-2021,
212,Moin maista,moin_maista2,,the question is why should I put my airpods or my Apple watch on my Macbook when I'm Listening music,2-3-2021,
213,Ruphine Dean✨,iamphine_dean101,,Gimme iphone 12,2-3-2021,
214,Sergio - Fat Loss Coach,fitnesscoachsergio,,I can put fridge magnets on my MacBook now,2-3-2021,
215,DerbieSomers,derbiesomers,,Can that magnet attract a man?,2-3-2021,
216,The cheesy biskit 🍪,thecheesebiskit,,You should post more here 😁😁,2-3-2021,
217,🌍☄,itzzalimm,,sheesh,2-3-2021,
218,david.p.3,david.p.3,,Omg this works,2-3-2021,
219,Albo ibra,albanianpapi123,,"yup, i hang my chain there once",2-3-2021,
220,Zachary Kocienda,zacharykocienda,,can you stick the airpods pro??,2-3-2021,
221,Zuko399,treogle,,Oh the MacBook valid 🥶🥶🥶,2-3-2021,
222,Frost,sp4c3d0ut,,extra early,2-3-2021,
223,adil khalifa,adilkhalifa197677,,I don't know if this is true but doesn't that damage the screen over tine,2-3-2021,
224,Cool kid🙂,system_guidelines,,"Cool Anyways here’s the Recipe for brownies:
1/2 cup butter
2 eggs
1 cup sugar
1/3 cup cocoa powder
2 teaspoon vanilla extra",2-3-2021,
225,ak_26_14,alma_26_14,,Gotta have the magic touch🙌,2-3-2021,
226,rocco,rocco.opp,,@valeriapalacio._ it’s literally ok to do,2-3-2021,
227,Parker20memes,parker_hewett,,What about pros,2-3-2021,
228,affen mit waffen,affenmitwaffen1,,Slide a magnet on the left side,2-3-2021,
229,Nadim,nadimzxz,,and also the case btw,2-3-2021,
230,Team breezy,cbherald,,"Sup Marques, love your YouTube videos🤘🏽🤘🏽",2-3-2021,
231,G,4301hunter,,why wont i if u tell me to do so👁️👄👁️,2-3-2021,
232,Nermal,nermal10,,I hot glued the usb to the bottom of the airpods case...,2-3-2021,
233,Jon Allen,jonallen26,,Always wanted a MacBook but they are super expensive,2-3-2021,
234,Riya,avacadolvur,,YOOOO,2-3-2021,
235,Samuel,datamies,,macbook drip🥶🥶🥶🥶🥶🥶🥶,2-3-2021,
236,alexandru,alexand.ru,,wow apple smart,2-3-2021,
237,Patrick ×͜×,patricktrenchard,,U gotta update to big sur Marques,2-3-2021,
238,Apple User992775396,temasysoev2,,iPhone with no ports charging solution confirmed,2-3-2021,
239,Tolu,toluii,,🧐 whats he tryna tell us,2-3-2021,
240,Jayden Garcia | Entrepreneur,imjaydengarcia,,How did I not know this? 😅,2-3-2021,
241,Jason He,jason.he54,,"Then it drops and next thing you know, you’re down 200 to 500 dollars. Maybe even a keyboard",2-3-2021,
242,ndubuchi,ndubuchi,,I don't really see the importance of it but cool anyway 😏,2-3-2021,
243,Clark,clarkkcruzz,,I’ll be impressed if it can hold an iPhone,2-3-2021,
244,LuisTR ™,ayeyoitsluis,,So useful 👌,2-3-2021,
245,2005_Honda_Civic_LX,2005_honda_civic_lx,,2005 Honda Civic LX 😈,2-3-2021,
246,Clark,clarkkcruzz,,I think you need to download the new MacOS Big Sur,2-3-2021,
247,⠀ ⠀ ⠀ ⠀ ⠀ ⠀,honshyy,,wassup mkbhd,2-3-2021,
248,Archer,darkerarcher,,69th like 😏,2-3-2021,
249,Findhammer,find_lay_hamm,,Sick,2-3-2021,
250,AK,alkareem_merchant,,Is this rly a good idea tho?,2-3-2021,
251,unknown,unknownbigboyz,,haven't seen this man in a while😂,2-3-2021,
252,.omvii.,.oswaldomaya,,does he respond😳,2-3-2021,
253,King Herman,realkingherman,,Cool,2-3-2021,
254,slay,slayqueenpuryuh,,i literally get his videos after days but today i’m so early hiiiii,2-3-2021,
255,JG ⚾️⚾️⚾️⛳️🏀,jaleel2112,,Are you giving it away🤩,2-3-2021,
256,_simp_son_no_mo,_simp_son_no_mo,,how about your new office tour,2-3-2021,
257,Tamer,bigbaba_tamer,,Early,2-3-2021,
258,Chidakwa,prosperchidakwa,,early check,2-3-2021,
259,hammad,ham_is_mad,,"i was about to ask if this was safe, and then i heard the ending 😂",2-3-2021,
260,Jua$,justadrboy,,Friday,2-3-2021,
261,Kisa Baby,kisamayanja78903,,first,2-3-2021,
262,RealDABBABY,oddkid45,,Awesome hi,2-3-2021,
263,Nyx,numberonegayperson,,don’t tell me what to do I’m going to hang my Apple Watch if I want to,2-3-2021,
264,Daksh Mota,the_actual_daksh,,Second,2-3-2021,
265,Logan,fookielogan,,YOOOOO,2-3-2021,
266,😵‍💫eric.j😵‍💫,eric.joh,,Swag,2-3-2021,
267,Nathan Fong,nathanfong05,,Bruh,2-3-2021,
268,derwins the goat,w1nterz14,,IM HELLA EARLY,2-3-2021,
269,A,dadecounty..andres,,EARLY,2-3-2021,
270,Carlos Gonzalez,danielo_gonz,,Nice,2-3-2021,
271,damn,damnboyy010,,hii,2-3-2021,
272,Phondroid_ Uz,phonedroid_uz,,Just join my technical channel😉,25-12-2021,
273,Igor Kalashnikov,silentroach,,But why?,4-5-2021,
274,hi,alltooanxious,,Do that thing attracts refrigerators?,10-4-2021,
275,Andy Ashing 🌬,andyashing,,Wonder what the macbook listening to😳,10-4-2021,
276,Kisha,xokisha,,I just tried it and it actually works! Yessss,12-3-2021,
277,𝙤𝙯𝙖𝙞𝙧,ozairtriestech,,The Mac can't hear broke now 😂,4-3-2021,
278,nabil mercedes,nabil83free,,"😒
no need foor this video",3-3-2021,
279,PIANO CHANNEL 8,bosendorfer_8,,I will try it with my Mac🤣,2-3-2021,
280,MovieMashups,moviemashups,,tell me you can't invent anymore without telling me you can't invent anymore,2-3-2021,
281,Tik Toker,dylanwhite_mason,,love the vids man,2-3-2021,
282,Jan Valečka ,janvalecka,,Weird flex but ok,3-3-2021,
283,user,user173haqeh739jzj0,,"Ive truly loved MacBooks and their OS, but they’re just starting to seem outdated when competing against touchscreens like the surface 😔, if only",2-3-2021,
284,Ratep69,ratep_,,"My burst in flames, guess that’s a defense mechanisn",2-3-2021,
285,Jordan,rocknrolljared,,bro you sound and look like you shower 4 times a day,2-3-2021,
286,🫥,sebastian_ivan16,,"owning a macbook: flex
wearing airpods: flex
macbook wearing airpods: ICEEEEEE 🥶🥶🥶🥶🥶🥶🥶🥶❄️❄️❄️🧊🧊🧊🧊🥶🧊❄️❄️",3-3-2021,
287,Mario the disciple,saved.mario,,God loves y’all and Jesus Christ is coming soon and repent to Christ,10-7-2021,
288,d,heapcluf,,AIRPOD SHOTTY🥶😈😈😈🔥🥶🔥😈🔥🥶😈🔥🔥🔥🔥😈🔥😈🔥🔥🥶🔥🔥🥶🔥🥶🔥🥶🔥🥶🔥😈🔥😈🔥🥶🔥😈🔥🥶🔥😈🔥🔥🔥😈🔥🥶🔥😈😈🔥😈🔥🥶🔥🔥😈😈🔥😈😈😂😈🔥😈😈🔥,2-3-2021,
289,user1136763915233,user1136763915233,,ilahiofficiall check i t- droxo.fun,31-12-2021,
290,user1136763915233,user1136763915233,,ichigokurosakixx check i t- droxo.fun,31-12-2021,
291,John Simmons,johnsimmons705,,It’s an awful computer,25-1-2022,
292,user1136763915233,user1136763915233,,zac.stracener check i t- droxo.fun,31-12-2021,
293,Wyatt,wyatteiden,,Did you get this from my video?,2-3-2021,
294,Goku Can't F With Saitama,gcfw.saitama,,Or dont buy apple stuff,4-3-2021,
295,Ali,alirizwan_212,,Don’t do that it’s not good for the airpods or the MacBook,3-3-2021,
296,Mustapha,1mustapha2,,How to restore deleted items on windows after full format help pleaseee?!??????,3-3-2021,
297,Poppy,lisa2pop,,Just imagine if you could charge them,2-3-2021,
298,Andy Nickel,andynickel3,,trash,11-3-2021,
299,John Simmons,johnsimmons705,,Can’t get any good apps because fucking apple can’t make a compatible App Store,25-1-2022,
300,anton,viliager,,"You’re scaring Tim Apple, Marques. Stop it or I’m calling your parents.",2-3-2021,
301,ednick_oldermillennial,ednickk_oldermillennial,,"😂 If this isn’t the stupid “feature” ever, I don’t know what it is.",2-3-2021,
302,Yassin mohamed,..yassin69,,Early please reply,2-3-2021,
303,Shahnoor Hossain,shahnoor.hossain,,Mkbhd on TikTok … just doesn’t belong. Sorry 🤷🏻‍♂️,2-5-2021,
304,✔︎🔵,deghosty,,MACBOOK GOT THE DRIP 🥶🥶🥶🥶🥶🥶🥶🥶🥶🥶🥶🥶🥶🥶🥶🥶🥶🥶🥶🥶🥶🥶🥶,3-3-2021,
305,;@€|(,ack_05,,terrible idea,3-3-2021,
306,david,notsurprisedryou,,Lame,3-3-2021,
307,Jonathan Byrö Nordgr,jonathan.bn0,,why does it look so ugly (the macbook)?,2-3-2021,
308,Jerusalemski,jerusalemski,,Human Rights only for EU citizens?? Why EU doesnt react us? EU Waiting for When the Shameless Montenegro commit the Crime against us and Deport to Aze,19-5-2021,
309,Saimon F,saimonfl,,MARKUSSSS I WANTED TO FOLLOW YOU HERE,3-5-2021,
310,6thDayBlue,6thdayblue,,"You need a girlfriend mate. Interesting but man to man, you probably need to think about other thinks in life.",2-5-2021,
311,Jon,jgoody_86,,My buddy shut his lid and destroyed his screen doing that,21-3-2021,
312,a n g e l,angel.ariass,,Can’t do this shit if you don’t have a Mac book or AirPods or an Apple Watch,12-3-2021,
313,Rkid,theianscott,,mark ass brownie,4-3-2021,
314,BlueNewsClips,bluenewsclips,,Mark ass brownley,4-3-2021,
315,Does your camera fly?,itcow,,Dumb things Apple fans does.,3-3-2021,
316,Shoaib Sayed,shoaibsayed7,,"You forgot they are hanging on the top, and you close the lid from backside while walking! Display gone fro 1000$!",3-3-2021,
317,Jack Guzzetta,jguzz999,,If you put it right around the USB port the display will shut off,3-3-2021,
318,cody,piss_and_shit.boy,,you will always be frisbee man to me.,3-3-2021,
319,L,ld50t,,still garbage,3-3-2021,
320,WolfX2,tychytok,,So you can smash them into your screen?,3-3-2021,
321,Edward Brook,offensiveduck,,damn mkbhd on tiktok,2-3-2021,
322,Mochi _7,little_mmochi,,oh hey. I found you on tikyok by chance rn. 😁 I've been following you for like 2 years now.,3-3-2021,
323,QuelMeladoro ,quelmeladoro,,😳😳😳,2-3-2021,
324,user171912844423,bec.lem,,@fobklown,3-3-2021,
325,Gabe F,gabefaigan,,@jonahberr,4-3-2021,
326,daniel townend,danieltownend4,,@ashton.jess,2-3-2021,
327,Alexander Overwrite,alexanderoverwrite,,@partyshirt ??,2-3-2021,
328,lu_perez,lu_perez2403,,@fa_240307,9-3-2021,
329,zoraeb saleem,zoraebsaleem,,Ayyyyy YOOOOO MACBOOK GOT THE DRIPPPPPP 💧💧💧💧💧💧💧💧💧💧💧💧💧💧💧🥶🥶🥶🥶🥶🥶🥶🥶🥶🥶🥶🥶🥶🥶🥶🥶🥶🥶🥶🥶🥶,3-3-2021,
330,Moises Garcia,moisesgarcia504,,MKBHD,2-3-2021,
331,Aria,tuarianitas,,😂😂😂😂,21-10-2021,
332,mayank,mayankkarray_,,@mahikarray_,21-8-2021,
333,logologo242,logologo242,,😃,28-6-2021,
334,Maain Nimal,maainnimal_10,,@partyshirt,29-5-2021,
335,Danicotro,cotro10,,@partyshirt,4-5-2021,
336,Al Velásquez,alexisvelasquezcft,,@jorge.velaasquez,4-5-2021,
337,Yea,urauntieisahoe,,@partyshirt,4-4-2021,
338,Ryan the Silent Reader.,sprongklongz27,,@partyshirt,31-3-2021,
339,Luca Bortolami,lucabortolami1,,😳,18-3-2021,
340,Kevin Milk,dylansweatybot,,@partyshirt,11-3-2021,
341,Xyra Aleli,aryxmiamigo,,@partyshirt,11-3-2021,
342,Sophia C.,sophiachenv,,🥰,10-3-2021,
343,kristylmaejocson Ocul,stranger_0506,,@partyshirt,8-3-2021,
344,Bachelorfrog,bachelorfrog,,😂😂😂😂,7-3-2021,
345,Spigen,spigenworld,,🤯🤯🤯,7-3-2021,
346,Zach Davidson,zachdavidson20,,@partyshirt,5-3-2021,
347,Blake,blakez3553,,@faze1234567,5-3-2021,
348,Izzy,izzy_1each,,@allie_webster,4-3-2021,
349,Humongouz Cox,xalinho123,,@partyshirt,4-3-2021,
350,bboy_wayan_bd,bboy_wayan_bd,,@partyshirt,3-3-2021,
351,zero corps,dk.zero_,,@partyshirt,3-3-2021,
352,I quit,gabetransitionsad,,@partyshirt,3-3-2021,
353,Philip Costello,philipc26,,@partyshirt,3-3-2021,
354,Chase the 💰 not the 🐱,pxng_hoops,,@partyshirt,3-3-2021,
355,R.I.P.D,frankland100,,@shelbyariaana,3-3-2021,
356,swaggie,swaggie9782,,😂😂😂😂😂,3-3-2021,
357,Hasansab18,m.hasan.sab,,@partyshirt,3-3-2021,
358,Sean Lawrence,lawninsurance,,@partyshirt,3-3-2021,
359,chau,chau3u,,@lotuskater,3-3-2021,
360,michael goldman,michaelgoldman56,,@partyshirt,3-3-2021,
361,bilalbalaa0,bobcigaretty,,@partyshirt,3-3-2021,
362,bilalbalaa0,bobcigaretty,,@partyshirt @,3-3-2021,
363,Chico Dido,chicothex,,@partyshirt,2-3-2021,
364,No,pollodesmenuzado777,,@partyshirt,2-3-2021,
365,Dustin Hawks,dustinhawks8,,@partyshirt,2-3-2021,
366,Joshua Goodman,joshuagoodman6,,@partyshirt,2-3-2021,
367,Arapata White279,arapatawhite,,👏👏👏,2-3-2021,
368,Brandon Regans,b.regans,,@buscooners,2-3-2021,
369,,,,@kyuroki,2-3-2021,
370,,,,@partyshirt,2-3-2021,
371,,,,@yazanhaddad2,2-3-2021,
372,,,,Sheeshhh myyy mannsssss takeessss carreeee of hisss airrpoddsss they meggaaa ClEaN🥶🥶🥶🥶🥶🥶🥶🥶😩,22-3-2021,
373,,,,....................,7-3-2021,
374,,,,😂😂😂🤣🤣🤣,2-3-2021,
375,,,,Early gang WOOF WOOF 🐕🐕🐕🐕🐕🐕🐕🐕🐕,2-3-2021,
376,,,,POV: the comments 💙🥶💙💙🥶🥶🥶💙🥶💙🥶💙💙🥶🥶🥶💙🥶💙💙💙💙🔵,3-3-2021,
377,,,,sheseeeeshhhhh 🥶🥶🥶🥶🥶🥶🥶🥶🥶🥶🥶🥶,8-3-2021,
