,Comment Number (ID),Nickname,User @,Comment Text,Time,Likes
1,Ok,influencerin,,"Apple gets the data in C and converts it to F. 20c are 68f and 21c are 70f because most weather services round it’s very unlikely to get 20,5c (=69F).",19-7-2021,
2,Jo ey,jo_ey_97,,"also, siri refuse to tell you what it is in Palestine. But they will tell you if you ask what time it is in israel",20-8-2021,
3,Pradeep bhattarai ,pradeepbhattarai,,My battery level is 69%💀,18-9-2021,
4,Tech Related Content,_dyllie_,,Mine says 69 tho,15-7-2021,
5,thebeukering,thebeukering,,It’s not showing 69 because it converts from Celsius (the data source) 20 C is 68 Fahrenheit and 21 is 70. It skips 69,11-8-2021,
6,🎉🏳️‍🌈 TROOPER 🏳️‍🌈🎉,trooper_tiktok,,Not nice Apple 😆,15-7-2021,
7,wal0od,wal0od,,meybe the ceo don't like the position,24-8-2021,
8,Celia Velez,celia.velez,,but somehow my battery always manages to be at 69%,17-7-2021,
9,user3909787564513,user390978756451382,,Its because 20°c is rounded to 68f and 21° is rounded to 70f. Its simple math,5-9-2021,
10,ford focus 😀😀😀,2012_ford_focus,,2012 ford focus,14-7-2021,
11,ilxa,helo_ilxa,,krass und ich schreib morgen mathe,14-7-2021,
12,OLA,imnot.0la,,Even apple doesn’t like snitches,24-7-2021,
13,Emre Yildiz,kupfer.bart,,Manche denken jetzt krass da ist es ja doppelt so warm wir hier,15-7-2021,
14,Teddy,_ahhhhhhhhhhhhhhhhhhhhhh,,Noice,17-7-2021,
15,Aiden,yaboi_lifeform,,nice,15-7-2021,
16,Blank,valdis5564,,It works on iOS 15 that’s what I’m running now and I just checked and saw 69°,15-7-2021,
17,driggsy,driggsy,,Not nice,15-7-2021,
18,Ethan rose,ethan.r757,,"It’s because they convert from Celsius, and 69° F is a decimal and doesn’t like to convert",15-7-2021,
19,Carter,lukeythedog0,,Can you make a sound test of your keyboard?,18-7-2021,
20,Shedy,shwredriickk,,✅ Apple is religious 🤣😊,18-7-2021,
21,GuyWithOutALife,guywithoutalife,,Maybe Android is better,14-7-2021,
22,AuthorSMG,authorsmg,,"The “some reason” is likely that the backend API retrieves the values in Celsius, and then rounds to °F. 21°C rounds from 69.8 to 70, simple :)",15-7-2021,
23,STAR WARS CLIPS,star_wars_clips,,What do you mean why though? Does he actually know what 69 actually means?,15-7-2021,
24,Vic is 🙈,vickiiieayo,,BRO ENGLAND CANT REACH UP TO 30 degrees,16-7-2021,
25,Tech Related Content,_dyllie_,,Lol,15-7-2021,
26,Karan,karanmistry2021,,BRO I JUST FOUND OUT U LIVE LIKE 10 MIN AWAY FROM ME 😅,23-7-2021,
27,ً NUKIE™,nukieboi,,I got proof that my iPhone does say 69 in and out of the Widget and I’m also on the IOS beta,18-7-2021,
28,Idgaf,noway_itsme,,I looked today and it was 69 sooo,20-7-2021,
29,ZestyAsTech,zestyastech,,Nice,2-8-2021,
30,user606007340903,crisgue0,,69,15-7-2021,
31,Gian,gianm26,,where's the notch?,20-8-2021,
32,Drew Stauffacher,drewstauffacher4,,Mine shows it right now,17-7-2021,
33,Ok,influencerin,,"iOS 15 Hase more acurate data so it’s more likely to be 20,5c(=69f)",19-7-2021,
34,Vodabuy,vodabuy,,Android or iOS ?,19-8-2021,
35,Tristan Lessley,tristan_lessley,,🧢,5-6-2022,
36,💗💗💗_🅜🅔🅔🅔🅔!!!,iiaamm_the_real_kier,,Look it up and ask,15-4-2022,
37,chin4me,chin4me,,Not ‘nice!’ … lol 😝,24-3-2022,
38,Brendon Enders,brendonenders0,,Not nice,21-3-2022,
39,clem 1117,clem____ran,,Is that a oneplus 9?,21-2-2022,
40,kuromatiku,kuromatiku,,LMAO not nice apple,21-2-2022,
41,lethabo0_0,lethabo0_0,,not for some reason😅 we know why😂😂😂😂😭,11-2-2022,
42,user6359026569194,justin.sinjern,,itd because they convert from celcius 69 Fahrenheit is a decimal which doesn't convert. thsts my answer and im sticking to it,9-2-2022,
43,Meru,meru_ti,,😏 are thinking what I think 😏,5-2-2022,
44,bro you mad cute 🥶📸,jonathanfxyt,,My battery is 68 ☠️,3-2-2022,
45,⠀,jjuan999,,i have a iphone and its shows it,29-1-2022,
46,Emmanuel,pennsylvania55,,Apple is just a name.Samsung is the best on Earth..,29-1-2022,
47,Phill Trivisawavate,filthyphilfresh,,Oppo find x2 pro,28-1-2022,
48,Alissa Byrd,brew.birdy,,I appreciate the “Not nice” iykyk type comment at the end 😂😂,24-1-2022,
49,Chris,clee666,,"we use Celsius, so I hope we'll never reach 69!",23-1-2022,
50,Raquel Rojas,raque_ta19,,FoR sOmE rEaSon,23-1-2022,
51,abdallha farage,abdallhafarage,,طاهر القلب 😂😂😂,21-1-2022,
52,Sean Backus,seanbackus,,But I see it so why are you guys saying all this?,21-1-2022,
53,Andrea Giuseppe Pari,ndorlparialorl,,nice,21-1-2022,
54,Negai,negai,,That’s why I love Apple,20-1-2022,
55,Tara,iamtarabull,,My Apple weather app is showing three different instances of 69 degrees right now.,20-1-2022,
56,Lona,lona7103,,"that’s really an american problem lmao, it could never be 69°C",19-1-2022,
57,user99934093694923,zenitramfam,,Mine does show 69,19-1-2022,
58,Keamogetswe Maraba,keamogetswemaraba,,I think we all know why…😏,19-1-2022,
59,Kae,kaedemi,,Why?,19-1-2022,
60,Greg Philippon,gregphilippon,,Not true. I have a screenshot to prove it. Shows 6o degrees in two places on same screenshot.,19-1-2022,
61,Aunt La,grannyoutlawisfedup,,🍎 be truly prudish. Lie about the true temp because of 6th grade bois,19-1-2022,
62,yann desjardins,officialkingares,,bs,19-1-2022,
63,rejoice dube,rejoicedube,,That's coz they know what's good for you!!,16-1-2022,
64,𝚞𝚛𝚖𝚘𝚖𝚜𝚊$$€,3s4ss,,my battery level is 96.,14-1-2022,
65,Aihem,aihem.abd101,,Apple is so halal mode,30-12-2021,
66,Jay.to.funny😂😘,izthatjay_,,There’s no iPhone 9 that’s y,26-12-2021,
67,memesfortheboys123450,memesfortheboys123450,,Why ?,22-12-2021,
68,bad boy,bellygym0,,Miles Morales😑,20-12-2021,
69,murdaboi1,murdaboi1,,naughty 😈,15-12-2021,
70,m3n7asan,m3n7asan,,I have 69 on my iPhone 13 pro Max weather app 😎,7-12-2021,
71,ℭ𝔥𝔯𝔦𝔰,imcalledchris16,,And my iPhone showed 69 at 3 am 😳😳😳😳😳😳😳😅😬,6-12-2021,
72,aids,swadii0,,"They’ve recently changed this I guess, because I checked the weather in the morning once, and there it was, 69 degrees!",29-11-2021,
73,XYZV,yazo32,,"not nice Tim cook,not nice",20-11-2021,
74,SALAR KHAN,salar5533,,may be Apple is Muslim.,20-11-2021,
75,Jr. Graci,jrgraci,,"what weather app is that, looks cool?",14-11-2021,
76,Nic Kosmas,nickosmas,,It now shows 69 in iOS 15,1-11-2021,
77,DarklinG,enixxxer,,Apple : iykyk 😏,27-10-2021,
78,,,,what weather app is that on the Android?,26-10-2021,
79,,,,what about the battery %?,26-10-2021,
80,,,,Lol july 13 is my birthday haha,25-10-2021,
81,,,,I saw you today. Good luck in the championship tomorrow.,24-10-2021,
82,,,,because Tim Apple's first 69 experience was quite bad.,14-10-2021,
83,,,,"We already walked too far, down to we had forgotten why embarked.",9-10-2021,
84,,,,It’s cuz 69 snitched,5-10-2021,
85,,,,change your battery indicator into percentage option and wait,4-10-2021,
86,,,,very security for kids user lol,3-10-2021,
87,,,,Maybe try 34+35 yuhh~,3-10-2021,
88,,,,The Best,2-10-2021,
89,,,,Just round spec.,1-10-2021,
90,,,,ariana grande needs to speak up,30-9-2021,
91,,,,いつもこの人のYouTube見てる,29-9-2021,
92,,,,I literally see my apple weather app display 69 degrees all the time. Lol What are you talking about?,29-9-2021,
93,,,,Tryna create another conspiracy ain’t ya?? 😂😂😂,26-9-2021,
94,,,,Laughs in Celsius 😳,26-9-2021,
95,,,,yeah that’s not a fact,25-9-2021,
96,,,,apple hate that 69 position,23-9-2021,
97,,,,can't wait for them to release the iphone 69,21-9-2021,
98,olivercesu,olivercesu,,hehehehehe yeah boiii,21-9-2021,
99,mehmes_13,mehmes_13,,if the iphone is designed in California. why would some people say it's Celsius based and round up to Fahrenheit,19-9-2021,
100,E,a1l3n______,,apple no fun,19-9-2021,
101,Chatpatai Sumo,chatpataisumo,,Because apple don’t want to 69😂😂😂😂😂😂😂😂😂😂,19-9-2021,
102,Jawadur Rahman,aushoetegny,,because there is iphone 6 but not iphone 9,19-9-2021,
103,❗️,_.cocaina_,,this is where i draw the line im switching to android now 😡,18-9-2021,
104,mi宓มิ미ミمي,mi5m,,someone else has patented the design to display one decimal as 29.8,18-9-2021,
105,Carlos Hernandez Cha,dthirdcarlos,,who doesn't love 69? 😅😅😅,18-9-2021,
106,Novian Suwandi,corneliusnovianeres,,Use kompas app 69 will be available 😅😅,17-9-2021,
107,dontmindme,bzzzzzzzrrrhhheemmm,,what android is that?,16-9-2021,
108,"fikar,",fik.ar_,,mrwhosetheboss already explained it,16-9-2021,
109,Karen Sol,sokreyzii,,I do 69 all the time,16-9-2021,
110,marquesbrownlee6,marquesbrownlee6,,mine shows 69,15-9-2021,
111,xtianyXcode,xtiany,,68.99,14-9-2021,
112,Shane 🦫,kelumkp,,69 is censored stuff,14-9-2021,
113,user,user07636783424577567,,didn't know u had TikTok until now 😳,14-9-2021,
114,kay,robotgobepo,,And that’s on why I don’t want an iPhone,14-9-2021,
115,.,clientele.fboysss,,can you make a video about the Samsung galaxy z flip and fold 3 😁😁😁,12-9-2021,
116,Tenzin Dhondup,nottenzin_dhondup,,android nice!,10-9-2021,
117,Mark Punzal,mark.p_,,not nice,8-9-2021,
118,Saurav Adhikari,sauravadhikari7,,Thats not iphone,5-9-2021,
119,🐟,fishcute_,,beda 1 doank di permasalahin @nizam5563,31-8-2021,
120,kelinci bakar,syamilavicenna3,,apple is type of brand that ain't gonna snitch,24-8-2021,
121,Haz,hazichii,,what about batteries,23-8-2021,
122,ً,drhdzzn,,69,23-8-2021,
123,Lynnw,nguywnlihn,,anyone know the name of the phone on the left?,22-8-2021,
124,Fayed,abcdefayed,,wait what iphone is that ?,22-8-2021,
125,𝔻𝕖𝕩𝕍𝕝𝕠𝕘𝕤ℙℍ,r3tx3d,,Ariana told iPhone to just say 34+35,22-8-2021,
126,bon bon,eq.pampers,,"Also if you ask siri what’s the time in Palestine, it wouldn’t know",21-8-2021,
127,69420,congtibe69420,,they pro'lly skip 4:20 in clock 😂😂,21-8-2021,
128,PDX,pdx_2001,,cancel apple,19-8-2021,
129,Curious Dylan,lazytechnerd,,There’s a lot of 69 here. This is a very nice vid.,19-8-2021,
130,Ashim Pokharel,ashimmpokharel,,Everyone loves 69 but why not apple ?,19-8-2021,
131,MOFT.US,moft.us,,Lmao no 69 hahahhahah,18-8-2021,
132,user875509140469,jetale1949,,Family friendly phone,14-8-2021,
133,Leyna,inluvwithurmom42069,,mine literally says 69,12-8-2021,
134,sarah,ssayyruhh,,i feel like no one is thinking what im thinking,12-8-2021,
135,David,davelouis,,Me being from canada…,12-8-2021,
136,Vijay Balaji Redddy,vbredddy,,My place has 69 degrees on the weather app. 😂,10-8-2021,
137,Cesar Jeovani Zamora,cesarjeovanizamor,,@mkbhd what phone is that one plus you are using there? are u going to review the new 1+ Nord 2?,9-8-2021,
138,ぷりんくれ,haruka_kanatani,,アップルの天気とヤフーの天気の差はなに？ww,9-8-2021,
139,Ryan Ash515,zephyrrayne,,"this is why we can't have ""nice"" things",8-8-2021,
140,NeoBlogKossy,neoblogkossy,,日本の倍！,8-8-2021,
141,Brazkiel Mulcretti,chauko7179,,"Marques, are you using a DSLR or Phone Camera?",7-8-2021,
142,jordan,jrdnlzbthh,,this is not true lol,7-8-2021,
143,Alexander Hawk,alexanderhawk3650,,coz six nine is a snitch,6-8-2021,
144,iCvert,icvert,,Do the apple apple apple apple trend,6-8-2021,
145,bruhpoop25,bruhpoop25,,IOS 15 HAS 69,5-8-2021,
146,bruhpoop25,bruhpoop25,,THEY HAVE 69NOW,5-8-2021,
147,Silver saiyan,silversaiyann,,The ceo don’t like that position 😂,5-8-2021,
148,JackieMoCruzo,jackson.s_23,,why,4-8-2021,
149,loganfinkel,loganfinkel0,,But yet they show it when your phone is on 69%,3-8-2021,
150,Vincent Berger,vinzduturfu,,have you been to a oneplus 9pro or are you still with the 8pro ?,2-8-2021,
151,Luismario Herrera,luismario_525,,I wish my weather app was showing 69 my was saying 96 early today lol,2-8-2021,
152,user4992688995199,jowadigitali,,You are so curious 😁,1-8-2021,
153,Anurag Dighe654,anuragdighe654,,Why… does that iPhone not have a notch? Haha,1-8-2021,
154,Ni Va,niva782,,apple doesn't encourage 69,1-8-2021,
155,I’m better than you.,cadances_nuts,,mine shows 69 three days in a row,31-7-2021,
156,JEREMIAH WOHL,bootncats222223,,what did 69 do to iPhone 😂,30-7-2021,
157,ARHAAN GAMES,arhaangames,,because 69 is a funny number,29-7-2021,
158,Hallo_Welt!,bischi_is_no_dancer,,It uses *C without decimal numbers and scales up to *F,29-7-2021,
159,Dhasirar,dhasirar,,battery percentage? hahaha,27-7-2021,
160,Charlie Williamson,charliewilliamson0,,@hanna.bella6 I think this is unnecessarily hilarious,27-7-2021,
161,Joe,joe_a_o,,The weather widget shows 69,26-7-2021,
162,windowglue,windowglue,,Ok what iPhone is that,26-7-2021,
163,daniel,iamdaniel822,,what phone do u film your tiktocs ???? just have to know😏,25-7-2021,
164,JGYGJN,jgygjn,,Not nice What about 420 tho?,24-7-2021,
165,user4151246594941,saimo_chow,,Whats the name of the app on android ??,24-7-2021,
166,Avaiyak Brower,tuttuman907,,Apple is no fun,23-7-2021,
167,J!nKz,totomuncher,,But why? Do they think we that childish? 😂,22-7-2021,
168,Burgers n fries,uuuh.just.rxn,,"Not true. It’s been a steady 69° in Ann Arbor, Mi for the last four days… wanna know how i know? Apple’s weather app",21-7-2021,
169,Blaine Brown,blainebrown67,,How does your phone’s forehead have a black background? My weather app shows the notch.,21-7-2021,
170,Garrett Fincke,g_nizzle456,,That’s so funny oml,21-7-2021,
171,chilling,xsoccerg,,They have a problem with 6inx9,21-7-2021,
172,Josh Baker,joshbaker885,,@partyshirt let’s goooo,21-7-2021,
173,MenyeMC,menyemc,,apple do me hating on 6ix9ine,21-7-2021,
174,RediculousMike,rediculousmike,,nice,21-7-2021,
175,No one,karl.havoc,,I’ve seen 69 before,21-7-2021,
176,Shreyash Gajam,teslafreak14,,"they don't want it to be a bad influence
if u know what 69 means, then you know why.",20-7-2021,
177,Gabriel,jssmrnd_,,acting like an innocent boi🥱🥱,20-7-2021,
178,jenyyrubyjane,jenyyrubyjane,,ARIANA'S IMPACT,20-7-2021,
179,Gordian BYEKS,byeksb,,cause that will mean it is 69ing temperature,20-7-2021,
180,Naomi,xushihao_o,,Just use Celsius lol,20-7-2021,
181,xlaaron,xlaaron,,cap my phone shows it,20-7-2021,
182,puff noob,puffnoob,,is that celcius or farenhight,20-7-2021,
183,swusdh,swuafg,,what about 420 celcius I want to test it out right now,20-7-2021,
184,Maverick,cbd1982,,Até you getting out of ideas for content?,20-7-2021,
185,Galexygamer127,galexygamer12753,,Mine did,20-7-2021,
186,𝘠𝘰,gdtransrights,,i’m on iOS 69 rn tho,20-7-2021,
187,KC Trilloughby,kc_trilloughby,,Mine says 69 right now. Big capper,20-7-2021,
188,Brittany Turner,theultimateblt,,I def have screen shots with it saying 69.,20-7-2021,
189,Jaceiiiii,jace6600,,Ayo,19-7-2021,
190,Drunk Choir,thedrunkchoir,,my phone's 69% rn,19-7-2021,
191,Austin,austin508,,MA GANG,19-7-2021,
192,Nick,whitekid609,,I’ve seen 69 plenty of times,19-7-2021,
193,TJ Litchfield,tj.litch,,Nice,19-7-2021,
194,Isaac Bjork,isaacbjork1,,"Lmao that’s not true😂. I’ve seen the number on there plenty of times, u just probably don’t check it as often as me or sum",19-7-2021,
195,M1600,brzxy600,,What are you talking about my iPhone litteraly said 69 last night,19-7-2021,
196,Manuel Areche,manuelareche4,,bro I live in boston,19-7-2021,
197,Justin Kamara,yoboijustin76,,69,19-7-2021,
198,Pereguetes,pereguetes,,Usem o sistema métrico e celsius,19-7-2021,
199,TraceyF,mzdarkchocolate,,Will it show 96?,19-7-2021,
200,😍🔫❤️,luv.annalise2,,This is so 🧢,19-7-2021,
201,Mido.Nabil,m7md.nabil007,,respect 📈📈📈😂😂,19-7-2021,
202,αthαrvα 😈🐻,atharva.fencing,,LOL,19-7-2021,
203,SKETCH,sketch.edits,,69 lol,19-7-2021,
204,Grey Fowler,greyfowler6,,It can say it in the widget for the app,19-7-2021,
205,Lebron james,prince53143,,Cap my phone said 69 4 days. Ago,19-7-2021,
206,Yeab,imnotyeab,,He didnt refresh 😭,19-7-2021,
207,Alejandro Gongora,alejandromcloving,,Because iPhone is not a snitch 😬,19-7-2021,
208,Portablendr,officialportablendr,,"apple is not very ""n i c e """,19-7-2021,
209,BryanG,itsbryang,,apple aint no simp,18-7-2021,
210,oO Riku Oo,oorikuoo,,Hopefully it wont show 420 either,18-7-2021,
211,Ethan Cisco,ethancisco,,false. my phone is also 69,18-7-2021,
212,paesangeorge,bdch10,,Why does your iPhone weather app have black bars on top?,18-7-2021,
213,Bo Thai,youngsushigod,,This is 🧢,18-7-2021,
214,Michael Charles,michaelcharl.es,,“Some reason” 🤔,18-7-2021,
215,Pяιτaм βнμvα,rxbhuva,,maybe you need to watch mkbhd's video on YouTube,18-7-2021,
216,Kevin Williams,officialkevinwilliams,,That’s 🧢 cuz I’ve literally seen 69 degrees on my iPhone smh 🤦🏾‍♂️,18-7-2021,
217,User10101101,badroom8,,"its ciuz the weather cant 69, duh. the nerds at apple know this😂😁😅",18-7-2021,
218,Brian Russell,spoonmoonchair,,This is not true,18-7-2021,
219,RETURN__TO__MONKE,return__to__monke,,*procceds to buy android*,18-7-2021,
220,user4758925971240,dadyfatsaxxx,,South Australia rn,17-7-2021,
221,JNEFFF,jnefff,,So they’re lying,17-7-2021,
222,galaxylorde,galaxylorde3,,tekashi will be sad when he'll find out about it,17-7-2021,
223,ramona,ramonapetersonx,,My forecast says it all the time,17-7-2021,
224,Jonathan Nguyen,jnguyen925,,it's rated PG-13 😅,17-7-2021,
225,Yahweh the almighty,yung_urinal_shitter69,,Nice,17-7-2021,
226,Hek,yodaflow,,My Apple weather widget says 69,17-7-2021,
227,Shkebble,shkebble2,,Cap,17-7-2021,
228,Awesome_Adam,awesomeadam1717,,They did like last week,17-7-2021,
229,Yannick 야니크,yannickburky,,"""some reason""",16-7-2021,
230,ME_THICc,me_thick,,"""INTENSE AMONG US MUSIC PLAYS""",16-7-2021,
231,Karl Luis Dalampasig,karldalampasig,,Not noicee,16-7-2021,
232,Papa P ❤️,papahpee,,iphone is a innocent phone 😂,16-7-2021,
233,Ghost face cult,footty.hub,,69,16-7-2021,
234,Jordan Anthony Smith,jordananthonysmith,,You know why. 😏,16-7-2021,
235,Mohanned Ekari,mohanned_ek11,,Sad Kevin noises.,16-7-2021,
236,FadeBandito,not_moobop,,Why’s it 69 (nice) degrees in the middle of July,16-7-2021,
237,ticvik,ticvik,,what android weather app is that?,16-7-2021,
238,AMP,ampthebassplayer,,Prudes,16-7-2021,
239,Oscar,sarainthebackyard,,Then why does it show 69 when that’s my percentage 🧢 And I just searched up the temperature for Boston recently and it said 69 someone cappin 🧢,16-7-2021,
240,Jack of all Trades,jackofalltradesx,,Yeah. For SOME reason haha,16-7-2021,
241,Rozh S.,rozha9,,what's that android phone???,16-7-2021,
242,James 🦦,ebayscam,,isn’t this actually bad because it’s inaccurate?,16-7-2021,
243,Andrew Hanson,andrewhanson__,,I wonder if it’ll show 420°,16-7-2021,
244,Whatharsh,okiedonky,,Nerdphone it is,16-7-2021,
245,Adrifter3,adrifter3,,@partyshirt yoooooo,16-7-2021,
246,arya patel,aryapatel99,,Because apple hates 69,16-7-2021,
247,Zay,zaywitthacurlz,,I ain’t ever peep that 😂,16-7-2021,
248,Mr8mazing Playz,josh_jarrett69420,,I’m on iPhone lol on Thursday it’ll be 68 degrees,16-7-2021,
249,SL Productions,slproductions1,,This is cap,16-7-2021,
250,Alexis Gonzalez-Puga,alexisgonzapuga,,GET YOUR CAPS HERE SELLING FAST 🧢🧢🧢🧢🧢🧢🧢🧢🧢🧢🧢🧢🧢🧢🧢🧢🧢🧢,16-7-2021,
251,Scott Reacher 🎃,scottreacher,,this is why I don't use apple. 🌝,16-7-2021,
252,lilmil,lilmilontiktok,,Not true,16-7-2021,
253,Lucas,martinsluuu,,kinda sus,16-7-2021,
254,Rowan,rowan..31,,I live in boston!,16-7-2021,
255,roberto,roberto_0819,,i’ve seen 69 😭,15-7-2021,
256,Brandon,herewegrow,,It's said 69 before,15-7-2021,
257,Kay Be,kay.be_,,Bruh.,15-7-2021,
258,Chiia sharif,chiiasharif,,That’s why I love iPhone,15-7-2021,
259,Javi,jj.a.v.i,,Apple needs to grow up,15-7-2021,
260,nis,wyattwoodalll,,apple we had a good run but now I know samsung is better,15-7-2021,
261,Symeøn,symeon_simon,,nice,15-7-2021,
262,Alina 😝,alina_albuja,,Go to the six flags weather. It’s right there,15-7-2021,
263,Alina 😝,alina_albuja,,Um yes it does,15-7-2021,
264,David Duran,davidduran0804,,69,15-7-2021,
265,I'm a peace of shite,peaceofchit4,,hey it's the from the honey ad,15-7-2021,
266,Flammy,_ur_meme_dealer,,The apple app weather app doesn’t even work it’s pretty inaccurate,15-7-2021,
267,R R,bkruso,,They conver from Celsius and there is no direct conversion for 69 in Fahrenheit.,15-7-2021,
268,Palmbeachmadetay,palmbeachmadetay,,King vons soul is in that phone,15-7-2021,
269,AJ Sharp,aj901_,,Nice😂,15-7-2021,
270,Culture Glitch LLC,cultureglitch,,I have 69GB,15-7-2021,
271,Bamso,basssaid,,Illuminati thingssss,15-7-2021,
272,F V,howcaniassistyou,,Hehe 69!!,15-7-2021,
273,漂流ｖ（＾＿＾ｖ）♪,rainy6912,,Cap. My 69,15-7-2021,
274,theogdumpyfumper,theogdumpyfumper,,“for some reason” boy you know why😑,15-7-2021,
275,Noah,noahg_2,,Mabe apple doesn’t like Danny Duncan,15-7-2021,
276,Amos_79,lil_papaya2,,Biggest L,15-7-2021,
277,jack,jack919191,,No I got it before on the widget I have a screen shoot too,15-7-2021,
278,MasnuunsMC,masnuunsmc,,69 is something bad,15-7-2021,
279,phantomcruze,phantomcruze,,nice,15-7-2021,
280,Ancient Crucifix,mrricosuave7,,apple = 🗑,15-7-2021,
281,Vanderbeeb,vanderbeeb,,It’s always 69 degrees in Boston amirite?,15-7-2021,
282,Xander,xander.r55,,cap i take screenshots every day it’s 69°,15-7-2021,
283,angeliz,notangeliz,,mine does,15-7-2021,
284,Cayd’n.,piggysmallz2,,34 + 35 can explain that in a few lyrics,15-7-2021,
285,Bruh,tx.ivxn,,Bruh,15-7-2021,
286,dinosaur hop from chrome,dinohopofficial,,nice,15-7-2021,
287,Jordan Harris,jordanlharris12,,"It also won’t say it’s 65 or 71 degrees, but those are less meme-able.",15-7-2021,
288,Doodie Lo,sheeshmcgee_,,Bc iPhones sophisticated 😏,15-7-2021,
289,user9384181936707,bedaiwirafael,,Nice😏,15-7-2021,
290,Ryan,rericyan,,It shows -69 in Antarctica.,15-7-2021,
291,🇪🇸🤝🇫🇷🤝🇮🇹🤝🇹🇩🤝🇵🇹,_alex__rs_,,are you going to cry for 1°,15-7-2021,
292,Thai Le,thaile061,,lol bull,15-7-2021,
293,yerneropanda,yerneropanda,,Ive seen 69,15-7-2021,
294,Mally3D,socagiantmally_3d,,"so what your saying is iphone is never ""Nice""",15-7-2021,
295,Neylag,zeelag,,When they start canceling numbers 😂,15-7-2021,
296,Stuart Davis,stu_dog22,,My respect for Apple 📉📉📉,15-7-2021,
297,Ray Zuniga,user1487945344368,,Someone in Apple had a bad experience,15-7-2021,
298,Top of The Morning,topofthemorningg,,That’s cap,15-7-2021,
299,adam,adamlamk1,,my iphone is showing 69 as the low for monday in franklin lakes nj right now,15-7-2021,
300,Max,.1c00kie,,London is 69°F right now,15-7-2021,
301,VOID💜INFINITY,vo.0id,,he he funny number,15-7-2021,
302,Hi.,_b_a_t,,My iPhone has shown 69° so that is false.,15-7-2021,
303,nathan,naethn,,Nice,15-7-2021,
304,Kyleigh Davis,thekyleighdavis,,Oml they are being so overprotective about it 😂,15-7-2021,
305,DevonStallings,russianboi07,,my phone never says 420 either😡,15-7-2021,
306,Kyle Nelson,kylenelson35,,It showed 69 I just looked no cap,15-7-2021,
307,Jayce Stolworthy,jyworthy2,,It’s cap mine says 69 rn,15-7-2021,
308,lowercaseguy,x_lowercaseguy,,It does go 69 every phone has a slightly different temperature,15-7-2021,
309,Kyle Daley,daley_comedy,,I have a photo in my iPhone that says otherwise,15-7-2021,
310,⠀ ⠀ ⠀ ⠀ ⠀ ⠀,..ryan_,,🧢 CAP,15-7-2021,
311,👁👄👁,broccoli594,,69,15-7-2021,
312,Actualsecond,actualsecond,,For somw reason 😂,15-7-2021,
313,Harry Potters Sorting Hat,griff_the_riff,,Cap and a half,15-7-2021,
314,Bretton Anderson,brettonanderson,,They just don’t wanna except greatness,15-7-2021,
315,LousyEwe,lousyewe,,I'm pretty sure it takes the Celsius temperature and translates it to Fahrenheit which doesn't translate exactly and either rounds to 68/70,15-7-2021,
316,watch sgt frog please,koyukiazumaya,,literally 1984,15-7-2021,
317,Ethan Mogan,ethmogan,,Hehe the funny number,15-7-2021,
318,erti resuli,erti655,,what android weather app was that?,15-7-2021,
319,Alex Conrad796,fastidioussheep285,,69 funny number,15-7-2021,
320,Tim Fobes,tfobes_discgolf,,Currently watching this while my phone is on 69%,15-7-2021,
321,Numaa,itsnumaa,,I guess what the reason is…,15-7-2021,
322,Ike,calebike,,"That’s literally not even true, I just went to look at my weather app and it had a 69",15-7-2021,
323,LucidApple,lucidapples,,My default weather app literally said 69 this morning.,15-7-2021,
324,Waffles,mersanery,,It's probably not intentional. The app is likely measuring the temperature in C and converting it to F. This would skip 69 when rounded,15-7-2021,
325,WillBoTheBillBo,willbothebillbo,,“Not nice”,15-7-2021,
326,N.manaumen,your_a_pinhead,,You won’t get 67 either,15-7-2021,
327,muhfuckinuhhh,_no_og_,,nice,15-7-2021,
328,Kind cooler,kind_cooler,,Nice,15-7-2021,
329,Abraham Magana,muninbandana,,What about 666 degrees?,15-7-2021,
330,danielszcz122,danielszcz122,,Cap,15-7-2021,
331,syelent,syelent,,not cool apple,15-7-2021,
332,alphadreamzero,alphadreamzero,,because apple is soulless and devoid of whimsy/fun,15-7-2021,
333,Hamit Al,xiaofam,,I was born February 30th 1969/6/9 and I couldn't find that date on my iPhone.,15-7-2021,
334,Isaac jnr,isaacjunior_ij,,*FBI* open up,15-7-2021,
335,Stiles,100mph100,,"Cause android a snitch, iPhone don't wanna be one 💀🔫🤷🏾‍♂️",15-7-2021,
336,ilikemoney42069,ilikemoney42069,,That’s not nice,15-7-2021,
337,Samuel,samuell3e,,Just put the iPhone upside down and it will show 69😂,15-7-2021,
338,SteveC,cstevecs71,,Checked everywhere and don’t see 69,15-7-2021,
339,Hert,hertwashere,,Apple is too PG,15-7-2021,
340,Travis,tcolemanre,,Mine has 69° in the widget but I open the app and it’s 70° 😳,15-7-2021,
341,mcclaine.b,mcclaine.b,,They know why 😏 Mahahaha,15-7-2021,
342,Dylan Heinecke,dylan_sux,,oooh,15-7-2021,
343,𝗗𝗔𝗠𝗢 𝗘𝗡𝗥𝗜𝗚𝗛𝗧,damoenright,,nice,30-7-2021,
344,zahara__sophie,zaharagamer,,omg I laughed so hard,20-7-2021,
345,yey,wottah,,69,16-7-2021,
346,TheMick,theentnone,,WHY THE HECK ARE THEY DISRESPECTING THE …… ……… POSITION 🛏 😏,31-1-2022,
347,Phondroid_ Uz,phonedroid_uz,,Just join my technical channel😉,25-12-2021,
348,nanaz.rama,rama.redy,,not nice,16-9-2021,
349,Rey Betlougin,itsmeurfafa,,Sixtyninegate 💀💀💀💀,14-9-2021,
350,trevor morrow,scoobysnax350,,not nice,12-9-2021,
351,Atom ⚛️,litzenberger,,“Not nice!”,11-8-2021,
352,danny,putin4201,,throw apple products in the bin*,9-8-2021,
353,DontfindmyTikTokpage,unsatyre,,Not nice,8-8-2021,
354,Kev Rod,kiro195,,not nice,23-7-2021,
355,Death,romanregins919,,Cause he snitch,22-7-2021,
356,jestro smitski,noobmasterbloodniddirty,,because 9 is a bad number for business that's why there is no iphone 9 i guess 🤷,20-7-2021,
357,Tryston Sauls,afro.naut,,iPhone is anti-fun and anti-seggs confirmed,20-7-2021,
358,lukasmosegaard,mosegaard_,,How many phones do u have,19-7-2021,
359,Jeymi Moran,drfish3,,I wanted to comment or message you but they don’t allow pictures but my iPhone says 69 on my weather app and I have an iPhone,18-7-2021,
360,Zoltronic,zoltronic,,not nice,18-7-2021,
361,sjw,your_new_sjw_waifu,,Not nice,17-7-2021,
362,connor may,cmay_04,,not nice,16-7-2021,
363,Globetrotta,globe_trotta,,Apple isn’t nice,16-7-2021,
364,Henry,henry15609,,bru thats bs,15-7-2021,
365,Jus Jael,jus_jael,,not nice,15-7-2021,
366,Gatsby 🐕 & Amelia 👩🏽‍🦱,agirlandhergolden,,Mine shows it. This is a lie,15-7-2021,
367,voqz,voqzmk2,,not nice.,15-7-2021,
368,Debased Pixie,debasedpixie,,Apple also took MY music off my phone! F ing C’s!!!!!,15-7-2021,
369,bigboi_mato,bigboi_mato,,not nice😭😭😭,15-7-2021,
370,Ekassis,ekassis_mc,,Not nice 😂,15-7-2021,
371,Pootybooty,zzzwwwz,,Nice,15-7-2021,
372,The Daddy Of The Constitution,real_james_madison,,Hot,15-7-2021,
373,Mitch_Rich_,mitch_rich_,,Fake,15-7-2021,
374,LEORWOLF,leorwolf,,this is why elon is better 69420,15-7-2021,
375,Bizza Planet,bizzaplanet,,Will the battery show 69% charge though or do iPhones just shut off below 70%? 😳,16-7-2021,
376,a.my.knee,a.my.knee,,Some guy @masp_tech is ripping off your content. Just thought you should know!,23-8-2021,
377,user9618639782335,forsakenreader.following,,It’s because they round the Fahrenheit to the nearest decimal as it’s converted from degree,26-7-2021,
378,Sibo🫧🪸🐠,sibo.anderson,,Mine shows 69,29-1-2022,
379,Z-guy,intensefondu7,,pathetic,23-9-2021,
380,Shahrul Manap,shahrolds,,Eww android,24-8-2021,
381,flore,fourlore,,they just never got any suc suc,15-7-2021,
382,JM,the__swordsman,,Fake,23-1-2022,
383,RatCliff,opinionrat,,Because that Bill and Teds number.,23-1-2022,
384,Steffan Gresham,steffangresham,,Ridiculous,19-1-2022,
385,Jeremy Brown,whiskeyvictor,,Cap. I just looked up Cancún and it showed 69 all over the place.,19-1-2022,
386,Jon,jgianlu,,Cuz apple ain’t no snitch😤,18-1-2022,
387,echutaa,echutaa,,this is because of a rounding error from converting c to f,26-10-2021,
388,Padmeishot,somethingsintheway_hmm,,its because apple user never experienced it,24-8-2021,
389,mr. potato head,brymrtnzzz,,they can just put 34+35 though,21-8-2021,
390,raja.queen8,gaming.intensifies,,Nice,20-7-2021,
391,Cole,c.double.p,,uh my iphone just said 69° yesterday,19-7-2021,
392,David Pino,davidpino37,,My says 69 for tonight at 10,15-7-2021,
393,kei,kei915tic,,なんでやろなぁ（ゲス顔）,9-8-2021,
394,Jessica S Klocek,jessicasklocek,,That’s dumb and false,18-7-2021,
395,Fodor Levente,fodorlevente3,,69,29-1-2022,
396,おまＱ進撃例え中,omaq29_aotcompareman,,下ネタはダメなんだ,17-7-2021,
397,NIFFZY,niffzy,,iphone sucks,16-9-2021,
398,That Tech Kid 🤪,joshmercadotech,,Wtf lmao 😂😂🤣 😂,15-9-2021,
399,Cuk,swearitzasher,,Huh that’s weird never noticed (I live in Florida btw),30-7-2021,
400,Roberto Caminos,robertocaminos,,That’s about as weird as saying Batman doesn’t go downtown,20-7-2021,
401,steveniidatx,steveniidatx,,False,16-7-2021,
402,name less,nameless735,,False,16-7-2021,
403,𝔐𝔢𝔪𝔢 𝔅𝔬𝔰𝔰,french_on_a_bench,,I live in Germany so I don’t care 😂😂,15-7-2021,
404,Sus,garlicbread.60,,False,15-7-2021,
405,🦄,im.not.funny.lol_,,it’s the fake weather app for me,15-7-2021,
406,I’m a slave owner 🙂,skoopy93,,But why tf would i need to know the exact temp all i need to know if its under 60 i need a coat,15-7-2021,
407,Doge_2007,doge_2007,,Bro that iphone looks fake,15-7-2021,
408,Amanda,a.mandalynn,,@scrapcats insane. sexy number too scandalous.,22-1-2022,
409,tim,tims.tiktok.56,,not true i have a ss of it saying 69 degrees,18-7-2021,
410,maddie g.,maddiegriegooo,,"i have a ss on my phone of it saying 69 degrees, this is cap lmao🙈",16-7-2021,
411,‼️,barretterry,,nope my cousin's who lives in Boston said it a few days ago and sent a ss to my sister,15-7-2021,
412,Steve,therewerenogoodonesleft,,Never attribute to malice that which is adequately explained by stupidity. It’s a rounding error cause by C°->F° conversion.,15-7-2021,
413,Hridesh,hriiiiiiii28,,My shit say 69,6-8-2021,
414,Tony West,tonywest2k14,,Apple has a dirty mind,23-7-2021,
415,user5087413384389,tiktokguidelinesacts,,69 is for rats,18-7-2021,
416,Andrew Demoleas,andrewdemoleas,,Stupid post. Not true,15-7-2021,
417,0,tdotsuxy,,Damm they hate 69 that bad,15-7-2021,
418,I’m better than Gordon Ramsey,thecookingduck,,Fuck apple im getting Samsung,15-7-2021,
419,Sam Fairchild,zeroxces,,apple needs to go out of business and lose everything,15-7-2021,
420,ec,edddwn,,"Because every other place uses the metric units, not imperial",19-9-2021,
421,Hmm Ok,taktaumauapausername,,nice weather temperature number,19-9-2021,
422,Eugene,the_eugene_ang,,Apple made the touchscreen phone also known the modern day handphone while android is a follow up.😳,12-9-2021,
423,Put Caleb,cnwy95,,Cause Apple too dirty minded. They can’t see 69 as just a number,21-8-2021,
424,_(┐「ε:)_ﾊﾟﾀﾝ,user.nyan,,I think 69 is adults word. so apple don't say 69 ?B-),16-8-2021,
425,김 리키,rickykim06,,Tim Cook had a bad experience with a gay lover when they did 69. So he band it not wanting to be reminded.,15-8-2021,
426,Pedrothegreatone,pedrothegreatone,,"As an avid Apple consumer I’m happy they did that, I would not be able to handle seeing the number 69",2-8-2021,
427,Alex danser,alex.danser,,"It might be converting Celsius to Fahrenheit, and then rounding it to 70",22-7-2021,
428,Whisperboom,whisperboom__,,Apple always has some weird shit,22-7-2021,
429,Adam Beberness,mrxirtam,,Yet how many screenshots are there of iPhone text auto corrects to sexual innuendos?,22-7-2021,
430,TAKKASHI06,takkashi06,,"On Jamaican television when a KFC commercial comes on they blur out the finger and the licking in the ""it's finger licking good"".",21-7-2021,
431,Isaac Roz,isaacdawizard,,"can we stop with the iPhone VS Android bs? its preference. If you still have to text it out that your operating system is better, then youre insecure",21-7-2021,
432,tipssavvy,tipssavvy,,Most likely Apple is just showing the data received from the weather app which is not owned by Apple but The weather channel - did you try checking,20-7-2021,
433,Blue Cobalt,bluecobalt,,yeah this means a bunch of snowflakes complained about it,20-7-2021,
434,Ryan D. Matzner,mtznr,,Conversion from Celsius raw data + rounding fractions,20-7-2021,
435,inF1nity731,inf1nity73137,,That’s stupid,19-7-2021,
436,Akhil 🦅 :),akhiloneal77,,Because no one likes 6 9,19-7-2021,
437,seb,seb.monte,,yooo never realized you were a local bostonian,19-7-2021,
438,John Syders,ihatedolo,,This isnt true at all ky it hine showed me 69 degrees today lmfaoo stop the cap,18-7-2021,
439,Vee Padilla,veepadilla2,,"I checked at 11pm and there is nothing below 75, gotta love CA",18-7-2021,
440,Doogie,notdoogie,,@pogoplayer2 I smell some cap,18-7-2021,
441,Le Banana,stopmotionsickness,,Well it’s always hot as hell over here so it doesn’t matter.,17-7-2021,
442,ThatOneGuy,itsjusthat1guy,,dude last night my iphone showed 69% humidity :/,17-7-2021,
443,OLANY,the_olany,,Apple is anti-Musk,16-7-2021,
444,Kiowa Native Nerd 🇮🇸,kiowabrave,,Oh no a whole degree what a tragedy,16-7-2021,
445,user9919952585854,faaaloalo,,Steve Jobs would be disappointed,16-7-2021,
446,Prince Anomaly,breezix.my.guy,,Oh it’s because censorship at Apple headquarters. They can’t have sexual innuendos in kid friendly products such the products provided by Apple.😐😑😐,16-7-2021,
447,Luffy,monkyd.luffa,,Anti funny number,16-7-2021,
448,Ian A,p0150n3r,,It's because Apple doesn't fuck.,16-7-2021,
449,DatCreepa,datcreepa,,How are you aliv- oh right Fahrenheit exists,15-7-2021,
450,ba$ed,werallgonnadie,,americans are so pressed,15-7-2021,
451,jonathan van Oudheus,jonathanvanoud,,apple is such a boomer company a lot of the time,15-7-2021,
452,Phil Miyup,yourdaddybuster,,Wow! You care so much ab 1 degree of weather like what is that gonna change?,15-7-2021,
453,Isaac,topaz5942,,mark ass brownlee,15-7-2021,
454,Ollivander,portnoyisaclown,,boston is garbage.,15-7-2021,
455,Mass Potential,masspobeats,,The other day it was 12:69 but the dumb ass iPhone said it was 1:09!!! Like wtf??,15-7-2021,
456,Naked Noah,nakednoahh,,They are trying to censor the most fun position…I…mean number.,15-7-2021,
457,Emma Abban-Mensah,eabbanmensah01,,Maybe they don’t like the number 69.,15-7-2021,
458,Lance Neukirch,thetiktokcurmudgeon,,there's a long list of missing Fahrenheit numbers from Celsius conversion and rounding,15-7-2021,
459,Faked53extape,sorryimgreat,,Apples some losers,15-7-2021,
460,TechWalk,techwalk,,Damn😂😂,4-9-2021,
461,eric,groxxyfm,,wheres the nice chain,27-10-2021,
462,Marco,marco37984,,@miriam.lnd,16-7-2021,
463,robkai0423a,offical_bruh_moment,,@sunshine52007,22-7-2021,
464,🥱,nyc.jonyy,,@bbdismylifeforever,10-8-2021,
465,gastongwapo,gastongwapo,,@alyurbaby,19-9-2021,
466,marnus is daddy 669,gilzzy_gliz_muncher,,@no_youre_nosey_lol ;),12-8-2021,
467,malooshie pie,malooshie,,@taniabarg,21-1-2022,
468,🖤Savannah🖤,savannahyvonne97,,@frostwolf52,27-9-2021,
469,Kayden⚡️,lds_kayden,,@leila.rose3,29-12-2021,
470,Diego,po1ntdos,,@yvng6io @ferret_48 @cosmicyt62,15-7-2021,
471,The Dark Knight 🦇,cm_punk_fan_boi,,@suzukionari,12-2-2022,
472,user6359026569194,justin.sinjern,,@mrwhosetheboss,9-2-2022,
473,K3v1n,k3v1n711,,@why_joshie 😳,24-1-2022,
474,ashaaaleedix,ashaaaleedix,,@dixont26,20-1-2022,
475,𝙰 𝚕 𝚒 𝚗 𝚊,aallliiiiinnnnnaaaaaa,,@jasmine_74,29-12-2021,
476,Dud,dudthe1,,😏😏😏😏,3-12-2021,
477,cena_shahbazi,cena_shahbazi,,🤣😂,4-11-2021,
478,🕋🕋🕋,wn_muhammad,,@iqramyun @aaqwamm @adillle,18-9-2021,
479,user8525674725690,awunaler1775,,😍😍,24-8-2021,
480,MK Lim,mklim5,,@h3nrpny,21-8-2021,
481,emman,33mm44n,,@vnqel,20-8-2021,
482,shrey_stha,shrey_stha,,😅,6-8-2021,
483,Jelle Dresselaers,dreslerj,,🤣🤣🙂,6-8-2021,
484,Walmart bag,jon_isnotcool,,@davetheminion6,4-8-2021,
485,Krislyn Stock486,krislynstock1,,@partyshirt,2-8-2021,
486,Hunter,lemonzrhot,,@lemonzrhot,27-7-2021,
487,cat,zmodpz,,😂,21-7-2021,
488,Will,w_tessmer37,,@partyshirt,21-7-2021,
489,Carson Kesler,carsonkesler,,🧢,20-7-2021,
490,nate,ntelool,,@bubblecuddlez,20-7-2021,
491,boo,b00oo0,,@dinamarefatpour .,20-7-2021,
492,j_fezz_,j_fezz_,,🧢,17-7-2021,
493,Dalton King,king.dalton11,,@polkdog2k5,17-7-2021,
494,zachh,zac_attackkkk,,@mickl3e @fiona._zhou @brispiss,17-7-2021,
495,maxwell,maxmarschke,,@partyshirt,16-7-2021,
496,Yash Narang,yashab_,,@apple ???,16-7-2021,
497,Eric Thompson,ericthompson312,,@cautionrl,16-7-2021,
498,Andrewhahalee,andrewhahalee,,Happy children's day,13-7-2021,
499,Nordic Seas,nordicseas,,It's because of the celsius conversion and rounding,14-7-2021,
500,Michael ☁️,mjdjr04.raw,,That’s lowkey funny,13-7-2021,
501,ты подоконник,mushhhroom27,,😏,14-7-2021,
502,peskybird,peskybirb,,1 more reason not to use iphones,14-7-2021,
503,Jedd,projeddrunway,,lol this simply is not true,14-7-2021,
504,Dumb!,homoshreksual,,My low is 69° rn,13-7-2021,
505,atawenjjemohammed,tawnjje,,"Pin this
　 ＼＼
　　 ＼( ͡° ͜ʖ ͡°)
　　　 >　⌒ヽ
　　　/　 へ＼
　　 /　　/　＼＼
　　 ﾚ　ノ　　 ヽ_つ
　　/　/
　 /　/|
　(　(ヽ
　|　|、＼
　| 丿 ＼ ⌒)
　| |　　) /
ノ )　　Lﾉ
(_／",13-7-2021,
506,Fake Dude,fakedude0,,lol,13-7-2021,
507,ٴٴٴٴ,loatdm,,Maybe bc of what 69 means 😏😂,14-7-2021,
508,everyone,.imloop,,just get accuweather lol,14-7-2021,
509,Yuzuru,6trashy9anime,,this is cap,14-7-2021,
510,Qwuw,florianiemand,,@maxje010nl stom,14-7-2021,
511,Liebe und Lebemann,kaeferberg_londsaer18,,Just use Celcius,14-7-2021,
512,Ryan,ryantherozzzz,,Injustice,13-7-2021,
513,Kellan Parker,kellannoahparker,,I've seen 69 all the time. Maybe you should move,14-7-2021,
514,SirSquattyPotty,sirsquattypotty,,You a damn lie. Mine says it right now,14-7-2021,
515,e.nigma,enigma237,,I guess they hate comedy,14-7-2021,
516,maddoxgmfb,maddoxtyb,,they don’t f*ck wit snitches😤,14-7-2021,
517,deanna,https.deanna.com,,"I see 69° all the time. Also, why is the android correct when the two are different?",14-7-2021,
518,Muneer🇵🇸,flash2focus,,Siri also doesn’t recognize Palestine but Google does. Just ask both devices what time it is over there and you will see,14-7-2021,
519,weg egtr,wegegtr51,,Ne diyor?,13-7-2021,
520,zaha,zaha_as,,"it all about metric system.
69f=21.8c
so i guess they rounded it up",14-7-2021,
521,Lennin Iriza,lenniniriza,,@unstraight3,14-7-2021,
522,aqusy,aqusyfn,,@kriscrack111,14-7-2021,
523,John :),dontbelieve_kohn,,@moitenzin 69 haha funny number,14-7-2021,
524,LeasingArc956,leasingarc956,,Alaska today has the number 69,14-7-2021,
525,Nathan,riskypancake555,,that's not true,14-7-2021,
526,It’s a no for me,chul0tv,,"This is fake af, he just got the moment where It didn’t say 69* for once. 😅",14-7-2021,
527,Dean Rakieski,deanbean06,,That’s no true,14-7-2021,
528,Alex Cavallucci,cava789_,,Mine just doesn’t ever say the correct weather lol,14-7-2021,
529,Space Elevator881,spaceelevator,,It also never says 69 outside of America,14-7-2021,
530,J Sloan1332,sloan1332,,unnecessary that their programers even thought that that would be an issue on a weather app. Some people just aren't right,14-7-2021,
531,I’m that Guy 👉🏻🤠,bbqboy_qc,,69 69 69 69 69 69 69 69 69 69 69 69 69 69 69 69 69 69 69 69 69 69 69 69 Sent from my IPhone,14-7-2021,
532,𝐸lijah♾️,luv.scott,,It’s cause apple ain’t no snitch 😂😂,14-7-2021,
533,son,satriabagusaji,,"fun fact: why he's not using weather app from samsung, because samsung's weather app now contain ads, why @samsung why???",14-7-2021,
534,Jarvin Photography,jarvin_hernandez_503,,Is over 100° here tho😅,13-7-2021,
535,Bruhapps,lucasapa420,,Shit dawg I can’t find 69,14-7-2021,
536,Yoosh,vegetarianawesomeness,,Not very nice is that now apple,14-7-2021,
537,user3554451985923,dave_di_,,@seriouslybreezy,14-7-2021,
538,user8700009861069,user8700009861069,,And 88?,14-7-2021,
539,Aur sna,aur_sna,,what phone is that on the left,14-7-2021,
540,Chris,twokoolchris,,Cause Apple is gay,14-7-2021,
541,Clark Dabu,clarkdabu,,Because it's the funny number 😈😈,14-7-2021,
542,Venatticc,venatticc,,iphone is holy,14-7-2021,
543,Alex Hanson,oldvintage98,,Myth confirmed,14-7-2021,
544,user8381040046699,bipolar.expresss,,The trick is to put it to military temperature. Mine says it’s 69.420°F,14-7-2021,
545,Paul,pwablito,,My iPhone says it’s 69 degrees right now.,14-7-2021,
546,Eric VandeVelde,e_vande111,,@darrensmith7s,14-7-2021,
547,Chrisseyrey,chrisseyrey,,Samsung’s are better?,14-7-2021,
548,Jonathan Morris,jonathan_wellington,,LMAOOOOOOOOO 😂😂😂😂,13-7-2021,
549,.,slappy_duck2,,What does 69 mean,14-7-2021,
550,kirkdouglassd,kirkdouglassd,,I love apple but this is some straight up bullllllsheeeeez,14-7-2021,
551,ace1108,ace1108,,Not nice,14-7-2021,
552,アルンバラル,arunbaral,,Steve hates 69😂,14-7-2021,
553,Dose,whoisdose,,SOUNDS LIKE CAP,14-7-2021,
554,Dylan Brenner,dylan_brenner,,There’s 69 like four times in mine RN 😂,14-7-2021,
555,Gabe,gabe_crumb5,,I work at Culvers and we don’t have a number 69 on any of our numbers,14-7-2021,
556,asrithradizwon,asrithradizwon,,Cap,14-7-2021,
557,Nooneysestheletterjanymore,slashboi21,,Android is better because it’s sexual,14-7-2021,
558,Imran Ahmed,imran_ahmed06,,@khadijaxhossain @arif_1z @zayns.backup @ur.local.somali.bae @amz..1 seems like Apple is gay.,14-7-2021,
559,Thanks for 40k 😁,joelmicheal2,,For some reason 😏,14-7-2021,
560,Tic Tac,tiktakxyz,,its because they want to be cooler than other phone 😏,14-7-2021,
561,Karim,karimt098,,Plot twist: the temperature is never 69 and any other weather app has been lying to us our whole lives except apple,14-7-2021,
562,Joel Courtney,joelcourtney72,,Mine says it will be 69 degrees at 4 am,14-7-2021,
563,Zara's Hot Boyfriend❤💍,timothy_eleazer,,@itsmezecs,14-7-2021,
564,Ketchup2829,ketchup2829,,This is quite immature of apple to have this,14-7-2021,
565,Anthony DiTota,anthonyditota3,,My battery is never at 69% either🤔🤔,14-7-2021,
566,Matthias Herzberg,matherzberg,,Fake news 📰,14-7-2021,
567,King of 👨🏿🐒,th3_rayank,,69,14-7-2021,
568,SirRufus,4doors.more.whoress,,Imagine showing 69 degrees on outside us country 🥴,14-7-2021,
569,UNTOUCHABLE,omgitsdjbonfig,,69 that's my code if you know what I mean anyway 69 that's my baaaby if you know what I mean anyway I'ma out of here,14-7-2021,
570,chinowebb,chino_webb,,Bcz I’m SoCal it only 69 degrees and 3 am when I’m asleep,14-7-2021,
571,RyNotFound,rylrry_,,69 is a category😏,14-7-2021,
572,🕊Willis🕊🕊R.I.P🕊,daddyeatskids,,It’s cap it’s literally 69 degrees rn,14-7-2021,
573,Bish Bosh,fusion29_,,My weather app doesn’t show the number 69 either cus if it did I’d have heatstroke and die,14-7-2021,
574,Nathaniel A. Dennis,natdennis11,,Few months ago my phone said 69 degrees Celsius what about y’all,14-7-2021,
575,Buntinefuntime,buntinefuntime,,That’s cap,14-7-2021,
576,Kaleb,scarab123321,,"Hold up, it’s summer and it’s 69 degrees somewhere?",14-7-2021,
577,Rok Zavrl,rokithemaster,,use °C and you will never get to that number. i hope😂,14-7-2021,
578,coffeedawg,mrcoffeedog,,69 funny number,14-7-2021,
579,Noah,ahn0th,,It’s showing for me in the hourly forecast,14-7-2021,
580,Sean Arinze,seanarinze,,That’s cap,14-7-2021,
581,Nick Farrow,veggievampire,,They can't be to sexy 😂,14-7-2021,
582,Bryan Wholey,invinca,,"Okay, but like does that impact anything?",14-7-2021,
583,Son Danny,danny_boy_77,,So what does 69 mean?,14-7-2021,
584,Bicle,poisedaura,,That’s not true I have gotten my weather app to say 69°. Literally just happened earlier today,14-7-2021,
585,Anthonny Arias,anthonnyag,,"This is stupid, what about 420?",14-7-2021,
586,Ly,esfx_t,,"""for some reason""
you know the reason",14-7-2021,
587,20,just_your_typical_user,,no snitching,14-7-2021,
588,soublierebryce,soublierebryce,,Mine says 69° right now,14-7-2021,
589,Vinerrr69errr,midwestfarmboy,,Fake news,14-7-2021,
590,Danny Boi,danhubpremium,,People who think it gets down to 69 in Texas 🤡🤡🤡,14-7-2021,
591,Elijah Loucks,elijah.loucks,,My iphone says 69° right now actually 😂,15-7-2021,
592,Scott Wallach,sjw190,,FAKE,13-7-2021,
593,Alex J M,alexmikl,,@partyshirt,15-7-2021,
594,Apple User399563530,cakeslop_madertatoys,,They should just force you to use Celsius. It will be fine until the earth becomes uninhabitable.,15-7-2021,
595,Shevan Gomis,shevangomis,,People here be comparing Apple with android as if Accuweather was a default android only app😂😂,15-7-2021,
596,Geoffrey Powell,gskywalker123,,@partyshirt,15-7-2021,
597,Rishab.l,rishaber.ow,,Just checked and Antarctica is -69 so,15-7-2021,
598,mtndrewsifer,mtndrewsifer,,Psych mine says 99😅,15-7-2021,
599,Hambone,thehammmer,,Not true my phone said 69 the other day I know because I giggled over it,15-7-2021,
600,darren decoff,dingbat1973,,Just 1 degree but programmer has an issue with probably sexual 69. You caught them.,15-7-2021,
601,THAIWANDA™ OFFICIAL,thaiwandathai,,Watching this with comments at 69 🧐,13-7-2021,
602,Cal,calabralarouski,,I’m suing for false advertising,15-7-2021,
603,Patrick Schrank,unapologeticallypatrick,,😏😏😏,15-7-2021,
604,LeMao,lmaopew,,not nice apple!,15-7-2021,
605,Do,devinoscool34,,No it’s because android is wrong 😂😬,15-7-2021,
606,YEAH YEAH LESSSS GOOOOO,nobody_212221,,Apple hates tekashi 69,15-7-2021,
607,hello,hopeforgood_w,,😂@iamreallysad,15-7-2021,
608,user3572896262168,user3572896262168,,should probably switch to Celsius...,15-7-2021,
609,Big Dave,denali61074,,what android weather app is that?,15-7-2021,
610,el_gordy3000.,el_gordy3000,,oh grow up apple,15-7-2021,
611,Nonstop,nonstopofficial_69,,6six9ine,13-7-2021,
612,Kylie,kybug_08,,@apple,14-7-2021,
613,Swaywai,theswaywai,,Wow you’re on Tictok let’s goo,14-7-2021,
614,user4744547625722,tinash011,,I guess one of them is right tho it could be either one of them where’s the benchmark????,14-7-2021,
615,filojoe,princefiloo,,capping fr💯 🧢 my phone still shows 69 degrees on god,14-7-2021,
616,KIM,mk183736,,it is a role by someone called Cansas,14-7-2021,
617,user8734559703453,jayminmakadia,,"Mine with public beta ios 15 shows 69; high 88- low69. I am in Chicago, 60607.",14-7-2021,
618,raymundosalas1234,raymundosalas1234,,🧢🧢 it showed it on mine a while ago,14-7-2021,
619,Tech support 101,raju_smith,,Apple market after everyone sees this: 📉📉📉📉📉📉📉,14-7-2021,
620,NOBIOYET,chiiiiilchiiil,,They don’t duck with 69 a snitch 😌,14-7-2021,
621,Julian (Taylor’s Version),avazsboyfriend,,POV you live in Canada…,14-7-2021,
622,Sofa Sam,sofasam0,,what is the android phone he is using,14-7-2021,
623,1nk,1nknode,,It’s -69 degrees in Antarctica,14-7-2021,
624,macsguy,_macsguy,,apple programmers suck at math.,14-7-2021,
625,Philippe,philippenp,,Not Nice,14-7-2021,
626,Nelis,vanillanl,,We in Celsius don’t mind this,14-7-2021,
627,….,cyork794,,it’s only on 14.6 tho,14-7-2021,
628,Andrej Panjkov - glo,andrejpanjkov,,"IF this is real, it could be an artefact of rounding after celsius to fahrenheit conversion...",14-7-2021,
629,rly.efrain,echops321,,I’m suing,14-7-2021,
630,sam,samratlifff,,never knew,14-7-2021,
631,George Chase,enzogorlomi122,,Absolutely not true,15-7-2021,
632,Jon,makesensecommonagain,,Apple is so weird,13-7-2021,
633,Dylan Glober,dylanglober,,Sometimes different weather apps can say different temps aswell,14-7-2021,
634,Ahmed ramy,ahmedramy46999,,wait you in Boston my aunt is there,14-7-2021,
635,Scythe151,scythe151,,welcome to the cap store 🎓🧢🎩⛑️,14-7-2021,
636,Kero,kero_e46,,I just checked it says 69° 😂,14-7-2021,
637,dubmaree,dubmare,,@k7nzi ain’t no way,14-7-2021,
638,sam🥵🥶😤😳😩,sam2swaggy420,,nice,14-7-2021,
639,Caden C.,pusss_in.boots,,Not nice apple,14-7-2021,
640,Don Boomer,boomer.sneaks,,Tf does it matter if it’s 1 degree off😂😂😂,14-7-2021,
641,Let Me Be Frank,i_am_da_reason,,It’s because heroes don’t do that,14-7-2021,
642,Isaac,isaac.hernandez25,,But my phones at 69?,14-7-2021,
643,Philip Stracke,philipstracke,,@partyshirt,14-7-2021,
644,Ahmed ramy,ahmedramy46999,,that's why android is better see yall I live this dude 😅,14-7-2021,
645,Theo Baudry,theobaudry7,,@apple,14-7-2021,
646,Sauce,peterpenev1,,That’s not a fun fact it’s not true I’ve seen 69 degrees multiple times,13-7-2021,
647,Brian Starfox,brian_starfox,,I’m certain you’re wrong because just the other day here it was 69 degrees and that app told me that,14-7-2021,
648,Dingle,....__....___quandale,,Antarctica right now is -69 degrees according to my iPhone weather app,14-7-2021,
649,Matt,theekingtoad,,Nice,14-7-2021,
650,Lord of Garbage,lord_of_garbage,,69 degrees? That’s too hot 🥵,14-7-2021,
651,Mohammad Nazmi Saeed,mohdnazmisaeed,,only 1 reason in my mind,14-7-2021,
652,Q.T.😘,abbasd77,,My phone says Antarctica is -69 degrees. This is 🧢 guys,14-7-2021,
653,FLAMEZ,djflamez__,,So what was the point of saying this????,14-7-2021,
654,Fw._Kar2x,kar2xi,,Cause we don’t associate with 🐰,14-7-2021,
655,Otis Sauter,meijirestored,,mine says 69% humidity rn,14-7-2021,
656,Andy,theandman77,,Nice,14-7-2021,
657,Flecked,fleckedofficial,,I'm sorry bro I love ur vids but this is cap and mine does show 69,14-7-2021,
658,The Dark Gamer,the_darkgameryt,,4 20 69!!!,14-7-2021,
659,Ivy,_ivyxd_,,"Ik it applies for the app only, but if you have it as a widget, it shows. That’s honestly odd though. 😣",14-7-2021,
660,Jason,jason_parmar,,Dude it’s because weather is actually measured in Celsius (shift from Kelvin scale) which is incredibly accurate. But converts to Farenheight as 68/70,14-7-2021,
661,Kade Green,kadegreen10,,Mine shows 69 rn tf,14-7-2021,
662,getme665,andrewsookra,,Mine show it,13-7-2021,
663,Joscelyn 🏳️‍🌈,jostheboss00,,My iPhone shows it twice right now,14-7-2021,
664,hoijamm,hoijamm,,apple SUS,14-7-2021,
665,Cae,cae2109,,@partyshirt cap 🧢?,14-7-2021,
666,J,rockgremlin,,"""this is mkbhd, i’ve been using the iphone 37 as a daily driver for three weeks now and—""",14-7-2021,
667,Steven,xo_steven,,@moyou555 😂😂😂,13-7-2021,
668,James graef,jamesgraef,,I just use the weather channel app,14-7-2021,
669,Courtney,courtney.m.161,,Ok. I’m buying an android now,14-7-2021,
670,COOL,crazyoneorlogan,,The only time Android actually has the upper hand.,14-7-2021,
671,lilevan1441,lilevan1441,,Same,14-7-2021,
672,Ashton Allen,ashdijk,,I’m gonna have to disagree mine says 69,14-7-2021,
673,Yeetus Cletus III,yeetuscletusdathird,,Bro my iPhone shows 69 degrees all the time 😂,14-7-2021,
674,That Big D&D Energy,thatbigdndenergy,,Not nice.,14-7-2021,
675,rivka,rivkalev,,@partyshirt,14-7-2021,
676,Mando,mandokta,,This is not nice,14-7-2021,
677,Jonathan,jonathanreal20,,@dmv.koffi,14-7-2021,
678,zan,crying.delreyy,,funny number !,14-7-2021,
679,Bang Billion,bangbillion,,It does for me lol,14-7-2021,
680,Sam.mattson,sam.mattson,,Cap,14-7-2021,
681,huda,lilhuda,,why tho,14-7-2021,
682,Gumball Watterson,gumball_watterson14,,🧢🧢🧢🧢🧢🧢🧢🧢🧢🧢🧢🧢🧢🧢🧢🧢🧢🧢🧢🧢🧢🧢🧢🧢🧢🧢🧢🧢🧢🧢🧢🧢🧢🧢🧢🧢🧢🧢🧢🧢🧢🧢🧢🧢🧢🧢🧢🧢🧢🧢🧢🧢🧢🧢🧢🧢🧢🧢🧢🧢🧢🧢🧢🧢🧢🧢🧢🧢🧢🧢🧢🧢🧢🧢🧢,13-7-2021,
683,rivka,rivkalev,,😂😂😂,14-7-2021,
684,rivka,rivkalev,,@partyshirt,14-7-2021,
685,rivka,rivkalev,,@@partyshirt,14-7-2021,
686,Fatbody 2021,harley_rider_forever,,Day by day I’m hating Apple more and more and more.... god.,14-7-2021,
687,Josua Themen,josuathemen,,not nice😂,14-7-2021,
688,Kaiden,krandol043,,sunrise at 6:09,14-7-2021,
689,Mann Preet,mannpreet7,,Kinda sus🤔,13-7-2021,
690,Someone reading my name arefat,fuckoff_urfaceisugly,,I never use iPhone 🤭 Samsung,14-7-2021,
691,Messiah Waite,toxic.prynce,,they don’t wanna get canceled,14-7-2021,
692,😇Idk😏,joaquimhounlede,,69,14-7-2021,
693,Yo mamma,lowbrassisbest,,That’s why AccuWeather is better,13-7-2021,
694,No_im_dirtydanv2,mcfcdj27,,Ok I’ve made up my mi d android is clear,14-7-2021,
695,dimi 🌇,proxi.miti,,fahrenheit problems *smh in celsius*,13-7-2021,
696,Teemu Kortelainen,teps95,,not nice,14-7-2021,
697,Tom /Tommy\Turlak,tom_turlak,,my respect for among us balls 😏,14-7-2021,
698,user996887942032,yato345,,"USA: 69° nice 😏
The rest of the world: *confused screaming* 😱",14-7-2021,
699,dumy™,1dumy,,❄️❄️,14-7-2021,
700,TripleH,the_real_triple_h,,It shows me that it’s currently -°69 in Antarctica,14-7-2021,
701,Drew.lucke,drew.lucke,,markass brownie,14-7-2021,
702,Michelle Obama,first_lady_obama_offical,,@obama_offical_tiktok,14-7-2021,
703,Noah,noah.hawley,,Rn mine says 69% humidity so this is 🧢,14-7-2021,
704,Kayraerkanidik,chilloutkayra,,Nice 📸,14-7-2021,
705,T.D,feelitloveit1,,I never noticed,13-7-2021,
706,kennah🥸,kennah.blount,,my phone has 69 on it rn?,14-7-2021,
707,Sterling Linford,sterlinglinford,,Because you should be using Celsius so that things make sense,14-7-2021,
708,T R A S H 勒ドラゴン,nihilus.666,,@apple why man??,14-7-2021,
709,John Del Rosario,akosijbdr,,I wouldn’t know because I read Celsius,13-7-2021,
710,Blackout,tarzan0990,,they don't like the memes,14-7-2021,
711,Angelo,gello_30,,@juliaswagmoney bro……,14-7-2021,
712,Bermuda,loicissayne,,iPhone uses more mathematical estimating on weather cuz like 2 or 3 days ago it said 69 degrees for me,14-7-2021,
713,Corrupt Hazard (Blake K),corrupthazz,,well it’s 96° here so,14-7-2021,
714,Lost,lost_among_ghosts,,People really believe this? 😳😂,14-7-2021,
715,Alex Frontera,afrontera19,,He capping his ass off bro stop trying to make android look better. Look at the air quality in different places like bro what??,14-7-2021,
716,Moreno Jorenz,justmj24,,their not usually using number 9 because its bad luck for them and that's why there's no iphone 9,14-7-2021,
717,TheLostTrooper,thelosttrooper,,"""fun fact"" proceeds to show an unfun fact...",14-7-2021,
718,Trizcko,trizcko,,69,13-7-2021,
719,SpicyT,bobloblaw360,,Not nice,13-7-2021,
720,xvlz,xvlrty,,Bro cap I have picture proof,14-7-2021,
721,I’m.not.tall,i.want.pho,,"Apple ain’t nice, fucked up apple",14-7-2021,
722,Daniel Adam,butsenkaatz,,Nice.,14-7-2021,
723,Collin Stickler,collinstickler,,Tim Cook is a fucking loser 🙄,14-7-2021,
724,Daniel294,d2644654,,because weather data is in °C after conversion it could never be 69 °F,14-7-2021,
725,hekthor13,allmytyp3,,"always uses temperature data in whole number Celsius degrees internally, and then converts to rounded Fahrenheit just for the UI.",14-7-2021,
726,amalsindarov,sinbaron,,Because 34+35,14-7-2021,
727,Jack Bauman,_superfluousness_,,"go to settings, general, legal, then turn the iPhone upside down and slide to ""Allow to 69""",14-7-2021,
728,Bamur,dwarrowdelf,,What? That is just straight ridiculous.,13-7-2021,
729,user1754328007609,a_h_m_a_d68,,Nice,14-7-2021,
730,Christopher Augustine,chrisaugustine7,,My forecast on iOS 15 shows 69° at 5am tomorrow,13-7-2021,
731,swaggie,swaggie9782,,@mkitty99,14-7-2021,
732,Salt_Baenos,salt_baenos,,i feel like not showing it is more immature,14-7-2021,
733,Marta Chierego,neon_witchy,,@partyshirt,14-7-2021,
734,Charlie Kealoha,charliekealoha,,LOL not nice,14-7-2021,
735,J Z,jz65,,What you mean “for some reason” lol it’s to not trigger people,14-7-2021,
736,ShavedBird,shavedbird,,That’s literally straight up a lie I have screenshots,14-7-2021,
737,Tauri J. Miller,taurijay,,This is incorrect.,14-7-2021,
738,CMeintz08,cmeintz08,,Accuweather which is on the Android is also available on iOS now stop with that’s why android is better,14-7-2021,
739,Alexandriabee,acthebee,,That’s not actually true lol,14-7-2021,
740,dek0210,dek_1002,,Android 👑,14-7-2021,
741,TarTarBinks,tartarbinks1,,Nice,14-7-2021,
742,Alexa,_ughlexa_,,Except my humidity rn is 69% in the weather app on Apple lol,14-7-2021,
743,Kimberly,_________kim_______ooo,,Guess we’ll never know why,14-7-2021,
744,Rebels25,rebles25,,Cap,14-7-2021,
745,Nov,novemberproduction,,That’s cap mine says it rn,14-7-2021,
746,Ante003,ante003,,Mine shows 69° 🤔,14-7-2021,
747,Owen,oweenie99,,@micaelarae PLEASE WATCH THIS 😂😂😂,14-7-2021,
748,( ͝° ͜ʖ͡°),ver.mcnob.shechema,,iphone not funny number 😔,14-7-2021,
749,Crassbutright,thriller_back,,"just like Batman, iphone doesn't go down",13-7-2021,
750,Danny Boy,boydan13l,,Lies… though I’ve seen it multiple times..,14-7-2021,
751,NicX,nicbauer_,,Boy ain’t no way boy,14-7-2021,
752,Luke Gilbert,l.b.gilbert,,🧢,14-7-2021,
753,Cxsco,_cxsco_,,Wym I’ve seen it,14-7-2021,
754,01010101,blocked01010,,Refresh the app 😂 clown,14-7-2021,
755,user6430446044575,mojo.jojo422,,Switching to samsung now😂,14-7-2021,
756,AwesomeFaceness,awesomefaceness,,Literally just a lie,14-7-2021,
757,ぁDubzyぁ,dubzy_,,No cap weather channel says 69 rn and iPhone says 70°,14-7-2021,
758,Anthony,tugboattony2,,69,14-7-2021,
759,qmrk346,qmrk346,,It still does say 69 on older versions of ios,14-7-2021,
760,Motavis,motavis,,Unice,13-7-2021,
761,Kyan.H,key_kth,,Cause Apple is a bitch,14-7-2021,
762,Jason :P,savagehermes,,My humidity is 69% ._.,14-7-2021,
763,liamolua,liamolua,,"and here's me sitting here going ""screw this whole not showing 69, how the fuck is it that hot"", then I notice the American accent. -_-",14-7-2021,
764,Jon Hess,jonhess1005,,🧢🧢🧢🧢🧢🧢🧢🧢,14-7-2021,
765,⠀ ⠀ ⠀ ⠀ ⠀ ⠀,wo.logan,,i’ve seen 69 before,14-7-2021,
766,Lucas Dul,typetech,,Apple keeps up a facade. Same reason movie villains can't use them,14-7-2021,
767,Dingus Eddlebert 🏆,dingus_eddlebert,,Fun fact: In-N-Out Burger will never give you receipt number 69. It is always skipped,14-7-2021,
768,Maddie,beanboisad,,disappointed 😔,14-7-2021,
769,Jason Towsley,jasontowsley,,"Cap, not fact.",14-7-2021,
770,Freshboii シ 👑,freshboii_2,,It never shows 200 degrees for some reason,14-7-2021,
771,Flame,yeahimflame,,You know why.,14-7-2021,
772,Josh,rgstrdnrd,,Not nice.,14-7-2021,
773,Ricky Wood,rickywood29,,Because it ain’t no snitch,14-7-2021,
774,Torontoda6ix,duckfromda6ix,,Petition to change it to only 69 degrees,14-7-2021,
775,FUNNY CLIPZ,funny_clips_4_life,,How is it that hot,14-7-2021,
776,🛐,llollkys,,mine literally says it’s 69 where i am,14-7-2021,
777,🎀,sanri0.sweetie,,this isn’t even remotely true,14-7-2021,
778,Jayloha,jayloha,,That’s a lie lol. Unless it’s a new thing with the newest iOS,14-7-2021,
779,kostas214pro,kostas214pro,,not nice,14-7-2021,
780,Jordan,jfhorn,,"It won’t say it on my app either…not for anything weird i just live in Florida the low is like, 75-80.",14-7-2021,
781,Brenzel,officer.square.head,,My phone says it’s the 69th of July,14-7-2021,
782,Snakem39,snakem39,,Nice,14-7-2021,
783,The Letters J. M.,the.letters.j.m,,Not nice 😂,14-7-2021,
784,jetfink,jetfink,,@partyshirt come on! this has to be 🧢,14-7-2021,
785,Trey,9jaaa,,"It says it’s 69 on my Home Screen widget, but when I click the app it changes to 70 lol",14-7-2021,
786,Zach Jordan,zachunterjordan,,because iphones are for kids,14-7-2021,
787,I’m bored,9_inches_,,CLICK ON THE SOUND,13-7-2021,
788,ghostakira777,ghostakira777,,nice,13-7-2021,
789,elizabeth.ai,elizabeth.ai_,,"lies, my apple watch say 69",14-7-2021,
790,danny hy,dann_no,,it says 69 for me rn bro is this supposed to be an android ad or a dumb prank,14-7-2021,
791,Hector Hernandez,veganoflaco,,My air quality is 69 in the iTunes app bro tf you talking about? Take your parental controls off,14-7-2021,
792,0nTh3M00n_,al3x1slandingfromth3m00n,,That’s a lie. Mine literally says 69° at the moment,14-7-2021,
793,tristlobster,tristlobster,,Why would they do this,14-7-2021,
794,Christian Petersen,christianp38,,Literally false,14-7-2021,
795,Bum 🛫🛩✈️,loqxzr,,It actually does in Antarctica it was -69°,14-7-2021,
796,Colt T. Lancaste,enderlion444,,anything>>>iPhone 🙄,14-7-2021,
797,lauren,bingusfriedenthusiast,,My widget shows it but then I open the app and it says it’s 70,14-7-2021,
798,theshawndasheep,theshawndasheep,,damn Apple why you kink shaming,14-7-2021,
799,Jonathan Dahneke,jondahn24,,Using the Built-In Apple Weather App 🤢🤮,14-7-2021,
800,unboxmetech,unboxmetech,,69 .is a great Number 😁😁😁,13-7-2021,
801,Sara G,saratheog,,Lolololol,14-7-2021,
802,Austin Stanek,austin_stanek,,It says 69 degrees for me on a widget but when I go into the app it either says 68 or 70,14-7-2021,
803,N. 💠,_cattani,,🧢🧢🧢,14-7-2021,
804,🥰,madoff95,,Apple=cancer,14-7-2021,
805,XLTT STORE,xlttech,,cus they avoid number 69,14-7-2021,
806,nurmston105,nurmston105,,nice,13-7-2021,
807,Idk,johnny_sins_a_lot,,69,14-7-2021,
808,92has,92has,,NOT NICE 😡,14-7-2021,
809,Jannis,jannis978,,What happened with the notch?,14-7-2021,
810,Nehemiah Laniyonu,nehemiahtrades,,Danny Duncan,14-7-2021,
811,Drew Brown,drewbrown69,,@msnikkimouse,14-7-2021,
812,Quincy,quincyluster,,Ong I instantly checked and it said 69,14-7-2021,
813,Ben,onegameryt,,That’s a lie. It says 69° in San Diego at 2:00 AM July 14th right now.,14-7-2021,
814,Hi,ilikemenhfrtn,,Lawsuit,14-7-2021,
815,VoxNoctem,voxnoctem,,Mine says 69 right now soooo maybe it’s just 68 degrees out for you lmao,14-7-2021,
816,Soviet yoda,the_soviet_yoda,,SOME REASON HUH,14-7-2021,
817,esor 🤑,uncut_ems,,oh chill you’re in boston enjoy man,14-7-2021,
818,JohnnyKronaz,johnnykronaz,,"iPhone users like being treated like children, else they wouldn't be iPhone users",14-7-2021,
819,MelbVIC,melbv1c,,It’s because behind the scenes they use Celcius (like the rest of the world) and it converts into 68 and then 70… other numbers are also missing in F,14-7-2021,
820,noah hernandez,noah.hdez,,he’s right my phone says 12:70 not 12:69,14-7-2021,
821,Hassan Bin Tariq,hassan_ibntariq,,if i know i guess i know !!,14-7-2021,
822,Yosef Meir Radin,yosefmeirradin,,I get it,14-7-2021,
823,jygtggnyb,ryanreynoldsamilf,,not nice,14-7-2021,
824,EBO,dark_assassin_1,,😂😂 lmao,13-7-2021,
825,Michael,tdipwr3,,Use Celsius like the rest of the world,14-7-2021,
826,YungLonDaDon,yunglondadon,,Wow the app showed 68 so I just googled and it’s actually 69 degrees where I live. I thought this was bs for sure,14-7-2021,
827,Marco_Didnt,marco_didnt,,I didn’t even know you were on TikTok !,14-7-2021,
828,Ezra,theezravarietyhour,,Wow this is a new low for Apple,14-7-2021,
829,It's my 92 stealth,92ornothin,,I checked and I have 69 4 times on mine in this week bruh,14-7-2021,
830,Mello Jello,turbofox80,,We don’t have that problem in Canada because we use Celsius. If it actually gets to 69c I think we’re all gonna die lol,14-7-2021,
831,bryant,bassprococks,,mine shows 69 on my 10-day right now.,14-7-2021,
832,Ben Shir,ben.shir.30,,The widget says high of 79 low of 69 but the app says high of 79 low of 68,13-7-2021,
833,Robbie,robbiedobi824,,Android > apple I won’t give up on you 69,14-7-2021,
834,sirromnek,sirromnek7,,I think you’re right,14-7-2021,
835,Shelby Marie,shoobie_doobie_doo,,@apple explain yourself,14-7-2021,
836,Mahin Matlapudi,kingofbritannia,,@brugnoob @ragullllllll @mugrie1 @alininjatfue69 @blueflame10010 iPhone suck,14-7-2021,
837,mylifeisacarcrash,mylifeisacarcrash,,"it uses temperature data in whole number Celsius degrees internally, and then converts to rounded Fahrenheit so it can't show 69",14-7-2021,
838,Justin,jstnshea,,Not nice.,14-7-2021,
839,Matt,matt.421,,Humidity shows 69,14-7-2021,
840,--,adaantee,,nice,14-7-2021,
841,Oliver Otter,oliverotter1,,Hehe.. nice,14-7-2021,
842,XDeity,xdeity_,,"Cap, mine says 69 rn literally",14-7-2021,
843,Artie,justaarivk,,it's in 69 like a simple to cancer zodiac sign i think,14-7-2021,
844,Elt Ag,eltoront0,,welcome to fact or cap 🥺,14-7-2021,
845,AH M ED,baar200,,And that why Android is better than Apple,13-7-2021,
846,sapbrad,sapbrad,,Real Feel 69 😏,14-7-2021,
847,Gino,its.gino,,That’s so weird it never shows 792 either. Honestly Android is way better,14-7-2021,
848,EJM,_supermart,,69 😂,14-7-2021,
849,Jamin,jaminjohnly,,It’s because it’s translating Celsius. IOS 15 shows it so does my wife’s phone. They aren’t trying to avoid lmao,14-7-2021,
850,ᏓεwιСℓαƞϲψ,lewiclancy,,Not nice.,13-7-2021,
851,DRayfield,drayfield,,this isn’t true yall 😭,14-7-2021,
852,Biruk Asrat,birukasrat316,,android is NICER,13-7-2021,
853,Germs,mehhhhhh___,,This doesn’t seem true because I checked with my iPhone with the beta as well and it has 69 on it,14-7-2021,
854,charliethompson17,charliethompson171,,Not true I’ve seen it plenty of times,14-7-2021,
855,Luis Torres,luistorres694,,Seeing 69 made me kinda smile 😅,14-7-2021,
856,Andrew Rush,ar_peh_g_o,,it's cuz us Android users actually get to experience the number 😂😂😂😂😂😅...😅... ;-; help me,14-7-2021,
857,internet connoisseur,cwkoss,,what does Apple have against nice weather?,14-7-2021,
858,Michael,lastnameroeck,,How did you hide the notch?,13-7-2021,
859,Scoobaru,scoobaru21,,"I live in AZ, it never says anything under 95",14-7-2021,
860,tonylaco,tonylaco,,"It’s because it uses temperature data in whole number Celsius degrees internally, and then converts to rounded Fahrenheit just for the UI.",14-7-2021,
861,spencer bruinsma,frozen_peek,,on the widget it does not the app tho,14-7-2021,
862,Rafael Rodriguez,who_tf_is_rafael,,Y’all know why😏,14-7-2021,
863,Jordan,hurleyint1386,,I’ve got a screenshot right now with the weather app showing 69 degrees 🤔,14-7-2021,
864,Bob Joe Rules,bobjoerules69,,I got it in portland on widget,14-7-2021,
865,XUE,keychen0,,@_bentzou_ @j1_yeor,14-7-2021,
866,Jordy Tellez Lagos,jordytellezlagos,,not nice,14-7-2021,
867,DaPun,dapun416,,😳,14-7-2021,
868,vasgell,vasgelll,,"also same on 420, 13, 24, 41",13-7-2021,
869,Kevin,fantasycostco,,Nice,14-7-2021,
870,Frenchie_Basile,frenchiebasile0,,Its not true,14-7-2021,
871,haarrrvvv,denshoadobo,,not nice,14-7-2021,
872,Dylan,dylan_cocuzza,,I wouldnt have ever noticed cuz it's always above 80,13-7-2021,
873,8bomb,8bomb,,69% humidity in Tokyo right now.,14-7-2021,
874,Maykel Alvarado,mikerunnin,,yeahh fact.. thanks God im not the only one who noticed this 😂😬😬,14-7-2021,
875,Shaz,shaz_art22,,use celcius,14-7-2021,
876,M,mwh915,,This is just wrong,14-7-2021,
877,Derrick Barnes,financemanderk,,and that is another reason why android is better than apple 🎩,14-7-2021,
878,Zair,zvilla731,,is that a one plus 9?,14-7-2021,
879,user5618053859236,johnevens00,,"Nah. Two different apps, two different temps. Probably taken from different areas. The iPhone weather app gets it's data from The Weather Channel.",14-7-2021,
880,Adam,notruescotsman,,Banning the number 69 is even more childish than laughing at the number 69,14-7-2021,
881,Roe Jogan,homewarranty,,Ok,14-7-2021,
882,8T6T,flavio617,,Mbkhd is in Boston!?! My home town ayeeeee,14-7-2021,
883,Rob Jackson,thetallagent,,Ok but we have blue bubbles tho,14-7-2021,
884,CC,thatsdudecool,,Well I use Celsius so I’d hope it doesn’t show 69,14-7-2021,
885,Just Tim,just_timm,,"BS, mine has had 69 degrees many times",14-7-2021,
886,Sean R. Coombs,srcoom10,,*checks weather in July in SF* - 54 degrees 😂,13-7-2021,
887,Rick Marlowe,rickmarlowe,,not nice apple,14-7-2021,
888,Limpsync,limpsync,,The pussification of America 🤮🤮,14-7-2021,
889,Octobotimus,octobotimus,,Not surprised. Humorless sensitive workers who only k ow how to steal ideas.,13-7-2021,
890,Ed,edgarskates,,I sware I’ve seen 69 before or I could’ve just been day dreaming,14-7-2021,
891,Bruce Bruce,thamesthardenbk,,Nice,14-7-2021,
892,Bruce Bruce,thamesthardenbk,,@partyshirt we need you,14-7-2021,
893,ZoeByNature,ceezdabag,,Sucks to be stuck in a eco system that lies about everything 😅,13-7-2021,
894,kong,kongszx,,"iphone users ""jot nice 👎""",14-7-2021,
895,user1394766425251,user077372649,,:Evangelicals eleminated any reference to felatio obviously 🤡,14-7-2021,
896,SBM 🐎,_salem,,Apple’s ethics 📈📈📈,13-7-2021,
897,Manu Boll,manboll,,That’s because the world uses Celsius and for Murrica‘ it gets convert to cave people measurement. *Burn,14-7-2021,
898,Azno,itmeasianasian,,Cap my percentage batteries is 69%,14-7-2021,
899,Raxcental,tiredofitall__,,Apple is just stupid,13-7-2021,
900,Solo 😍💪🏾,sertified.solo,,It says 79 right now in here hohio,14-7-2021,
901,Kyle,thatonekyle_,,🧢🧢Mine said it yesterday and shows it in the forecast for tomorrow.,14-7-2021,
902,ClashRoyale,monkeysluvkfc,,No one gives a fuck,14-7-2021,
903,itsdomi 01,itsdomi4,,ist ja eine seggs Stellung oder nicht?,14-7-2021,
904,i have a ptsd of chairs,_fyuko,,its obvious why they wont 😏,14-7-2021,
905,yambo,yambonaise,,not dank,14-7-2021,
906,The.Bean,beakedbeanboy,,nice,14-7-2021,
907,Dan,opinion_panda,,Not nice,14-7-2021,
908,ReViLo,oli.ver.lyt.le,,It was literally 69 degrees like 2 days ago as the low here in Idaho,14-7-2021,
909,Russell Wilhelm,alexdinker,,and this is why android is superior,14-7-2021,
910,Moeketsi Moloto,adventureroblong,,😂😂😂,14-7-2021,
911,harve_myster,harve_myster,,@kitty_beanie,13-7-2021,
912,𝕁𝕠𝕤𝕦𝕖,rxdemonx,,@partyshirt fact or cap,14-7-2021,
913,Bro,bro1122334455,,This is just not true,14-7-2021,
914,Morro,morrofrosty,,Apple hates nice weather,14-7-2021,
915,,,,@partyshirt,14-7-2021,
916,,,,Yeah it won’t ever for me cuz I go by celsius 😏,14-7-2021,
917,,,,that’s cap mine says 69 rn,14-7-2021,
918,,,,I just opened my weather app and it says 69 lol,14-7-2021,
919,,,,Every time I post the weather on Instagram it’s always 69,14-7-2021,
920,,,,🧢 My phone have 69 now with ios 15 beta 2,14-7-2021,
921,,,,Not nice 😂,14-7-2021,
922,,,,apple are softies smh,14-7-2021,
923,,,,My iPhone said it was 69 here a while back. I put it on Twitter and said “nice weather”,14-7-2021,
924,,,,any idea why is that?,14-7-2021,
925,,,,This is 🧢 I have proof,14-7-2021,
926,,,,Mine does,14-7-2021,
927,,,,they not from 69th,14-7-2021,
928,,,,that's because iphone users are immature and can't handle the number 69 😌,14-7-2021,
929,,,,"69 is cancelled, it's offensive for non binary people, or any other stupid reason, everything is cancelled anyway",14-7-2021,
930,,,,not nice,14-7-2021,
931,,,,Battery does though,14-7-2021,
932,,,,noice,14-7-2021,
933,,,,one of dozens reasons why android is better,13-7-2021,
934,,,,American moment,14-7-2021,
935,‍,jaskp999,,69420,14-7-2021,
936,Ruben,rubenkje,,Luckily mine will never show 69 as that would mean we would melt outside,14-7-2021,
937,Will W,will.w9,,It says 69 4 times in the next weeks forecast,13-7-2021,
938,jakobsief,mare_frigoris,,Change to SI units FFS!!,14-7-2021,
939,Nicklas,nicklasjonsson0,,Some brands never use certain numbers. Like how iphone 9 does'nt excist. It's because superstition!! :O,14-7-2021,
940,Isaac 🇰🇪,isaacowoke,,if it does hit 69 maybe the phone will just stop working,14-7-2021,
941,Kingx457,ashfordx25,,because its not a rat,14-7-2021,
942,LightslicerGP,lightslicergp,,@mkbhd heres a tiktok I saw from you,15-7-2021,
943,AJ😪,they1uvaj,,@dobbaphoenix,14-7-2021,
944,Ok,nwonkno,,🧢,14-7-2021,
945,rené 🫰,realreneviz,,i’ve actually seen 69 degrees multiple times,14-7-2021,
946,Pants monkey,pants_monkey,,Why do they hate Bill and Ted?,14-7-2021,
947,𝕊𝕥𝕖𝕒𝕝𝕥𝕙𝕤𝕙𝕒𝕣𝕜𝟙𝟞𝟠,stealthshark168,,Bro I’m in Boston right now to lol,14-7-2021,
948,Max Mason,69maxmason69,,part of me wants to tell you that’s wrong and ridiculous… but i checked and can’t find it anywhere.,14-7-2021,
949,Jasen Sebben,jasensebben,,Not nice,13-7-2021,
950,John,allsystmsgo,,Mine does it now,14-7-2021,
951,LV,leonvana,,its literally 69 for me rn,14-7-2021,
952,seandurrant,seandurrant,,@quoccy,14-7-2021,
953,abarassicaçao,nsuwidnma,,iOS 15….,13-7-2021,
954,Adrian jordan,havoc2319,,My respect for apple 📉📉📉,13-7-2021,
955,fundipmythic no,fundipmythic,,Lemme guess you also don't get 69%,14-7-2021,
956,𝔻𝕖𝕟𝕚𝕤_ℂ,den1sc,,Lmao i do have 69*,14-7-2021,
957,Krishav Morang,i.am.krishav,,never shows 900 either 😒,14-7-2021,
958,Camron Bamonte,camronbamonte,,"My iPhone shows 69° for Santa Barbara, CA and many others.",14-7-2021,
959,Dominic Toretto,dominic..torreto,,it is because it rounds the number up and thats why it never shows 69 and some other numbers. like because i didnt waste your time,14-7-2021,
960,🫥,sebastian_ivan16,,Idk my phone showed 69° before it’s probably because their using different sources 1° difference,14-7-2021,
961,Lilly Van de Nesse,lilly_van_de_nesse,,@myagamble0,14-7-2021,
962,Johnpoleis,johnpoleis,,Because it converts to Fahrenheit so its probably 21°C there and if you convert 21°C to °F it would be 69.8°F and they round it so it’s 70,14-7-2021,
963,_awasay,_awasay,,@ahmer_gaming,14-7-2021,
964,__,stormanroman,,I’m switching to android,14-7-2021,
965,Henry Newman,newmanhenry,,Which weather app are you using on the android?,14-7-2021,
966,davis_fk,just.a.regularboy,,They aren't snitching😂,14-7-2021,
967,liran edri,liranedri03,,fuck apple,14-7-2021,
968,Tony,idk.beans,,Cap,14-7-2021,
969,Saxo_BrokoYT,saxo_brokoyt,,It’s only on some phones on versions before 14.6,14-7-2021,
970,Justin Tyler,its_justin_tyler,,POV my phone earlier today 69,14-7-2021,
971,user4523188687919,youmissed..the_joke,,Cap,14-7-2021,
972,Oliver K.,oliverkn,,"My app shows it 69, look at my profile😂",14-7-2021,
973,looking for smthin??,cawlk,,69 420 funny numbers,14-7-2021,
974,Thank you Captain Obvious,captainobvious._,,Use Celsius brother,14-7-2021,
975,nthecoolnl,nthecoolnl,,My iPhones battery life seems to always be at 69%,14-7-2021,
976,Grant Steven,realgrantsteven,,Tim Cook,14-7-2021,
977,user5024529737510,deaconstjohn122,,What's the other Android phone???,14-7-2021,
978,juliovortiz80,juliovortiz80,,@partyshirt,14-7-2021,
979,josiahgarrett,josiahgarrett,,@ualreadynooooo wtf,14-7-2021,
980,v.del,v.del,,✨NOT NICE✨,14-7-2021,
981,liamismydog2001,_timmy_timmy_timmy_,,"You really do learn something new everyday 🤔 interesting, thanks for this little Easter egg 🥚",14-7-2021,
982,Connor,connor_rawls,,My iPhone weather app is literally showing 69 rn,14-7-2021,
983,Ahhhhh,.confusescreaming,,That must be new because I’ve seen it say otherwise,14-7-2021,
984,Jaxon,jaxonsburner7,,i’m not sure if it’s only ios 13 but i’m on 14 and i can see 69 the next day,14-7-2021,
985,Strictlynrl,strictlynrl,,69 that’s a world record temperature!,14-7-2021,
986,Dave Vergara,daveysdiary,,Not nice,14-7-2021,
987,Fronch_Fry,fronch_fry,,Went to check but then forgot it doesn’t get blow 70 here in the south in the summer 🙂,14-7-2021,
988,Krish,n9ne.to.f5ve,,But why though?,13-7-2021,
989,Steven Byron,thebyronicman,,Considering I use Celsius I would HOPE I never see 69 degrees or I’ll be dead,14-7-2021,
990,Anime duck,a_pers0n_0n_the_internet,,Apple is so mature they don’t want people to look at the weather app and say nice,14-7-2021,
991,db_md,db_md,,"""not noice"" top quality finish @mkbhd",14-7-2021,
992,👽,aldogarcia1117,,bye apple 😡😡🤬🤬🤬😡😤,13-7-2021,
993,Ethan,ethanritchie313,,Got a screenshot of my widget that says 69 degrees but in the weather app itself it won’t show it,14-7-2021,
994,Olatrextiktok,olatrextiktok,,Funny number,14-7-2021,
995,SLAP !,slap..123,,coincidence i think NOT 😂😂,14-7-2021,
996,Konstantinos Psiakis,konstantinos.psiakiss,,nice 👍,14-7-2021,
997,Døminic,dominicnthns,,Now apple is gonna get cancelled by twitter 😂😂😂,13-7-2021,
998,xpda,xpdqq,,C to F conversion.,14-7-2021,
999,user7630334021062,xkcg612,,Bs,14-7-2021,
1000,Du,elias.ceb,,Not cool apple not cool,14-7-2021,
1001,Shirliday,drawplay_,,It’s not a lie for those in the comments saying it is. It depends on what IOS you’re running. There’s a Verge article on it if you wanna google,14-7-2021,
1002,Štefan Földesi,geeshta,,Literally 1984,14-7-2021,
1003,Tyler Richardson,big_t_white,,@partyshirt,14-7-2021,
1004,Timothy Kimemia,timothykimemia,,"PR or not, thats fckd up, people rely on real numbers out here 😳",14-7-2021,
1005,user3530962230628,iheartafrica,,"""Hahaha, 69!""
- Billy Madison",14-7-2021,
1006,I make gecko videos!,bvog6,,apple is immature,14-7-2021,
1007,Fed Francois,fedfrancois,,They not a fan of 6ix 9ine 😂😂,13-7-2021,
1008,Report me,gettriggeredkiddo,,Mine says it right now would you look at that,14-7-2021,
1009,Alex41238,alex41238,,Ok now I'm going to pay attention to this...,13-7-2021,
1010,Manuel,manuell191,,"I checked exactly 9 locations, and I couldn’t find a 69, only many 68",14-7-2021,
1011,Thomas,thomasyazdi23,,My iPhone does???,14-7-2021,
1012,Krimsin,krimsins15,,🧢🧢🧢🧢🧢🧢🧢 mine shows 69 rn,14-7-2021,
