,Comment Number (ID),Nickname,User @,Comment Text,Time,Likes
1,Garvežiukas Tomas,garveziukas_tomas,,"RIP LG phones, never forget the G3, V30 and Wing, incredible phones for their time",8-2-2022,
2,Blue Phesant,.tosho,,Phones have hit their peak so they just Playing around with designs 😂😂,8-2-2022,
3,William Borruat,winctech,,"If only we still had LG. They didn't make the best phones in the world but they tried new things, and in the smartphone industry, that's a great thing",8-2-2022,
4,Mark,mark_mark_23,,how much is that ASUS zen phone?,9-2-2022,
5,mikey,mr.topcomment,,I'm watching on a Zenfone 7 pro! it's awesome!,9-2-2022,
6,_t_b_t_,_t_b_t,,everyone have a great day,8-2-2022,
7,Arki,arkitechnology,,W on the wing,8-2-2022,
8,weyi jonathan🏆🎧🧘,nonelikeweyi,,bro forget phones are you playing miles Morales or not? i saw the leaks😭😭😭,8-2-2022,
9,👨🏾‍🦱,kewnslayer,,I legit thought this was jidion for a second when I saw the pfp 😭,9-2-2022,
10,yatuchavez,yatuchavez,,@Parker Burton which would you use?,8-2-2022,
11,acy,not.acyy,,markass brownie,8-2-2022,
12,sias_lolo,sias_lolo,,1st,8-2-2022,
13,PianoTherapy,pianotherapy,,Hey man you still hiring? (Honest question),8-2-2022,
14,Adam Ho,a.mrho,,My mum had the Zenfone 6,9-2-2022,
15,Tomiwa Ajibola,theajibola,,early bird,8-2-2022,
16,Omar Alnasr,omaralnasr,,I’m early,8-2-2022,
17,Wesley,_.w26._,,@sophie.bhalla u want the gold one?,8-2-2022,
18,Dziworshie Emery,dziworshieemery,,Samsung Galaxy a80 search on it 😏,9-2-2022,
19,Haloom727,haloomzzz,,I’m surprised you didn’t mention the galaxy Z!,9-2-2022,
20,Just verified,justverified24,,@animeweebs which would you use ?,9-2-2022,
21,user1093526362248,etinfinity,,"watching this on ZenFone 6, only regret I have is buying the first iteration since the two short comings got fixed in the next one",9-2-2022,
22,Nox,noxbishop,,"I would've loved to see a LG Wing 2, and also released in Australia. would've bought the heck out of that",9-2-2022,
23,Yusuph Tawe,yesh_293,,yo like your shirt man,9-2-2022,
24,Andria Medina,andriamedina7,,I love you video but my brain went to you shirt it looks awesome. what does it say?,8-2-2022,
25,Grant,grantsiebenaler,,Basically the first tik tok on my fyp @JiDion hasn’t comment on and it’s the one I actually expected him to comment on,8-2-2022,
26,Montey,monteeznuts,,I just wanna see some more content of you playing ultimate frisbee man 🥲,8-2-2022,
27,"Not the real FBI, obviously.",fbi.guy,,Is there a case for the flip camera?,8-2-2022,
28,Raunak Sunder,collegechefron,,Wing has to be the craziest,9-2-2022,
29,Lerato Benny,benny_lb,,mi mix alpha,25-5-2022,
30,Kings,sunnykings238,,@knewkeed what do you think about this,6-5-2022,
31,andreas,hrvt.a,,what do you think about the Samsung Galaxy Z Flip 3?✌️,5-5-2022,
32,Caramella,caramella7777,,could you show the cheapest but best phones. I'm 40 and all I need is a good camera.,4-5-2022,
33,Shelly Leaven,_._s_h_e_l_l_y_._,,that camera flip is the future!!!,3-5-2022,
34,H a,largesink,,@bengoku_16 first one,3-5-2022,
35,Braga Jericho,bragajericho1,,Marcus Bajslee,3-5-2022,
36,tagmeonfunnyshit,tagmeonfunnyshit,,I'd have that lg just to watch YouTube videos and read the comments,2-5-2022,
37,khayelihlendlovu44,khayelihlendlovu44,,is rating phones a ligit career,2-5-2022,
38,Nikk,inknikk,,one or more Asus ROG phones have 2 USB ports,1-5-2022,
39,CALLIY💅,calliy13,,sir,22-4-2022,
40,Kanyon,kanyonmackenzie,,Since when Demarcus cousins into phones?,15-4-2022,
41,yellow viper,yellowviper3,,like your t google game,14-4-2022,
42,HamadKo,h4madko,,The list without I phone 😂😂😂😂,8-4-2022,
43,Netansu,netansuu,,"i'd use any of those, need a phone for 4 years now😬",8-4-2022,
44,Kuro-chan,curiosityl0l,,dude has a mi mix alpha just sitting there,31-3-2022,
45,Hillssj,hillssj,,man Legion phone look soo dope😳😏,29-3-2022,
46,Rick Sanchez,elzappo,,Awesome T-Shirt!,28-3-2022,
47,og-hunter,og_valo,,thanks @jidion you are the best,23-3-2022,
48,DaveSlashRoy,daveslashroy,,great shirt,20-3-2022,
49,khanyisanisibisi,khanyisanisibisi,,bro do you get to keep those phone?,17-3-2022,
50,blxckStunna,blxckstunna,,Left YouTube because of ads like this,15-3-2022,
51,rozy_abdulrahman,rozy_abdulrahman,,Believe me tech world is wild 😂,13-3-2022,
52,hengelcrew,papabear854,,"will be happy if you would, donate one....",13-3-2022,
53,ridzuanmustaffa,ridzmusseth,,The LG ones reminds me of Ironman (2008) used by tony,12-3-2022,
54,iamOGboiii,iamogboiii,,where did you get that shirt?,8-3-2022,
55,Kliffsly,kliffsly,,I mean honestly most of these are just pretty cool,8-3-2022,
56,Bonnie Young,aliaspygurl47,,"That first phone was a Cylon, you can't tell me any different",8-3-2022,
57,khayelihlendlovu44,khayelihlendlovu44,,so do you get paid for this or do they give you the phone to use for a month then ask you to rate it for free,2-5-2022,
58,Jimmie McCullough,jimmiemac80,,Is it really asoos? I've always said it like suss. 🤦🏼‍♂️,8-3-2022,
59,Alan,doublebaconpleaseburger,,Where did you get that T shirt?!,8-3-2022,
60,+ Michael Bryan,bryantotheuniverse,,We need a series,8-3-2022,
61,Jad Zayat,jadboizayat2010,,the camera of the Samsung galaxy a80 is better than the Asus and yes they have the same camera,7-3-2022,
62,┌(・。・)┘♪,eluzzive,,I have legion duel 1,7-3-2022,
63,....,nour21714,,@yahiaahmed996دي😂😂 حلوة اوي التليفونات,7-3-2022,
64,Matthew Troyer,matthewtroyer4,,Um the world's best cell phone cam? I also like the one that comes up out of the phone I had it it was one plus,7-3-2022,
65,Jahan mogul,ballllssssssssssssssss,,Opinion on z flip,7-3-2022,
66,Here I am...,attheaustrianalps,,Escobar fold phones?,5-3-2022,
67,BEANS,beanwiths,,this is just top 5 phones that i couldn't buy,3-3-2022,
68,Mo,drifty7_21,,poor lg,2-3-2022,
69,Choochoocoo,reigabro,,I don't mind. If you hand me one of those 😂,2-3-2022,
70,Sean,littled0ct0r,,Pretty sure they got the wing idea from iron man 1,28-2-2022,
71,The last Uchiha,iambaka04,,i think the worlds best selfie phone is mi 11 ultra,26-2-2022,
72,Fineinn Quinn,fineinnquinn,,LG Wing giving serious Iron Man 1 cellphone vibes 👀🔥,26-2-2022,
73,joje jama,jojejama,,Can I tag myself?,26-2-2022,
74,Yehia Haikal,yehiacreating,,"The fact that I just like his videos the second they pop without even watching anything, sometimes I like and continue scrolling 😁",25-2-2022,
75,♥️🤍💚,l_ghost_omar_l,,I’m watching you on the tv rn,25-2-2022,
76,wendy,wendyalias,,Saving this for when this pos iPhone dies on me 😍😍,24-2-2022,
77,L,jesica_aktiv_hore,,Did you get to keep the moon stone phone?,23-2-2022,
78,itrickk,itrickk,,It’s beautiful and really hard to use 😂,22-2-2022,
79,Matteo Griffa,matteogriffa,,the Asus would actually be nice to have,19-2-2022,
80,thebest49517,thebest49517,,why u aren't use music in the background...?,18-2-2022,
81,Tristan,chasinbags775,,Demarcus is that you 😳,17-2-2022,
82,Susan Susan,susanxx11,,Hi friend,17-2-2022,
83,Adam Martin,gsxr.adam,,I really like the lg wing,17-2-2022,
84,Cory,corydefinitelyprobably,,lol at the double chargers. Can’t just do usb-pd???,16-2-2022,
85,Momehd99,momehd99,,i knew as soon as he said caviar that it'd be hella expensive,14-2-2022,
86,Oliver,nycbrooklynyc,,Can you review the palm treo,13-2-2022,
87,Daniel Zambrana,almightydz,,I only want his t shirt,13-2-2022,
88,SecretCasual,secretcasual,,Mortal Kombat Black High Definition,13-2-2022,
89,consumerTok,consumertok,,"Not even kidding, I wanted to buy every single one of them except the iPhone when I watched your videos about them.",12-2-2022,
90,EMASCO+ Gaming,emascogaming,,finally found your tiktok😳,12-2-2022,
91,kikaytrekkie,kikaytrekkie,,i Miss LG phones,12-2-2022,
92,saoban,saoban_1,,what must I do for you to gift me a phone,12-2-2022,
93,Fukai The Demon King,onikingfukai,,I just want a phone with no camera and a physical keyboard.,12-2-2022,
94,Steve Jobless,_stevejobless_,,@_stevejobless_,12-2-2022,
95,marly224,therealmarly,,For the 2nd phone is it comfortable holding it since it wraps around?,12-2-2022,
96,krzslacz.zwyczajny,rich_bich_stich,,what About Samsung A80?,11-2-2022,
97,idiot 🐛,mayatrex,,dude casually talking with neil,11-2-2022,
98,Jesus,jesus_haysoos,,Yo it’s Jidion,11-2-2022,
99,Landen,landen_w69,,I want the lg wing,11-2-2022,
100,Matt V,vrealwild,,LG wing is like Tony Stark’s phone in iron man,10-2-2022,
101,𝖘𝖍𝖊𝖊𝖘𝖍,lifewzayya,,Can you Do a review on the Huawei nova 9,10-2-2022,
102,Malik,malomar1130,,the Asus zen camera sorta moves like them book lights,10-2-2022,
103,Peter Tuoriniemi,petskuli83,,But where do you get one of those shirts? 😳 The jurassic one.,10-2-2022,
104,pro_cocoyt,pro_cocoyt,,How much was the wing phone?,10-2-2022,
105,Riand,_riand_,,"I want the wing, its amazing",10-2-2022,
106,simp4itachi⚡,realitachi__,,try oppo a15,10-2-2022,
107,Anwar A.,anu_se_,,wow cool,10-2-2022,
108,DP,user483272487,,i am more on a budget,10-2-2022,
109,Sergio Mancilla Coronado,sergiomancillacor,,need that t-shirt,10-2-2022,
110,miki swordbreaker,nemefiz,,the iPhone is the dullest if all the phones showed in the vid..just adding expensive build and?,10-2-2022,
111,HELIOS but now 50% more gay,lightofhelios,,"God I want that Mi Mix Alpha, like I’d leave Apple for that",10-2-2022,
112,Dalton Fernandes,daltonfernandes,,i wanna hear what neil had to say abt the moon iphone,10-2-2022,
113,inging 🦟,_strawberry_coochiee,,Mi mix alpha looks so cool,10-2-2022,
114,joe,sleeping.joe,,should start selling them😂,10-2-2022,
115,Ty.🇦🇺🇵🇦,thetravellingaussie,,Nice T-shirt,10-2-2022,
116,🦍,not_comedy_gold,,Camera flip one is sick,10-2-2022,
117,David,foobandit,,"oops, I meant Oppo X",10-2-2022,
118,David,foobandit,,how did the Oppo Z not make your list? LOL,10-2-2022,
119,Mostlyhumus,mostlyhumus,,"Moon samples are extremely regulated by NASA for science only. A meteor sure, the moon absolutely not",10-2-2022,
120,Nick,nspada13,,Yo did you get that Tesla from David Dobrick?,10-2-2022,
121,Hugo Luna,stonewall432,,Tony Stark's phone improved 👏,10-2-2022,
122,U,md2004,,Didn’t know jidion had a backup account,10-2-2022,
123,Humza ilyas,humzai00,,Any tips to switch from an iPhone,10-2-2022,
124,benji,bio_benji,,Shirt plug??,10-2-2022,
125,.,darkest.man,,Ay soos,10-2-2022,
126,Jacob yono,jakey_yono,,Jidion?,10-2-2022,
127,Hurricane,n0_3xcuses,,Sup bro 😎,10-2-2022,
128,waverleydave,waverleydave,,#1 …. iPhone with a case on it 😂,10-2-2022,
129,Ryan Pierce,ryanpierce0,,I have the lg wing,10-2-2022,
130,Landon 🌍,hestolemypoptarts,,fortnite,10-2-2022,
131,DISERN,1jesussavedclay,,"I'm surprised u didn't showcase the oneplus 7pro like I have, with the pop up selfie camera",10-2-2022,
132,de brudda from 🇸🇴,xeroxthegoat,,Demarcus Cousins the 3rd?,10-2-2022,
133,Huhhhhhh,yawalmart,,Jidion?,10-2-2022,
134,user2744743975949,liltjaypopsmoke1,,The phone that's screen goes around is hard,10-2-2022,
135,SmadaFN,smadafn,,arent you widion? i Saw you on Twitter,9-2-2022,
136,user4093297540258,ericom1993,,Incredible how much of an apple fanboy you can be,9-2-2022,
137,Mr. J,glitczh,,@glitczh,9-2-2022,
138,John Frank Sims IV,colorseer,,"samsung galaxy note9 wizard amazed, user also amazed",9-2-2022,
139,999,dreamxbre4ker,,I Heard MKBHD Loves Pixels,9-2-2022,
140,Jake Knoblauch,greedaye,,@JiDion this you?,9-2-2022,
141,theimmortalmort78,theimmortalmort78,,I have the Legion and it's a beast,9-2-2022,
142,Chris NFT artist,chris_kelly,,Nokia 7280 (ever typed using a wheel?!),9-2-2022,
143,Chris NFT artist,chris_kelly,,Nokia 7600,9-2-2022,
144,sociali_supreme,sociali_supreme,,@sociali_supreme on that Zenfone,9-2-2022,
145,Mohammad Al Qarawi,madqarawi,,I want the phone with the moon's piece 😳😳,9-2-2022,
146,👼🏾,everything.foreign,,@jidion great video,9-2-2022,
147,AMRA Beauty & Personal Care,amrabeautyy,,are you by any chance Ethiopian?,9-2-2022,
148,sammccormick881,sammccormick881,,just winderimg have you ever used the Pepsi phone,9-2-2022,
149,Jordan van der Keyl,jordanvanderkeyl,,Which one is iPhone users gonna hate on until Apple does it themselves and then suddenly it's the best idea ever?,9-2-2022,
150,justin,justinn.u,,Yo jidion,9-2-2022,
151,Laura Grosvenor,pyromaniacfrompa,,That 1st one looks like something straight outta Star Trek! I just lost my LG phone bc they stopped making them. 😕😢😩😩,9-2-2022,
152,Karlo,karlo.sc,,Markass brownie,9-2-2022,
153,Jreed,therealjalil98,,That phone just got DP,9-2-2022,
154,pizza,deez_nu75_pp,,jidion?,9-2-2022,
155,user5114813285994,jaysar17,,sorry but the top 5 should all be Nokia. back in the day the brought out some insane phones,9-2-2022,
156,Ashley Ann Marie Jon,ashleyannmariejon,,part 2 pls,9-2-2022,
157,Timmie,timmiebanana,,Ayo i didn't know you were on tiktok,9-2-2022,
158,Rei Kris Razo,reikrisrazo,,"Your next Smartphone Review should be the Upcoming @samsung @Samsung @samsungus @SamsungUS Galaxy S22, S22 Plus and S22 Ultra",9-2-2022,
159,Rijon,rijon11,,I think you didn't try the Samsung Galaxy A80,9-2-2022,
160,ward,civ_88,,"These phone companies lack innovation. They're try8ng hard, but seem to have plateaued.",9-2-2022,
161,rey galvez,gaz159,,about that phone with a piece of moon....y tho?,9-2-2022,
162,Marcos Daniel Pelaez,therealmdp_,,I just want iPhone convenience on these cooler phone designs,9-2-2022,
163,Bartek Grabowski,graabo,,imma tag @myself because i would need the first one haha,9-2-2022,
164,Ya Girl,tiktokmarge,,These are SO extra and for what 😂,9-2-2022,
165,ICXC,crrrusade,,LG was the last of phone company to make fun phones,9-2-2022,
166,michael fuentes,mikefountains,,Ok but that camera tech from that Asus phone needs the be the norm,9-2-2022,
167,goatner 🐐,wernerbestoat,,@jidion thanks for the help,9-2-2022,
168,Mike,mike...711,,I like the dual charging phone!,9-2-2022,
169,Xyz,salamandor3,,I reeeaaaaalllly wanted that LG wing,9-2-2022,
170,user3923320467576,devon_rogers123,,The guy from the honey ad,9-2-2022,
171,Carlos Reyes,obiwanlos,,No ngage phone?,9-2-2022,
172,Sherr,sherr885,,I wonder if David gonna get him that black Tesla,9-2-2022,
173,Tafish Scott,tafish_scott_the_2nd,,Next Vid : I turned myself into a robot for a week(review),9-2-2022,
174,Turtel,klaudlivereaction,,omg that shirt,9-2-2022,
175,Apothecrafty,apothecrafty,,Huge flex on being able to just ask Neil deGrasse Tyson!! 😂,9-2-2022,
176,Christopher T. Pinto Torres,tyrone_torres,,I thing LG would’ve still been in the game,9-2-2022,
177,SkitApp,abbe_0412,,Nah first phone isn’t the only one. The asus rog phone has 2 charging ports,9-2-2022,
178,idkwhy,idkwhy06,,the Pablo Escobar one,9-2-2022,
179,R99,orangejuicepulp23,,that Zenfone was awesome,9-2-2022,
180,Jeffrey Berry,jeffjberry,,Zenfone could have sold so much in the USA 😢,9-2-2022,
181,notable,cstmcardsbyme,,How did no one ever think to take the name mkhb,9-2-2022,
182,Swaggerboyam,swaggerboyam,,wow the audio is amazing in this video,9-2-2022,
183,johnXina,zhongxina1234,,Omg jidion on my fyp,9-2-2022,
184,user9183622374469,kingshiytt,,"I love my wing, I wish lg would keep making phones",9-2-2022,
185,daric.vincent,superpickle12,,cool,9-2-2022,
186,Wilbert Rekindle Joh,wilbertrekindlejohnson,,"I ordered the ""Xiaomi Mi MIX Alpha"" a year ago and was told the production of the phone was to complicated.",9-2-2022,
187,tgg,tgg.tech,,ramal media is better then triangle,9-2-2022,
188,Tiaan Lombaard,thehypebr0,,im legit watching this on my lg wing,9-2-2022,
189,Hildreth Hamann,hillsham,,wow these are trippy,9-2-2022,
190,Bryce Keygen,bryce3dkeygen,,have you tried an e-ink phone?,9-2-2022,
191,kishan7241,kishan7241,,where's the s22 ultra?,9-2-2022,
192,geraldstechshow,geraldstechshow,,I have an LG Wing and it is awesome,9-2-2022,
193,TheUnknown,kingtitan117,,Any idea which laptop is the best overall laptop?,9-2-2022,
194,Whothehellareyou,secret._.agent_,,@JiDion you agree?,9-2-2022,
195,Calypsko,calypsko,,Nah bruh someone walking into you’e room with that concept phone while you on something you ain’t supposed to be,9-2-2022,
196,🤷🏼‍♂️🤐,theegreenarrow,,I’m just windows will come back becuase I love the tiles,9-2-2022,
197,Armaan Garg,rorchach28,,okay tbh @mrwhosetheboss has the best series about this.,9-2-2022,
198,Gaz,scousegaz,,Are you looking forward to a Tesla phone if it comes out?,9-2-2022,
199,Alito,alidahero,,They really wanted to be different,9-2-2022,
200,hibatchisalmon,be4anertac0,,love yout shirt man,9-2-2022,
201,reformed badass,reformedbadass,,drop the tshirt link,9-2-2022,
202,Ryan Fyke,ryan_f2894,,I have had the LG Wing since fall of 2020 and I love it. the multitasking is great.,9-2-2022,
203,Fern Offical,fernoffical,,I luv u Demarcus cousins III,9-2-2022,
204,Tor!,_antilu,,I LOVE that horizontal phone.,9-2-2022,
205,Genie,nonprofitgenie,,Really wish I could have got the LG Wing here in the UK,9-2-2022,
206,user398669815231,whatstiktoktokneway,,I mean. Those gimmicky phones 🤣,9-2-2022,
207,Ghanaian Music,ghanaian_music,,"The legion is a gaming phone, right?",9-2-2022,
208,bot,bottybot8,,jidion mentioned you in his video,9-2-2022,
209,zaide Dorius,zaide_edit,,"this aint @mrwhosetheboss
but good video",9-2-2022,
210,YumYoy,yumyoy,,Idek where Caviar gets its money lol,9-2-2022,
211,Elise,elisennicole,,These are honestly really cool 😅,9-2-2022,
212,Emanman Kagina,emanmankagina,,lg😅 your indications where grate ⚰️😢,9-2-2022,
213,SHUBH,shuubhpatell,,Its jidion!,9-2-2022,
214,Ricky Lynch,rickylynch263,,I think the Pablo Escobar phone is the best 😂,9-2-2022,
215,user9352744540270,digtokr,,I’m in love with this guy.,9-2-2022,
216,Sam Hughes,foodaddict756,,Did you see Pewdiepie reviewed your setup?,9-2-2022,
217,Madiha Naj Anjosmary,madihahnaj,,"...""goes all the way to the back and really hard to use😅😂",9-2-2022,
218,Travis Dirk Maicoo,travisdirk,,Where can I get that t shirt 😳,9-2-2022,
219,Joshua Ongenae,joshua.ongenae,,omg whats the shirt??,9-2-2022,
220,Care Bear,carebearsimon,,the Xiaomi would have been perfect,8-2-2022,
221,E4TER,e4ter_yt,,I guess I'll just tag myself cos I'm a mobile game content creator @mkbhd,8-2-2022,
222,Thomas Newman,thomasnewman5,,Was really expecting to hear about the Amazon fire phone,8-2-2022,
223,owen,o.f.11,,apple should try that flip camera,8-2-2022,
224,Sanskar Wagley,sanskarwagley,,Best Sony phone?,8-2-2022,
225,Ricardo Tamez,ricardotamezg,,check it out its elons pet,8-2-2022,
226,portos,we.choose.infinity,,Red? 🥺,8-2-2022,
227,LEO,d.cap.rio,,i'm just gonna tag myself real quick mkbhd hope u don't mind 😅,8-2-2022,
228,Seth Hurley,sethhurley2,,What about the Pablo Escobar Fold 2?,8-2-2022,
229,auroraborealis,auroraborealis.jpeg,,"you really are making more ""shorts"" i like them!!",8-2-2022,
230,logan boss,loganboss3,,The quality of even your TikTok’s is amazing,8-2-2022,
231,zach,zchhnd,,🐦Early Bird🐦,8-2-2022,
232,Life IS FUNNY,funnyhowlifeis,,I never seen those black phone out in public even Sony Xperia Pro-1,8-2-2022,
233,L1NKN,l1nkn,,Rip LG mobile,8-2-2022,
234,Alejandro Rojas,alejandrorojas843,,"siempre hay latinos en tiktok, donde estan ahoraaaaa",8-2-2022,
235,KING_LEB,king_leb2,,Xiaomi phone omg 🥺,8-2-2022,
236,🤍🌹Jamie🌹🤍,dino_nuggiess,,64 😍 Tell me am I cool? 😍,8-2-2022,
237,Mateo,mateo.0.oetam,,sup,8-2-2022,
238,Mack Builds,mackbuilds,,Epic,8-2-2022,
239,user1784612895827,idcjustdont,,But does MKBHD respond 🤔🤔🤔,8-2-2022,
240,user5539165300409,liftupvibes00,,Why laptop companies cannot enter the smartphone market,8-2-2022,
241,user2352147640776,devidav2,,love The Wing. Wish LG would have lived in to make a Wing 2,8-2-2022,
242,Markel Perry,kelkarot,,I miss phones with alternative form factors.,8-2-2022,
243,noahthebitch1 bro,noahthebitch1,,You remind me of captain sparkles. No hate tho i love your stuff,8-2-2022,
244,Kevin,iitskevv,,nice,8-2-2022,
245,Hamli,hamlihere,,Today's Smartphones design is boring. Shout out to them for trying 🙌,8-2-2022,
246,Vaktik,vaktik,,should I buy a OnePlus 9pro or S21 FE,8-2-2022,
247,mafus,mczmaclar234,,I think Lenovo is falling 😬,8-2-2022,
248,Nate,nate.hughe,,it’s illegal to be this early😅,8-2-2022,
249,Kurt Budd,kurt.budd,,I remember the videos for 3 and 5,8-2-2022,
250,Dimiracer_12,chicken_god_official,,"I would use the mi mix alpha, it's cool",8-2-2022,
251,renezada8,renezada8,,The battery consumption of the second one…,8-2-2022,
252,selasi 🎒,yevsel,,Love you bro❤️,8-2-2022,
253,user311894,alishamman,,So early wowww,8-2-2022,
254,ceveret3,urfriendcharles,,I really wanted the LG wing But I also like software updates,8-2-2022,
255,ᕦ( ⊡ 益 ⊡ )ᕤ,saul__g00dman,,hi mark,8-2-2022,
256,Георги Чавдаров,g.chavdarov,,The trend in smartphone manufacturers removing the sd card from there phones Is the worst!,8-2-2022,
257,dalovering,dalovering,,Umm that shirt is amazing,8-2-2022,
258,Equillix,equillix24,,Bro I’m early,8-2-2022,
259,UMMM... R,d3l0x,,I bet you won’t pin this comment😂,8-2-2022,
260,Talha,thatonetalha,,The LG Wing would be the best one to pull out in front of friends lool,8-2-2022,
261,Hīîīgøkū,hinoboay,,Wow,8-2-2022,
262,Hamdi 🤌,fw.h4mdi,,10th,8-2-2022,
263,Masule,mikeoxlong20222,,huge fan,8-2-2022,
264,Klaus der Boss,klausneuer57,,Love it man keep it up,8-2-2022,
265,Susan Wojcicki,susanw69,,L on the iPhone.,8-2-2022,
266,Elver Gudo,elverrrgudo,,How does the LG Wing feel when it falls on your face?,9-2-2022,
267,The Council,the_guys_council,,Arent you the guy I watch on skill share😳😂,4-5-2022,
268,theashboy4,theashboy4,,@mkbhd I follow you alot. am startupper in Cameroon (africa). Can we agree for you to send me old equipment no longer useful for you rather than thro,13-2-2022,
269,Vic Martin,martvxc,,"""and really hard to use""",11-2-2022,
270,Ru,ceylonbluesapphire,,How are you casually talking to NGT?!,9-2-2022,
271,Devon🕺🏾❤️‍🔥,dgsplurge,,"If you’re looking for new artist to support, especially during Black History Month, I’m one🔥🔥",8-2-2022,
272,RiisManden,mathiasr11s,,"Damnnn, the bots are really quick",8-2-2022,
273,Realbenten,realbenten4,,"yeahhhhhhhhh I'm 50,i hope you see my comment, pls reply I'm a fan",8-2-2022,
274,Yungenz,sadderstream,,Hi @Marques Brownlee,8-2-2022,
275,helpful_reece,helpful_reece,,such an interesting video,24-2-2022,
276,Zeng Jiawei,zengjiawei,,Where’d the Energizer brick phone,14-2-2022,
277,“josh”,nashgrierfan23,,Hey i know u care a lot about video quality- i want to get the best out of my uploads too and just got a camera. Any tips for video/upload settings?,9-2-2022,
278,Abdul kader,khankipolatui,,Pin this if you love us no homo,8-2-2022,
279,Koms,koms.way,,Absurd beautiful n really hard will be my autobiography name 🤣,8-3-2022,
280,Kev,kevin0zz,,Is that MARK-ASS BROWNLEE? @Will Smith,7-3-2022,
281,Sebas,_sebas_872,,@bigbagofpotatoes MKBHD Pakistan,12-2-2022,
282,Squigga,oscardahomie1st,,Mark ass brownie,10-2-2022,
283,Zack Zeman,zackzeman1,,"Watching this on an LG wing. Cool phone, kinda useless.",10-2-2022,
284,aeozam,aeozam,,Marqueef Brownussy,10-2-2022,
285,Golden experience,imdefinitelyfunny,,Yo it's mark ass Brownlee,9-2-2022,
286,Don't Worry,ines_squirrels,,imagine tryna hide you watching 🌽 on the 2 alpha Phone.,9-2-2022,
287,VinnieSarducci,vinniesarducci,,"no one cares, stfu",9-2-2022,
288,marmaladedookie,marmaladedookie,,my pixel 6 pro fuggen sux,9-2-2022,
289,Osman Salih,habashioncrack,,why do you look different in your jidion channnel?,9-2-2022,
290,EzVGD,beastking911,,Mark ass brownlee,9-2-2022,
291,Clara Terry,claraterry455,,I've always wanted a side income with the help of @protrader_kate I'm now making 4k every week,9-2-2022,
292,Ari Gold,arigoldfl,,Oh. I was waiting for the Nokia n-gage 😅,8-2-2022,
293,:P,spectacular_spooder_man,,"I fucking love short tech videos on tiktok, especially from THE tech dude himself, MKBHD",8-2-2022,
294,Ryan Kent,ryan_kent98,,I saw u playing ultimate on my fyp a couple days ago u were a dog,8-2-2022,
295,..,ifudontagreejustsaythat,,Crazy they’re all made in the past 4 to 5 years,8-2-2022,
296,Tik Toker,creamypho,,casually threw a “so i asked neil degrasse tyson” in there lmao,8-2-2022,
297,.,ghostass33,,Mkbhd. How is the cpu production going so far?,8-2-2022,
298,JE suis en train de faire des,noixdecocoenbocaux,,I'd love to have that LG wing,8-2-2022,
299,Gav’s Tech,gav_tech,,oof flop era 🤩🤩🤩,8-2-2022,
300,Titannik_her,titansnik_her1,,Mid af,8-2-2022,
301,oofster,superdoublebunkbq,,the leigon is a real looker,8-2-2022,
302,Nishant Sinha,nish_s0,,LG Wing takes the cake. Rip LG.,8-2-2022,
303,SuperSayan,supershotgun,,tiny dino t-shirt?,2-5-2022,
304,STANZ_SA,admirezwane1,,I don't even have a phone 😭,22-3-2022,
305,Cherry Darlin,cherrydarlin33,,I went to T-Mobile to get a new phone (had an LG). Told be LG was bought out and couldn't get a new one. LG Wing...Where?!,10-2-2022,
306,Thuy Le,l0v3le,,where's can I get the shirt?,10-2-2022,
307,🪲,9bug9,,wing phone had so much potential,9-2-2022,
308,kman,kaleidoscope.kw,,1st,8-2-2022,
309,Mohamed Singer835,mohamedsinger44,,"lg wing
كان نفسي فشخ اشتري التليفون ده و بالنسبالي كان عملى فشخخخخ
@khattap2002",9-2-2022,
310,ZR,aztec_hercules,,Wtf is his intro? I can never understand this lad when he introduces himself on any video,9-3-2022,
311,DJ GAZAWI,djgazawi,,the xiaomi is cool as shit,9-2-2022,
312,al,alsegs,,shush mate,9-2-2022,
313,wassap,silvermonger,,"kabee hd?
you mean mark ass brownlee",12-2-2022,
314,Carlos Flores,carlosflowers07,,Bro I have a IPhone 13 Pro Max and I can literally smell through my phone go take a shower 😅😅😅😅,9-2-2022,
315,Cole,alcheyman,,"My roommate has the wing, after about three or so months it went to crap and he hates it now",9-2-2022,
316,Shane Sartori,shane.sartori,,"screw the tech, what is that shirt",9-2-2022,
317,hamadgbk,hamadgbk,,who asked,10-2-2022,
318,Cody Still,cody_still,,it's not a piece of the Moon and anyone who is gullible enough to believe that deserves to have their money taken 😂😂😂,9-2-2022,
319,kierandaly270,kierandaly270,,Fabulous. How to stand out in a room full of iPhones.,9-2-2022,
320,Grannykicker101,grannykicker101,,We’re u on the battle bus at one point?,9-2-2022,
321,Mr.Anderson,andersonallen00,,JIDION what’s up man,8-2-2022,
322,MainsInk,mainsink,,We never made it to the moon. If you look it up Moon rocks are petrified wood,8-3-2022,
323,Alexander Henderson,alexandiesudjejej,,I'm pretty I've seen those camera design that swivels up front years back on chinese phone even before asus did it. They probably just improved it,2-3-2022,
324,Lilguy.mcbe_backup,lilguy.mcbe_backup,,"on the first phone, what if you get a usb-c to usb-c cord and plug both ends into both ports?",9-2-2022,
325,🤷🏽‍♀️,_.lungile._,,@av0cadh03 woah,28-3-2022,
326,BigDaddieHayden,bigdaddiehayden,,Is that Marques Brownly,17-2-2022,
327,Niko,.triniko,,yo its jidion,10-2-2022,
328,Baxter Boy123,baxterboy123yt,,I would have all but the curved screen,9-2-2022,
329,☻️,._.dcr,,Jidion?,9-2-2022,
330,#prius_fanboy101,prius_fanboy101,,I have an iPhone 13 and my friend has a LG Stylo I want to upgrade her phone so bad😅🥺,9-2-2022,
331,leo,leodosetiktok,,did u know that puti pie put u in his vid,9-2-2022,
332,Leonel Ayala,officially..leo,,Didn’t you get a black Tesla from David ?,9-2-2022,
333,üüüüürrr,meatsouce,,"""phones""- to make a call its just so tiny feature these devices have.",9-3-2022,
334,Uskey🍥,u.skey_,,@glexx_,12-2-2022,
335,buckeyeslakers,buckeyeslakers,,@willweinandy,9-2-2022,
336,Misty,misty.suave,,@pandakappa 👁️👄👁️,8-2-2022,
337,Ramiro Galvan,galvancipher,,@Abraham Sabillon,9-2-2022,
338,Amadeu Do Vale Lourenço,amadeudovaleloure,,@biancalourenco @_le.le__,9-2-2022,
339,T,grimtitan,,@lady_b012,9-2-2022,
340,🤥💕,lilric69,,@bummys3cr3tts,9-2-2022,
341,Sipho,lordresssipho,,@pearlyym,3-5-2022,
342,CopyrightSensei,copyrightsensei,,@kerrtaku @ryanjohnson583,15-4-2022,
343,Jungcock,user8857326583,,@duntayokungsantayosasaya @batm4ns @jrayyeah,29-3-2022,
344,Anime_Senseii,anime_senseii,,@Gwejo,29-3-2022,
345,Dave nonymous,davidamongus_,,@taeyoonjinentertainment,21-3-2022,
346,Car Stuff,cool.cars.spotter,,@the_golden_tesla,14-3-2022,
347,Ranch,ranchcusibedressing,,@jonthanacee,5-3-2022,
348,Toyesh,tktxtoy,,@0powa0,28-2-2022,
349,Desperado,desperado_770,,@animeruler23,26-2-2022,
350,ibeboredtho1,ibeboredtho1,,@JiDion,13-2-2022,
351,whosaid_,whosaid_,,@GadgetIn,10-2-2022,
352,RoastMasterRon,roastmasterron,,@marshallsonn @robp0531,10-2-2022,
353,Dante,ifteislam,,@s41m_h,9-2-2022,
354,?,upside1134,,@upside1135,9-2-2022,
355,tahoebulat,tahoebulat,,🙁,9-2-2022,
356,dē$ï,desi_wc,,@JiDion,9-2-2022,
357,user6359026569194,justin.sinjern,,@mrwhosetheboss,9-2-2022,
358,Charlie,olliechalls,,@mcproskie @melanikobarles,9-2-2022,
359,Joeboy12,joeboy1235,,@lordavaboi3,9-2-2022,
360,JohnnyNepa3,johnnynepa3,,@Alenepa @Fabricio Nepa,9-2-2022,
361,Sirpapisuave,sirpapisuave,,@008crtz 😌,9-2-2022,
362,Rj Sj2,mrgq786,,@sbj793,9-2-2022,
363,Hâñãd Hömïē,hanads00,,@pulpyfeelings,9-2-2022,
364,Ellis w,elliswilliams2020,,@Tom Kenney,8-2-2022,
365,Kagiso Totwe,apothecarywhocares,,@cleopatra___11,8-2-2022,
366,Rui Carlota 🇵🇹 ,ruicarlota,,😁,8-2-2022,
367,Aiden Khant,aidenkhant,,1,8-2-2022,
368,Faisal Rahman,faisal..rahman,,@whatdadogdoinging,22-2-2022,
369,"Josh, not a random guy",sad_linus_guy,,@mrwhosetheboss,8-3-2022,
370,mju.kuuu,mju.kuuu,,@zee_mwaniki,9-2-2022,
371,Jan🧡,bonanijanjeremy,,@kidfrommountain96,29-3-2022,
372,ibehagrid she/her,ibehagrid,,@Marques Brownlee really appreciate the authentic tiktok content bc of you I’m an aspect ratio snob & cutting & pasting platforms is lame 😂,7-3-2022,
373,João Vitor Jardim 👑,jv_jardim,,MKBHD post much more often on TikTok challenge,9-2-2022,
374,Fallon Moore,mooretoks,,I'm taken aback by how good the audio is for a Tik Tok. I feel like I'm hearing in HD!,9-2-2022,
375,Is-haq Ali,iamizac,,@mahmouzayn6,9-2-2022,
376,Melvin Lopez,obidadkenobi,,zenphone was the most viable until director view :),9-2-2022,
377,Oli,onlyfamoli,,am I the only one who want and old school flip phone but with apps and a touchscreen?,9-2-2022,
378,Samantha Murray,samanthamurray06,,The flip selfie camera don’t look that bad,8-2-2022,
