,Comment Number (ID),Nickname,User @,Comment Text,Time,Likes
1,Dan Gleim,dangleim,,Dude you should start a YouTube channel,21-4-2022,
2,Nick Horrigan,nickpapagiorgio,,I love these modern takes on retro body styles. I hope it becomes more common. More freedom in the EV world.,21-4-2022,
3,Kanoshem,kanoshem,,I love the idea of retro chassis designs being used for modern electric cars. think Hyundai did a really cool concept that I would love to see irl,21-4-2022,
4,user9189544346284,theairnomad,,This is exactly what I wanted them to do for the Volkswagen bus instead of what they did coming out in 2023,21-4-2022,
5,Alex Lorenz,alexlorenz8,,"When he said it’s electric, that just ruined it",22-4-2022,
6,Ninja Sniper M82,ninjasniperm8260,,my wife told me i have no idea what it's feels like to be a woman. so i test drove a ford!,25-4-2022,
7,Hijabi Patrol,hijabi_patrol,,That Demarcus cousins 😳,21-4-2022,
8,Robin Banks,ramenbanks,,Bout time we started making vehicles look good again,24-4-2022,
9,AUDL,theaudl,,⚠️TRADE PROPOSAL⚠️We get the truck and you get MVP,22-4-2022,
10,bln,dunkedme,,0 to 60 real quick,21-4-2022,
11,Robbie Leffel,robbieleffel,,"Wouldn’t the truck be heavier and less aerodynamic, thus slower?",21-4-2022,
12,Adam Foster,afostkid,,The future is electric. That looks classy,21-4-2022,
13,vaz807,vaz29807,,imma big fan,21-4-2022,
14,Foxy,foxy.1999,,@astrephel what if I did this to our 99 Ford ranger 👀,24-4-2022,
15,Piers Jelfs,piers211,,I love it,21-4-2022,
16,Rana Muhammad Azhar,ranaazhar74,,@ranaazhar74:like my video friend love 😘 you 💓❤️,vor 1 W.,
17,Brian Herwing,chazecash,,Nice can we get an interior tour?,21-4-2022,
18,Ragab,ragabanation,,Imagine MKBHD reviews cars full time. Game over.,4-5-2022,
19,Kevin Angelo,kevinangelo07,,I though nobody was in the car 😂💀,25-4-2022,
20,Skip,skippy711,,Bro what’s this song?,22-4-2022,
21,Ibrahim Masood,itme_ibrahimm,,sassy😳,23-5-2022,
22,AJ,aidan_ellan,,uge fan of this!!,21-4-2022,
23,Ben Bell,bell2397,,"neat and all, but it would still be much cooler with a big block or something. Great sunset strip cruiser though",22-4-2022,
24,Learn with Trung,learnwithtrung,,Cooll!!!,2-6-2022,
25,Nuku Matanawi,proffesorxyz,,@mkbhd What's the beat?,8-5-2022,
26,Carlyle Sheppard,carlylesheppard,,Opening line sounds very Doug Demuro lmao,2-5-2022,
27,Rosa,cupcakanator,,yep I want it,1-5-2022,
28,Dam Ceesay,aamda22,,what's the background song marques,30-4-2022,
29,Cam,just.cam__,,What.,30-4-2022,
30,David R,davethebaldguy,,"I love that truck. Expensive refurb, but it’s awesome!!!",28-4-2022,
31,Chris,cgautreau,,Ground Speed? Does it fly?,26-4-2022,
32,Airman,airman672,,YO I SAW THIS AT THE CHICAGO AUTOSHOW!!!!,26-4-2022,
33,James Hernandez,drippinxjason70,,It’s a no,25-4-2022,
34,.....,unicornplower,,It’s cool! But I still prefer many small explosions under the hood.,25-4-2022,
35,Claire,whoosie2003,,I don’t think you understand how badly I need this,25-4-2022,
36,Angel Arellano,el_compa_angel33,,I want this truck,25-4-2022,
37,MATTHEW,911snobro,,should put a Ford focus transmission in it..so you can replace it like I have to now for 3300.,25-4-2022,
38,user9939222012234,scottalger,,Cool sleeper.,25-4-2022,
39,wildcat2576,wildcat2576,,Love it!,25-4-2022,
40,I talk a lot,italkalot1,,Only truck I’d drive,25-4-2022,
41,Alex Caballero,aerocaballero,,Aaaaand it broke down when it hit 62 cause…FORD!,25-4-2022,
42,Sam,s1l3nt3n7gma,,"I like the part where he says ""Which Means""",25-4-2022,
43,Steven JohnBrown Wei,stevenjohnbrownvineyard,,That’s what it would mean in a mustang not your super heavy farm truck,25-4-2022,
44,Jorge Arellano,jorgeal1112,,Gorgeous,25-4-2022,
45,Nuku Matanawi,proffesorxyz,,That beat is ouffff 🔥🔥🔥🔥,8-5-2022,
46,Raul,b_r_21_,,I WANT TO DO THIS TO MY 1990 Chevy suburban!!! 😭,25-4-2022,
47,M. Sue,rolltidetho,,I want it,25-4-2022,
48,mJaY,mjaysocal,,yes! please!,25-4-2022,
49,🤡,eggaisle,,I need it please,25-4-2022,
50,Arie,sorryarie,,that’s dope I want one,25-4-2022,
51,DMCFlux88,dmcflux88,,This is awesome.,25-4-2022,
52,Jeremey Henrickson,jeremeyhenrickson,,Less than dramatic… expected more 😳,25-4-2022,
53,htc148,tobe148,,rather have a slow v8,25-4-2022,
54,Kyle Rinker,kyrinker,,This is amazing,25-4-2022,
55,Jean-Paul Tonca,originaltonca,,where do I get one I keep throwing money at the phone and nothing is happening,25-4-2022,
56,Samuel A. Shields,samwyzh,,I would buy this if they added airbags.,25-4-2022,
57,KingKlobe,kingklobe,,That looked like 0-60 in about 3.5 days?,25-4-2022,
58,Wandxo,wandxo,,I want one,25-4-2022,
59,jl,sugplu,,i feel sad more people are not upset about this … we’re losing our beautiful machines.,25-4-2022,
60,BlueberryJag35,blueberryjag35,,"the speed is impressive. but like, you cannot lie that when he launched it, it was a bit underwhelming 💀. just the little whir of the electric motor",25-4-2022,
61,Colton Rose585,coltonrose63,,used to own one 3 on the tree,25-4-2022,
62,Matt,itsyaboimatty,,I thought snoop dog was driving at first lol,25-4-2022,
63,jessebvad,jessevad,,Please give it to me thank you,25-4-2022,
64,just_dave88,th3paganchef,,and eat 1/3 of the battery in the hole shot,25-4-2022,
65,User@28837319,ogm3atdaddy,,Which means..,25-4-2022,
66,Jerry Hawk,jerryhawk,,they messed up a awesome truck,25-4-2022,
67,MYKALEJAXIN,mykalejaxin,,That was so underwhelming 😂,25-4-2022,
68,J-doe Smith,thankyoujdoe,,oh wow,25-4-2022,
69,user2721403300970,f8340,,You need this truck,25-4-2022,
70,Reverend Matty,antifahighcommand,,I'd buy two,24-4-2022,
71,Queef_mcgee,queef_mcgee,,Just as long as it doesn’t have 1978 safety features 😅,24-4-2022,
72,genes jones,genesjones,,Who else didnt see him in the shadow,24-4-2022,
73,Abdallah,abdallaahhh,,I saw this at the chicago auto show🫣,24-4-2022,
74,user2432843261086,sugma.balls44,,That thing looks fun as hell,24-4-2022,
75,Keagan,keaganb22,,So sick! I’ve got a 76 and now have an idea for a swap lol,24-4-2022,
76,🌻,gabbylena,,This is dope!!,24-4-2022,
77,Amy Fuller,mamabecraycray,,My husband works at Ford Performance. I was showing him this and he pulls up a pic of this truck in his shop from December. Very cool.,24-4-2022,
78,mikewoodworth348,themichaelwoody,,sorry let me turn up the volume.,24-4-2022,
79,Nacho,phillycheeeese,,Model 3 performance swap would be better,24-4-2022,
80,sam,2005.sam,,That just aint right,24-4-2022,
81,Emccully,emccully1000,,Electric launches are so underwhelming,24-4-2022,
82,Neo-maxi-zoom-dweebie,.scranton_strangler,,I need the F100 in my life,24-4-2022,
83,Sedrick Pete,sedp1987,,That’s pretty sweet,24-4-2022,
84,jon,ayoj0n,,Man was in the shadows,24-4-2022,
85,Sarah Ray-Hill,sarahrayhill,,So even though I heard you say it was electric...I was still in shock at how quiet it was!,24-4-2022,
86,Landon,go_go_gabar,,Ford didn’t do that. You or someone else did that…,24-4-2022,
87,TurtleSandwhich,turtlesandwhich,,They need to make this non concept,24-4-2022,
88,Sazanka Bianca,sazanka_bianca,,this is literally what I expected for the Bronco and I'm so disappointed,24-4-2022,
89,kjdaprofessor,kjdaprofessor,,That was 3 seconds?,24-4-2022,
90,kane,kanebutnotcandy,,It could do 0-60 in 1 second and it would still be boring. 80% of being a car guy is enjoying the sounds your car makes.,24-4-2022,
91,hunterovitt,slightlymediocredude27,,Now this is what I want to see. Classic design combined with new innovation,24-4-2022,
92,David Elias Aguayo,user51796463,,We need a part 2,24-4-2022,
93,Rowan Cockrell,nedge4.6,,Oh no the tech people are getting interested in electric “cars” 😑,24-4-2022,
94,Good_Sir,good_sir_,,"Ngl, I didn’t seen him for the first 4 seconds of the video🤣",24-4-2022,
95,panicknifer,panicknifer,,you know it's lame when the comments are up and you dont hear the car Launch.,24-4-2022,
96,Dennis Kaye785,aye_dk,,🔥🔥🔥,24-4-2022,
97,jmtz021505,jmtz021505,,Why is jidion reviewing cars,24-4-2022,
98,Salt Licker Soloman,saltlickersoloman,,ELECTRIC IS THE FUTURE. I love gas cars and always will but electric is slowly taking over.,24-4-2022,
99,Chandler Stewart,chandlerstewart8,,i would like this truck,24-4-2022,
100,mellomello9133,mellomello9133,,Interesting,24-4-2022,
101,Zane (Judas),thug_waffle,,That’s dope I just wish it was loud,24-4-2022,
102,Kota Baird,kotabaird,,If they made these again they’d have a lot better time converting to electric,24-4-2022,
103,SupremeDream69,supremedream69,,If this is the future of EVs I’m excited.,24-4-2022,
104,SupremeDream69,supremedream69,,Ford made this???,24-4-2022,
105,user7709800747487,xbrownpawx,,Bro went from phones to cars….nice👌🏼,24-4-2022,
106,Young Angel,youngangel35,,Dodge needs to do this with old school chargers and challengers. They’d sell more than teslas,24-4-2022,
107,Logan,psychfab,,Which means which means which means,24-4-2022,
108,user7361956153278,coltjustperdewit1,,so you gotta make your own noises?,24-4-2022,
109,Mike Scott,miketoocold,,How much is it,24-4-2022,
110,criscollinsworth,criscollinsworth,,Electric cars will never be cool accelerating without the sound,24-4-2022,
111,Austin Becker,austinstiktokpage,,I would LOVE to have this truck!,24-4-2022,
112,Notjoebartalozi,joebartaloozi,,Are they for sale ?,24-4-2022,
113,Nick,nickickickick,,bro i actually thought there was no one in the car until he popped his head out into the sun,24-4-2022,
114,jack,jack_ops3,,bruh it's just so unexciting without sound,24-4-2022,
115,H. Lucas Frank,denmarkruffalo,,Will I be able to buy or afford? Until then f ford,24-4-2022,
116,Andy Silva,andysilva012,,Beautiful 😍,24-4-2022,
117,Michael Hotter268,michaelhotter26,,That’s the longest 3.5 seconds,24-4-2022,
118,yur,comfortpoop,,only if they didn’t use the mach e. battery,24-4-2022,
119,Jason Lease,jasonlease2,,That display is so cool,24-4-2022,
120,Shane,theliftler,,Bro probably doesn’t realize he’s Jidions profile picture,24-4-2022,
121,Josh or something,maximusortizlmao,,cried when i heard no motor even tho i knew,24-4-2022,
122,sExi LeXi,alexia_hehe,,do you think they’ll do a 65 or 67 mustang?,24-4-2022,
123,Jordan Nonnemaker,jordannonnemaker,,They need to sell this,24-4-2022,
124,Sinful,sinfulmx,,"this is what we want ,old school looking cars EVs",24-4-2022,
125,xXengrossedhemeragingXx,xnsoskxnfhrosls,,and js they are only going to get faster,24-4-2022,
126,Sawyer Shelton,sawyershelton,,Dude electric is not cooler I swear it’s not,24-4-2022,
127,Logan,loggith,,Can we just talk about how perfect that stance and fitment is too?,24-4-2022,
128,STR1CKLYBIZN3SS,str1cklybizn3ss,,Which means…,24-4-2022,
129,Mister E,kerryschmerry,,Want,24-4-2022,
130,atozcigars,atozcigars,,Had to send this to my dad because he just got an a normal one 😅,24-4-2022,
131,Monday4lifekid,monday4lifekid,,Cool,24-4-2022,
132,Jim Harpua,harjims,,That is so badass,24-4-2022,
133,David A,david_adeoye,,yh,24-4-2022,
134,Bernard Long Johnson,longjohnsanders,,bricked up rn,24-4-2022,
135,Jonathan Abel Orenda,jloveorendain,,Did not look like 3.5 seconds..,24-4-2022,
136,Otis Carlisle,brotis86,,I would do buy this. In a heart beat,24-4-2022,
137,Mason🏀🥍#42,life_wide_open690,,Ruined the truck,24-4-2022,
138,bitplz,bitplz,,damn thats so cool,23-4-2022,
139,KaungKhant KoKo621,basicboy00,,Bruh i didn’t see you until your head popped out,23-4-2022,
140,Zack Miskie,zackmiskie,,"this guy should really start a tech review channel on youtube, i feel like he would do so well",23-4-2022,
141,SolomonsGospel,solomonsgospel,,this...........,22-4-2022,
142,Roomify,roomifyy,,thought u were jidion,22-4-2022,
143,Idiot_chickens,idiot_chickens,,My dream truck right here,22-4-2022,
144,Druqqy,druqqy,,love it,22-4-2022,
145,Scott Neumyer 🎥 Trivia Dude,scott.neumyer,,Ok I want 😳,22-4-2022,
146,Mike Tucci245,miketucci0,,But the companies that do this currently and charge over 100k should be ashamed of themselves.,22-4-2022,
147,Mike Tucci245,miketucci0,,This is what they people want.,22-4-2022,
148,Alex Edleman,edleman,,The fact the 2014 gt500 had a faster zero to 60 is the real shocker,22-4-2022,
149,not your friend,backoffyouhoser,,Song?,22-4-2022,
150,walter lopez,snakpakk,,That’s wild! I love crazy stuff like this in the automotive industry,22-4-2022,
151,OklahomaPoolman,oklahomapoolman,,Channeling your inner Doug DeMuro are ya? THIIIIIIISSSSS,22-4-2022,
152,James,wildcatguy2012,,That was longer than 3.5 seconds,22-4-2022,
153,Phaul's Ma,phauls_ma,,I've always wanted a lil old Ford pickup! THAT would be perfect. 🥰🥰,22-4-2022,
154,Joshua Bane,joshuabane,,You need to race Walt! @Peter McKinnon,22-4-2022,
155,Kevin Vega Sanchez,kevinvegasanchez,,Woah 😳,22-4-2022,
156,Jayme McColgan,j.me93,,I kinda want one...,22-4-2022,
157,kyle,rusted_empire,,meh,22-4-2022,
158,Jack Royalton,jackroyalton,,The electric truck we all wanted.,22-4-2022,
159,pierrelouis,pierrelouismsc,,Reminds me of the trucks in The Watchmen series. Now I wanna rewatch.,22-4-2022,
160,Joel Meyer,fat_turkey45,,something just not right about that,22-4-2022,
161,cinnamonMUFF,cinnamonmuff,,Do the NY tour with thar,22-4-2022,
162,Jonation33,jonation33,,Beautiful,22-4-2022,
163,Depot Msa,depotmsa,,We want more stuff like this to buy,22-4-2022,
164,rayrushing,ryrshng,,I want this truck so bad. 🤩,22-4-2022,
165,Max Tasche,madsiesta,,It’s going to get dangerous for blind people to cross the street with all these whisper quiet vehicles.,22-4-2022,
166,bryan502213,bryan502213,,I would love to see dealer service centers offer retrofitting for those that want an electric car but don’t want to throw a car away,22-4-2022,
167,Robert Kyle,z06ert_kyle,,"I mean, for electric. 3.5 seconds is kinda slow",22-4-2022,
168,Robb,gamingbybaka,,bro really? I'm so sick of tech reviewers all of the sudden being into electric cars. stay in your lane,22-4-2022,
169,jpoof1337,jpoof1337,,THISSSSSSSS,22-4-2022,
170,Eddie,edgerwood,,@Hailie Deeganshould’ve done a collab on this one.,22-4-2022,
171,Tyler Bennett,bl4ckflip,,I've never wanted a vehicle more in my life.,22-4-2022,
172,Mohanad Najeeb,mohanad_najeeb,,Now that's an EV i can rock with,22-4-2022,
173,Hector Diaz,itsjustdiazz,,I wish you had longer videos on tech and stuff you'd be really good at it,21-4-2022,
174,eddie,edmonstevemon,,Ngl it’s pretty clean,21-4-2022,
175,SPARKEY⚡️,sparkey_3,,Oof ⚡️,21-4-2022,
176,TheWeekndIsTheGoat,abelsknd,,"I already knew it was converted when I saw it was you, nothing but an OG",21-4-2022,
177,Logan Seay,seaymonster,,Don’t tell @Peter McKinnon,21-4-2022,
178,mo,mo.a.k.a.moh,,u mean to say its fast ?,21-4-2022,
179,puddud4,puddud4,,Pretty sure Marquez fit better in the Lambo,21-4-2022,
180,user3797673014110,grantecton,,beautiful!!!,21-4-2022,
181,Smwaus,smwaus,,"Well, then it should be a 2022 F100, not a 1978 F100",21-4-2022,
182,shorethingsales,shorethingsales,,I wonder what setup will end up being the LS swap equivalent and end up in just about everything,21-4-2022,
183,tedsticle,tedsticle,,I love that Marques does the Doug Demuro intro with cars,21-4-2022,
184,housesandgardens,housesandgardens,,fire,21-4-2022,
185,Cars and Chris,carsandchris,,hey bro you got a YouTube channel I can check out?,21-4-2022,
186,Nick6,tybbenny,,i didnt know demarcus cousins did reviews???,21-4-2022,
187,POCKETGANGSTER,pocketgangster,,I wish I had it!,21-4-2022,
188,Matthew WheelerPhoto,mwphoto,,Come on chevy do us a favor,21-4-2022,
189,"Isaac ""Ice"" Garnica",audienceofone1,,"they should do this to all cars, old school frames with modern drivetrains",21-4-2022,
190,-,therealmigueljtorres,,Restomods are my heart and soul! 🥰🥰🥰,21-4-2022,
191,Mack Calhoun,mackcalhoun,,I’m absolutely here for the MKBHD car content,21-4-2022,
192,Raymond Holigrocki,rippinray,,Modern classic,21-4-2022,
193,Emile Gildas Allogba,emilegildasallogb,,😱😱😱😱 ding 🥰👏👏👏👏,21-4-2022,
194,Justin Brady,justinkbrady,,did it hit the 3.5?,21-4-2022,
195,gorgak1935,gorgak1935,,I want one so badly,21-4-2022,
196,Harv,hlidder9,,old truck with new designs and tech 🤩🤩🤩🤩. I would buy this in a a heartbeat,21-4-2022,
197,Hero,windows200000,,The used to chase brothas and Forest Gump in them trucks I can’t do it lol,21-4-2022,
198,Love S.,bean_senpai44,,Damn.,21-4-2022,
199,Peter Tuoriniemi,petskuli83,,That is really cool. If it just had original style interior,21-4-2022,
200,TikToker,no_name_2_display,,Seen Shelby electric in 2019,21-4-2022,
201,Nick,yung_dagger_nick,,it’s so different to see you in an old truck,21-4-2022,
202,Yazid,future.dust,,Who says Ba3s aren't the future..,21-4-2022,
203,Jason Walters,the_jason_walters,,this is what I want,21-4-2022,
204,Justin Nelson,jjnguy,,I wouldn't trust a truck from the 70's to stop after that launch.,21-4-2022,
205,dancorona86,dudephatal,,Love this! old school build with modern insides.,21-4-2022,
206,Ian,ringering,,Which means,21-4-2022,
207,Cody,thecognitiveinvestor,,Thissssssssss,21-4-2022,
208,Nathan Hannon,nathan0323,,Imagine pulling up to a charging station in this.,21-4-2022,
209,Carlton,cfgamble,,Yessssss 🛻 💨!!!!!!!!!!!!!!,21-4-2022,
210,j3ssm,j3ssm_,,@Ford Motor Company we need this!!!,21-4-2022,
211,Shaolin,shaolinyoutube,,Looks awesome,21-4-2022,
212,Timothy,the.fizzie,,@ford needs to start selling this,21-4-2022,
213,BeeBoy,beeboyofficial,,I need it,21-4-2022,
214,w,asfdababy,,56 GOOD VIDEO 😍1,21-4-2022,
215,itsmeandreb,itsmeandreb,,this shouldve been the youtube intro @mkbhd,21-4-2022,
216,kareem,kareem_me,,yo twerk,21-4-2022,
217,jack,jckfitzgerald0421,,Imagine driving that in 78 people would be mind blown,21-4-2022,
218,Reid Phillips,rphillips19,,sheeeesh,21-4-2022,
219,Steve H,steveh6,,"absolutely love it, I only wish it had the sound",21-4-2022,
220,Mikael Myers,professorfinesser,,Bro has a kid💀,21-4-2022,
221,Erik Reidt,dreamp3d,,@jcondudebro 😳😳😳,21-4-2022,
222,Alan,foro.fx,,Bro the car looks sick ngl 😩,21-4-2022,
223,www.omriygre,omri_hibshman,,amazing dude love you keep doing what you can always up to date on important events and have fun watching your videos,21-4-2022,
224,Demeanor,d.e.m.e.a.n.o.r,,"Marques, skip the intros. Gen Z does not have the patients to waiting for a video to start. Works on YT but tiktok is different",21-4-2022,
225,1.HUGGE,1.hugge,,Saw the video and it’s so cool😁,21-4-2022,
226,j3ssm,j3ssm_,,WE NEED THIS.,21-4-2022,
227,GeeYee,meowmeowcow13,,Yessss 🔥🔥🔥🔥,21-4-2022,
228,user3844877700936,dutch_towers,,wow😳,21-4-2022,
229,Keon Tuck,bananagaurd,,POV cool car,21-4-2022,
230,Tik Toker,nastya.skotch,,86 First 😍1,21-4-2022,
231,Noah,captainbrickkid,,Saw the YouTube video! Such a cool truck!,21-4-2022,
232,Pie,piepcs,,very cool,21-4-2022,
233,Gerald Singleton,geraldsingleton2,,#Dope,21-4-2022,
234,Yourlord,backoffbihhh,,Took 4ever,25-4-2022,
235,Paul C,casualpablo,,I love it so hard,24-4-2022,
236,shanetaylor791,shanetaylor791,,More of these please show more!,22-4-2022,
237,Sam Lister,sam______lister,,Damn does this dude have a YouTube channel?,22-4-2022,
238,Thomasbodoczy,thomasbodoczy,,Bro they need to make electric cars all like this instead of the ugly bubble cars they keep releasing,22-4-2022,
239,Central Interior Electronics,cielectron,,Why does it sag where the bed meets the cab?,21-4-2022,
240,Aidan Webb,webber458,,they ruined the square body,21-4-2022,
241,Rafael,elite_fat_b0y,,Pin please daddy,21-4-2022,
242,DENO DENI BAMBINO,abdurahman130,,Youuuu I knew it,21-4-2022,
243,Roger,rogerlarsen701,,Can't imagine myself being in this during a crash,21-4-2022,
244,Dwayne Kirk,samuraighost427,,"no way, v8 all the way",18-6-2022,
245,ToTouchAnEmu ,totouchanemu,,Bro this truck is so clean wtf,22-4-2022,
246,Tazz300zx,tazz300zx,,"you said under the hood 🤣🤣🤣🤣🤣🤣🤣🤣🤣, there nothing under the hood.",25-4-2022,
247,Carlos Leal,carlinhos.leal,,Sheeeeesh,22-4-2022,
248,Good day,menace.bk1,,that truck has been ruined,22-4-2022,
249,Ouijasaysno,ouijasaysno,,Handles like a turd,22-4-2022,
250,Fabionel Miguel,fabionelmiguel,,Boring 📣,21-4-2022,
251,TheLocalChemist,local_chemist,,I’d snag that in a heart beat,21-4-2022,
252,Normality,naturality77,,Like if you saw it on YT already,21-4-2022,
253,Hugo André Córdova,robalonches.24,,how to ruin a truck☹️,21-4-2022,
254,lucas,lucas_0406_,,"the ""sound""💀what is this? ain't no way they did this",21-4-2022,
255,untold,sir.untold,,hey mkbhd,21-4-2022,
256,ድሮን ለትውስታ,dron_le_tewsta,,Ethiopian like this 🇪🇹🇪🇹🇪🇹🇪🇹🇪🇹🇪🇹🇪🇹🇪🇹,21-4-2022,
257,,,,BIG toy!,15-5-2022,
258,,,,they lied about that time 🐢,4-5-2022,
259,,,,heresy,25-4-2022,
260,,,,"No engine noise is so crazy, the parking lot killer",25-4-2022,
261,,,,HOW MUCH?!?!,25-4-2022,
262,,,,how much,25-4-2022,
263,,,,junk get rid of the electric bad on the Environment,25-4-2022,
264,,,,How much?,24-4-2022,
265,,,,@archaeowolf need it man,24-4-2022,
266,,,,I need someone to convert my 91 silverado,24-4-2022,
267,,,,Ok Ford 😁,24-4-2022,
268,,,,some redneck in rural Iowa is losing his shit over this truck,24-4-2022,
269,,,,Mark Ass Brown Lee,24-4-2022,
270,,,,retro tech?,24-4-2022,
271,,,,Black Doug ?,24-4-2022,
272,,,,How much,24-4-2022,
273,,,,Idk but I wasn’t expecting him to be black,24-4-2022,
274,,,,slowwwww,24-4-2022,
275,,,,Sickk,30-4-2022,
276,,,,Sounds like shit,24-4-2022,
277,Tim McAuley558,tsmcauley,,Stepside please!!,24-4-2022,
278,Gabriel Diaz4856,gabmatics101,,isn't the mackE trash?,24-4-2022,
279,CloutGoblinTV 😈,cloutgoblintv,,so sick 🔥,24-4-2022,
280,CN0918,cni0918,,I hate this truck,24-4-2022,
281,Jesusbusca,jesusbusca,,Nice mamalona,24-4-2022,
282,Caleb Ivey236,calebivey24,,POP THE HOOD,24-4-2022,
283,Henry Barry,magicdood2003,,Mark ass brownlee,24-4-2022,
284,Tangueray,tangueray_dsgb,,A truck is not for u not even that one!,24-4-2022,
285,LuckyLugs67,bigwork6782,,dope,24-4-2022,
286,Ian Scott,__tafe__,,Ultimate sleeper,22-4-2022,
287,Kevin Sanders,makerkjs,,I've never been more jealous. I want to launch it...,22-4-2022,
288,Screaming Pepper,screamingpepper,,Talk about a sleeper,22-4-2022,
289,Okay,__peepy__,,Mark ass brownlee,22-4-2022,
290,David,ankledanklebojangle,,Mark ASS Brownlee,21-4-2022,
291,Orlando Cano,asatamer,,@ford please make this available! 💸💵💸,21-4-2022,
292,Jonny Jones,mrjonnyjones_esk8,,MIB vibes 👽,21-4-2022,
293,GomezATX,gomezatx,,How much to get Marquez to do a Tik Tok dance? Go fund me ?,21-4-2022,
294,Rosie,rosieandgang,,I use to think lowering these trucks was bad. I’ll take a lowered now instead of this dorky shit.,21-4-2022,
295,WHAT,frustratedjanitor,,too dope,21-4-2022,
296,Paolo,realfreshstuff,,Flying w/ 0 noise. Shizzzz is crazy,21-4-2022,
297,Matt Lewis,matt_lewis1,,Lol I don’t think those tires can take that!,21-4-2022,
298,user,user_06081987,,"hopefully they put some kind of artificial sound, imagine turning the corner and getting hit by that in dead silence 😂",21-4-2022,
299,Reece Hill,reecethefirstok,,Ngl this a sleeper,21-4-2022,
300,Void 🪐,just.a.normal.guy128,,8th,21-4-2022,
301,nick,nickysswrld,,i literally thought u were kobe,14-5-2022,
302,Pretty Nova Nia,prettynovania,,That’s sweet,4-5-2022,
303,memo_mfg,memo_mfg,,that's the nicest EV I've seen,25-4-2022,
304,user3460479455648,drrubdi,,I love this concept/trend. Hope it get widely adopted and classic cars are brought back.,25-4-2022,
305,Moto Bro,krustyhole,,Bro spawned in the truck,25-4-2022,
306,JoeWil,joewil92,,It won’t do 60 in 3.5 cus it weighs more…,25-4-2022,
307,Chris,chrispy22,,That definitely wasn’t 3.5 seconds but fast nonetheless 😂,25-4-2022,
308,WoodyW,maihffoff,,I’m sure there’s a lot of aluminum and fiberglass. Still badass.,24-4-2022,
309,user3772366728657,ih12349,,that looked more like 0 - 30 in 3 seconds,24-4-2022,
310,user7532366007416,zacatecas012421,,Nah I need to hear the engine. It’s not as cool if it’s quiet,24-4-2022,
311,🗿,justfaxiguess,,God I want that truck,24-4-2022,
312,Judi Guadalupe,jazzyjudibooty,,❤️❤️,24-4-2022,
313,*,unsatisf1e_d,,@ayye.den @sighnanii jedion,24-4-2022,
314,Ce,spikepatino,,Instead of building new cars and mining more natural minerals. Big Auto needs to develop some sort of ev conversion kit for ⛽️cars.,24-4-2022,
315,Danny,danny91586,,"It looks dope, id like to have one in dark blue",24-4-2022,
316,Hunter White,8whitenoise8,,it took you 4 seconds to get from 25mph to 60... ain't no way lol,24-4-2022,
317,Kenneth Gutierrez,kennethgutierrez85,,He blended into the shadows ahahaha,24-4-2022,
318,user3211759968423,kayneein,,"Yeah, that launch was still uneventful though. I like EVs but I was expecting power not “wheeeeee” 😅",24-4-2022,
319,Chris Palmer,chrispyfixins,,I would love this so so much but they'll probably be like 60k,24-4-2022,
320,Kaden Koester,kadenkoester,,Is it actually coming to production?,24-4-2022,
321,Chris Baty,chrisbaty,,Should be a crime to humanity to ruin such a beautiful truck. This is why I hate restomods,24-4-2022,
322,Danny Kohl,dannykohl1,,this gonna make alot of people angry 😂,24-4-2022,
323,.,userze6i9q7jbw,,I saw this car in person,24-4-2022,
324,jreed,jreed2122,,I have a 1977 Ford 100 long bed 3 speed. Mine can do that if I have a rocket hooked up in the back 😅,24-4-2022,
325,EsaIndigena,esaindigena,,This has literally been my dream and the cost of the motor is just $4k??? 😭 awesome,24-4-2022,
326,Hussain Haider,hussainhaider997,,how much will these cost me to buy,23-4-2022,
327,Lance,hewett007,,way to ruin a classic truck.,23-4-2022,
328,Damian Aguilar,deardotdamian,,give it!!,22-4-2022,
329,Vodnick,vodnick,,really cool but also not my kinda vibe. 200% all for making a change to better our environment but no engine noise feels really soul-less,22-4-2022,
330,Dre Valle,drevalle,,Ford finally did something right,22-4-2022,
331,"Don't You Wonder, Thats My Job",makesmew0nder,,bring it on Ford. I'll definitely buy 1 silent metal box,22-4-2022,
332,sunshine,dobetteramericans,,This needs to be in production!🥰,22-4-2022,
333,user6160317318219,user6160317318219,,Awesome,22-4-2022,
334,AJ,a92j19,,Neat stuff. I’d definitely start a YouTube channel if i were you 😏,22-4-2022,
335,Who?,bet_ur_ashe,,Take my dammmm moneyyyyyy,22-4-2022,
336,O,yungoldman69,,I did not expect mkbhd,21-4-2022,
337,Magic Man,magicman75,,"I swear if Ford made this into a production truck, they would move 100,000 easy. Just printing money.",21-4-2022,
338,Vince,vinceorwhatever,,"Yes, I'll take one please",21-4-2022,
339,jacob_hild03,jacob_hild03,,Yooo that’s truck kinda old,21-4-2022,
340,Rob,osfan79,,Just take all of my money now,21-4-2022,
341,MrCheddah13,mrcheddah13,,God I hope ford makes this,21-4-2022,
342,DobyWanKenobi,dobywankenobi,,Seems like the trend is starting to have old school outer look with new school technology. I love it.,21-4-2022,
343,Marcus Cervantes,marcuslcervantes,,@Ford Performance did well with this one 🙌,21-4-2022,
344,Sarcastic Percussion,vibesofcalamity,,"I'm not gonna lie, I was disappointed in the sound it ""made"" as it took off. Expecting ""VROOM"" but got ""shhhhhh.....""",21-4-2022,
345,Opening Hotwheels,warmtires,,new old stuff is what we need. like retro jordan’s but cars,21-4-2022,
346,AdvisorMike,advisormikel,,Marquis DeMuro over here.,21-4-2022,
347,Shabewbee,shabewbee,,Lets gooo retro futuristic one step closer to fallout,21-4-2022,
348,Booster Card,booster_card,,yooo!!!! 😳,21-4-2022,
349,Dave,dave.pat_69,,Electric hummer still better,21-4-2022,
350,Matthew,matt9m,,Cool!!,21-4-2022,
351,Saim Muneer,yourabum00,,second😳,21-4-2022,
352,A,ameersharifyy,,First😳,21-4-2022,
353,Willo,willyuh44,,What’s the Doug score?,21-4-2022,
354,🍞,rusticmustard05,,Which means… it’s useless,25-4-2022,
355,Thommy Hilfigureitout,thilfigureitout,,BRO WTF,25-4-2022,
356,Marlo,ziggyunderworld,,holy shit i’m gonna start saving some money 😳,24-4-2022,
357,Simon Smith,dirty5outhazn1,,Respect to the build but EV is boring,24-4-2022,
358,caseyyandle,caseyyandle,,Shut up and take my money!,22-4-2022,
359,EditsByEric,qlmeric,,So fucking cool,21-4-2022,
360,Johnathan Hartel,stumptownretro,,I fucking love this.,21-4-2022,
361,Mythic_GirL,mythic_girl,,I hate it no noice it makes me feel weird lol,21-4-2022,
362,This app is toxic,leavemeal0n3stlkr,,I’m pissed I can’t just buy this truck😭,22-4-2022,
363,Curtis,tehcheesy6562,,"they're selling electric crate motors for like 4,500 bucks. can't wait to see what people come up with.",25-4-2022,
364,theSyllyEely,srterran,,1/4 mile time?,24-4-2022,
365,$?,samsungutm_mediumkeyboar,,is that not a bronco?,28-4-2022,
366,Martinecommeleslivres,martinecomdansleslivres,,"Oookéh. So that mesn we don't have to push for newer car, we can take old ones and add electric components in it ..Riiight?!",21-4-2022,
367,Rayling Carrasco,leave_me_the_f_alone,,first,21-4-2022,
368,Sam Sego,samisego,,@jayyten,25-4-2022,
369,orie,ordawggg,,@mattyfreee,5-6-2022,
370,Dominic Lowrey,dominiclowrey,,@keegannj41,27-4-2022,
371,Chapo,amordechicano1,,@FarmtruckandAZN,25-4-2022,
372,deaveritto,deaveritto,,@dpdeaver,25-4-2022,
373,Hokura,hokura_,,@seguratom,25-4-2022,
374,BrazedRC,brazedrc,,@russell_roulette,24-4-2022,
375,Cache greffard,imanidiot66420,,@jackhawk10 @dylann.charlie @sam97wat97,23-4-2022,
376,Ricardo DaCosta,ricardodacosta27,,@pauljcywinski,22-4-2022,
377,hwilde55,hwilde55,,@Barrel_racer71_1 @taylerb,21-4-2022,
378,😫😫,bott.exev2,,😫😩,21-4-2022,
379,Marques Brown Le,marques_brownlee3rd,,@twixxbb @luvvlayylaa,13-5-2022,
380,babe garry,gabe_barry,,q,4-5-2022,
381,Ben Dowse,ben_dows,,Now this is a cyber truck fr,21-4-2022,
382,4pfSpillaZ,4pfspillaz,,@jidion,9-5-2022,
383,Soulburner666,soulburner666,,u barely fit into it hehe,21-4-2022,
384,Zane (Judas),thug_waffle,,I wish this was as loud as my clapped out Miata so I could wake up my neighbors toddler at 2am and ruin my neighbors marriage,25-4-2022,
385,Bryan Briseño,elpossumboy210,,They should’ve put a 5.0 in it instead.,24-4-2022,
386,ok,1uzbaby,,ruined it,24-4-2022,
387,.,kopushar,,This is so SAD if you are a petrolhead,21-4-2022,
388,Jason,cuh_123543,,This truck is beautiful I would love to buy it,28-4-2022,
389,,hijackcloud9,,Can an electric BMW E30 M3 🥺🔥,17-5-2022,
390,Milo the puppy,scotdoghustleandball,,Well that was very anticlimactic,24-4-2022,
