,Comment Number (ID),Nickname,User @,Comment Text,Time,Likes
1,Wilson Zhang,wilson0722,,Bru that’s my iPhone 4,20-5-2020,
2,k,whyhyunie,,OMG IS THE TOILET PAPER FINE???,20-5-2020,
3,Aཽaཽtཽhཽiཽ,tamilanaathi,,Im poor family bro dont waste pls gift me,13-5-2020,
4,BrendanG-V,brendangv904,,Yo you don’t think we know the difference between an iPhone 11 and a 4. 🤡,2-6-2020,
5,Dal,daldalgreen,,Anyone notice that it isn’t an iPhone 11? Looks like a 5?,7-6-2020,
6,⚠️S I V A R E D DY⚠️,sivareddyofficial,,that not iphone 11 its iphone 5 😂😂😂😂😂😂😂,15-5-2020,
7,gyu,beomhs,,'iPhone 11' yeah,18-7-2020,
8,oe,fabianowiecki_,,did it survived?,9-5-2020,
9,Ashwani Kumar,robbinhood.kumar209,,It’s very hard to break this iPhone specially 4 s,26-6-2020,
10,ilias,ilias7cool,,wenn das mein i phone wäre dan 😂😂😂: 🤜🏻😖🦷uffff habe ich übertreibt 🤭😂😂😂😂😂,17-7-2020,
11,TBoRCychKAxLeHb,wildcraftto,,0_0 Omg,25-7-2020,
12,Trilexxx,gru.bru,,Das arme Klopapier,29-7-2020,
13,Fluffee Kingz,fluffeekingz,,Its an iPhone 4s not an 11,13-7-2020,
14,Hi,allyson0118,,It was on the grass that’s why it didn’t break...😐,27-9-2020,
15,Rhiza Bragado,rhizabragado,,please buy me iphone 11 and ring ligth and give to me😊,29-7-2020,
16,Tomas,tomas.18.1,,But that’s an iPhone 4,21-7-2020,
17,joshie?,joshandwhatnot,,That’s an iPhone 4,19-7-2020,
18,Nikłas Ërickson,ericksondtd,,thats very oviously an iphpne 4 lmao,21-7-2020,
19,bl0kz,bl0kz,,And thats why you buy toilet paper 😎,13-7-2020,
20,Luv_Choco,luv_choco,,The toilet paper be like: I hope you remember me mum,30-7-2020,
21,Rituritu,ritu4020,,nhi psnd ta mainu dedo sutya kyu lgda bhut paise a u kol,8-6-2020,
22,Curdent,curdent_0,,"avant : RINOSHIELD !!!!!!!!
maintenant : PQ!!!!!!!!!!",17-6-2020,
23,Verdisco Emanuele,erpapamentucciaromana,,L’iPhone pesa più della carta igienica quindi la parte del telefono che sporge sarà la prima a toccare terra. Furbi.,18-6-2020,
24,David Olkarny ,davidolkarny,,Qu’est-ce qu’il faut pas faire pour des vues...,17-6-2020,
25,...,monalisa_drip,,fr🏧 ingiustamente lanciato,19-6-2020,
26,theorze,theorze,,moral de la vidéo.. mettez du pq en guise de coque,16-7-2020,
27,....,ehwepeloo130,,go essayer avec un s10+... quoi que nan enfaite,17-7-2020,
28,desboistheo24,desboistheo24,,Nokia en sueur,16-7-2020,
29,Dylan Eduardo,dylaneduardo2007,,Si lo más importante se salvó el papel :v,17-7-2020,
30,noob√,hola_papus1234,,A al celular,9-7-2020,
31,民宿ちかはる,taijatpat,,「多分笑笑」ってどういう意味だ...?,27-6-2020,
32,WER,alexanderalpatki,,Влад а 4 Спасёт всех😏,31-8-2020,
33,дол4л4л4л5о55л8ктеь,theslava0,,нокия где ты новый соперник😂,10-2-2021,
34,Https_team888,bad_username888,,Mtn j’ai envie d’essayer 😖,18-7-2020,
35,MURA.,bboymura,,Potevi fa il video storto mentre girava,21-6-2020,
36,Pulkitistwal,pulkit_107,,"iphone 4,5 hai 11 nhi😂😂😂😂",19-6-2020,
37,inconnu,lucas.chasb,,tu aurait dû film,17-7-2020,
38,Rik,hiimrik,,NON LEGGERE LA MIA FoTo PROFILO,20-6-2020,
39,daniel b,danielbor14,,eu pensei que era o iPhone 8 mais o 4 é de boa eu tenho uns 4 iPhone desse guardado,18-10-2020,
40,therage,the_rage_1,,es pasto 🤦‍♀️,6-7-2020,
41,Ender mode,ender_mode,,la personne qui passait en dessous :👨🏿‍✈️👨🏿‍✈️👨🏿‍✈️⚰️👨🏿‍✈️👨🏿‍✈️👨🏿‍✈️,14-7-2020,
42,M,taki.chilena,,Lo más impotante que se salvó el papel pobre ahora se limpiará el tractor con tierra xD,30-7-2020,
43,user3170960254855,vih0901,,Ai chega me deu um aperto no coração 😅,18-6-2020,
44,dwatterson,dwatterson2,,wooow putain je croyais qu'il été cassé,2-7-2020,
45,Mó larica,_izzy_23,,Medo de testar e o celular quebra ;-,17-6-2020,
46,Mati 😎😎👌🏻🇨🇱🇨🇱🇨🇱🇨🇱?,otaku_norman,,Esta editado,18-6-2020,
47,Mat,familiacrafttt,,liga agora,18-2-2021,
48,rebeca army,becaa65army,,o meu deus,18-7-2020,
49,---,mi_0._,,holala pauvre le PQ😓,17-7-2020,
50,Era bait,elsus_xd_,,1000 maneras de morir versin telefonos manera 294 la caida infinita v:,10-7-2020,
51,🔥Flame Host🔥,flame_hos,,А как песня называется?,5-11-2020,
52,Leo Avolio,leoavolio,,ha lanciato un iPhone 11 e a terra c'era un iPhone 4.🤔,26-6-2020,
53,🔥matty💧,the_matty_it,,"ma è spesso quando il il muro di casa mia! e poi è caduto sull' erba, fallo cadere sul cemento e poi vediamo....",19-6-2020,
54,oxine 46,oxine46,,c est pas cerieux la ?,18-6-2020,
55,Valerio Fedi,animemastersbtdn,,thats not a 11,26-6-2020,
56,Tu pana el pro😎😎,aangeeliitoo08,,0a que tiras el papeeel,20-6-2020,
57,Pls 09solo09dance follow higre,09solo09dance.fan,,iphone 4 bru,20-6-2020,
58,Noah Schnapp®,noah_funny0,,mi portero la carta igienica appresso[laughwithtears][laughwithtears][laughwithtears],19-6-2020,
59,seba🔥,seba_bmx78,,mi dicevano che era quello intelligente della famiglia 🤦,19-6-2020,
60,_you_,myfucat,,In realtà si è graffiato sopra ma si nota poco,18-6-2020,
61,anis,anisderechte,,toilet paper save the live of everyone🥳🥳🥳🥳🥳🥳🥳,29-7-2020,
62,user242717392061,narutousumak94,,vc que se meu amigo ou não,2-7-2020,
63,bia fofa,biafofa700,,Q eu não faria isso com o meu celular olha q eu sou criança 😂,23-8-2020,
64,☀️Shine 4 Floofy!!☀️,floofyfurcreations,,"The only way I would ever do that is if the phone was filming, it was taped in REALLY good, and if it wasn’t my phone 👁👄👁",5-8-2020,
65,mesi,bola_de_billar.12,,Toilet paper was sacrificed to save the iPhone 😔,16-9-2020,
66,B.İ.,busrains,,inanmiyorum,5-8-2020,
67,user5919991558877,abigeethu26,,place mathurai velammal hospital thana,21-6-2020,
68,Davide,davidebertarelli8,,1 minuto di silenzio per quelli che ci hanno provato,25-6-2020,
69,Alberto Pérez,future.albert,,k haces no malgastes el papel higiénico así😂😂,14-8-2020,
70,Яша,vpyasha,,а чё 4 айфонто кидай сразу 11,4-8-2020,
71,FXXXX,fxxxx09,,@Deenvlog บังๆๆไ,4-7-2020,
72,🏩🌸,pelinke.beni.istememek,,Denedim kırıldı😂,29-8-2020,
73,ｓｕｎｎｙ𓅂,hello_friend1905,,không thử nhớ🥺🥺🥺,19-8-2020,
74,Javeria💞,javeriaaa_,,"in this covid 19 situation, if somebody found this, they would probably take the tissue roll and leave ur phone right there😂",29-6-2020,
75,꧁☆*SIM*☆꧂,simmu9195,,4S mera favourite,21-6-2020,
76,Ammar Alshamam,tiktok_comeback0,,That’s not a iPhone 11 that’s a iPhone 5😂😂😂 Also warning don’t do this ⚠️,20-6-2020,
77,ⓉⓀ_อาจาร,xxxtentacion1230131111,,That Is I phone 1,20-6-2020,
78,user295479,rayyankhan9899,,hjwejjjsjdjdjjeohsbbsksj bdjssohsvwccshwkwjsvsvvdbhdjdhsbsbbjsjdjofbfbdksosodbdbjdosjdvdk,25-6-2020,
79,wejdźcie na inne konto,ta_sama_nazwa,,@blowek waś to sprawdź,29-6-2020,
80,GIGACHAD,aaaaauuuuuugggghhhh,,MA È CADUTO NELL'ERBA,18-6-2020,
81,swag,_im._.swag_,,Fra🏧 ingiustamente lanciato 😂😂,26-6-2020,
82,निखिल धितल,nikhildhital1,,plz don't throw like that ..give that to someone who needed like me😢😭😭😭,23-6-2020,
83,Francesco,francesco0390,,Un iPhone 11 vintage diciamo,25-6-2020,
84,lollotipoo,lollotipoo,,Salutami L amico che te ne ha preso un altro,23-6-2020,
85,Camille ☂️,cami.cmgs,,Pas Rhinoshield 😂,17-6-2020,
86,𝗦𝗔𝗗 𝗗𝗜𝗔𝗥𝗬☹︎,sad_diary,,Se lo faceva con un 11 mi veniva da piangere😨,28-6-2020,
87,Mr_perfect_sachin,sachin1704soni,,it was crazy 😧😧,26-6-2020,
88,️️⬛️✖️⬛▶️🅱🇰ing◀️⬛️✖️⬛️,bhupendrakumar151,,is iphone ki price kitni h 🙏🙏🙏,18-6-2020,
89,Spoty K,ehe000o,,les nouvelles coques rinoshield?,17-6-2020,
90,Sagar Kumar,sagarkumar415,,tone ka name btao please 🙏,18-6-2020,
91,Andre 🐺🌙,andre___sd,,Buena idea ! Haré uno de mis iPhone viejos,18-6-2020,
92,yurimandujano,yurimandujano,,yo pensé que iba a morir 💀📱👼,19-6-2020,
93,Сабака Хаски в маске,sabakahuskyinmask,,моя любимая песня🥺🥺🥺🥺,21-1-2021,
94,(•_•),zizzygachalife1,,#RipPhone,7-9-2020,
95,Arif_Hussan_Munna,king_munna01,,iPhone 4 😁😁😁,3-9-2020,
96,i,xx_.julqaa._xx,,@blowek musisz!,2-8-2020,
97,sypher❤️icebow,syphercr,,yes its very definitely an iphone 11,30-7-2020,
98,₊˚.𝙞𝙩𝙨.𝙅𝙪𝙡𝙮𓆉︎,itsjuly_roblox,,Omg 🤯,29-7-2020,
99,reiakasam,reiakasam,,i-im speachless...,23-7-2020,
100,Gabriel69,gabriel6.9.6,,Mais pardon ! Moi il tombe de 2 cm il casse !,19-7-2020,
101,Zazemd,zazemd,,should have film the fall via the IPhone 11...,17-7-2020,
102,Victor Havard,levictorhvd,,RHINOSHIIIIIIILD !!!!!!,16-7-2020,
103,Adrien Chemarin,adrienche,,Yo,14-7-2020,
104,E-m-i-r,emir._.lbt,,Voici la raison pour laquelle j’ai un iPhone 4,14-7-2020,
105,fiyaroman,fiya657,,vo tho dammi hai,26-6-2020,
106,__napolii__,___.napoli.___,,ma poi non è neanche l'Iphone 11,25-6-2020,
107,누렁이,cucurubingbongbarabog,,한국인:시험하지말고나줘,18-3-2021,
108,RIFAD 乂 HALAL MODE,usarea444,,gue dari 2021,7-1-2021,
109,👺,ozne_666,,YO ESPERANDO A QUE LO ENCIENDA,16-7-2020,
110,sam,ghostface_le_chic,,"wow, incroyable, ça marche avec tout les pqs ou faut avoir une chance incroyable ?",16-7-2020,
111,Analucia,avj_7,,EL PAPEEEEEEEL!!!,23-9-2020,
112,frisk_fofah,nayana_sans_frisk_15,,omg,1-8-2020,
113,Coso_Strano,coso_strano,,@_kingash_ potevi fare così 😂😂😂,22-6-2020,
114,Astro,astro._.gacha0,,pl ta mis iphone 11 alor que c iphone 4,19-7-2020,
115,3bisaiastripulante,3bisaiastripulante,,F por el comfor,19-7-2020,
116,nsm,.shimazu,,"mdrrrr c'est un iPhone même avec ça il est fracturé de l'intérieur.
wait.. nan c'est déjà de base ça c'est iOS c'est normal",21-7-2020,
117,justine,juju_br7,,mais c pas iphone 11...,16-7-2020,
118,sonic facherito😎👍,sonic_corrompido,,oye tu viste a donde esta el papel del baño?,31-3-2021,
119,Mickey,smailglizzy,,The only reason it didn’t break it cuz the old phones here built like tanks i threw that phone out my window multiple times and it didn’t even crack,29-7-2021,
120,Isaac_F275,isaac_f275,,teléfotruco 😎😎,15-3-2021,
121,пищик перднул,ponos_yshi,,Выжил😳,4-12-2020,
122,nehirturaneri,nehirturaneri60,,@atak64 iPhone sağlamdır ama sen yinede deneme tabi 😂,1-12-2020,
123,Hello =3,charchar._.sunset15,,THE TOILET PAPER IS IT OKAY,8-11-2020,
124,машк💋,ii.m0tya0,,Что за привычка заглядывать в комментарии?,8-10-2020,
125,sʜɪғᴛɪɴɢ ⸙͎,chusmelon,,Telefonu değiştirmiş,13-8-2020,
126,Bad Dio_Brando,bad_dio_brando,,Ho beccato il muro fratellì,17-7-2020,
127,user883800959983,aruka_zoldyk,,avant le confinement 🏃‍♀️on va courir et après le confinement 🧻📱,15-7-2020,
128,Qipao,qipaobeauty,,"Iphone need not any tissue,,, It is naturally durabale mobile set😂😂😁😁",16-10-2020,
129,def not ema,supportrussia1,,when the phone falled i tough the grasswas the broken screen😂,31-10-2020,
130,Evan Hunn,gilbertthegreatdane,,"when you threw off the phone, i thought you were a maniac XD",18-10-2020,
131,@gretel,lagretel._,,el Nokia100 que compraste en el oxxo :v :,3-10-2020,
132,Hi,allyson0118,,Oof,27-9-2020,
133,Hi,allyson0118,,Know,27-9-2020,
134,Claudete De Souza,claudetedesouza5,,legal😁,14-8-2020,
135,Luckario 227,luckario227,,es un iphone 4,2-8-2020,
136,Tik Toker,obsidro,,mais pourquoi le jeté il est très bien l'iphone 4 😁,21-7-2020,
137,Chrachroumla,chrachroumla,,Coque rinoshilde wish🤣🤣🤣,21-7-2020,
138,ℕ𝕒𝕥𝕚𝕩_𝕜𝕦𝕟,natix_kun,,c normal c un PQ Rhinoshield aussi,21-7-2020,
139,Fan_page-...multixbubble,laqueenduaddison,,LES FILLE CHUIS TOMBÉÉÉ 🤣,20-7-2020,
140,Aashish❤️,its_aashish07,,wow,19-7-2020,
141,Homer Simpson,homer_aesthetic,,Les gens aux toilettes... 🤔😂,18-7-2020,
142,Victor_clt,victor.clt16,,Vive le pq 😂😂,16-7-2020,
143,ノ noham,defla_,,Je le voulais moi (le pq,16-7-2020,
144,Timothé,tim0othe,,"Le nouveau papier toilette version RINOSHEILD
Attention ça peut faire mal",16-7-2020,
145,🌚kobo🌚,kobo100,,meme sans le pq ils serait toujours vivant c un iphone 4 je vous rappelle ☠🤔🤫😎😁🤣😅,15-7-2020,
146,Nahil-tounsi🇹🇳,nahil_tounsi,,ils fake?or no?,20-7-2020,
147,"Jose Luis Lopez,ff",joselotiktoker1.ff,,el papel llego intacto por suerte😏😏😏,17-2-2021,
148,javier¥¥,javierisrael38,,yo asiendolo,3-1-2021,
149,idk_mzb,idk_mzb,,Not really a fail thoo,3-12-2020,
150,𖣘ⓛⓐⓤⓣⓐⓡⓞ𖣘,nikitoblack980,,XD😂,30-11-2020,
151,lasagna,sptw.o,,GUY DID #IPHONE11 AND ITS AN IPOD OR AN IPHONE 4,6-11-2020,
152,random,quack1ttyy_,,Eso es un iPhone 11 ;-;,29-10-2020,
153,Hi,allyson0118,,I meant to say*I*,27-9-2020,
154,Hi,allyson0118,,I’m just kidding 😂,27-9-2020,
155,impossible,.....impossible,,is that real I phone?,18-9-2020,
156,MahaB,mahalarmy2,,the toilet paper is a hero that's mean super toilet paper yeah 😏,9-9-2020,
157,joshharrison249,joshh607,,"It’s a rare thing of joy how you’ve placed a smile on my face, how Ellen @ellen.fx.manager made my finanacial problems disappear forever thank ma’am.",26-8-2020,
158,mataiafisher4,girlstiktoks21,,idc bout iPhone should protected the toilet paper,26-8-2020,
159,fã dele,explicando.pesqui_dar,,pra que?,14-8-2020,
160,Mohammed salah,xsports79,,Can u pass me that toilet paper 🧻 😁,12-8-2020,
161,Ada💜,ada_7840,,Anaaa😅,10-8-2020,
162,wenche,missy_945,,Iphone 11,6-8-2020,
163,noob√,hola_papus1234,,f al papel dijo ayudan siempre al celu Ami no xddd,23-7-2020,
164,,,,"Ah si miraria por la ventana con esa altura, Me daría mucho miedo ;-; Me da vértigo",18-7-2020,
165,T80,t80second,,NOOOOON,17-7-2020,
166,eliott.exe,eliottsmith,,la vrai question c'est pourquoi il a des gants,17-7-2020,
167,Nolan VanEvery,nolan_vanevery,,It’s grass,17-7-2020,
168,🥱,malouxloves,,j’ai envie de le faire mais je sens que je vais casser mon tel😭,16-7-2020,
169,ols.champ.38,ols.champ.38,,Rinoshield en sueur,15-7-2020,
170,04h02,04h02__,,J’aurais mis vidéo ralentis. Au moins que ça serve à quelque chose...,15-7-2020,
171,Ameen,arab_retart,,Bruh that’s why toilet paper was running out in 2020,7-4-2021,
172,StarKilleur,unepersonnequisennui,,Moi devant les coms 🍿🍿,17-7-2020,
173,sono sempre io 🤪,tiktokrosaria_official,,era ora😳😂😂,18-6-2022,
174,🌷 Lucía 🌷,luciaisabellaferrer,,:o,19-2-2022,
175,ChazGray1,chazgray1,,2022,13-1-2022,
176,Noob1234567890e,noob1234567890e,,Okkk,29-9-2021,
177,a vida ainda tem mtas surpresa,isinha_buterfly,,se fosse aqui em Brasília alguém já tinha pegado kkkk,5-5-2021,
178,Ebrima_XD,ebrimakonatehmanneh,,ahora es cuando alguien lo hace y se le rompe😂,2-5-2021,
179,lari silvianan,mcmelodyofc2,,@_ilma9080_:Iphone is an iphone 😎,21-4-2021,
180,S,alexsandrakalimul13,,😱😱😱,1-4-2021,
181,1k seria um sonho ( ˶ ❛ ꁞ ❛ ˶,vit0ria._.gacha._.cute,,medo de ficar verde,10-3-2021,
182,#,shiphole666,,2021 ağlıyorum ĞWŞEÜÜWRĞDĞFPSPTQPLR,6-2-2021,
183,米,dyo597rse4p0,,？,30-1-2021,
184,просто я😊,sofik4545,,как😳😳😳😳😳😳,24-1-2021,
185,user7829914326864,el_loboasesino,,porque el papel ya no tengo para limparme,15-12-2020,
186,michael,.cheesy.toes,,BRO WHY DID YOU THROW AWAY MY NANS IPHONE 4,23-11-2020,
187,قناع,snickers_216,,как?,18-11-2020,
188,sou fã de piggy,piggyroblox1203,,what,28-10-2020,
189,🌍salvemos al planeta🌍,mega__flash,,la cancion se llama: Bass Bosted,7-10-2020,
190,Fluzão🟢🔴⚪,fla_comedia,,Novo adversário para o Nokia TIJOLÃO?,4-10-2020,
191,Micaelly Maiyara,micaellymaiyara2,,doeu ate minha alma😂,5-9-2020,
192,.,chems_2,,mis tik tok desde hase meses 😔,29-8-2020,
193,👑DARK SEID👑,b.wn9,,اصلا هو ايفون ٥قوي مو زي الحين جوالي ترما عليه قاروره مويه انكسر والله,26-8-2020,
194,Newkiw,newkiw,,ถ้าชอบอะไรสวยงามลองดูเรา,6-8-2020,
195,zied qui vien de Wish...,zied.deiz.and.zied.mii,,bon ba go le faire,22-7-2020,
196,SIGO DE VOLTA,cauanlimabrito,,pra quem não sabe ele cortou o vídeo pra tira iPhone,21-7-2020,
197,Zliga,zliga,,Personé n’a remarqué que aux debut c’était un iPhone 8 et ensuite un 5,20-7-2020,
198,SW,stick_war_theme,,Olm biz telefonu evde yere düşürüyoz çatlıyo bununki sadece tozlanıyo bu Nası oluyo,20-7-2020,
199,Ryad,gto360,,t'aurais du filmé avec l'iphone,19-7-2020,
200,Kassem Lakash,kassla91,,Libérer la Palestine 🇵🇸🇵🇸🇵🇸,18-7-2020,
201,Nex_tal,nex_tal,,Les gens qui ont essayer ————->,18-7-2020,
202,Linty_boutique,linty.boutique,,Nouvelle coque pk comment on l'appel 🤔🤔,18-7-2020,
203,JINUKS!,jinukstv,,Un peut trop confiant 😅,18-7-2020,
204,《❤とおるおいかわ❤》,meriem.hri,,omg @toky0.toky0 😱,17-7-2020,
205,Rita._kadd,rmk_vss1,,@reda_eb 😮,17-7-2020,
206,Kirikou,kirikoucestmonamis,,Sincèrement qui va y croire 😂🤦🏾‍♂️,17-7-2020,
207,Margaux Bonhomme12,margauxx_b321,,@saona.27 et puit il y a moi avec mon tel ki tombe de 50cm et il casse😶😭,16-7-2020,
208,five883,five883,,O.M.G,15-7-2020,
209,☣...☣,rago.ytb,,et mais c ma coque sa,15-7-2020,
210,🔱🖤🇫🇷🖤🔱,lesniak_rpl,,La coque 2.0 (conclusion se promener avec du Pq 😂😂😂,15-7-2020,
211,alexx,astrowaslost,,𝙩𝙝𝙞𝙨 𝙫𝙞𝙙𝙚𝙤 𝙬𝙖𝙨 𝙨𝙥𝙤𝙣𝙨𝙤𝙧𝙚𝙙 𝙗𝙮 𝙉𝙤𝙧𝙙 𝙑𝙥𝙣,30-5-2020,
212,Myst_Amaze,myst_amaze,,𝔹𝕚𝕥𝕔𝕙 𝕘𝕚𝕧𝕖 𝕞𝕖 𝕞𝕪 𝕕𝕒𝕞𝕞 𝕥𝕠𝕚𝕝𝕖𝕥 𝕡𝕒𝕡𝕖𝕣,30-5-2020,
213,Destrella Vanlentin,eri_123l,,Nooo el papel muro dejemos un f para que vive en el cielo en paz,7-9-2020,
214,julia Quirino 2,juliabotelhoquirino3,,SEMPRE VOU LEVAR UM PAPEL HIGIENICO NA BOLÇA,4-9-2020,
215,Duncan,duncat_xd,,les 2010 en sueur 😂,21-7-2020,
216,unaisj,unaisoj,,Le pq bien sûr,18-7-2020,
217,❤,anonymouss.40,,PTDR TES QUI?,17-7-2020,
218,Axel Nouvel,ax3l.nvl,,Qui est allé au toilette pour essayer de mettre son tel dans un rouleau de PQ ————————————>,17-7-2020,
219,Xbox Aktrxain if anyone ply 2k,exoticplays6,,Ay that grass is beautiful,23-11-2021,
220,Rhy,kamiioooooo,,u should've put the phone on record so we'd see an awesome video,27-9-2021,
221,Simp for Lauren Alexis 🥵,murdielikeslittlekids,,My nokia would’ve survived without a scratch,26-5-2022,
222,GHOST,clipshanger_,,RINOSHEILD en sueur 😂👌,26-7-2020,
223,Stories,storyssies,,That’s not an iPhone 11,6-11-2021,
224,🍉LEXI🍉,l.e.x.i_tiktokaddition,,How my guy,17-1-2022,
225,Mister XRS,misterxrs,,that is a iPhone 4,23-9-2021,
226,hi,hello64786,,NANI,12-11-2020,
227,user5226194277048,ernesto7795,,al fin nueva funda para mi celular,16-3-2021,
228,Foxyzinho Fofinho,animatronics__animes,,tadinho do iPhone n faz nada😞,8-1-2021,
229,🏀JOJO🏀,jojo.king09,,la hauteur,20-7-2020,
230,Baptiste,baptout91,,@jintaro8 rinoshilde,18-7-2020,
231,beamberries,amsmilebeam,,iPhone 4 as i can remember!,15-7-2020,
232,dexiediaz547,dexiediaz547,,sayang,23-7-2020,
233,Le Philippe Echtebest,le_philipe_echtebest,,L iPhone le plus solide 😂🤪,19-7-2020,
234,ebe | Quỳnhanh,quynhanhk145,,đù được của nó đấy 💯💯💯💯,27-10-2021,
235,72lp,72lp,,شوف@shrouqsunshine,25-9-2020,
236,notion 4 u child,xxx_you._lost_me_xxx,,Y a,7-10-2020,
237,check my videos pls🥺nd like<3,kim_mi_so_7,,u don't know how much i want iphone 🍏 in my life🥺🥺,29-4-2021,
238,AYDNS,aydns7,,soung name,22-2-2021,
239,칡,doryeol,,팩트: 폰이 작아서 휴지안에 들어감,18-1-2021,
240,Khizer Hussain,exoticyt7,,😂,14-8-2020,
241,Hi,moustikss,,It works??,15-7-2020,
242,!!!!!!!!!!!!!!!!!!!,delfi_.conamigos.2,,menos mal que el papel está bien para limpiarnos💩,19-7-2020,
243,Momolezigoto,momolezigoto,,RIHNOSHIELD!!!!!,16-7-2020,
244,hamood habibi is cool😎😐,kamhelpu2,,hoe,4-1-2021,
245,jime solano <3,gorditoelsapitodenaruto,,Mane pobre papel higienico,23-11-2020,
246,uzumake,naruto_ofc1,,loco joga um iphone desa altura e caro iso tem muita gente que te um e tu faz iso,5-11-2020,
247,buzz lightyear,buzz._.lightyear14,,el papel se sacrifico :v,27-10-2020,
248,Hi,allyson0118,,Ok it wont break with toilet paper 😏,27-9-2020,
249,user860508,james_jk11,,While recording?,15-8-2020,
250,👍,golgolgolgolgoooooll,,ja,17-7-2020,
251,war_videos,war_videos_lest_weforget,,ok who the hell gonna do that,7-8-2021,
252,СЕРЁГА БАЛТУШКИН☑️,serega1987baltushkin,,Wow,1-8-2020,
253,|• ꫀꪑρ᥅ꫀᦓᦓ.,prynzes_abbygail,,afraid of heights 😖😖,25-7-2020,
254,___________________________,6qk_i,,اسم الاغنية😁😁,27-9-2020,
255,saraki chan ^-^,user6630687516194,,ko thử đâu sợ lắm😢🥺,13-11-2021,
256,mafia.lalisa.manobanl,mafia.lalisa.manobanl,,abe nokia at nokia,29-6-2022,
257,♡︎,ma.percheee,,"prova il nokia, quello spacca il terreno",22-6-2022,
258,えい隊長,eitaityou,,そっからの景色見るんかと思った,9-6-2022,
259,doctor.yazan2,doctor.yazan2,,omg good I love this phone how can I get it 😳,2-6-2022,
260,sebastianpalkapaździernik2007.,sebastianpalka2007,,zbudza szacunek,13-5-2022,
261,Daromean,daromean,,"Esq cayó en pasto
es sarcasmo😌",11-5-2022,
262,<33,sinnombres03,,😳🤯 no se rompió así,28-2-2022,
263,el seba solar XD,elsebasolarxd,,para que queres el papel higiénico? para eso esta el modo avión xd,9-10-2021,
264,SOS RE LINDO BASTA❤️,oxiogamesuwu,,top 5 videos que se sienten 😭,22-9-2021,
265,IdkMyName,ldad._,,don't try it with a Nokia cos you'll hurt the ground😂,19-8-2021,
266,Julia,insanepurplegrapes,,YOU SHOULD OF VIDEO TAPED THE FALL,10-8-2021,
267,kotik version 3.2.5,kotikversion3.2.5,,работает?,8-8-2021,
268,Lillyx05,sarlota_lillyan_rose123,,OMG😳,4-8-2021,
269,H€𝕷𝕷♤,whatisenvy,,2020????,28-7-2021,
270,xd,shy_cookiee,,F por el papel 🥺,26-7-2021,
271,kellysmith7297,hippiesmith7297,,ong lol,19-7-2021,
272,xX_Ashy_Xx,ashyeditzxx,,MY PHOBIAA-,16-7-2021,
273,A🫶🏻✨,7a._10,,انا ايفوني هيك😂 مو كذب(لا تخافو مو5),15-7-2021,
274,Rien du tout 👍🏻,yaellicha11,,J'ai le vertige 😂,4-7-2021,
275,Güiömär Pëscädör,guio.jero,,😬😬😬😬😬😬,1-7-2021,
276,🅢🅐🅣🅞🅡🅤 🅖🅞🅙🅞,satoru.___.gojo,,era pra deixa filmando o cll quando ele caia,25-6-2021,
277,the_boy_weeb,the_boy_weeb1,,turn it on why don't ya,25-6-2021,
278,Amanda ツ,_sunixi,,Thats not an iphone 11- thats like the 5,3-6-2021,
279,vencedor_hosco_hola,juanamador9456,,👌👌👌👌👌👌👌🤓🤓🤓🤓🤓🤓🤓🤓🤓,25-5-2021,
280,jucelinodasilvaribeiro0,jucelinodasilvaribeiro0,,Boa noite,18-5-2021,
281,Cassie Fox,the_scranton_strangler_,,IM SCREAMING WHYYYYYYY,13-5-2021,
282,sans,golemgato8919,,si yo tengo uno de esos y lo tire y se me resbaló y no le puse el papel y me rompió el piso,10-5-2021,
283,volt.lighting,volt.lighting,,ΟΜG,6-5-2021,
284,🫀,02h.59m__,,vou começa usa papel higiênico com capinha vey 😳😳,5-5-2021,
285,يولاندمع صديقتي لينا,wwea143,,لالالالالالالالالالالا,2-5-2021,
286,хммм,begula779,,туалетка в полёте : я бумага Мэн 😂😂😂😂😂,29-4-2021,
287,Dorfkind,dorfkind.gang,,thats an iphone 4 or 4s,28-4-2021,
288,ITS ALYSSAAAAAA,alyssa.larios,,Uh how told him he had the iPhone 11,27-4-2021,
289,✋_роблокс_Вика_роблокс_✋,vika_roblox264,,ого😳,20-4-2021,
290,€ŁIŞ€Ữ,eliseu1936,,WHAT😯😯,14-4-2021,
291,🖤iam_kenan🖤,kenan_live1,,para hep yanlış kişilerin elinde,30-3-2021,
292,💞FrankXJoey💞,xxx_itsacardboardbox_xxx,,SCREEE3EEEEECH,21-3-2021,
293,oktay yalçın13,celat12342,,telefon 20 parçaya bölündü oda bozuk telefondu alaahtan,21-3-2021,
294,✨Siryam Matos Vargas ✨,siryamlmv2,,HOw,17-3-2021,
295,SD LIONESS,dyounglion1,,wowwwwwww wowwwww 😲😲😲😲😲😲😲😲😲😲😲😲😲😲😲😎😎😎😎😎😎😎😎,15-3-2021,
296,🐾,tear_1945,,"Прикол в том, что земля мягкая, и не важно с какой высоты скинуть, всё равно целый останется))))",15-3-2021,
297,🍃🪷,mxddiieey,,Thats not an iPhone 11,14-3-2021,
298,Hi,loverofpurple4,,as soon as you threw it off and I saw how high it was I thought you were crazy😳,14-3-2021,
299,user2180026656127,xxmya_pandaxx,,THAT HAS TO BE AN OLD PHONE IT HAS TO BE THAT NOT YOUR-,6-3-2021,
300,✌️😜🐞💁,miraculousedits_officia,,Im watching tiktok with that iPhone lol,28-2-2021,
301,Hi there,lunakat45,,Daaaaaang!!!!!!!!,22-2-2021,
302,Хоцуке,roxanaklyauzer,,Какой у тебя этаж,20-2-2021,
303,123123,_okay123,,@krc._.1 😳😂,19-2-2021,
304,Davi Oliveira,agent._.parker,,@lusqu1nhahot 0.o,16-2-2021,
305,Maria Eduarda De sou,hinatahyuga4385,,oxe como que não quebrou😌😌,9-2-2021,
306,user5744738627527,user5744738627527,,как😳😱,7-2-2021,
307,killerfromdreamYTbaconlover😘,ilovebaconforreal123,,I am glad the phone didin.t broke,6-2-2021,
308,user5765677859723,aurum764,,это песня попуральная она называется cradlex,3-2-2021,
309,Yjlh123,qwelihangyj123,,👍👍👍👍👍👍👍👍,1-2-2021,
310,nattanoncc,waaallll_11,,😅,31-1-2021,
311,nattanoncc,waaallll_11,,่,31-1-2021,
312,lihangyj123456,lihangyj123456,,👍👍👍👍👍👍👍👍👍👍,23-1-2021,
313,user3755401855265,dgdydu23,,What,21-1-2021,
314,suuuuuuuuu,2015..ferrari488._.gtb1,,thats not an iohone 11 😂😂😂,20-1-2021,
315,Guilherme Alves,guilhermealolololo,,um nokia aguentava até sem papel igienico,17-1-2021,
316,ខ្ញុំរៀនពូកែណាស់,vannyse26554576555775,,Is this the iPhone 4S,16-1-2021,
317,Vanja,vanjkonzi,,Is that working on human? 😂,15-1-2021,
318,User:emiliano01pichis,soy.emipichis,,Omgggg,15-1-2021,
319,Jesse,jesseripepi60,,That’s a iPhone 4,14-1-2021,
320,Mitch Rollo Valenzuela,mitchrollov,,That’s iPhone 4😂😂😂,13-1-2021,
321,°s ʜ ɪ ʀ ᴏ°,shirofie,,"try and do it again but record it, if it was already recorded please show us🥺",12-1-2021,
322,mega,hi.im.a.drag0n,,its 70 ply,10-1-2021,
323,sou do gta v,rafamaxapelao7397,,mano de uma altura dessa tinha que quebrar o iphone chegou la em baixo ele ainda tava normal interinho,6-1-2021,
324,keysi,thtskey,,awesome,5-1-2021,
325,craft ALYSSON,craftalysson,,🤔🤔🤔🤔,2-1-2021,
326,Adrian Duca,adrianduca2,,😎😎,2-1-2021,
327,Sean Tobin,seantobin05,,I thought the camera was gonna be on,31-12-2020,
328,чучундра,huiwam_huinam,,я,22-12-2020,
329,Никто,4ipolina4ka,,Э,21-12-2020,
330,Esperançar 🌸,mairana2,,O_O,19-12-2020,
331,♡︎Bxʙʙʟᴇᴢ,charlidameliosfan14,,Bruh i have that iphone but i lost it somehow🥺,19-12-2020,
332,Варёчек,_jassik_,,У меня тоже есть такой раритет айфон 4,15-12-2020,
333,Yuri Gamer ofc,yurigamerofc936373,,omg😬,12-12-2020,
334,Lil Tre day,tretrealday,,That’s toilet paper,12-12-2020,
335,hi,imnotm0rgan,,✍️put✍️phone✍️in✍️tolilet✍️paper✍️,12-12-2020,
336,OTAKU ITACHI ICHIHA,itachitiktok.uchiha,,"nooo9 el papel por el eso es que compro mucho papel pero el papel"" Rip para el papel",10-12-2020,
337,Hello,manu_oficial234,,Ja botei o papel igienico no meu celular,10-12-2020,
338,fisda sumalenda,fisdasumalenda,,😱😱,9-12-2020,
339,Liliane Vitti,lilianevitti,,🧻📱😏😲,6-12-2020,
340,dedfall_962,dedfall_962,,its a Samsung 😂😂😂,29-11-2020,
341,atakaaaaa,reillymaefilha,,a meu deus um iPhone eu pensei não não faz issooooooo😳😳😳😳😳😳,27-11-2020,
342,Yeah,urmomssteppingstone,,we found ourselves not only a 🤡 but the whole 🎪,25-11-2020,
343,Philipyee123,lommelygte,,Apple fe,25-11-2020,
344,surimu,mjstfleurz,,let us see that from the phones version of this,23-11-2020,
345,Superior,limegamer1933,,Omg is my i phone ok😂😏,22-11-2020,
346,user3302740901413,artem_99077,,А кто ожидал другое Влад А4+iPhone 4= пуленепробиваемая хрень,20-11-2020,
347,1win,victoriademic1,,😄😄😄,18-11-2020,
348,A,kledsonpinheiro1,,Kkk na vou fazernkk😂😂,18-11-2020,
349,чт,ded.insult.1000minus7,,ломай ломай мы же миллиардеры,16-11-2020,
350,luna,holymariluna,,morale? tieni il telefono in un rotolo della carta igienica,15-11-2020,
351,mimio243,mimio243,,😳,14-11-2020,
352,cida,cidavip,,omg😳,14-11-2020,
353,Theofficial_Arlei-_4711,theofficialarlei,,yo i have iphone 4 😅😅😅,10-11-2020,
354,.,barley..x3,,thats not an iphone 11 LMFAOAOAOAOAOA,7-11-2020,
355,Wolfie,wolfiegachagamer5,,😂The ground is broke,6-11-2020,
356,Mf,azula_ftw,,It's an iPhone of course it's gonna break,6-11-2020,
357,balls,melbahagonoy,,jwhjrsfhesdvyeesasjjvcgeeekojhvfs😂😂😂😂😂,4-11-2020,
358,Lux Luver,frozensorrel,,That’s not an iPhone 11,30-10-2020,
359,Jonas Junior,gabriel162o,,Manu vc fez o meu coração cuasi parar de susto não faz mas iso😵😵😵😵,29-10-2020,
360,🖤🐱CartoonCat🐱🖤,cartooncat707cartoondog,,NOOoooOoOooOooOooOo🥺,27-10-2020,
361,Alien 👽,alien_607,,oaa sobreviveu,24-10-2020,
362,grantas GerKIs,realgrantasgerkis,,so old get iphone 11 pro,22-10-2020,
363,ATV Beach Tours,atvbeachtours,,😁😁😁😁,17-10-2020,
364,Finn,user194790275810,,So no ones going to tell me how the old iPhones are stronger than the newer ones?,14-10-2020,
365,no toxic fandoms,ashley___67,,el papel legendario salvo el celular,9-10-2020,
366,.,_...linnea,,who else stayed for the sound,9-10-2020,
367,pepepito,pepe8267_2013,,como,8-10-2020,
368,GLENTI 🇦🇱,glenti.offc,,un thash ca tha ky,7-10-2020,
369,WLF ON THE SHELF,elf_on_theshelf8,,If some one did this I would be zooooming down the stairs😂😂,7-10-2020,
370,▪︎Cute_Fofo▪︎,bela._.jujubah,,Um Iphone 😳,5-10-2020,
371,Karita Ferreira,karitaferreira0,,E se fosse Nokia tijolão sem o papel higiênico : 👁👄👁 😳 @mortis._.brawlstars @flower._.das._.quebrada @kamiladasilvasales2gmail @pm_dos_kids1,5-10-2020,
372,raeesha,lilbrownie___,,was it recording?,3-10-2020,
373,clever likes to sym,ilovephatnyash,,My little toilet paper where are u i need the toilet im coming to the hospital for you my boyy.🥺,3-10-2020,
374,I'm team bts army 둁닷ㅎ,aaronluismanansala,,let me try,29-9-2020,
375,😂OOF😂,lol.jay9,,People be useing phone cases we need toilet paper for this to,28-9-2020,
376,♡︎,userizhfbhdjxw,,🤣🤣🤣🤣,27-9-2020,
377,.,74.wexx,,Я: ну маленькая трещинка. Ничего,27-9-2020,
378,﮼العتيبي🚷👑 ✪,y_____y5,,كيف,25-9-2020,
379,hay gays its me!,editis0506,,@@heloisa_oliveira_11,24-9-2020,
380,Genesis Carolina Tur,xxgeneplaizxx,,😳😳😳😳,24-9-2020,
381,Julian Rosco,julianrosco,,I TRY MY SUPER CRACKED PHONE WITH MY TOILET PAPER TOO AND IT CRACKED,23-9-2020,
382,Arthur,aarthur_henrico,,como é possível,22-9-2020,
383,vale,luz05052011,,😰😰😰😰,20-9-2020,
384,Shinto,ineedfollowersboi,,My dude said iPhone 11,20-9-2020,
385,abonne toi stp,0matth_,,vive le pq,17-9-2020,
386,Arthur,nature.lover2,,DUDE THATS MY IPHONE GIVE IT BACK,16-9-2020,
387,Santiago Andres Flor,santiagoandresflorezman0,,comoi,16-9-2020,
388,Frency Chenoa,cmaseira,,😎🤩,12-9-2020,
389,LinLin,linlin29588,,so good,10-9-2020,
390,signos,retardada084,,jogar o iPhone é caro meu Deus só tem um celularzinho😳,10-9-2020,
391,milie Bobby Brown,miliebobbybrown102o,,😱😱😱😱😱😱😱😱😱😱😱😱😱😱😱😱😱😱😱😱😱😱😱😱😱😱😱😱😱😱😱😱😱😱😱😱😱😱😱😱😱😱😱😱😱😱😱😱😱😱😱😱😱😱😱😱😱😱😱😱😱😱😱😱😱😱😱😱😱😱😱😱😱😱😱,5-9-2020,
392,ang,k3sk3s,,lol,5-9-2020,
393,◼️◼️◼️◼️◼️◼️◼️◼️◼️◼️◼️◼️◼️◼️◼️,aayan_islam_,,@dimitrivegass m,3-9-2020,
394,user9414778121982,mikivi16,,😨😰😱😱,1-9-2020,
395,dance...se...souber70,dance...se...souber70,,ele colocou outro celular,1-9-2020,
396,Rafał Kielak,pilkarz2129,,@blowek dawaj,30-8-2020,
397,Antonietta Nenna,she.s.tonia,,perché non lo accendi 😂?😂,29-8-2020,
398,roblox playr 45,lukedavidson_53,,dobby did this one,25-8-2020,
399,vivianelys919,lua_nowunited12e455,,zezus,25-8-2020,
400,Random957373847438363,ryanstith1,,Wow just wow 😯,24-8-2020,
401,lupis🥰😘,lupita_lute11,,gouuuuu😱😱😱,24-8-2020,
402,꧁⚔🅡🅐🅝🅐⚔꧂,hridoymahmudrana3,,🤔🤔🤔🤔🤔🤔🤔🤔🤔🤔🤔🤔🤔🤔🤔🤔🤔🤔🤔🤔🤔🤔🤔🤔🤔🤔🤔🤔🤔🤔🤔🤔🤔🤔🤔🤔🤔🤔🤔🤔🤯🤯🤯🤯🤯🤯🤯🤯🤯🤯🤯🤯🤯🤯🤯🤯🤯🤯🤯🤗🤗🤗🤗🤭🤫,23-8-2020,
403,bia fofa,biafofa700,,e jogo roblox,23-8-2020,
404,Carolina Thom,carolinathom5,,😳😳,19-8-2020,
405,😼😼,jaime_les_pates38,,moi je l'aurais pas fait 😂😂,19-8-2020,
406,danuxaYES,danuxayes,,вот ето туалетка,19-8-2020,
407,Miraculous_Ladybug🐞🐱,miraculous_ladybug1942,,😱,18-8-2020,
408,Donkeyyyyy,sebeyy_9,,Hi,18-8-2020,
409,Hi,kayla_the_gacha123b,,I'm do it rn,18-8-2020,
410,wabit727,celia1820,,😳😳😳😈😈😈😱😱😱💔💔💔💗💗💗💖💖💝💌💋🙊🙊🙊🙊,17-8-2020,
411,kalhsperax,_.chrysax_,,I also want a phone🥺🥺,17-8-2020,
412,Analia Martinez,analiamartinez73,,",,. ,,
mi papel >: v >:",17-8-2020,
413,Михаил Димитров,mihaildimitrovwhy,,imposidil😰😰😰😨😨😨,16-8-2020,
414,Ерасыл Биржанулы,erordo,,Я один руски,16-8-2020,
415,Ерасыл Биржанулы,erordo,,Подменааа,16-8-2020,
416,Ily.<3,xxx_lets_._win_xxx,,"is that an ""iphone 11""😳",15-8-2020,
417,Garcia Grace Janine,user369526465,,Amazing,14-8-2020,
418,🫶🫶,.urfavteroristt,,What the hill 😂,14-8-2020,
419,Follow back,tiktokcommunity66,,give me iphone,12-8-2020,
420,Dan,yaoleo.1,,u should've just dropped a Nokia and break the floor,10-8-2020,
421,🥵 3 blankets 🥵,smexy.blanket.dancerzz,,I guess charmin is real plush,9-8-2020,
422,HYELO,ii_albiexd,,ahah,9-8-2020,
423,Ariana Grande,buumya3,,🤳🦧,8-8-2020,
424,Ariana Grande,buumya3,,🥰😁😂😳😏,8-8-2020,
425,Jaeden Khiel Climaco,jaedenkhielclimaco,,yo you don't think we know the difference between an iPhone 11 and a 4.,7-8-2020,
426,Jaeden Khiel Climaco,jaedenkhielclimaco,,😌😌😌,7-8-2020,
427,mAtErIaL gIrL💅💅💅,im.a_baddie.no1,,omg πός δεν έσπασε???!!!!!,7-8-2020,
428,Valery _ Adn y Ximena _ adn,valerytuber3,,Depor si yo ya casi no tengo papel,6-8-2020,
429,user4129120010076,alesbarraza,,😅😅,6-8-2020,
430,bloodshot eyes,_thisisnotreal666,,Wooooow,6-8-2020,
431,DE KIND,keiry121011,,WOW,6-8-2020,
432,La esposa de Hyungwon,k1nxk0,,Y voló :v,3-8-2020,
433,Celia Andrade Pineda,celia_juegos_roblox,,Whait !!,3-8-2020,
434,...,i_am_paproc,,@blowek Karol i czynności manualne,3-8-2020,
435,Rubaba,rifaatrubaba,,ITS ALIVE!!! In a toilet roll,3-8-2020,
436,Chloe,chloe.x142,,That is not an I phone 11 it’s a 5,3-8-2020,
437,J,_5_5_5_you,,Вау,2-8-2020,
438,,deff.not.alexx,,My guy that’s an iPhone 4 not a 11,31-7-2020,
439,44570142671256,brawl1002,,😱😱😱😱😱,30-7-2020,
440,Starport -Logan,starport_sfs,,The phone will probably break if it was on Saturn 🪐 because Saturn has more gravity than earth,30-7-2020,
441,😑,lusie47,,wow,30-7-2020,
442,Nick,nicknomy115,,That ain’t an iPhone 11,29-7-2020,
443,jk no I'm not joking around jk,princesszorgo,,IS THE TOILET PAPER OK?!?,29-7-2020,
444,่,opjh06,,😰😱,29-7-2020,
445,Miadibujo6,miadaris,,hoa😁,28-7-2020,
446,Alana Campbell,alanacampbell0,,WOwOwOw,27-7-2020,
447,항우인뎅,hangwoo0904,,않이 핸폰 켜봐!,27-7-2020,
448,BIANCAಠಿ_ಠ,yoonginista23,,"nadie:
absolutamente nadie:
Yo:queriéndolo intentar🤡",27-7-2020,
449,ashleygail,ashleygail51,,omg,27-7-2020,
450,Tanya2009.10,i_am_lox8,,-_-,27-7-2020,
451,samyelmoaddam,legamer634,,intact,26-7-2020,
452,przemekczaj3,przemekczaja8,,wow😯😯😯😯😯,26-7-2020,
453,HotMilf,milfsha,,@tikonlinecasino 🤑🤑😵,26-7-2020,
454,Apenas a burra da di,_dyy0.g4ch5,,OMG,25-7-2020,
455,ola_khe_azes,ola_khe_azes,,Cuando se me cae de la cama se parte toda la pantalla 👁👄👁,25-7-2020,
456,...🥀,bianca4618,,OMG,23-7-2020,
457,Cutie Patotie💫,juicecolored1550,,i challengeyou that give an iphone hehe,23-7-2020,
458,desfraudes,desfraudes,,lel,23-7-2020,
459,Никому не,kartan25,,"Noooo, la carta igienica No 😲🤣",22-7-2020,
460,Robin fluer,shessshroronoa,,why the toilet paper is more important than the iPhone this day's,22-7-2020,
461,samsu,sorritan6,,guatafac,21-7-2020,
462,👉FELIX MENDELSSOHN👈,anonymously_unknown_ako,,e kung binigay mo na lang sakin. edi sana ok,21-7-2020,
463,✨,sarah.dlrr_,,Pov jai le vertige ☠️,19-7-2020,
464,𝗠𝗶𝗺𝗶✨,mimieditsm,,menos mal que eata bien igual no lo intento nunca,19-7-2020,
465,dylan,dylan__039,,Je suis le seule à se dire que sa ne servais à rien d’avoir des gants 😅,19-7-2020,
466,Elea ღ,_10elea,,"C’est pas un IPhone 11 ça, non??",19-7-2020,
467,i suck at everything,imveryystupid,,"2019: OMG WHY'D U THROW THE PHONE
2020: OMG WHY'D U THROW A PERFECTLY GOOD TOILET PAPER
2021: IS THE GROUND OKAY?!
2022: ??????",19-7-2020,
468,Benji Norval,benjinorval,,😁🤨,19-7-2020,
469,MOM😼💞,ittsssnotttelsaa,,Non 🙅‍♂️,18-7-2020,
470,dragon machined,dragonmachined,,maintenant il faut toujours un pq mais avec ce qui c passé,18-7-2020,
471,⃤🏳️‍🌈,grey_carmen,,"Eh bh il a l’air bien ton ""iPhone 11"" ;-;",18-7-2020,
472,kageyamaaaa !,seikatsuzu,,nouvelle coque rinoshild 🤣,18-7-2020,
473,lola,lolabitto_,,🎛⬛️⬛️⬛️🍏⬛️⬛️⬛️⬛️⬛️⬛️⬛️,18-7-2020,
474,Tik Toker,ark.en7,,ils servent à quoi les gants😂,18-7-2020,
475,emy1283,emy1283,,Je préfère pas essayer mdr,18-7-2020,
476,⛩❄fox_grognon🔥⛩,renard...grognon2007,,vive SAMSUNG,17-7-2020,
477,⛩❄fox_grognon🔥⛩,renard...grognon2007,,a bah il doit avoir des réillure car cest apple,17-7-2020,
478,Tiffney Brooke,gennesiskai,,My brother said that is so cool,17-7-2020,
479,Noxite,noxite.off,,Iphone « 11 »,17-7-2020,
480,gamingslasix,lesdilemmedemomo1,,je préfère pas esseyer 😂😂😂,17-7-2020,
481,barret.elliote,barret.elliote3,,C’était sur c l’un des tél les plus solide,17-7-2020,
482,Joan fcm,joan.wbr,,G essayer il c'est cassé en deux 😭😂,17-7-2020,
483,SUUUU,mathis_hm2b,,Trop fort,17-7-2020,
484,yopetitchenapan,pauline__gtr,,@coline2667 clairement mon téléphone 😂,17-7-2020,
485,Oliver Longenecker,zulu123rex,,That’s the iPhone 4??!,20-5-2020,
486,giovanna,giovanna.carbone,,Brbdoign this rn,20-5-2020,
487,mohit_jacker01,mohit_jacker01,,hi sir I am big fan of you,21-6-2020,
488,d o m i n i q u e,nhiadgc,,IPHONE 11 LMAOOO💀💀💀,20-5-2020,
489,dosmond_52,dosmond_52,,not worthy tp,6-6-2020,
490,👽Angel👽,imbreathingoxygen,,Did the toilet paper give consent 👁👄👁,20-5-2020,
491,Gautham Surya,peace_gautham_dito,,https://vm.tiktok.com/orCaU7/,8-6-2020,
492,user5536630601829,icedbubbles122,,Yeah don’t be shy throw the toilet paper and the phone down separately 😂,1-6-2020,
493,💞💞pranay 💞💞papa,pranayprabha1433,,Madi thathireddy palle ra babu Mari antha thelivi 😛thakkuva vallama,8-6-2020,
494,Hudder600,hudder600,,That’s an iPhone 4,29-5-2020,
495,♠️ Princ gill ♠️,princ_gill76,,tansoin na lo iPhone 4s aa,8-6-2020,
496,✨️Dikx°___.,dikxsha_dk,,@atharva7522,8-6-2020,
497,I hate my user.😴,exercise....1,,oml the tolit paper 😭😭ur so mean is it ok?!,30-5-2020,
498,□,sourfish1yt_backup,,that's an iPhone 5 not an iPhone 11,7-6-2020,
499,I follow back,worldwide.ruben,,I SEEN THIS ON @robbyepicsauce YT VIDEO 😂😂😂,30-5-2020,
500,🦋𝕄𝕚𝕤𝕔𝕙𝕒🦋,meh_names_onion,,People who eat plastic bags thinking it’s a iphone11: 😱😱😱,7-6-2020,
501,Yusuf Ahmad,yusufahmad318,,Iphone 4 h it’s not iphone 11,1-6-2020,
502,Punjabi Kudi👑,_saniadhiman_,,oh shittttt😢😢😢,8-6-2020,
503,user1683760493307,juko151,,Try it on Concrete 😂💪😂,8-6-2020,
504,user4242751764885,user33708371,,Iphone hai bhai Iphone,8-6-2020,
505,🍪 Cookie boi 🍪,cookieboistudio,,:00000,30-5-2020,
506,natalie 🤎,nataliemchen,,literally EVERY comment says liked by creator,8-6-2020,
507,Striha,striha_15,,Nice 5,7-6-2020,
508,Nick,nickequalscringe,,That’s a iPhone 4,7-6-2020,
509,𝐄𝐫𝐢𝐜𝐚,theyenvyerica,,When u just got ur first iPhone look I have the iPhone 11,7-6-2020,
510,McKenzibrooke,mckenzibrooke5,,it's saved how,9-6-2020,
511,khehrakanwer,khehrakanwer,,thank you showing the results in the same video,7-6-2020,
512,Caleb Marson,calebmarson11,,its not an iPhone 11,7-6-2020,
513,ur mom 😻,aquiriedreality,,Literally that’s an IPhone 4. Plus it does not have 2 camera. OH,29-5-2020,
514,jada (jay-duh),virthent,,iPhone XR is the best phone because I dropped it down an flight of stairs and it hit the floor really bad and to scratches.,7-6-2020,
515,Third Artkage,doggo.draws177,,Charmin strong Charmin quick,7-6-2020,
516,shweta❤️,shwetaaa9,,Its not iphone 11 bro🙄🙄,9-6-2020,
517,sandman,davidben00,,Why am I the first comment,7-6-2020,
518,Sristi Bk,sristibk4,,bhai ye konsa phone bola 😂😂😂😂😂,9-6-2020,
519,Happy pride month,y0ur_l0c4l_jxd3n,,@80z.....jaxson there’s no way that phone still works 😨,29-5-2020,
520,mary,maryacc0,,Ok how the frek did THATN DIE[scream][scream][scream],7-6-2020,
521,...,vodkastraightn0birthday,,It’s like an iPhone 1 I would have thrown it as well😂,7-6-2020,
522,Will Young,will_j70,,It’s a 4,7-6-2020,
523,Harshit Agarwal,harshitagarwal2122,,It’s 4,9-6-2020,
524,@payel 6291,payelsingh62,,mujhe de do ak,9-6-2020,
525,finn,h.ech.h.ech.h.ech.fine,,A that ain't even an iPhone 11 broski,9-6-2020,
526,Depika Jha,depikajhaofficial,,but Y?,8-6-2020,
527,mr.johnsonon,mr.johnsonon,,I think that was a 5s so it’s naturally indestructible,7-6-2020,
528,Susi,theofficialsusi,,I'm going to use toilet paper has a phone case now,29-5-2020,
529,NOT,wararatinthasoy,,ลาสุดเครื่องกุพัง,31-5-2020,
530,Jamie,jamie.pc,,My neighbour dropped her iPhone 4 down a 10 story elevator shaft and it was only a little bit cracked at the bottom,7-6-2020,
531,Nolan Silverthorn,shadowchaser2010,,Don’t use such a valuable item use paper just use anything but to,7-6-2020,
532,erica,ericaanghel,,toilet paper saves lives,7-6-2020,
533,georgiaa,cheesetoasty05,,ye and it's a literal brick,7-6-2020,
534,Jonny,jonny123585,,U should have filmed,7-6-2020,
535,oscarito 😵‍💫,og18_,,too bad nobody has that case,31-5-2020,
536,Ankit Sharma,kitvaishnav9,,I phone 11 😝😝😝 RIP ✌🏻👻,7-6-2020,
537,user2822798493671,shivastar1,,without it it broks,7-6-2020,
538,SANJAY SHAHU,sanjayshahu20,,"आईफोन 4s है
पुराना डेड फोन होगा...",31-5-2020,
539,"ルース,",shxukox,,you should have been recording on ur phone so it looked like a huge drop in a vid,1-6-2020,
540,Emilia,_emilia.1,,Wait were can i get one of these cases,7-6-2020,
541,.,gods.of.randomness,,Oh so that’s the best way to protect phones 🤔,7-6-2020,
542,ŃiS.,sirhansalae1,,ให้ผมดีกว่าครับบ,31-5-2020,
543,hannah,hannah960x,,@taniixwats remember this sound,7-6-2020,
544,Taylor,..old..account.0,,that's not an iPhone 11,7-6-2020,
545,Z.S,z.s635,,Omg that’s so cool,31-5-2020,
546,ayuz,cool_boi_8248,,it's no 11 it's 4s,7-6-2020,
547,🇮🇪🏐🏑,aimee456x,,yep that definitly an iphone 11,7-6-2020,
548,jameswen13579,jahmers_,,This is no iPhone 11.,7-6-2020,
549,char 💫,charlotte...stein,,Me: -reads caption- me: -reads comments about phone model- 👁👄👁,7-6-2020,
550,Sammar,sammargouda,,Who else thought the piece of grass on top of the phone was a crack,7-6-2020,
551,Clowns🤡,thegradeseven,,Does it still work?,7-6-2020,
552,Telia,princephillysbae,,Mine didn’t survive when my baby brother bit into it,7-6-2020,
553,👁👄👁,unknownidiot4,,That is not an iPhone 11,7-6-2020,
554,Cam Proposch,allmyfriendsaretoxic2932,,Is that your old phone,7-6-2020,
555,Julie,julies.drafts,,𝔽𝕪𝕡 (☞ ͡° ͜ʖ ͡°)☞,7-6-2020,
556,🦹🏿‍♀️🦹🏿🦹🏿‍♂️,devilrosegacha,,OMG WHy??,30-5-2020,
557,Allstatemike🇺🇸,allstatemike,,Try again with an actual IPHONE 11,29-5-2020,
558,Rathod Alpesh,rathodalpesh40,,bhai muje dete feka kyo,1-6-2020,
559,ディック愛好家です,heycvtiewyd,,Next time throw a Nokia phon,30-5-2020,
560,I 🫶🏻 my Zanbaqa,unknown.alnamer,,Bro u dropped it on the grass 🤦🏼‍♀️😤🥶,30-5-2020,
561,Calista,ca11i327,,WELL HOW DOES MY IPHONE 11 HAVE A CRACK😡,1-6-2020,
562,Morgan Stephens,m.o.r.g.a.n.11,,That’s not the IPhone 11. It’s like a 5,7-6-2020,
563,marinaa,sti.c4zz1,,Nokia : 🤡,7-6-2020,
564,Isabella,www.izzyhr.com,,"pfft.. iPhone 11??? iPhone 5/4
the new one is called SE and has an iPhone 11 style camera 😔",7-6-2020,
565,user1960952607929,dangschannel,,bruh you replaced it with a new i phone boreing😐😐😐,7-6-2020,
566,milktea,milktea_tiffy,,anyone worried for the toilet paper,7-6-2020,
567,︎,his0k41,,@nayelycervantes1 I feel really bad for the toilet paper 😖😭,21-5-2020,
568,#BLACKLIVESMATTER!!,hellomy_littleangels,,that scared me,21-5-2020,
569,prakash sun boy,prakas744,,Kismat Ka Khel hai,4-6-2020,
570,@mahesh,mahesh4911111110,,Nise,21-5-2020,
571,Raja,up33raja07,,bhai koi ye bataye ki i fone 4s ka lock kaise unlock hoga iCloud,3-6-2020,
572,blokay,blokay.memes,,y weren't u filming,3-6-2020,
573,Master of Alexander,mrxmuniyaraj13,,mental,22-5-2020,
574,adarsh rajput 😘😘?,adarshsingha,,Piz Help me 2000k Likes Piz 😭😭😭😭😭😭😭🙏🙏🙏🙏🙏🙏,22-5-2020,
575,🦕Jasmine🦕,jazzydinosaur,,@skyeschristmas,7-6-2020,
576,CuteePari,cuteepariiiiiiiiiii,,plz reply,14-6-2020,
577,Daniele,danielecantcook,,Okay but the iphone 4 is like unbreakable,3-6-2020,
578,Patty,p_moneyyyy0,,It’s an iPhone 4 and they’re indestructible,7-6-2020,
579,Khalil Sheppard,thelifeofthesheppard,,I live ths,3-6-2020,
580,Aleenaaa :),a.l.e.e.n.a.x,,@alliyah420,14-6-2020,
581,Maddox,maddox_bromberg,,Please tell me you were recording on the iphone4,23-5-2020,
582,Ananya Panda,ananyapanda8,,this is not I phone 11,23-5-2020,
583,marni🤍🪬🫧,marniwall,,I wanna try this now…,7-6-2020,
584,.,downbad4yourbirthgiver,,I don’t care about the phone!Is the toilet paper doing ok?,23-5-2020,
585,🔥Tallis Harper🔥,not_tallis,,I will give you 100000 dollars for that tolit paper,21-5-2020,
586,Princess Noor,princessnoor334,,I can't believe it ..... I would have catched it from down,16-6-2020,
587,Surya Mandla,suryamandla3,,ho 🤣,16-6-2020,
588,Bursa0408,frogboy80,,"iPhone 11 ,WhAt Is ThiS",21-5-2020,
589,🌷Brianna🌷,itszbrii,,People that think the phone is actually an IPhone 11:👁️👄👁️,6-6-2020,
590,Banaman,.banaman,,Of course it didnt break that phone is a brick,6-6-2020,
591,♏️el,mel.c.g.p,,That toilet paper is very valuable nowadays,21-5-2020,
592,Lydia2007am,lydia2007am,,@lorena1am,15-6-2020,
593,Çøłtöñ Dõhęrtÿ,lolcolton420,,This proves that the iPhone 5 is an indestructible brick,21-5-2020,
594,Painting_my_make,painting_my_nails,,Don't get fooled,14-6-2020,
595,oh,waffle.dino_,,this my why people are buying all the toilet papper 😳,21-5-2020,
596,Daquavias Dingleberry III,giantdonut,,When you only have 1 minute to deliver the phone from to bottom for 10000000000000$,21-5-2020,
597,m,oceeru,,I was expecting someone to take the toilet paper and leave the phone XD,21-5-2020,
598,Im done with fortnite,iwillfriendyouonroblox,,2019: good thing that phone is good. 2020: IS THAT TOILET PAPER OK,21-5-2020,
599,WEEKWILLfr,weekwill2,,it’s a brick. you can’t break those things if u tried,21-5-2020,
600,Team trash 🗑😎😝😁,the_edit_god2015,,Drop it over concrete,14-6-2020,
601,Corn,cddawg05,,BRO YOU CANT BE WASTING THAT IS TOO VALUABLE,21-5-2020,
602,sam morley,smorley10,,It would have smashed if it was on concrete,14-6-2020,
603,Soham Pahwa,sohampahwa,,phone has not broke[thinking],10-6-2020,
604,Arun Veera's,arunveeras,,give me mobile bro😇😇😇,13-6-2020,
605,ayushsau4,ayushsau4,,bro if u have more than enough money than just donate,13-6-2020,
606,🔥T A N Y A🔥,official_tanya_786,,Amir log h😂,27-5-2020,
607,:)))))))))))),gab_inl,,@noe_lafl,7-6-2020,
608,SwagataMahanta,swagatamahanta8,,usse atcha you mujhe de deta i phone,27-5-2020,
609,Shradha,shradhasareen,,this is i phn 4S budhu bnara h.,11-6-2020,
610,Streeter@#Boss1010,streeterboss,,mujhe toh dar lag Gaya.,28-5-2020,
611,lips_queen_amayra❤😘,mrs._.amayra._.girl._,,Or experiment kro phone ke saath😂😂🤣,28-5-2020,
612,😎Attitude__Boy😎,jadeep_18,,[laughwithtears][laughwithtears],28-5-2020,
613,Praveen Kumar,praveenvpk975,,don't worry phone did not got damage.ok.😄,26-5-2020,
614,usershanker,itsmeshanker,,actually that phone not came out side,29-5-2020,
615,Vishnu kantiwal0003,vishnu.kantiwal,,this song is my phone ringtones ❤❤,9-6-2020,
616,addie🇺🇸,adhope_07,,No one notice when he\she dropped it it was an iPhone 8 and then when he/she picked it up it was an iPhone 5 .......anyone? Just me?,2-6-2020,
617,Kamren Taylor,sheknowskam,,"👮🏼♂️This is Derek Chauvin
👕 He killed George Floyd😢
👖Each like adds one year
🥾To his prison sentence💪🏿",2-6-2020,
618,ajay kumar,rajeshmahilange4,,its realy video,9-6-2020,
619,Loooook down👇,nrl_is_da_best,,So that's why there's bearly no toilet paper,7-6-2020,
620,𝕽𝖆𝖎𝖋𝖊 𝕭𝖚𝖗𝖘𝖎𝖑𝖑,raife_b,,iPhone 11 more like iPhone 1,7-6-2020,
621,⚡️🔫BANDANAS⚡️🔫,thethreebandanagirls,,Can someone please go like our videos please 🥺💕 don’t let them flop have a nice day 💗 (sorry for self promo),29-5-2020,
622,s.shiva6969,shivaaom1,,how much money do you have?,24-5-2020,
623,Pags,joeypags04,,People who don’t eat toilet paper 🤡🤡,23-5-2020,
624,hockeylifet,potato_beach_bum,,So this is what people have been using all the toilet paper for 😱😂🧻,2-6-2020,
625,Joseph 😎,joseph_a_a_,,Not even a iPhone 11,2-6-2020,
626,Taku,xxtakuxx,,Make it and on concrete,7-6-2020,
627,ethan smith bc y not,ethan.n.dat,,not the toilet paper,14-6-2020,
628,AnUnknownStrangerYouDon'tKnow❤,oldunknownfactsaccount,,thus always use protection kids. or there will be heavy pain or loss.,24-5-2020,
629,Mayank,mayankkashyap007,,Aww he should of took a video of it,24-5-2020,
630,emma 👻👻,emma_sellmann,,Toilet paper really do be a lifesaver doe,24-5-2020,
631,Hugo Silva,b.a.i.x.o,,"Intacto, se fosse o meu iphone partia em 10000000 pedaços",16-6-2020,
632,joe,ashlisoliman,,NOT THE TOILET PAPER,25-5-2020,
633,Maxibeast33,maxtempest,,It’s in reverse,7-6-2020,
634,Kidwithalarm,kidwithalarm,,Should of taped it in the just now where the camera is,2-6-2020,
635,Shona R,shonarv,,it's not iPhone 11. it's iPhone 4s or 5s.. ..,25-5-2020,
636,l purple u forever💜,bts_riya,,khatron ke Khiladi😂😂😂😂😂😂😂🤘,25-5-2020,
637,Utkarsh Aditya Adity,utkarshadityaadit,,tis but not a scratch,25-5-2020,
638,𝕂𝕒𝔻𝕖𝕟 シ,x..ka4enx.x,,That’s not an iPhone 11 that’s a black iPhone 5,14-6-2020,
639,littlekells09,littlekells095,,that why there no more toilet paper,2-6-2020,
640,ziyanahmed43,ziyanahmed16389,,mena jab Kara to tut Gaya mera I phone,15-5-2020,
641,jared medina,chun794,,toilet dose save stuff,20-5-2020,
642,Allison Rose,allison.idar,,😱😱😱😱😱😱😱😱😱😱😱😱😱😱😱😱😱😱😱😱[surprised][scream][scream][scream][scream][scream][scream][scream][scream][scream],20-5-2020,
643,😏,monxrchy_,,This give my anxiety 😅,20-5-2020,
644,Amber_Papua,amber_papua,,OMG!!,16-5-2020,
645,Kaden,kadentakingthel,,"Ignore the phone, the most valuable thing he dropped was the toilet paper 🧻🧻🧻🧻🧻🧻🧻",20-5-2020,
646,INCHY007,inchy007,,That’s not iPhone 11 bruh,20-5-2020,
647,HooleyHughey,ethanhooleyhughes,,So this is why everyone been buying loo rolls,14-7-2020,
648,Zen,zenii.vfx,,bro is the grass okay😒,20-5-2020,
649,Zab lol,zabuk2020,,That’s not a iPhone 11 ;-;,20-5-2020,
650,Andrew,andrewchristianson08,,It’s reversed😂,20-5-2020,
651,single boy,90s_kid_1989,,through mobile to india I ready to catch 😏,17-5-2020,
652,Raffy tulfo in action,raffy.tulfo.in.action,,song title?,14-7-2020,
653,abshammas11,abshammas11,,You should have put it on video!!,20-5-2020,
654,chri$ta,chrxstaaa,,IS THE TOILET PAPER OKAY???,20-5-2020,
655,rapid,littlerapid,,iPhone 4,20-5-2020,
656,Rajnandini,raj_nandini98,,😄,15-5-2020,
657,Val 🪐,cl0vr__,,That’s not an iPhone 11 lmao,20-5-2020,
658,karma♡,karmafire_ff,,bull,15-5-2020,
659,😦,explodeshit,,iPhone 4 dude,20-5-2020,
660,:/,pyrocynicalol,,I mean. Thats grass.,20-5-2020,
661,J Pichardo,jpichardo0,,This is an iPhone 4,20-5-2020,
662,✨William✨,memb0y0,,That is not an iPhone 11,20-5-2020,
663,Rizuksd_149,rizuksd_149,,dil vale puch,18-5-2020,
664,Vleif,.vleif,,At the beginning I thought it was I phone xr,9-7-2020,
665,Angel,doughnut_boy11,,that's useful,20-5-2020,
666,anakindacosenone1,hyperblackarott,,@hyperkakarott @gabriella.thats.me @super_lilicake,30-6-2020,
667,Anishsaha@,anish_saha12,,nice,15-5-2020,
668,👑♢ ᵉＮן𝓞𝓨 𝓨ＯǗ𝓡 𝔰Ŧ卂ｙ 🐤,yobrimboo,,ENGAGEMENTISKEY,20-5-2020,
669,user2407657414447,repartidora_de_roblox,,Te dns cuenta que cuando iso crac el papel con el selulae golpeó el piso,5-7-2020,
670,Alyssa 🦋,nhrrdlmln17,,why omg,1-7-2020,
671,Duck Squadron,ducksquadron,,it's all good it's just an apple anyways,20-5-2020,
672,KAJJY_FC-OMG=124,kajjy_fc_omg,,Wait what just happened,10-7-2020,
673,Zeve,sheaf_offical,,When it’s actually a iPhone 4,20-5-2020,
674,𝙰𝚁𝚃𝙷𝚄𝚁 𝙸𝚂 𝙷𝙴𝚁𝙴 ⚡️,y5si,,,10-7-2020,
675,WASSAMMM MGG(Tamokuki)👾,sumncameindamail2day,,WHATT,20-5-2020,
676,Kenneth,1987quadracer250,,Can’t hurt old,20-5-2020,
677,user3709066473968,chauhanchandresh111,,Guys Meri video mein kya Kami hai?,14-5-2020,
678,Sk Chauhan,user01110107,,this is not i phone 11,18-5-2020,
679,KOSTA,kostaballas,,@shutthefucckup it’s not a iPhone 11,20-5-2020,
680,Mullet check,deer_mullet...gang,,who cares unbound iPhone,20-5-2020,
681,Local person,popopopopossssr,,IKR,20-5-2020,
682,raniya,raniyafarah,,@hanatheshortgirl,29-6-2020,
683,shay,shaylacarltonn,,iPhone 11? ur not fooling anyone and you know that.,20-5-2020,
684,Syahrul Hdyt,penyarilink,,buat gua ajah,18-5-2020,
685,💫PRACHI MAHADIK 💫,____prachu,,aree maaz alay ka,17-5-2020,
686,family ENTERTANMENT,familyentertanmen,,iphone 4s tha. u should try with iphone 11😂😂😂😂🤣🤣😂😂,17-5-2020,
687,Name,sjjsdjfhfbrjakfiguebeb,,Can you guys do me a favor and like the one video I have posted on my profile 🙏,20-5-2020,
688,sxhxxlx,sxhxxlx,,thats iphone 4 people,28-6-2020,
689,jaxtenmanske,jaxtenmanske34,,I got anxiety watching this when u went off the balcony,20-5-2020,
690,Gesdi,gesdi_nocap,,"ma è solo la cover... guarda bene il video, la dove ci dovrebbe essere il simbolo Apple man mano che va giù si vede cosa ce dietro",28-6-2020,
691,Arpit Rajput,arpitrajput1211,,😆😆😆pagal bane ra 🔚,27-6-2020,
692,user672599,kommu420,,mereku iphone nahi mereku dhedho,17-5-2020,
693,fac_my_melting_👀_🔥,s_a_l_m_a_n_rj,,it's 4s,19-5-2020,
694,Spam,deku_is_a_cutie101,,Is this why everyone is taking the toilet paper >:v,20-5-2020,
695,AnimalProtectionUnOfficial,xdoesitmatterx,,perfect case for an iPhone honestly.,20-5-2020,
696,Tarun Looser,tarunlooser64,,That’s not 11 Rey bhai that’s 4 dnt make fools,27-6-2020,
697,inaya :),goofy.go0ber,,Wait so could a human do this??🤔,20-5-2020,
698,😋MATTHEW😋,isthatmatthew,,...,20-5-2020,
699,Ewik wok,myfoidie,,That’s why everyone wants toilet paper,20-5-2020,
700,:/,softhenic25,,How ? 😱😱😱😱😱,20-5-2020,
701,nick 🐈,yuemfo,,@dumbasspolice2,20-5-2020,
702,Gio,solar_flare_o,,But does it turn on?,20-5-2020,
703,GOURAVDESWAL 😎😎,priyanshudeswa19,,4 hai 🤣🤣🤣🤣,28-6-2020,
704,Tirabassi,christian_tirabassi,,Can I have the toilet paper when ur done with it,20-5-2020,
705,user4918523759200,nishan12233,,😱😱,28-6-2020,
706,HitEsh Ð ZAin,MS4wLjABAAAALbpUEAt0Hc80eO2HJzETLKKOCOVWXG9iFjmVQ1fBOrFW8zrCrQQiJuPrltesiede,,"its not iphone 11
its iphone 3",17-5-2020,
707,the,amybiotics,,NO,13-7-2020,
708,Nina 🫶,nina.isabellaaa,,That’s an iPhone 4 that was rapped in pure gold,20-5-2020,
709,vaibhav Sinha,vaibhavsinha2005,,mere papa ke pass bhi hai,28-6-2020,
710,George,george_mendieta,,Not the tolite paper 🧻☠️,1-6-2020,
711,Shagun,shagun3431,,Nhiiiiiiiiiiiiiiiii,23-5-2020,
712,✨🍯☁️,hxney...aestheticzz,,𝗗𝗮𝘆 𝟯 𝗼𝗳 𝘁𝗿𝘆𝗶𝗻𝗴 𝘁𝗼 𝗴𝗿𝗼𝘄 𝗺𝘆 𝗮𝗰𝗰𝗼𝘂𝗻𝘁 𝗳𝗿𝗼𝗺 𝘁𝗵𝗲 𝗰𝗼𝗺𝗺𝗲𝗻𝘁𝘀!!!🦕✨~𝗳𝗳𝗳 𝗮𝗻𝘆𝗼𝗻𝗲~🌊 (𝚊𝚕𝚖𝚘𝚜𝚝 𝚊𝚝 𝟷𝚔),1-6-2020,
713,Radhe Krishna 🙏🙋,priyanshu.theartboy.30,,[laughwithtears][laughwithtears][laughwithtears][laughwithtears][surprised],14-6-2020,
714,Thehan,thehan_21,,Did you get it from Az ??,23-5-2020,
715,Isabel,boston_baked_ebans,,OMG IS THE GROUND OKAY!!!!,1-6-2020,
716,Josh,cortex_v2,,HOW CAN YOU BE SO CRUEL TO THE TOILET PAPER? 😱,23-5-2020,
717,Clash Royale 5000,funtimefreedy69,,You dropped it then put ahonther phone on the ground you list,23-5-2020,
718,Nunya,ramuf100,,Uhm...not an iPhone 11 bruh.,23-5-2020,
719,vineethkumar m,vineeth538,,super super super super super super super,23-5-2020,
720,Niall_Da_Memer,niall_da_memer,,not bad cracks for an iPhone lol,7-6-2020,
721,Isaac Weber,isaacweber3,,That’s not a iPhone 11 lol that a I phone 4 or 4s,23-5-2020,
722,Floppy Fish,floppyfish8,,Dude I actually did break mine so I can’t relate,23-5-2020,
723,Character Cards,flame_nobody,,This is why we need toilet paper,23-5-2020,
724,Thehan,thehan_21,,I got it taken away during class !!!!!!!!!,23-5-2020,
725,Thehan,thehan_21,,That is my phone !!!!!!!!!,23-5-2020,
726,.,wyl_____,,#fyp,20-5-2020,
727,TK,scrubzero88,,"Not brave enough to test this on a brand new $1,000 iPhone? LOL!",23-5-2020,
728,Thehan,thehan_21,,OMG !!!,23-5-2020,
729,Thehan,thehan_21,,That’s actully mine !!!,23-5-2020,
730,Kyle Dring,theboywiththelight,,Toilet paper saves lives and iPhones.,14-6-2020,
731,Liam Cruz,liams_a_king,,WTF...,24-5-2020,
732,Fruitysquad1234,fruitysquad25,,That is not an iPhone 11,14-6-2020,
733,ᴋᴀʏɴᴇ ツ,k4yn3,,My face went🤔 to 😳 to 😫 to 🤭,7-6-2020,
734,XxFireDragonxX,kendricknebab,,That’s impossible how can an Iphone4 be saved from toilet paper 🤭😧,31-5-2020,
735,Jacob 100,y0tub3,,Don’t try this at home,24-5-2020,
736,phil reilly,philreilly0,,That most certainly is not an 11 it’s a 4,7-6-2020,
737,Wyatt Moeckel,yy4567890,,Stop the cap that shit a iPhone 1,24-5-2020,
738,RJ_Threlfall,rj_threlfall,,That’s not a iPhone 11 it’s an iPhone 4,14-6-2020,
739,Cillswitch4567321,my_horrible_life5674,,Toilet paper really does fix everything,24-5-2020,
740,amy:),amygao_,,bruh,24-5-2020,
741,Its Alex,itsalex72,,IPhone 11 man that's a iPhone se 5,7-6-2020,
742,Tristen,cannab1s5copes,,bruh. the iPhone 4 would have survived that fall without the toilet paper. lmfao. I've thrown mine at a tree going 60mph. shit still didn't break,24-5-2020,
743,kakashi,antonio_castaneda,,an Android can survive that fal without toilet paper,24-5-2020,
744,🥀Anisha.........singh🥀,anisha.....singh0,,😲😲😲,14-6-2020,
745,Pepa,ik._.mokeys,,Poor toilet paper,14-6-2020,
746,SARATH ♥️,sarathrs123,,പള്ള് ആണ് എന്ന് തോന്നിയ മലയാളി ഇവിടെ like 🥰,31-5-2020,
747,maysamabedi270,maysam123_,,I could have that toilet paper 😂,7-6-2020,
748,Sghaier Fathia,israa745,,wtf😯😯😯😯,18-7-2020,
749,Amanda <3,amandavieraaa,,OMG!!!! Pls tell me the toilet paper is ok!,24-5-2020,
750,Logan Nistler,logan_nistler5,,Toilet paper does save lives😮,20-5-2020,
751,@Queen_52,queen_anjum__52,,fake,31-5-2020,
752,leaf.village.kakashi,leaf.village.kakashi,,I found my new phone case,24-5-2020,
753,monetarily,quandale.bingulus.the.3,,you should of recorded the fall,24-5-2020,
754,Liam-Baxter,lizzlum914,,What about the toilet paper,20-5-2020,
755,Spark,sparkdakirin,,"Fake. You can still tell it's an iPhone, so it must be an imitation. A real iPhone disintegrates after being dropped more than 10 feet",24-5-2020,
756,GoldenWolf_Gacha,mcyt.....gachalife,,WHAT!!,14-6-2020,
757,Eva,evarowley,,I didn’t know that they made iPhone 11’s with only 1 camera 😱😱😱😱😱😱😱😱🤯,14-6-2020,
758,yeah,pootykatooty,,Is the toilet paper okay?!,20-5-2020,
759,Roman renies _az,roman74589282,,ggjjbbb 👌,23-5-2020,
760,ash,heyyyyitsashhhh,,no wonder everyone wants toilet paper,23-5-2020,
761,adxm jr.,adxm2smoove,,Cap,23-5-2020,
762,Luke Adams,lukeadams223,,My phone fell skydiving with no case. Found it without even a scratch on it,23-5-2020,
763,Milania <3,coconuts_cream13,,most of us probably saw a crack,20-5-2020,
764,ur mom,bigbrainlego,,Omg 😱 the toilet paper,23-5-2020,
765,Angela Conrad,livieloo3104,,are you sure that your phone is okay,23-5-2020,
766,Pat Antonucci,pattheeaglesfan.backup,,That’s not an iPhone 11,20-5-2020,
767,💕Malia🦋,malia_10_xoxo,,Wow,14-6-2020,
768,patient 24602,userk33rxgzux0,,That’s my phone how’d you get it lmao,23-5-2020,
769,Snooki,emmarobertsbiggestfan,,Me watching this on my iPhone 3GS 👁👄👁,23-5-2020,
770,😮‍💨,dan_sett,,At least it’s on flight mode,14-6-2020,
771,Josh,joshiemoloshie,,I had to take an anti-anxiety bc of this,23-5-2020,
772,Michael Feare,thatgingerguy25,,would have been cooler if you held on to the end of the tp,23-5-2020,
773,Shihab,furryfemboyuwu69,,Toilet paper=military grade protection.,23-5-2020,
774,,,,Stop the 🧢,23-5-2020,
775,,,,I think that is why everyone needs toilet paper,23-5-2020,
776,,,,Bro why are you wasting toilet paper like that,23-5-2020,
777,,,,╮╭╭╲▔▔▔▔╱╮╮╭ ╯╱╱▕▂╱╲▂▏╲╲╰ ┈┈╱▕▇▕▏▇▏ر┈┈ ┈┈╲╱▔▍▕▔╲╱┈┈ ╮╲╲▏╋╋╋╋▕╱╱╭ ╯╰╰┈╱▂▂╲┈╯╯╰,31-5-2020,
778,,,,ya see toilet paper whipes everything out including cracks on phones and it could wipe the corona virus to😂😂,31-5-2020,
779,,,,we need that I'm getting low from all the hoggers[scream][scream],21-5-2020,
780,,,,just a iphone4s😂,1-6-2020,
781,,,,No wonder where my toilet paper is,15-6-2020,
782,,,,OKAY SO TODAY WE WILL NEED A PHONE AND SOME TOILET-,15-6-2020,
783,,,,why the gloves bro,14-6-2020,
784,,,,That’s not an I phone 11 more like a 4,21-5-2020,
785,,,,That is not 11,21-5-2020,
786,,,,That’s not an iPhone 11,1-6-2020,
787,,,,I don’t know why but the gave me anxiety,21-5-2020,
788,,,,This physically hurt to watch,21-5-2020,
789,,,,nice ✨⛄,7-6-2020,
790,,,,bhai mujhe dede agr tere paas h to,1-6-2020,
791,,,,That ain't a iPhone lol,14-6-2020,
792,,,,asli hai😛😛😃😃,1-6-2020,
793,sumit Halder,sumit12123,,nonsense,19-5-2020,
794,Akshay Tiwari,akshaytiwari472,,bro its iphhone 4s,19-5-2020,
795,slinkything,procreates_3,,@uhhh_no_name,1-6-2020,
796,bucketᓚᘏᗢ,bucketiscool,,OH NO IS THE AIR FINE,14-6-2020,
797,awa awa,mr.nuggs67,,iphone is trash,21-5-2020,
798,Tyler Bukamier,tylerbukamier,,Faze rug be takin notes rn,21-5-2020,
799,cdobson0505,random_tiktoker26,,Tysm i will change my phone case to toilet paper,21-5-2020,
800,liambro99,ldoyon,,yas toilet paper always saves a phone,1-6-2020,
801,Edits,grimreaperdrawings101,,That is now my knew phone case,14-6-2020,
802,kittykitkat33011,kittykitkat33011,,OMG CAN U GIVE ME THE TOILET PAPER PLZZ,14-6-2020,
803,Heaven Matti,heavenmatti,,Oh Thank God! I Thought Your Gonna Break Your Phone,19-5-2020,
804,✨,spacebarred,,That’s an iPhone 4,14-6-2020,
805,Gabrielle 💅,hoosier_daddy5123,,it's ok it was in creative mode,1-6-2020,
806,Mimis 4 lifer 😈😈,j.h519,,poor toilet paper,21-5-2020,
807,ChrisD'souza85,mr_krishu_058,,bro I have the same phonr,19-5-2020,
808,Darcie Clark,darcie_ella_clark,,That is an iPhone 4,15-6-2020,
809,hi,multixcharlii1fanpage,,is the toilet paper ok that's really valuble,21-5-2020,
810,ana,anaraible,,That’s not an IPhone 11,1-6-2020,
811,Sanskruti Ambavane,sanskruti_2286,,This is iphone 8,19-5-2020,
812,rickychavezh09,mimitheglitch,,I-,1-6-2020,
813,Trinity,trinity21501,,Is this why ppl are hoarding toilet paper,21-5-2020,
814,user1191384210470,tritonito7,,It’s never 100 m,13-7-2020,
815,norah spam,shortstack_.18,,day one of getting famous from the comments 👀💕,21-5-2020,
816,shoaibshaik7,mr.shoaib1.rocky,,drop it with out any support,15-6-2020,
817,Oh why hello,elijahrebel,,fake,7-6-2020,
818,Hey Stalker 🥰,uppernavik,,dAs IsT kEiN iPhOnE 11,13-7-2020,
819,👑Q.u.e.e.n👑,y.a.s.h.i.3,,"omg !!!😍😍I phone 11 ,is it real or nottttt🧐🧐🧐🧐",19-5-2020,
820,racism,only_racist,,oh shit my phone dont worry my toilet paper around it for no reason will help,21-5-2020,
821,Dragonclaw,dragon_0303,,So that’s why we are out of toilet paper ppl use it to protect there phones,21-5-2020,
822,stax linx,rexo71,,Oh my God is the floor fine,1-6-2020,
823,follow me and I follow back,dqrkhumors,,That no iPhone 11,21-5-2020,
824,Alfrich Aranaido,alfricharanaido,,https://vt.tiktok.com/SESVAE/@Sea.Zone,1-6-2020,
825,Hi,k254937,,you threw it on grass of course it's not gonna crack 🙄🙄🙄,21-5-2020,
826,emaitland0121,console_wars_police120,,is that why people were buying toilet paper,21-5-2020,
827,chari's pee drinker,jarvisbdsmking,,record it then post it,15-6-2020,
828,Amanda❤️‍🔥,amandajchap,,I GASPED when you threw the phone,21-5-2020,
829,Grant Owen,grantowen8,,It’s bc your using a iPhone 4 those things are bulletproof,21-5-2020,
830,Elisha Lee,elee0003,,OMG is the toilet paper fine? What about the phone,21-5-2020,
831,951 Honeys 🍯🐻,.....hxney_gacha,,Rich people these days 🤡,21-5-2020,
832,Chrissie,chrissieinabox,,you u should have used a nokia and yeeted it without toilet paper 😂,15-6-2020,
833,Caleb B,caleb_bringhurst_,,And then I try it...😢😔,21-5-2020,
834,xMASTAHTEEx,mastahteegaming,,Thats A Iphone 4 Claiming A Iphone 11 Get Outta Here,21-5-2020,
835,mia🪐🤎,mia_jaca,,OMG WHAT BOUT THE TOILET PAPER THOU?!?!,22-5-2020,
836,𝑀 𝐴 𝑍 𝐸 𝑁 𝑇 𝐴 𝐻 𝐴,mazen_745,,That is not a iphone 11 get your eyes checked,20-5-2020,
837,liv,o1iviabeach,,otterbox been real quiet since this came out..,1-6-2020,
838,Syrus Virus,zeldris795,,HOW TF DID THE TOILET PAPER SURVIVE,22-5-2020,
839,💛Jay💛,itzyagirljay_11,,it's fine,20-5-2020,
840,NikolaKYS,__nikos__083,,@scxvert,16-7-2020,
841,Cam Proposch,allmyfriendsaretoxic2932,,It’s not,7-6-2020,
842,Maggie,mmcel5,,At first when the price of grass was on it I thought it was broken so I got disappointed lo,20-5-2020,
843,userseclinton_98,___smelly_yoke_ye_are,,,7-6-2020,
844,your_localidiot,yourlocalidi0t3,,THE TOILET PAPER!!,22-5-2020,
845,Halie <33,haliemagoonn,,hype house plz follow us🌺✨,22-5-2020,
846,Ly bin back,ninanici2010,,Nei nicht das wece papie ferachwenden,22-5-2020,
847,ᶠYͧoͨᵏu ♡,luvpa1n,,Toilet paper died tho :c,22-5-2020,
848,Boiiiiii,1273buildarocketship,,That’s not an iPhone 11,14-6-2020,
849,ѕυηηу тυтєʝα,aviralaviral3,,𝓼𝓾𝓹𝓮𝓻 𝓷𝓲𝓬𝓮😊,22-5-2020,
850,.,___deletedlolol,,"no one:
the real reason this person is making this video: jus really wants an iPhone 11",7-6-2020,
851,Izzy,._.heyitszee,,"my anxiety:
📈
📈
📈",22-5-2020,
852,Dead acc :(,ibrunxette,,Wut…,1-6-2020,
853,SyCh Russell 206,sychrussell2066,,Y w ah it’s a 5,7-6-2020,
854,idek bro,bussythesecond,,@keemora_brown,7-6-2020,
855,Avi spam,avi3553,,bro you daily throw these mobile 😂 send me a ur location 😄🙄,14-6-2020,
856,greentea,green.tea_7,,why am i on the straight side of tik tok 😔,7-6-2020,
857,ILLUSION,themccucumber,,Do it again but record it from the phone that is being dropped,23-5-2020,
858,Stephon Coney,officialshooter__,,It’s an epidemic right now we need all the toilet paper 🧻 we can get is it okay 😰 hey are you alright buddy,23-5-2020,
859,𝓡𝓲𝓵𝓮𝔂❤️,.riley.faith,,That’s not an pone 11 it a for,1-6-2020,
860,A Random Kitten,random_kitten12,,How did ur phone survive,7-6-2020,
861,Naush💕,akeli_forever,,Is this iPhone wtf 🤣,20-5-2020,
862,lee 💀,jofcx.15,,Why would you do that! Toilet paper cost so much 😡,14-6-2020,
863,❤︎sunflower❤︎,xx.sunflower.vxbes,,hii,1-6-2020,
864,SubwaySurfer,subwaysurferquotesxo,,yeah its defi itely an iPhone 11,14-6-2020,
865,sanket 🙏 Goyal,sanket.7.0,,🤣🤣🤣🤣🤣🤣,21-5-2020,
866,a,iimangell_,,Looking at the ground scared me😭😭😂,1-6-2020,
867,Hargundeep Singh,hargunsingh_15,,"The real question is, is the toilet paper is fine?",14-6-2020,
868,Layla,laylasuxxx0,,that isn't an Iphone 11 boi,14-6-2020,
869,suryansh 7200,suryansh7200,,dude it's an SE (older one) not 11,7-6-2020,
870,S0meb0dy,not_a_tiktok_username,,you should have been recording on the iPhone you dropped,20-5-2020,
871,Tik Toker,pisslicker,,toilet papper saves lives,1-6-2020,
872,Peyton Barrow,peytonbarrow1,,that's an iPhone 4,7-6-2020,
873,At 400 face reveal pls follow,jordan_brtbrbeveve,,That is not an iPhone 11 I know because I have one,21-5-2020,
874,Brayden Cate,brayden.cate,,The iPhone 4 was pretty durable,21-5-2020,
875,Kitt Fisto,kittfisto1138,,Next time throw it on concrete without the roll of toilet paper on it.,20-5-2020,
876,Jack,jacklydackly,,"So this is why everyone was racing to get the toilet paper, its the ultimate phone case",21-5-2020,
877,Cat in the bag,catbag2020,,Bruh. Even my iPhone 8 looks like it does better than that. LIAR!!!,20-5-2020,
878,Anime,jibanyan.fr.officiel,,nan le pauvre petit papier toilette 😢 😂 (humour),14-6-2020,
879,JAY🤪🤪,l4qxeditz,,That is not an iPhone 112😕😂😂😂,14-6-2020,
880,Valerie pilloc,valerie_daniela72013,,@vanessaroque54,22-5-2020,
881,Sofia✨,sofialbaladejo,,bruh noo I wanted the iphonee,30-5-2020,
882,Strongfire97,strongfire_97,,Hey i need that TP,20-5-2020,
883,bf |your local bf | idk,bf._.offical,,Bruh how,29-5-2020,
884,Priyanka.,ohpriyanka,,my heart was in my mouth damn.,9-6-2020,
885,Crystal_gurl,ur_gurl.grace,,That’s an iPod bro not and iPhone 11,20-5-2020,
886,Mike Mitchell,rat.king89,,Definitely not 100m,20-5-2020,
887,user7258161306816,cmoncster,,And I drop mine TWO INCHES and the resulting explosion wrinkles the space time continuum and causes a tsunami in Japan...,20-5-2020,
888,THAKUR YUVRAJ SINGH,vijaysingh27968,,phone hai ki loha😎😉😉😎😙😎,9-6-2020,
889,Arjun,whitedevil456,,"y r u wasting phones please give me 1 phone ,I trust you ,and I love you",9-6-2020,
890,teddy2200,teddy2200772,,WHAT 🤯,29-5-2020,
891,Ren and Stimpy princess👸🏽,renandstimpyprincess,,No I didn't 👧🏽👀📱,29-5-2020,
892,Saifali khan,saifalikhan11111,,icon,9-6-2020,
893,den,deh.nnis,,Toilet Paper is going to be the next bullet proof vest now.,29-5-2020,
894,Hello (♥´∀｀)／,shredded_cheese.com,,Omg is the earth ok 😥😥😥😥😭😭😭,29-5-2020,
895,Trustd Critics,trustdcritics,,Not this is a toilet brand we can trust,29-5-2020,
896,sethlandau32,sethlandau,,We all knew someone stole that toilet paper but left the phone,30-5-2020,
897,Niki👅🌸,nepaliniki30,,My heart went 📈📉,9-6-2020,
898,Baadshah,user271078317,,beautiful,9-6-2020,
899,⠀ ⠀ ⠀ ⠀ ⠀,ifftyfive,,IS THE TOILET PAPER OK??CPR CPR!!,29-5-2020,
900,squash stans <3,bunyatoeshaters222,,IS THE GRASS OKAY?!,29-5-2020,
901,Mondira Sardar,mondirasardar00,,agar me kartina to mobile tutavi nehi milta...😖. sirf kagaj milta 😏,9-6-2020,
902,Aaron🇺🇸🎣🦌,302._aaron_,,I think people would probably be more mad that you through the toilet paper than the phone,20-5-2020,
903,❤️Thakur❤️,manirana0031,,do with iphone 11 pro,9-6-2020,
904,𝒜.❦💋,liya.h24,,"U can’t fool anyone, it’s pretty obvious that this isn’t a iPhone 11😒😒",7-6-2020,
905,Boop,boops_drawings,,@mymomtoldmeto_ohno this is why there’s not toilet paper.,7-6-2020,
906,♥︎𝐴𝑒𝑠𝑡ℎ𝑒𝑡𝑖𝑐♥︎,twilight_forever01,,That’s not an IPhone 11 bro that like an IPhone -3 lmao 😂,29-5-2020,
907,Alex,alex__wood,,@carina_91,20-5-2020,
908,Quandabious spontavious the3rd,poplolzzz,,Oh sh-,7-6-2020,
909,moon,conansmoon,,OH NO THE TOILET PAPER YOU JUST DROPPED IT LIKE THAT?,20-5-2020,
910,khushipatkar,happy_ki_khushi_patkar,,Bhai Mai aaj bhi Nokia 3200 Chala ri plz mujhe de do na,9-6-2020,
911,liv,__urfavbrunette___,,op,30-5-2020,
912,Prayanshu_Sharma,praveen_saidavat,,gudd,9-6-2020,
913,Miki Rani Puja,mikiranipuja,,meto bass cmt padhne aihu,9-6-2020,
914,Tik Toker,rockybhaiiiiiiiiii,,Nakkan Iphone andre gothalla,9-6-2020,
915,Tik Toker,i_like_holy_memes,,Ok now do it with a iPhone 11,20-5-2020,
916,Lol,jc_munoz0,,Yo don’t mine the phone right now is the toilet paper ok,29-5-2020,
917,🍪🤡Hank🤡🍪,hankthewierdo,,-me wishing I had insurance-,20-5-2020,
918,Monsoon,macaronipotato,,🥫,29-5-2020,
919,Yung Jebus,yungjebus,,No!!!,29-5-2020,
920,champagnepapi,mayafartt,,Wow definitly an iPhone 11 🤩,7-6-2020,
921,Odd Things,oddthingsarebad,,I need toilet paper,30-5-2020,
922,Jaeden,marshmellowx99,,Omg it’ did not work I tried it but my phone crack,30-5-2020,
923,IM POOT,..unknownjayy,,My face: 🙂 > .-_.- > 🙂,29-5-2020,
924,Mostly Memes,memesandpotatoes,,WHY WOULD YOU THROW TOILET PAPER!? THAT STUFFS EXPENSIVE,7-6-2020,
925,Cornboy,isaac_kuschinsky,,your I phone 11 😂😂😂,29-5-2020,
926,DankMemesBro,urryhater,,u still using that toilet paper,20-5-2020,
927,❤️Shinchan_lover❤️,mishu_7502,,Fallen phone was not iPhone 11 😡,9-6-2020,
928,luna 💜,obvi.luna,,OMG THANKYOU YOU FOUND MY BEW PHONE,30-5-2020,
929,Christopher,christophercute0,,NOOO WE NEED TOILET PEPPER FOR THE CARONAVIUS!,8-6-2020,
930,Don’t scroll down too far😬😬,chelsea.swanson,,that's not an 11 dude......,8-6-2020,
931,Habeba~~~¥£€????????,igotnicevids,,Btw your lucky you landed it on grass,20-5-2020,
932,SIR YACHT,siryacht34,,ThAt will be my next phone case ....!,20-5-2020,
933,josie.reichert,fadheart17,,You sure that’s a iPhone 11?,30-5-2020,
934,Susmit Acharya,susmit_acharya,,wow awesome dude,8-6-2020,
935,Vakkashshaikh1992,vakkashshaikh1992,,iPhone 11 pro x 😅😂😂🤣🤣,8-6-2020,
936,erina,eu.rina0,,Fake 😀,30-5-2020,
937,"Im a weirdo, :/",hewoitbeme_hehe,,TOILET PAPER NOOOOOOOOO,20-5-2020,
938,Deep,deep1822010,,iPhone 11 nahi hai,8-6-2020,
939,Trey,treydonovan77711,,Its not good if it only has 1 camera. Thats not the 11,30-5-2020,
940,Mason,mason_jones3,,You just wasted perfectly good toilet paper,30-5-2020,
941,Gone,614kady,,@itszalexa toilet paper is the ruler,8-6-2020,
942,❤AlishaMayekar ❤,alisha.mayekar057,,Its iPhone 4 ! it's not iphone 11,8-6-2020,
943,🔥I💅AM🧋✨C.R.I.N.G.E.Y✨,jackayyxd,,TOILET PAPER IS IT FINE I NAMED THE TOILET PAPER BOB IS BOB OK!?!?!?!?!?!?!?!?!?,30-5-2020,
944,?,lifeeee_._,,We do need toilet paper,30-5-2020,
945,?,lifeeee_._,,😳,30-5-2020,
946,Carson Schroeder,_poppinwheelies_,,@timeshift55,30-5-2020,
947,Neel Patel,neelpatel491,,"if you throw nokia 3310 alone, u got the same result",8-6-2020,
948,Mikasa,artistic.user,,"toilet paper:""I got chu""
phone:"" ""
toilet paper: ""ight I don't gotchu""",30-5-2020,
949,Caleb M,calebm722,,Had did you post this,20-5-2020,
950,Perry The Platapus,platapusdectective,,plot twist: it's a different phone on the ground,30-5-2020,
951,rylan,fnafrp_69420,,nice iPhone 11,30-5-2020,
952,Dre,dizzy_dre2,,What’s fake about this video?,20-5-2020,
953,jxcxx,yxngjxthefirst,,time to make my toilet paper as my protector 🤷🏻‍♂️,30-5-2020,
954,Cool shots,trickshots_and_stuff,,@noahp270：That isn’t. An iPhone 11 or a 5 It’s a 4 or below due to the square build of the phone,7-6-2020,
955,losgamingtwins,losgamingtwins20,,YAAAAAAY YHE TOLIT PAPER IS FINE!,29-5-2020,
956,bts army,btsmamber7,,哦吗个,8-6-2020,
957,Mori,jojosusedpad,,:could anyone go on my Tik Tok watch my art videos if you did you wouldn't be disappointed thank you,30-5-2020,
958,Ryan S,ryanislonely,,Why does this give me anxiety when it falls,20-5-2020,
959,Pal katariya 💖,realentertainmentgaming,,Abe iphone 11 bhi nhi hai,8-6-2020,
960,Dev,jaandilruba,,😱,8-6-2020,
961,Ritwik Singh,wwesher,,this is not iphone 11...that's the iPhone 4,8-6-2020,
962,~,zeltia_lh,,El pobre papel[weep]😭😂🤣,29-5-2020,
963,Khalil Sheppard,thelifeofthesheppard,,Ik,20-5-2020,
964,U.T.K.A.R.S.H,utkarshdhepe00,,aray bhau o iphone hai,29-5-2020,
965,amelia,imissleibae,,@ava_henderson3 AHAHAHAHAHHA IT DIDNT BREAK,8-6-2020,
966,Khloee 💗 Mae 🌸,khloee_mae,,I KnOw U AtE My ChiNesE foOd,20-5-2020,
967,Ryan m,ryanmisbored,,🧢,29-5-2020,
968,𝑆𝑟𝑒𝑠ℎ𝑡𝑎🦋,._.aesthetic._.cafe,,That isn't an iPhone 11 it's an iPhone 5,8-6-2020,
969,Navghan Mori,navghanmori7051,,@,8-6-2020,
970,🌚,elcrine,,Ah yes the iPhone -11,20-5-2020,
971,twone._,twone._,,forgot the phone give me the toliet paprr,20-5-2020,
972,🇵🇭Shan^M🇸🇦,shanmaglipac24,,https://vt.tiktok.com/A9qj5o/,8-6-2020,
973,Little_affan_18,little_affan_18,,demo hai,8-6-2020,
974,Colby King,colbyk19,,Toilet paper 4life 😂,8-6-2020,
975,gabryelcoutu0,kikooty,,Uh why ur using gloves?,8-6-2020,
976,user4611012855031,rafaelsapa,,"É muito triste ver que num momento como esse e com as dificuldades que o mundo está passando, tem gente que ainda perde tempo lendo meu comentário.",14-6-2020,
977,Blamzi,blamzi,,"@blamzi：❌
🅳🅾🅽’🆃
🆆🅰🆃🅲🅷
🅼🆈
🅻🅰🆂🆃
🆅🅸🅳🅴🅾
❌",20-5-2020,
978,That one weirdo right there,haha...12,,Nooo I care more about the toilet paper😭😭,20-5-2020,
979,John,john_1409,,Toh kya job chordu,31-5-2020,
980,Miakhalifaxxx,miakhalifaaaaa112233,,It is duplicate ifone off 200 rs 😂😂😂,14-6-2020,
981,me love peappa,swit_angels14,,NUUUUUUUUUUUUUUUUUUUUUUUUUUUUUUUUUUU MY BABY,14-6-2020,
982,ADARSH566,adarsh09669577,,fgkik,14-6-2020,
983,☢️Govi govi 1234☣️,goviind1234,,mere pas bhe he,31-5-2020,
984,Jayko!,jqiko,,imagine not recording 😱😳,14-6-2020,
985,I’m so sorry,user47907543703,,And my heart went 😵💀📈,14-6-2020,
986,☢️Govi govi 1234☣️,goviind1234,,I phone 4 ha bhai,31-5-2020,
987,✌︎︎ 𝗔𝗿𝘄𝗮 ✌︎︎,arwa.rxx,,CEO of liking every comment but mine 🤧🤧,14-6-2020,
988,cutiepie srishti 😍?,srishtikumari627,,you are from usa,26-5-2020,
989,Ian Bates,poppabates,,That’s an iPhone 4 the last great iPhone durable and not money grabbing.,25-5-2020,
990,Haisam Zaid,haisamzaid,,"मेरे पास realme है
मै नहीं फेकुंगा😜",13-6-2020,
991,Daniya ☺️,nusayba41,,😱😱😱😱,26-5-2020,
992,ਗਰਾਰੀ,invincible_grari,,Its 4 or 4s,26-5-2020,
993,Tik_Tok_Life_com,tik_tok_life_com,,lgta hai aap ke pass bhot jada iPhone hai ek mujhe de de please,26-5-2020,
994,Alannah,alannahr007,,My stomach churned during this just because it thought U we’re gonna fall,7-6-2020,
995,Bassir,bassir.167,,@lost784 abooooo,26-5-2020,
996,Liam Knight,liamocean,,He means iPhone 4. Sorry for the mistake,26-5-2020,
997,Arfin,startpracticing,,kon kon apna iphone k sath ye try krne wala hai 🤣,13-6-2020,
998,❤️❤️,73xhxxrss,,That’s not a iPhone 11,27-5-2020,
999,Pragya Soni,pragyasoni_13,,I guess that's the best cover u could get but it's essential rn but for future it do be helpful,31-5-2020,
1000,Alexia,alexia121417,,roblox song 😲😱😭🥺😰😨,27-5-2020,
1001,Kaleb 😪,the.average.shorty,,Uuuuuhh I think it’s a carrot 🥕,31-5-2020,
1002,maksym22,maksym20086,,It was grass 😂,7-6-2020,
1003,Itz Charlz,raaaaaaagi,,Imagine if it landed on the top of the phone,14-6-2020,
1004,Mariana,mariiiiana59,,Anxiety level: 📈,31-5-2020,
