,Comment Number (ID),Nickname,User @,Comment Text,Time,Likes
1,.,roughanfeatherstone,,when you are hitting the samsung harder,13-5-2020,
2,KameronM,spoopeebirb3177,,thats not an iPhone 11,13-5-2020,
3,kondziiuت,kondzii.u,,Samsung is better iPhone is shi#,13-5-2020,
4,:),ebaydelivery3.mp4,,you hiting samsung harder,13-5-2020,
5,I.love.roblox:),.r.o.b.l.o.x_c.u.t.i.e,,That's not the iPhone 11 🤮🤮 and that's not a galaxy s20 🔥🔥,15-5-2020,
6,joel771,joel771,,SAMSUNG GAG❤😎🤣 iphone🤢🤢🤮,13-5-2020,
7,ali,nolimit2018,,vielleicht beim iPhone bissen stärker hauen dann wollen wir sehen welches Display kaputt ist weil was du beim iPhones machst das nennt man kitzeln 😉,13-5-2020,
8,Spideyy,0spideyy._.edits0,,samsung is better you just hit the samsung phone harder with the hammer i saw that i have a good eyes,13-5-2020,
9,annaluigi2208,annaluigi2208,,iPhone 11 is better as Samsung 🤣,13-5-2020,
10,ANONYMOUS,wuerdige,,Isch halt nöd mol e iphone 11,18-5-2020,
11,Talia,dollarbean1950,,That is not an iphone11 🤦🏻‍♀️,13-5-2020,
12,Pimenta🦅🎮🙉,_kjp_kaliks_pt,,iphone5 vs Samsung 💩,13-5-2020,
13,:D,kdkslsktkfla,,😂 every samsung clown in the comments ”YoUr HiTtInG tHe SaMsUnG hArDeR” lmaooo,13-5-2020,
14,ILoveLama25,ilovelama25,,iPhone Handys(Bildschirm) gehen doch von selbst fast kaputt🥴,13-5-2020,
15,🌩,_shotta,,And that’s not a galaxy s20 learn your phones,13-5-2020,
16,1st account,fin_wills2001,,The thing is it’s like an iPhone 4,13-5-2020,
17,hi,j.ivanov.7,,iPhone 🤮🤮🤮🤮🤮 Samsung 😇😇😇,14-5-2020,
18,Ami,ami_iii_,,Wie sich alle für das Samsung rechtfertigen müssen😂😂,13-5-2020,
19,PrinceDaviiiid,princedaviiiid,,When you realize that its not an iPhone 11 or a samsung S20.,14-5-2020,
20,✌🏾🎤Beatboxer🎤✌🏾apprendista,gameminecraftpro,,What Your plroblem 🤬🤬🤬,21-5-2020,
21,Marl,nleyav,,iPhone 11 haben keine homebutton 😂,25-12-2020,
22,Andreii,_.andrei841._,,la iphone a dat incet si la samsung a dat tare,13-5-2020,
23,#naysko👌🏾🧤,_naysko,,D une c pas un iphone 11 c un iphone 4 et c pas un Samsung s20 c un Samsung Galaxy s7 edge,17-6-2020,
24,Pyzawka,kebabnagrubym_polecam,,Hmm... Podejrzane mój Samsung wiele razy mi spadał z dużych wysokości i nic a iphone z kilku cm i giaga dziura to mi wygląda na podróbę bo ją cieżko,13-5-2020,
25,^_^,..__._35,,아이폰 유저인데 삼성이 확실히 강함 ㅇㅇ,13-5-2020,
26,Kotoučová pila,kotoucovapilanadrevo,,Ten pocit když je to maketa 😂🤡🤡,13-5-2020,
27,sslut,kashxx__,,Non me lo ricordavo così l'iphone 11,13-5-2020,
28,Hitoshi,anime._.drawings4,,il tape plus fort sur le samsung,13-5-2020,
29,Tik Toker,momo__514,,Mdr ta frappée le Samsung tellement plus fort on voit le papier tu la troué la ou il y'a le Samsung en bas et l'autre bord rien,13-5-2020,
30,₍ᐢ..ᐢ₎♡̷,dahye0638,,저 정도면 고의 아니냐 ㅋㅋㅋ 아이폰이 더 잘 깨지는 걸로 알고 있는데,13-5-2020,
31,KiloEchoVictorIndiaNovember,kevinvgnl54,,c'est même pas un s20 mdrr,13-5-2020,
32,joe_bg_75,joe_bg_75,,Iphone ist viel besser als Samsung,27-11-2020,
33,16시즌 에이스 인데 꼽냐?,mad_leke08,,이거 아이폰은 새게 치지도 안아서 휴지 안찌져졌는데 삼성은 쎄게쳐서 휴지 찠어지고 기분탓이지만 1대 더친거 같음,13-5-2020,
34,민빠답,minpadap09,,아이폰 유저인데 아이폰은 살짝 떨어트려도 필름이고 뭐고 액정까지 다박살남 쇼파에서 떨어트려도 부셔질 정도임 진짜 삼성이10배정도는 강함,13-7-2020,
35,amigos😂🍒y bailes Elsa,elsa_amigos_paredes,,alguien se enteró de q no era el iPhone 11,13-5-2020,
36,쭈예,gongtaifhan,,아니 아이폰에 강화필름붙였잖아ㅋㅋ삼성은암껏도안붙이고,14-5-2020,
37,Loor Fernando,elferchol,,"Le diste mas duro al Samsung, hasta hueco le hiciste a la servilleta al momento de golpear al Samsung, en el iphone no hiciste lo mismo",13-5-2020,
38,user670710,jose_piedra,,es un iPhone 6 vs un Galaxy s7 egde,13-5-2020,
39,.,exoiove,,아 ⍤⃝𓂭폰은 개쌔게치고 삼성폰은 휴𓊄𓂭 찢어𓊄𓂭게 치는데 삼성 싸구려라고 나만 비하글같음??아 ⍤⃝𓂭폰 유저인데 뭔가 약간 ⍤⃝𓂭상하잖아,13-5-2020,
40,은석,e_2o_o4_s,,무슨 저게 아이폰11이고 갤럭시s20 이냐 ㅋㅋㅋㅋㅋㅋㅋㅋㅋㅋㅋ사기 치네,14-5-2020,
41,Bun Thanyarat,bun_mini,,ซัมซุงทุบแรงกว่า และเอียงลง กระดาษยังขาด🤣,24-5-2020,
42,Dame,am_f_03,,i5s กับ A7 2017 มั้ยนั่น,13-5-2020,
43,1TipSy,komi.7k,,ดูตรงไหนเป็นIphone 11 และ S20,13-5-2020,
44,💝🤞🏻,waratthaya_8t,,กูเคยใช่2รุ่นนี้แล้ว;-;;;; มันไม่ใช่i11กับs20,13-5-2020,
45,@,expulsion55,,え、iPhone頑丈なん？,13-5-2020,
46,Papryk0s1,papryk0s1,,on bardziej walił w Samsunga bo aż chusteczki ma dziure,13-5-2020,
47,ぱらまぁ～,55555aaaaa0,,iPhoneとAndroidって日本と韓国見たい,14-5-2020,
48,SAFADIN,fbi._.fbi,,eu posso testar esse martelo na cabeça dele?,13-5-2020,
49,Gurka,mogligagurkan,,för det första så slår du knappt på iPhonen och för det andra om man tittar noga på iPhonen nere i hörnet så ser man skyddsglaset,13-5-2020,
50,meow,meow.13579,,다들 왜그래 쟤가 성능 떨어지는거 돈 존나주고 쓴다는데 우리 풀발하지 말자,14-5-2020,
51,💫shinra💫,shinnraaa,,iPhone 11 e Samsung GalaxyS20 da wish kkkkkk,13-5-2020,
52,k,user59970619252808,,뭐든 아이폰보단 삼성이 더 좋아..,13-5-2020,
53,-𝔄𝔪𝔞𝔫𝔡𝔞 🥀🕯,am4nda.ask,,"Comment il tape sur l'iphone:😇
Comment il tape sur le Samsung :😈",17-6-2020,
54,kev_k91,kimikoooa,,il est où le s20 et le 11 mdr,13-5-2020,
55,starwars HarryPotter,thehypehouse__queens,,csak a Samsung ot Utotte,13-5-2020,
56,,gksykdhlxgnzgnzgnstn,,아이폰 강화필름끼고 삼성은 일반도 안붙이노 ㅋㅋㅋㅋㅋ,14-5-2020,
57,avabaahjajajsjsjsj,aannakskdk,,ma le martellate all'iphone non erano forti invece col Samsung si era pure bucato io fazzoletto,13-5-2020,
58,마야,rdhvcfhb,,"아..둘다 다써봤고
갤20 실폰 아이폰x사진찍는용으로쓰는사람입장에서는
삼성:일부러떨어트리면 안깨짐 실수로 떨어트리면 거의깨짐
애플:실수든일부로든 깨짐 아니면 기스나 상처가남",14-5-2020,
59,Who am i ?,d_samet,,C’est ni un S20 ni un iPhone 11,14-5-2020,
60,tototo,hakkyhaku,,iphoneの方明らかにフイルム貼ってあるじゃんwww,14-5-2020,
61,VHL,sahniminanej,,"1, to není Samsung GalaxyS20 2. ten iPhone 11 není 11ctka a je to maketa a za 3. Samsung jsi mlátil více.",13-5-2020,
62,h,h.sdgh,,bon déjà il frappe plus fort sur le Samsung même le papier se déchire et en plus il est trop ancien ce Samsung,14-6-2020,
63,김규혁,guhug97,,아이폰배터리 빨리따는건 존나팩트 유튭하나봤는데 20에서 4퍼센트됨 5분짜리였음 겨울되면 갑자기 지혼자 꺼지고 한번떨어트리면깨지고 그래도 이뻐서쓰는거지 기능으로 쓰는건아님,13-5-2020,
64,พูดได้มั้ยคะ,im_jeabum,,ไม่รู้แต่กูทีม samsung 5555,13-5-2020,
65,엉덩이흔드록바,ungdungihendrogba,,s20아니잖슴,13-5-2020,
66,(🇬🇷)-Greece-Georgia-(🇬🇪),_kuriakidis_0_1_,,Πο τι ψεύτικο βίντεο,13-5-2020,
67,mpina_kou,ff_mrs,,μορη παπάρια αλλη δεν εχουνε να φανε και και εσυ σπας εστι το κινητό γάμο τον καρκίνο στον εγκέφαλο σου,13-5-2020,
68,任弋,ren_thorne,,一个是平着砸，一个用尖锐砸。呵呵,13-5-2020,
69,.,nhaas9,,To nawet nie iPhone 11,13-5-2020,
70,_panagiotis_rs,_panagiotis_rs,,επίσης δεν ειναι iPhone 11,14-5-2020,
71,szilagyiago,szilagyiago,,Az csak egy iPhone 6,13-5-2020,
72,🛹🔥,_.its_me.______,,si si... iphone 11...,13-5-2020,
73,Luiz Carvalho,luiz.carvalho054,,Aquilo no eh nem iphone 11 nem s20 kkk,13-5-2020,
74,Davedijk,davedijkstra16,,11 heeft geen homeknop down,13-5-2020,
75,𝑫𝒆𝒍𝒑𝒉𝒊𝒏𝒆 🌵,delphineroucher,,Mais oui bien sûr,29-5-2020,
76,JN 🐣,jina_kup,,@Deenvlog บัง5555555555555 ดูให้จบด้วยบัง😂,28-6-2020,
77,_sofiane_abbid_,_sofiane_abbid_,,mdr c'est l'inverse normalement,25-6-2020,
78,Lucie,luciee.rx_,,@vasyessaye on a pas la même version de l’iPhone 11 je crois,25-6-2020,
79,ゴッホ,vihada_ni_naritai,,"別に何買おうがいいじゃんかwww
携帯買う時に「お、これがいい」っていって買ってるんやろ?嫌だったんなら買い治せよw金ないんか",23-5-2020,
80,아룡,sjsvjjwg,,아이폰 필름 배끼자,14-5-2020,
81,닣닌,ning_1120_0,,저거 s20 아닌데요,14-5-2020,
82,Éliás Gergő,elias_gergo,,"nem is iphone 11 hanem iphone 6 vagy nemtudom
samsugn galaxy s20 mikor az egy s7",13-5-2020,
83,Bobby,301.bobbyarchive,,I have an iPhone and the s20 is the best phone out rn,14-5-2020,
84,Luvcides clan,luvcidesclan,,when u have non of the phones so u have to use old phones,13-5-2020,
85,Hallod_geci,kerszegycigitkerdojel,,Teso az iphone 11? 🤣🤣🤣🤣🤣🤣,13-5-2020,
86,user,user860426436,,quien mas se dio cuanta de que al samusng le da mas fuerte?,9-7-2020,
87,예찬,y_y0917,,저거 삼성갤럭시S20 아니잔아~,6-8-2020,
88,Emily Moses,moses_2132,,That’s a 50 dollar Samsung I had one before😂,14-5-2020,
89,ketchup,ketchupmoutard,,"iphone 11 mais bien sûr, on est sur du 7/8 ou SE là",13-5-2020,
90,⚜️ 𝔸𝕃𝔹𝔸ℕ𝕀𝔸 🇦🇱🤘,unnamed.69,,Iphone the best,13-5-2020,
91,サネテルの毛,dig1.3m.s,,韓国人が何言うてるか分からんけどいっぱいおるの〜,13-5-2020,
92,Ryan Chaney,ryan_chaney,,They ain’t no iPhone 11 and Samsung s20,14-5-2020,
93,Hii🤍,cocoblitzz...aesthetic,,First that is not an I phone 11,13-5-2020,
94,on est là,gepard.06,,il a mit un vitre protectrice de RinhoShield c normal,24-6-2020,
95,てんぱ,t._.n._.p,,"iPhone11でもなく、GalaxyS20でもない。
仮に本物で試したとするならば、互角だと思う。ただし落下させた場合はGalaxyが勝つと思います。",14-5-2020,
96,enzo.peritore1,giga_nzo345,,Les Samsung en sueur dans les coms,13-5-2020,
97,체타811_,cheta811_,,아이폰 잘 깨진다 하시는 분들은 도대체 어떤식으로 떨구시길래 그렇게 잘 뽀각나실까요 궁금해서 여쭤봐요..ㅎ,14-5-2020,
98,아,user86drpz4iz7,,"아이폰 삼성 다 써본 사람인데
삼성이 더 좋습니다.
아이폰은 6,7,8,11써봤고
삼성은 s9 s10 노트10 노트10+ 써봤습니다
아이폰은 배터리 노답에 렉도 좀 걸리는데 삼성은 그런게 없네요..",14-5-2020,
99,Biblee.,feliafrd,,plis itu bukan iphone 11 plis,13-5-2020,
100,Fah_Fah,fah_200720,,เจอซัมซุงฮีโร่สิ ขอกระแทกพื้นน่ะ,31-5-2020,
101,공,love_lollin,,아이폰유전데 뒤로가기없고 글씨 틀리면 다지워야하고 게임많이 못깔고 개잘깨짐...,14-5-2020,
102,⏳,girl_with_luv_01_bts,,you hit Samsung harder 😑,13-5-2020,
103,Quandal℮ Dingl℮,0____._._,,"First of all, that's not even an iPhone 11 or a galaxy S20.
secondly, you hit the Samsung phone harder.",8-6-2020,
104,L.Janewret,janewret,,Nästa gång så gör d när du har fått pengar o köpt en iPhone 11,13-5-2020,
105,Trường Nguyễn90,truongnguyen.9000,,bên thì đập rách giấy bên thì k [happy],13-5-2020,
106,Killa.Murtadha,killa.murtada,,Imgine comparing old samsungs to new iPhones 🤡🤡🤡,21-10-2020,
107,Shubham Bahirat,shubhambahirat6,,that's not iPhone and the other one is also not s20,13-5-2020,
108,Caleb_brotherton,i._.dont_.get_.the_.joke,,why do you say IPhone 11 and Samsung s20 even though its not in almost every one of your videos,13-5-2020,
109,Just fo_or fun,justfo_orfun,,People here don't even know what iPhone 11 and S20 looks like. 😂😂😂,13-5-2020,
110,Jia,_dirac_0,,Iphone11沒有home健,24-5-2020,
111,user2542838121109,siyeon325,,미국에서는 삼성을 안좋게 보네,13-5-2020,
112,make,ansrjf,,응 삼성 쓸거야,23-5-2020,
113,Nick Tingue,nicktingue05,,He obviously hit it not hard,13-5-2020,
114,Hello❤️,blacksausage123,,Det där va inte en iPhone 11,13-5-2020,
115,그건아니지,thatsnotthecase4,,내가 알기로는 삼성 옛날폰은 벽돌폰으로 알고있었는데..,13-5-2020,
116,Nguyễn Thu Uyên,thuuyen8998,,Ip dán cường lực rồi thì đập như vậy k vỡ thôi. Thử xé cường lực xem. Nát ngay@,13-5-2020,
117,通りすがりの日本人,MS4wLjABAAAA0RF60PEjMk_-XRQ-ozV5TXGi4eImkeiUZpuzC9vQnLzblvGsP4Zk-b8aSnY0w-ci,,おっサムスン燃えなくなったんやな。,23-5-2020,
118,Bucinnya nak erpe:),xaveiraaxelynverlytana,,jelas yang samsung retak orang sampe tisunya robek,13-5-2020,
119,Florinel Dumitrache,florinelduban,,iPhone 5s și samsung Galaxy s7 😂😂,13-5-2020,
120,.,davi.azeveddo,,Eu tenho iPhone mais eu tenho certeza q o iPhone quebraria igual ao Samsung,13-5-2020,
121,Currently Drafted To Ukraine,sugarcubeguy25,,That's Not Even An iPhone 11,14-5-2020,
122,구름☁️햇살☀️,closun112,,구멍 낫잖아요 삼성에만 더 세게 때리지마삼,14-5-2020,
123,red panda,rirefous,,un iphone 6s est un Samsung j5,17-6-2020,
124,tik tok=worst anime community,seththegoatgrammer,,samsung is better,13-5-2020,
125,ʚ♡⃛ɞ ˘͈ᵕ˘͈ ʚ♡⃛ɞ,xiao_slut,,Il fallait peut être mettre la vitre de protection au samsung 🤦‍♀️,24-6-2020,
126,😼IGNA_AAA😼,elos_menelos,,zauważcie jak gościu tłucze ten telefon od iPhona A jak od Samsunga z jaką mocą,13-5-2020,
127,Paulo Erick ( ✓),pauloerick2,,"bateu mais forte no s7, da até pra ver que fez furos no papel quando foi bater no galaxy",13-5-2020,
128,Bah Salut,bahsalut1,,C'est normal aussi l'iPhone il a un écran protecteur de rhinoshield 😂,17-6-2020,
129,(っ◔◡◔)っ,crazy_giuseppe,,IphoneX siete ciechi 🤓🔝💕💪✨🤩,13-5-2020,
130,|-_-|,kristian07_,,iPhone ——>,13-5-2020,
131,Madison's new account,maddie_cena2.0,,iPhones SHATTER when they are dropped from an inch off the ground. my Android has never broke before,14-5-2020,
132,TheSimon,thesimon87,,"Przecież to jesy galaxy S6, a nie S20...",13-5-2020,
133,Plavi Orkestar,plavi.orkestar,,that iphone has a screen protecter,13-5-2020,
134,Khairul Kamisan,pubgxml___100,,you hit samsung harder and thats not iphone 11,18-7-2020,
135,ゆた,odangotabetai2525,,俺のGalaxy　S20ホームボタンあったっけ？,14-5-2020,
136,.,givlv03,,The iPhone's weak and the Samsung's hard. I can only think of it as disparaging Samsung.,14-5-2020,
137,우끼,a918384749,,나만 삼성 침대 위에 던졌는데 바로 박살나서 아이폰으로 갈아탔음..?내 폰이 내구성이 좋은건가..아스팔트에 떨궈도 안깨지는 기특한 내새끼,13-5-2020,
138,에벱,msr060708____,,ㅇㄴ ㅋㅋㅋㅋ 아이폰은 강화필름있는데 삼성폰은 보호필름조차 없잖아 ㅋㅋㅋ,18-5-2020,
139,Ethan Roland,ethanroland34,,"If you watching this on a android, no the iPhone did not breaks that’s just your low resolution screen making everything look broken",15-5-2020,
140,Gi,gioluzgurgel,,é mentira isso na vdd é ao contrário,5-12-2020,
141,╰ⒽⓃ╮┇อาหมวย☂,petcharaporn2008,,กูที่ใช้samsungละร่วงกี่ทีก็ไม่เเตก.,30-6-2020,
142,松,nnbdrr,,Prends le dernier Samsung on verra si il vas casser,24-6-2020,
143,🫠,prettyboi.jason,,iPhone WhAT 11 SAmSUnG s 20,14-5-2020,
144,Aka Luke,bukopuko,,When it's a display phone 😑,14-5-2020,
145,제동락,skek5,,망치를 위에다㉮ 했는데 왜 아래㉮ 깨짐,14-5-2020,
146,,gksykdhlxgnzgnzgnstn,,강화필름은 빼자 ㅋㅋㅋㅌ,14-5-2020,
147,۞•ʀᴀᴅɪᴏ ꜱᴛᴀᴛɪᴏɴ•۞,radioactive.playz,,"I phones are good quality, though Samsungs have less of a chance of breaking-",13-5-2020,
148,Art hype house!!,artists.hypehouse,,That wasn’t a iPhone 11,13-5-2020,
149,🦎父私 神🦎,committing.tax.fraud,,plus I've dropped an iphone on carpet and the front and back broke,13-5-2020,
150,AhDryHein,ahdryhein,,C'est pas un S20 😂😂,13-5-2020,
151,SxdowZz btw,sxdowzz_btw,,there not the right phones?,13-5-2020,
152,Chxmillyz,glowhyx,,tanta gente querendo comer um Samsung e vc estragando Man 😔,28-11-2020,
153,專嘴走遍抖音的,hung20070404,,s20不長那樣欸,15-7-2020,
154,Camille,cam_dqr,,tout pour faire gagner les iphones.ca devient loudr,24-6-2020,
155,Cool dude,_mis.t,,bruh that Samsungs from 2006,14-5-2020,
156,Xiao Ling,gasper770,,you hitting samsung harder,13-5-2020,
157,Dino pink,editor.0fica1l,,lo tipu samsum ko mukulnya kerass,15-10-2020,
158,what?,cptroomy,,thats not the galaxy s20 lmao,25-9-2020,
159,*insert funny name*,creamypurrr,,that ain't even an iPhone 11 nor S20,24-9-2020,
160,.,hrntgk3,,that wasn't an iphone 11 😂😂😂,4-9-2020,
161,Flowerlovegirl7,flowerlovegirl7,,THOSE ARE NOT IPHONE 11 AND SAMSUNG S20,13-6-2020,
162,Mrkrabs🧛🏽‍♀️😈‼️,iheartkaliuchi,,Why is everyone fighting over a phone I mean I have an Samsung but like...,15-5-2020,
163,Sara,sara_oliver28,,You were hitting the Samsung harder that’s why it cracked,13-5-2020,
164,.,a0so0,,I’m on an iPhone XR,14-5-2020,
165,brayan,brayan_set,,iphone 11 mdr c un 6 😂😂😂,21-6-2020,
166,KUHL,kuhl2049,,オンボロイド勢必死で草。,24-5-2020,
167,채은,root__49,,님들 아이폰 안쓰신 분들이 아이폰 질깨진가 뭐라뭐라 합니다 근데 실제로 이이폰 써보시면 진짜 안깨집니다 제가ㅜ떨어트려 봤거든요ㅎㅎ,14-5-2020,
168,浙江医学大学附属精神科医院主任,gunj6,,贬低别人来提高自己吗[smile],20-6-2020,
169,柯基（19）,kj_1101,,有種寄給我我幫你敲 就回去絕對兩個都爆,23-5-2020,
170,🔺️ Elmo 🔻,elmo_76,,"Thats not even a fricken Iphone 11, its like a 7",13-5-2020,
171,user2384095169976,jaym_69.96,,the person who think that's a galaxy s20 🤡🤡🤡🤡,14-5-2020,
172,Family,domtoretto3462,,It ain’t no iPhone 11,13-5-2020,
173,bob for life,dr.pocket,,νομίζω στο iphone δεν ήθελε και πολύ να βαδίσει ενός το άλλο του ερηξε κάτι καλες,3-7-2020,
174,",",sendsuit1,,I'm an IOS user but I just noticed your hitting harder on samsung😒,13-5-2020,
175,누가이거없냐,userohmclbmlep,,저기요 아이폰 안흔들리는데 삼성꺼는 흔들릴 정도로 세게 때렸나 보내요^^,13-5-2020,
176,✩,starsboy0,,Mais ça va pas la tête ?,13-5-2020,
177,cheeky_grinch😏,the_cheeked_up_grinch,,that not even a galaxy s20,4-9-2020,
178,시비걸지마,lqve_0810,,삼성휴지에는 빵꾸날정도로 쳣네~?,14-5-2020,
179,ʚ♡⃛ɞ,neonpinkv,,นี่ตกครั้งเดียวแตกทั้งอัน ไอโฟน555,8-6-2020,
180,正常人,kahunglo,,兩部都是老手機好嗎,23-5-2020,
181,ok cool,ok....cooll,,chepa si c moi mais regarde bien l'iphone tu va voir ta une protection sur l'écran,17-6-2020,
182,🖤𝒀𝒂𝒔𝒎𝒊𝒏🚶🏻‍♀️,.yxsminz,,That aint even an iphone 11,15-5-2020,
183,존잘미남,hommefatale0505,,"망치 때릴때 아이폰은 균일한 강도
삼성은 빗겨치기로 살짝 밀면서 조지는데?",14-5-2020,
184,Tanner cernoch,tan3r3,,iPhone way better,13-5-2020,
185,Feur....😔,jjjkkjjkk5,,Elle est obligée de mettre un papier 🤔🤔,13-5-2020,
186,Zója Nagy,zoja.nagy,,"Nem azt irta, hogy ezek olyan telefonok.. Csak megkerdezte, melyik jobb!🤦",13-5-2020,
187,dishwasher/microwave,quandaledinglesmaster69,,samsung is better,29-10-2020,
188,เเม่มูมิน ♡,f.o.u.r.r.y,,เราใช้samsung ร่วงหลายรอบไม่เเตกไม่ วันนั้นเเม่เราใช้ไอโฟนตกครั้งเดียวเเตกเลยจ้า,27-6-2020,
189,Zlatte,nyggenagge,,you put protection glass on the iphone lmao,14-5-2020,
190,puppe,puppeb,,u hit samsung harder and its not even the newer phones,13-5-2020,
191,🙅🏻‍♂️🙅🏻‍♂️,tjehdgus,,구라도 작작쳐야지 ^^ 아이폰 6s 썼던 사람으로서 한번 실수로 떨어트렸는데 아스팔트에서 떨어뜨리고 완전 개박살 났고 삼성은 뛰다가 떨어 트렸는데 존나 쎄게 근데 기스 조금 밖에 안남 이래도 아이폰이 강하냐?,22-5-2020,
192,Pinie🍍,pinie...roblox,,alla såg att du inte slog på den ena😒,13-5-2020,
193,Zlatte,nyggenagge,,thats not iphone 11 and the other one isn't s20,14-5-2020,
194,...,zisi6927,,힘의 차이가 느껴지심니까?? 이게바로 세게쳐야 깨지는 킹성폰임다(-아이폰 유저 올림-),13-5-2020,
195,류설,eeenayeong,,아이폰은 살살 치고 삼성은 아주 빠르게 강하게 모서리로 치는거 봐라 ㅋㅋㅋㅋ,14-5-2020,
196,•𝓙𝓾𝓙𝓾🍂•,juliettee.tbt,,vous taper plus fort sur le Samsung,26-6-2020,
197,⚜️SYED FAREED⚜️,syedfareed28,,"even the screens of iphone are made by the Samsung ,did u khow that",15-5-2020,
198,Riman,riman.chowdhury,,Would u have this: 😂 or this: [laughwithtears],15-5-2020,
199,Borz ik,borzik07,,"are u good its old samsung and u hit it stronger
+all iphone screens made by samsung😂😂check it",13-5-2020,
200,Jose Luis Bonatti,joseluisbonatti0,,yo tengo un Xiaomi note 8 y aguanta más que eso. busquen en YouTube rompiendo Xiaomi note 8,14-5-2020,
201,Isla,isla_island2,,iPhoneすぐ割れる,24-5-2020,
202,Claudel_andre,claudel_andre,,"todos hablando de que es otro iPhone y Samsung y yo me pregunto, Quien martilla así al revés?? xD",13-5-2020,
203,Blas(Taylor's Version)🕸💐🐍🐝,blastaylorsversion,,"Le diste más duro al Samsung, todos sabemos que los iPhones son cristales por delante y por detrás 😅",22-9-2020,
204,ASDFUFU95,asdfufu95,,When you are hitting the Samsung harder,13-5-2020,
205,anas,zzvvu,,👨🏿‍✈️👨🏿‍✈️👨🏿‍✈️👨🏿‍✈️⚰️📱👨🏿‍✈️👨🏿‍✈️👨🏿‍✈️👨🏿‍✈️,13-5-2020,
206,אריאלי קרלינסקי,mihawkoro,,"thats iphone 4, and thats not samusng galaxy s20, i have samung galaxy s20, and it doesnt look like that, and other plus, you did hit the samsung",15-5-2020,
207,Uh…,ranposillegalcandies,,Ale to nie jest 11 ophone lol jak juz 6-8 lmao,13-5-2020,
208,にら,ni_ra3,,こんな頑丈なはずなのに落としてすぐ割っちゃうのはなぜ？？？？？？？？？？？？,14-5-2020,
209,Fight,ceccioceccia,,Non è s20,13-5-2020,
210,🌅,lucien_boyer,,ptdr c un putain d'iphone 4 😂,20-6-2020,
211,•《JuLeS》•,jules31660,,"elle ta plus fort sur le Samsung
juste prcq elle a un iPhone",29-11-2020,
212,Hynek mraz,hynek_mraz,,proč tam dáváš ten papír,3-7-2020,
213,NAT2005,banthita_021148,,@ice sutasinee✨🌟 ตกทีเดียวแตก555,11-6-2020,
214,Joey Zadlo,joeyzadlo,,when you hit the samsung at an angle so it does more damage,14-5-2020,
215,.,dpfflwpfmfdnlgkdu,,핸드폰 한 개 빼고 다 삼성 뛀거서 깨쳐서 말하는데 한 개는 밖어 돌로된 거리에서 날카롭게 표쪽하게 튀어 나온 곳에 밖아서 깨져서 폰 바꿈 근데 그땐 방탄 무명 시절 이였을 때였고 또 한 개는 모래에 쌔게 실수로 뛀궜는데 저 폰에 2배는 낮게 깨지고 2017년에 나온,14-5-2020,
216,龍宇,1357733667sdf,,那隻根本不是i11,23-5-2020,
217,사람,before__.__,,와 갤럭시20이 홈버튼이 있구나!,7-8-2020,
218,P.Thip💙,070164kanyarat,,@Deenvlog ความเป็นไปได้ครับ,24-5-2020,
219,난 귀요미,merongbaboya562829,,"애플 존나 좋아하는 앱등인데 삼성까는거 보거나 들으면 화남,,",16-5-2020,
220,nojus.koegst,nojus.koegst,,Samsung och iPhone 6,13-5-2020,
221,💖~CSFC~💖,biz_kocaman_bir_aileyiz,,Au côté de l'iphone le mouchoir n'a pas de trou mais au côté du Samsung ye des trou dans le mouchoir donc il ou elle a taper moins fort sur l'iphon🤨,13-5-2020,
222,ㅋㅋㅋ,dkxk193.0,,"저 폰이 어딜봐서 s20인지도 모르겠고.아이폰에 필름은 왜 있는 상태로 실험을 진행했는지도 이해안돼고
삼성 칠때 휴지에 빵구는 왜 났는데",17-7-2020,
223,ซซ,lleejjenno,,ทนกว่าสิ่งใดใดคือทิชชู่,29-6-2020,
224,⚽️ꜰᴜᴛʙᴏʟ_ᴍᴇxɪᴄᴀɴᴏ🇲🇽,samyh3005,,when u notice it's not an iPhone 11 or a Samsung 20,15-5-2020,
225,bada c,csc7532,,인정할건 인정하자 폰은 가성비 갑 삼성이란걸....,14-5-2020,
226,Arianna,hahaarii,,that’s like a 6 lmao,14-5-2020,
227,Tavros Nitram,callmetav,,That’s a iPhone 6s and a galaxy j2 pr,15-5-2020,
228,✋🏻😩🤚🏻,ilubw33d,,when he barely hits the I phone,15-5-2020,
229,.,kangyurim.08,,삼성 우리나라꺼라고 무시하는거임 더 세게 내리친거 같은데 삼성을 빵꾸났잖어,13-5-2020,
230,implode,implodezero2,,Those aren't the correct phones,13-5-2020,
231,뚱땅뚱땅ū,ddungddang3,,저게 어딜봐서 아이폰 11 이랑 삼성S20 임???,24-5-2020,
232,Samuel ova15,samuelova15,,"como no, es un iphone viejisimo, mejor hubieras puesti al nokia",12-7-2020,
233,ツ🌹FA꙰Z꙰E꙰D꙰A꙰G꙰O꙰N꙰︻╦̵̵͇̿̿̿̿╤,fazedagon,,Not a iPhone 11 😌 not even s20 galaxy 😌,6-8-2020,
234,🍜اللعنة على أمك🍜,petit_caprisun_x,,Ptdr c'est l'inverse 😭,27-6-2020,
235,Dip_nimavat_,dip_nimavat_,,aathuuuu,15-5-2020,
236,Trenton,trentonkx250,,That’s not even an 11,15-5-2020,
237,김소율,soyull2008,,아이폰 저정도 하면 박살나는게 정상인데,14-5-2020,
238,Yanis78Lr,yanis78lr,,pourquoi tu déverse toute ta haine sur le samsung il va rien demandée ?,24-6-2020,
239,RANDOM TIKTOKER,random_person_u_found,,you hit the Samsung harder 😒 and that is not the Samsung s20 (samsung lives matter)😄 and that is not the iPhone 11 😬,9-9-2020,
240,Shuffle-gameryoutube,aaron_kerckhoven15,,Jah nu zien we duidelijk dat iphone beter is schatje@kyara_aaron__ 🥰🥰🥰,13-5-2020,
241,Chettouf,naelderman,,wouh ta pas de force ? pour taper pas fort sur l'iphone ?,17-6-2020,
242,Queen lanny,queennlanny,,That’s not a phone 11 doooooe,13-5-2020,
243,kibik,sus...sugoma,,"Samsung make iphone's screen, but okay",13-5-2020,
244,Joshua Moreno,joshuataz06,,Samsung people mad mad💀,14-5-2020,
245,._LYL'._.Dusty✓,nersule._.fbrc,,cest Samsung qui fabrique les ecran iphon😂,7-9-2020,
246,!?,juiccylol,,that's not the right phones,14-5-2020,
247,우앙,swith0729,,솔직히 에반데..? 아이폰 1번 엄청 낮은높이에서 떨어뜨렸는데 모서리 부분 박살..,14-5-2020,
248,Shermantank1105,shermantank1105,,There was a Samsung galaxy and a iPhone 7. I did not see ANY Iphone 11,13-5-2020,
249,JC,yolojc,,Nah Nokia is still the best haha 😂😂,13-5-2020,
250,ddvid4,ddvid4,,creo que el iPhone 11 encogió y el Samsung S20😂😂,13-5-2020,
251,Tik Toker,nathan.lcq.05,,elle a pas tapé fort sur l'iphone,13-5-2020,
252,Gabriela,gabrielaa_34,,Da in pic mai tare si se sparge,13-5-2020,
253,l_elmas12,l_elmas12,,Ούτε iPhone 11 ούτε s20,3-7-2020,
254,jean rivera,jeanpablorivera,,thats not an iphone 11 or a galaxy s20,13-5-2020,
255,CLIPS,sniprrrr,,Lol its an iPhone 5,14-5-2020,
256,Le bad bitche de Toulouse 😈,le.bg.de.toulouse,,Mais normal t mi une coque a l'iphone mdr c se voix tros 🤣🤣🤣🤣🤣🤣🤣🤣,13-5-2020,
257,계옮했는데 그냥 부계로 쓸려고,076_1108,,삼성 액정필름 어디감,13-5-2020,
258,parker.southers,parker.southers,,those aren't even the right phones,14-5-2020,
259,!,sodabowl,,ok but like when r u gonna hit ur phone with a hammer ahha,14-5-2020,
260,Rose sanetha,small_accounts101,,That is not an iPhone 11 it has a home button,14-5-2020,
261,ANDREW.,andrew_is_cool_yeet,,that's not an iPhone 11 and that's not a Samsungs20 learn you r facts before posting 🤔🤨😒🙄,14-5-2020,
262,mipiaceiltrash_,mipiaceiltrash_,,questo video è credibile quanto lo è ilyas maluma con il tumore all'occhio,31-5-2020,
263,な,MS4wLjABAAAAlFqH-And7rvNLfqRGvmZm646gYv9x679JLEO6SZcc9q8-JSk2_isiGGa8ZT4k5Uy,,11ちゃうし20ちゃうし…,15-5-2020,
264,🫥,enfpindamoorba,,아이폰 쓰는 사람인데 옛날에 계단에서 실수로 아이폰 떨어뜨렸을 때 액정만 가고 나머진 괜찮았는데,14-5-2020,
265,✨,1...july,,Ok but thats not an iphone 11 and thats not an S20,9-10-2020,
266,a,shush_shsh,,Bruh it not even iPhone 11,13-5-2020,
267,AldariHD 10,aldarihd_10,,Not iphone 11 n probably not samsung s20 (idk i switched to iphone),13-5-2020,
268,follow @memeifying,memeifying2,,That isnt the s20,14-5-2020,
269,JB🇩🇿,j_brh2,,Ptdrrr iPhone 11 😂😂😭😭😭,17-6-2020,
270,Nick!,somerandomdude.0,,Neither of those were the correct phones that you put in the caption?,14-5-2020,
271,Dennis,dennisjohansenn,,People who really thinks its an iPhone 11 🤡🤡🤡,14-5-2020,
272,ⵣ🇩🇿,_.aalliicciiaa,,un iphone 11 mon oeil ! 👁👀👁👀👁👀👁,13-5-2020,
273,RunnyBunny,meegusstaw,,To dobry ip11 z home ✌️,13-5-2020,
274,あざまる,_azamaru_,,どっちも古い機種や笑 iPhoneは5sっぽいしGalaxyもS7edgeっぽい,23-5-2020,
275,George Harris,swagmaster133,,I see a 60 dollar android any android is more durable just watxh drop tests🤡🤡🤡🤡,15-5-2020,
276,Họ Bùi,boy_dat_phu,,"UNFAIR!!! 1.Iphone used Toughened glass
2. you hiting samsung harder
=> Compare lame and meaningless",13-5-2020,
277,Ak,antonio_hd8,,you has not hit iphone,3-10-2020,
278,Ree,wendywoo_97,,That’s not an iPhone 11 bro,14-5-2020,
279,Hi,pokemon0905223,,iPhone,13-5-2020,
280,o,dxeadclowns,,ITS NOT AN INPHONE 11!!!!!!!,13-5-2020,
281,3.1k❤️,edits_by.turkxx,,iphone has a protector look good,13-5-2020,
282,utku,utkuts,,thats not iphone 11 and not s20 s20 is better than iphone 11,13-5-2020,
283,Anthony 09,anthony._.209,,hai fatto più piano per l' Iphone e hai fatto più forte per il Samsung,24-5-2020,
284,Ethan Arbic,ethanarbic,,when you know Samsung is better than apple,13-5-2020,
285,Newton,math_is_cool_,,it cant be samsung s20 i maybe can be s7 or j7 + you hut samsung harder,13-5-2020,
286,Uzumaki Naruto,7th____hokage,,It's an iphone 5 or 5s ffs people don't even know a thing. They just say that their phone is the Best.,13-5-2020,
287,Andrea,andrrea_20,,iPhone c’est mieux,13-5-2020,
288,lucja>>,.chaeryeonq,,Ładny ten iphone 11,13-5-2020,
289,FC Barcelona ❤💙❤💙,michaelfcb14,,not a samsung galaxys20 and not an iphone11... is this a joke?,15-5-2020,
290,🅂🄰🅅_.🄻🄾🄴🄴,savannahxoceann,,u are hitting Samsung harder and u just doing it for iPhone cuz u think they are better,13-5-2020,
291,AN,angogetta,,since when does a iphone 11 have the aux port 🤣,14-5-2020,
292,Suhaib B ✅,suhaib270,,LoS QuE DiCeN QuE No Es Un PhOne 11 Y uN SaMsUnG S20,13-5-2020,
293,🌩,_shotta,,iPhone 11? That’s the old se,13-5-2020,
294,Hello there!,luka_offical97,,iPhone 11 🤡🤡,13-5-2020,
295,THAT SASUKE IS THICK AF,gotrickrolledson,,to nie jego dźwięk on udawał że udeża IP,13-5-2020,
296,CLDME,cldmeee,,Mais c est même pas un iPhone 11,13-5-2020,
297,꿀꿀 돼지,userv7kkd2qvnl,,s20이라고? 디질라?,15-5-2020,
298,SanjiTheSimp,sanjithesimp01,,Esa calculadora prehispánica no puede ser un iphone11,14-5-2020,
299,kylian__dm,kylian__dm,,on a pas la même vision du s20,13-5-2020,
300,Blas(Taylor's Version)🕸💐🐍🐝,blastaylorsversion,,Soy yo o el iPhone tiene protector,22-9-2020,
301,Nxrves,fatindianboi,,Not a Samsung s20 and not an iPhone 22 🤦‍♂️,21-9-2020,
302,Taher OFFLINE,just_taher,,Iphone 6s en samsung note 4😂,29-8-2020,
303,이번주,pinna._.ple,,아이폰이 원래 소프트웨어가 예쁘고 좋은데 하드웨어가 약함 반대로 삼성은 소프트웨어는 쬬씀 떨어지는 대신 하그웨어는 강함,7-8-2020,
304,XXXtentacion,user6kbpbsufvh,,ㅈㄹ하네 ㅂㅅ이,7-8-2020,
305,내 댓에 핱과 댓달아주면 팔,mingu01,,아니 우리는 거의 삼성때문에 이 나라 사는거야 조금 과장포함하면 삼성 망하면 우린 나라 망해 넌 한마디로 한 나라를 망치는거야,7-8-2020,
306,𝙋𝙏𝙃𝘾𝙃,pth_channel,,ทิชชู่หาซื้อได้ที่ไหนราคาเท่าไหร่ครับ,4-6-2020,
307,🫣,060303yoeung,,갤럭시 s20이라는 사람은 아래에 버튼 있는거 안보이나? 삼성이 폰 홈버튼 없앤지가 언젠데,15-5-2020,
308,snap @nashty71,nashty_r6,,the fact that you picked a 10yo Samsung lmfao,15-5-2020,
309,Roblox videos,adopt_me_vxbes,,𝗗𝗮𝘆 𝗼𝗻𝗲 𝗼𝗳 𝘁𝗿𝘆𝗶𝗻𝗴 𝘁𝗼 𝗴𝗿𝗼𝘄 𝗺𝘆 𝗮𝗰𝗰𝗼𝘂𝗻𝘁 𝗳𝗿𝗼𝗺 𝘁𝗵𝗲 𝗰𝗼𝗺𝗺𝗲𝗻𝘁𝘀 🥺✨🥰,15-5-2020,
310,🏳️‍🌈,artgeek11,,love that they hit the samesung harder,15-5-2020,
311,Brayden Travis Sherry,braydensherry,,iphone 11?🤣🤣🤣🤣,15-5-2020,
312,ᴀᴠᴀɴɪ♡,coloredvoni,,dat is a fricking iPhone 4 bruh😒,14-5-2020,
313,America,ts4_photography,,Look at the Samsung kids getting heated lol,14-5-2020,
314,우해해,user16356677,,ㅇㅅㅇ 저거 아이폰 11이랑 삼성 S20 아닌데욬ㅋㅋㅋㅋㅋ,27-6-2020,
315,Har,chige1,,どうやってもiPhoneはGALAXYS20に勝てないよ,6-9-2020,
316,SandwichWaffle521,sandwichwaffle521,,It’s in reverse,15-5-2020,
317,If I got you mad I won 😆,ya_edge_boi_brainy013,,All the poors are mad 😂,14-5-2020,
318,Alex bainbridge,alexbain22,,That's not a Samsung s20,14-5-2020,
319,Kyhran Ball,15367374848j,,that's not an s20,14-5-2020,
320,WiDzIsZ MnIe???!,mi_siu10,,Czemu ona w Samsunga tycze mocniej a ten Samsung kosztuje 400-500zł a ip 1600zł mogła dać ruwna ceny i nie walić tak mocno w Samsunga 😂,29-11-2020,
321,채은,mango_1004,,아이폰 쓰는데 진짜 삼성이 더 강함 내친구가 교실 바닥에 살짝 떨어뜨렸는데 바로 깨짐,8-8-2020,
322,ㅡ,user798872415,,Iphone 6 vs samsung s7,7-8-2020,
323,_soy_adriuwur,adriana_uwu.x,,Eso es trampa oe diste mas duro al Samsung 🙄🙄🙄,24-12-2020,
324,🧠🔨,antonio._.ovidiu,,Hai că iPhone 11 și S20,27-9-2020,
325,Jerry Rivera,not.jerryrivera,,"do u even know how the s20 looks?
and u hit the Samsung more
do u even know how to make a test?😬😬",1-10-2020,
326,spamm...,lind_spamm,,that wasn't an samsung S20 or iPhone 11 dude i have samsung S20,2-1-2021,
327,<3,umbridge_h8.club,,WOW,19-8-2020,
328,💍Alice & Thomas💍,_alice.thomas_,,C'est pas l'iphone 11 mdrr,3-1-2021,
329,thepatate78,je__suis__une__patate,,mdr ya pas de bouton rond sur le 11,28-6-2020,
330,김석진어깨에서등산하고있다.불만있냐?,userk7b9ql2xas,,미쳤냐 이건 아니지,15-5-2020,
331,Savannah rose miller,savannah.rose.miller,,umm first of all that is not a iphone 11 second you hit the samsung harder third thats not a samsung 20 samsung 20 are way bigger,22-3-2021,
332,Esp공명주파수의비밀,edguy929,,삼성을 칠때는 미세한진동이 더강하게느껴졌다,3-2-2021,
333,the meme kid,mrmemebeans,,du använder en samsung s7 edge inte en s20,29-12-2020,
334,사람,jjinjjap,,와 아이폰은 약하게해서 안깨지고 삼성은 쎄게해서 깨짐 ㅇㅈ?,7-8-2020,
335,엥,kmjqqq123,,전 아이폰이 이뻐서 좋은디..,7-8-2020,
336,Mathis/Claverol,mathisclaverol,,iPhone 11 avec un bouton ?!😭😭,18-6-2020,
337,Aristrovich,aristrovich,,depuis quand le Samsung s 20 a un bouton à la face avant 🤦🏾‍♂️,14-5-2020,
338,ESFP 고구마사우르스 고뿡,sweet_potato_dinosaur,,삼성은 왜 쎄게 치냐?ㅋㅋ,13-5-2020,
339,LCN,cali_lcn,,Lol c'est pas du tout je un samsung I galaxy s20 coque sa c'est un Samsung 7😂 un truc comme sa,10-10-2021,
340,윤지,pretty._.yj,,@yun_ser.0603 6s 쓰면서 2번이나 깨지고 고침 스벌 ㅠㅠ,16-5-2020,
341,widzisz mnie 👁️👄👁️?,___x.butera.x___,,szkoda papieru,23-10-2020,
342,Luca Righi,luca_righi_6,,Beh iPhone 11 e s20 li vedete solo voi,19-11-2020,
343,💋,__.aggeliikii.__,,fakeee,8-1-2021,
344,zoltedildo,zoltedildo,,To jest jakiś Samsung s6 a nie s21,25-6-2021,
345,Alex rojo,kingtugboat3177,,cap,19-5-2021,
346,05.08.09,g14rn1._.goinuppp,,that's not any of the phones not iPhone 12 or Samsung s20😂,7-2-2021,
347,Stef,stefxc,,THATS A GALAXY S5 AND AN IPHONE 7😂🤦,24-1-2021,
348,Hello!😂👻,watmoetikhierzetten2,,11 heeft geen Homeknop a walfis😅😅,19-12-2020,
349,Овенек,ow3n_khamitov,,қотақ жемеш,7-12-2020,
350,Vcent,therealbuttamann610,,just hit it harder,5-12-2020,
351,!,jurw__q,,나만 아이폰8에다 필름 안붙이고 하드케이스 끼는데 아무리 떨어뜨려도 안깨짐?,11-9-2020,
352,인가니,youngpiano,,"If you upload this video, people will swear more and more about the iPhone",11-8-2020,
353,ENFP,enfp126,,삼성이 뭐가 어때서 다 구라면서,9-8-2020,
354,쮸,________._6,,ㅇㄴㅋㅋㅋㅋㅋㅋ 아이폰유리가 세계최고로 강하대ㅋㅋㅋㅋㅋㅋㅋㅋㅋㅋㅋㅋㅋㅋㅋㅋㅋ아ㅋㅋㅋㅋㅋㅋ그럼 아이폰유리 깨트리는사람들은 다 힘쎄여자 도봉순이겠다ㅋㅋㅋㅋㅋㅋ,8-8-2020,
355,망상증,hdjdkdndj5,,아이폰이 더 잘 깨지는데 삼성을 더 쎄게 쳤네 나 삼성쓰는데 기분 나쁘다..,8-8-2020,
356,어니,iameon,,@최 율 s20 ㅇㅈㄹ,7-8-2020,
357,산낙지,_sannackji,,왜 저러는 걸까요?😅삼성 욕하려면 그냥 하지😑왜 저러는 걸까요?😅삼성 욕하려면 그냥 하지😑왜 저러는 걸까요?😅삼성 욕하려면 그냥 하지😑왜 저러는 걸까요?😅삼성 욕하려면 그냥 하지😑,7-8-2020,
358,H,leesidarma,,我他媽左邊那台是iphone 11？ iPhone 11沒有 home 鍵好嗎！還有那個 home 鍵看就知道是模型機,16-7-2020,
359,펙트충,honghye_ks1,,다들 한국 못 잡아 먹어 안 달이야. 진심 우리나라 왕따임??,28-6-2020,
360,Alobri,tomto_bri,,Iphone 11 avec un bouton qui fait son come back check,27-6-2020,
361,eln,eline_tlt,,l'iphone 11 il a pas de bouton principa,25-6-2020,
362,jj,noe_._13,,Écran de ver 😂,20-6-2020,
363,Laurine 🫂,__laurine.jude__,,C pas un iPhone 11 car lui il a un bouton et le vrai non,19-6-2020,
364,nonna 🏳️‍🌈,nxnnxflg,,L'iphone 11 il a pas bouton au milieu je crois,19-6-2020,
365,__zoe__,zoe_wgll,,Un iPhone 11 avk un bouton? Je savais pas que mon téléphone en avait un je l’ai jamais vu 🤦‍♀️,18-6-2020,
366,ahah 😷,.jsuispersonnetqt,,C pas un iPhone 11 psq y’a un bouton en bas,18-6-2020,
367,지민,jimin8997,,아이폰이 더 잘 깨지던데 삼성은 ㅈㄴ 많이 떨어트려도 잘 안깨지단데,14-5-2020,
368,박준수961,MS4wLjABAAAA_5r5itasMgrwK9gaI1ZFpkCObOpggt6Pq1idOdDnh3FYpxP7F5S3nLOJdyCMC39b,,아이폰이 더 단단함,8-8-2020,
369,kkk,user894323981,,"옛날에 울산에서 삼성 애니콜 휴대폰 던져 강도 잡은 일화도 있다 어디서 삼성 로고 붙은 짜가 가지고와서 화웨이 랑 비교 하냐 여태것 중국산 생활용품 믾이 써봤지만 맘에드는거
하나도 없다",7-8-2020,
370,접,jkm557,,ㅎㅎ..휴대폰 전문점에서 아이폰에서 삼성으로 갈.아.타.고.싶다네요 ^^,9-8-2020,
371,holii,cherry_wite,,prefiero sangumg es buenísima marca,23-10-2020,
372,chekib things,chekibtings,,pour quoi,11-8-2020,
373,ㄴㄱㄱ,pqpwjrbbd01,,아이폰은 살살 때리고 삼성은 휴지에 빵꾸 났잖아 ^^,10-8-2020,
374,.,hyean33,,일부러 샘성 더 안좋은거 하는거 보소,9-8-2020,
375,.,danby14,,"삼성 s20아니야~
그리고 아이폰 필름^ㅉ",8-8-2020,
376,쓸 데 없이 긍정적인 애,jonnasila,,"제 친구가 아이폰 쓰는데요, 친구가 아이폰 케이스로 ㅈㄴ 두껍고 좋은거 쓰는데 학교 계단에 살짝 툭하고 떨었뜨렸더니 ㅈㄴ 아작나버림.",7-8-2020,
377,병아리🐤,sjddhehrjjej,,근데 왜 삼성은 더 많이치고 더 쌔게 치고 처음에도 위에 좀 금 갔어요!!!!!,7-8-2020,
378,.,kingjui12345678910,,왜 삼성 할때는 더 세게 때려요..?,7-8-2020,
379,지께,jijung_ji_key_09,,그냥삼성이싫다고말해,7-8-2020,
380,나는야 음어,holymoly621,,음성 썼구나 ^^,7-8-2020,
381,Valen,valen.vecchi,,@marcelakdp agora vem me marcando nesses videos de samsung melhor que eu te marco nos iphone,28-11-2020,
382,liana onsyon,lian_77713,,O s20 é maior que esse celular ele deve ser o j2 core,24-10-2021,
383,.,sunoo1l,,@v.i.c.t.o.r.i.a_6 found this🥰,21-11-2020,
384,.,ur_angel4,,om itu bukan samsung s20,3-1-2021,
385,조로 개간지,zoro2342233,,s20 nono,8-8-2020,
386,화려한 빛이 나를 싸악 감싸노,123456t113,,가리는 이유:구라여서,10-8-2020,
387,박주현,parkjuhyun1,,아이폰11은 고릴라글래스6이고 j시리즈는 고릴라글래스3인가 그런데 애초에 비교하면 안됨,8-8-2020,
388,편의점,ep1204,,안깨지는폰 어밴G스 필름 아님?,8-8-2020,
389,박갱호,user472334450,,ㅉㅉ,11-8-2020,
390,한별,hanbyeol0119,,저거 LG잖어 겁나 잘깨지는데에,7-8-2020,
391,FAKE,woosung0111,,당신은 우리 한국의 기술력을 무시했습니다 대한민국 반도체 만드는거 세계1위야! 어디스 감히 아이폰과 비교해!!! 삼성 대기업과 사과한게는 차원히 달라 으잉!!아이폰 사용하시는 분들 욕하는거 아님 이분이 이상한 말 해서 맞는말을 한거임 대한민국 만세!!!!!!!!!!!,7-8-2020,
392,인가니,youngpiano,,아이폰은 종이가 안찢어짐 ㅋㅋㅋ 얼마나 살살했길래,11-8-2020,
393,아방,s.u._.bin00,,내가 삼성 고무 필름 붙이고 망치로 존나 쌔게 내리쳤는데 겉에는 1도 안부서지고 안에 부품이 고장남,10-8-2020,
394,명탐정 코난 쳐돌이,ssipdeock,,경우에 따라 다른고지 내 친구 아이폰 6+였나 6s였나 이름이 생각 안나는데 암튼 그 폰 썼는데 한번 떨어트리니까 개박살났고 걔 삼성으로 바꾸니까 십수번 떨어트려도 안깨지드라,8-8-2020,
395,.,o53.5,,뭐야s20도 아닌데 20이라써놓고 아이폰이 더 안깨졌다하네 아이폰은 필름도 붙이고 삼성은 더 세게했그마이,8-8-2020,
396,Kim_isaajk,kim_isaajk,,tbm olha o tamanho do cll q colocaram na Samsung plmd,7-5-2022,
397,diakaliakanoute7,diak_quitte_trollface,,Non ces faux mdr,14-5-2022,
398,Kara Nguyen,notkara.n,,that is not galaxy S20 and Iphone 11,19-1-2021,
399,Jeremy Sanschagrin,jeremysanschagrin,,😂😂😂,19-9-2020,
400,.,gwn_abdul20055,,deze is niet eens samsung ultra 20.,9-9-2020,
401,선인장,mini2jm,,"wuuuut
thats not a iphon11 and s20 😂😂",10-8-2020,
402,a-broke.ru,abroke.ru,,Мы такие чини,2-8-2021,
403,.,imkindatrash5,,Bogus😳,7-8-2020,
404,LUIZ MIGUEL,memesdoerem,,A legenda tá errada! 😅,19-5-2022,
405,raine 🦋👑,_mqchii.guks_,,"it's clear that you hit the Samsung phone harder than the iPhone. Plus, that isn't even the s20, that's most likely an a8 2016.",3-5-2022,
406,david.mester123,david.mester123,,samsung best,21-4-2022,
407,Stefan Mihalache,blackbosreal,,"YEAH i kno it!!
🤞🤞🤞🤞🤞🤞🤞🤞🤞🤞🤞🤞🤞🤞🤞🤞🤞🤞🤞🤞🤞🤞🤞🤞🤞🤞🤞🤞🤞🤞🤚🤞",19-4-2022,
408,Yutbwr,yutbwr,,Strong,30-3-2022,
409,🍃🦋kourtney Newman 🦋🍃,kourtney_newman,,Nah not true when I drop my iPhone on a pillow it cracks 😂,20-3-2022,
410,berd,houseofberds,,you hit samsung harder lol,11-2-2022,
411,Lauryn,lauryns.backup525,,that's not even a s20 💀,17-1-2022,
412,Fast asf boi,shotgunstrongboi_init,,That’s not iPhone or galaxy 20,31-12-2021,
413,💖hannah💖,xohannahf,,iphones r famouse for week screens,15-12-2021,
414,💖hannah💖,xohannahf,,u went harder on samsung,15-12-2021,
415,I follow back,______ilovetiktok,,It’s not your sound,8-12-2021,
416,Sheryl,keoleni.cherry,,That’s not the iphone 11 and that’s not the s20.,30-11-2021,
417,o7,obani_aman,,you litteraly see on the paper that you hit harder on the samsung,29-11-2021,
418,wkwkwkwk,wkwkwkkw843,,@maryy.ika a,14-11-2021,
419,🤞🆗,iron_man021,,Imagine having iPhone 4 vs galaxy s7,25-10-2021,
420,ginnie,ginacorn123,,that's a Samsung Galaxy j7 v literally so old and comparing it to one of the newest iphones😅 not cool dude,22-10-2021,
421,adoniyas argaw,eh_darc_a,,galaxy s20 that is s7,5-10-2021,
422,Bᴀᴅᴅɪᴇ ♥︎,blzqnor,,@b.i.gm @mmila_barney23 see! It breaks easier iPhone didnt break and Samsung did,17-9-2021,
423,Minion Merchant,fxbl_editz,,apple is so overrated,24-8-2021,
424,daniel.miles.obrien,daniel.miles.obrien,,that’s not an iphone 11 or an s20,8-8-2021,
425,Weebeastie,weebeastie_lmr2008,,Appld,24-6-2021,
426,Kristian Sørensen,kristian.d.s,,it not a s20,15-5-2021,
427,Alina<3,_theyluvalina,,That’s not an iPhone 11 iPhone 📱 😅,2-5-2021,
428,king_forest2.0,king_forest2.0,,that's not even a galaxy s20💀,29-4-2021,
429,jackson_doggo,mohammad_hamdallah,,I see the toilet paper on the samsung just scratched and you didn't even touch the iphone,14-4-2021,
430,Thewalkingdead,twdpag3,,thats not iphne 11 or samsung 20s,11-4-2021,
431,***yeye***,redver1da,,bro ur comparing an old samsung to a new iphone,10-4-2021,
432,cyberb3as1,cyberb3as16,,when you are broke,23-3-2021,
433,JTD STILO FIAT,_f_i_a_t_s_t_i_l_o,,Hahaha rly,20-3-2021,
434,🌸Love you ziggy🌸,pollyturner..x,,That’s not an iPhone 11😂,17-3-2021,
435,Astro GLABDI,imagaenibba,,s7 vs iPhone 5 or SMH like this,6-3-2021,
436,Johnny Barlow,batmanbarlow1,,s 20 ?hahhahahhhhaha what ?😳,5-3-2021,
437,user9900812647725,bradleyisgood09,,you litterally hit the Samsung harder bro😳,4-3-2021,
438,Puppy,itspuppyduh,,u hit Samsung harder i can tell,27-2-2021,
439,vin_lanceley,vin_lanceley,,you hit the Samsung harder,21-2-2021,
440,HOGRIDER oink oink,comeclean_hogrider,,No she did not hit iPhone with force she hit Samsung with force and Samsung would crack that easy,20-2-2021,
441,Dlilah,ihatem52,,Face,19-2-2021,
442,Skylar Crawford,skylarcrawford27,,1 u clearly hit the Samsung harder 2 if ur gonna conpair the iPhone 11 to an android make sure it's the same year model that Samsung an old model 😅,17-2-2021,
443,(LemondYak레몬야크),lemonsyak74746do,,난 갤이 더 좋은거같다.,16-2-2021,
444,user7777182004929,damaster_13,,"U hit the IPhone a couple times, you hit the samsung way more than the iphone!",29-1-2021,
445,Keoni Macaroni🦷🦷,keoni_mangum,,you hit samsung harder don't try to be slim btw,28-1-2021,
446,Denise 🤪,dxnise.fbr,,Safe iPhone 11,26-1-2021,
447,Itsuki>Your favorite verse,itsukisolos69,,That is not an s20💀💀💀,25-1-2021,
448,roro,roro_zq,,S20 for sure,24-1-2021,
449,ok,le.front.a.ilyes,,Sur la partie Samsung du papier on voit des trous donc il a taper plus fort,23-1-2021,
450,Tik Toker,constipatedanus1,,I bet its cracked but it still works,22-1-2021,
451,Keller Vachet,keller_vaxhet,,thats not samsung s20 or iPhone 11,21-1-2021,
452,ALLOH BUYUK,musilman200806,,iphone 11 king,20-1-2021,
453,clstx,clostx_a,,firstly those aren't even iphone 11 and samsung s20. secondly you were hitting the Samsung harder because you knew the iphone would crack,10-1-2021,
454,lejlaaaaaaaaa,lejlaq_t,,"Android:🤡
Samsung:🤡
iPhone:🤡
Flip phones:🤡
Dora phones: 👑",9-1-2021,
455,combo generator,xaimbot,,jesus is coming,8-1-2021,
456,islamifejzulla99,fejzullaislami0,,hahahaha samsung j3,2-1-2021,
457,Vale,yourfavrojas,,"iPhone =🤡
Android =🤡
the pair phone=. 🥵🥵🥵🥶😈",30-12-2020,
458,Bruno's rat,itsyaboyjackrehehehehe,,samsung,28-12-2020,
459,iPhone 12,a14bionic1,,那是iphone6,26-12-2020,
460,Itsprobablymax,itsprobablymax,,Not an 11 but sure,23-12-2020,
461,Pouce.rouge,le.pouce.rouge.fois.1k,,Ça m'étonne puisque c'est Samsung qui font les Écrant pour Apple,16-12-2020,
462,1k_bby,__2litt4,,That’s not a iPhone 11,16-12-2020,
463,Vicente feo :”),vicente_arriba_,,Puertas excusas ÑE ÑE le pego and fuerte al samsung bla bla bla,16-12-2020,
464,🤍✨,heras.milktea,,you aren't even using the correct phones.,13-12-2020,
465,Radu,radu9ani,,that is Samsung Galaxy s10 5g 7 edge and that is not a IPhone 11,9-12-2020,
466,Radu,radu9ani,,iphone is poop👎👎,9-12-2020,
467,ㅋ?,userlipgownpwp,,"삼성을칠때와
애플을 칠때의 진동차이를 구하시오",7-12-2020,
468,Nithal,n_goat,,that aint no iphone 11,7-12-2020,
469,Christian,christian..serna,,not a s20,5-12-2020,
470,rin,12323498uzoo,,iPhone 12 displays are made by Samsung,4-12-2020,
471,Ace,soccerace104,,bruh she was hitting the samsung harder,3-12-2020,
472,victory mtweve,vindemon1,,and to add it up that's not the iPhone 11,28-11-2020,
473,izuku and rin stan,karomi.core,,"So bias, I don't even trust",26-11-2020,
474,Aadam😎💉,aadam_1008,,samsung will always win,21-11-2020,
475,Kainetheasn,kainetheasn,,first that's not an iPhone 11 and any other phone before the iPhone x is very easy to crack so if that's a real screen then it would crack,20-11-2020,
476,💀,_luciiaavaleero_,,Tranquilos a los de iPhone mientras veían el video se les acabó ls batería,12-7-2020,
477,champions,champion.qoutez,,nice att du har ljud afekt på [ stav fel],13-5-2020,
478,antoni,_panetoni_,,"n foi mt justa isso ae, o iPhone tava com película e o Galaxy nn",10-7-2020,
479,FoxyArt,_foxyart_,,samsung handy het au kei panzerglas druff nim ich ah,21-5-2020,
480,Mehandi Artist,mehandiartist16,,iphone 11 with touch id 🙄🙄🙄🙄🙄🙄🙄🙄😑😑😑😑,16-5-2020,
481,QM LEU E CORNO,dauma_lambidaaq,,"Não é um iPhone11 e nem um S20
tem alguma armação",13-5-2020,
482,🦎父私 神🦎,committing.tax.fraud,,When the hammer doesn't go through the paper on the iphone but it does on the samsung probes that its fake,13-5-2020,
483,injoker,ijijikik,,lol iphone 11 vs a samsung phone that wad made maybe in 2012,13-5-2020,
484,Zachary Miller,lunarabyss591,,sorry to say that it's not even an s20,13-5-2020,
485,응애,ayo0om._2,,저게 뭔 s20임 ㅋㅋ ㅋㅋㅋ ㅋ ㅋ ㅋ ㅋㅋ ㅋ ㅋ ㅋ ㅋㅋ ㅋ개쳐웃기네,13-5-2020,
486,사랑해🇰🇷🇰🇷,killchinkslol,,do you think your slick you hit the Samsung harder you can tell CAUSE YOU PUT HOLES IN THE SIDE OF THAT PAPER TOWEL,14-5-2020,
487,Tengo la cara antigua☺️,b9ll0,,💓mis videos estan cool pasa averlos🥰🥺porfaaa!!,13-5-2020,
488,.,.no.more.active,,JAJAJAJAJA iPhone 11????? neta? JAJAJA,9-7-2020,
489,jedenjedendwa,dziewiec9siedem,,Było widać ze nie uderza w IP XDD,13-5-2020,
490,THANK YOU FOR 700!💕,bitmoji_tiktokers124,,That is not an iPhone 11 though.,14-5-2020,
491,*°•.ConsularCap.•°*,consularcap,,nici macar nu e iphone 11 si samsung s20,13-5-2020,
492,Horvatska,nacedomace,,imagine using 4 year old phones to compare,14-5-2020,
493,😫😫😫😫😫😫,cuzzimupsoon,,That’s not a Samsung 20 or an iPhone 11,15-5-2020,
494,푸러이,pemyuda_,,พีคตรงกระดาษไม่ขาด,11-6-2020,
495,Thomas V.,mr._tomtastic,,"Es ist kein iPhone 11 und kein S20.
Die alten displays haben lange nicht das ausgehalten können wie die heutigen",25-6-2021,
496,🥶😈Nat😈🥶,xox.natt,,ummmm that iphone 11 is very small i-,14-5-2020,
497,ㅇ유진,foruthhberttertwolldrd,,저게 왜 s20이야ㅋㅋㅋㅋㅋㅋㅋㅋㅋㅋㅋㅋㅋㅋㅋㅋㅋㅋㅋㅋㅋㅋㅋㅋㅋㅋㅋㅋㅋㅋㅋㅋㅋㅋㅋㅋㅋㅋㅋㅋㅋㅋㅋㅋㅋㅋㅋㅋㅋㅋㅋㅋㅋㅋㅋㅋㅋㅋㅋㅋㅋㅋㅋㅋㅋㅋㅋㅋㅋㅋㅋㅋㅋㅋㅋㅋㅋㅋㅋㅋㅋㅋㅋㅋㅋㅋㅋㅋㅋㅋㅋㅋㅋㅋㅋㅋㅋㅋㅋㅋㅋㅋㅋㅋㅋㅋㅋㅋㅋㅋㅋㅋㅌㅌㅋㅋㅋㅋㅋㅋㅋㅋㅌㅌㅌㅌㅌㅌㅌㅌㅊㅌㅋㅋㅌㅌㅌㅌㅋㅌ,14-5-2020,
498,.,ur0214,,저 폰 삼성갤럭시s20 아닌데,14-5-2020,
499,🙃Emilie🙃,emilie.141,,vous savez les montage ça existe,24-6-2020,
500,Mikey,gg_qwvj,,Vidíte iPhone je lepsi než samsung,4-7-2020,
501,_,yonikq,,thatsnot samsung 20 its 3,14-5-2020,
502,ㅇㅇ,MS4wLjABAAAAvg60rnKCNHrrqGJ2xOWpOLxPkKz1LxdLDVUyxRSbvNUgRfhzTi6qwWkIaYkm6Mqs,,이이폰 7 딱 한번.. 한번 떨궈서 개박살났어요.. 돈없어서 그냥 쓰려고 했는데 손꾸락에 유리박혀서 포기함,14-5-2020,
503,Michael Beccio,michaelbeccio7,,Thats not a Iphone 11 or a Galaxy S20 and you hit the samsung harder,14-5-2020,
504,mireloi,mirela.269,,"da de ce ai pus servetelul?Mai fa un video așa, dar fără sa vedem si după mai vorbim",4-7-2020,
505,Lucas,lucasssslol,,ayo no one cares samsung is better check,14-5-2020,
506,Kavinda,dasse_kvnd,,you are a layer,14-5-2020,
507,นุ่นนุ่น ∘˚˳°,arthit.zzz,,@deenvlog มีความเป็นไปได้สูงค่ะ,1-6-2020,
508,Javier Martinez,dieg0_martinez26,,iphone 6 plus samsung s7 plus,13-5-2020,
509,このマンガがすごい,konomangagasugoi,,정보:저거는 S20이 아니다,14-5-2020,
510,콜옵M초보 승민씌,calloffdutynoob,,힘차잌ㅋㅋㅋ,13-5-2020,
511,ㅍ,snoopy_1229,,제 친구가 소파 위에 아이폰7+ 올려놓고 실수로 위에 앉아버렸는데 파삭 소리와 함께 깨졌습니다ㅎ,14-5-2020,
512,sarrazinmarius,blockmarius,,j'ai le s20 ultra je peut te dire que c'est beaucoup plus grand et résistant,21-6-2020,
513,K10207🖐☝️🎗🇭🇰,k10207,,原來iPhone 11有按鈕[yummy]，唔知大家知唔知道你哋隻眼睇過龍呢！[facewithrollingeyes],13-5-2020,
514,Oh hi,itsyaboi791,,That’s not an iPhone eleven or an Samsung 20 😭😂,14-5-2020,
515,Bélinda,4bvnv,,L’utiliter ?,25-6-2020,
516,n,laueiwh32,,pegale al samsumg mas fuerte si queres,14-5-2020,
517,myst,dynasty.zero,,"I have the S20 and that's not it, and my sister has the iPhone 11 and thats not it 🙄",14-5-2020,
518,jsk,hddhxyhbbdbnd,,iPhoneは割れやすいけど割れても使えでGALAXYは割れずらいけど、割れたら使えないって聞いたことある,14-5-2020,
519,Maxsaut08,maxime.sauthier,,Mdr le truc c’est un iPhone 5,6-6-2020,
520,💫,mazsi120,,Pont ennyit ér xd,4-7-2020,
521,쀼,nayoung.0322,,"삼성⍤⃝𓂭 깨진이유 : 저 사람이 삼성 쪽에있는 휴지가 찢어져있도록 때려찍음 ,, 그래서 삼성이 더 깨져있는거임 >< ㅎㅎㅎㅎㅎ 개논리",13-5-2020,
522,กูชื่อซ่า,mynameislisa9,,เทียบกับพี่ซัมซุงฮีโร่มั้ย555555,14-5-2020,
523,I was really really really sad,a_big_fat_frog,,imagine getting famous for breaking phones,14-5-2020,
524,스누피,user9s6ykmtg9c,,아니 누가 봐도 강화필름 붙이고 삼성은 암것도 안하고 (쓰래기)아이폰은 톡이면 (갓)삼성은 탁이자너 응 그리고 저거 누기봐도 s20폰 아님;; 누기봐도 삼성 옛날 폰임;; 그리고 내가 폰에 관심이 많은데 s20이 홈버튼같은거 없음;; 있는것도 위로 지봐 당겨야 되는거임,27-6-2020,
525,수현,wsh080402,,삼성는 모서리로 때림,14-5-2020,
526,axelledft,MS4wLjABAAAAETB39XlAtfGhh4teynJ9e40E2X2VMg2e7s6aX_y0_HjrE3WPo9gBwpO6ILb8058h,,ptdr vos iphones on les cognent un tt petit peu une fois il se brise en deux,24-6-2020,
527,Anna 💙,blastpain,,me with my literal 30$ ANDROID: 😔,15-5-2020,
528,welcome🤍,seokhwa,,this is not an iphone 11🙄🙄,7-6-2020,
529,yEsEul,dptmf.7_,,"삼성폰 떨어뜨려도 거의 안깨지는데 기스나 흠집만 나지 ,,,",14-5-2020,
530,だいき,daiki_xenzr,,"@だいき：Iphoneは動画のような1点への衝撃には強い、ただ、落とした時には画面全体に衝撃が加わるので割れやすいです。
Androidで落としても割れにくいのは、iphoneとは逆で画面全体への衝撃に強く、1点への衝撃に弱いからです",14-5-2020,
531,Jeremias Cluster,jereklaster_,,como desperdiciar telefonos en un tik tok,13-5-2020,
532,Dejvvvv,_.dejvv._,,Asi tak iphony jsou lepší no,4-7-2020,
533,._LYL'._.Dusty✓,nersule._.fbrc,,j'ai fait tombe 1 fois fois mon iphon il et mort et j'ai fait tomber une au moin 10 fois mon samsung il a juste 2 fissures..,27-6-2020,
534,(╯°□°）╯︵ ┻━┻,beatus_themeatus,,Bruh that’s the SE and s6 not the 11 and s20 lmaoooo,14-5-2020,
535,ShreyasDBeast,yeetshreyas,,"The iPhone can withstand a hammer but when we drop it, it cracks",14-5-2020,
536,👤,normanprice_official,,itt nem telefon a lényeg hanem hogy mit teszel rá képernyő minden telefonon ugyan az,4-7-2020,
537,BL영상에 태그좀,smallkong,,ㅋㅋㅋ아이폰 겁나 잘 깨지는데,14-5-2020,
538,Bo Denecker,bo_denecker,,@emmelieny iphone 11? uuhm zeker? ahahah,19-6-2020,
539,.,destiny_you_and_i,,삼성에 더 쌔게 부수는거 기분탓.?,14-5-2020,
540,5k,ivartheman10,,jag har den Samsung sorten och det är en Samsung galaxy s7,4-7-2020,
541,AUM.อั้ม😼😹,aumnanako,,"ไอโฟน5s
ไม่แน่ก็ไอโฟนse",3-6-2020,
542,안.녕^^?,usdfg00,,아이폰 쓰고있는데 흙에 떨어졌는데 액정 박살 나고 액정조각도 떨어짐,25-5-2020,
543,<3,finnjaaa29,,u hit the Samsung way harder,14-5-2020,
544,シ︎,ams.212k2,,c pas un iphone 11 est c pas un Samsung s20,17-6-2020,
545,Ollie_the_cat,ollie_the_cat0,,That's an S7 btw,15-5-2020,
546,❜❛eliass〆☁️,._elias..is,,eu care era cat pe aci sa sparg iPhone ul 6 al prietenului meu cand l am aruncat in pat🤡🤡,3-7-2020,
547,SM,drll_d0,,Bet y’all don’t have these emojis: 💀̩̲̜̱͓ͮͦ̿ͦ̐😧̵̛͔͍̱͙̥͔̯͖̥͙̲͆ͬ̊̑̔̂🤡͔͍,13-5-2020,
548,Kasper G,kasperge123,,is geen s20,13-5-2020,
549,Jake Vanzanten,jakevanzanten,,Well the iPhone 5 rlly showed the Samsung who was boss,14-5-2020,
550,Love these girls message me!,sunkinsrelax,,That’s not an iPhone 11,22-6-2020,
551,왼손으로 bibigo 오른손으로 bibigo 8도비빔면,gmgxpgmgmg,,ㅉ 삼성쪽 휴지에 구멍 남,25-5-2020,
552,Procreate and stuff,procreate.creations.762,,That’s not an iPhone 11,14-5-2020,
553,Elefth💫,eleftheriaa.spirou,,@mpampis30 @mitsohh1 eeeee. ti kanei???,4-7-2020,
554,Lalle,lalle_lasse,,samsung lives matter🥺,4-7-2020,
555,드라마에 빠지다,indulge_in_drama,,아이폰 존나 깨져요^^ 저 아이폰인데 ㄹㅇ 바닥에 한번 떨어뜨렸다고 개박살났어요 진짜 유리조각 흩어지고 난리났었어요,20-6-2020,
556,❤️🥺,gilito_m198,,pusiste el video en pausa cuando lo estabas grabando y quitaste el iPhone y luego lo pusiste,14-5-2020,
557,lore🤍,__lore.89,,Apple is the best🌊,13-5-2020,
558,ㅋㅋㅋㅋㅋㅋ,cyybsylvr,,ㅇㄴ삼성만 더 쌔게 쳤잖아 휴지에 삼성만 구멍난거 안보여 ?,13-5-2020,
559,oui,nicosavlar4,,mais aucun tel casse a ca ptdr,17-6-2020,
560,🤍🤍,hyunseo_2009,,삼성휴지에 구멍남,14-5-2020,
561,fană AVATAR♥️♥️♥️,miruna_m_i,,"1.ai dat mai încet la iphone
2.cred că avea și folie",6-7-2020,
562,follow zeuvos,emoqk,,when they both aren’t the product u said 🙄,14-5-2020,
563,ᴄᴀᴅᴀɴᴄᴇ,cadance_ee,,ของกู iPhone 8 แตกง่ายมากกกกกกก,18-6-2020,
564,yaya,alexandra.baudoin,,j'ai tellement envie d'essayer👀 mais si ça marche pas euhhh...,26-6-2020,
565,Maxence,maxence_cestmoi,,PTDR 0 Logique en quelle année ya 0 bruit et cette forme de marteau fais un trou comme ca 🤦‍♂️( 4 ans d'ecart entre les 2),27-6-2020,
566,희현,h._.1509,,개어의없누 @kimminjung0519,14-5-2020,
567,공칠,hjhj071227,,삼성을 더 세게 친듯 ;; 아이폰은 강화유리도 했잖어 ㅋㅋ,26-6-2020,
568,이수만,spoan.suah,,응 삼성,14-5-2020,
569,1+1=2,www.m0l.com,,Et aussi tu tape plus fort sur le Samsung et c pas un iPhone 11 et une Samsung s20,20-6-2020,
570,Noel,noelidkk,,Lmao the first is iPhone 5,6-7-2020,
571,🌜Timmi🌛,muschger,,Das isch es iphone 7,30-5-2020,
