,Comment Number (ID),Nickname,User @,Comment Text,Time,Likes
1,Santino,fettnacken_tv,,Iphone 11 pro mit Home Button wer kennt es nicht die plus Ultra Version,19-7-2020,
2,Jesper,squidkidjr17,,That’s not a iPhone 11 Pro,20-7-2020,
3,phoenix12,markbe3,,"thats nokia not s20,we aint blind",20-7-2020,
4,En Le,leeenle,,"if you want to brake more phones, can you give me one??",20-7-2020,
5,sniper king 5,sniperking748,,people be like they dont break like apple cuz its plastic and low quality,20-7-2020,
6,Lamel,lamel_007,,Are u really using hammer to TLC Ur phone in real life 😂,20-7-2020,
7,jaja,yeskek7,,that's not a S20 that's not a huawei p40 that's not a iPhone 11 pro,20-7-2020,
8,𝙆𝙞𝙢 𝙩𝙖𝙚 ♫,sakshi.stitch,,Lol iphone 11 pro doesn’t have home button 🤪,20-7-2020,
9,N1,ngeeb_theboss,,That’s not iPhone 11 pro,20-7-2020,
10,🤡🧨,honzek___,,huawei is best,30-7-2020,
11,user8099465553513,florianus007,,Das iphone 11pro ist geschrumpft,20-7-2020,
12,Thom’s,_thoms_2008_,,Team Huawei,20-7-2020,
13,:),sxxm08,,The phones are old that y I guess,20-7-2020,
14,HollyMolly,robin_von_locksley,,Kann ich bestätigen wie oft ich mein P20 auf den Tisch geknallt habe. Weil es mich frustriert hat. 🤣🤣 Huawei ist Godzilla.,20-7-2020,
15,〰️daniel〰️,onefacedaniel,,Wenn man 3 Handys bei Wish bestellt😂😂🤦‍♂️,20-7-2020,
16,:),diyideas2000,,thats bot I phone 11 pro and not samsu g s20😅😅,4-4-2021,
17,GogetaSSJB1M,gogetassjb1m,,"You didn't use Samsung S20, it has a full glass screen and curved edges, and you used an iPhone 8 not 11, do it for real for once",31-8-2020,
18,official_l.e.a_,official_l.e.a._,,Ich hab gar nicht gewusst das es auch ein iPhone 11 pro mit einem Homebutton gibt 😂,17-8-2020,
19,xilefrelle11,xilefrelle11,,das sind 2 samsung und ein iphone,3-8-2020,
20,Folgt auf gerne auf Youtube,yazuuya,,Das ist ein iPhone 6,24-7-2020,
21,fababy😎😩,dababy....reallll,,bin nur gekommen wegen sound,18-8-2020,
22,Jolina Becker,jojo_b.12,,das erste ist ein Huawei das zweite ein Samsung,5-8-2020,
23,celine,celine_knb,,Machst du huawei gut?🤨😂,22-7-2020,
24,Lukii,1lukii,,Digga das ist immer noch kein iPhone 11,22-7-2020,
25,Aaron,bikeraaron6,,das war kein iPhone 11 pro 😂😂,21-7-2020,
26,Simon/ aka Санёк,san4ezz_z,,Huawei p 20 iphone 6 und so weit ich es verstanden habe nokia 😂😂😂,20-7-2020,
27,flip_tizian,flip_tizi,,Huawei ist beste,20-7-2020,
28,TommyTheoCelina,tommytheocelina,,Ich habe huarwei P40 pro,20-7-2020,
29,qreepex,qreepex,,"Fällt niemandem auf das das weder ein p40, s20 oder iPhone 11 ist?!?!",20-7-2020,
30,Romy Zettl,romy_zettl,,HuaweiID,20-7-2020,
31,;)Sophie(;,phie200,,Er kann sich kein iPhone 11 Pro leisten deswegen macht er es mit iPhone 6 und schreibt Das es eine iPhone 11 Pro ist! iPhone is besser als alle ande,20-7-2020,
32,perety,perety,,No es iphone11 pro.,20-7-2020,
33,⚠︎︎,stina_orback,,Vilken annorlunda 11 PRO😂😂 det är ju en iPhone 6 😂😂,20-7-2020,
34,공부시발,yunji50567,,삼성은 아이폰이나 화웨이보다 기능이 많으니깐 무게가 더 무거울 수 밖에없고 무게가 무거움거는 사람들이 싫어하니깐 무게를 줄일라고 액정을 더 얇게 만든거임.,20-7-2020,
35,김가연,www.tiktik.com.h.p,,저게 왜 아이폰 11프로임? 아이폰 11프로는 홈버튼 없는디,20-7-2020,
36,Dresden,dresden68,,Huawei es el mejor en todo.,20-7-2020,
37,Dương Múa Flo 🍀,zukanoboro,,Nokia thì sao😂,20-7-2020,
38,Trần Phước Long,phuoclong_tran,,11 pro???,20-7-2020,
39,ISFJ,shinarty0978,,ㅉ,20-7-2020,
40,︎︎,yamemasu.0000,,確かにAndroidめっちゃ性能いいけどそれ1部な??普通のAndroidで威張ってるやつなんなん w,20-7-2020,
41,Angelo Love ❤,angelo_love,,ci manca il martello pneumatico 🤣,22-7-2020,
42,たい,taitaitaitai67,,残念ながら共産党の餌になります,20-7-2020,
43,Tanh đang ăn cơm:),lta_204,,"Thiện Style Thiện Style,",20-7-2020,
44,Mautje0,mautje000,,Is geen IPHONE 11 pro kijk er zit gewoon een home buttun,20-7-2020,
45,🤍,qhuownq.thwu,,.Ry thấy Huawei sài tốt mà:V,20-7-2020,
46,daniel caspers,actie_slippers,,IPhone is alleen nieuw en heeft veel telefoons maar wie zegt dat. Apple goed is Huawei is beter,20-7-2020,
47,Giulio Brunetto,qwertytrewq235,,"Ha nem is azok a telok, már akkor a huawei volt a legjobb 😅",20-7-2020,
48,Sarah,privesaarr,,Dat is gewoon een iPhone 6 of zo 😡,20-7-2020,
49,Sarah,privesaarr,,Wat dat is geen iPhone 11 pro 😡,20-7-2020,
50,<3,bissbiss7,,huawei t tan nát cái màn hình rồi : ),20-7-2020,
51,💜⟭⟬Sheena~Army🤟💜,sheenacadauan_btsstan,,talo pala ng huawei ung iphone,20-7-2020,
52,L,lurom19,,Ese no es el 11 pro,13-8-2020,
53,usami,snsdfans1,,這假的吧？蘋果11沒有按鍵，這是大陸想表示自己的手機做的比別人好嗎？,20-7-2020,
54,Terry,terenceweng,,鬼扯,20-7-2020,
55,Paulinka 💐,user8372806450702,,tak 1 to jest iphone 7 albo 8 2 szkło w samsungu nie da się fizycznir zniszczyć a huwawej p40 ma najgorszą jakość szkla,21-8-2020,
56,たむむ,kohta10130,,HUAWEIP 40やないやんw,27-7-2020,
57,bArBiE dOLL,rxblox._.bxrxbie,,bro there's no iPhone 11 pro in disopointed,23-7-2020,
58,noa,__urfavgay,,Huawei les best,22-7-2020,
59,metalkijaru,metalkijaru,,Nice joke,21-7-2020,
60,อานนท์ ชื่นอิ่มทรัพย,tamutame,,oppo ใช้จอดีกว่าโฮเว่ยอีก,21-7-2020,
61,Saab Saab,saabsaab3825,,di totoo Yan huawei,20-7-2020,
62,saida8x,saida8x,,"UTG : Ultra Thin Glass 가공 은 한국,중국이 최고다 아이폰 화웨이 도 LG,SAMSUNG Glass 를 사용 한다.",20-7-2020,
63,iBOB™ old account,ibob_old_account,,Yeah sure genius 😂😅,20-7-2020,
64,user4129050833258,louiss728,,IPhone 11 pro mit home button,20-7-2020,
65,𝒌𝒂𝒚𝒆☻︎,veinnplays,,Sameee my cellphone is huawei,20-7-2020,
66,Cool-Arrow,solrac_101,,Why not show the phones at the start,20-7-2020,
67,Hải Hoàng,hoanghaishop,,Vcl 11 có nút home :)),20-7-2020,
68,jerry,itsyourboyjerry1,,this dude doesn't even know what phoens they are 🤣🤣🤣,20-7-2020,
69,Marc Mulder,marcmulder0,,Sinds wanneer heeft de 11 pro een home button,20-7-2020,
70,TinDoll,ohtinnnn,,That wasnt even iphone 11 pro 🤷‍♀️🤷‍♀️,20-7-2020,
71,ivy,ivyl_ee,,HAHAHAHAHAHAH rip IPhone user,20-7-2020,
72,lenhhhhh,ngser_maybe_olympian,,Còn cái sámung nhìn như xaomi ấy,20-7-2020,
73,Kha Trấn Ác,kha.........34,,11pro cái thằng ngáo,20-7-2020,
74,lenhhhhh,ngser_maybe_olympian,,Iphone đó đâu phải 11 pro,20-7-2020,
75,Elliscush,elliscush15,,That wasn’t the iPhone 11 Pro,20-7-2020,
76,Duy Hiếu,duyhieu1101,,"Con ip kia là ip6 mà dám nói là ip11, thưr lấy ip11 về gõ xem kết quả sẽ khác đấy",20-7-2020,
77,Rhys Davies Sk,rhysdaviessk,,None of the phones are the ones you are saying,20-7-2020,
78,Ivhie Belando Maniaul,ivhiesaur,,Thats not iphone 11 hahaha joke time,20-7-2020,
79,changliang8250,user797231566,,That’s not Huawei P40 but p20,20-7-2020,
80,Kate,esterekate06,,"That's not huawei p40 and iPhone 11pro,Samsung s20",20-7-2020,
81,Uyên Uyên,diemuyen93,,Ip11 pro mới ghê chứ 🤣🤣🤣,20-7-2020,
82,Alex D,alexd258,,Huawei is the best,20-7-2020,
83,adam,kepasa1,,11pro🤣🤣🤣,20-7-2020,
84,justin,thyra_von_mardanshof,,iphone 11 pro is niet de iphone 11 pro,20-7-2020,
85,iFlooow,iflooow,,Il l’a commandé sur wish son 11 pro 🤦🏻‍♂️,20-7-2020,
86,Đỗ Quang Hậu,k3kull,,11 pro ???,20-7-2020,
87,tung,daukhovitien3000,,vãi cả 11 pro,20-7-2020,
88,meadow,eyyonguyenday,,đéo có tuổi với nokia cục gạch nhé 😏,20-7-2020,
89,S E E N,ahihi.nhi_neeee,,ủa 11pro?,20-7-2020,
90,Nguyễn Hữu Thọ,_n_h_t,,??? Iphone 11 có nút bấm,20-7-2020,
91,Chicuong Lâm,userfowwf0i82s,,nokia xin tài trợ cung chương trình này :,20-7-2020,
92,𓅿,hhmaing,,Đem con Nokia vào,20-7-2020,
93,Gì Cũng Được,01228913011a,,what 11 pro còn phím home à,20-7-2020,
94,TM,tm000999,,Ok 11pro,20-7-2020,
95,Billbilly,billbilly123,,11 pro?,20-7-2020,
96,Marcus,macke.420,,Haha är ju inte äns iphone 11 😂,20-7-2020,
97,Phan Dinh Bin,phandinhbin99,,iphone11 🤣,20-7-2020,
98,🙂 William McFly,the_secret_time_traveler,,I expect the iPhone to break. it comes with standard iCrack O.S,20-7-2020,
99,Ayanokoji Kiyotaka,kiyotakaneeee123,,thiện style thiện style,20-7-2020,
100,한,dfgyrdghu,,먼저 깨져 있네요 망치때린곳이 아닌 다른곳이 파손,20-7-2020,
101,user596957,commild,,미리 깨놓은건가?,20-7-2020,
102,The Ramos,theramosnew,,marş,20-7-2020,
103,scot.mk,scot.mk,,screen already broken on iphone.,20-7-2020,
104,Coronakiller,westerfolds,,Huawei is the best,20-7-2020,
105,Craig Hall,craighall00,,Amazing that the Chinese phone fairs best on the Chinese owned TikTok 😂😂,20-7-2020,
106,user8972674576372,gtrlover5,,Iphone6,20-7-2020,
107,99 Red Balloons,darranohara,,hmmm .. my criteria for choosing a phone has never involved a hammer .. shame on me for wanting a phone with functionality,20-7-2020,
108,Sindre Pedersen,sindrepedersen96,,Huawei have best phone specs🔥❤️,20-7-2020,
109,alder_hund,alder_hund,,phones aren't designed to be hammered the Samsung would handle it the best,20-7-2020,
110,Sindre Pedersen,sindrepedersen96,,Love Huawei for ever❤️,20-7-2020,
111,Timpang,timpang_55,,Så iPhone 11 har börjat med knapp? Kanske i kina!,20-7-2020,
112,Afterlife,ngounsovan,,phones already broken. look at the place of phone he hit,20-7-2020,
113,annezki,annezki13,,Hindi nmn iphone 11 pro un hahaha,20-7-2020,
114,𝓒𝓱𝓮𝓷𝓷𝓮𝓷𝓲𝓮𝓮𝔂🌻,chennieey._011129,,sayangg nman po sana ibigay nyonaa lngg pp hahaha,20-7-2020,
115,Huy_Cảnh ❤️‍🔥,huycanh03,,Vkl 11 pro có nút home,20-7-2020,
116,Hugo Rendon Para,hugorendonpara,,Bs!!! That’s not an iPhone 11 Pro,20-7-2020,
117,スマイリー🌻,1.2.hiii_,,try Nokia and your hammer will be broken,20-7-2020,
118,CMD STEEF X,steefan97,,So that was 11 pro ??? New phone,20-7-2020,
119,Hi.,haalllooooooooo,,lost,20-7-2020,
120,Hoàng Tú,hoangtu2905,,đã so sanh thì so sanh đời cao,20-7-2020,
121,Haseeb Yusuf,bacchus973,,11Pro doesn’t have finger print 🤣🤣🤣👍🏽,20-7-2020,
122,@Trung™,nqtrung0,,Nokia nhết mép cười,20-7-2020,
123,YMorningstar007,ymorningstar007,,That's not Huawei p40 pro at all,20-7-2020,
124,Nguyễn Đạt,userp177kt3w0a,,Dc trọn t vẫn trọn iPhone 😅😅😅,20-7-2020,
125,Eye Bee,eyebee24,,Hahhahaha its not iphone 11 pro though 🙄,20-7-2020,
126,ᴀsʏɪǫɪɴ ᴊᴇᴡ,s_y0q_in,,@zafirah android is the best!!!!!,20-7-2020,
127,Countryfied,kingslayer1469,,🤣 those two phones have been hit pretty hard way before this,20-7-2020,
128,QuangPhuoc,quangphuoc_mango,,mát dựng ghê ko ? iphon 11 có nut home kkk ... cái này pr trung quốc quá bạn,20-7-2020,
129,Cнᴀɴ✿ツ🔮🎗,chan_250708_,,Muốn dùng lâu thì phải giữ gìn thật kĩ. Đó là bài học đc rút ra trong video này,20-7-2020,
130,Simon Locke,eddyluna88,,what a load of bullcrap .... not event the correct phones !!!!! 🤬👎🤬👎🤬👎,20-7-2020,
131,R X,overthered,,HUAWEI É HUAWEI....E GLI ALTRI NON SONO UN C####,20-7-2020,
132,옷파랑색사고싶다,user2053941680197,,중국은 세계의 해충이다,20-7-2020,
133,Hải Pò,08334hai,,Lần đầu trong đời thấy ip 11 Pro nó zậy 😂😂😂,20-7-2020,
134,김노엘,xxthe13x,,and?,20-7-2020,
135,이은재1997🇰🇷🇲🇾,silverasher1997,,secanggih mana HP sekarang xkan lawan jenama Nokia 3310...😂😂😂,20-7-2020,
136,泰迪🐱,oaoa__boa,,拒用華為,20-7-2020,
137,user394827270,fiaexusdad,,That’s not iPhone 11 Pro 😂,20-7-2020,
138,Trunkkkk 🌞,nvttrung8803,,ừ thì p40pro có nút home cảm ứng e hèm cười ỉa,20-7-2020,
139,Jackie,jackedx,,Maybe don’t hit them with a hammer.,20-7-2020,
140,Phạm Đình Giang,yangpham2202,,Ip11 có home hả .)))🤣,20-7-2020,
141,😊 bét☺,thao08056,,nàm ss dễ vỡ mà,20-7-2020,
142,Den,muhammaddanishafk,,Duhhhhh that’s not phone 11 pro that is iPhone 6 that’s why is broken,20-7-2020,
143,Dhighrisk13 🇭🇹,dhighrisk13,,Who ever pays you better I got it 😉,20-7-2020,
144,SpLiX,splix_anno_1994,,"Nope, damage and hammer is not consistant....",20-7-2020,
145,nguyenhoangbaolong20,imnothereboii,,That ain’t a iphone 11 pro,20-7-2020,
146,琥珀琉（こはくるい）,kohakuruui,,iPhone11proを知らない人が想像でつくりだしたiPhone11proもどきのことですか？,20-7-2020,
147,im clown,kumalalahitman,,and thats why im not getting iphone,20-7-2020,
148,𝕭𝖚𝖓𝖓𝖞🐰✨,bunny4604,,Huawei Y7 Pro 2019ไม่ตกจิงเราลองแล้วเราเพล้อทำตกจากตึกเราตกใจคิดว่าแตกแต่จริงไม่แตก,20-7-2020,
149,Coquito Sanchez600,sancheznz,,IPhone got smother hit,20-7-2020,
150,Wian Venter,wianventer5,,havai is not the best,20-7-2020,
151,i DIO t,beanot,,Part 3 try nokia vs all phone,20-7-2020,
152,Kelly,ktheshea,,The last one isn’t iPhone 11 Pro,20-7-2020,
153,xXShock_WaveXx,xxshock_wavexx,,Thus is not Huawei p 40,20-7-2020,
154,seloropi,seloropi,,I- none of the phones are what you said?! iPhone 11 Pro with homebutton,20-7-2020,
155,cò,tooiladucnha,,Thiện Style Thiện Style,20-7-2020,
156,Ranaldow,anthonymcguigan13o,,That's not huawei p40,20-7-2020,
157,Krzys Brak,krzysbrak,,A nie wiadomo czy reszta też pasuje,20-7-2020,
158,ĐạtGútBoi.!,thanhdat.02,,nói thật ss vs ip có màng hình là chất lượng tuyệt đối rất bền del phải mấy đồ tàu này,20-7-2020,
159,Noxuss,noxuss124,,vãi,20-7-2020,
160,Whatalife+++,livelifebeforeyouredead2,,So whats your point ......duuuuuu...??????,20-7-2020,
161,Zlínský muf,zlinsky_muf,,Kdyby ti praskliny byli aspoň tam kde mlatis tím kladivem 😂😂,20-7-2020,
162,$ur£$h❤️D££p@💕,sureshdeepa1426,,Huawei mate20pro👌❤️,20-7-2020,
163,Henry🙌 What's Good?,what5g00d,,But it's banned in America,20-7-2020,
164,彭彭,44ppponnn,,偷業配,20-7-2020,
165,user5906351017522,user5906351017522,,ㅇㅈㄹ,20-7-2020,
166,Pan man,pan.v.man,,t thề ko nhìn thấy cái nút home ở iphone 11Pro,20-7-2020,
167,蟾蜍yo,himan0101,,全都假的手機來測試。。。,20-7-2020,
168,user1598514400874,ultigulti,,That’s not iPhone 11 😶🤨,20-7-2020,
169,go away,flipoff___,,lmaoo he hit the androids way harder than the iphone,20-7-2020,
170,Shino,shishinooooo,,Yung iphone ko po hindi po nabasag kahit ilan ulit na nahulog 🤣,20-7-2020,
171,Queen,queen_sayhii,,Độ bền của Huawei liệu bằng cục gạch của Việt Nam?,20-7-2020,
172,Chivas,chivas2812,,"Iphone 11 vẫn chưa tràn viền hả các bác , với là huawei ăn cắp nút home của samsung nhanh thế :)))",20-7-2020,
173,예비,binnn_yeye,,11프로?,20-7-2020,
174,Alex,_alexisaragon,,11 pro with home buttom and earphone jack,20-7-2020,
175,Bảo Ngọc,baongoc292411,,"Thế đéo nào ip của e rơi nhẹ cái cường lực đéo sao vỡ mẹ màn hình bên trong, nà saoooooo",20-7-2020,
176,Hoàng Lăng,hl141092,,Kia có phải s20 đâu vs 11pro đâu còn huawei thì chịu,20-7-2020,
177,unknown,penyakat,,"that is actually quite biased, because human is not robot, they can't give same impact on each phone",20-7-2020,
178,An Phan,anphan248,,nó để chữ thế thôi chứ đéo đúng cài nào cả,20-7-2020,
179,An Phan,anphan248,,p40 vs ip11 có nút home :))),20-7-2020,
180,jun hye jin,junhyejin,,mk dùng note9 của ss mà vc cãi nhau mình ném vô tường mà mặt sau vỡ be bét mặt trước y nguyên h mk tháo cường lực dùng luôn con ném bồm bộp ks,20-7-2020,
181,K.E.W,kay_081085,,non of these phone is any of them he said it is ....,20-7-2020,
182,@kenken,ke1are,,iphone 6 hindi iphone 11,20-7-2020,
183,Ben Chan,benchan41,,It was i I phone 6,20-7-2020,
184,Louielee,louiejs29,,akin nalng yunh isa,20-7-2020,
185,దినేష్ శర్మ:🤍🕊️,shanan2517,,And its not p40 also,20-7-2020,
186,Sky🌌TBG🦀Iny,skyenter_meolun,,😆😆😆ip11 có nút home vkl,20-7-2020,
187,.,user83866693,,ㅅㅂㅋㅋㅋㅋㅋ,20-7-2020,
188,Jimmy,jimmywokando,,That was a new iphone 11,20-7-2020,
189,べべ,bebesalmontabetai,,ハウエイしか勝たん,20-7-2020,
190,TôiMai!! ❤️,toivanmai,,Tui đang dùng Huawei,20-7-2020,
191,khoa_15,khoa15z,,chả giống huawei p40,20-7-2020,
192,Tuấn Ngô,gialinhcomputer,,Vãi cả 11 pro :)),20-7-2020,
193,Hiếu nè 🙆🏻‍♂️,phantrunghieu16,,t xài s8p rớt quài sao đâu,20-7-2020,
194,Nguyễn Đức Huy,nguyenduc.huy23,,Vãi cả iphone 11 pro,20-7-2020,
195,@hmm...,ducthinh1873,,sao ko đập nokia đi,20-7-2020,
196,Jeff Wu,jeffyang1011,,騙我沒讀書嗎,20-7-2020,
197,Mít tơ khoai tỏi,guenankieto,,vâng s20 có cằm trên cằm dưới dày một khúc,20-7-2020,
198,あ,jrsjjvjrrjj,,iPhone11proじゃなくない？,20-7-2020,
199,ᄋᄋ,kiiil35,,가운데가 삼성 20은 애바고 갤럭시 3정도아님?,20-7-2020,
200,ᄋᄋ,kiiil35,,하외이 그냥 이미지 좋게할려는거아니냐 ㅋㅋ,20-7-2020,
201,hồng thắm,hongtham2508,,ip11 có nút home từ đâu đấy??,20-7-2020,
202,Nấm Nhỏ,namnho09,,Ip 11 nay có nút home luôn mn ạ kkkk,20-7-2020,
203,chun yêu Linh nhất trên đời 😘,merus_jp,,11pro có nút home ạ pro thật sự :),20-7-2020,
204,Andeng Urgel Arizala,andengurgelarizal,,Huawei,20-7-2020,
205,Nhựt Nguyễn,battu1997,,11 có home😂😂😂,20-7-2020,
206,Trung Hiếu 79,trunghieu79,,ngày xưa mê ss bây giờ mê Huawei. phải nói hw oke thật.,20-7-2020,
207,Duong chua co ten,duongdinh0112,,"nếu đc lấy free 1 trong 3 đt ở clip, ae chọn j, tôi là tôi chọn iPhone or samsung",20-7-2020,
208,ncrqt,n_crqt,,iphone 11 pro je meurs 😭,20-7-2020,
209,Cường Apple,cuongtmobile,,Đt rớt phải bể chứ ko bể ng ta sx dt mới ra sao bán đc🤣,20-7-2020,
210,༄༂ Ğà ༂࿐ 🥰,andynguyen159,,"Ờ ờ bữa nay dc mở mang kiến thức, iphone 11pro nút home nằm đó 😀",20-7-2020,
211,Thanh Hải,thanhhai15010,,Mày rảnh lắm !,20-7-2020,
212,なゆ,nayu9339,,割れてるとこと叩いてるとこ位置違うのはなんで？しかも全部スマホ違うじゃん！表示の機種と。,20-7-2020,
213,Hoàng khanh.,lhk01475,,Hưawei 3e t hôm bửa tk bạn t làm rớt từ trên lao phong nhà rớt xuống đất mà màng hình ko bị gì chỉ trầy ở sau,20-7-2020,
214,????,bluecorn5,,"Hưaei bền cực kì, rớt hơn 30 lần mà chả xước tí nào",20-7-2020,
215,月星,12345iloveub,,huawei หน้าจอมันทนจริงๆนะทุกคน,20-7-2020,
216,Joon trick,joontrick,,아이폰 11 아니고 아이폰 7 같은데,20-7-2020,
217,- Ngọc Lan -,ngoclan.xinchao,,"Nói là Hàng của Mỹ chất lượng , iPhone giả , hàng nháy bên VN đầy , nói kh thích Huawei , là nói phách , có tiền mua hay ..",20-7-2020,
218,Gấu🔰,gautrang233,,cái dầu ko phải samsung a20 nha a20 mình đang sài nè rớt quoài có bị gì đâu,20-7-2020,
219,Tik Toy12,tiktoy12,,Lol iphone pro hahahah,20-7-2020,
220,- Ngọc Lan -,ngoclan.xinchao,,"Hàng Trung Quốc lúc nào cũng chất lượng , tại vì Việt Nam ham rẻ , nên mua những hàng hóa dỗm bên nó , còn đt Huawei , mới ra đã vượt mặt Mỹ rồi",20-7-2020,
221,ㅇ,shj070303,,튼튼하면뭐해 성능이 못따라잡는데,20-7-2020,
222,NK,nikamrlrzq,,thats not s20 lol,20-7-2020,
223,Liam Archer,liamarcher1,,thats not the s20 😂,20-7-2020,
224,David Rajh,daviddavorajh,,damn bro that the new gen phones? 😂😂,20-7-2020,
225,Miguel Railey🇵🇭,gwapolangmalakas,,Samsung S20 di talaga yan matibay.dapat tinapat mo sa Samsung Galaxy On 7 Prime awan ku lang kung may masabi pa yang Huawei na yan😂HAHAHAHA,20-7-2020,
226,Nguyên Bùi,shuuichi0201,,??? 11pro có nút home à,20-7-2020,
227,Cath,justmecathy_,,Huawei user,20-7-2020,
228,Nhung'x Nhii,nhungnhii2002,,Ip6 thì có,20-7-2020,
229,隨遇而安～台灣二叔,begreen8899,,P40沒敲角落但裂的卻是右下角⋯⋯⋯⋯,20-7-2020,
230,☘️Trần Nguyễn Kim Như☘️,blackgold2132,,team Oppo,20-7-2020,
231,sarah,sarahaisyahhhh,,iphone eleven pro ada button naaaaaa,20-7-2020,
232,Mike_Fox,mike_fox777,,where is the i phone 11 pro?,20-7-2020,
233,Joyce,han6357,,Mn xài ip rớt bị bể ạ @@ sao em rớt mà k bị làm sao này rớt nhẹ rớt mạnh cũng có @@,20-7-2020,
234,Joy Zhong,joyzhong0,,That is iPhone 6,20-7-2020,
235,신예림,yerim._.08,,누가 저걸 삼성S20라고 말할까요?,20-7-2020,
236,joemdoroyvlog,joemdoroyvlog,,huawei,20-7-2020,
237,Parinya Insuwan,pao_mcjeans,,s20 ไม่ได้สั่นขนาดนี้นะยูวววว,20-7-2020,
238,....,linh18_10,,Iphone 6 pro 🤣,20-7-2020,
239,Truong Nguyen,truongnguyen1796,,Nokia 3 chức năng lướt qua cười nhẹ,20-7-2020,
240,ザイ,miongieshin,,iphone pro lang po please pooo,20-7-2020,
241,Tran Đức Duy. 20E,thainguyen20e,,vừa hum qua bán Huawei xong,20-7-2020,
242,Chanh🍋,chanh_2k2_,,"là như nào
sao lại iphone 11",20-7-2020,
243,Trần Quang,dttranquang,,11 pro nút home ư .,20-7-2020,
244,Nguyễn Văn Chung,__nguyen_van_chung__,,huawei đấy là p20p mà 😂😂😂,20-7-2020,
245,Nguyễn Khiêm,ndk710,,Con iphone đời tống dùng kính grorilla đời cổ bảo sao nó ko bể. Nếu so thì phải so 3 con cùng dùng grorilla glass 5,20-7-2020,
246,De Ssa,de_ssa,,not an iphone 11 pro.,20-7-2020,
247,Chu Quang Huy,chuquanghuy003,,Đập máy tui nè máy ko cường lực j rơi trên tầng 2 suống vs đi xe rơi ko vỡ mà chỉ cong khung màn zin của eppo,20-7-2020,
248,user5280526837263,kadamanie,,loll you r sneaky,20-7-2020,
249,Iya,alyssam.r,,Thats not an iphone 11 pro. Who are u joking lol,20-7-2020,
250,Lan Anh,ananjp113,,Ghi ip11pro mà mở ra là máy 6 :))),20-7-2020,
251,𝙏𝙪𝙮𝙚𝙩 𝘽𝙖𝙣𝙜 🦋,bangday_06,,M đang dùng huawei,20-7-2020,
252,Huỳnh Quốc Cường,user1f15vgygrx5,,Ip11 pro đấy các bạn à mình del nói là ip6 đâu,20-7-2020,
253,Wo•Cin,_tie19.nuy,,Haha IP11 pro có nút home,20-7-2020,
254,3399 Cai,3399cai,,是吗？那你用华为好了没人阻拦你,20-7-2020,
255,Đô,dododayy_,,S20?,20-7-2020,
256,Mạnh Tường ❤️,abcabc47,,Promax có nút home lun ghê đấy,20-7-2020,
257,Duc Nguyen,ducnguyendbp,,tôi mua ip11 về đang định đi khoe thì nó rớt mẹ xuống đất khóc như mưa 😭😭😭,20-7-2020,
258,FordSmith_06,_fordtzy,,That was not an iPhone 11 lol.,20-7-2020,
259,Koyjki,koyjki12,,wao iphone 11pro kìa ._. s cua nút home hay thế,20-7-2020,
260,Darr Carr,darrcarr08,,Water test next.. a actually dropped ma iPhone XR in ma hot tub still works fine😂,20-7-2020,
261,Nguyễn Quân,quan_trym_ngan,,"năm lớp 10 tới h toàn xài ip
tháng trước tậu con Realme 3 ngày sạc pin lần thế là bỏ qua cmn ip luôn",20-7-2020,
262,-HùNg MiNhon🔫,hungppg,,Tín đồ ip đâu rồi ạ chưa dùng ss hw op bh ạ,20-7-2020,
263,Chhay_Official168,chhayofficial168,,11 pro Mak U 😌😌😌,20-7-2020,
264,Pres Snow,pres.snow,,nokia left other phones..,20-7-2020,
265,"9/16 오승효님 20,040원",ohdom_7,,아이폰 11프로에 홈버튼이 있냐,20-7-2020,
266,😂😏😏🤣,maivannghia2605,,Cho t huawei t còn đập vào mặt cho ý. 😅 Do not use Chinese goods,20-7-2020,
267,<3M e Annuzz<3,your_fav_italian0.0,,Ma non è un iPhone 11,31-7-2020,
268,@うまみさん,umamisan,,元から割れてない保証はない,20-7-2020,
269,ポポポ,kenny_aew,,ハッキリ言ってAndroidの機能を使いこなせる自信無いから、安定のiPhoneにしてる,20-7-2020,
270,bookstar,www.sunflower1212,,p40じゃないやんp20だし笑笑笑,20-7-2020,
271,人生萎え萎え,nemui_nida,,よくみたら、iPhone11プロじゃなくねwwwwwwwww,20-7-2020,
272,.,amdjsm1,,엄..... 눈을 장식으로 달고다니나 아님 글쎄룰 못읽나..,20-7-2020,
273,ma-chan,setubi419,,中華は❌,20-7-2020,
274,Nguyễn Hoàng Long,nhl242004,,nokia,20-7-2020,
275,Cristian Que Mas Da,crstaffy,,Eso se parece más al 33.10 que al 11 pro.. Jajajaj,20-7-2020,
276,elisagpe1701,elisagpe1701,,"No es Huawei p40 es el p20 pro o lite, no es el iphone 11 pro es el 6s(creo) No es Samsung s20 es otra marca",12-8-2020,
277,Lucka,caika_ck,,c'est un iPhone moin 11 pro,20-7-2020,
278,Alex,le.catalan.du.66,,C’est pas un iPhone 11,21-7-2020,
279,Dalton Tuhs,daltontuhs,,lol... that's not an S20 nor 11prob😅😅😅👐,7-11-2020,
280,yong park,yongpark11,,이미 깨어놓은것,15-10-2020,
281,郭xx,MS4wLjABAAAAWn9xGLRUuo79-JL3n8B8ISQDZ2YMd1EKSKdUSxyHVj7ShLVXTEcSXxhkbYCseKqn,,意思是 沒鐵鎚 可以拿華為手機來敲打 捶擊 捶釘子了 😂😂😂,6-9-2020,
282,ㅅ인새ㄲ 루피,momcatke,,삼성은 5인데 20아니라ㅋㅋㅋ,28-8-2020,
283,nguyenlong.ln1710150,nguyenlong.ln,,Huawei vẫn là trâu bò nhất trong từng phân khúc,28-8-2020,
284,-V,.bihxz__,,where that is iPhone 11.,24-8-2020,
285,카트올린다,computer1112,,아휴 불쌍해 중고나라 사기당했구나,23-8-2020,
286,Escuela De Arte Tale,artetalentos,,Te engañaron con el iPhone 11 ese no es,20-8-2020,
287,Sammie Sousa,sammyst20,,Since y’all can break up all these phones give a bro one iPhone,20-8-2020,
288,𝙰𝚛𝚒𝚊𝚗𝚊 𝚌𝚑𝚎𝚌𝚔,y............i,,Kto zauważył że on używa tych samych telefonów,18-8-2020,
289,순한국인,syaral1,,아이폰 어떤날에는 안깨지고 어떤날에는 잘깨지는거냐?,15-8-2020,
290,🫠🫠,pazdan.pan,,@mrs.chmurkaa chyba go pogieło😳 on se telefony na tym koncie rozwala,13-8-2020,
291,햄뚱c,hamddungc,,s20짝퉁썼누ㅋㅋ할거면 제대로 하등가 돈없고 겁많고 찌질해서 s20짝퉁쓰노ㅋㅋ,10-8-2020,
292,동해물과백두,tomok1992,,"원래 깨져있는 폰들 가지고 조작영상 찍은겁니다.
화이폰도 때리지 않은 귀퉁이가 깨져있네.😬",9-8-2020,
293,젤브백만장자,charlotte20230,,It is not Samsung S20,8-8-2020,
294,Charles Compagnat,charles_comp,,C’est un iPhone 7,5-8-2020,
295,VvbbbbbvvBhsgsjssh,unbekannt2317,,Huawei p40,29-7-2020,
296,i have ADHD,.blurtz,,that's a iPhone six not a 11,23-7-2020,
297,[N I A]💫,jinia0512,,응 여러번 말하지만 S20저렇게 안생김,23-7-2020,
298,Lil glow stick😋 follow4follow,ilove._.turtles,,we can clearly see he hit the Samsung harder🙁,23-7-2020,
299,xg734,redimpasta,,How My Phone Is Huawei,21-7-2020,
300,NeoxxoeN,neoxkkusu,,c même pas un iPhone 11 pro max c est un iPhone 5,21-7-2020,
301,Ryan7M,ryanmonty06,,The Samsung it still cracked lol,21-7-2020,
302,H,h0.827,,なにが11proな,20-7-2020,
303,beverlysecula,chris7717,,C’est pas un iPhone 11 pro,20-7-2020,
304,calabras2008,calabras20084,,È un iPhone 7 o6,20-7-2020,
305,keven Lupekula,paullupekula,,🤣 🤣 🤣 🤣,20-7-2020,
306,dazadan,dazadan,,🤣,20-7-2020,
307,나녕ෆ,08_lny,,응 하웨이망함,20-7-2020,
308,梅干し〆戦犯,sarmon224,,アイフォンバッキバキで草,20-7-2020,
309,버블티무리 공동계,asdfg6013,,어쩼든 삼성이 최고야,20-7-2020,
310,c_ae.w_,cw_0310,,아 근데 나 폰만 유별난건지 모르겠는데 2년 삼성쓰고 4년 애플쓰고있는데 삼성은 잘 깨져서 존나 갈았는데 아이폰 4년 쓰면서 한번도 깨친적 없음 이건 쓰는사람 나름인듯,20-7-2020,
311,precios,precios_m,,thats not iphone 11 and samsung s20,20-7-2020,
312,俺,meromero4541,,GALAXY S20じゃないぞw,20-7-2020,
313,Alicia❤️,aschiwow,,iPhone,20-7-2020,
314,🥶,johnmarston246,,huihai,20-7-2020,
315,픞,gai487,,아 저 이폰쓰기 전에 하웨이 썻는데 개 구림 맞는 핸폰케이스도 없음 일딴 죤나 랙심함 결론 개구림,20-7-2020,
316,ngghz_95,ngghz_97,,"samsung mình rớt mấy trăm lần rồi mà vẫn chưa bể
huwei chị mình mới mua rớt phát hư",20-7-2020,
317,‍ ‍ ‍ ‍ ‍ ‍ ‍ ‍ ‍ ‍ ‍ ‍ ‍,mins09127,,저사람 기종을 속이네...딱 크기부터가 s20아니거 티나구용아이폰11 홈버튼없구용 딱봐도 티나영,20-7-2020,
318,Thomas.johnston,thomas.johnston355,,iPhone 6,20-7-2020,
319,Kimtelv,husbandokosiarmin,,i thought ita a jump scare😅,20-7-2020,
320,•w•,hahshshshha7,,아이폰 11pro 홈버튼 없고 배젤 얇은데,20-7-2020,
321,Phát ó,iam_phat7a4,,"Đéo phải Galaxy S20
Đó S8 mà",20-7-2020,
322,Merry crystmas,clor.de.ochi1,,Imprimeul rând nu este nici un samsung s20 si huawei p40 si nici iPhone 11 pro,20-7-2020,
323,meodangbun♡,baohan._010,,sanie sanie,20-7-2020,
324,"PARK,SUNWOO",parksunwoo0204,,나만 아깝다고 생각했나.,20-7-2020,
325,도경,jdjziakakxnxn,,까고 싶으면 그냥 까 돌려까지말고 이 까마귀야,20-7-2020,
326,ARMY ♥️,airahpatricebalaba,,that is not a iPhone 11 pro but it's a iPhone,20-7-2020,
327,m3th0d1cal,meth0dical,,"Not iphone11, bet they were all broke before. Covered with the paper. Lame",20-7-2020,
328,Hiếu nè...🙂,dgyjuryugdethyff,,"mọi người nhìn lại đt, đi nhé. họ trộn vị trí giữa con sam và huweai",20-7-2020,
329,ㅋ,se0h3i,,저게 아이폰11이라고?,20-7-2020,
330,jaime,jaimevittorio,,Bruh!,20-7-2020,
331,_kiriakos_,kiriakos_tsit,,Αυτό δεν είναι το huawei p40,20-7-2020,
332,Aby,aby_dthr,,c'est pas un s20,20-7-2020,
333,Kelly,ktheshea,,Huawei P40 is the best protected phone,20-7-2020,
334,︎ ︎ ︎︎ ︎ ︎︎ ︎ ︎︎ ︎ ︎︎ ︎ ︎︎ ︎ ︎,blox_piece4,,Huawei is the best yay,20-7-2020,
335,Bread👍,cat_15739,,iPhone is the best,20-7-2020,
336,zxcvbnm,lohstalkerka,,huawei sa left side sa gitna samsung sa right side is apple,20-7-2020,
337,Xander👻👻,160cha,,媽原來騎那時候是買iphone11給我喔,20-7-2020,
338,Photo_,photo_4,,iphone11proの所、iPhone6になってますね,20-7-2020,
339,えびてんりゅう,ebitenryu,,iPhone11にホームボタンはないのに動画のiPhoneにはホームボタンがあるってことだろ,20-7-2020,
340,葉,123ab827,,把P40換成P90😂😂,20-7-2020,
341,Bossᵛᶰ🌸Mồn Lèo🌸,kymatto_2004,,Màn hình của ipad khó vỡ lắm,20-7-2020,
342,Elias haha1,elias_re_con,,not pro max 11,20-7-2020,
343,♡,banhmikh,,Nokia vẫn là huyền thoại!,20-7-2020,
344,♡,banhmikh,,T sài Huawei vs IPhone nè:)),20-7-2020,
345,Terry,terrushh__,,THATS NOT IPHONE 11 PRO,20-7-2020,
346,daniel caspers,actie_slippers,,Yeet,20-7-2020,
347,darksider,darksidersking,,did u tried Alcatel made of nokia,20-7-2020,
348,𝑯𝑰𝑹𝑶,lexus_rc300_trd,,11proじゃなくて草,20-7-2020,
349,I wont be posting now,pubg1231232,,They were already broken,20-7-2020,
350,FB:Mink Nguyễn👶,haohanbrovip,,tao cho nokia vào,20-7-2020,
351,zellestiffany,zelle0910,,vivo po plsss,20-7-2020,
352,N ◡̈,nataliextoh,,its not iphone 11 pro LOLLL,20-7-2020,
353,✨TY FOR 1.2K✨,ninacuk,,I have huawei p40 lite,20-7-2020,
354,ツウィ鉄〆おみちゅ No war,omichu1043,,iPhone11 Proじゃなくて草,20-7-2020,
355,Rice-2525,rice25252,,"毎回思う事(機種違うやん
書いてるのと)",20-7-2020,
356,소미언니의 미소,jihoo102,,망치로 안 하면되겠네,20-7-2020,
357,Súc vật biển,useresw1hms85,,thách mày đập nokia,20-7-2020,
358,Thanh Thảo,thanhthao2906,,iphone 11 pro mà có nút home đâu ra z,20-7-2020,
359,Marianne❤️❤️,mariannemae02,,any phone,20-7-2020,
360,Otto,ottol03,,IPhone 11 pro🤣🤣🤣,20-7-2020,
361,펜트하우스 처돌이,penthouse_lover,,핸드폰이 아깝다면 당신은 한국인입니다^^,20-7-2020,
362,🌸🦒,baikina2005,,아이폰 11이 홈버튼 있는 건 또 무슨 경우ㅇㅑㅋㅋㅎㅋㅎㅋㅎㅋㅎㅋ,20-7-2020,
363,まゆ,mayuri0722,,Huawei一瞬で割れたよ？,20-7-2020,
364,찬민,jdjeehdjdj,,신,20-7-2020,
365,P. Anh 😊😊😊,userdp6ganxg2c,,Mik vẫn đg dùng HUAWEI,20-7-2020,
366,Lä Nörinthörng,norinthorng,,ok no,20-7-2020,
367,Nhã,nguyenminhnha23,,Đó ko phải iphone 11,20-7-2020,
368,ProMax,titdepzai2017,,Vãi cái 11pro của hãng nào thế,20-7-2020,
369,★제페토 처리단 관짝형님★,_minwoong_,,아이폰8보고 아이폰11프로라고하는 그는 도대체?,20-7-2020,
370,Gkệ Đíc léc của InuiSeishu,ha_vititus,,lúc trước sài huawei bền thật em nó rớt từ cầu thang xuống cũng kh bể =)),20-7-2020,
371,Nguyễn Văn Thông,thong29122000,,mua về để dùng chứ có phải mua về để phá đâu mà cần bền,20-7-2020,
372,SendNoodles🥵,nomoresaitamaplease,,"Samsung s20 doesn't look like that,and that iphone 11 pro max is IPHONE 6 lol",20-7-2020,
373,Mai Hoàng,hawnmine,,Má lấy búa đập thế thì cái nào chả đi đời hả người😂,20-7-2020,
374,하루하루 찬원해💛,lee.ye.ln,,저거 절대S20아님,20-7-2020,
375,shiva ngáo chóㅤ ×͜×,ez_127,,sao chúng mày bằng được con Nokia,20-7-2020,
376,Noodles,noodles2378,,Hahahha😂😂 liked by creator?,20-7-2020,
377,딤_,nanensingmail.com,,울아빠 삼성S20이다 제작자!!,20-7-2020,
378,Aidi Leong,johnlwan,,but last phone no is iphone 11,20-7-2020,
379,Weasley,ziquepan,,Bruh that's not the Galaxy S20,20-7-2020,
380,ㅇ,ykykyung,,저거 삼성s20아님,20-7-2020,
381,thongg_2210,thong_2210,,ngoài lề 1 tí. dùng vivo bị con em lấy điện thoại ném từ trong nhà ra ngoài sân ko vỡ,20-7-2020,
382,Khương Duy,duykhuong1122,,"huawei thiết kế bền lắm.
t chơi game cay cú quad toàn đáp vào bờ tường.
đến giờ cũng thay 3 con huawei rồi :))",20-7-2020,
383,Jacob,prncsyhna,,that's not p40,20-7-2020,
384,⸙𝘀𝗵𝗶𝗲𝗹𝗮𝗮𝗮⸙,itsshielaa._,,Android is the best,20-7-2020,
385,이서현,s___h_08,,"나 s20인데., 저거 아닌디...",20-7-2020,
386,mingming,m1minggg,,k bye i will buy Huawei,20-7-2020,
387,bograt,besprennibajilober664,,try nokia,20-7-2020,
388,jasminnn,jsmx.drbz,,Maganda camera Ng iPhone di Naman matibay Hhahah😂Yung iPhone Yung pinaka wasak! hahaha,20-7-2020,
389,"Ryu、、,🦕⋆͛",rpm699,,11proはホームボタンないよ❤,20-7-2020,
390,👑메롱👑,didtjdus292,,솔직히 이거 삼성만 존나 세게 쳤다,20-7-2020,
391,.,1284628dhh,,그래도 짱깨거 안씀,20-7-2020,
392,thế là sao?,nlanxinhquao,,Ip11 pro ???????,20-7-2020,
393,Thegunner,themethic,,where's oppo that's hard to break,20-7-2020,
394,🐥『Phunieday 』🐥,macngocbinh,,Đâu phải iPhone 11 pro max đâu,20-7-2020,
395,적당히하세요,kimseokjin_cheodolyee,,11pro에 홈버튼이 왜 있고 S20도 아닌데 ㅋㅋㅋㅋ,20-7-2020,
396,Hayden,hay_dont_6,,none of those were the right phones,20-7-2020,
397,Sugar Nguyễn,sugar270495,,P40 có nút,20-7-2020,
398,DuckBoy^^,k12345678k4,,Nokia is the best,20-7-2020,
399,Hiếu Nguyễn,1234567hieu4,,"Vậy là mấy bn chưa biết đến asus rồi , mà cái 11 có nút home nha ae",20-7-2020,
400,Hiếu Nguyễn,1234567hieu4,,"Á đù 11 loại mới hả ae , có phím home vs lỗ cắm tay nghe kìa",20-7-2020,
401,Khương Xoan,khuongxoan.96,,11 pro mà có lỗ cắm tai nghe tròn. Chắc bản giới hạn dành cho ai ko biết 😂,20-7-2020,
402,hoàng huy,hoanghuy2u1,,Vkl huawei có nút home,20-7-2020,
403,Kobe Bryant fan,rawley0609,,I’ve literally seen like five TickTock say were people said this is an iPhone 11 Pro and it’s an iPhone 6,20-7-2020,
404,1111,apples123456780,,これ信じてる人いたりする？,20-7-2020,
405,Tisnie [thuytrang],tisnie.day,,"Samsung
Rớt màn hình thì k bể
Nhưng bể mặt sau (mặt sau làm bằng kính hay gì ấy)",20-7-2020,
406,かえる,yuig0nhahureaidoubutuen,,フィルム貼ってなかったらそりゃねぇ、,20-7-2020,
407,Vadelina,vadelina80,,Not ipone 11 pro what 😅,20-7-2020,
408,Nguyễn Đức Thắng,nguyenducthang35,,ip6 kêu 11,20-7-2020,
409,lostboy,lostboy_2912,,"first; that is not Galaxy S20, second; that is not huawei P40, third; that is not iPhone 11 Pro",20-7-2020,
410,QQGLEND,qqglend,,其實只是螢幕本來就破了,20-7-2020,
411,Suneater❀♚,suneater_shy,,Dude the last one is not iPhone 11,20-7-2020,
412,Thái Thuận,thaithuan1100,,nokia cục gạch hân hạnh tài trợ chương trình này😆😆😆😆,20-7-2020,
413,Nguyễn Quỳnh Như,qinnhhu,,11 pro có nút home 🤣🤣,20-7-2020,
414,Hae San,phamhaison2504,,ip11 có nút home🤔,20-7-2020,
415,たんぽぽ,userln6dgbeuj8,,iPhone弱,20-7-2020,
416,Anto Jr.,antojr16,,wkwkk sama samsung dgn iphone kuat dia mukul yg tengah gak,6-9-2020,
417,Kamilly Miranda,kaahmiranda,,O s20 não é s20 e o iPhone 11 pro é o 6 😂😂😂,5-9-2020,
418,meliodas et minato,itzz._.melinato,,depuis quand sa exicte les Huawei P40 ?😂,13-8-2020,
419,SmallLittleShort,kashmadi,,@starz2 c'est un iphone pro c'est pas une ipad air ou l'ipad 2 donc sa va x),20-7-2020,
420,.,_luca..senpaii,,Am az iphone 7vagy8 nez ki a legjobban nekem valamiert tetszenek a torott telok,20-7-2020,
421,Joni,claudialeinekugel,,Er vertauscht immer die Marken 👈👉,18-5-2021,
422,Jan Schwemm,jansch1991,,Nur das es kein iPhone 11 Pro ist also Fake,20-7-2020,
423,Dirtbike_HD,dirtbike_hd,,Fasest nicht mal ein iPhone 11 lost,20-7-2020,
424,Eliah_2106,eligomp,,kein S20 und kein Huawei P40 was nen Fake,20-7-2020,
425,Own,aun2020,,Nokia phone in olden days would break that 🔨 hammer.,20-7-2020,
426,Hiếu Búa,hieu.kaisoul,,chổ đập éo bể.. Bể chổ ko đập.. Vkl,20-7-2020,
427,Beng Lung,thuykieubn99,,chơi đập hết sức với cục gạch-Huwei-Sam sung đi,20-7-2020,
428,the dude,thedude277,,is geen 11 pro,20-7-2020,
429,Rambo,rambo.0000,,Wat een koekenbakker....iphone 11 pro met home button 😂😂😂😂,20-7-2020,
430,Nguyễn Nguyễn,userjhoq3qad6h,,Nokia chấp tất,20-7-2020,
431,fumiko,chaneloberlin48,,huawei,20-7-2020,
432,Amlan Dhall,rock_on_amlan,,That’s not even a 11pro,20-7-2020,
433,😜,ayegimena,,Iphone 11? Really with a home button??,20-7-2020,
434,Jsw987,jsw987,,Huawei is the honor 9!,20-7-2020,
435,gonzales balasoiu,gonzalesbalasoiu,,Muhhaahhahaha,20-7-2020,
436,♥︎♧︎꧁𝕤𝕦꧂♧︎♥︎,linh_su_0401,,Ip11 pro ???,20-7-2020,
437,Dũng Nguyễn,user7xn42lxdmg,,cái iphone6 plus bảo 11pro,20-7-2020,
438,user1875070396174,pa.sim,,its not a s20,20-7-2020,
439,lee wilson,leewilson74,,all I'm getting from this is don't hit your phone with a hammer 😁👍,20-7-2020,
440,LoaQuốcDân,gialoctran,,nokia nghía xem xong cười nhẹ 😎😎,20-7-2020,
441,Alex Böhm ,alexibexi,,Fake,20-7-2020,
442,Maha 😍😍,imheldhostage2,,this guys kinds annoying it'd a iPhone 6 not 11 HDODNDKDKNDKSHW8KWBDODNDB,22-7-2020,
443,Mr. 04,thanhtri47,,@Mr. 04::chuẩn bị có thằng thiện Style vào comment đấy,20-7-2020,
444,🇧🇷Nhora🇮🇹,leonhora,,ma perché toglie i likeeeeeeeeeeee🤣😂🤣😂😂😂🤣😂🤣🤣🤣😂😂😂😂😂😂😂🤣🤣🤣😂😂misteri di tik tok,21-7-2020,
445,_hellgt,hellgt_0908,,#fake,20-7-2020,
446,😀,pommessuchti123,,save kein Fake hust hust,20-7-2020,
447,david⚽🏆🏅🥇,just_football_no.1,,samsung da best iphone sucks,20-7-2020,
448,Kew,gooburrum,,The damage didn’t match where the hammer impacted. I call fake.,20-7-2020,
449,ผมอยากเป็นโฮคาเงะ,thiraphat207,,ใจเย็นพ้อหนุ่ม11โปรบ้านไหนมึงปุ่มโฮม,20-7-2020,
450,user6935726379491,sexualinnuendoodoo,,Fake? check out where the hammer hits and check out where the dents are on reveal. Different locations. Chinese propaganda to promote their phones?,20-7-2020,
451,user9819071914733,war2980,,"fake, de tikken matchen niet met de plekken op de beeldschermen",20-7-2020,
452,Jay,m7cvo,,No where near iPhone 11 Pro ??? Another fake TIK TOK 🤣🤣🤣,20-7-2020,
453,Demented potato,xxx_dementedpotato_xxx,,😂🤣😂🤣😂🤣😂🤣😂🤣😂🤣 Huawei sucks,20-7-2020,
454,Vusi Soviya,vusisoviya,,lies,20-7-2020,
455,1solitaire,1solitaire,,FULL FAKE,20-7-2020,
456,hellothere135,kalkun135,,fake,20-7-2020,
457,🇹🇷,brx_aux,,Netter fake,20-7-2020,
458,Jey Jhonson,jeremyjhonson6,,fake,20-7-2020,
459,María,zayayuh,,FAKE,20-7-2020,
460,Victoors3,victoors3,,Fake,20-7-2020,
461,jasa pembikin anak,aniktaik,,all fake,20-7-2020,
462,✨JeSsiCA✨👁️👄👁️,jessica_raro,,this creator is a liar,20-7-2020,
463,JT,jerryjira78,,นิสัยไม่ดี,20-7-2020,
464,박창현,parkchanghyun6,,"딱 봐도 주작
아이폰 11 아닌거 딱봐도 암",20-7-2020,
465,sar paul,saranipaul7,,Hammer strike on S20 and smashed areas are totally different. Total time waste . FAKE video.,20-7-2020,
466,Video loading,lara.strnad,,This is not iPhone 11 pro 🤦🏽‍♀️,19-9-2020,
467,hi,._1233456789,,That’s not iPhone 11 pro cause they don’t have a button on them,20-7-2020,
468,Beau Buchanan,beaubuchanan4,,"Damm it Russia, stop it lol",20-7-2020,
469,user9847914253306,sjw007,,Breaking news: Chinese government sponsored app / account shows how a Chinese phone is the best!,20-7-2020,
470,Adam Comiskey,adamcomiskey,,oh look.....they are all smashed 🥱🥱🥱,20-7-2020,
471,SHAINA LOUISE,shainalouise4,,iphone 11 pro with a home button? you’ve got to be kidding me,20-7-2020,
472,YepHi,ermmmuhhhhello,,this post is just saying how brain-dead or blind thid guys is I guess 🤣,20-7-2020,
473,user2863186279760,user2863186279760,,Why test phones with hammer? Do you test speakers with a knive? Meaningless.,20-7-2020,
474,Johnny,jonny7979,,I typically test phones by calling people or throw in the occasional text. I use a hammer on a nail. Not sure what is being “tested” here.,20-7-2020,
475,Cos,cos0092,,Nice try Chinese government,20-7-2020,
476,Terry Balatoga,terry.b69,,"Basically, if you buy a phone, do not take the ‘free hammer with every phone’ option!!",20-7-2020,
477,jasonblitz89,jasonblitz89,,that's a p20,20-7-2020,
478,Binibining Syi🦋,ateshi,,huwawei number 1,20-7-2020,
479,001,qwertym06,,try it with asus next time with extra hammering.,20-7-2020,
480,H,gamingundhistory,,Det är ju it S20!,19-7-2020,
481,Vkofheo,uvkheo,,Ip8plus dan cuong lực nào bền mn mỏng thì sợ dể bể r ăn luôn màn hình dầy thi vừa dán zề nhà là bể góc,19-7-2020,
482,user1610770931803,user1610770931803,,Kul att alla bara har hakat upp sig på att det inte är en iphone 11 när de andra 2 telefonerna inte heller stämmer,19-7-2020,
483,정운화,user0w32z18j89,,튼튼한거 바라면 벽돌을쓰지 하웨이는 안써,18-7-2020,
484,user963156,stella_7p,,@melina.l3.9 @caityy_crazzyy,19-7-2020,
485,Der Einstein 👉🧠😁,alberteinstein.official,,iPhone 11 pro 😂😂😂,19-7-2020,
486,Unknown,wilanhun1,,Furcsa a Samsung telóm leesett már minden honan és semmi baja,18-7-2020,
487,:),jxsmxn.007,,Cool iPhone 11 pro mir nem Homebutton?!😳😂,19-7-2020,
488,joaqim lawrence,joaqimlance78,,"this is way america wants huawei outta the game , they too good",18-7-2020,
489,🐊🐊,joel._.60,,alle sagen das es kein iPhone 11 ist aber hat schon jemand darüber gesprochen dass links eigentlich das Samsung sein sollte aber ein Huawei liegt,18-7-2020,
490,Anya hozd a bankkártyát!4!4!!,nkd_csak_erik,,A huawei a legjobb,18-7-2020,
491,Tala Alhalabi♡,tala_alhalabi,,samsung s20 oxå haha vad smart,18-7-2020,
492,lohannco,lohannco,,mais aucun des téléphones correspond 😭,18-7-2020,
493,Máté Móricz,moriczmate,,nem is p40 volt,18-7-2020,
494,grzesio2,grzesio.2,,@karolekk____,18-7-2020,
495,Leo,leonie1009balu0616,,Das ist iPhone 6 oder so,18-7-2020,
496,Men hallå,tomatsasmedpasta,,iPhone 11 PRO excuse me?,18-7-2020,
497,<3,sultkrumplisovaal,,Azott 100%nem Huawei p 40 volt mert nekem lite van éy nagyon hasonló meg a IP se az🤣,18-7-2020,
498,69-911,christoffe20,,3 iPhone 5,18-7-2020,
499,Childish Gambino is my husband,orkedyaischgeil,,Huawei best ❤️❤️❤️❤️,18-7-2020,
500,Lydia Grenier,lydiagrenier1,,@lilx.jojo 😁,18-7-2020,
501,Brawl Stars😍😍😍,robert88990,,Huawei Beste Handy,18-7-2020,
502,raphaelbaum,raphaelbaum103,,@goascht_theking,18-7-2020,
503,𝓥𝓪𝓵𝓵𝓲,vallix_x.sheeeesh,,@raphaelbaum103,18-7-2020,
504,LaSainteBaguette,lasaintebaguette,,"C'est vachement un s20, p40 et un iPhone 11",18-7-2020,
505,Kerows,kerows,,我個人對FN P90比較感興趣,18-7-2020,
506,Rebeka,burjanrebeka_,,@borigombocz iphone 11 ugyeh?,18-7-2020,
507,L E N A 🤍,lxna._.153,,wenn das nh iPhone 11 ist was für ein iPhone hab ich dann?😂,18-7-2020,
508,:),rand0m.stuxff,,Also ich konnte mein Handy durch die Gegend werfen und es ging nicht kaputt,18-7-2020,
509,rn gabe,gqbe.aaa,,thats not a samsung s20,18-7-2020,
510,주리,dkwwgkgo,,11pro ㅅㅂㅋㅋㅋㅋㅋ홈버튼만없으면 그냥속아넘어가는데 ㅋㅋㅅㅋㅅ,18-7-2020,
511,Tài Lương,MS4wLjABAAAA993NhOuNFirnyBWUIEgLeJbzaswGYdRZLazUiysRoUfiBd2FvVyeaf_ohwL-gaOi,,đã bảo đừng hút kịch khi biên cần rồi,18-7-2020,
512,Emil,emil040929,,it is not even s20 it is s9,18-7-2020,
513,Love🦋,lanax_09,,JA KLAR IPHONE 11 PRO,18-7-2020,
514,Antonia,vp_antonia,,Das ist ein iPhone 6 oder so aber kein iPhone 11🙄,18-7-2020,
515,Jessy,das.boese.wesen,,@mann_von_unreales_wesen,18-7-2020,
516,F1 forever🏎,_vnd.pi,,Az nem is egy p40!,18-7-2020,
517,user8552508788293,cs726,,De amugy elore be van torve szerintem es nemis iphone 11pro,18-7-2020,
518,Solimotaroro,solimotaroro,,Alle die im Huawei Team sind ➡️,18-7-2020,
519,𝑴𝑹 𝑷𝑳𝑨𝒀𝑨𝒁,mrplayaz,,C’est un iphone 4s je crois 🤡,18-7-2020,
520,rotinas_todays,us3r123451,,nem era iPhone 11 🤣,18-7-2020,
521,Jenny ♥️,__jenny_13,,Mdrr c’est pas un iPhone 11 pro,18-7-2020,
522,Senna,s.enna_r,,@r.heeseexx,18-7-2020,
523,MR.RAT,alpha_rat.i,,Dieser Moment wenn man sich net mit Handys auskennt:,18-7-2020,
524,🖤Stejky🖤,stejsky32,,itsnot iphone 11pro,18-7-2020,
525,Tim,timox_pro,,samsung Team ➡️,18-7-2020,
526,Love🦋,_blac_k_,,iphone 11 pro 😆😆😆😆😆,18-7-2020,
527,knp,_nhttt,,Lag ghê,18-7-2020,
528,Sołtys365,soltys365,,@mateuszmyla,18-7-2020,
529,Chayennaaa_xx,de.echte.chayenna.lolll,,@elinvanbaarsen @nora090277 @geeleheiligebanaan,18-7-2020,
530,melia_tonya,melia_tonya,,en même temps qu'elle idée de faire sa wsh,18-7-2020,
531,B. Neckář,bartneckar,,to bude tím ochranným sklem,18-7-2020,
532,Chen,mariteslim0,,So？Point is?!,18-7-2020,
533,Vanessza✨❤️,_vanesszaa__,,Az iphone 11 pron nincs főgomb😩,18-7-2020,
534,dion.01ksvv,dion.01ksvv,,Auf wish halt 😂😂,18-7-2020,
535,Afonso F.R.,afonso.fr,,Huawei,18-7-2020,
536,Ida,blondin.jahah,,Det där är it iPhone 11 PRO,18-7-2020,
537,arthur.nmn,arthurxxlol,,Das ist kein Samsung S20... Das ist keine Huawei P40... Und das ist keine iPhone 11 pro😂🤦‍♂️🤦‍♂️,18-7-2020,
538,testomo,testomo,,そこに富士通のarrowsも混ぜてあげて。,18-7-2020,
539,Bogdan Anghel,visinescu65,,"fake,toate telefoanele sunt modele diferite",18-7-2020,
540,leo,leooo.czs,,@echter_zucker518 ein elf plus,18-7-2020,
541,tami,taminasz,,HAHHAHAH,18-7-2020,
542,sarah <3,saarah.kiim,,@fabiuula9,18-7-2020,
543,민슈가 집사 • 팔로잉,woldwidehandsomebts,,진짜 옛날에 하웨이 썼는데 진짜 기능 소름돋을 정도로 구림,18-7-2020,
544,Lukas Naci,lukasnaci,,Ce n’est pas l’iPhone 11 prop mais c’est l’iPhone 6,18-7-2020,
545,Tiểu Phụng,0802smallbird,,P40 hừmmmm 😌,18-7-2020,
546,get_swag_orlike,_likeif_ur__not__gay,,nokia,18-7-2020,
547,get_swag_orlike,_likeif_ur__not__gay,,Nokia pls,18-7-2020,
548,DonutMaster102,ecoyalvarezfuentes,,That’s not the iPhone 11 looks like 6 or 7,18-7-2020,
549,🇹🇷,naz_2406,,Also ein iphone 6 ist kein iPhone 11,18-7-2020,
550,älä seuraa,kdkdpwqmnslz,,Your iPhone 11pro is a bit different than the other but we can play along with that it would be the iPhone 11 pro😂😂,18-7-2020,
551,Peppie_Beun,peppie_beun,,Broer dat is echt een tantoe mooie iPhone 11 bro,18-7-2020,
552,Amanda,amandabboucher,,@marikaboucher8,18-7-2020,
553,Manos,manossal08,,Huiwei p40 το μόνο,18-7-2020,
554,Floriano,floriano0022,,mdr iphone 11pro moi je dirais plus iphone 6 😂,18-7-2020,
555,Yorlo Bizouk,yorlobizouk,,Iphone 11 6 pro,18-7-2020,
556,Yahav Maor,yahavmaor,,The best iPhone 7 I ever seen,18-7-2020,
557,Thomas,www.tlkt0k.de,,Ich steh zwar zu Huawei aber man kann es so nicht vergleichen ehrlich Iphone ruas Ende,18-7-2020,
558,まは,maufin1xx,,iPhoneこれいつのやねんww イヤホンジャックあるしww,18-7-2020,
559,jul_ian137,jul_ian137,,@iry.irinad2,18-7-2020,
560,✨Völgyi Virág✨,v_virag06,,@fanni_0822,18-7-2020,
561,ㅤ,ansar.dz,,Huawei p20pro 😂😂,18-7-2020,
562,lol,staracieniekocha2137,,@shittyhuman_ już wm czemu jak tel mi spadnie to nie pęka xd,18-7-2020,
563,Lea,lea.stn23,,Dass ist nicht mal iPhone 11 pro!,18-7-2020,
564,Nothing,legergirl,,Can u do Samsung a21s I have that,18-7-2020,
565,*^*,bbarby001,,@_dzsohi_ kiegekxdd,18-7-2020,
566,𝑁𝑖𝑠𝑎,nisaa._20,,Er kommt an mit Iphone11 Pro,18-7-2020,
567,Ole Elias Schuchhard,ole._.kss,,"iPhone ,,11pro“ auf Wish beschtellt",18-7-2020,
568,Erwagri_mini🚜💨,erwagri_mini,,c pas un s 20 ma mère la et c pas comme ça du tout,18-7-2020,
569,채원,wong784,,근데 망치치는거 효과음이면 ㄹㅇ ㄹㄱㄴ ~,18-7-2020,
570,Samwisse,samwisse,,Huawei is het best,18-7-2020,
571,Cassandra ✨,cass_ppt,,HUAWEI la base,18-7-2020,
572,Bella,bella_2007_12,,It is not a iPhone 11 pro 🤦🏼‍♀️,18-7-2020,
573,마빡이지만 이쁘다.,wqz1006,,이러니 중국이 욕들어 먹는거다.인류에 바퀴벌레들,18-7-2020,
574,anne,anne.swk7,,Das ist nhn doch kein iPhone 11 pro🤦🏼‍♀️🤦🏼‍♀️🤦🏼‍♀️🤦🏼‍♀️🤦🏼‍♀️,18-7-2020,
575,ッ,luciaannaaaaaa,,deci ăștia nu au ce face și strică telefoane să le strice,18-7-2020,
576,pissbert,renerabenase,,wow wie das s20 ein Nokia ist und das iPhone 11 Pro ein iPhone 7 XD,18-7-2020,
577,Lisa,lisa_vu,,@sooyin_noorloosx ik koop Huawai,18-7-2020,
578,@andre_a.chast,andre_a.chast,,@paulina.enf je crois qu’on a sous estime le tel de @lele.alb4 😂😭,18-7-2020,
579,𝑯𝑻𝑯𝑼𝑶𝑵𝑮.,_v.tzhuong31_,,p40 có đập ở góc đâu mà bể vậy,18-7-2020,
580,Christian,supstone,,you serios? thats like a iphone 6,18-7-2020,
581,Tik Toker,george_007__,,thet in midel is samsung,18-7-2020,
582,🇱🇧🇱🇧🇱🇧🇱🇧🇱🇧,mustafae838,,Du hast bei Huawei auch nicht mal gleich so doll geschlagen wie bei iphone und Samsung,18-7-2020,
583,gian.ap,gian.ap,,Hab huawei p30 prö,18-7-2020,
584,Elmedin Husic,elmedinhusic,,Jebem ti mamu lazljivu,18-7-2020,
585,Eliron Grande,eliron_grande,,That a iPhone 6!,18-7-2020,
586,Eliron Grande,eliron_grande,,And that is galaxy s8,18-7-2020,
587,Tabeá,tabeavan,,Ich hab das 11 Pro aus'm Apple Store. Und du? 😂 Wish?,18-7-2020,
588,발,usergm6dnx5g6w,,하웨이를 좋아하네 특이하다.,19-7-2020,
589,Done,canyoulistentomme,,Samsung is the best,18-7-2020,
590,Zetaaaa,__.zetakii,,εισια ηλίθιος αν είναι αυτά τα κινητά αυτό που λέει να μου τρηπισετε την μυτη,18-7-2020,
591,les 😩💖yaoi😩💖,a_willy_,,il est daltonien des iPhone 😂et les oppo A9 2020,18-7-2020,
592,SoЯa,is160324,,iPhone11強いよ？俺たまにぶん殴ってるけど傷一つつかない,18-7-2020,
593,fasz67,_zsigai__akos_565,,az nem is iPhone 11 pro,18-7-2020,
594,Follow back,bobersej2804,,iPhone is best,18-7-2020,
595,Alessandro,alessandro.berri,,11 pro with homebutton,18-7-2020,
596,Zoe ☺️,_zoe.c.r21_,,LOL wenn das ein i phone 11 ist dann hab ich ja ab heute ein 11er😅😅,18-7-2020,
597,Nora Ninive,nora.ninive,,That NOT iPhone 11 pro,18-7-2020,
598,다우니,dayun619,,저희 언니 폰이 아이폰 11이고 저희아빠엄마 폰이 s20이어서 비교해봤는데 존나 달라요 생긴거부터다르고 아이폰 11은 홈버튼 없구요 s20은 화면꺼두면 화면에 시간이랑 이런거 다 떠있구요 저건 아예 다른거구 중간거는 그냥 존나 살살친거고 걍 모조품임요 이거 믿지마셈,18-7-2020,
599,Pinto Jose,pintojose,,Qualidade preço Huawei 💪,18-7-2020,
600,Daniel,daniel.gaarcia,,Ns si sabes que no es un iPhone 11 es un iPhone 6 dorado,18-7-2020,
601,user9530885281398,patroclo.alfawar,,COMO LA ESCUDERIA HUAWEI VENCIA ENTONCES LA ESCUDERIA IPHONE Y SAMSUNG PIDIERON ELIMINAR EL CAMPEONATO. POR TIK TOK TAMBIEN EL GP.,18-7-2020,
602,🌼,emela.mhtrvc,,Was für iPhone 11pro,18-7-2020,
603,elenaa,el.xx.a._,,Ich schwöre mein Handy ist 20tausend mal runtergefallen und hat kein einzigen kratzer (Huawei),18-7-2020,
604,Pszihogabi,pszihogabi,,Kínai reklám mint a tiktok😄😄,18-7-2020,
605,El natcho,le_mexicain_du_quartier,,il fait plus fort sur le Samsung 🤦‍♀️,18-7-2020,
606,Sarah Six,_sarahsix_,,Das ist nicht das iPhone 11 pro,18-7-2020,
607,M_A_R_K_11-88,m_a_r_k_11.88,,Od kdy má iPhone 11 homebutton?,18-7-2020,
608,Tik Toker,poutsopropelos,,Samsung is second,18-7-2020,
609,Octo,theluckynumber8,,Them phones do be looking different,18-7-2020,
610,T. Dung so dzui 😆😆,thuydung12345,,‍‍ ‍ ‍ ‍ ‍ ‍ ‍ ‍ ‍ ‍ ‍ ‍ ‍ ‍ ‍ ‍ ‍ ‍ ‍ ‍ ‍ ‍ ‍ ‍ ‍ ‍ ‍ ‍ ‍ ‍ ‍ ‍ ‍ ‍ ‍ ‍ ‍ ‍ ‍ ‍ ‍ ‍ ‍ ‍ ‍ ‍ ‍ ‍ ‍ ‍ ‍ ‍ ‍ ‍ ‍ ‍ ‍ ‍ ‍ ‍ ‍ ‍ ‍ ‍ ‍ ‍,19-7-2020,
611,Kravino_yt,kravino_yt,,Huawei p30 lite bei mir 20 mal runtergefallen michts,19-7-2020,
612,Adryan😈,iiixiiiiiiiiix,,واضح ايفون 11😂😂😂,19-7-2020,
613,nina<3,.levioxxah,,11pro????😂🤦🏼‍♀️,19-7-2020,
614,May.Pathumtip,may.pathumtip,,ซัมซุมก็ไม่ใช่ละ แหมมม หันมาอีก ไอโฟน11พร้อมปุ่มโฮม อันนี้ฮ่าจริง 😂😂,19-7-2020,
615,Looli,mvx027,,سامسونج هيه الي بتعطي الشاشات لايفون🌚,19-7-2020,
616,BbyPeanut.,ptanginamopohihi,,pero basag na skin,19-7-2020,
617,U,ohjjass,,얼마나 개그지였으면 구라를 까네ㄲ,19-7-2020,
618,Công Toại,congtoai0109,,11pro có nút home ???,19-7-2020,
619,AJR,bebeajhay,,hahaha iPhone pro?? or iPhone 6plus??? lol,19-7-2020,
620,Minh Tình Võ,tinh260490,,Ko có nút haha à,19-7-2020,
621,pane,puxin7,,中國製的還想造假,19-7-2020,
622,どろろ,ngockhanh_sk,,3 con ko đúng tên,19-7-2020,
623,Hooooooooa,usergf5qu7vafa,,일단 made in china 는 거르고시작한다 버블티 펄을 폐타이어로 만드는 국가에서 뭘 바라냐,19-7-2020,
624,Phú,btphu,,S8 p20 pro iphone 6 plus,19-7-2020,
625,LD,lamardavis066,,Huawei is thrash,19-7-2020,
626,♡♡♡,xilychqxr,,HUAWAI——————>,19-7-2020,
627,Tay,batman_6666,,There is a protective film on Huawei.,19-7-2020,
628,Apex Nenas,apexnenas._,,thats is not samsung s20😂,19-7-2020,
629,hii,its.._just.._me,,das angebliche iPhone 11 pro😡😡,19-7-2020,
630,Trần Dần,winwin731,,Iphone 11 pro cdmm,19-7-2020,
631,Kim Hajime,kimhajime,,Sakin ung p30lite ko nahulog sa inodoro eto ngayon may tubig na ang screen pro nag function prin nman..,19-7-2020,
632,Akos Toth,akos_.vagyok,,Legalább itt mind 3-ra ütött,19-7-2020,
633,Slimane,kadomax,,Mdr iPhone 11 pro ??? Hahahah,19-7-2020,
634,zei,zeila._,,Huawei is the best,19-7-2020,
635,i bims der hildi,ibimsderhildi,,Das ist doch huawei p20 pro lol,19-7-2020,
636,Oskar Witalis🏀🥋,oskarwitalis,,Yo that’s right i see a iPhone 6 and that’s look like a iPhone 11pro🤯🤯,19-7-2020,
637,<3,risdye,,@Jeeha💓 Huawei uufff,19-7-2020,
638,user7100430240084,ultramarine1234,,Thats an IPhone 5,19-7-2020,
639,Memepage,justfunnyvide0s,,Ist ja gar kein huawei p40,19-7-2020,
640,mòe hất cùn,hatcun1,,cho em hỏi là :huawei có sài đc google không mọi người ???,19-7-2020,
641,사람,baekyeeun1,,"Why is Samsung hiting harder?
왜 삼성을 더 쎄게 치십니까?",19-7-2020,
642,Legend voor live,legend.live,,Dat is geen iPhone 11 pro het is de 6s plus,19-7-2020,
643,dthanh92,dthanh92,,Huawei ngon đấy nhưng rất tiếc là t vẫn chọn iphone,19-7-2020,
644,GAB,pajunarmichael,,nice one 11pro?,19-7-2020,
645,『Sad』ッNatsu,sadnatsu7,,Sag mall Aus welche planet Ist Das iphone11 oder Samsung s20,19-7-2020,
646,Στέλιος,fidodidochania,,είναι ξεκάθαρο το βίντεο ότι είναι σπασμένα απο πρίν.,19-7-2020,
647,🐲郎,tatsuroh__,,まじでHUAWEI割れん,19-7-2020,
648,Enny69,helenaa_d,,@siliana_d,19-7-2020,
649,Sarayut S,bassarayut_1996,,เดี๋ยวนะ P40 ทุบกลางจอแต่แตกมุม?,19-7-2020,
650,tũn tiên sinh✅,tun10022,,"chỉ có ip là ngon nhất, hỏng màn hình thay rất rẻ. còn ông ss, thui vứt đt lun",19-7-2020,
651,GTA.07,gta.07,,mein Handy ist 1000 mal auf die fresse gefallen und nichts passiert auch mit hammer,19-7-2020,
652,uchi,chi_uci,,Wee HP ku Huawei nii😃😂,19-7-2020,
653,s_runway,s_runway,,แตกไม่ตรงที่ทุบ,19-7-2020,
654,Khánh Trắng,khanhtrang1605,,Thằng này là nhân viên bán hàng trung quốc đây . Đéo ai mua điện thoại trung quốc đâu mà giới thiệu,19-7-2020,
655,稲荷,inari3374,,iPhone11proじゃねーじゃんw,19-7-2020,
656,Hej,hampus...123,,Det är iPhone 6,19-7-2020,
657,DacThanh410,chudacthanh410,,IPhone 11 Pro kiểu j kia,19-7-2020,
658,최유나 내 사랑 가져가ㅏ,yerin247,,저걸누가 S20이고 11로 보냐고..,19-7-2020,
659,°𝔸𝕓𝕖♡•✨🍀,cuongcutetroi,,ip 11 có nút home ?,19-7-2020,
660,Xu Nguyễn,xunguyen82,,"Huawie p40, 11pro. Tao lạy",19-7-2020,
661,Thơm Kòy,_t_t_thom_,,dù sao thì cubgx trung thành vs samsung,19-7-2020,
662,Julian,julianmcl1196,,Phahahaa iPhone 11 Pro 🤣,19-7-2020,
663,정연,jungye0n,,S20은 베젤이 저렇지 않음,19-7-2020,
664,Gamw Kai thn AEK Kai ton MPAOK,mpampas_twn_bazelwn,,Haway Dual lens εχω,19-7-2020,
665,Lorenz.Edthofer,kpwasihdahinschreibenmus,,Da merkt man die Kraft von Huawei. 💪💪👌👌. Wo ist #TeamHuawei✌️🤘,19-7-2020,
666,Deleto_blue,theo_toilette,,Perso moi g crack googlz ducouo je l'ai,19-7-2020,
667,Méliau Antier Baldet,meliau.ab,,"C'est un iPhone 8, c'est pas un iPhone 11 pro",19-7-2020,
668,E1Tb_Twitch,jeremy_1201,,Das eine ist kein Samsung 20 habe ich selber,19-7-2020,
669,rºmªne,romane.m16,,C est pas du tout un iPhone 11 pro,19-7-2020,
670,co tak čumíš 🤔,master_player_xd,,huawei 💪💪💪,19-7-2020,
671,Jóna Svoboda,jonasvoboda,,face,19-7-2020,
672,intothethickofit,tyktok_schmutz,,mein herz blutet,19-7-2020,
673,Jerome,jerome963,,Nen 100ter Wenn das ein p40 ist,19-7-2020,
674,CC-3636,cc.3636,,Huawei mal wieder Testsieger🥰🥰,19-7-2020,
675,🤷🏻‍♂️,jasoooon16,,11 pro=6s？,19-7-2020,
676,🌚,lilly_694200,,Leute auf chip gibt es eine Bestenliste der handys da wird alles fachlich bewertet und man kann nachgucken welches momentan das beste ist,19-7-2020,
677,Chagrinne 43,chagrinne43,,@lindsaylecrystal0 ses solides un Huawei,19-7-2020,
678,Wolfgirl_488,k.berni488,,Egyébként látható hogy az iPhonera nagyobb erővel csapott rá a Huawei re szinte semmit nem csapott rá és a Samsungra úgy közepesen. Egyébként nem is a,19-7-2020,
679,🐝🐝,bloodline..avenue,,"En même temps si tu prend un encien Samsung ,un encienne IPhone et le nouveau Huawei ‘c normal que Huwei gagne prend un iPhone 11 et un nouveau sam",19-7-2020,
680,k8rof,om.nomin_tiktok,,"Huawei gang, where are uu???",19-7-2020,
681,.,xqixie,,Ja was erwartet man bitte schön von einem iPhone 6 aus den 2014-2016🤦🏻‍♀️,19-7-2020,
682,Maria,shrekomat,,Endlich gewinnt mal huawai 😂,19-7-2020,
683,pAnTeRa6311,pantera6311,,Bei Sony wäre nicht ein Kratzer xD,19-7-2020,
684,MADFUT22,madfut22_.offline,,Iphon 11 PRO sär inte ut så,19-7-2020,
685,sniper7boy,sniper7boy_gaming,,das ist kein s 20,19-7-2020,
686,ich bin ein kartonfell,king..money,,"Conclusion :
Acheter Huawei",19-7-2020,
687,Gigh,superyd,,我支持三星跟頻果就算沒有這兩個我寧可用華碩也不要華為,19-7-2020,
688,Patrice Vivien,fitboule,,facile rien ne dit s il n y a pas eu avant application d un traitement ou film...,19-7-2020,
689,Chrille1891,ufc1891,,Hahahahah det är iPhone 6 dachri den har pluggen alla uppot har inte det,19-7-2020,
690,Lão Làng,linhka214,,vãi iphone 11Pro có nút home,19-7-2020,
691,Jaydy blunt😎🍃,jaydy_blunt,,"it will tell you whether you are using a glass plate on your phone, and whether which glass plate you are using",19-7-2020,
692,elias,eliass2298,,iPhone 11 mit Home Button ??? @lookatmeeeeeeeeeee,19-7-2020,
693,GTA.07,gta.07,,und das war so,19-7-2020,
694,양동식,MS4wLjABAAAA3TzSg7_sUGzmRM2mRYPMelQO6d9tc4jmEg0xWnVY-fMhlcChdAkMd5owNTn2jC1N,,망치로 치기전에 보여주지도않고 잘보면 친부분아닌곳이 부서져있음 재미로보라고 주작질한거네요,19-7-2020,
695,Angelx,angelx2376_yt,,"Aaaaah, non lo posso direeeeeeee. Quello non è un ca*** di iPhone 11 ma un iPhone 6/6s",19-7-2020,
696,arow112,66pyuu,,i7หรือปล่าวมีปุ่มโฮมด้วย,19-7-2020,
697,Shadow<3,dereineaus28,,Aufjedenfall iphone 11 pro,19-7-2020,
698,Suiiiiiiiii,kein.packluck.suiii,,Das is kein IPhone 11,19-7-2020,
699,Elite Panda,elite_panda_1,,Ja man iPhone 11 und nicht 5 oder so 👍,19-7-2020,
700,No.,mrs_blindness,,Nicht jedes handy spricht dafür 🤦🏼‍♀️,19-7-2020,
701,Alex,alex.kb9,,Alors c pas un iPhone 11 ni un Samsung s20 et pas le huawei p40,19-7-2020,
702,smyk,1975364853232nfxpgdatpt,,日本の携帯ショップってファーウェイ売ってるのかな？手軽に買えたら色々試せるのに,19-7-2020,
703,Sebi_Tv,sebi_a11_rapidoberlaa,,Das ist kein Iphone 11,19-7-2020,
704,treechamon,treechamon,,ซื้อมาใช้ค่ะไม่ซื้อมาทุบ ถ้ารู้จักรักษา,19-7-2020,
705,xxx for life,lil.x.sitch,,imagine just wasting your money just to make a STUPID TIK TOK,19-7-2020,
706,TheGlobalSisters,giraffe0708,,That’s not the iPhone 11 Pro 😡,19-7-2020,
707,ßłæžý pępįþø,thoe.gdl,,@olivia_dfy @lisa_gwen,19-7-2020,
708,Flo ⚽️⚽️⚽️,floriansimba19,,ils étaient déjà cassés avant,19-7-2020,
709,Hannah,xhannah.x06,,iPhone 11 pro is klar auf dem ersten hast du fester geschlagen in der Mitte nicht mehr viel und am Ende wieder 😂🤦🏻‍♀️,19-7-2020,
710,Sascha,sasch.a_mil,,das ist kein iphine 11 pro aver egal,19-7-2020,
711,Leoo,prz_leooo,,"︎ ︎ ︎ ︎ ︎ ︎ ︎ ︎ ︎ ︎ ︎ ︎ ︎ ︎ ︎ ︎ ︎ ︎ ︎ ︎ ︎ ︎
︎ ︎ ︎ ︎ ︎ ︎ ︎ ︎ ︎ ︎ ︎ ︎ ︎ ︎ ︎🅵🅴🆁🅼🅴 🆃🅰 🅶🆄🅴🆄🅻🅴 🆃🆄 🅿🅰🆁🅻🅴 🆃🆁🅾🅿",19-7-2020,
712,Faññy ☁️,fannysutoo,,Tu as dit iPhone 11 pro alors que c le 6D,19-7-2020,
713,not you,yukii.here,,Wieso macht man sowas überhaupt😂🤦🏻‍♀️,19-7-2020,
714,LordLyx,tlou.edits.1,,Bei Nokia wäre der Hammer kaputt,19-7-2020,
715,Louis😂,zimmermannlouis1,,Kein iPhone 11,19-7-2020,
716,julie.,_.julie.s_,,@_ines_prch c grave vrai les Huawei sa se casse pas je crois je vais en avoir toute la vie parce que avec moi 😭🤣,19-7-2020,
717,🤬,greta._.thunfisch,,"das angebliche s10 ist auch ein Huawei🤣
schaut mal ganz genau!",18-7-2020,
718,Maïwenn,maiwenn.76,,A ba je savais pas que j’avais le 11pro. 😂😭(pour se qu’on pas compris j’ai le 7et sur la vidéo c’est un 7et il dit le 11pro 😂😭😅),18-7-2020,
719,DosenDomenik,y0urfav.dome,,wie viel Geld hast du bitte das du Handys immer kaputt machen kannst,18-7-2020,
720,Nala_kvi,onek231,,Samsung s20 eher s0,18-7-2020,
721,𝐌𝐚𝐫𝐢𝐞 💘,_mariee.k,,@meljin_bts @taetae.army3030_ @bts_army.tae3021 un iPhone 11 pro vreuuuumenttttt,18-7-2020,
722,glatt,it_s.polatder_exhtyt1,,das ist kein s20,18-7-2020,
723,m@x,offiziell_max898,,Das ist kein P40,18-7-2020,
724,Varför inte spela golf,vemhurvetdu,,6,18-7-2020,
725,鈴　　木,suzuki1559,,叩いた所と違う所が割れてる。,18-7-2020,
726,Tismaa,paco_le_pas_bo,,Maintenant l iPhone 11 a un bouton en bas,18-7-2020,
727,liana,liana.08_,,Ja das iPhone 11pro hab ich demfall auch❤️😂,18-7-2020,
728,❄️❄️,chi.aa.raa,,Un iphone 11 pro max vreuuuumennttt,18-7-2020,
729,tg,tg.stp.sale.chien,,Uiiii iphone 11 tkt,18-7-2020,
730,만숙인직,ungdungyee,,삼성:S8 화웨이:모름 어땟든 옛날 기종 아이폰:7,18-7-2020,
731,Eser,eser_06e,,Samsung s8 huawei p20 et iPhone 6,18-7-2020,
732,user699026,stuy3.1,,seit froh das ihr handys habt!!!!!❤️❤️,19-7-2020,
733,user699026,stuy3.1,,ist doch egal welches handy jedes kann nachrichten verschicken und internet öffnen,19-7-2020,
734,deine_.Mudda,deine_.mudda2,,Ne bin aber andere Meinung,19-7-2020,
735,FUAR FÖRTNJDÄ,2ez4me_clash_royale,,"Simex, Apo Red und Leon Mashere auf Whish bestellt alter🤣🤣🤣🤬",19-7-2020,
736,Mark🌑🥀,mark08er,,@cxte.nxdel ich glaub er hat die Namen vertauscht,19-7-2020,
737,지존,zizon0919,,"그거 아세요?
전 몰라요",19-7-2020,
738,작은하마,ssibarseki,,점점 약하게 때리는거 같지.....?,19-7-2020,
739,Marit Kruger,maritkruger,,Huawei laat je horen'n - - - - - - - - - - - - >,19-7-2020,
740,ウタカ,MS4wLjABAAAAImZ0C90dEDthsDGcE7Ux-To195adoflSI_sL4ZxbVVdV8nQK4NlnxL_4EO8KEc6-,,別にがーどまんじゃないしiPhoneトンカチで叩くことないしiPhoneで充分,19-7-2020,
741,HKG SALES,hkg_sales,,Die telefoons waren al kapot! En een iPhone 11 pro ziet er heel anders uit. Denken ze nou echt dat ze mensen zo makkelijk voor de gek kunnen houden?,19-7-2020,
742,lilli Marleen Eulen,lillymarleen2009,,Huawei hält zu mir,19-7-2020,
743,moi c sacha,sacha_a87,,euh tu peux tester avec un nokia,19-7-2020,
744,wiivirajala,wiivirajala,,Iphone 11 pro😂😂 its iphone 6🥴🥴🥴,18-7-2020,
745,_.oliweczq._,xx.oliwq.xx,,@angelika0937,18-7-2020,
746,🐸,_lotti.fekete_,,@pancat.drawing.uwu,18-7-2020,
747,.,koddorna,,Thats not a Samsung s20😂,18-7-2020,
748,.,zlnn,,Ik die me nu realiseer dat Huawei eigenlijk gewoon een baksteen is,18-7-2020,
749,Leonie 🤍,ponyteam.jw,,@beste_freunde__2k20,18-7-2020,
750,Nguyễn Hiếu,3165431012.8,,"nhìn con s20 là thấy éo phải hàng xịn rồi, cho hàng fake vào test",18-7-2020,
751,OkMoober,ehhhhhhhh117,,so we're not going to see the 'before'?,20-7-2020,
752,TWITTER ROBLOX PLAYER,konto_polizei_is_da,,Huawei beste,18-7-2020,
753,Aliya,08._aliya,,Ja cooles iPhone 11 pro,18-7-2020,
754,Yara,yara25361,,@onlyx.asya huwei fast kein schaden,18-7-2020,
755,Nils Häni,haeni.nils,,Apropo iphon 11,18-7-2020,
756,artg,artgg.0,,@lablondedu123456789 un iPhone 11 Pro oui tkt,18-7-2020,
757,🍯💜,maya._.332,,나 삼성인데 휴대폰 액정 필름 아무것도 안붙이고 도로 내리막길에서 굴러떨어졌는데 멀쩡함 근데 한두번이 아님ㅋㅋ,19-7-2020,
758,❥,xdkaro,,"Eine frage, warum sieht das „Iphone 11 Pro aus wie mein Iphone 7?",18-7-2020,
759,Hugo Lopez,hugolb25,,sal mitho,18-7-2020,
760,☭,towarzyszaki,,No bardzo śmieszny żart,18-7-2020,
761,Bùi Ngọc Long,lglg0337,,kia là ss s20 hả sao chả giống vậy,18-7-2020,
762,Finn,finn.prt,,Wie gaat er nou met een hamer op je tellie slaan,18-7-2020,
763,TT,ttjp11,,スマホに高い金払う時代は終わった,18-7-2020,
764,Me,user639362819,,En iPhone 11 heeft geen indrukknop e ik ben nie dom 😅😒,18-7-2020,
765,뎀비지좀마,kkang0.0,,저정도될려면 저종이도 찢어져야되는거아닌가,18-7-2020,
766,gyoungju M 🇰🇷~,gyoungjuma,,"별로 의미 없는거 같은데..
실험이란 모든조건이 똑같은 상황에서 해야하며..사람손이 아닌 기계로만 해야 인정함",18-7-2020,
767,kamielvdk.,kamielvdk,,Das geen iPhone 11 pro,18-7-2020,
768,Aryan.,aryan026_,,Da's geen iPhone 11 en de Samsung was niet de s20 maar de s9,18-7-2020,
769,🎮,emmalulyy,,Huawei✌️✨❤️,18-7-2020,
770,Christian Witt,chriscrozzz,,Niemals... IPhone ist das Beste und hält das aus,19-7-2020,
771,aysun,viersieben4747,,@aysun__47,19-7-2020,
772,Alejandro Răducu,alejandro.rdc,,"11 pro, sigur, la voi acolo 11 are buton?",19-7-2020,
773,K2-DIEGO,dinimomischhot,,so en trurige hs,19-7-2020,
774,김민찬,alald070313,,저사람 어지가니 돈없어서 아이폰이랑 삼성 중고로산 그지넼ㅋㅋㅋㅋ난 s20 ultra 써서s20이랑은 차원이 다르지롱,19-7-2020,
775,🫡,drama_queens.xxx,,Hey,18-7-2020,
776,༒智允 지윤༒(부계,shsyqi,,저거 프로 아닌데? 프로는 홈버튼이 않달려있어요,19-7-2020,
777,sonia,sn57a,,c un iphone 6 deja,19-7-2020,
778,🥀,rnd.072,,Bin ich die einzige die merkt das das kein iPhone 11 pro ist,19-7-2020,
779,Bixou,erwannfoulon,,Et voilà encore une preuve que Huawei c le mieux 👌😁@meersseman2,19-7-2020,
780,Alice Van Cat,alice_van_cat,,Das ist kein iPhone 11 😂🤣,19-7-2020,
781,ᵖᵉᵗʳᵒˢ,petrosagro07,,@agrogiannioanna @_sofiakaranasou_,19-7-2020,
782,Evaa,evawillemss,,@julia_vandesandt @floortje.poefpoef haha Huawei,19-7-2020,
783,Killer,wittwer.fabian,,War sicher teuer!!!,19-7-2020,
784,寝不足,MS4wLjABAAAA1bB6o_KUmcCkjrYKLfAVW3PoGwnPdLi6RXgmrM1peQI,,iPhone高いのに壊れるの一瞬だよね😂,19-7-2020,
785,.,08062006yg,,11 pro có nút home à:v,19-7-2020,
786,여경,._.0912,,신 끼,19-7-2020,
787,:::,colon733,,아니 아무리 액정이 좋다고 치자 근데 기술이 ㅈ밥이잖아 ㅎ,19-7-2020,
788,"Kili, Leve, Jason,Lars",flipdudes7,,Iphone 11 pro mit homebutten. Wo hast du das gekauft?😂,19-7-2020,
789,Bảo,duong.tang.di.bay,,T sài hưawei này nova e3,19-7-2020,
790,PL.Maršal Hasso von Manteuffel,kz.vonmaunteuffel,,11 pro asi tak 6/7/8,19-7-2020,
791,Maayan,maayan_017,,יפלוצים,19-7-2020,
792,seventeen❤❤,chou6580,,화훼이 첨봄,19-7-2020,
793,嘉,jane20041029,,r11有那麼小隻？,19-7-2020,
794,Dr_Rotcod,yoisarandomguy,,nokia is laughing right now,19-7-2020,
795,I see you rt,whyrureadingmyname,,HUAWEI yes My phone is HuAWai,19-7-2020,
796,s.shahmer07,s.shahmer07,,And he hit iPhone the hardest. You can see it.,19-7-2020,
797,지후,jihoo_09,,아니 지들이 힘들게 일하고 그돈으로 ㅈㄴ 비싼 핸드폰 사가지고 이런 말도안돼는 허위적인 실험에다가 투자하고 있냐 ㅈㄴ 불쌍하다,19-7-2020,
798,Dziękuję za 1070 obserwacji :),_xyzq_0,,Huawei naj,19-7-2020,
799,KietDejavuu,kietdejavuu1312,,no Samsung s20 no hawei p40 and no iPhone 11,19-7-2020,
800,user4257378785334,aniosus,,別の機能で競って欲しいね,19-7-2020,
801,QLF🫀,tania_alex25,,Ses pas iPhone 11 pro,19-7-2020,
802,esteban,este_plcs,,Huawei le sang ils sont trop leur tel huawei,19-7-2020,
803,hkk,000900ssak,,"ss này màng hình full view chắc đời s8 hoặc 9 còn con huawei kia thì đâu đó p20 và mate 20 thôi, còn ip thì đâu đó 6 à",19-7-2020,
804,ESLJ,esljd,,av jag visste inte att Huawei har en sån knapp som iPhone har,19-7-2020,
805,민경,minkyung.099,,@hyrinshim @princess_lse 이니 삼성 3번정도 친게 저 자국이 나오냐,19-7-2020,
806,Ashanti Är bäst,hejallameniskor1,,Hhahaha det är ingen iphon 11 Pro det är iphon 6 knäpjök,19-7-2020,
807,즤니,jinni08,,이게 어딜봐서 S20이고 아이폰프로11은 홈버튼없음,19-7-2020,
808,あたま,tikloo444,,そもそも機種名間違えてる,19-7-2020,
809,閲覧用,tiktok_kowaine,,こういう投稿のコメ欄でiPhone Android論争起こる確率100%説,19-7-2020,
810,user3671526279718,wasdumachen10,,Huawei 💪💪💪💪❤️💪❤️❤️❤️❤️❤️❤️,18-7-2020,
811,Sさん,sk8syusei,,S20もちがう気がする,19-7-2020,
812,.,nijunyuchin,,음 아이폰 11이 어딧서 ????????,19-7-2020,
813,Giada,giada2000.g,,Peccato poteva darli a me,19-7-2020,
814,leonie.klee07,leo.nie_2007,,Mein Huawei ist aus dem 3 stock gefallen ohne panserglaß und es ist noch komplett ganz also HUAWEI ist beste 😂,19-7-2020,
815,Anas Moheddin,anasmoheddin,,falsch,19-7-2020,
816,かなーた,dekisugi_1963,,6やんw,19-7-2020,
817,Jurak Hunt,.administrator,,iPhone använder samsungs skärmar numer. Men inte på den där gamla iPhonen,19-7-2020,
818,Malte,k_3ul3_95,,Ist ein iPhone 6,19-7-2020,
819,Fedesnow,fedesnow_,,Ma è l’iPhone 6,19-7-2020,
820,Zanax και χλωρίνη,voulwneeeeee,,Χαχαχαχ ναι iPhone 11 με κουμπί 😂🤡,19-7-2020,
821,Max Black,max__black666,,"Huawei Handys können wirklich was ab. Schade, dass es diesen Streit mit Google gibt. Hätte mir gern wieder eins gekauft.",19-7-2020,
822,Grüß di,chefvommounteverest,,Sie glauben diese Geschichte ist wahr?,19-7-2020,
823,Niemand,nilszurfluh,,Is halt so,18-7-2020,
824,Robin Poull,robinhhoo1,,Coup dur,18-7-2020,
825,Moto❤️,kolabip,,@mateuszmyla,18-7-2020,
826,Inconnu Inconnu,linconnue_connue,,mdr c'est pas seut qu'il met,18-7-2020,
827,David,mullerdavid0,,Wēhç ßïeš ķœlľə ğőþđj iPhone 11 Hķğťß řűğóď 🤡,18-7-2020,
828,remrem^^,daisukiwatashides,,fk ip11 pro🤣,18-7-2020,
829,0민인데요?,youngmin0513,,광고,18-7-2020,
830,chacha 123456789,charlottescherpereel,,@hannie_ganzie @renske.demasure,20-7-2020,
831,alpha woman,shilamishel,,😯 really !!,18-7-2020,
832,🐔❤️✊🐍,tai_bhr,,Alle Huawei Nutzer freuen sich jetzt richtig unnormal ich fühls 😂✊,18-7-2020,
833,Moto❤️,kolabip,,@mateuszmyla 😳🥺,18-7-2020,
834,🍉🍉,dziubington,,@pasiekofficial @mateuszmyla,18-7-2020,
835,<3,elena_gaspp2,,@warriorcatfan1,18-7-2020,
836,How is Rin?,obitouchiha0_0,,its broken on the right side of the samsung phone but you hit the middle part 🤨🤨🤨 exposed,18-7-2020,
837,badxboy,badxboy206,,IPHONE FOR EVERRR,18-7-2020,
838,ladina,lg_210308,,Huawei ist halt einfach best handy,18-7-2020,
839,TheRosaNap,therosanap,,L’ultimo non è iPhone 11 e io 7,18-7-2020,
840,jiraiyasensei,brokensnake,,iphone 11 lu hahahahanat,18-7-2020,
841,Legend,darklegendomg,,That is an a iPhone 6 :v,18-7-2020,
842,Nell,nell.cl,,Voilà une des raisons de pourquoi je préfère Samsung a Iphone 😂,18-7-2020,
843,---,krabbenchips,,ich sag doch huawei is beste :),18-7-2020,
844,5 minute crap,5minutestupid2,,my Huawei phone is damaged really bad on the back😂,18-7-2020,
845,Nik,niko.0140,,Ots this really for you iphone 11 pro,18-7-2020,
846,Bolle,geirsimp73,,Hahahahah thast an ophobe 6,18-7-2020,
847,Anže Šarc,anzesarc,,Where is my Huawei gang,18-7-2020,
848,Moon Dancers Studens 🌌,herzens_reiterin,,Samsung wird immer schlecht dargestellt aber es ist die beste und beliebteste Marke,18-7-2020,
849,Leqit_Luki,leqit_luki,,Iphone 11 mit home botton,18-7-2020,
850,Tik Toker,lil_scomi,,pont egy huawei nem torik be mi? xdddd,18-7-2020,
851,tin-lieu,tinlieu2k6,,có ai xài Huawei ko mik xài Huawei y9 2019,18-7-2020,
852,How is Rin?,obitouchiha0_0,,THATS not a S20😂😂😂,18-7-2020,
853,user9666369293755,vladioan23,,pe bune lol nu e adevărat,18-7-2020,
854,🌸ผู้ที่คิดแตกต่างจากผู้อื่น🌸,mghahahahaha,,iPhone 11pro จริงรึป่าววนั่นน555,18-7-2020,
855,jovan,stelt.117a,,first android is best second this is not Samsung this is redmi probably next this is not huawei this is another samsung next this is not iphone 11,18-7-2020,
856,Tik tok,ali_eren068,,Was laberst du amk,18-7-2020,
857,Moto❤️,kolabip,,@mateuszmyla 😳 szkoda telefonu chyba co nie?,18-7-2020,
858,la_brigade_de_tiktok_off,la_brigade_de_tiktok_off,,c'est même pas un p40 c un p10 plus,18-7-2020,
859,KITIKIEEEH😩💞,hewantskitti._,,Elmondaná vki hogy az az iPhone 7-8 mióta ip11???,18-7-2020,
860,😂,mea.alexandraa,,That was not iPhone 11 Pro,18-7-2020,
861,Tobias,wazzupapfel_8i,,Welche Handys davon magst du am meisten?,18-7-2020,
862,Cristian Apetrei,cristian_apetrei8,,Eu am p40late,18-7-2020,
863,L,yourfavleniia,,Das ist kein iPhone 11,18-7-2020,
864,👑,62loran,,iPhone 11 Pro🤦🏻‍♂️,18-7-2020,
865,Alex,alex._.huber,,warscheinlich iphon 11 pro,18-7-2020,
866,user6012653582693,der_von_neben_an_xd,,Man kann noch nicht mal das p40 kaufen -.-,18-7-2020,
867,"HE3lP mi3, D",.htzgh_,,HŰÅWĚÎ ŇØ,18-7-2020,
868,✨NEPTUNE✨,dat.wolf_that.drawz,,Huawei 100%,18-7-2020,
869,Hi Hi,icagburgersjd,,ich sehe kein s20 und kein iphone 11pro,18-7-2020,
870,Dav,led4v,,I have the new Nokia s20 pro max with 9 cameras,18-7-2020,
871,참이슬,kkdd6752,,자세히 보시면 중간 중국폰 화웨이폰 강화 필름을 부착했네요. 정말 가지가지하네🤣🤣🤣🤣🤣,18-7-2020,
872,Louise,louisebaglione,,THATS NOT AN IPHONE 11 PRO!!! GEEZ!!! 🙄🙄🙄,18-7-2020,
873,Sylvain ⚜️,slv.ln,,"wesh kel bay , je crois qu’il sait pas c koi un iphone 11 pro",18-7-2020,
874,sei un maiale,seiunmaiale,,Non è iPhone 11 pro,18-7-2020,
875,Ro,itss.r0njx,,Das ist kein iphone 11,18-7-2020,
876,McCree,mccree6,,응 그래도 안써~,18-7-2020,
877,Jimin,chocolate.wingz,,@x.editsxz @_.shanisa,18-7-2020,
878,Rexi 2.0,rexii2.0,,Das ist kein p40,18-7-2020,
879,D&D,_.djadjadinaz_,,"Jlavais dis les Huawei c'est les mllr, 🤷😂",18-7-2020,
880,하름정,user66250783,,"ㅋ ㅋ 때린곳은 안깨지고 안때린곳은
ㅋ ㅋ 미리 깨져있는거네 ㅜㅜ",18-7-2020,
881,😘,0.dng._.gacha.0,,@x_pauliska_x,18-7-2020,
882,Horst Hubert,khr.nelis,,"DIGGA das ist iPhone 6,7 oder8",18-7-2020,
883,Lmao,photo.ali.x,,I have huawaie,18-7-2020,
884,Áron Sas,aron.sas,,elég fura az az iphone 11 pro😂😂,18-7-2020,
885,Moto❤️,kolabip,,@mateuszmyla 😏,18-7-2020,
886,.,93.henning,,Huauwei haben einfach das beste Handeln,18-7-2020,
887,Tomek,tompro_pl,,Taka prawda 👍,18-7-2020,
888,갓연다,usergfh51yeo54,,여기까지지와서 핸드폰 기종 구라치고 장사하네 삼성 애플 모욕인가?,18-7-2020,
889,Dawid Sobolewski,niemanamniekozaka,,Po co?,18-7-2020,
890,Jason Pizarro,jasonpizza04,,Huawei ist halt gut,18-7-2020,
891,jana,jana_bnc,,Pe pire c’est que c’est pas un iPhone 11 🤣🤣,18-7-2020,
892,efe4144tc,4144efe,,Fake,18-7-2020,
893,Jason.274,_jason.274,,Das ist kein huawei,18-7-2020,
894,Luc 🔥,suki.on.crocs,,ook geen s 20,18-7-2020,
895,Eden,eden.mar,,Das ist kein iPhone 11pro,18-7-2020,
896,Lea~♡,l.e.a.m.i.c.h.e.l.l.e,,Hab das Huawei p40 lite und voll kommen zufrieden!,18-7-2020,
897,Waze4S,gamingantonio,,itumah iphone 6s bukan 11 pro max,18-7-2020,
898,Moto❤️,kolabip,,@mateuszmyla wez to do filmu,18-7-2020,
899,1312,nima1312,,iphone 7,18-7-2020,
900,Knarklangare69,knarkis69,,Oj jag måste ha en fejk iphone 11 pro,18-7-2020,
901,✨jedna tabletka✨,nadvha,,to jasne że się zbiły telefony szklane xd,18-7-2020,
902,Marceau,amarceau198,,Mdr et depuis quand les iPhone 11 Pro Max ont des boutons,18-7-2020,
903,Tik Toker,patriote_francais,,Alors c'est pas un IPhone c'est pas un S20 et c'est pas un p40 mais OK why not c'est juste un vieux Samsung un iPhone 6 et un P20,18-7-2020,
904,Liwa,liwadelimpan,,Har en Huawei. Tappa telefonen i trappan och det blev ingen spricka,18-7-2020,
905,Magnus Johan Tårnes,magnus_johan_taarnes,,do you know the difference with iPhone? That is not the iPhone 11 pro,18-7-2020,
906,😁,halldor_m,,This is no iphone 11 pro it is 6,18-7-2020,
907,𝐿𝑎𝑛𝑎 <3,lana_lwn,,Hä was für iPhone 11 pro das ist ein IPhone 7 oder so,18-7-2020,
908,Eva Petzinger,evapetzinger,,@h0neyb4dger,18-7-2020,
909,teddytwister2,unheilig84,,jut ick bleib bei Huawei 😅,18-7-2020,
910,jonathan-jogy,jonathanjogy,,das 2 ist definitive kein Huawei und das erste auch sehr kein s 20 und das letzte auch kein 11 er🤣🤣🤣🤣,18-7-2020,
911,꧁ৡৢ͡ 天亮了 ®ৡ꧂,shih_chieh,,騙小騙鼻,18-7-2020,
912,🕳,q4.zp,,nice,18-7-2020,
913,Saara💘,vainio.saara,,@meerisusanna,18-7-2020,
914,Balggorangnae,sgbg_bg,,먼 ㅂㅅ이 다 있노,18-7-2020,
915,kawan and 7923 others,kawankerr,,Bruther ur not fooling anyone thats an iphone 8,18-7-2020,
916,user5370455029555,raquelytoni87,,el samsung estaba ya roto. no golpea donde tienes los rotos,18-7-2020,
917,zaka,zaka0454,,I have huawei p40😜😜😜😜,18-7-2020,
918,King Khan,king.khano,,beste ist Ericsson,18-7-2020,
919,卄乇ㄚ,bjrlapopulation,,HUAWEI ✊,18-7-2020,
920,.,hispocka,,Ich hebe ein Huawei p20,18-7-2020,
921,Florian Ostermeier,florianostermeier2,,Das schöne Iphone 11 pro,18-7-2020,
922,валентина♡,valen.tina._x,,Ist doch kein huawei,18-7-2020,
923,Martyna Luciak,martynaluciak,,@pawel.luciak1,18-7-2020,
924,Nick Hagewoud,nick200119,,@maximedejonge.x dit is het bewijs dat samsung beter is da iphone (🤮),18-7-2020,
925,Noahbj06,ballestein132,,Thats not iPhone 11 pro?,18-7-2020,
926,Tikitok,boudie29,,Moet ik geloofden vriend die iPhone 11,18-7-2020,
927,tom,20tomb200,,das Samsung Handy in der Mitte,18-7-2020,
928,Finnish Military👍❤️,finnish._.military,,huawei4life,18-7-2020,
929,WhyUMad,blacklegend39,,lol al 2-lea era samsung primu huawei si ultimu iphone,18-7-2020,
930,Rayan944,painoff_,,Why you say 11 pro s20 when you not use it,18-7-2020,
931,444,_.chiara.bl._,,GENAU IPHONE 11 PRO HAAHA @aleyna.6262,18-7-2020,
932,.,carmennn.6o3o,,hahahahaha,18-7-2020,
933,user954932645742,hafscha,,Hab ein neues Video für alle is,18-7-2020,
934,Folgen gegen folgen,leona.schempp2,,Das ist kein iPhone 11 pro sondern ein iPhone 4 oder 5,18-7-2020,
935,𝖐𝖔𝖊𝖌𝖎𝖋𝖑𝖔,koegiflo,,Das is ein Huawei p20,18-7-2020,
936,Bekövetszviszameg🧪,csaba_stupek,,Iphone11=iPhone5,18-7-2020,
937,₩e$le¥,wesley548,,bro it is not a Samsung s20 and it is not iPhone 11 pro,18-7-2020,
938,‍ ‍ ‍ ‍ ‍ ‍ ‍,.t.a.n.i.a.a.a,,@sarah_3__,18-7-2020,
939,Real young,realyoung134,,Where was the iPhone 11,18-7-2020,
940,Je te 🔞🥀🥴,_05h00_,,iPhone 6s😂,18-7-2020,
941,Nightmare_P,nightmare.ppppp,,no spoko ale kto będzie normalny tak robił kupuje sie etui szkło i już sie nie stłucze chyba że ktoś weźmie młotek,18-7-2020,
942,ᶠYͧoͨᵏu,ullibumpas_favorit,,11 PRO? S20?,18-7-2020,
943,🍥🎐🍜🍡_Elsa_🍡🍜🎐🍥,elsazou_dz_13_,,This is not the iPhone 11 pro,18-7-2020,
944,leqndrqs,leqndrqs,,Wenn man IPhone 11 Pro auf Wish bestellt,18-7-2020,
945,Eric_9407,eric_9407,,不知道要說什麼,18-7-2020,
946,🖤markétka🖤,16kmaqx,,Is not ip 11 pro!,18-7-2020,
947,sexy křeček🥵,cringe.mikina12,,thats not iphone 11 pro,18-7-2020,
948,greta,greta.h.m,,@deliaraven,18-7-2020,
949,We do not care 💋,htt.edit7,,bei Samsung steht es immer oben drauf,18-7-2020,
950,Shoyo•~•,suga3.98,,iphone11 มีทัสIDตอนไหนว้า,18-7-2020,
951,.,rtui545,,il Huawei lo hai colpito con meno potenza rispetto ai altri,18-7-2020,
952,Ꙭ𓃰𝕄𝕒𝕘𝕟𝕦𝕤𓃰Ꙭ,08.magnus.azz,,IPhone is TRAAAASH!,18-7-2020,
953,Tutu,tucc101,,對中國有好處的就會上推薦不意外,18-7-2020,
954,M7MD MQ,m7mdmq4,,@graytyard @30fps_nosshakek @pro1_ahmad المفروض انو ايفون 11,18-7-2020,
955,Nissan 180sx,_nissan._.180sx_,,JA GEILES 11 pro,18-7-2020,
956,リ サ,_r__01,,GALAXY,19-7-2020,
957,😎Vy²⁰⁰⁹,57585960vy,,samsung có khính cường lục nên ko sợ,19-7-2020,
958,Jessy Kullmann,jessy_115,,C’est pas vrm un iPhone 11 pro,19-7-2020,
959,Ophee,ophee_therriaultt,,Ses po un iPhone 11 Pro chose,19-7-2020,
960,배린이^^,balenl17,,저거 s9 이나s8인대 어디서 주작까 삼성 더 쎄개침,19-7-2020,
961,Nguyễn Nhật Hoàng,nhathoang2309,,11 cc à,19-7-2020,
962,Teo,dnvski1,,noneof these phones are thephones written clickbait why do udo that,19-7-2020,
963,Denis Krcic,deniskrcic0,,aufjedenfall ein s20,19-7-2020,
964,Léa,le_a307,,Moi j ai un hawei et il va trop bien,19-7-2020,
965,👏🏻,ariana_buterafp,,C'est un samsung galaxie S8,19-7-2020,
966,뭘봐,030......0.0,,아니 큐큐ㅠ 이분 악플다는 사람한테도 하트 눌러드리고 있어 ㅜㅜ,19-7-2020,
967,胖仔,cuzizy,,華為做哪麼硬是為了防彈嗎,19-7-2020,
968,We_go_Jim🔱,we._go._jim,,An alle die denken das das das I phon 11 pro ost das IPhon 11 pro hat kein homebutten,19-7-2020,
969,user9695777963268,yazan9695777963268,,Wtf asså? Försöker du Lurar oss eller,19-7-2020,
970,찐수,qwertyuiop1274,,s20랑 아이폰11pro는 저렇게 안생김,19-7-2020,
971,aaisiisiisi,binhier_hier10,,Das ist ein iphone 11 nh?,19-7-2020,
972,simane,jpjpdpe,,iPhone11にはホームボタンはありません,19-7-2020,
973,slt,user73920565,,le Huawei c le seul avec un écran de protection,19-7-2020,
974,louna,lounamhl,,@laubcb,19-7-2020,
975,삐뜨,love_izone2,,삼성은 저렇게 때려도 잘 작동 된다는게 팩트,19-7-2020,
976,Helli 👀,itshellii,,Mir ist mein iPhone 6s auf Marmor gefallen und es ist nichts passiert 😅,19-7-2020,
977,ANYONE,pinetree37,,HAHAHAHHAAH GAGO GUYS IN THE FIRST PHONE IS HAUWEI its not p40 AS YOU CAN SEE THE LOGO BRAND ON THE BOTTOM AND THE SECOND ONE IS SAMSUNG PLS SEND IT,19-7-2020,
978,Grzegorz Orłowski,grzesiek324,,To jest iPhone 6 wejście na słuchawki jeszcze okrągłe 😂😂😂,19-7-2020,
979,𝐋𝐚𝐮𝐫𝐚,_.laura_05._,,IPHONE 11pro LOL,19-7-2020,
980,hi,vizual_hxvoc,,Nokia der hammer geht kaputt,19-7-2020,
981,Elea Fontibus,eleaftb,,Huawei en force c les meilleurs,19-7-2020,
982,Noemie_25,noemiee.255,,@manon_775,18-7-2020,
983,ボニファティウス8世,userjamuw14dto,,ごちゃごちゃで草,19-7-2020,
984,︎ ︎︎ ︎ ︎ ︎ ︎ ︎ ︎,lamppuuppmal,,@kuolematonmatto,19-7-2020,
985,Vinh,vinh_1707,,có con 6. 11 pro cmm,19-7-2020,
986,Ale,ale_crazyy,,Weisst du was ein IPhone 11 pro ist,19-7-2020,
987,Mark Oblak,mark.oblak12,,To ni 11 pro,19-7-2020,
988,A,amir_fsb12,,Mach mal huawei p40 lite,19-7-2020,
989,official_colin06,official_colin06,,krasses S20 das ist ein S8 oder S9,19-7-2020,
990,Liu_Dor08,liudor,,Chi vuole fare uno scambio di like?,19-7-2020,
991,Veton,ranmatwo,,P40 pro hat auch kein home button 😂😂,19-7-2020,
992,MN7,milos771,,Du hs,18-7-2020,
993,Jade-lynn_vdb,jadelynn_vdb,,Dat is helemaal geen iPhone 11 pro,19-7-2020,
994,Hubi,easy_is_hubi,,Was für IPhone 11 Pro alter,19-7-2020,
995,kaktusbert,aaaaaasssssss6ddhdj,,De där är ju en p20 lite,19-7-2020,
996,John,john01231,,皆さんぜひ一個前の動画を見てください。iPhoneは割れていませんでした。,19-7-2020,
997,↓me,mmwmbm,,正直自分はスマホ落とさない自信あるから割れにくさはどーでもいいんや,19-7-2020,
998,ᙢ모티구찌바넬틧터팟년시대님역씨🚦(전닉 틧터 놀러오세요,0_0613_13._.1013,,느그 눈에는 아이폰 6이 11pro로 보이노?,19-7-2020,
999,Francesco De Gennaro,francescodegenn1,,E un iPhone 6,19-7-2020,
1000,Lisaaa🤍,lisasillem,,Het dis you do That?!,19-7-2020,
1001,constator123,constator123,,Beschte Eiphone 11 pro,19-7-2020,
1002,Raul Navarro,7rnav,,Huawei💖,19-7-2020,
1003,..,usergcetf2wpo7,,화웨이 2027년까지 배제된다던데 올해 4월 삼성꺾고 1위했었음 근데 논란땜에,19-7-2020,
1004,Moi,lucie.73939,,C quoi l'inteligence,18-7-2020,
1005,Apex Clips,just_nils_,,Das ist ein IPhone S6,18-7-2020,
1006,Lucanr10,luca_wttg,,Wahrscheinlich iPhone 11 pro,19-7-2020,
