,Comment Number (ID),Nickname,User @,Comment Text,Time,Likes
1,,flashvaldez1000,,ya you got apple to sponsor you,24-11-2020,23
2,Ruben,ruben_t_d,,they problly already broken before he hit them bc they are covered by a towel for some reason,24-11-2020,10
3,˗ˏˋᴀʟᴇxᴀɴᴅʀᴀ´ˎ˗,alexq_.lx,,"Ich sag nur das einzige, was Apple kann, ist dein Bankkonto zu ändern... @kasebrotchen6010",23-12-2020,6
4,IsmA😀✌🤣,itzzzismax,,Samsung is the best,29-1-2021,7
5,Joseph Yang,joojoojojojoojo,,this such cap😂😂😂😂😂😂😂😂😂,18-12-2020,7
6,Hello,furukantothesamurai,,Yo as @souljaboytv says DAS CAP DAS CAP BOY DAS CAP,1-12-2020,5
7,They.Call.Me.Juna,they.call.me.juna,,thats not a iphone lol,9-12-2020,5
8,🍪,uck_you_hoe,,they aren't real lmao. the s20 is a samsung s7. and the huawei well it's a huawei not good phones for there price. and the nokia is just a nokia too,9-12-2020,5
9,Pierrethebest2020,pierreredmond,,35:JESUS DIED ON THE CROSS FOR US THE LEAST WE CAN DO IS SPREAD THE GOSPEL OF JESUS CHRIST GOD BLESS EVERYONE ♥️,13-12-2020,5
10,Flarry ✨,flarryhart,,"that is NOT nokia 3310, nokia 3310 had BUTTONS and it was SMALL. and it had NO touch screen @sunset_blox so I smell cap 🧢",11-12-2020,2
11,bruh,tokoyami_lost_sandwich,,"WHY IS THE IPHONE OK DIDNT YOU
HAMMER IT",10-2-2021,3
12,m <3,r_sebud,,🧢🧢🧢,19-12-2020,2
13,mani,manijch,,🧢🧢🧢🧢,18-12-2020,2
14,Grubhubloverz.,grubhubloverz,,People who think it’s true🤡🤡🤡🤡🤡🤡🤡 How tho🙄,29-12-2020,1
15,idol_samountry,idol_samountry,,Iphone😃 samsung😳 huawei😷 nokia🤕,19-6-2022,1
16,_Mia._.vibe_,mioooo_14,,iPhone beste ❤️❤️❤️❤️👍🏻👍🏻👍🏻👍🏻👍🏻😉😉😉😉😉 sieht man ja so ne ? 😉👍🏻,31-1-2021,1
17,Linnea 🧷,oupsimdead_yeahthatssad,,That ain’t real bro,18-12-2020,1
18,chitho,chith06,,That’s cap 🧢,18-12-2020,1
19,Jordanswart_,jordanswart_,,Am the only one who thought the I phone would be destroyed,15-12-2020,1
20,electrofi04,electrofi04,,bro I have dropped my phone hundreds of times and I have no cracks your hart capin (BTW I have a Samsung s20+),12-12-2020,1
21,라식수술,metaesik,,아니 내가 한국인이라서가 아니라 삼성이 깨졌는데 아이폰이 안깨진다고?내가 둘다써봤는데 보도블럭에 ㅣ번떨어트리고 아작난게 아이폰인데?삼성폰은 계단에서 떨어져도 멀쩡하던데?,23-11-2020,63
22,madrid,m.neuer.r.lewandowski,,이런 영상 특:s20이라면서 구석기 시대 폰 부심,29-11-2020,63
23,GALAXY WATCH 4,who_i_am2612,,이런거 올리는 사람들은 그냥 인종차별을 돌려서 하는거같아,2-12-2020,14
24,잉잉,poollro1006,,왜 삼성만 더 때림?,27-11-2020,17
25,リバイ内の自己,levi160190,,삼성쓸때 폰 바꾸고 싶어서 일부로 던졌는데 그럴땐 안깨지고 실수로 떨어질때만 깨지던데,21-1-2021,5
26,.,userrrrrrrr1122334455,,난 삼성 던저도 안깨지던데 소리만 겁나크게나고,21-1-2021,5
27,내 영상을 보시오,jiwoo3242,,난 버스에서 살짝 떨어트렸는데도 금갔는데 삼성은 집어던져도 안깨짐,29-11-2020,7
28,.,1234567890kim3,,삼성유저인데 노필름에 케이스diy하다가 망쳐서 걍 빼고 다녔는데 다이소에서 계단내려가다가 계단에서 딩굴렸는데 멀-쩡,28-11-2020,44
29,AKMU팬,user2800893159307,,나만 삼성 칠때만 겁나 쌔게 치는거 같음?,24-11-2020,12
30,정우님 팬계정,jueun.korea,,근데 진짜로 삼성 잘 안깨짐 예전에 짜증나서 메트리스위에말고 바닥에 던졌는데 멀쩡ㅋㅋ,21-1-2021,11
31,림,suga9303092,,저 어제 폰 2번이나 떨어트렸는데 멀쩡☆ 심지어 필름도 없었음,9-12-2020,5
32,닉 추천 좀,zptsy09,,저 엄마가 저 혼내신다고 s10e 던지셨는데 금도 안 가서 놀랐던 기억이...이씀니다,16-1-2021,6
33,꽁치,ggong_chi09,,딱히 뭐 아이폰을 비하하는건 아닌데 실제 경험담인데 제친구가 아이폰인데 뛰어가다가 새로간 폰이 떨어졌는데 폰이 약간 안에까지 금갔어요 근데 제가 삼성 폰인데 전에 저도 뛰어가다가 떨어뜨렸는데 액정에라도 금도 안 갔는데..대체 이런영상 왜만드는건지 이해가..,1-12-2020,6
34,Im 휴먼,1234567gggo,,야내가 갤럭시j3를 4년썻는데 하나도 안뿌셔져있다 이놈아 언제는 아스팔트 바닥에 떨어트렸는데 안뿌셔져 그리고 케이스도 안끼고있다,30-11-2020,5
35,아무거나,ttiktokk00,,내가 착각하는 건가? 저 바나나가 왜 이렇게 기분이 나쁘지..,29-11-2020,22
36,.,usergrs6iiml1b,,"아니 돈없어서 폰 못사면
찍지늘 마던가
예전 폰가져와서
S20 아이폰 12하고 있네ㅣ",29-11-2020,6
37,r0syr0se,user0198391927372,,걍 자신이 쓰고싶은거 쓰자..,30-11-2020,13
38,오온우우으,whxtthe07,,저거 s20 아님 폰 앞에 로고 있잖아,23-1-2021,5
39,송편,muffinoio,,S20 저렇게ㅜ생기지도 않앗고 지금 집에서ㅜ몇번을 떨궜는데 멀쩡함,26-1-2021,5
40,Aurél,aurel_rusca_11,,Mais c’est pas du tout un Nokia 3310 😂😂,19-12-2020,5
41,하나비,hanabidw,,난 S20 쓰는데 모래 같은 곳에 한번 떨어트렸는데 금감...심지어 산지 1주일도 안됐었는데...,22-1-2021,5
42,류혜❣️🎗,MS4wLjABAAAAHgqzkHAlk6OsRgifLqiQeAi8umGygaYLACu74LEB7MkxLZWoU76bm8SpJr2h3Zel,,솔직히 이런거 지네 나라 회사 폰 액하게 때리고 삼성 이런데껀 세게 때림,23-1-2021,5
43,IsmA😀✌🤣,itzzzismax,,What do you prefer? Samsung or iphone,29-1-2021,5
44,√Jø??m||™∆£,wtfjomi_,,el Nokia era un Samsung,11-12-2020,4
45,Rebecca🌻🍃,rebecca_solak,,é mentira n é o Cell certo,18-12-2020,3
46,rayjun 1125,rayjun1125roblox,,저게 어딜봐서 s20이냐,16-2-2021,4
47,まねるけいぷぅ,takk._eruu_91_,,元から割れてた説,10-1-2021,4
48,🇻🇳 米霍克 🦅,mihawkk._,,c'est un marteau en mousse,9-12-2020,2
49,I love roblox,bacon_isthebest5596,,a,12-2-2021,2
50,GOOD GIRLS,its.shimahira,,"sumpah om kpn dibagiinnya hp gw uda retak kaya hati💔 dari SD kaga ganti""😏 @nabila.bila_1 @zenya30612046585 @dindatrilestari34 @ikyy_pahlevii",30-1-2021,2
51,？,sebas0294,,iPhone12角が角張ってないから違う！！,16-1-2021,2
52,jimin,userjiminlove76,,삼성 나 지금까지 모서리 1번진짜 조금 깨짐,20-1-2021,2
53,CHLOÉ,chloe_prsss,,@lea312100 💅🏻 les iPhone sont mieux,5-12-2020,2
54,ㅈ,ttpp23,,저기에 LG끼면,22-1-2021,2
55,니얼굴,yee_tirano,,저 삼성인디 핸드폰 바닥에 내팽겨쳤는데 안깨짐ㄷㄷ,13-2-2021,1
56,ㆍVㆍ,usery4ov6fiuy9,,ㅇㄴ 솔직히 삼성은 일부로 떨어트려도 안깨지는데 꼭 실수로 떨어트리면 깨짐,30-1-2021,1
57,쵸얏🥥,choyat_09,,에구...그래서 애플이 짱이라는 소리 하고 싶어쩌여?,28-1-2021,1
58,.,uou775523,,삼성은 일부러 떨어트리면 잘 안깨지고 실수로 떨어트리면 잘깨짐,23-1-2021,1
59,⚯͛,justlike_harrypotter,,레전드는 폴더폰임,22-1-2021,1
60,막말잘하는사람,rose112604,,솔직히 말해서 삼성인데 편의점 바닥에 떨어트려서 액정 나가고 노랑색이랑 검정색 잉크터졌다..,22-1-2021,1
61,정음,wjddma0904,,핸드폰이 아깝다고 생각하는 당신은 한국인,22-1-2021,1
62,뜽경이,08_tmdrud,,아니 내가 삼성쓰거든? 근데 내가 동생이랑 싸웠단 말이야? 화나서 핸드폰을 책사에다가 집어 던졌다? 근데 안 깨지더라..,22-1-2021,1
63,나연,nayeone3836,,POV:부자들이 심심할때 하는 장난,22-1-2021,1
64,결이,090902hygg,,자 이렇게 중국산 짭이였습니다!,21-1-2021,1
65,유라🤍,teaswife,,s20실화냐고 ㅅㅂㅋㅋㅋㅋㅋㅋㅋㅋㅋㅋㅋㅋㅋ,21-1-2021,1
66,야생 맷돼지 주희짱,parkchunbaeapopularman,,LG진짜미침 아파트창문에서 구경하다가 떨궛는데 안깨짐 ㅋㅋㅋㅋㅋㅋ배터리도개오짐(참고2층),21-1-2021,1
67,우아,yumin20080731,,LG 써봐라 존나 안 깨져,21-1-2021,1
68,.,eeuies,,"아이폰:잘깨짐
삼성:내가 진짜 저번폰 바꾸고싶어서 계속 떨궜는데 한깨지고 금 하나갔다..",21-1-2021,1
69,.,ahoxbqo,,휴대폰을 실수로 떨어뜨리지 누가 망치로 두들기냐,21-1-2021,1
70,아구찜,jung_jum,,mi가 최강임 3m터에서 10번은 떨어트렸는데....,20-1-2021,1
71,.,haribo586,,저걸 아까워하는 당신은 진정한 한국인👍,20-1-2021,1
72,ねくたーど,necterd,,やっぱノキアか,8-1-2021,1
73,.,whxlsyl_,,솔직히 아이폰은 박살나고 삼성은 괜찮아야지 정상,30-12-2020,1
74,ᄃᄏ,bjhdoo2005,,삼성은 엣지디자인이라 다른폰보다 훨신 잘깨지는게 당연한데 대깨삼들 왜케 부들대냐,29-12-2020,1
75,찬스🍀,chance0716,,삼성 저번에 내가 진짜 진심으로 던져야지 스크래치 나던데 아이폰은 내동생이 걍 떨어트렸는데 바로 부셔짐😅😅,26-12-2020,1
76,Tik Toker,zamminconcept,,아니 ㅋㅎㅋㅎㅋㅎㅋㄹㅋㄹㅋㅎㅋㅆㅋㄹㅋ 왜 저게 s20이냐고콬ㅎㅋㅎㅋㅎㅋㅎㅋㅎㅋㅎㅋㅎ,19-12-2020,1
77,Loik Boulanger,loikboulanger6921,,Huawei p40,17-12-2020,1
78,태히,ttksksjs,,다들 삼성안깨진다고 했는데 저 삼성촌 바닥에 한번 떨어트렸는데 깨짐 카메라렌즈까지.. 그것도 2번이나..,12-12-2020,1
79,척척박사😁😁,fatty693,,아이폰이 어떻게 자랄스가 난 떨어트리면 박살,11-12-2020,1
80,guess,guessjs,,삼성 걍 벽돌만큼단단함 나 아스팔트에 떨구고다니는디 안깨짐,10-12-2020,1
81,윤가은,gaeun091231,,LG쓴지 5달 됬는데 필름 한 3번 갈구 오늘 화장실에서 떨어트려서 액정이 깨졌습니다.근데 액정 깨지면 어떻게 해야 돼요??많이 깨졌는데..암튼 제가 관리를 잘못하는거겠죠??,8-12-2020,1
82,채,but.sxxt,,얘들아 이거 1년전부터 우린 영상이야 반응 ㄴㄴ,8-12-2020,1
83,.,ji_hxxon,,ㅇㄴ 저 이폰 진짜 오랫동안 썻는데 지금까지 엄청 떨어트렸는데 살짝만 깨지고 박살은 안남..,7-12-2020,1
84,범,an_overlay_of_gold,,ㅋ,7-12-2020,1
85,.,dldps_0,,뭐야 저건 우리 삼성이가 아니야! 우리 삼성이는 내가 삼성이를 손에 들고 쳐 자빠졌을때 나는 무릎 까져서 울고 있는데 저새 아니 우리 삼성이는 기스 하나 안 나고 멀쩡했다고!!!!!,6-12-2020,1
86,김만두 🥟,yoojonghyukhandsom0803,,처음에 안 보여주고 시작하면 이미 부숴져있을지 아닐지 어떻게아나...ㅠㅠ,5-12-2020,1
87,Della☆☆,della0128,,아우 돈아까워,5-12-2020,1
88,Jaleighsparks,jaleighsparkx,,caps for sale 🧢🧢,5-12-2020,1
89,.,dk_ahlove_02,,"이런 걸로 왜 싸우는 거지 그냥 둘 다 안 깨진다고 하고 끝내면 안 되나,,,,,",21-1-2021,1
90,venus,venuslai1,,nope iPhone 12 is easier broken the Huawei P40,18-12-2020,1
91,ElamGrant,edog0826,,Why am I feeling candy Ken vibes😳,11-12-2020,1
92,matahari malam,matahari_malam01,,mantap om,8-1-2021,0
93,*ItsMeHaden*,duhitzmehaden_,,iphone 12,7-12-2020,1
94,chocolatina :D,chocolatita__,,porque tenias que romper los teléfonos (×-×),20-12-2020,0
95,Ricardo Cardona,rjcchicago,,"umm, samsung doesn't put the name at the front of the phone anymore since the s7 and iPhone notch is bigger than that.",13-12-2020,0
96,絶景マン,taiwanngazami,,オンボロイド,10-1-2021,1
97,.,romina.moeinfar,,iPhone 🥇,13-12-2020,1
98,Albin Krasniqi,albinkrasniqi047,,3310 ur kidding me thats not an 3310,8-12-2020,0
99,figet.toys0056,figet.toys0056,,wat😂,16-9-2021,0
100,★✩𝐿𝑖𝑛𝑎✩★ 🇲🇦🕋🤲🏻,crazy_gag,,moi qui a un parmis les dernier nokia😂,19-6-2021,0
101,Cynical,cynicallly,,that's not a nokia 3310,20-3-2021,0
102,Skycrafter,sky_crafter_235,,I thought the Nokia was going to break the hammer immediately,3-3-2021,0
103,just a vietnam war nerd,notsosmartvietnamwarnerd,,that's not even a Nokia 3310,21-2-2021,0
104,ㄱㅁㅅ,minso1027,,진짜 삼성은 안깨지는거 인정해라. 나 아이폰 사고싶어서 핸드폰 거의 일부러? 떨어뜨린적많은데 아직도 안깨짐ㅋㅋㅋㅌ,19-2-2021,0
105,.,user5641411063806,,"나 애플, 삼성 다 써봤거든? 애플 1년도 안 쓰고 새로ㅇ바꿨다..깨물기만 해도 깨져...그에 반해 삼성은 던져도 내리쳐도 안 깨져서...5년 정도 썼던가..?",19-2-2021,0
106,서누오빠만 바라보는 달걀🥚,hyoa1228,,야 우리 엄만 아이폰 오빠꺼 던졌더니 박살났다 망치로도 안 깨지는 걸 우리 엄마가 던져서 박살내셨가,19-2-2021,0
107,우주채강 샌즈팁이 ㅋ,michinnom0904,,s20이 s6이냐궄ㅋㅋㅋ,17-2-2021,0
108,췍스초코,kp_injun,,이사람 또 이러누,17-2-2021,0
109,배그2752,bagg195,,맨날 똑같은눜ㅋㅋㅋ 저번에 깨진거 1번더 가져왔네,17-2-2021,0
110,로블록스 킹피스,krrb.01,,s21은 자동차에도 않 망가지는데 에플폰다 깨짐,17-2-2021,0
111,잼민망준,mangjuny,,s2 이걸로 실험하면 ㄷㄷ,17-2-2021,0
112,뭐,apnalchangchang1012,,삼성 잘안깨짐 내 경험으로 표창식으로 폰 던져도 안깨짐,17-2-2021,0
113,흔적만 남기고 다님,12456whw,,아이폰 때는 약하게 했누,17-2-2021,0
114,이하민,user642486693,,"삼성폰은 단단하다
내가 친구집에서 여름에 놀다가 핸드폰이 밖으로 떨어졌음 근데 기스도 안남
(친구집3층임)",17-2-2021,0
115,.,happy.674,,저거 아이폰 맞나?😳,17-2-2021,0
116,노래 이름,song_name___,,ㄴㅇㅁ,16-2-2021,0
117,고등어조림,hester_24,,내 핸드폰이 삼성 A31인데 겁나 안 깨지던데 ㅋㅋㅋㅋ,16-2-2021,0
118,ㅤㅤㅤㅤㅤㅤㅤㅤㅤㅤ,r8e7e7eu,,"◢🇰🇷◣            ◢🇰🇷◣
🇰🇷🇰🇷🇰🇷◣ ◢🇰🇷🇰🇷🇰🇷
◥🇰🇷🇰🇷🇰🇷🇰🇷🇰🇷🇰🇷◤
    ◥🇰🇷🇰🇷🇰🇷🇰🇷◤
         ◥🇰🇷🇰🇷◤",16-2-2021,0
119,🎧,alswl68,,이거 근데 삼성 깍아내리는거잖아 저기사 유일한 한국회사는 삼성이고 그럼 한국을 깍아내리는거아님?,16-2-2021,0
120,아인,ginbbang,,나 삼성 겁나 옛날폰 방수도아닌데 숫영장에 담기고 닥터피쉬 있는데 담기고 자전거 타다가 떨어트리고 스키타다가 떨어트렸는데 안깨지고 안고장남 ㅋㅋㅋㅋ,16-2-2021,0
121,jun seo0606,yeojunjun,,저렇게 하면 깨지겠지만 안깨지는 사람들은 진짜 안깨짐 또 깨지는 사람들은 진짜 잘깨짐,15-2-2021,0
122,IXTJ,0duvr,,..나 이거 s20 인데 정확히 16번 떨어졌는데 안깨짐!,14-2-2021,0
123,이지선,jisun0603,,삼성폰은존나 세게 집어던져도 안깨짐,14-2-2021,0
124,송,ks3to3,,삼성인데 폰 계단에 굴러도 안깨지던데,14-2-2021,0
125,채희LOVE,siwan0621,,"삼성 벽돌인데;; 내가 폰 4년동안 삼성만 썼는데 계단에서 떨궜는데 안깨지고
내가 짜증나서 폰 바닥에 ㅈㄴ 쎄게 던졌는데도 안깨짐",14-2-2021,0
126,💩,ehfkdl1004,,나만 아이폰인데 계단에서 떨어트렸는데 안깨진거야??,13-2-2021,0
127,장지수,ygygygyg29,,아이폰 나만 안 깨짐...!,9-2-2021,0
128,앙,pyeon1,,아이폰 6s 한번 떨어트렸는데 진짜 아작남 삼성은 앵간함,7-2-2021,0
129,유민,yuminjing0,,n년차 삼성폰만 쓴 나로써 깨지진 않은데 자꾸 떨구궈 액정화면이 나간...,6-2-2021,0
130,L,d.a.n.i1453,,And you didn’t smash the iPhone 12 and that’s two weeks well,6-2-2021,0
131,L,d.a.n.i1453,,Androids are the strongest phones,6-2-2021,0
132,황인준 옆모습 급발진녀,renjun_3.23,,삼성 존나 쌔게 치누 ㅎㄷㄷ,2-2-2021,0
133,엊절티비ㅋ,hyoyeon08,,내가 아이폰7만 5번 떨군거 같은데...,2-2-2021,0
134,ㅎㅈㅇ,qazzaq150o,,우리아빠 s7 7년 썼다 근데 안깨짐,2-2-2021,0
135,.,sisisii.3863,,아이폰이든 삼성이든 좋은데 왜 싸워ㅋㅋㅋ,1-2-2021,0
136,ㅈㅏ살,user48886373,,ㅎㅎㅎㅎㅎㅎ 나 삼성인데 친구가 내 키보다 더 높이 던졌는데 말짱했음 근데 액정 바꾸고나거 5cm위에서 떨어트렸는데 깨짐. 뭐임?,1-2-2021,0
137,김문수,pack8017,,lg는 망치를 부순다ㄹㅇㅋㅋㅋ,1-2-2021,0
138,썅 쒹 그윽 땅땅땅 쿵 지익 또륵,eunyanglee3,,잘 깨지나 잘 안깨지나 그딴게 뭐가중요해,31-1-2021,0
139,움념냠,suzy_0105,,아니 얘들아 내가 삼성을 쓰는데 침대 그 모서리 부분에 존나 쎄게 던져도 안깨졌어...,31-1-2021,0
140,hing9🥜,hcaep06,,나 모르고달리는차에서 삼성놓쳤는데 뒤에만깨지고 앞은안깨쟜음ㅋ,31-1-2021,0
141,Sghrzjxe,grdfdn0113_,,저거 s20아닌듯,31-1-2021,0
142,이수진,1234_12124,,@2008_1202_syj @1234_08_0101 @y_0329j @ooo_1108 아 나만 삼성 잘 깨진거임?,31-1-2021,0
143,69,krukru83,,망치 두드릴때 소리와 음악하고 리듬이 안맞아소 불편한 당신은 한국인,31-1-2021,0
144,정혜🐏,jjwh_09712,,오늘 삼성패드 떨어트린사람임.그대로임...,31-1-2021,0
145,⌯' ▾ '⌯,dbswldnjsa,,네 폰 던저서 깨뜨려가지고 엄마한테 바꿔달라고 하고싶은데 삼성은 진짜 어떤방법을써도 난 깨진다,31-1-2021,0
146,Daeng Cactus,daengcactus,,Give Me one please 🥺,31-1-2021,0
147,최강유,inggguing,,아니 얘들아 누가봐도 삼성만 제일 세게때리잖아ㅋㅋㅋㅋㅋ,31-1-2021,0
148,운선ꗯ̤̫,unss_223,,나만 아이폰쓸때 덜깨지고 삼성썼을땐 심하게 깨졌나...,31-1-2021,0
149,김태형,oskgksx,,결론:전부다 아작남,31-1-2021,0
150,접,minizebrar,,나 폰이 겉에는 진짜 안깨지는데 나 액정만 3번바꿈 색소터져서,30-1-2021,0
151,부자둘기,rrty2511,,삼성=기능좋은 벽돌만드는 회사,30-1-2021,0
152,.,cheeeeeo,,예상했어 힘조절ㅋ,30-1-2021,0
153,지희,zh_o7e05,,아이폰 계단에서 떨궈서 밑까지 튕기면서 떨어졌는데 존나 멀쩡해서 당황함ㅋㅋㅋㅋㅌㅌㅌㅋ케에스 없었는데 ㅋㅋㅋㅋㅋㅋㅋㅋ,30-1-2021,0
154,전서현,jnsohn,,이건 사람 인성이 ㅈ같냐 아니냐에 달림ㅋㅋㅋㄹㅇㅋㅋ,30-1-2021,0
155,FEPN,chaeya1,,어떤 폰이든 방탄액정쓰면 안깨지던디,30-1-2021,0
156,성은,krwhow,,여러분.. 그리 잘깨지는 아이폰인건 알겠는디유.. 아이폰12유저가 말합니다 엄마랑 싸우다가 벽에다 폰 던졌는데 안깨졌구요.. 변기에 빠뜨렸는데 멀쩡해유 변기에 빠뜨리고 물에 행궜는데도...,29-1-2021,0
157,:-),user460856058285944,,음...전 옛날 J3써서 아는데 제가 실수로 친구랑 학교에서 놀다가 계단에 폰 떨어졌는데 금도 안가고 안깨졌는데 밤에 충전하려고 했는데 손이 미끄러져서 폰이 떨어졌는데 금이 갔ㄷr....,29-1-2021,0
158,user9200660271615,user9200660271615,,요즘 삼성음 잘깨지는데 옛날께 ㄹㅇ 벽돌,29-1-2021,0
159,비공식 녀쟈님 홍보대사,kang07200,,저거 주작 아냐? 삼성 진짜 바닥에 던지고 벽에 집어 던져도 안깨지던데,28-1-2021,0
160,보라돌이,tata_1230_v,,ㄹㅇ 실제 일이고요 엄마랑 싸웠는데 엄마가 진짜 화나서 제 폰 ㄹㅇ 새게 던졌는데 1도 안깨짐 ㅋㅋㅋ,28-1-2021,0
161,.,oppkillpp,,저게 어덯게 s20임 ㅋㅋㅋㅋㅋ,27-1-2021,0
162,JH,bts__197,,내가 폰을 조심히 쓰는건지.. 아이폰 11 쓰고 있는데 10번 정도 떨어트렸는데도 멀쩡합니다..!!😬😬,26-1-2021,0
163,뭘봐,jam_min5959,,나 삼성유저인데 폰꺼내다가 떨었트렸는데 튕기면서 떨어짐 근데 그대로였음 물론 케이스 덕도있지만 저렇게까지야.....아닌데,26-1-2021,0
164,어쩔티비,euwikdjf03,,내동생 아이폰7쓰는데 손바닥으로 짚고 일어나다가 액정 제대로 깨졌다 ㅋㅋㅋㅋㅋㅋㅋㅋㅋㅋㅋㅋㅋㅋㅋㅋㅋ,26-1-2021,0
165,으응어쩔팁.티비,wowowowowwowo102,,나 삼성 50번은 넘게 떨어트렸는데 안깨짐 내가 운이 좋은거야?,26-1-2021,0
166,나능인간,qazplmwsxokn281,,삼성만 주거라땨리누,26-1-2021,0
167,Nn,ur_odm,,아무리 깔게없어도 샘송은 잘못건듬,25-1-2021,0
168,👻,dlrlqmadlrlqma,,저는 s20아니고 노트20인뎅 수십번 떨어져도 깨진적 없고요 필름도 때져있는데 진짜 안 깨져요,25-1-2021,0
169,💩,013101111010_,,j330 쓰는데 ㅈㄴ안깨져서 못바꾸는중,23-1-2021,0
170,이정진,user572815628,,아이폰 강화필룸,23-1-2021,0
171,.,kstouhn05300,,@dh._.115 울 아빠 s20인데 전에 그냥 바닥에 떨어트려도 멀쩡하던데?,23-1-2021,0
172,ㅈㅎㅈ,usergs1wllt09s,,삼성 휴대폰 작살나서 아이폰으로 넘어왔는데 1년동안 필름만 깨졌쥬? 케이스도 안끼고 댕기는뎅 히히,23-1-2021,0
173,👻,sssssssj11,,옛날에 삼성폰 쓴거 계단 데굴데굴 굴러도 멀쩡한거보고 경악을 금치 못했지...,23-1-2021,0
174,.,jungyeseul0,,나는 언니가 내 폰 집어던져서 어쩔수 없이 깨졌지만 삼성 왠만하면 안깨짐 ㅋㅋㅋㅋㅋㅋㅋㅋㅋㅋㅋㅋ,23-1-2021,0
175,ㅍ-ㅍ,oi7_486,,삼성 집어 던져도 안 깨진다는 애들 많네 ㅋㅋ콘크리트 바닥에 집어 던져봐라 안 깨지나;; 동생 노트10 쓰는데 방바닥에 떨어트려서 깨짐,23-1-2021,0
176,◡̈,nyanya17,,아이폰 7 유저입니다 급발진해서 물었는데 존나 깨짐,23-1-2021,0
177,🥶,kkrpbo,,애들아 애플보면 아이폰이 아닌데....??,23-1-2021,0
178,ㅇㅇ,xangelx488,,아이폰유전데 아이ㅠ폰 잘깨짐 특히 뒷면ㄹㅇ유리면 진짜 떨어트리면 거의다깨짐,23-1-2021,0
179,나윤,nyam_nyom,,모야 나만 아이폰 5년쓰면서 200번 넘게 떨궛는데 한번도 안깨진거야.???,23-1-2021,0
180,𝐁𝐓𝐒,army1306136,,뭐야 나만 아이폰 잘안깨져?8쓰는데 폰 던지고 주먹으로 때려도 잘살아있음,23-1-2021,0
181,간다간다 뿅간다,k.7dw,,나 삼성 쓸 때 침대에서 떨어트렸을 때도 안 깨지고 화장실에서 떨어트릴 때도 안 깨졌는데 뭐 아이폰은 침대에서 떨어트려도 깨지냐 심지어 삼성은 옛날 폰 J3이였음 지금 쓰고 있는 아이폰은 X고,23-1-2021,0
182,개구리 ⤴️🐿,minjoojung,,근데 외국인은 삼선왜깜?,23-1-2021,0
183,로그아웃 함 ㅅㄱ,logoutdeongeajung,,노키아는 벽돌급임 ㅋㅋ,23-1-2021,0
184,.,cherish_320,,엥 난 애플만 존나 잘 깨지던데 정방향으로 떨었뜨렸는데 맛갔음 삼성은 10번은 떨군거 같은데 흠집하나 안남 그냥 개인 차인가봄,23-1-2021,0
185,.,lilyshne,,아이폰도 진짜 아이폰 아님..,22-1-2021,0
186,미래,mirainoe,,아이폰 오해하는 사람 많은데 존나 안깨짐.... 진짜 아무리 떨궈도 안되던뎅 물론 일부로 말고..ㅋㅋㅋ,22-1-2021,0
187,☬JI_WUN☬,95ki0,,아니 왜 우리것만 치는데,22-1-2021,0
188,야키,usery07nnrlydl,,저거 삼성s20아닌거 같은데..?,22-1-2021,0
189,YAS,baka_0107,,필름 붙혔네,22-1-2021,0
190,떡볶이,hihihdd,,??..,22-1-2021,0
191,채빈_💗,cocoa034,,갤럭시 s7지금 3년인가? 쓰고있고 필름도 안붙였는데 액정부분으로 돌에떨어트려도 기스하나 안나든데,22-1-2021,0
192,홀롤로로로로롤,rfghus46,,삼성...한번 아님 그 이상으로 더 친 거 같은데,22-1-2021,0
193,쇼군찬양,im._.die1,,내가 보기엔 쓰는 사람마다 다른거 같은 첫폰이 s5였나 기억이 잘안나는데 학교 바닥에 떨어뜨리면 막 금갈정도 였는데 떨어뜨렸음. 망했다는걸 직감하고 드는데 금은 무슨 멀쩡함 깜짝놀랐음.. LG도 그리 많이 금은 안갔음. 걍 자연스럽게 떨어뜨리면 약간 금갈정도랄까나머지댓,22-1-2021,0
194,🐰,06__jis,,이미 깨져 있는뎅..?,22-1-2021,0
195,😈,yejijjang030,,"삼성 18년차가 말한다
삼성은 던지면 안 깨지고
실수로 떨으트리면 깨진다",22-1-2021,0
196,ㅎㅎ,hihihihihi038,,처음에 안깨져있는다는 보장이 없다는 사아실! 아이폰 안깨지는건 맞는듯 왜냐면 내가 존나 떨어트리는데 한번도 안깨짐,22-1-2021,0
197,뺩,jimin2000427,,댓들 그냥 애플 까내리려고 하는ㅇ거 보인다..애플도 좋고 삼성도 좋은데...,22-1-2021,0
198,🤪,w.s0_,,삼성 진짜 백날천날 떨궈도 안깨지던데.. 충전기 꼽아놓고 떨구면 충전기부터 확인함....,22-1-2021,0
199,박채빈,djwjfxlql_072,,아이폰은 그 끝쪽? 거기가 쉽게 깨지던데,22-1-2021,0
200,♡̷̷,ikh_o,,다 필요없고 안깨지는건 LG가 최고임 아파트 4층 높이에서 떨어트렸는데 액정에 금하나 안가있더라,21-1-2021,0
201,.,love_haikyu08,,엘지 ㄹㅇ벽돌같이 안깨짐,21-1-2021,0
202,.,love_haikyu08,,저게 어딜봐서 s20이냐;,21-1-2021,0
203,신데릴라,tess00180,,아이폰만5번은 바꾼거같음😂,21-1-2021,0
204,이아리,hyunmin__0614,,솔까 삼성 졵나 튼튼함,21-1-2021,0
205,김예담,princess__6740,,ㅇㄴ 나 삼성 써봤는데 한 번 떨어뜨렸거든? 주우니까 깨져있던데 너네 안 깨지는 방법이 뭐니ㅣ... 아이폰 떨어뜨렸는데도 찍히기만 하고 안 깨지던디..,21-1-2021,0
206,세상에서 제일 잘 나가는 고앵이,nan_yissocute,,아이폰 저거 삼성폰 아님? 홈버튼 보셈,21-1-2021,0
207,인바,sysunny1123,,네가 아시는 분 삼성에서 일하셔서 S20 하고 +20 쓰시는데 저 디자인 아님,21-1-2021,0
208,__,mzmzm82,,저거 s20아니야,21-1-2021,0
209,Diello,diello3564,,"삼성: 2층에서 떨어트려도 문제 없.
살짝 바닥에 툭. 파삭.",21-1-2021,0
210,.,ella47671,,열분 동생이 저의 아이폰을 지하주장에서 거의 던지듯이 떨어트렸는데 멀쩡해여 심지어 앞부분으로 가속도 붙으면서 떨어 졌는데 흠집하나 안남 참고로 아이폰 x임,21-1-2021,0
211,착한제페토 소아♡,soa_linggo,,아이폰 울언니가 이불위에서 깔고 뭉갰는데 깨졌는데 이건 울언니가 잘못했지😁,21-1-2021,0
212,.,.___.1015,,저 삼성쓰는데 모로고 책상 모서리 부분에 던져는데 안깨짐,21-1-2021,0
213,최연수,siyu5959,,아니 쾅쾅쾅 하기 전을 보여줘야징..,21-1-2021,0
214,채연,rlacodus_,,나 A8 썼었는데 3층에서 떨어트렸는데 안깨짐,21-1-2021,0
215,상큼발랄맹고,seyouyoung,,삼성 ㄹㅇ 잘 안깨짐 5년쓰는 데 30번 떨어트렸는 데 안 깨지던데,21-1-2021,0
216,정상수 돈구멍,___._.______0,,그래너잘났다🤭🤓,21-1-2021,0
217,김소연,soyeonsy_,,나 삼성인데 완전 울퉁불퉁한 길에 떨어트렸는데 필름 액정 하나도 안깨지고 살짝 까지기만함,21-1-2021,0
218,ESTP,09yoon12,,허어..아이폰12인데 다행이다,21-1-2021,0
219,owo,jrjnnrkeke,,나 삼성인데 ㅈㄴ 덜렁거려서 자전거 타고가다 떨어뜨렸는데 안깨짐,21-1-2021,0
220,코코몽,si_ba0812,,"나 방화 필름 안했는데 필름도 ㄴㄴ
시멘트에 떨어졌는데 안깨짐
참고로 삼성
그위대한 삼성",21-1-2021,0
221,ㅇㅅㅇ,lsangy128hbd,,처음 상태를 보여줘야짘ㅋㅋㅋ,21-1-2021,0
222,ENFP,kis.0123,,애플 잘깨지는거 인정..,21-1-2021,0
223,흐헿,istp_leoan,,어떤 사람이 약 23cm 떨어진 대리석에 아이폰 떨어트렸는데.. 와장창 핸드폰 아작 났던데,21-1-2021,0
224,담요,damyu0,,LG서러워서 죽겠네,21-1-2021,0
225,우린 아름답고 찹쌀떡 사이야,userwgsnolqpux,,노어쩌구는 또 어디냐,21-1-2021,0
226,린아,_lina0217,,a30 쓰는사람인데요 아스팔트에 7번은 떨어트렸는데 필름만 개박살나고 깨질생각이 없어요,21-1-2021,0
227,.,suyn.k6,,삼성 진짜 안깨지던뎈ㅋㅋ친구가 실수로 계단에서 떨어트려서 폰 굴렀는데 안깨짐ㅋㅋㅋㅋ,21-1-2021,0
228,현석,hyunhyunhyun000,,LG X5? 그거 티타늄으로 만들었다카든데,21-1-2021,0
229,.ᐟ,olivia10473,,차라리 그럴거면 폰 나 줘라 굳이 그래야 돼냐 조심히 가지고 다니면 안 깨진다,21-1-2021,0
230,안구자,hot_news20,,야 그럴거면 나 주지...,21-1-2021,0
231,Keller Vachet,keller_vaxhet,,man definitely not hitting samsung the hardest,21-1-2021,0
232,츠루마키코코로집착광공,cookierun_kingdum_haja,,아이폰은 안써봤는데 노트 8 케이스 필름 없이 존나 떨구고다녔는데 기스도 없쪙..,21-1-2021,0
233,,lim_na_eun,,아이폰은 한번도 안써봐서 모르겠는데 삼성은 잘 안깨지는거 ㄹㅇ임 한 4~5년 동안 삼성만 쓰면서 떨어트린적이 100번은 넘는데 깨진적은 1도 없었음 세게 던져도 안깨짐,21-1-2021,0
234,뭘봐,qkdoxtexbamannqqb193,,아이폰은 계속 떨어뜨려도 안깨지고 금도 안가다가 한방에 훅 감 ㅋㅋㅋ...,21-1-2021,0
235,아니,ummmmmm1111,,Iphone12🍎 마지막에 네모난홈버튼 있는데.? 나만본거야.??,21-1-2021,0
236,어,sonyunw,,아이폰 잘 깨진다는 사람은 걍 지가 잘 떨어뜨려서 그런거 아닌가..? 나 이이폰 쓰면서 진짜 ㅈㄴ 많이 떨어뜨렸는데 잘 안깨짐,21-1-2021,0
237,:þ,a_m_0606,,폰 존나 떨어졌는데 금도 안가구 기스도 안감열,21-1-2021,0
238,ISTP,cx_ixxz,,난 아이폰유전데 ㅈㄴ 안 깨지긴함 아이폰8쓸때도 엄청 떨어뜨렸는데도 ㅈ도 안깨짐 지금은 12프로인데 옆에가 메탈로 되어있어서 더 잘까질 것 같긴 한데; 여튼 삼성이 더 가성비도 좋고 내구도도 좋은듯 그냥 아이폰은 디자인이나 에어드랍 때문에 쓰는 것 같음,21-1-2021,0
239,ESTP,yujin_innng,,저거 아이폰 아닌디????,21-1-2021,0
240,뜰팁파는 애,tiktokertiktiok,,울 언니가 하루에 3번을 벽에 던져도 안깨지는 내 삼성폰 최고!!!!!!!,21-1-2021,0
241,𖧵 감사의 만사 𖧵,txt_love123,,님들 근데 내 폰이 이상한건지 모르겠는데 내가 폰 많이해서 마미가 폰 겁나 쌔게 던졌는데 안깨짐,21-1-2021,0
242,Zㅣ존 나현,0613_bts_hp,,내 전폰이 아이폰이어서 아는데 그때 내 키가 143이였거든? 근데 내가 사진찍으려고 폰 들었는데 실수로 머리 맞고 떨궈버렸다? 액정 나가고 심지어 그 폰 안 부품까지 망가졌더라고ㅋㅎㅋㅎ 내 잘못은 맞는데 그냥.. 올리고싶었어,21-1-2021,0
243,⠀,moon_971215,,삼성 쓰는데 비 오는날에 계단 올라가다가 발 미끄러져서 계단 모서리에 폰으로 개쎄게 쳤는데 겁나 조금 깨졌다...,21-1-2021,0
244,🍑,gyeongsu25,,저거다 ㅈ까고 lg써라,21-1-2021,0
245,ENFP-T,20130614_20130709,,삼성은 집어던져도 안깨지는데 어쩌다 한번 떨어뜨리면 와장창,21-1-2021,0
246,양말이라고 양말,eunjin518,,우리가 빙다리핫바지로 보이냐,21-1-2021,0
247,.,zpt640,,삼성이랑 첫번째랑 폰바꿔놨나ㅓ,21-1-2021,0
248,김수진,kkkkksssssssjjjj,,여기중에 지금 아이폰이면서 삼성감싸는 사람 한 명은 있겠네,21-1-2021,0
249,뀨~?_(칼맞찡),jujiyeon5,,나 삼성 아스팔트에서 존나 쎄게 던젔는데 지금 멀쩡함,21-1-2021,0
250,ISFP-T,korea14_leehun0,,"나 노트8쓰는데 쇼파에서 바닥으로떨구고,아스팔트에떨구고,벽돌에 떨구고,침대에서 떨구고,???내얼굴에도 떨궜는데 안깨짐 좀 깨지..ㅈ큼 아빠가 아이폰 사준다 했는데 됬다고 함 쓰기 좀 불편 해보여서요...떨군거 구라 아니에요..",21-1-2021,0
251,뀨,aying984,,나 우리 부모님이랑 싸워서 부모님이 내폰(애플) 풀스윙으로 2번 던졌는데 안 깨지고 멀쩡함 오히려 던진쪽에있던 무슨 기계가 부서짐,21-1-2021,0
252,구오즈⁹⁵,.bts35,,애플 유전데 걍 바닥에 떨어뜨리니까 모서리 부분 깨짐,21-1-2021,0
253,노트8유치원メ꼬마ऌ,omgovo,,삼성 많이안두드림ㅋㅋ,21-1-2021,0
254,성훈,saranghaeyo62,,It is S7,21-1-2021,0
255,솜사탕,ruru5373,,자기들이 쓰는 폰 빼고 다 까지 말고 걍 좀 쓰면 안되는건가..,21-1-2021,0
256,ꯁ.̮ꯁ,dah069,,아까워,21-1-2021,0
257,qw,fineman68,,옛날에 내친구 LG폰인데 똥폰이라고 깨트려서 엄마한테 바꿔달라고 하려고 길바닥에 내동강이 쳤는데 안깨짐ㅋㅋㅋㅋ,21-1-2021,0
258,잼,thenumberofpoliceinthef0,,삼성인데 아울렛에서 2미터?높이에서 떨어트렸는데 폰 케이스 모서리 튀어나온부분이 살렸다,21-1-2021,0
259,설명충,user363524580,,내 친구가 아이폰11떨어뜨렸는데 액정 걍 바로나가던데,21-1-2021,0
260,따뜸이🐰,dalami032309,,삼성 유전데 폰이 좀 커서 잘떨어뜨리는데 진짜 안깨져서 좋던디,21-1-2021,0
261,.,MS4wLjABAAAAMf6EVCB24q7gGhpB9Ihyu73NtgK5K2g9MTMXzAqx_GSP4aN5hiatRYwC_rbWtZZZ,,저게 s20이라고...? 존나 옛날거 아냐?,21-1-2021,0
262,둠피는 귀여워 뿌잉뿌잉,lick_0101,,저거 S20 아니라 S7아님? 뭔 조선시대폰을,21-1-2021,0
263,Eye 꽃,tree10284,,여러분 정말안깨지는 폰은 삼성 애플도 아닌 엘지의 벽돌 폰입니다.,21-1-2021,0
264,빈,parkjibin50,,애플꺼는왜 약하게침,21-1-2021,0
265,빈,parkjibin50,,또애플만안부서지것지 맛네역시,21-1-2021,0
266,🕶,bread_id,,나 삼섬쓰는데 ㄹㅇ로 100번 떨어트렸는데 아무것도 안 깨짐ㅎㄷㄷ,21-1-2021,0
267,💜🎗,dododidi24,,저거 삼성 s20 맞아요?아닌거 같은뎁...,21-1-2021,0
268,𝘌𝘕𝘍𝘗,maerin0106,,아이폰 12 아닌 거 같은데,21-1-2021,0
269,툰코 마스터,userputiz2jgi2,,삼성은 일부로 두들기면 안깨짐 근데 망치네,20-1-2021,0
270,북극곰,nice_0015,,삼성은 액정 겉면에 액정보호해주는 테두리 같은거있는데 이젠없나.. 그거 실수로 빠개져서 떨어질때마다 계속 깨졌는데 ㅋㅋ,20-1-2021,0
271,나 왜이렇게 팔해둔사람이 많아..,yeah_whatdoyouwant,,삼엽충입니다 지금 s7쓰는데 ㄹㅇ 하루에 10번이상은 떨구는데 화면에 앙보이는 깁스만났음ㅅㄱ,20-1-2021,0
272,𝒯,user112ntminyd,,s20펀치홀 카메라인데 저건 옛날 모델인데?ㅋㅋㅋㅋ,20-1-2021,0
273,하늉히,323468433.1,,삼성폰은 자전거터고 빠르게 달리다가 떨어뜨려도 안깨지던데,20-1-2021,0
274,N덕후,luge_33098,,저기여... 님들 저 삼성A90쓰는데 폰보다가 맨날떨어트리고 도로에 떨어트리고 존나씨게 던저도 필름은 까지지만 뒷면이랑 화면은 깨지지가안아요 근데 아이폰은 쫌만뭐 떨어트리면 깨져서 전 별로입니다 전이라고이라고했어요!!,20-1-2021,0
275,INFP,infp_so,,ㅇㄴ 나 삼성인데 좋은데 애들이 이번년도에 폰을 거의 다 바꿔서 나도 바꾸고 싶어서 깨트릴려고 걍 시험상으로 던졌거든? 던진건지 뭘한건지 금 1도 안 갔어서 다시한번 퐉 던졌는데 금이 좀 가긴 함. 아이폰은 있긴한데 안 쓰고았음 ㅋㅋㄹㅃㅃ,20-1-2021,0
276,엽떡착한맛치즈추가주먹밥추가,j._.0861,,뭐야 나만 삼성 존나 잘깨지고 애플 존나 안깨짐..?,20-1-2021,0
277,INFP,infp_so,,LG는?? lg 존나 땅땅함 ㄹㅇ 벽돌임,20-1-2021,0
278,.,hsy1130,,나 얼마 전에 폰 바꿨는데 전 폰이 s8이였음.내가 겜하다 빡쳐서 바닥에 던져서 튕겨나가도 안깨지고 계단에서 겁나 많이 떨어뜨렸었는데도 안깨지고 길에서 핸드폰 5번정도 떨어뜨려도 안깨졌고 집에서는 거의 매일 떨어뜨렸는데도 안 깨짐...진짜 뭐지???,20-1-2021,0
279,먀,aid_1127,,난 애쓸쓰면서 바닥에 떨궜는데 액정 나가고 두동강나서 바로 삼성으로 갈아탔는데 몇번을 깨쳐도 안깨짐 폰 갈고 싶은데 안도와줌,20-1-2021,0
280,애미 헌터,bluesun19,,내폰 하루에 1~3번씩 떨구는데 기스 하나밖에 안남,20-1-2021,0
281,아이언맨빰,1234567890key2,,내폰이 삼성에서나온 공폰인데 ....안깨져 캐이스를벗기고 보호필름을 벗져고..안깨져 개빡치네...,20-1-2021,0
282,달비🕊,spinel_0213,,음..나만 아이폰 7 썼었고 지금 노트20 울트라 쓰는데 둘다 하나도 안깨졌어..?,20-1-2021,0
283,❛❛ 예 밍 ❛❛,yeming_1783,,S20아닌데?,20-1-2021,0
284,🏐,lonedy2,,이번 아이폰12는 유리가 강화가 됬다고 하네요 자세한건 유튜브에서 봐주세요😅근데 저거 삼성s20 저럴게 안 생긴 것 같은디...,20-1-2021,0
285,2G1,jiwon129800,,나 필림없이 삼성 s20 일주일에 한번씩은 떨어트리는데 인 깨짐 ㅋㅋ,20-1-2021,0
286,user3843381515448,zikki_05,,화웨이 그냥 돌덩이임 게임하다가 2층에서 1층으로 떨어트렸는데( 그 계단 틈새로) 화면도안꺼지고 게임 멀쩡하게 돌아가고잇드라,20-1-2021,0
287,움칫,nuguseyo1357,,노트7 으로도 해주세요,20-1-2021,0
288,가밍,ggami0913,,아이폰7인데 진짜 겁나 안깨지던ㄷ,20-1-2021,0
289,샤랄라,jihahahahahahahhhaha,,아이폰이 잘깨지던데 집가다가 주머니에 빠졌는데 뽀가지고 잉크같은거 터짐,20-1-2021,0
290,홍승현,imkfkorea,,삼성 아스팔트에 굴러떨어쟜는데 기스하나 안남 게임많이하면 손아플정도임 벽돌인줄,20-1-2021,0
291,",,",niminazzs,,나....삼성인데 어제 겜하다 ㅈㄴ 빡쳐서 벽으로 개쎄게 집어던졌는데 깨짐....,20-1-2021,0
292,L.M,sno243,,걍 옛낭폰이 짱 걍벽돌임,20-1-2021,0
293,육영,inging_5,,이번 아이폰 12 겁나 안깨짐 더블비 봐바,20-1-2021,0
294,둔한야돈입니다,donhondon,,아 뭐야 노트 20 디자인 저거 아냐 삼성 욕하지마 ..,20-1-2021,0
295,사랑놀음,why_do.i_study,,"ㅇㄴ 삼성 노트 20쓰는데 맨날 등굣길이 엄청난 언덕이여서 돌멩이에 자주 떨어트린단말이죠
네
안깨져요 매번떨어트리는데",20-1-2021,0
296,방기썬,bangisun,,뭐야 저 아이폰 쓰는데 저만 안깨지는 거에요? 저 손에 기름 발랐냐는 소리도 들을만큼 많이 떨어트리는데,20-1-2021,0
297,낌비누🐱,user62648601,,어딜봐도 S20 아닌데,20-1-2021,0
298,ಣ냠냠ಣ,minchan0313,,S20구려 난 s20 울트라라 차원이다르지~,20-1-2021,0
299,.,rupee0910,,저 아이폰인데 필름 개떡딱하고 케이스도 있는 상태에서 떨어뜨렸거든요? 폰이 휘었어요ㅋㅋ 아이폰 예쁜 쓰레기입니다 사지 마세요,20-1-2021,0
300,✭⃢⃢ • ▓█▓⃢⃢♚⃢⃢▓█▓ • ⃢⃢✭⃢⃢ • ▓,user8148380583651,,that not s20,20-1-2021,0
301,발손이,kie8714,,삼성폰은 아포칼립스시대가 와도 살수있다,20-1-2021,0
302,기쁨의 포자춤,esplatte,,얘들아 삼성 s7공기계로 사용하던 사람이다 공기계라 떨어뜨려도 큰 상관 안쓰거든? 뒤에 금 쫙 간 상태로 2년 넘게 사용하고있고 중간에 한 재작년 8월? 21층에서 떨어트렸는데 아무이상도 없었음. 그리고 며칠전에 운명을 다함 ㅠㅠ,20-1-2021,0
303,ㅇㅈ,yujin080531,,@s.e_25 내 폰은 벽돌인데 진짜 필름도 안하고다니는데 안깨짐,20-1-2021,0
304,퀸콩왕코딱지,sexykimche,,아이폰 방수폰쓰면서 실험했는디 흠..삼성,20-1-2021,0
305,이먼지,munji._.lee,,@damyo_1 @llllllllll0212 어우 돈아깝..,20-1-2021,0
306,.,cat_afairy_fan,,삼성 침대모서리에 집어던져도 말짱해,20-1-2021,0
307,ENFP,umjis_123,,나는 삼성이 조아... 애플 쓰던거 깨먹어ㅛ는데 삼성으로 바꿨는데 액정1번만 깨지고 다 건강해..,20-1-2021,0
308,Moonknight,tithing0,,하 z플립 추락사로 사망,20-1-2021,0
309,도라희 ⍢⃝🍎,ihwbznzo,,아니 저게 삼성S20냐? 저건 그냥 옛날? 폰인디?,20-1-2021,0
310,초5 여잔데 뭐,leeseul02,,나 게임하다가 빡치면 그냥 돌이 있든 뭐가 있든 걍 집어던지는데 안깨짐 삼성 쓰는중,20-1-2021,0
311,효담아딱대,kgw0912,,"삼성장점:죽어도 안깨짐
삼성단점: 너무 안깨저서휴대폰 못바꿈",20-1-2021,0
312,레꼬단은 영원하리,thisisthebest446,,내 s8만 설탕 액정이냐 벌써 4번깨짐 엄마한테 이럴빠에 다른거 공기계사서 바꾸자니까 그냥쓰래,18-1-2021,0
313,︎︎︎,yourselft2,,oppo,17-1-2021,0
314,이서,varxxce,,아이폰이 아닌데..?,16-1-2021,0
315,︎︎︎︎︎︎︎,ingasalamaraigoom,,"나 삼성 7년 전꺼있는데
흠집 없음",15-1-2021,0
316,이승민,leeseungmin090930,,돈없으면 돈없다하셈,13-1-2021,0
317,이승민,leeseungmin090930,,저게 s20이냐,13-1-2021,0
318,하이◕‿◕,hiaccounts.com,,항상휴지 덥는이유: 어떤핸드폰 깔려고,12-1-2021,0
319,YG・KWS,wonseok10717,,결론은 가 깨졌어,10-1-2021,0
320,에베베베벱,vattle_villan,,아이폰4번 침,8-1-2021,0
321,뭘봐🎗,aggie793,,저 아이폰12 쓰는 사람인데 아이폰12 많이 떨었트렸는데 하나도 안깨짐,8-1-2021,0
322,김도현🇰🇷,kimdotong0,,근데 외국은 애플을 높이 평가해,7-1-2021,0
323,서진,lililililiiiliiliillli,,삼성 와이드1깨봐라 망치로 ㅈㄴ 두들겼는데 멀쩡했다,4-1-2021,0
324,하은,haeun092200,,아이폰 존나잘 깨지는데,1-1-2021,0
325,El Bozo Club,8_.zenitsu._8,,those are the wrong phones buddy,31-12-2020,0
326,민,min0803014,,저거 저랬다면 우리아빠폰 진작 반갈죽인데ㅋㅋㅋ 나 화장실에서 개많이떨궜는데 기스도 않남ㅋㅋ@kakonyong @lastname396,30-12-2020,0
327,파여,enstar_payeo_0823_kr,,S20라고 해놓고 S7 엣지를 셋팅했..,30-12-2020,0
328,감자칩먹고싶다,jjooodde_,,3학년때 j7 썼는데 진짜 ㅈㄴ 안깨지는건 맞음 좀있음 폰 바꿀꺼라 필름 안붙히고 사용했고 캠핑장 그 조약돌? 에 떨어뜨렸는데 말짱해,30-12-2020,0
329,점프맵 만드는중,wjdgh110510,,아이폰 ㅈㄴ안깨져요 저 아이폰7쓰는데 겜하다 빡쳐서 책상 모서리에 박아는데 안깨짐,29-12-2020,0
330,.,kms77505646,,엘지는 바꾸고싶어도 못바꾼다,29-12-2020,0
331,W,she_knows_everything,,아니 여기 아이폰 어쩌네 저쩌네 하면서 삼성 올려치기 하는 댓글 왜 이렇게 많아...갤럭시 카메라 좋아졌어!! 해서 안 믿으면 욕부터 박으면서 아이폰 액정 잘 안나간다 하면 무조건 아니라고 반박부터하네ㅋㅋㅋ큐ㅠ주관적인 입장에 그렇게 말하면 뭐라고 해,28-12-2020,0
332,갤럭시집착광공,seoyeonpark92,,아이폰 나만 겁나 깨지냐.. 8+ 인데 너무하네 1번 땅에 부딪쳤다고 아작이 나냐 ...,27-12-2020,0
333,ㅇ,snowgcsbzugako,,님들 그게 문제가 아니라 ㅋㅋㅋㅋㅋㅋ 걍핸드폰 기종부터 틀림 ㅋㅋㅋㅋㅋ,27-12-2020,0
334,(｀・ω・´),chohyunah39,,"아이폰이 왜 잘깨지는지눈 모르겠다만 난 넘어져서 벽에 쿠당탕 박었는데도 안깨지던데,,?",26-12-2020,0
335,응아이야,isfp_00,,삼성 수십번떨어뜨렸는데 깨진적 ㅈ도없고 애플은 첫날부터 깨짐ㅋㅋ,25-12-2020,0
336,이승현,user2138024886761,,처음사진안보여주냐 ㄹㅇㅋㅋ,24-12-2020,0
337,선선먀,wonmi_,,"삼성유저 인데요, 모서리에 쎄게 박고 벽돌에 쎄게 박았는데도 안 깨졌습니다",22-12-2020,0
338,먀미,diicbacl,,삼성 바닥으로 내리쳐도 안깨지는 듯,21-12-2020,0
339,Juuulien,rjf_500,,C un Samsung,20-12-2020,0
340,𝓡𝓪𝔂𝓪𝓷✨,__rubyjane_,,There isn’t any Iphone lol,19-12-2020,0
341,우연히봄,melody_buddy,,여러분 엘지하세요 진짜 안깨져요,19-12-2020,0
342,user1137579458062,anime31r34,,iphone 12 It The Samsung 12 Bro,17-12-2020,0
343,Aquafina,xloverx37,,12 got hit the most,17-12-2020,0
344,liluzivert,lil_uzi_vert0723,,the iPhone is actually a Samsung bruh,17-12-2020,0
345,a.v,a25_06,,c pas un Huawei p40 sa🤦‍♀️,17-12-2020,0
346,.,jonnajjajungna,,썅 삼성 엘베 구멍에 14층에서 지하 1층 떨어진적있는데 안깨졌더,16-12-2020,0
347,Yay,liyah_liayh,,I wish I had a iPhone 12 you just have fun with them can you send me one 😳🥺🥺,15-12-2020,0
348,Stephon,stephonwalls2005,,Did anyone else notice that the iPhone 12 had a screen protecter on it and none of the other one don’t,15-12-2020,0
349,Maxime😜🥇,max.levesque13,,Un beau iphone 12 😂😅 comme ses meme pas comme si sa ressemble,15-12-2020,0
350,Danny boi,dan.liang06,,"thats not a Huawei p40 that's a Samsung and the iPhone 12 looks like a Samsung and the Nokia looks like a, you guessed it a Samsung.",14-12-2020,0
351,Mathsucks,ihatemath242,,You hit the samsong one like 2 times,14-12-2020,0
352,Michael Diaz,michaeldiaz370,,One the Samsung is 20 is not an iPhone two the Nokia should not have been broken😂😂,14-12-2020,0
353,RyanB,ryan_bilodeau_,,its a galaxy s7 😂,14-12-2020,0
354,mya <3,mya.nakamura,,do a Google phone,13-12-2020,0
355,mouse,ii.mouse,,I am holding a samsung galaxy note 20 and they are invisible. I've had it for over a month. its invinsible.,13-12-2020,0
356,Redhead,redheadedgoon,,No one talking how the Nokia 3310 was a Samsung,13-12-2020,0
357,✝️God First✝️,railroad_content27,,How the hell did the iPhone not break,13-12-2020,0
358,ashtin,ashtin__801,,I didnt see an s20 and on the right was a galaxy s9,13-12-2020,0
359,andrew12211,andrew_b64,,None of those phones are iPhone,13-12-2020,0
360,alekk,alekk.21,,when the Samsung 20 has the strongest back of a phone every😳,13-12-2020,0
361,idk_zishan,idk_zishan,,thata not samsung s20,12-12-2020,0
362,ㅇ,hachi454,,나만 아이폰 존나 안깨지냐... 나 7+ 필름이랑 케이스 없이 화장실 바닥에서 떨어트렸는데 안깨졌는데 동생꺼 노트 8 동생이 떨궜는데 깨짐...,12-12-2020,0
363,.,kimleeroo,,내가 애플 쓰긴 한데 그냥 이럴꺼면 애플이 좋다고 하세요 왜 구지 남 회사 욕하는건지..,11-12-2020,0
364,줴민쒜,minyunki1993.03.09,,저게 S20이냐?,11-12-2020,0
365,~.~,zzabbron,,아이폰은 정면에서 때리면 그닥인데 모서리부터 박으면 ㅈ되는겨,11-12-2020,0
366,ENFP,09_11min,,삼성 개 쌔게 찍었는데 구석만 조금 쪼가짐,11-12-2020,0
367,마기꾼은 죄가 없어요,a_jh07,,삼성 짭이네,11-12-2020,0
368,Braydan,ryanrebel75,,🍌,11-12-2020,0
369,jacob,jacobgilardi,,That isn’t an s20 my dad has the s20 that’s more like the s5-s7,10-12-2020,0
370,🪺,minghaosrightdimple,,,10-12-2020,0
371,Rafael,raftttaker.14,,Hit the iphone hard,10-12-2020,0
372,로라로라,y_a_n_g1206,,애플회사에서 일하세요????,10-12-2020,0
373,Sam Marie,sma20035541,,"Do google, I ran mine over with a truck and the top half of the screen still worked😂",10-12-2020,0
374,코를 눌러볼텨? 팬,wkdkcicie,,미리 깨놓은것 같은데..,10-12-2020,0
375,지용준,jiy060418,,s20이 수화부랑 로고가 보엿구나,10-12-2020,0
376,ㅅㅇ,30770913577.11,,잉 아이폰 나만 안깨지나 7쓰는데 진짜 존나 떨구는데 필름만 금가고 액정은 멀쩡함,10-12-2020,0
377,🦋,dob_qop,,아니 나만 아이폰 안 깨져...? 집어던져도 안 깨지던데 ;;,10-12-2020,0
378,아미랜드,bts.130613.army.0709,,아따 앱등이 소고기 대표로써 말씀드립니더 사람들이 아이폰 잘깨진다그렸는더 그것은 헛소문입니더 제가 아이폰 액정 전면으로 팍하고 ㅈㄴ쎄게 떨어트렸는데 안깨졌음더 그러고 저거 아이폰 12 아님도,10-12-2020,0
379,레나,alal3344,,섷 그러지마요~~,10-12-2020,0
380,0,user2zg4a2on82,,난 삼성인데 케이스빼고 우당탕탕 떨어져도 절대 안깨져서 나중엔 하드케이스가 아작남 그래서 아직도 케이스 벗기고 다니는중,10-12-2020,0
381,(uoᴉsɹǝʌ s'ɹolʎɐʇ),loser_tina,,@danyelacastroly iphone?? onde,9-12-2020,0
382,Allie🐝✨,akina.021,,Le problème avec les iPhone c’est soit il tombe: il reste intact soit il est explosé 😂,9-12-2020,0
383,슈지,ulhn,,노트 10아스팔트에서 5번정도 떨어뜨렸는데 그때마다 아빠는 한숨만 쉬고 깨지진않음,9-12-2020,0
384,Stelra,stelra,,그만 좀 속여라.애플이 제일 쓰레긴데,9-12-2020,0
385,•o•,user708964045450,,"경험담※
삼성은 카메라 깨지고 애플은 안 깨지면 더럽게 안 깨지는데 잘 깨지면 더럽게 잘 깨짐",9-12-2020,0
386,야쿠,dizn3,,저거 폰 지공 다른데..? 삼성ㄷㅎ 그렇고 아이폰도 그렇고 내가 아이폰12룰 지금 쓰고있어소 그런데 아이폰12 졸다 저거 아니고 s20는 엄마가 쓰는거라 아는데 저거 s20라 써있는곳에 저 폰 s20아니다... 그리고 난 삼성이 더 잘 깨지던데..?ㅋ,9-12-2020,0
387,✨izalie✨,.izaalie,,it samsung s7😂,9-12-2020,0
388,CorosaVirus,imcorosa,,He didnt even touch the iPhone but whatever🙄,8-12-2020,0
389,🤍أفين,_evin.imr,,C pas un iPhone 12 sa,8-12-2020,0
390,ꯁ,jyk_080912,,저거 12아닌거 같은데..? 아이폰12라는거 왜 삼성 옛날 홈버튼이 보여..?,8-12-2020,0
391,Entp,jiralyumbyung3423,,누가 봐도 화웨이랑 삼성은 더 많이 때렸는데 괜찮으시겠어요?,8-12-2020,0
392,언박싱,unboxing139,,안깨지든 말든 저렇게차이 나는건 에바지,8-12-2020,0
393,ㅇㅁㅇ,moeun_06,,"삼상쓰는데 자전거로 존나 빠르게 달렸을 때 떨어져도 안깨짐,,;",8-12-2020,0
394,😘,bts..2013.0613,,나 지금폰 차에 밟혔는데 안깨짐,8-12-2020,0
395,싷,leeeesh__,,아이폰 존나 잘깨짐,8-12-2020,0
396,이효원ㅋ,chunja0928,,외퀴들아 그냥 삼성 좋은거 인정해,8-12-2020,0
397,우엥,ethrereal,,삼성 은근 잘깨짐 내 전 폰이 S9이었는데 몇번 떨어트리기만 해도 액정 바로 나감 필름 때서 그런건진 몰라도 암튼 떨어트릴때마다 깨짐 심지어 뒷면도 깨짐,8-12-2020,0
398,이두현,leedoohyun2,,난삼성쓰는데 화날땨마다 어디던지는데 조금 느려지기만하지 깨지지는않음,8-12-2020,0
399,Kayla,kayla4825,,i got a 12 pro max i thought that was it,8-12-2020,0
400,말포이랑강동원,yushieun1,,s20?.... 뭐래...,8-12-2020,0
401,Joseph Yee,localairportterminal,,That’s not an iPhone 12,7-12-2020,0
402,이태연,leetaeyeon04,,아이폰 에 돈봉투 를 부쳐야지,7-12-2020,0
403,여원 Yeowon,kongnu_,,아이폰12는 옆면이 반듯합니다^^,7-12-2020,0
404,질랄,ziral_ziral_,,히잉.... 구지 그렇게 비교할 필요가....🥺🥺,7-12-2020,0
405,ISFP,juhye6666,,삼성 노트20실제로 쓰고 있는데요 네 죽어도 안깨져요😅,7-12-2020,0
406,루다스 .__.,luda.__.s,,"아 우리엄마가 승질나서 삼성폰 던졌는데 9번던지고 안깨져서 세제 푼 물에 담궈놓음ㅋㅋㅋ
근데 한 며칠 살아있더랔ㅋㅋㅋ
미친 생명력 인정함ㅋㅋㅋㅋ",7-12-2020,0
407,틱톡에 미친련,tiktokemicinneoyn,,저거 엘쥐가 넘산데,7-12-2020,0
408,"Sibel,sible,sieble",uguzsibel,,shore,7-12-2020,0
409,Colleni,kaedeharakazuha.s,,THE IPHONE 12 IS A GOOGLE PIXAL LOL,7-12-2020,0
410,🧋,bye70700,,삼성왜케싫어해진짜나삼성쓰는데돌바닥에떨어트려봤는데밑에밖에안깨짐다잘되고..,7-12-2020,0
411,김현아,kimhyunah74,,LG4년 쓴 유전데.... 바꾸고 싶어서 던졌는데 안깨졌었음... 지금은... 바꿨구....ㅈㄴ 멀쩡해서 당황함,7-12-2020,0
412,김현아,kimhyunah74,,꺄지는 갈로 할라 그려면 LG로 해야지...,7-12-2020,0
413,~Mªthilde~,.mathilde_m,,Damn 😂@la_ptite_kid_crum,6-12-2020,0
414,빵꾸똥꾸,saseonga,,제가 갤럭시a8을 2년도 안썼어요 대충 1년반정도 썼는데 진짜 a8 사지마세요 제폰이라그런지모르겠는데 친구랑 겜하는데 같은곳에서 똑같은겜하고 심지어 저보다 싼폰쓰는친구보다 랙잘걸리고 버그 ㅈㄴ잘걸립니다. 유튜브화질도 내다버렸습니다.,6-12-2020,0
415,🤵🏻‍♀️,elleascala,,mdr abuser pas quand même (g un iphone donc),6-12-2020,0
416,앙?,ahngchang,,"A50인데 저번에 길에서 폰 떨궜는데 진심 너무 멀쩡해서 한 번 더 떨어트렸음, 근데도 멀쩡",6-12-2020,0
417,윷오,dxswsdw11,,님들 엘쥐폰 진짜 집어 던져도 안깨짐 진짜 벽돌,6-12-2020,0
418,⸝⸝ʚ̴̶̷̆ ̯ʚ̴̶̷̆⸝⸝,i_iove_u_so,,엥 나 아이폰 12인데 저렇게 안 생김ㅋㄹㅋㄹㅋㄹㄹㅋ,6-12-2020,0
419,무선,mooseon25,,s20은 전면카메라 중앙에 한개있고 베젤도 넓음 저게 어딜봐서 s20이야,6-12-2020,0
420,ㅇㅇ,siyeon1021,,"여러분 ,, 저 S20 쓰는데 벽돌에 떨어뜨려도 안깨졌어용 ,,😅",6-12-2020,0
421,화장실,obeiganegecngeciminsii18,,느리게해서 보셈 제발 진짜 12만 애기 보듯이 찍어내림,6-12-2020,0
422,화장실,obeiganegecngeciminsii18,,은근 슬쩍 12 존나 살짝 찍음,6-12-2020,0
423,여름,userwca0hmpp0v,,아니 근데 아이폰때릴때만 살살때리는것 같아,6-12-2020,0
424,보민,09._.bomin,,아이폰도 잘 안깨지는 폰 있음 이폰 se2인데 렌나 많이 떨어트렸는데 기스 쬐끔씩만 보이고 안깨짐,6-12-2020,0
425,user6361693995978,rarariraral,,나 s20쓰고있는데 s20은 앞에 카메라 1개고 앞에 삼성로고없음,6-12-2020,0
426,👼윤천사👼,jieun548,,갤럭시 s20써써는디 저리 잘 깨지진안트라 한 10번정두 떠러트리니까 끝에 살짝 깨진 정두,6-12-2020,0
427,",",04592all,,저 아이폰 쓰는 사람인데요! 저 손이 좀 험난해서 잘 떨어트리는데요!!! 액정 깨진 적 없습니당~,6-12-2020,0
428,허허,freshlemon9,,자 이제 아이폰을 뒤집어보아요^^,6-12-2020,0
429,양홍원일반인여자친구,hongwonwife,,s7 같은데ㅋㅋ,6-12-2020,0
430,cloudsister☁️(구름이누나☁️),yeeunyi85,,다른폰깨트릴때는흔들렸는데 아이폰깨트릴때는 안흔들림,6-12-2020,0
431,☁️,user896275646,,삼성 까고 싶으면 걍 까... 이렇게 까지 말구.....,6-12-2020,0
432,여자 안닌데...?,user02mwoepvm7,,아니 전부다 삼성 폰인데...?,6-12-2020,0
433,><,01.__.yun2,,나 아이폰 4~5년 썼는데 거실에서 던졌는데 안깨졌어..그냥 너네가 못 쓰는거 아니야??,6-12-2020,0
434,user4037086235429,massoud..1,,tu montreras mieux la prochaine fois,6-12-2020,0
435,Bianca,biancaramseyer197,,tu tape dans les coin du samsung C EST NORMAL et puis les baterie des iphone c est péter,5-12-2020,0
436,nevaeh<3,_..ur_mom._,,thats not an s20,5-12-2020,0
437,.,po1010ta2020to3030,,저 아이폰 바닥에 대고 손으로 눌렀는데 바사삭 소리 들리면서 깨짐 ;;;;,5-12-2020,0
438,charlotte ◟̽◞̽,.charlotte.brown,,imagine trying to make apple look good 🤡,5-12-2020,0
439,진🖤,yujin_saban,,아이폰 잘깨진다는사람들 무슨 헐크냐 ㄹㅇ삼성도 잘안깨지긴 한데 엄폰 예전폰이 아이폰인데 ㄹㅇ 엄폰 가지고놀다가 빡쳐서 던져도 안깨짐.. 내폰은 갤럭신데 그래도 옆면에 흠집간거 빼곤 아무이상없음 예전 엄폰보면 개깨끗함 내힘으로 방바닥 작살낸적도있음...암튼아이폰이쎔,5-12-2020,0
440,진주,20071109ww,,아이ㅗㄴㄴ 아니게ㅠ생ㅇ겻ㅁㄸ,5-12-2020,0
441,틱톡은최악이애,jj.luv97__2,,엥 아이폰 진짜 잘 안깨지는데ㅋㅋㅋ걍 필름만 좀 깨짐,5-12-2020,0
442,Tea 주콩,koojoo5,,"P40은 2차대전 당시 미국의 전투기랑 이탈리아 중전차의 이름..
ㅈㅅ",5-12-2020,0
443,JI_WOO,jjing_1126,,아닝 삼성 던저도 안캐지는데 뭐여,5-12-2020,0
444,김민서,minseokim060808,,아니 솔직히 아이폰 잘 안깨진다쳐줄게 근데 깨지면 수리비용 존나비싸 근데 삼성은 아이폰에 비하면 죤온나 싸 한 삼성 4~5번 깨지면 아이폰 1번 수리비용이랑 똑같으려낭,5-12-2020,0
445,상은,idealis56,,내가 아이폰 안쓰고 삼성만써서 그런건지 모르겠는데 사람들이 핸폰 뒷면으로 떨어지면 불안해하던데 난 그런거 전혀없음 걍 떨어지면 주우면 됨 안깨짐,4-12-2020,0
446,정보가 없는 사용자,suga930309minngalam,,노트20지금쓰고있는데 저거 예전폰이자넠ㅋㅋ 어이없닼ㅋㅋ,4-12-2020,0
447,-MilkyPawz-,.milky.pawzz,,that iPhone an imposter-,4-12-2020,0
448,밥,yamaha_r6_,,휴대폰 상태부터 보여주고 깨주세요😁,4-12-2020,0
449,eeee,bakaowhwu829,,폰으로 싸우지말자 ㄹㅇ 그냥 사용만하면되는건데,4-12-2020,0
450,Gavin,unknownzgavin,,I phone,4-12-2020,0
451,손톱,sontob0423,,lg가 최강아님?,3-12-2020,0
452,Peter Porker,a_chapman_06,,take the screen protector off the I phone,3-12-2020,0
453,user6445057204011,MS4wLjABAAAA1FvEZiNuRuHQgPeKSnSG-1mrkRpMGObX16npuXJNoDx5U5ahplSbWbmQdNvT2Mjt,,아이폰은 조금 때림,3-12-2020,0
454,밤뀨,080227ad,,님드라 나 s20+ 방탄폰인데 25번 정도는 떨궜는데 기스만 나지 깨지진 않았어요.,3-12-2020,0
455,하연,seohayeon,,삼성 집어 던지면 안깨지는데 툭 떨어졌늘때 깨짐,3-12-2020,0
456,지효온,jihyun1201,,여러분 삼성 A8겁나 안 깨짐...,3-12-2020,0
457,인호,bearhwanginhoo1011,,저거 s20 아닌뎈ㅋㅋ,3-12-2020,0
458,.,20090209yeeun,,아이폰6 사촌동생이 우리집 바닥 대리석이라서 떨어트렸는데 멀쩡하던거 개 박살남 ㅋㅋㅋㅋㅋ,3-12-2020,0
459,jh,user3gw7x9we81,,와씨...저...삼성겁나쓰는데그냥떨어뜨려도안부서짐여,2-12-2020,0
460,.,user8z4nk35ct2,,@w__568 저비싼것들을 아이고...삼성그랗개쓸거면나줘ㅠㅠㅠ유ㅠㅇ,2-12-2020,0
461,.,amrrarry,,뭐야 왜 다들 안깨진대...나만 잘 깨지나봐,2-12-2020,0
462,Breakdown Time,breakdown_time,,Even if you actually hit the iPhone hard which you didn’t I would have shattered,11-12-2020,0
463,:),choi._.16,,Admit that you're going to cut it. Samsung doesn't break well.,25-1-2021,0
464,スイカが好きな人,mikamngg33,,アイホンじゃなあえ,9-1-2021,0
465,︎︎,o6.mmm,,アモングなの草,3-1-2021,0
466,🌼,_maslo_1,,Ja mająca huawei p40 lite,22-12-2020,0
467,user5187998295145,mystical_brisket,,That was low key satisfaction,17-12-2020,0
468,Marinbam,marinbamba,,iphone forever 🥰,14-12-2020,0
469,Jenna_Pride,lucas_pride,,I have a Samsung A21 lol,12-12-2020,0
470,NotPasta,notpasta,,those are literally 4 samsungs,12-12-2020,0
471,🇺🇸U.S.MILITARY🇺🇸,united.states.military,,That’s not a iPhone 12,11-12-2020,0
472,brady,bradyschwartz1,,I like how he only hit the samsung,11-12-2020,0
473,I love roblox,bacon_isthebest5596,,nab,12-2-2021,0
474,Your dad,mhscinfessions,,cap,14-12-2020,0
475,Salama Sahra,_noeverythingnornothing_,,cap,5-12-2020,0
476,Gage,gage_tooturnt,,"□ single
☑ taken
☑ cracked at Fortnite my guy 😩🥵",5-12-2020,0
477,<3,user17492636363,,ALTA DORT IST KEIN HANDY RICHTIG BESCHRIFTET MAL EHRLICH SIEHT EIN IPHONE SO ECKIG AUS!?!? NEIN! UND JZ LEG NT DIE LEUTE REIN😡😠😡😠,22-2-2021,0
478,김셰프,irndlii,,나 액정깨기 장인. 삼성 a7 쓰는데 횡단보도에서 떨어뜨리고 차에 깔렸는데도 안깨지고 암튼 안깨짐 안깨지는건 쥰나안깨짐 인정해야됨. 물론 그래도 아이폰이 예뻐서 조음힣헿ㅎ,29-1-2021,6
479,.,2901yummy,,LG는 핸드폰 안만들어요?,23-1-2021,0
480,혁우,hyuck02241,,아이폰 6 썼는데 주머니 높이에서 떨궜더니 휘어버리고 기판 다 보임 ㅋㅋㅋㅋㅋ,22-1-2021,0
481,ㆍ,ilililill11,,삼성 나 초5때 샷건 한번 쳤다고 개 박살남 근데 떨어뜨리는건 진짜 안깨짐,20-1-2021,0
482,오수진,lkjh___99,,나 옛날에 아이폰쓰는 칭구가 쓰다가 ㅁ실수로 바닥에 떨어뜨렸는데 박살남ㅋㄹㅋㅋㄹㄹㅋㄹㅋㄹㅋ,5-12-2020,0
483,𝕳𝖆𝖎𝖉𝖆𝖗𝖍𝖚𝖘𝖘𝖎𝖓𝖓,haidarjee__,,"@haidarhussinn:Now playing : Goosebumps by Travis Scott
────⚪───────────────○
◄◄⠀▐▐⠀►► 3:88/ 5:90⠀🔊⠀ᴴᴰ ⚙️",22-12-2020,1
484,Aiala💖,aiialaa.15,,"me lo regalas, you can give ti me??",21-2-2021,0
485,أستغفر الله الله اكبر,6zhff,,"(ردد معي)
استغفرالله(٣)
الله اكبر(٣)
سبحان الله(٣)
الحمدلله(٣)
سبحان الله وبحمده(١٠٠)
سبحان الله العظيم(٣)
🖤💙",14-12-2020,0
486,<3,cruxchie,,@justsartastic,22-11-2020,1
487,Dominic Parsons,skinnyxbox,,pls he hit the samsung so much,22-11-2020,1
488,Frank Arvizu,franks_._,,Bruh the Samsung is not a s20,22-11-2020,1
489,Takocshī,im_takocshi,,nokia 3310,22-11-2020,1
490,._.,desconocido010103,,Porque le cuesta admitir que si golpeó al iPhone si al final le dio hasta 2 golpes,22-11-2020,1
491,m a r i a,usermerigs6434,,Pero si ninguno de esos 4 teléfonos son iPhones-,21-11-2020,1
492,Helcso piggyik,.....c0co_lifee,,I have huawei p40 lite,21-11-2020,1
493,Takocshī,im_takocshi,,its a note!,22-11-2020,1
494,Luckster,.lucksterr,,fake. that Samsung one looks like the galaxy s8 or s9,22-11-2020,1
495,É O SPACE NÉ PAI🐊,space_ice_,,Se vc colocasse o primeiro Nokia na hora que vc fosse bater nele ia quebrar o martelo,22-11-2020,1
496,FOLOW FOR FOLOW,maida_______m,,u switch iPhone and samsung😂😂,21-11-2020,1
497,sigo de volta até 2k😚,isabelaferes2,,🔨,22-11-2020,1
498,💪🤟Goncas🤟💪,dps_eu__que_sou_autista,,nokia,22-11-2020,1
499,Maury Ocampo,_maury_lv,,Para empezar ni hay iPhone jajajaj,22-11-2020,1
500,mitski na mente e no fone,ilovexzmari,,ent neh cade o s20 ai isso dai e um s6 :),22-11-2020,1
501,LaibaAli,laibzzz0,,Bruhhh yalll crazyy,22-11-2020,1
502,gstzxf,gstzxf,,Al Samsung ni le dio :/,22-11-2020,1
503,🏴‍☠️♣️🌚💣☠️,shimiiowo,,No golpeó el iphone,22-11-2020,1
504,zizahジ,yes_iam_azizah,,hp ku Nokia,22-11-2020,1
505,ana ferrari,ana.frri,,iphone 3 ta diferente,22-11-2020,1
506,Si?,nnnnnnmnnmsndd133,,No golpeó el iPhone es Fanboy pero en mi opinión el Samsung destrosa al iPhone 😏,22-11-2020,1
507,hehe,ungabugaaa,,full real😅,22-11-2020,1
508,Mika,mika._.s,,🔴AVISO🔴 pratrocinamento da aplle,22-11-2020,1
509,Witamy Na Morence,kacper_tadra,,Fajna nokia 3310 XDDDDD,22-11-2020,1
510,Leah Mitchell,hisfavebrunette69,,It s all four,22-11-2020,1
511,Лев для друзей Лёва,levan_go,,Шорош,22-11-2020,1
512,juliana,juli4naa_,,Meu huawei p20 vendo isso ✊✊😔,22-11-2020,1
513,doritos 🤠👌,sull1.pe4ches,,nokia,22-11-2020,1
514,TikToker,hystericalttk,,nokia só fez efeito na película kkkkk,21-11-2020,1
515,kasumi akane rosales,kasumiakanerosale7,,"y yo con mi ZTE que ya duro la pantalla después de que me lo tirará un bebé,un niño y unos adolescentes",22-11-2020,1
516,Gabriel,eu.sou.o.gabriel,,@amandinhatiktoker,21-11-2020,1
517,💫CDREDITS💫,aimshuub,,Como que ese teléfono no es iPhone,22-11-2020,1
518,Lucas,lpizzi12_,,they are all samsung but the shit ones,22-11-2020,1
519,user7538344761626,mohammad753834476162605,,My phone fall from my hand and in the road and nothing happened,21-11-2020,1
520,Emely Moreno,emiq2006,,me dolió hasta el alma,22-11-2020,1
521,Creepoe_Cr,creepoe_cr,,"nobody talking about the ""nokia""",22-11-2020,1
522,Than⚡️,_giannakis,,Το iPhone 12 που το είδες??,22-11-2020,1
523,💫CDREDITS💫,aimshuub,,"Yo tengo el iPhone 11 y se a caído 20,000 veces y no le a pasado nada solo que se rompe el protector de la pantalla",22-11-2020,1
524,Mohammed salah,xsports79,,Instead of hammering phones give one to meh,22-11-2020,1
525,.,ellagleesonnn,,well no shit its a hammer,22-11-2020,1
526,👁👄👁,lilillllllllillllll,,"Y’all really think this guy gonna break a 2,000 dollar phone😂",22-11-2020,1
527,lukyn,_lukyn____,,where Is Xiaomi?,22-11-2020,1
528,Pomergranite,semicorrodedcopperstairs,,No that's not a Nokia if it was a Nokia your hammer would have gone bye,22-11-2020,1
529,Breezyyyy,babs.mb,,Ahi no hay iphone,22-11-2020,1
530,🍏⚡,wtsxeli,,noo and me wanting an iphone,22-11-2020,1
531,….,ari.r08,,🥲,22-11-2020,1
532,DoeJoe,doejoe17,,u ain't even giving us a minute to see the video,22-11-2020,1
533,An,bbabybluew,,"los que dicen que no golpeo al phone,nunca tuvieron uno?",22-11-2020,1
534,TikTok,eamonn.gall,,fake,22-11-2020,1
535,ოօռռყ <3,the_marauderstpw,,mi samsung se a caído mil veces de pantalla sin Mica y apenas tiene un rasguño xd,22-11-2020,1
536,Manuel ツ,jefe6378,,día 1 intentando ganar seguidores por comentarios. ༼ つ ◕‿◕ ༽つ,22-11-2020,1
537,maciek3fpriv,.kaptus,,to nie był samsung s20 fake,22-11-2020,1
538,Rayllan _BR,comentarista077br,,s20 da deeb web 😂😂😂😂😂,22-11-2020,1
539,😑 Raeed 😑,raeedali786,,try with an oppo my guy,22-11-2020,1
540,_Joshua.17,joshua.caparco_,,io che ho il p40 e mi e caduto una ventina di volte:,22-11-2020,1
541,regina,reginaolverac11,,@isabellamirandag,22-11-2020,1
542,Dark chocolates,taken.name,,None of those are iPhones,22-11-2020,1
543,ㅤㅤㅤㅤㅤㅤㅤㅤㅤㅤ,bryanbenavides611,,Nada que ver con los celulares :3,22-11-2020,1
544,Danie.Festa,elfesta,,solo golpeo 1 vez al iphone y como 40 a los otro,22-11-2020,1
545,Ferne Farmer old account xxxx,fernefarmer8,,@courtneyluv2000,22-11-2020,1
546,vboyz2304,vboyz2304,,THATS NOT EVEN A NIKIA 3310,22-11-2020,1
547,angel,angel.2213,,al que más golpeo fue al Samsung s20,22-11-2020,1
548,gatito,gatito_bomba1,,jajaja porque se pelean si ningún celular de ahí es el que menciona 😂😂😂😂,22-11-2020,1
549,Enrique CR Medina,enriquecrmedina,,Día 1 intentando ganar seguidores desde comentarios,22-11-2020,1
550,Tizio a caso🤡✨,ti.ho.fottuto.orologio,,questo commento piace all'autore,22-11-2020,1
551,vulnicura era,vespertwink_,,"C quejan del iPhone y la pantalla de los iPhone las fabrica Samsung, las amoled",22-11-2020,1
552,manlikesameer,lo...0l,,plz do the results,22-11-2020,1
553,kichen,kichen55,,qm sabe sabe,22-11-2020,1
554,Rocket Jo,user520169186,,only me noticing that a samsumg s20 does not have samsung at the top of the phone,22-11-2020,1
555,✨🃏🎭 R I R I K A 🎭🃏✨,miku.casate.comigo,,"Nokia : Boo, bitch i'm a ghost👻",22-11-2020,1
556,Taehyung,bangtan.taehyungg,,Makes no sense when my brother uses his s20 as a hammer,22-11-2020,1
557,user7587384351963,naosei_32,,Nem iPhone está!,22-11-2020,1
558,⚰😈,me.l4uu,,@mariaclara.malheiros doeu meu coração,22-11-2020,1
559,El Frutas,el_frutas_00,,Cuando un Iphone tiene un noch de gota?😂😂😂😂😂😂😂😂😂😂😂,21-11-2020,1
560,Fab Don Rixos,fabdonrixos,,Danke,22-11-2020,1
561,🦋Marilyn🦋,marilyn_monroe_ediys,,o Nokia é um Samsung note 8 😂,22-11-2020,1
562,.,_valenmore_,,"Les cuesta admitir que el iPhone es fuerte? A mi se me cayo a la pileta, desde un balcón, saltando por la calle y ni hablar de las veces que se me +",22-11-2020,1
563,Grace Currie,graciemcurrie,,😂 Mate 😂 I drop my iPhone on a pillow and it smashes 😂,22-11-2020,1
564,UNITED 4L,icba2think,,I have an s7 And i can confirm that is what my phone looks liee I dropped it on concrete,22-11-2020,1
565,Ferretti,ferretti_,,Não é iPhone e não é Samsung s20,22-11-2020,1
566,Vincent Bennett,dontknowwhatimdoinghere5,,where is the 3310,22-11-2020,1
567,DIOGO,diogo_baleeiro,,Y cómo sé que no ya estaban rotos. Y qué les pegaste más despacio,22-11-2020,1
568,Doll,babydoll_240,,metele Nitro papi😏😳,22-11-2020,1
569,El Frutas,el_frutas_00,,vreo que el man no sabe los modelo. solo creo que coinside el ultimo.,21-11-2020,1
570,Mia,ju5t_mi4,,PAHAHSHS that is not a Nokia 3310 I-,22-11-2020,1
571,💕💫Lele💫💕,__.lenay.__,,Yo con mi Xiaomi: 😁,22-11-2020,1
572,Bellatrix Lestrange,imtherealbellatrix,,IPhone is wrong,1-12-2020,1
573,ㅇ,peachdeal,,나만 옛날에 삼성쓰다가 살짝 떨어졌는대 액정 다 나가서 애플로 갈아탄거임?,29-11-2020,1
574,준규야 신경치료하지말고 양치하자,komukomu808,,아니 나 엘지 쓸때 바꾸고 싶어서 아스팔트에서 집어던졌는데 안 깨짐,29-11-2020,1
575,안녕하십니까,army09723,,삼성폰 쓰는데요 집에서 쫙!소리나게 떨어트렸는데 안 깨졌어요ㅋㅋㅋㅋ,29-11-2020,1
576,어쩔티비,fjeidjdhdhfjd,,나 삼성폰 쓰는데 나 매일 매일 폰 던지고 다니는데 안깨짐,30-11-2020,1
577,한결🐰,dksydmalzhx,,아니 부실거면 나조,30-11-2020,1
578,ANIME WOLRD,young.groovy2314,,Damn 😂😂😂,30-11-2020,1
579,하은,hahan292,,LG도 탄탄햏..,30-11-2020,1
580,Daughter of god😩💅🏾,not..sxrah09,,WoW thé IPhone 12 is not broken!!!??? 😳😳😳,30-11-2020,1
581,뾰족붸눌,ppyojogbwineul,,미안 게임에서 질때마다 핸드폰 던지는데 안깨져..,30-11-2020,1
582,.,dayeon0601,,본 사람만 안다는 집어던지고 발로 밟아도 안깨지는 삼성 기계 대만 광고 영상,30-11-2020,1
583,레이쨩,_rei_rei_chan_,,저거 S20아닌데 ㅋㅋ 비싸서 못 산다보네,1-12-2020,1
584,민,wjqdjdy,,야들아 근대 태블릿은 LG고 폰은 삼성이다 아이폰은 ㅈㄴ 잘 깨짐,1-12-2020,1
585,ㅡ,xxxsy21,,삼성 많이 떨어뜨렸는데 ㅂㄹ 안깨짐,29-11-2020,1
586,가은,x_1o08,,내 전폰 삼성 A3 이였는데 반대편으로 건너다가 폰이 반대편 까지 날아가다가 구르고 난리 났었는데 놀래서 보니까 안 깨져있었음,1-12-2020,1
587,🖤,aroha_053,,아이폰 존나 안깨지는데...??내폰만 그럼? 아니자너 필름도 없이 떨어트려도...안깨지는데..,1-12-2020,1
588,ㅈ,olzlol0_2,,"몰라 난 애플 11인데 엘베 사이에 폰 떨궜는데 안깨짐 근데 이딴 비교 왜 하냐 삼성좋아하는 사람은 삼성 쓰고 애플 좋아하는 사람은 애플 쓰는거지,,",1-12-2020,1
589,흥해라 흥 팬계정,eeeeeeeeeeh1_,,아이폰 7 쓰고있는 사람입니다만 화장실에서 똥싸면서 폰보는데 그때 실수로 화장실 바닥에 폰을 떨어뜨리는 경우가 많은데 지금까지 한번도 안깨졌습니다,2-12-2020,1
590,예은,0936_ye,,삼성을 그렇게 까고싶나..,2-12-2020,1
591,.,toktokik0,,"삼성=공부잘하는 못생긴애
애플=공부못하는 잘생긴애",2-12-2020,1
592,🍙🍥🍜🍡WEEB🍙🍥🍜🍡,._chocolate_queen_.1,,ich habe Samsung S20e,5-12-2020,1
593,뚱뚱이,minkyu_1009,,"I think you're mistaken, but that's not the S20",7-12-2020,1
594,sean valse,seanpevre345,,솔직히 이거깸에 폰도 망가지고 싸움만 나는데 왜하는거,28-11-2020,1
595,Je86,well..hellothare..382,,GUYS CHECK OUT THE NEW STORE CALLED CAP STORE HERE🧢🧢🧢🧢🧢🧢🧢🧢🧢🧢🧢🧢🧢🧢🧢and there is premium caps🎩🎩🎩🎩bc there all Samsung’s,24-11-2020,1
596,husnialkhatib,husnialkhatib17,,POV: You this read comment wrong 😏,24-11-2020,1
597,구라역,specialmilk738,,안돼겠다 LG가져와,24-11-2020,1
598,Lil jew,quang_tong_pow,,The Nokia bent the hammer,24-11-2020,1
599,Jp,.____________________699,,Wait nokia broke this can’t be true,24-11-2020,1
600,시마팁이,iliillilillililliilill,,"삼성꺼 내폰(S6) 같은데 필름,케이스 없어도 5층에서 떨어뜨려도 안깨질듯😂",26-11-2020,1
601,nightmare_wxzky,wxzky_nightmares,,lol everything is wrong 😂😂😂,27-11-2020,1
602,🗑 your local trash can 🗑,achenbach13,,@emo.b_tch666,28-11-2020,1
603,Maya Myra,myramaya2,,iPhone 12,28-11-2020,1
604,Jiesssssssssssssse,jiesssse,,@zoekan.xo REPLYYYY,28-11-2020,1
605,아배고파뭐먹지,kl7h7j7,,울 아빠폰 s20인데 ㅈㄴ 안깨짐 심지어 필름도 강화아님 그리고 저거 s20아님 위에 samsung이라고 안 써짐,28-11-2020,1
606,Listo,triggered_t0ast,,"that Nokia was a samsung note 9, the iPhone idek, and the other two were samsung s8 phones. try again",28-11-2020,1
607,Klay Kassmeier,klay_kazzy,,🍎,28-11-2020,1
608,Alicia,ali.nietoo,,@ainhoacarrilero_ si esto es real este móvil está hecho para mi,28-11-2020,1
609,Marcel_Trevino,marcel_trevino,,Bruh you can’t even tell what phone it is,28-11-2020,1
610,공주,princess_army0613,,"삼성 잘 안깨지는데
삼성 여러번 떨어뜨려도 멀정하던데",29-11-2020,1
611,곽혜린,kwakhyerin_0105,,"예쁜폰:아이폰
좋은폰:삼성",29-11-2020,1
612,.,o_o.....o3o,,"아이폰:톡떨어뜨리면 개박살남
삼성폰:집어던져도 금도안남",29-11-2020,1
613,하연,lion080807,,학교에서 모르고 핸드폰 떨궜는데 나중에 보니까 뒷면 깨져있었음... s20인데...,29-11-2020,1
614,귀여밍,jungjungllove,,That’s not samsung S20 .,29-11-2020,1
615,하하하,kim.bio07,,아이폰12도 아니고 s20도 아니고😴😴😴,29-11-2020,1
616,Star,star223344,,아이폰 걍 거의 바닥에 붙어있는 침대에서 떨어졌는데 완전 강한 필름 붙였는데 금이 화면을 차지했어요😁,29-11-2020,1
617,<3,parkjh_924,,나만 그래? 애플이 애플이 아닌거 같은데? 삼성아니야?,29-11-2020,1
618,맞춤법좀 시1발,afterprofit4,,The iPhone is the trashiest thing.,23-1-2021,1
619,Anipi.Art,anipi.art,,Fake,9-3-2021,1
620,hii🙈,.shadowtiger,,"Ok, im reply again because my inbox is dead 😂 my comment has 10,3k likes",11-12-2020,1
621,JJJJWWWW,3tz8rsotdk,,야! 신봉선이 방송에서 모르고 5m높이다리에서 갠럭시s10떨어뜨렸는데 땅에가서 제작진이랑 같이찻아보니까 금하니안가고 멀쩡하다는데삼성이 최고야 😏,24-11-2020,1
622,Meeeee✌️,magdalena._._.magda,,und sie denken es ist wahr?,19-12-2020,1
623,𝒄𝒉𝒂𝒓𝒍𝒊 ᴄᴜᴛe,_.charlix._.x,,@n0tb1a,21-12-2020,1
624,지영,jiye189,,s20 잘 안깨지는뎁??...,22-11-2020,1
625,user3192167347731,av.kar,,SUBELO completooooooooi,22-11-2020,1
626,chantosdm82,chantolmao,,"OMG he used like a 2010 Samsung jajajja, dont lie to your followers kid",22-11-2020,1
627,짝짝짝,skenxkfn,,삼성만 겁나 많이 치네,22-11-2020,1
628,_,yeun_ju.09,,저게 s20이겠니,22-11-2020,1
629,santiago_gonzalez_08,santiago_gonzalez_08,,Ta perro el iPhone nmms el 13 es ese jajajaja,22-11-2020,1
630,ESFJ,btsarmy_061307090,,사람손은 기계처럼 힘이 일정하지 않기때문에 뭐가 더 약하다고 볼수 없습니당,22-11-2020,1
631,IlllllIIIlllI,ilililllliiilliiilllllli,,wHaT? 😏😏😞,22-11-2020,1
632,rafael,rafaelrz6,,Nokia sobraba en este video,22-11-2020,1
633,joseph.yang.1,qualified_jxy,,"bruh, I have an s20 that has been dropped so many times and the screen is fine 🚫🧢",22-11-2020,1
634,준형,ljh090114,,ㅡ어딜 봐서 아이폰임?,22-11-2020,1
635,Akarsh,akarsh1_,,and that ain't a nokia 3310,22-11-2020,1
636,‍‍‍‍‍‍‍‍‍‍,._.00600,,애초에 삼성만 더 많이쳤잖아,22-11-2020,1
637,No se,victorabel07,,27 DE NOVIEMBRE NO VAMOS A CLASE. ❌❌❌❌COPIA Y PEGA❌❌❌❌❌,22-11-2020,1
638,hahafunmy,sonny_day1,,"can i just say he hit the "" samsung s20"" the most",22-11-2020,1
639,Luis Daniel,luisdanielrd_,,iphone 12 pero con un nouch de Samsung ese iphone es del 2030 buen MAMAGUEVO,22-11-2020,1
640,user13288667,user13288667,,"It used to be iPhone the weakest, iPhone 12 improved?",22-11-2020,1
641,박찬휘,luke.0125,,저거 s20이 아니라노트7쯤 인데,22-11-2020,1
642,¹³⁴³⁴⁰,frf1010,,ㅋㅋㅋㅋㅋㅋ,22-11-2020,1
643,𝕽𝖊𝖆𝖍^-^,a.nicxlex,,huawei lang malakas,22-11-2020,1
644,뭐요,armei.qp,,저거 s20아닌것같은디...?,22-11-2020,1
645,Felipe,heyy__felipee,,qual q nessecidade de fazer isso?,22-11-2020,1
646,닮은 살걀,soyoungpark85,,"뭐하노 뭐하는ㅇㅐ노,,,,,",22-11-2020,1
647,Raw XD,wuve_pluto,,There’s bo iPhone there lol 😂,22-11-2020,1
648,hAnNaH,hannah_dabest,,i have a samsung s20😬,22-11-2020,1
649,🤍,sieun1218,,일단 애플 삼성 다른폰임,22-11-2020,1
650,idk,bflyrx,,orang indo nya masih gua cebokin,22-11-2020,1
651,coen thaw,coenthaw,,Bro show the actual phones 😳,22-11-2020,1
652,ㅤ,ehisusksbks,,No mames yo tengo el Samsung a20s,22-11-2020,1
653,🧩,whore4mane,,@mikaylah.x,22-11-2020,1
654,🌸,jubu_777,,@mariannedufour5 Samsung 🤮,22-11-2020,1
655,Chantelle Ware,chantelle_ware,,I'm holding the S20 in my hand and that ain't what you've got there 😂,22-11-2020,1
656,Nathanael Gutierrez,athestekurt13,,obvio no le pegó al iphone nmms es muy caro XD,22-11-2020,1
657,empanadadehongo,jjbi123911,,no son los telefonos que dicen ser. no se dejen engañar,22-11-2020,1
658,Duhhhhhhhh,brookninenine1,,The backs 😳,22-11-2020,1
659,Shay⁉️,shayscarff24,,Bruh those are all galaxy s8,22-11-2020,1
660,Chloe,xxchloe_louise_,,bruh that's either the Samsung S8 Or S7 Edge But that for sure isn't the S20,22-11-2020,1
661,NVA,nva125,,los mostrarlas con una mejor toma ?,22-11-2020,1
662,nnfs_,nappisr,,"NUNGGU ORG INDO
LG TRANSIT DI SINGAPUR",22-11-2020,1
663,비둘기,redmime,,우리 부모님 s20쓰시는데 위에 삼성로고 없는데 s20맞음?,22-11-2020,1
664,🕴🏻,lailalovesfeet,,My iPhone 12 dropped 15cm from the ground and scratched all over,22-11-2020,1
665,CuteLittleZom,cute.little.zom,,that's not a p40,22-11-2020,1
666,Pibe1742,ddl3x,,Jaja el iphone como que huele a huawei jaja,22-11-2020,1
667,user5974325498410,fdo31415,,Que nececidad hay de taparlos?,22-11-2020,1
668,alle.,pozecasado,,ue o iPhone tá inteiro?,22-11-2020,1
669,Mandraa,mandrautti,,Yo con mi alcatel :),22-11-2020,1
670,Léo,sep_leozinnn,,@madara__ironico,22-11-2020,1
671,Katie Donovan,dono.katie,,Lies,22-11-2020,1
672,´•ᴥ•｀,ciel.p0,,ชั้นซื้อSamsung มา2ปี ไม่เป็นระเบียบ ตกมาหลายรอบแล้ว,22-11-2020,1
673,Sans The Skelleton,official_classic_sans,,Bruh you swapped the samsung and iPhone,22-11-2020,1
674,我妻善逸,ayakoo.1,,that samsung😏,22-11-2020,1
675,Barney,thebarney119,,so much cap,23-11-2020,1
676,Tik Toker,user0ecw1c5on2,,김치팔아요 계산은 팔로우,22-11-2020,1
677,:3,soup1028,,저거 옛날폰이자너 ㅋㅋㅋㅋ,22-11-2020,1
678,Brian gnan 2006,briangnab,,Mela doppia🥰🥰🥰🥰🥰🥰🥰,22-11-2020,1
679,no,_la_gualtis,,ragazzo nessuno di questi è l’iphone 12 hahha,22-11-2020,1
680,barrocas,ann_barre,,Il a tellement peu tape sur liphone 😭 il s'est déchaîné sur le Samsung et le Huawei ça se voit,22-11-2020,1
681,Alessandro_pazzo_sgravato,0_.inosuke_official._0,,"RAGA NON È IL NOKIA, sennò sta usando qualche cheat",22-11-2020,1
682,Jenine🤍,jeninehaifa,,thats not an iphone,23-11-2020,1
683,임임,limelisteningtime,,아이폰조차 아이폰이 아니고 lg폰인데?,23-11-2020,1
684,🫥,qmqprpdm0,,삼성에 조작을 했든 안했든 아이폰 성능이 낮다 이런 말은 하지 말아요ㅠㅠ 진짜 성능에서 삼성이 뛰어난 부분도 있고 아이폰이 뛰어난 부분도 있는거지 무조건 깎아내리려고 하는거 진짜 수준 떨어져요ㅠㅠ,23-11-2020,1
685,에휴 아이들,user4221013432906,,▂▂▂▂▂▂╭━╮▂▂▂▂▂▂▂ ▂▂▂▂▂▂┣━┫▂▂▂▂▂▂▂ ▂▂▂▂▂▂┃╭┃▂▂▂▂▂▂▂ ▂▂▂▂╭━┫┈┣━╮▂▂▂▂▂ ▂▂╭━┃╭┃╭┃╭┃━╮▂▂▂ ▂▂╲╭┃╯┃╯┃╯┃╭┃▂▂▂ ▂▂▂▏┃┈┃┈┃┈┃┈┃▂▂ ▂▂▂╰╮▂▂,23-11-2020,1
686,민 송 월 ⁷,yn.130613,,아직도 20에 앞에 삼성로고가 있었음?,23-11-2020,1
687,Colin_Baily,colin_bailey0,,I like the banana,23-11-2020,1
688,😪,ddunddun7,,아이폰 📱 아이폰 📱 아이폰 📱 아이폰 📱 아이폰 📱,22-11-2020,1
689,Random kid,davidasegoviaa,,iPhone gang where you at 👉,23-11-2020,1
690,Bryant schivers,bryant_schivers,,Funny some of them are broken where he didn’t hit,23-11-2020,1
691,puppy,puppy91309,,𝘐 𝘢𝘭𝘭 𝘳𝘦𝘢𝘥𝘺 𝘩𝘢𝘷𝘦 𝘵𝘩𝘦 𝘚𝘢𝘮𝘴𝘶𝘯𝘨 𝘎𝘢𝘭𝘢𝘹𝘺 𝘚20 𝘕𝘰𝘵𝘦,23-11-2020,1
692,thyl.noel,thyl.noel,,i phone 12 can break so can the others they all could and i know that as a cap and just because u have and iphone doesnt mean nothing ur technically,23-11-2020,1
693,thyl.noel,thyl.noel,,rubbing all ur money in peopels faces that cant afford nothing right now i have a samsung i can get a iphone 12 but im respectful and thats why i got,23-11-2020,1
694,thyl.noel,thyl.noel,,a samsung,23-11-2020,1
695,Henry Ramanathan☑️,henryrammy,,google still. stands underrated,23-11-2020,1
696,gamesonfortnite,gamesonfortnite,,switch the huwawi and iphone I have eyes bro 😂😂,23-11-2020,1
697,🤷‍♂️,bigzaddydaddy69,,@stop_the_cap___ HELP THIS MAN IPHONE IS CAP HE HAS SRCEEN PROTECTER,24-11-2020,1
698,💕,gracifiorini123,,"I have a Samsung galaxy s9 and I've booked it so many times its hasn't broke yet, the last phone I had dropped it one time and it shattered",24-11-2020,1
699,연서,yeonseo090201,,나 삼성 쓰는데 방수폰 아닌데 변기물에 빠뜨려도 안고장나는뎅,22-11-2020,1
700,oh jerry,ohjerry0805,,"아니 님아... 처음에 시작할 때 휴지 치우고 시작하라고....
왜 맞지도 않은 옆탱이들이 다 깨져있노... 배속도 늦쳐서 봤건만 나올 수가 없는 위치인데...",22-11-2020,1
701,야루♤,yaru_0312,,애플이 잘깨짐,22-11-2020,1
702,광,chlrhkdgus419,,주작젤 재밌나벼,22-11-2020,1
703,07_채윤,07_chaeyoon,,내폰이 S20인데ㅋㄹㅋㄹㄹㅋ많이다르네ㅋㄹㄹㅋㄹㅋㄹㅋㄹ,22-11-2020,1
704,몰라,kimkjm14868,,아이폰 어딨음?,22-11-2020,1
705,...,_marzvnk26,,that ain't a samsung20 or a iPhone 12 😭🤚🏽,22-11-2020,1
706,.,yejin._.12,,이런 거 왜 하는지,22-11-2020,1
707,성환,hwan_e03,,이이폰이 너무 다르게 생겼잖..,22-11-2020,1
708,ㅋ,l___l0519,,나 S20+인데 폰 겁나 떨어뜨려도 안깨짐,22-11-2020,1
709,뭘봐,06939sns23828,,저럴때 부셔지면 뭐해 실생활에서 부셔지는지 안부셔지는지를 봐야지,22-11-2020,1
710,30초,30cho,,잠만 s20바나나인데 인종차별어니지,22-11-2020,1
711,ㅇ,userezuuyulljp,,저게 S20이야..?,22-11-2020,1
712,Lucario,lucariobrxy,,s20 ta muito daora tem até 1 camera só na frente e ta escrito samsung na frente quem dizer que n é o s20 ta mentindo,22-11-2020,1
713,𝗕𝗿𝗶𝗮𝗻𝗻𝗮 <3,glossyaddsxz,,Iphone 12,22-11-2020,1
714,은서당🤗,MS4wLjABAAAAq7qXKKG2KL_7PyVOSCCk-moRlywNX72id_2_iDz5Hvmna5546Y9kTDaal-x2pYYh,,저러고 삼성 까는 ㅅㄲ들 개 싫어,22-11-2020,1
715,함주원,j180x_n,,결론 : 관심을 받고 싶었다,22-11-2020,1
716,Sánchez,sssanchez9,,s20 o s7?,22-11-2020,1
717,...? 누슈,soon_ee,,우리집에 옛날폰 있는데 ㄹㅇ 벽돌임 18층에서 떨어트렸는데 안깨짐 ㅋㅋ,22-11-2020,1
718,팝콘N콜라,popcornncoke7,,호날두냐,22-11-2020,1
719,Scoot_er,scooter_128,,fake,22-11-2020,1
720,stream jikjin,sou.rie,,Esos no son los celulares que dice que son,22-11-2020,1
721,★彡ᴹᴬᴰ|ɴᴇss彡★,sono_kaizer_,,Real fact:non fa figo cambiare il telefono ogni volta se quello che si ha va 🤡🤡,22-11-2020,1
722,INFP,skejxnwieh,,아이폰이 아니잖아,22-11-2020,1
723,한라산비둘기,hallasanpigeon,,여러분 사람힘은 정확하지 않아요 저사람이 인공지능은 아니자나요,22-11-2020,1
724,roro,roro.tf,,There’s not an iPhone or a Nokia 3310,21-11-2020,1
725,🆒,1frndzz0,,No es un iphone si os dais cuenta al final del video sale la camara frontal super pequeña y la de iphone es mucho mas alargada,21-11-2020,1
726,𝑴𝑬𝑺𝑰,_mesihhh_,,samsung a best,21-11-2020,1
727,Emily Collins,..emi1ly,,@@daisydoggo6,21-11-2020,1
728,Varch18,varch18,,iPhone 12. breaks dropping from your pocket,21-11-2020,1
729,❤️,kvbvs..2006,,czemu on bil iphone na dole tylko i nie pokazal calego a samaunga i huawei to u gory i nadol ciagle😳,21-11-2020,1
730,Oi,lopinho____,,"Mano aquilo n é um S20,aquele n é o Huawei P40,e eu acho q aquilo n é um nokia,e vc nem bateu no Iphone direito",21-11-2020,1
731,,x_pubg_lpgigi_x,,samsung s20🍌🍌,21-11-2020,1
732,лерка,valeria..kovalchuk,,and you did this for?,21-11-2020,1
733,.,ejrhiekwkwkejrne12,,@sheanafitzpatrickxx look at the iPhone 12,21-11-2020,1
734,👍🏼,yusra7539,,"why would u smash the,",21-11-2020,1
735,Luka Hrnjaz,lukahrnjaz0,,@borisemelexperiment8,21-11-2020,1
736,✨idk✨,selling_dhc111,,thats not P40,21-11-2020,1
737,Nicole0908😍,nicole08094,,non e un iPhone 😳😳,21-11-2020,1
738,n,_k7be_,,fake,21-11-2020,1
739,ludmi,ludmiilaa90,,Mi celular samsung se me callo más de 3 veces y no se me rallo,21-11-2020,1
740,Snygg dussi,dussifanpage,,Its fake,21-11-2020,1
741,Lina:/,benliina,,🍎,21-11-2020,1
742,Lucas <3,lucaassmedina,,Tanto les duele que iPhone haya aguantado más k un android ? Y después nosotros somos los fanboy JAJAJAJAJAJAJJA,21-11-2020,1
743,🌺nayalia🌺,_nayalia26_,,can we talk about how fake this is XD,21-11-2020,1
744,baseball&football 4 life,brody_brantley4,,samsung s20 thats a 7 stupid or 8,21-11-2020,1
745,I'm not emo guys,smileys.lvr,,Trynna look rich eh,21-11-2020,1
746,Yadiel Giusti,yadielgiusti2005,,The screen of iPhone 12 is by Samsung,21-11-2020,1
747,Will,will11121112,,@xxx_jy_xxx,21-11-2020,1
748,Carlos,carlitos_1416,,The iPhone 12 isn’t that round it’s more like a square edges not round edges,21-11-2020,1
749,Ocean Phipps,oceanphipps,,apple and Samsung are switched,21-11-2020,1
750,Ferpan_videogames en Twitch,ferpan_videogames,,Al Samsung no le pego,21-11-2020,1
751,cel 2000 obs,brak_nazwy_girl,,nokia 3310 jest cegłą,21-11-2020,1
752,Heyy,._________________r35y5f,,That's not an iPhone 12 lol,21-11-2020,1
753,Adamek😎🤙,bikeandscooter09,,A gdzie nokia 3310,21-11-2020,1
754,Vei,kierah.loves_colton,,Iphone 12 comes out: YouTubers and tik tokers,21-11-2020,1
755,🧞‍♀️🧞‍♀️,.missy00,,K but we know the ppl who get raged in the comment got a Samsung 😭😂,21-11-2020,1
756,Le TazMum,taz_mum,,That’s not a 3310,21-11-2020,1
757,"Мда,треш",polnyiutrash,,у вас тоже нокиа 3310 сенсорная?,21-11-2020,1
758,(>▂<),spiritsarv,,that's not the right phone and you put so much pressure on the one in the corner not the other ones😁,21-11-2020,1
759,aleee🥶,alearaujo_8,,Ese no es el iPhone 12,21-11-2020,1
760,🥵RENT🥵,2009nyeonsaeng,,Everyone hates Samsung.......,21-11-2020,1
761,Edu🔥👻 əđū,_eeduu_08_,,pero si es un s8 anda,21-11-2020,1
762,💅🏻,nickiminajshotwap,,Lol its fake,21-11-2020,1
763,흙모자,energizeryun,,Its not s20,21-11-2020,1
764,hmmm....,uhrfe,,s20พ่อมุงอยู่เเบบนั้น,21-11-2020,1
765,Sidra,sidrahawchar_,,that ain’t the iphone 12 luv,21-11-2020,1
766,Bo tak,auqua98,,iPhone 12 jest o wiele silniejszy niż reszta spadł mi z 2 piętra i się nic nie stało,21-11-2020,1
767,✨𝐂𝐥𝐚𝐫𝐢𝐧𝐡𝐚✨,claramiranda045,,Eu tenho o p40. Lite,21-11-2020,1
768,Rijad😁,lgbtgotoauschwitz,,or just give them to me?,21-11-2020,1
769,feubadi,feubadi,,the war is stupid,21-11-2020,1
770,ciao,giacom701,,nokia,21-11-2020,1
771,__blackstalker__,__blackstalker__,,хах у меня а 30😂😂😂😂😂,21-11-2020,1
772,シ︎🄺🄴🄽🅉🄸🄴シ︎,1_1.kenxzo.edits.1_1,,he literally hammered the supposed to be s20 about 10 times,21-11-2020,1
773,SG1T,sg1tn1,,It's not s20 and iPhone 12 😏,21-11-2020,1
774,someone,.lexi..gxmes_,,that not and s20,21-11-2020,1
775,Ana Barros,anabarros511,,🍌,21-11-2020,1
776,Sebastian Musso,sebastianmusso,,Ahahahah ma non c’è neanche uno di quelli che hai Scritto,21-11-2020,1
777,• 𝔸𝔼𝕊𝕋𝔼𝕋𝕀ℂ 𝔾𝕀ℝ𝕃 •,_.aestetic._.girls._1,,Já která má Huawei p40 a ani prasklinka a to mi to několikrát spadlo😂,21-11-2020,1
778,voulaa🌹,_roubaki_,,HUAWEI P40 lite E,21-11-2020,1
779,Sophi draws✨✍️,.sophia.drawss,,iPhone,21-11-2020,1
780,1 year left...,volvo_850r_wagon,,"the samsung ""s20"" is an s6 edge plus lmao",21-11-2020,1
781,heyheyhye,im.a.guy_,,"si sicuramente quello è il nokia 3310, io non vedo differenza",21-11-2020,1
782,emily,emilybannnon,,my dad works for nokia and um the nokia 3310 is a flip phone and will not break...,21-11-2020,1
783,Daithi Moss,daithimoss,,Nokia looking like Samsung,21-11-2020,1
784,user2803830237260,grineczeq_,,tymczasem nokia 3310 która nie jest nokią 3310,21-11-2020,1
785,margot robbie is hot,lokismcdonaldspritehair,,Wait am I the only one with a Huawei y6 2018. yup,21-11-2020,1
786,🔪FAKE FRIENDS🔪,leire.lpez,,"como poneis excusas con lo del iphone, a algunos os puca mucho e",21-11-2020,1
787,@_rick,erickzin447,,nem era kkkkkk,21-11-2020,1
788,Billcosby,septiq_,,That's not an s20,21-11-2020,1
789,Joao Pedro,joaozinho__007,,fake,21-11-2020,1
790,.,dani_200473,,a ver cuándo me enseñas a hacer ese tipo de corte para volver a colocar el iPhone 😳,21-11-2020,1
791,jula <33,s..vleyy,,Iphone najmniej dostał XD,21-11-2020,1
792,deku is straight,shushshsssdn,,"il secondo non è manco un iPhone
the second one is even not an iphone",21-11-2020,1
793,SWFC_Ry🦉🔵⚪️,swfc_ry,,For a start iPhone 12 has iPhone 4 body that’s round so stop the cap,21-11-2020,1
794,🤗,nagyonszeretl3k,,@k.panna07 meg ha bármelyik is ip12 lenneXDD,21-11-2020,1
795,carolina,yosacuevas26,,that aint no Samsung s20,21-11-2020,1
796,you_are_💩,hzm.lan69,,sind die nicht alle von samsung,21-11-2020,1
797,janisss♡,janisss.v26,,ajajja mentira,21-11-2020,1
798,me,agdyebsijuwjejheurhrjsks,,el i phone con mirarlo se rompe😂😂 en serio nunca he visto un i phone entero😳,21-11-2020,1
799,KasonL12,kason.l12,,That is not an iPhone,21-11-2020,1
800,Aaron,x13thjester,,I have a S9 Samsung n i did the same with the other phone groups n all didnt crack but the IPhone. pay more money for the label then actual worth.,21-11-2020,1
801,KasonL12,kason.l12,,iPhone 12s have the flat sides nice try though,21-11-2020,1
802,Carl Wheezer,thecwoissant1,,Samsung basically made 45% of Apple's parts,21-11-2020,1
803,züm züm🐝,mehecskee_,,Persze de amikor az iphonet leejted a szőnyegre és úgy össze törik hogy leszedem a képernyőjét az nem baj.,21-11-2020,1
804,alejandromendezmusta,alejandromendezmu0,,No hay iPhone,21-11-2020,1
805,Cubes,floppest,,this does not know his phones,21-11-2020,1
806,Yahel Paulus,theboyyyzzzzz,,Bruh das ist nichtmal ein Iphone😂😂😂,21-11-2020,1
807,marzo.mcri,marzo.mcri,,ma gli Iphone non resistono per niente dai non dite che è il migliore,21-11-2020,1
808,Marcus Anthonyus,zerotwomydarling_52,,A kalapács nem tört esetleg össze?,21-11-2020,1
809,KITIKIEEEH😩💞,hewantskitti._,,Nem is jól van kiírva Xdd 🥸,21-11-2020,1
810,<33,kasiapriv2115,,a gdzie Motorola?,21-11-2020,1
811,Super_Deprimidx958,super_deprimidx,,yo tengo un Samsung S5,21-11-2020,1
812,que miras.,_..onlyclara.._,,F por los que tienen Xiaomi o Motorola no aparecimos xf,21-11-2020,1
813,🌪✨,aalicia.xd,,"𝔻𝕠𝕟’𝕥
𝕃𝕚𝕜𝕖
𝕄𝕪
𝕍𝕚𝕕𝕖𝕠𝕤❄️",21-11-2020,1
814,ShaniaS,shan1as,,@ratcoochiesss @sad.e_lmo,21-11-2020,1
815,Purrr,plasticqueen___,,Yep that’s not iPhone 12.,21-11-2020,1
816,.,jajamecancelaron,,iPhone falso,21-11-2020,1
817,suliman📲,r.sully.ak,,fake samsung more stronger,21-11-2020,1
818,.,lipe.silvaa_,,S20 DA SHOPPE NÉ,21-11-2020,1
819,Baddie.grrrrrrrrrrrrrrrrrr_0,twinkletoesthefa.iry,,I have 🍎,21-11-2020,1
820,🧷,hdff_x,,İkidr bir Huawei ile s20 nin oraya vurarsan tabi kırarlar,21-11-2020,1
821,Elias Contreras,eliascontreras57,,That is not,21-11-2020,1
822,Elias Contreras,eliascontreras57,,"That is not a iPhone 12, this broke fool 😂😂😂",21-11-2020,1
823,Thomas_lcfc4ever,hiyaimtom,,that samsung is like a 7 edge,21-11-2020,1
824,Devon Harmsworth,devonharmsworth,,"that Is a s8, I have the s10 and my never breaks if I drop it soooo like, don't lie boi",21-11-2020,1
825,Hi,postimeess,,Yay,21-11-2020,1
826,Diane_MRX,diane.mrx,,Ah lol,21-11-2020,1
827,🇨 🇭 🇦 🇩 🇩 🇮 🇸 🇴 🇳 ❤️,xlemon_sunkin,,"🏽-Mensch
🏾-Mensch
🏿-Mensch
🏳️‍🌈-Mensch
Mein Ziel, dies in alle TikToks❤️zu setzen",21-11-2020,1
828,😻,kolorowy.chlebek,,reklama iphona jakas? XD iphone by byl najbardziej zniszczony a nie jest wiec XDD,21-11-2020,1
829,🔥Fortuna🔥,fortuna.fico,,Ma non è l’iphone 12😂,21-11-2020,1
830,𝕶𝖔𝖗𝖓𝖙𝖆𝖇𝖊𝖘𝖘𝖋,_.tabess._,,@gabyx11_on_youtube,21-11-2020,1
831,Kullanıcı adı,.simpfordavina,,ayn knk bende her gün telefonuma çekiç vuruyorum,21-11-2020,1
832,K.I.T.T,mr.k.i.t.t,,iPhone is a G O D,21-11-2020,1
833,Mateo Cheverie,mateocheverie,,What in the 4 samsungs,21-11-2020,1
834,Ethan,ethanh_0,,Notice how he didn't show the phones before.,21-11-2020,1
835,干リ什ロ丩片丹,_k_s_u_h_a__,,🍎,21-11-2020,1
836,Lorenzo Bonacini,user64045312,,Si ma nessuno dei telefoni corrisponde a quello con la scritta. Parliamo del Nokia 3310? Dai su,21-11-2020,1
837,user1423802963964,moh.f07,,@_shah.058 @ameerrrraaa @_xx.reezma.xx_ ok so the androids had most damage 🤣🤣🤣🤣@,21-11-2020,1
838,user9450890215813,glizzy_.gobbler_69420,,thats not even the rihht phones,21-11-2020,1
839,Dan,dan_dan583,,Huawei P40,21-11-2020,1
840,Kringe,gato_espaniol,,I like how he hit the iPhone the most,21-11-2020,1
841,Vladimir Putin,vladimir_putin________,,Sorry taht phone haven't even seen Nokia 3310,21-11-2020,1
842,user6728910068493,_1_pauli_1_,,@korneliaserej,21-11-2020,1
843,Ysnelms9,ysnelms9,,iPhone 👊👊👊👊,21-11-2020,1
844,💕,actually__helena,,wieso kauft man Handys um die dann Kaputt zu machen,21-11-2020,1
845,[*],itzzz.olix,,Huawei is not my,21-11-2020,1
846,Boh,imgiuseppe__,,Lui che mette nomi a caso 😳,21-11-2020,1
847,user6457878633998,gokllurself,,iPhone beste,21-11-2020,1
848,💜/Historia/💜,_niki.lift,,Euh le trucs le plus débile à faire 😐,21-11-2020,1
849,.,perlaatgstp,,qui y croit,21-11-2020,1
850,Valm,sneakers_florence,,Fai vedere prima i telefoni e dopo,21-11-2020,1
851,ダビッド,windows.co.uk.com,,stop iPhone is shit,21-11-2020,1
852,Fofo,fofo2145_,,Not p40,21-11-2020,1
853,🐐,kewin777,,Huawei P is trash Mate for ever :),21-11-2020,1
854,Noé,agent_f1,,Marteau IKEA,21-11-2020,1
855,fred avere tez,fredaveretez,,12,21-11-2020,1
856,💗💗,je_juge.vosroutine,,J’ai le iPhone 12 😏,21-11-2020,1
857,_Arda_132006,_arda_132006,,Samsung xddddd,21-11-2020,1
858,Olkudz,olkudz0,,To nie nokia3310,21-11-2020,1
859,c_o.s_m.i_n,c_o.s_m.i_n,,thats an s7/s6 edge 😳😳😳,21-11-2020,1
860,Emel,_emel_5,,Thats not Nokia 3310 phobe 😂😂😂😂,21-11-2020,1
861,Spurs🔵⚪️🔵⚪️,tottenhamjosh,,That’s not an iPhone and that’s not an s 30,21-11-2020,1
862,Mursugang🥶,liito_mursu_koira22,,Nokia not really,21-11-2020,1
863,✨,tesla__.b.a,,rinhochilde,21-11-2020,1
864,Minenite350,gamingidiots_13,,Nokia the best 😌,21-11-2020,1
865,Æ,._sereee3,,spoiler è tutto falso,21-11-2020,1
866,Meming Hypster,dameminghypster,,Samsung is way stronger than iPhone tho,21-11-2020,1
867,Zainab,zainab.almussawi,,🍎🍎🍎🍎🍎🍎🍎🍎🍎🍎🍎🍎,21-11-2020,1
868,Matteo Cretone,callmematteoo,,Ma quello non è un iPhone🤦🏻‍♂️,21-11-2020,1
869,Dominic Beer,dominicbeer,,8,21-11-2020,1
870,.,nanalenaa,,kurang kenceng,21-11-2020,1
871,🇹🇷,dieeintivosoly,,Darum hab ich iPhone 12 eben ist die beste 😂,21-11-2020,1
872,my key,mimi._.wbr,,c'est que des Samsung 😂,21-11-2020,1
873,👑,0nn169,,Thats no nokia 3310,21-11-2020,1
874,06🇽🇰,keiner_lacht37,,Leute er hat nichtmal die handys davor gezeigt also nichts ist besser oder schlechter,21-11-2020,1
875,Vaati,.vaati,,huawei its a samsung🤣,21-11-2020,1
876,🦖Cho dinosarietåg🦖,en..konstig..personn,,samsung s20 its not s20🤣🤣,21-11-2020,1
877,Юля,.wue.084,,er ist ha suf eifon nicht so oft draugeganen als msch die snderen marken nicht schlecht,21-11-2020,1
878,✨,its_myboring.live7,,@hellooooo1230,21-11-2020,1
879,Name,okmita5,,ip 12 best!🥰,21-11-2020,1
880,Lindo,lindopsy,,"Thats not an iphone and not a samsung.
WTF is this clickbait",21-11-2020,1
881,eme,emeonni0,,nokia 3310 doesn't look like thta,21-11-2020,1
882,🥸,isiseiterroristijarjesto,,th,21-11-2020,1
883,Mirkogeno74,mirkogeno74,,bro bro 🤟🤟🤟🤟,21-11-2020,1
884,Helen Villanueva,itsmehelenqt04,,hipo kahit ano lng po dyn para sa ate ko,21-11-2020,1
885,Levy,scarlet._.fennec,,RHINOSHILD,21-11-2020,1
886,Chloé,chloe..b_,,@andrea_9010 lol,21-11-2020,1
887,ik im cringe👾,elisa.bsf,,Ala nu e iPhone,21-11-2020,1
888,Inez,hajnalinez,,"Jó, hogy amúgy huawei p40 em van és nem is így néz ki 👁️👄👁️",21-11-2020,1
889,Helen Villanueva,itsmehelenqt04,,slamat po in advance,21-11-2020,1
890,Gergő 🤴,r_geryy,,Az nem létezik hogy bármelyik Nokia el törjön 😂,21-11-2020,1
891,Cheyenne,cheyenne_zh,,Das ist nicht mal das Samsung s20 und das iPhone ist nicht mal ein iPhone,21-11-2020,1
892,4doorsmorehoes,4doors.4hoes,,100% fake,21-11-2020,1
893,Mathieu,mathroyer6,,iPhone💪🏼💪🏼💪🏼,21-11-2020,1
894,saara,saaramaihaniemi,,Its not ip12 its huawei,21-11-2020,1
895,🌴,kayhkoo,,thats not nokia 3310,21-11-2020,1
896,Celinchen,._.celina_,,"🏽-Mensch
🏾-Mensch
🏿-Mensch
🏳️‍🌈-Mensch
Mein Ziel, dies in alle TikToks❤️zu setzen",21-11-2020,1
897,💫💫💫,tipa_anonima_4,,ma esattamente perché?,21-11-2020,1
898,𝙺𝚊𝚝𝚒𝚎 x,katiemorris._x,,@havvanur.e,21-11-2020,1
899,🤍,dainassure,,@emmy6809 guette l iPhone c ce que je te disais 😂,21-11-2020,1
900,Da_mamhelloud,da_mamhelloud,,io a mi 20 foi plus de coup a samsung😂,21-11-2020,1
901,Ali ;'),licepuleo,,Ma li hai fatti vedere 2 secondi,21-11-2020,1
902,george floyd,mumbolek_sahumed,,🧢🧢🧢🧢🧢🧢🧢🧢,21-11-2020,1
903,bombastycznie👠🛍🛁🕺👑🕶☕💅,jajcullo,,gdyby to jeszcze był iphone 12 to było by miodzio,21-11-2020,1
904,:),oui_oui.baguette1,,FAKE,21-11-2020,1
905,💜LEAN💜,unknown768632,,cap,21-11-2020,1
906,emo mikan 💪😭,ghosti_cat,,ma non e il nokia 3310.,21-11-2020,1
907,Poa,twxop,,Pour ceux qui habite dans une grotte iPhone on mis un film plastique résistant de ouf,21-11-2020,1
908,Pedro Ceballos Jimén,pedrocebas,,ese no lo es el Samsung s20,21-11-2020,1
909,Exotic1q,jaeboy23,,@iidxrky_cxnt,21-11-2020,1
910,Frenchie♡,frenchie.le.shortie,,Lol that’s not a Samsung s20 and that’s not a iPhone 😂😂😂,21-11-2020,1
911,🤍,user819197471910,,cap,21-11-2020,1
912,.,lfr.rmi,,C’est même pas un iPhone,21-11-2020,1
913,🕶,mallikaa_x,,@dania_oxx,21-11-2020,1
914,Mateusz sambor,mateusz_sambor,,S20 was hit more and was damged before,21-11-2020,1
915,Guinea,unitedguineafc,,fake,21-11-2020,1
916,Mircea Smocot,mirceasmocot1,,that one is not Samsung S20😂😂😂,21-11-2020,1
917,каролина штумф.,67afem,,там таже не нокия 33 10,21-11-2020,1
918,✞vbxbyokurr✞,xvdarksidexx,,allora magni,21-11-2020,1
919,giuseppe.frustagli,giuseppe.frustagli.08,,ma sono tutti Samsung,21-11-2020,1
920,★,_miriam_domingues,,Fy,21-11-2020,1
921,Giorgia Bolognesi,gio_rgia_b,,se nn li volevi potevi darli ame,21-11-2020,1
922,,_ng101_,,THE IPHONE 12 IS A SAMSUNG 😂,21-11-2020,1
923,ℬ𝓎.𝒮𝑜𝒻𝓎𝒾𝒶 ♔,__bysofyia__,,"Petit message :Juste un j'aime et commentaire sur les vidéos tiktok de ma fille actuellement souffrante à l'hôpital me donnerais la force, stpp. 🙏🏻",21-11-2020,1
924,teddy,superted2,,3310 was the hammer solid phone,21-11-2020,1
925,socialzayto,socialzayto,,"When you want to make Samsung look bad, they use an old phone",21-11-2020,1
926,Stoicovici mario,stoicovici_mario,,Ala nu e iphone 12 e huawei mate20,21-11-2020,1
927,:),gd.0layer,,Fake,21-11-2020,1
928,cos,manu_cos48,,@chrilongo,21-11-2020,1
929,Clement Schroeder,clementschroeder8,,c faut c pas les tel quille dit,21-11-2020,1
930,Tamara,papp.tamara,,@megegydili na és meg azt mondjak hogy az iPhone egyszer lejted eltörik,21-11-2020,1
931,Baralle🖤🌜,disenchanted1313,,O iPhone ficou intacta wtfff véi,21-11-2020,1
932,Tala,talahawiiii,,How did iphone not crack a bit????,21-11-2020,1
933,Cloclo,c_l_o_c_l_o,,ta juste pas appuyer fort sur l'iphone 😂 vient je le fait et en 2 sec il est péter,21-11-2020,1
934,lilybufton,lilybufton,,@olliebuff11,21-11-2020,1
935,3k________🛶__2k,keine4hnungbruda,,Das ist kein Iphone,21-11-2020,1
936,Leo 🥶💀,x2.trappyxo,,i have a samsung s20,21-11-2020,1
937,.,_charxedit._,,io che ho samsung 21,21-11-2020,1
938,arkadaslar maske mesafe kombin,hz_peygamberimiz_erdogan,,IPhone a daha mı hızlı vursan?,21-11-2020,1
939,𝕐𝕒𝕙𝕟,yahn_2512,,non s20 its s7,21-11-2020,1
940,Agüero,luis_aguero2.8,,Razonn no le falta,21-11-2020,1
941,jlavin,jlavin00,,Everyone’s saying that it’s not a Samsung but how was there a crack on the Nokia,21-11-2020,1
942,IwillCarryYou,iwillcarryyou,,i smell cap,21-11-2020,1
943,Marco Caniparoli,marcocaniparoli,,intanto sono tutti telefoni a caso in più se i telefoni erano giusti iphone era polvere pk mi è caduto una volta è si è distrutto manco fosse un vetro,21-11-2020,1
944,baka,totally_baka,,not Nokia 3310,21-11-2020,1
945,Syabil Lee,yourmynibba,,Look at iphone 12 has a home button a samsung home button,21-11-2020,1
946,Sof✌🏼🖤,ush._.sofia,,𝕕𝕠 𝕝𝕠 𝕧𝕖𝕕𝕚 𝕖𝕣 𝕟𝕠𝕜𝕚𝕒?,21-11-2020,1
947,Sanna marin,usernamesannamarin,,im from finland and that is not a nokia 3310,21-11-2020,1
948,The.Sangoku,the.sangoku,,Iphone 12 la base,21-11-2020,1
949,sos‼️,woooooooooooooooof,,🙄,21-11-2020,1
950,Timotei,timoteib,,my friend dropped an iPhone on the carpet and it cracked and you tell me that iPhone is still ok after some hammer hits😂😂 never gonna happen,21-11-2020,1
951,siema,wruszka_spermuszka,,tahats not A Nokia,21-11-2020,1
952,Your mom,charli.got.no.talent,,Ur having protection glass on the iphone,21-11-2020,1
953,PEKKA clash,pekkaclash8,,nokia,21-11-2020,1
954,Froze,froze2095,,Where is the iPhone 😂,21-11-2020,1
955,(ˊ˘ˋ*),maianardelli,,@agustina_gonzalez_,21-11-2020,1
956,Mehis Kivistik,m.e.h.i.s,,thats not iphone thats a samsung😂,21-11-2020,1
957,Emi,emifozy,,they are all samsung,21-11-2020,1
958,(:),_capybara21,,baaa ala nu ii Nokia ala nu ii Iphone ala nu ii Huawei si nici Samsung cat trăiesc eu ca am pus pauza și is alte telefoane prost,21-11-2020,1
959,✨ kim ✨,_kima_,,@thalie._.allard,21-11-2020,1
960,Poine,02poine02,,3310 ma vurdu cekiç kırılmasınmı,21-11-2020,1
961,wot,wot_xd,,a sumsung valami j6 volt,21-11-2020,1
962,Хз,yungtrizzi,,"Самсунг не 20, J1 или какой-то, но точно не 20.",21-11-2020,1
963,Kinga,_elokinga,,@s.zuziak ten IP to nie prawda,21-11-2020,1
964,jumallifan,l3k6a6h2e7,,That not nokia 3310,21-11-2020,1
965,•𝙆𝙧𝙪𝙨𝙯𝙚𝙡𝙚𝙠<3•,ekipa_krola_marka,,IP wyszedł najlepiej,21-11-2020,1
966,🫶🏽,24aktivv_,,All is samsung😂😂😂😂,21-11-2020,1
967,Podróż_.do_.Turcji,podroz_.do_.turcji,,I to nie samsung s20 xD,21-11-2020,1
968,bæ <3333,livss.bae,,@charlidamelio,21-11-2020,1
969,Luca Brambilla,_lucaa_brambillaa_,,Non c’è l’iPhone,21-11-2020,1
970,bogdi pe cap 200,bogdanbeldean0,,nici nu era s20,21-11-2020,1
971,🚶W,ellhnac,,I HAVE THE P40😝,21-11-2020,1
972,redc15♏️,ejillik,,lamo thats not an s20 and I would knoe,21-11-2020,1
973,elijah💪🏽🐻,dulpho,,For all you dumbasses I mean not so smart they added a stronger glass type sapphire type screen to the iPhone 12,21-11-2020,1
974,_.siskos._,siskos._,,I have huawei p40😂,21-11-2020,1
975,un carpinncho,kitwixxdjwkj,,tengo el A20 .w.,21-11-2020,1
976,Maykol Perez,maykol_2408,,ese no era el s20😂,21-11-2020,1
977,Kaiq,noontrolador,,claro que se ali tivesse um Nokia ia quebrar o martelo,21-11-2020,1
978,vika_s,vika_ezhevika_12,,это не нокиа 3310😑,21-11-2020,1
979,Szakata,szalai856,,Ch. Nem is látjuk az elejét. Honnan tudjuk hogy azok a telefonok nem-e voltak már elöbb össze törve. 🙄,21-11-2020,1
980,Jose Miguel,josemiguelmc_,,por que samsung tiene una banana?👌,21-11-2020,1
981,Aria,ametlik,,iphone won guys 😌😁,21-11-2020,1
982,💗juki💗,edits.de.iamferv.rod1,,yo tengo el Samsung a 20,21-11-2020,1
983,RELAXJAHODY,relaxjahody,,lol you dont know how Nokia 3310 looks like ?,21-11-2020,1
984,Vasilis M,m__vasilis,,all phones is samsung,21-11-2020,1
985,😜😜,pirahna34,,Benim telefonda huawei p40 lite e,21-11-2020,1
986,Filippo,ghevardi.filippo,,iPhone,21-11-2020,1
987,ho paura degli O9 ᵃⁱᵘᵗᵒ,09_accucia,,fake,21-11-2020,1
988,Jesse Pelman,malo.man685,,thats not ip 12 aswell,21-11-2020,1
989,castiel,settizinha,,pedro falsificação de S20,21-11-2020,1
990,acer♋︎,1.5litrebuckfastbottle,,Why do that,21-11-2020,1
991,If you want,axuub,,Nimm das alte Modell von nokia,21-11-2020,1
992,Follow back la teen Wolf fan,bitu28934,,In samsung a dat mai puțin,21-11-2020,1
993,🥥🌴,tariq_khsrufe_,,"nO gOLpe0 fuERT3 aL iPHon3, por si no saben, la nueva pantalla del iPhone 12 soporta 4 veces más, osea, si se te cae no se romperá 😏",21-11-2020,1
994,~~~,sofiq_xxx,,Yo tengo el 12 t se me fue volando del carro y solo tiene una raspadita🥱 Iphone es el mejor period,21-11-2020,1
995,🌻,wekyj1,,il nokia 3310 è completamente diverso,21-11-2020,1
996,lily💯📍,lilymochan_,,hey I got a Nokia,21-11-2020,1
997,𝔹𝕖𝕒TᖇIᑕᗴ 👁️👄👁️,sonolabeatrice,,"mi è caduto il mio Samsung A50 mille volte(nn è successo nulla),poi qualche giorno fa è caduto si è solo un po' crepata la pellicola😅",21-11-2020,1
998,Gameri06,gameri06,,That is not Nokia 3310. If it was 3310 that hammer should be broken as your Iphöne when you touch it with feather.,21-11-2020,1
999,Sophie Larcombe,sophielarcombe,,🍎,21-11-2020,1
1000,-Maria z-,mariaxzairi,,μλκ το samsung ειμαι η καλυτερη μαρκα αλλα κάνετε τα πάντα για να την βγάλετε χειροτερη,21-11-2020,1
1001,kozlik,kozliku,,ладно,21-11-2020,1
1002,Folow za folow,aleksauchiha1,,Me Huawei p40lite,21-11-2020,1
1003,Man U In The Mud,stooooopid_fam,,Why u wearing fucking gloves,21-11-2020,1
1004,mooksim,helloooooooo510,,that no a samsung s 20 thats a samsung 6 or 7,21-11-2020,1
1005,Bøøbs,show.me.yourr.booobs,,To nie IP ale i tak wole IP bo mojej sis i mi ciągle mikrofon się psuł w androidach,21-11-2020,1
1006,witam,przepisy.wwwniemiecko,,iphone 💪,21-11-2020,1
1007,enya 💟,enya_turunc,,@sophieessexx_ THE GREEN ONE,21-11-2020,1
1008,Lua ❔,lua.rb7,,Para empezar no hay ningún iPhone,21-11-2020,1
1009,_bil4l_,_bil4l_,,Fake LOL😂😂😂,21-11-2020,1
1010,Alexandrs_Gerasimovs,alexandrs_gerasimovs,,Huawei P 40,21-11-2020,1
