,Comment Number (ID),Nickname,User @,Comment Text,Time,Likes
1,Günther,derguenther04,,"Dinge, die die Welt nicht braucht 😇👍",27-2-2020,
2,Güllü,.gulluu,,wen man das für die ka's braucht also die Fotos [laughwithtears],27-2-2020,
3,︎ ︎ ︎ ︎ ︎ ︎ ︎ ︎ ︎ ︎ ︎ ︎ ︎ ︎ ︎,happyface.mugo,,Muss immer Zweideutig denken,27-2-2020,
4,𝗖𝗘𝗢 𝗢𝗙 𝗜𝗡𝗔𝗖𝗧𝗜𝗩𝗘,__guppyrion.bs__,,oh Gott... es gibt Sachen... aber mit sowas hätte ich nie gedacht,27-2-2020,
5,🇷🇴,angi_spiri,,Wer schaut sich das auch ohne Socken an?,27-2-2020,
6,bananabub,bananabub,,Wie heisst es,22-3-2020,
7,KNAX_Birne,knax_birne,,hi,27-2-2020,
8,Hallo,nicealexnice,,Das neue IPhone 13😂,1-3-2020,
9,lavinia,1lav1nia,,Wie heißt das Ding?,27-2-2020,
10,Rika,ri_el.ka,,"Ich sehe noch eine vierte, für Frauen geeignete Funktion... Das hab ich nicht geschrieben🤭😅😇",27-2-2020,
11,Me,lmzzzzzzzzzzzzzzz,,Wenn da steht vor 1 min,27-2-2020,
12,Oliver Horn,dragonsslayer12345,,wer hat Alexi Bexiis Video angekuckt,27-2-2020,
13,A,afgfreefire10,,Woher bekommt man so ein Stifthandy????,27-2-2020,
14,Hamza,hamza41362,,.,27-2-2020,
15,benamoradam,benamoradam,,Hi,27-2-2020,
16,toya,beoomgyv,,Wie heißen diese Stifte 🖊 ??? könnte man z.B für klassenreise oder spicken benutzen falls es ein Taschen Rechner 🖥 hat ?,1-3-2020,
17,fynn steiner,deutzfahr112,,wo gibts das?,27-2-2020,
18,Zoroastriens,viranevuzune,,Electronic suppositoire,1-3-2020,
19,🇧🇦Prince's. Ciara. _xd🇧🇦,ciarabajric,,Für Schule hahah,27-2-2020,
20,Koko <3,xkokox_,,Was ist mit Google ?😂,27-2-2020,
21,Ly🥷🏿,emly.30,,wie geillll[laughwithtears],27-2-2020,
22,💞,ghazl4969,,1.Schritt :nach googlen 2.Schritt :Vater überreden 😂😂,27-2-2020,
23,nisa,43_nisaa,,Es wurden ja immer die Handys nach und nach größer aber jetzt werden sie kleiner🤨,27-2-2020,
24,user1868958392865,limmel134,,wo kann Mann das kaufen aber mit Rechnung,24-11-2021,
25,niroj,niroj103,,cull🥰🥰,6-8-2020,
26,catgirl,annamaus36,,wo gibt es das denn,4-3-2020,
27,lalita sunita,agimajana,,Was ist dS,4-3-2020,
28,Hunted Phantom,huntedphantom,,Wo gibt es,3-3-2020,
29,Katja2712,27katja12,,@itschaostvqueen @sedoo525 😂,3-3-2020,
30,Mamile,mamileg2019,,Doch ich will das perfekt für denn Unterricht,3-3-2020,
31,Eduard Urich299,eduardurich1,,der Vater eines Freundes hat denn gleichen,1-3-2020,
32,Beate🐲Bern.,beatebern,,Haben wollen..... Haben wollen.....Haben wollen.....Haben wollen.....Haben wollen.....Haben wollen.....Haben wollen.....Haben wollen.....,1-3-2020,
33,Ingo Lorenz,ingolorenz3,,wo kann ich den kaufen...bei Amazon schon Mal nicht,1-3-2020,
34,𝕃𝕚𝕟𝕒,lina.wgl,,Hä leute ihr könnt dass einfach im unterricht ans handy,1-3-2020,
35,PeyAxa,peyaxa7931,,Die Dinger sind für Gefängnis Insassen gebaut... Habe mal eine Doku darüber gesehen wie Handys ins Gefängnis geschmuggelt werden...,29-2-2020,
36,Vesaros,vesaros,,"Ah komm, keine Frau auf die Idee gekommen das anderweitig zu verwenden und sich anrufen zu lassen? 🤣",29-2-2020,
37,ewu41,uwweeee,,braucht keine sau,29-2-2020,
38,Zafer Bozkurt,zaferbozkurt5,,Wo gibt es,29-2-2020,
39,Dragon45012,drafon45012,,Wie heißt das den genauch bitte melden würde das gerne meiner nichte holen🤔👍👍✌️,29-2-2020,
40,Antonio,kamoscobra,,Frauen Handy 😂,29-2-2020,
41,Fabian Wilkening,fabianwilkening,,wie heißt das?,28-2-2020,
42,🇪🇬,ac_diesereineausaachen,,wo den,28-2-2020,
43,Samuel Klumpp,samuelklumpp27,,wo bekommt Mann das das brauche ich,28-2-2020,
44,Ralf Schmitt,ralf5060,,wo kann man das Handy kaufen,28-2-2020,
45,7,frenchfries.soul,,Ich hab ein Mathe Lehrer der damit die Hausaufgaben abfotografiert😂😂,28-2-2020,
46,Imiak,imiakwolf,,ab 20 Euro. also wieder eine Verschwendung von Ressourcen,28-2-2020,
47,younes,ekliger.maroc,,wenn da steht vor 8 stunden,28-2-2020,
48,@,user3639577,,"gott hab erst was anderes gelesen anstatt ""Ventilator ""🤣😂😅👍",27-2-2020,
49,bleonard3000g,_bloblo_,,besser als mein handy,27-2-2020,
50,🔥Sound Inferno🔥,sound.inferno,,Wo kann man das kaufen??,27-2-2020,
51,Manu,manu_507,,Wie heißt der Stift,27-2-2020,
52,Juckt_dich.nicht,juckt_dich.nicht2,,woher ist das😂😂,27-2-2020,
53,Niemand,peanutsniper,,ich würde sagen: Erdölverschwendung,27-2-2020,
54,Barbra,emretraykov,,vo kauft man die,27-2-2020,
55,Yassin,yassin123gta5,,Geil wo gibst das,27-2-2020,
56,???,ahiwow,,Erfindung der Menschheit,27-2-2020,
57,Hans-Werner Krass,wk188,,braucht kein normaler Mensch,27-2-2020,
58,Me,lmzzzzzzzzzzzzzzz,,Noch nie so früh,27-2-2020,
59,Me,lmzzzzzzzzzzzzzzz,,Erste!!!!,27-2-2020,
60,sweet,zaynab_sweet,,wo,6-3-2020,
61,S0m3tHln9,s0m3thln9,,@alexibexi😑😑😑😑😑🤣🤣🤣🤣🤣,27-2-2020,
62,🥀乃乇尺K卂几🥀,sold_rose,,Moin servus moin,27-2-2020,
63,Fotograf,andyimpressive,,I pen? 🍏,27-2-2020,
64,𝕃.65ღ⚛︎,lamer.65,,واو,12-3-2020,
65,mynameeeeeisjeff,comedyaufwish,,woooooo,27-2-2020,
66,Agressor,agressor75,,[laughwithtears][laughwithtears],29-2-2020,
67,🥢,222ur.fav.virgo222,,Wo gib’s das ?,4-3-2020,
68,Mika2021,michaelburg.1,,Sicher aus China,29-2-2020,
69,Andi,andcla12,,"gibt es bei Joom. Günstig und sicher. Kaufe dort vieles ,man muss halt etwas warten .",29-2-2020,
70,Cinda Bu Or,cindabuor,,@3ditz.anim3,27-2-2020,
71,SandroMagPizza,sandromagpizza,,@alexibexi,28-2-2020,
72,Eleonora,eleonora_xxt,,@kerstinprauser,3-3-2020,
73,Melina Marie,everyonelovesmelina,,@jessigsk8,27-2-2020,
74,user6364560090553,andyistdaslustig,,Made in China.,29-2-2020,
