,Comment Number (ID),Nickname,User @,Comment Text,Time,Likes
1,.,bojan_439,,Wo kann man das magazin kaufen,6-3-2020,
2,Sorry Abi,shoyoege,,so früh krieg ein hey,6-3-2020,
3,Opffffffer,geynudsack,,oder man kauft sich einfach eine Gute Nerf gun,28-3-2020,
4,𝐑𝐚𝐧𝐢𝐚,raaniaqz,,Hey,6-3-2020,
5,👑,elton.b04,,Brauch ich ned zock keine Kinderspielzeuge also meine die Marke fortnite,28-3-2020,
6,babymoench,babymoenche,,Manno man du brauchst das 50er Magazin von der Titan,12-3-2020,
7,Isjano18,isjano18,,Sogar eine gute idee,6-3-2020,
8,💙Headside🦋,headside,,Hey,6-3-2020,
9,Michael Jackson,mr.niggi,,KÖFTESPIEß KÖFTESPIEß KÖFTESPIEß KÖFTESPIEß KÖFTESPIEß KÖFTESPIEß,5-4-2020,
10,︎,mir_ist_immer_lwww,,Habe die auch,21-3-2020,
11,🇺🇦,naxytaxighg,,Es gibt auch ein 35 Schuss oder ein Magazin wo du nur durch den Kauf von nerf bekommst und es hat 50 Schuss,28-3-2020,
12,Dorisalat,dorisalat,,Dad ist kein tuning und ich hab dad früher immer gemacht,21-3-2020,
13,Benni🔥🔥🔥,peepo_breezy,,Denn man @Chip auf wish bestellt,25-5-2020,
14,Yeet,nicoexistiert,,Ich bleib lieber bei den original Waffen die mal so bemerkt besser sind...,23-3-2020,
15,I Have Fn Kids In My Basement,zyaiqu,,"Das ist halt einfach die stryfe Modifiziert,da hätten die sich auch was anderes ausdenken können, so eine gute waffe mit Fortnite zu verseuchen🤦🏻‍♂️",22-3-2020,
16,Paul Haim,paulhaim,,Wer spielt fortnite also bitte ❌❌Fortnite❌❌❌🛑🛑🛑⛔️⛔️⛔️,6-3-2020,
17,🦖Meiko🦖🦖🦖,adventurestones,,Warum kein fünfzig darf Magazin,27-3-2020,
18,...,infinity_langeweile,,Es wahr davor ne bessere Waffe ohne Fortnitw drauf😞,6-3-2020,
19,Mexotrixx,mexotrixx,,wie bist du denn darauf gekommen [scream],22-3-2020,
20,JaJaJaJa,chef_corona,,Alter wär ich nicht drauf gekommen,21-3-2020,
21,⌛️,lxcxs.229,,Warum spielst man Nerf? Holt euch Softair bockt viel mehr,25-3-2020,
22,Tamoe,tekagon,,Digga diese Op Waffe😂👌,21-3-2020,
23,Overthinking,late_night_thoughts_bln,,Hat aber wenig mit Technik zutun😂,7-3-2020,
24,😴✌🏼,besir.o8,,Wieviel hat die waffe gekostet?,27-3-2020,
25,Moritz Gerst,sdkfz234pumasexual,,Krass hätte ich net gedacht 🙄😅,21-3-2020,
26,U_ruined_the_joke,you.ruined.thejoke.idiot,,Nein nein warum musste man die stryfe so verunstalten 😕,21-3-2020,
27,ˢᶜʰˡᵉⁱᶠ,ns51_t2tf,,Du brauchst ne sport feder und ein 50er Magazin,14-3-2020,
28,jacob,jacob_fcc,,kannst du über die nerf stempede machen,12-3-2020,
29,Luk K.,luk898,,oder man holt die Titan mit dem 50 Magazin,10-3-2020,
30,Ben.Alrs,ben.131,,Das sieht aus wie die von jackal von R6,9-3-2020,
31,Hans-Peter Machdas,timoleonhoffmann06,,Da kommt man doch von alleine drauf! (?),8-3-2020,
32,PiloDanilo 303,pilodanilo303,,ich hab heute Geburtstag,7-3-2020,
33,XD,xd_xd_xd_hi,,Geht auch ein 50 dart Magazin,7-3-2020,
34,Mitsubishi fto gpx,mitsubishi.fto,,Es gibt ein novh größeres Magazin,6-3-2020,
35,F0xy1337,f0xy1337,,Holl doch ein 50.,6-3-2020,
36,vSDR pilot Stefan,vsdr_pilot_stefan,,Hab ich,27-4-2020,
37,Spüli,spueli8,,Lost,20-3-2020,
38,Loli,meylixxreal2019,,Fortnite🤮🤮🤮🤮,13-3-2020,
39,Nein.,nein_vielleicht,,Ich hab das 50ger Magazin von der minigun,21-3-2020,
40,Hay,__l__e__o__n____,,@mika2142009,21-5-2020,
41,Night Protter,nightprotter08,,@fortnite,6-3-2020,
