,Comment Number (ID),Nickname,User @,Comment Text,Time,Likes
1,TechStage · Ersteller,techstage,,"Erster, bekommen wir ein Hey? 😂",2-4-2020,
2,Römmel i🇨🇭,rommelrunner,,Habe ich auch mal bestellt. Nie bekommen,3-4-2020,
3,cruiserdr,tilo1234,,Da ist ja ne HP Druckerpatrone drin.,3-4-2020,
4,Levin,its_levin.s,,"2. Tag um Zoomania oder besser gesagt Nick fame zu machen,",3-4-2020,
5,nightlife_jan,n_m_j,,Nice,16-4-2020,
6,#¿¡{<>¡\},______...........______4,,Bekomme ich eines zum testen?,22-6-2020,
7,Fallguys,nassertoast007,,@schaunichtaufmeinpb0:Schaut nicht auf meinen namen,2-4-2020,
8,CM,cris3d,,frage mich gerade wie tinte auf Metall halten soll 🤔,3-4-2020,
9,Luca-Renee Högerl,parfumjunge,,Und kostet ein Vermögen,2-4-2020,
10,my.techblend,techblend,,Amazing product,4-4-2020,
11,Murat S.,murat_c.s._,,"86 euro und Ersatz Kartusche die Hälfte oder 49,99 euro oder",3-4-2020,
12,Creeper,tictoctry,,Wo hast du gekauft,29-5-2020,
13,FlexxxyHD,_xghd_,,Wo ist der link oder die bio,18-4-2020,
14,Editing movies and stuff,tveditszz,,How can I buy it?,3-6-2020,
15,Thomas S.,thomass980,,Schade man kann kaum lesen welcher Hersteller. Und hier nirgends Hinweis auf Bezugsquellen. [thinking],2-4-2020,
16,🍑veren,melistafiesta01,,Es wäre eigentlich schlauer wenn da drunter automatische rollen wären weil dann nicht so „Fehler“ entstehen können👀trotzdem krass geile Erfindung👍🏼,2-4-2020,
17,MINECRAFTER MEMES,minecraftermemes,,TAG 19 : Ich gebe mit viel Mühe bei meinen TikToks aber bekomme keine Fans. 😭😭,30-4-2020,
18,Emily ×͜×,emily__1802,,heeeey👋,2-4-2020,
19,Tik Toker,xopheilia,,Also.. naja wenn das so aussieht wie am Ende dann nicht so gerne,15-4-2020,
20,🫡,stromverteiler,,Ey du.. ja du... JA MEINE DICH..🌚Hoffentlich bleiben du und deine Familie gesund.. Pass bitte auf deine Familie auf!!❤️🥺😊,2-4-2020,
21,.,alex_200_6,,@mischa_pubg,2-4-2020,
