,Comment Number (ID),Nickname,User @,Comment Text,Time,Likes
1,Car_spotter,car_spotting_4,,Even the iphone 6 is stronger,18-12-2021,6215
2,Schwulenjäger123,gayhunter1234,,Wie eif Siri bei Apple Watch angegangen ist,18-12-2021,343
3,hallo,irgendein.random.user,,"irgendwie habe ich das Bedürfnis, mein Handy durchzubrechen",18-12-2021,120
4,SIA,siabaneh,,"Instead of breaking these cell phones, you can give them to a poor person",19-12-2021,3
5,<3,user52892617897,,@elif.acabuga @fienes._.art @malin.pb @mimis1lov4 hannah mit ihrem handy jeden tag:,21-12-2021,1
6,Truly a menace,trulymenace_,,Og's know that this sound is the intro of vik's disstrack,18-12-2021,76
7,janousektomasek,janousektomasek,,Xiaomi redmi 8t +The blue case with it is no chance to break it i dubna why😳,21-12-2021,2
8,aly ;),alyyrt,,bro siri is trying to have a conversation and you’re just ignoring her 😂,20-12-2021,1
9,It’s just a burning memory,crimsonhorny,,Ay bro your Siri is on,18-12-2021,49
10,Tony¯\_(ツ)_/¯,domnul_felie,,Foldable LG's,21-12-2021,1
11,follow or 🏳️‍🌈,hami..fyp,,Do a ipad,21-12-2021,1
12,Dominika <3,.dominikaahh,,Xiaomi pls,21-12-2021,2
13,Kayden Porcello,car_guys36,,do stylo 6,18-12-2021,89
14,the skeleton💀🥱,theskeleton109,,can you do poco,21-12-2021,1
15,FSO_to_potynga,fso_jest_najlepsze,,try with nokia,21-12-2021,1
16,Lauren Spencer,laurennjs,,@coconutjuiceman I have the 4,21-12-2021,1
17,SVE I SVAŠTA,225883lkkl,,Samsung A51?,21-12-2021,1
18,xCaT_ManYT,xcat_manxx,,can u test a Samsung A40 pls its my Phone 🥰,20-12-2021,2
19,RED,redouan._.elm,,pls fo xiaomi,21-12-2021,1
20,Paul huber,251.paul,,I got a stylo 4,18-12-2021,18
21,user1290375506595,bequiet4422,,Ок.,19-12-2021,102
22,un__pibe_cualquiera,un._.pibe._.cualquiera._,,en vez de destruir los celulares regalalos no?,20-12-2021,1
23,🦊|pγntøυłø♡,pyntoulo,,NiKia 😂😂,18-12-2021,9
24,Alvaro Zonino,alvarozonino,,No los rompas para eso dame uno,18-12-2021,1631
25,guilhermetft,guilhermetff,,"PLS, DO NOKIA 3310",19-12-2021,298
26,monzik.neofc,monzik.neofc,,елги стайлэ вышел из чата,19-12-2021,51
27,mikimoret,mikimoret,,honor 9 lite INDISRUTTIBILE ASSICURATO,18-12-2021,25
28,...,rob_vsn,,do Motorola,18-12-2021,53
29,nelly.lachance1,nelly00040,,@meg_gagn28 hhhh mon telephone,20-12-2021,1
30,爆|𝚁𝚘𝚕𝚝𝚘𝚗🍹☔,sad_r0lt0n,,на третий не хватило,19-12-2021,10
31,Phantom,golovorez_14,,все ясно,19-12-2021,16
32,〜(꒪꒳꒪)〜fiat marea╰( ･ ᗜ ･ )↓,fiat_marea_2.0_weekend,,nokia 6267 please i have one,18-12-2021,31
33,Mattia Macrí,mister..doggo,,wauwei y6 indistruttibile Ve lo assicuro,21-12-2021,2
34,brody,brodydude619,,day 1 of asking for blackview phones,21-12-2021,1
35,Gutofe 123,gutofe123,,"Obrigado, agr já sei oq eu não posso fazer com meu cll",19-12-2021,7
36,cykamen0,cykamen0,,lg g6 impossible,18-12-2021,21
37,Michael,michael_affton.ofc,,Сири на часах в этот момент: ?,20-12-2021,5
38,Prophet,prophet.64,,2 weak,18-12-2021,9
39,внктор/ろきめちもし,cbakilo,,do coolpads next 😬😬😬😬,18-12-2021,13
40,simon_ftz,simon_ftz,,Nokia is imposible 😳😅😂,19-12-2021,2
41,Hi cutieee<,anasinghyosimp,,Can I have an iPhone 12 plz,18-12-2021,10
42,Nika Ebralidze609,nikaebralidze0,,Xiaomi poco x3 pls😳,18-12-2021,37
43,Augustin🥊,axgust1n1,,ultimu,21-12-2021,1
44,Belt_solos every verse,hypershadow82828,,Now do Nokia😈😈😈,18-12-2021,4350
45,Dylan Wagers,mariog7789,,stylo 4 be 0.9% Nokia,18-12-2021,2523
46,Oscar Cabañas,osc_cab,,con el 4 ya era algo personal,19-12-2021,1543
47,Matthew,floppysquidyt,,RIP STYLO 4 he got abused,18-12-2021,602
48,potato,take_00100,,el último era desendiente de Nokia xD,19-12-2021,578
49,Mrozyu,mrozyu,,wiecie że to atrapy,18-12-2021,210
50,stiven hoti,stiven.hoti007,,già più resistenti degli iphone,18-12-2021,172
51,Aires Gray 🌈,aires_mae00,,Motorola next!,18-12-2021,145
52,james,i_james_is_not_smart,,Stylo 6,18-12-2021,78
53,NeyteMZ,neytemze,,pourquoi tant de haine ?,19-12-2021,22
54,Holam <3,ela._..rblx,,Yo mirando el Apple Watch y viendo porque Siri se enciende xd,19-12-2021,15
55,Ok,wejkasy,,Muzyka cayo perico?,19-12-2021,15
56,Siema_Seba_Jestem,siemasebajestem,,spróbuj nokie3310😏,19-12-2021,13
57,batmanfg222,batmanfg22,,try Motorola,18-12-2021,13
58,jaimeguerrero438🇲🇽,jaimeguerrero438,,Motorola,18-12-2021,7
59,Siu,tdm.frosty,,Sylo 2 zort,20-12-2021,6
60,Hola<3,noticias_reales._,,Yo tengo el 4 JSJSJS,vor 1 W.,0
61,Ace Portuguese136,firefistace167,,the last one was personal,8-6-2022,0
62,No,uwu._.tuvieja,,Lo peor esque ese es mi cel xd,26-5-2022,0
63,lbhefx,lebronsteph,,@SG Stylo 5,3-5-2022,0
64,Lia_playz15,lia_playz15,,Glad to have Lg stylo 4😏😌,23-4-2022,0
65,🌺Flower Bish🍄,.._dvmb._.gu77z._,,Where is stylo 6?,3-4-2022,0
66,⧼✧𝙥𝙧𝙚𝙨𝙡𝙚𝙮✧⧽,yourshorthaha,,What abt stylo 6?,27-3-2022,0
67,DEMONXY,yxss_ftbl,,Stylo 4,27-3-2022,0
68,user3378675948602,john_bored_af,,i thought someone was calling me,13-3-2022,0
69,Daniel,daniel.b.lowe,,what about lg Stylo 6?,10-3-2022,0
70,₩●Pablo●₩,pablo_.gom3z,,The sound is my Dad's rintone😂😂😂,10-3-2022,0
71,AaronTheDev,aaronkirbi_official,,The LG Stylo 2 in my country (Mexico) it's called Q7 or Q10 I don't remember,6-3-2022,0
72,ΦΩΤΗΣ ΣΩΤΗΡΌΠΟΥΛΟΣ ΜΠΑΜΠΑΣ ΣΑΣ,fotissotiropoulos6,,tcl please,4-3-2022,0
73,Misael,p_misael,,iPhone turn,3-3-2022,0
74,Amir Vehabović,amirvehabovicc,,lg stylo 2 is like 0.001 % of a nokia,2-3-2022,0
75,Agent,sebaprosebek,,realme8,1-3-2022,0
76,MePaMo7915,mepamo7915,,I used to have 4,1-3-2022,0
77,Albanian boy🇦🇱🇦🇱,albanian_lyrics14,,Do nokia pls,27-2-2022,0
78,⠀ ⠀ ⠀ ⠀ ⠀ ⠀,b._.darius30,,try Samsung s9 I never seen that,26-2-2022,0
79,Aleksandar,aleksandar_balkanac,,But all of this dont work,20-2-2022,0
80,🥄,922woeewwww,,van,20-2-2022,0
81,alvinbelton55,alvinbelton55,,"are you local to Dallas,TX?",17-2-2022,0
82,Mr unknown,lstheworld_,,you missed lg velvet,17-2-2022,0
83,Joe,legendaryjoe99,,Do the iPhones,12-2-2022,0
84,Tik Toker,pridemonthdogwater,,I had one,11-2-2022,0
85,Joxiel,joxiel_357_xd,,i have the Stylo 5,11-2-2022,0
86,ps 91:40,epicquotes0,,try lg q6,4-2-2022,0
87,Pesci'sWife😌💍,pescis_wife_official,,I used to have the second and 3rd phones,3-2-2022,0
88,Sheeeshmaster 2246,sheeeshmaster2246,,Stylo 4 lg is saying hell no,31-1-2022,0
89,T H E R O C K,fxdrastico,,Nokia please,30-1-2022,0
90,Solomon 🏀,solomon5th,,is it just me?,25-1-2022,0
91,they drip,babyshark_705857,,lg silo 4,25-1-2022,1
92,Kapseln13,kapseln13,,Do with Huawei p40lite,23-1-2022,0
93,GeorgeMpimpakis,george_bibas,,do with cat s31 or s42 pls,22-1-2022,0
94,just_Xenixت︎,xotic_xenix,,not hallal mod,21-1-2022,0
95,I follow back and goal is 1000,gage5060,,styleo 6?,21-1-2022,0
96,lakiza,lazaris146,,motorola,20-1-2022,0
97,stanciurobert104,stanciurobert104,,ba da voi n aveti ce face cu bani?,20-1-2022,0
98,Maliludak,lakithepatka7,,now nokia,16-1-2022,0
99,Telugu_BGMI_Gamer,telugu_bgmi_gamer,,bro..😂everytime u do one of these videos..ur apple watch activates siri...lol😂😂,14-1-2022,0
100,2_tuff,2_tuff_12,,last,10-1-2022,0
101,lemonwater,lemonwateronyt,,LG Stylo!,10-1-2022,0
102,jalensmith943,jalensmith943,,LG Stylo four,8-1-2022,0
103,simp4._.ur mom,simp4._.urmom,,𝔀𝓮'𝓻𝓮 𝓭𝓸 𝓾 𝓰𝓮𝓽 𝓾𝓻𝓹𝓱𝓸𝓷𝓮𝓼 𝓯𝓻𝓸𝓶,6-1-2022,0
104,Anime,monthlyanimestuff0,,Anyone noticed that in every video his Apple Watch turns on Siri,6-1-2022,0
105,Mels's World 🌎 Pro.,mels_world_productions,,i have the 5😭,3-1-2022,0
106,powsick,powsick,,try LG G6,2-1-2022,1
107,michael14236,marketplacefinds0,,Stylo 2 folded,2-1-2022,0
108,JDOG,cxsh.jdog,,Stylo 6,2-1-2022,0
109,Moon,moonrule,,chiropractor be like,2-1-2022,0
110,🤨📸,snickerpuffs,,do OnePlus!,1-1-2022,0
111,toy car collector!,hotwheels_dude21,,you forgot to do lg Stylo 6,1-1-2022,0
112,перчикииии,pepemaniaperchik,,can u do redmi 7 redmi 8 redmi 9 redmi 10 plzzzz,31-12-2021,0
113,child mikEy,childmikey7,,pp leaseeeeeeee do xiaomi redmi,30-12-2021,0
114,Chloe4451,chloemar71,,Can you do one with Apple,29-12-2021,0
115,yo,alguien_ramd0n7,,una pregunta que marca de chip utiliza el LG Stylo 4?,29-12-2021,1
116,yo,alguien_ramd0n7,,con razón mi celular aguanta tanto,29-12-2021,2
117,leo🪐,ruxxssy_leo,,hahaha he didn't do the stylo 6,28-12-2021,0
118,Edwin Macias,edwinmacias1235,,I have the LG Stylo 5,28-12-2021,0
119,vanessa cervantes955,jujuchorizo,,Lg 4,28-12-2021,0
120,zenιтѕυ,pusod_ni_luffy,,try iphone 1 to 13,27-12-2021,0
121,Supersijingod,nobody_is_unknown,,LG Stylo 2 is moms second phone I am sending this to her 😭😢😡 I hope ut happy,27-12-2021,0
122,hi ppls,looking_for_disc_friend,,me on stylo 4 lol,26-12-2021,0
123,Tom s,tom112364,,stylo 4 tried,26-12-2021,0
124,Ace😌,the._.weird._.peep,,Can you do LG k 51?,26-12-2021,0
125,big booty judy😎,pentakilled,,do LG cookie,26-12-2021,0
126,Linhares,linhares.79,,nunca entendi pq ele faz com a tela para cima em todos os modelos menos o IPhone 😅,25-12-2021,0
127,Yulissa 🥲 JJHS,idk._.youbro,,And that my friends is why you shouldn't buy LG,25-12-2021,0
128,the goat,snag4jj,,LG Stylo 4,25-12-2021,0
129,🌌ᗪ乇卂ᗪ_卂千🌌,amogus420696,,samsung,25-12-2021,0
130,plava kita,ninjaoftheleaf1,,these phones had issues (pin this),24-12-2021,0
131,J dawg,fully.ehditz,,1st,24-12-2021,0
132,Elmira,elmira13579010,,Plz can you do huawei p30 pro,24-12-2021,1
133,裕仁,user9122918282992,,Where’s lg wing,24-12-2021,0
134,Basil_the_herb,basil..the..herb,,You should do noki,24-12-2021,0
135,Spaghetti.Bolognaise🇮🇹,die_ene_italiaannn,,Nokias turn,23-12-2021,0
136,aggrioaggori,aggrioaggori,,plz xiaomi,23-12-2021,1
137,Sarmalutza,mihai.....eu,,LG stylo table,23-12-2021,0
138,einfachnurnhküken,einfachnurnhkueken,,try xiaomi pls,23-12-2021,0
139,car cult,paddymongan2022,,pls do oppo,23-12-2021,0
140,pixieClouds,tupendejafavorita873,,your missing lg stylo 6,23-12-2021,0
141,xAleeq,xaleeqcr,,nokia3310 is typing...,23-12-2021,0
142,bugatti 3141,bugatti31410,,mdr essaye avk redmi 7 mais sans la table juste à la main tu le plis ( déjà essayer et je regrette un peu mais il marche encore 😂),23-12-2021,0
143,polat Alemdar cod adi: P4,polat_p0l4t,,rip lg stylo 2,23-12-2021,0
144,thatgoatsaymo,epic.pro.skateboarder,,ratio,23-12-2021,0
145,...,.yvba,,2 wins 100%,23-12-2021,0
146,Gigicurcal,razvan57.5,,One plus next,22-12-2021,0
147,malli in guerra,m7ll1_official,,prova con i nokia😏,22-12-2021,0
148,a.m.p.mario,editzzronny,,Samsung a51 its imposibile to distroy😳🤯,22-12-2021,0
149,hi.just.hiiii,hi.just.hiiii,,pls Lg velvet 4g,22-12-2021,0
150,Luffy es el mejor,el.pana_luffytaro,,redmi 9,22-12-2021,0
151,Retired.,retired_person09,,Stylo 4,22-12-2021,0
152,samuele,sassamurai,,SE NON TI PIACE DALLO A ME,22-12-2021,2
153,Konzerv,konzerv1309,,Why?,22-12-2021,0
154,マッテシポ,x3nveel_,,lg style 4 its stronger,22-12-2021,0
155,hi,public_porn,,LG stylo 4,22-12-2021,0
156,maxgysbrechts09,maxgysbrechts09,,waste of phone zero so not halal mode😂,22-12-2021,1
157,dziku_hq,dziku_hq,,but nokia 3310 is still the strongest,22-12-2021,0
158,fnaffan,geomentry,,lg stylo 4,22-12-2021,0
159,ᕙ(`▽´)ᕗi am strongᕙ(`▽´)ᕗ,drugggz,,do lg q60 pls,22-12-2021,0
160,harveylewis286,harveylewis286,,do Samsung,22-12-2021,0
161,😧̵̛͔͍̱͙̥͔̯͖̥͙̲͆ͬ̊̑̔̂💎̈́͆̈́ͯ̒̆,unknownskull,,bro I have a lg stylo 4😂,22-12-2021,1
162,Dušan Veselica,_dusan_00,,nokia 2.0,22-12-2021,0
163,stoke City/England,stoke.city_england.fan,,𝕝𝕘 𝕤𝕥𝕪𝕝𝕠 𝟜,22-12-2021,0
164,Jeke Clash Royale,jekeoff,,Moi qui a besoin d’un deuxième tel pour le montage 👁👄👁,22-12-2021,0
165,asparagus,a_asparagus,,ma li davi a me,22-12-2021,3
166,Fiolinio,fiolinio0,,thank now i know that when you break your phone it breaks,22-12-2021,0
167,Riksteri,riksterii,,Do Nokia,22-12-2021,0
168,user9339785558553,deadinsideheehoo,,Nokia brick phone 😂😂😂,22-12-2021,0
169,Tricia Marsh,triciamarsh1,,Blackburry,22-12-2021,0
170,😼🤠👊,viluren_,,Ludzie to już zepsute telefony są.,22-12-2021,0
171,Znofu,znofu,,samsung pls,22-12-2021,0
172,✨xX_maksio_Xx✨,_.hondziarz._,,pls realme,22-12-2021,0
173,Bartek,fnaf.lamaz_,,plsss redmi note 10,22-12-2021,0
174,davitashviliidavi,davitashviliidavi,,stronger is table,22-12-2021,0
175,Dinu,dinudinu__,,nokia 3310😁,22-12-2021,0
176,laars,lars.scoot1,,def number 2,22-12-2021,0
177,der bre,der.bre66,,i have lg stylo 2😳,22-12-2021,0
178,shitposting2021 *_*,shitosposting,,"stylo 6 , I hace one",22-12-2021,0
179,✯ Tristin ✞,choate_t,,You should try Nokia 😏😏,22-12-2021,0
180,Ryan Hamdan,rye.boi,,Siri wondering who summoned her 👁👄👁,22-12-2021,0
181,Gnomo,gnomo.ambulante.007,,Nokia,22-12-2021,0
182,duckhuntz,duckhuntz,,Yep 1 then 2 then 5,22-12-2021,0
183,Pancake Cookie!,officialpancakecookie3,,Yay I Have The 4,22-12-2021,0
184,Ray,sofiaismaterialgirl,,@rayismaterialgirl I have the 3rd one but I have a case on it,22-12-2021,0
185,That random Kid,monkey_tired,,t mobile,22-12-2021,1
186,MrTerrible2121,urlocalnobody2121,,i have the 5,22-12-2021,0
187,Jrrr_playz12,jrrr_boi,,4 and 1,22-12-2021,0
188,ChloeHasMyHeart,ufw.kendrick,,bro u could've gave those to me,22-12-2021,0
189,𝕮𝖆𝖙𝖝𝖑𝖞𝖘𝖙𝖙𝖙,catxlystvfx,,stylo 2 instantly died,22-12-2021,0
190,m_cecire,retr0002,,samsung galixie s5 neo pls🙃🙃🙃,22-12-2021,0
191,user3019191614475,arsov_81,,redmi nout 8t,22-12-2021,0
192,CRISTIANORONALDO,magic.ronaldo_ftbl,,The table,22-12-2021,0
193,:-O,antlan06,,Can you do a iPhone 8 please ?,22-12-2021,0
194,el chapo#7158,a.1barlow,,He’s guys where’s my phone go-,22-12-2021,0
195,fe4less,fe4rless116,,stylo 2 😂😂,22-12-2021,0
196,Hzuzydth,noonelikesvegans_12,,Fourth,22-12-2021,0
197,ElBonito1505,elbonito1505,,this is called wasting phones,22-12-2021,0
198,almost at face reveal😱😱😱😱,lilfoxfoxlover,,stylo 4,21-12-2021,0
199,⚡Kuba Zigi⚡,zigl_enjoyer,,"PLEASE MAN, CAN YOU TEST XIAOMI POCO X3 NFC AND OTHERS POCO PHONES 💪🏻🥺",21-12-2021,0
200,Cadenlf085,cadenlf085,,Think 2,21-12-2021,0
201,Hapunowicz.g,daj.szluga.prosze,,Mój ip 7 widzący to: 🥲,21-12-2021,0
202,🍁𝖟𝖆𝖜𝖑𝖊𝖈𝖟𝖐𝖆🍁,.azazell,,try LG K61 then,21-12-2021,0
203,Bruhana,sage665,,Lg stylo 3 got thanos snapped,21-12-2021,0
204,Kuza,ku._.za,,Hotline miami music 🥶🥶,21-12-2021,0
205,Dckcalasity,car_edits6902,,try huawei p40 lite E,21-12-2021,0
206,kat69420,kat694200,,LG 2,21-12-2021,0
207,25+ = block,_meek___,,try Samsung galaxy A21 s,21-12-2021,0
208,#cozijzerbroodje,cozijzerbroodje,,LG stylo 4,21-12-2021,0
209,jwgrom🇵🇱🇵🇱🇵🇱🇵🇱🇵🇱,polishmillitary,,do oppos,21-12-2021,0
210,amai,deadpool_on_a_scooter,,now do nokia 3310,21-12-2021,0
211,Grieta Džuļa,gdaivis,,"pls Redmi note 8T plss🥰🥰
🥺🥺",21-12-2021,0
212,user5772414626386,reglitch.exe,,this sound,21-12-2021,0
213,Limão,l3monzin,,omg Knight Rider music is soooo good 🥺 i love this game,21-12-2021,0
214,Kusipää,raikkumies,,Whyyyy😟😟😟😟😟,21-12-2021,0
215,prime.box.man,i.dont.like.hard.pillows,,Do Nokia,21-12-2021,0
216,Elias Voit,aviation_emb.505,,try nokia 3310,21-12-2021,0
217,Dionysia Thomais Kapatou,d_thomaiskapa5,,Xiaomi,21-12-2021,0
218,me,transphobicteacher,,Bois I got a nokia,21-12-2021,0
219,tea>:>,kas._.pars,,now do cat😈😈😈,21-12-2021,0
220,holaaa,jonatan.056,,as eao con un nokia,21-12-2021,0
221,Dany4413,d4ny4413,,oppo,21-12-2021,0
222,extreme TNT,robert212009,,im using the first,21-12-2021,0
223,🖤,lostpan05,,Styler 4,21-12-2021,0
224,Dominnyo,dominnyo,,LG K40S?,21-12-2021,0
225,Lukka,darklukka,,can you try LG V30?,21-12-2021,0
226,Brawl Stars,rav_fabsi,,Xiaomi,21-12-2021,0
227,прост акк,bombist0,,коротко о моей спине,21-12-2021,0
228,ענקקקק,_maayanchok_,,@tavors01 כפרה עלייך תבור תשקיע בטלפונים,21-12-2021,0
229,®™®,el0_ben3,,o moj stary tel,21-12-2021,0
230,bobery62bob,bobry2000,,its almost like there not supposed to be folded in half 😳,21-12-2021,0
231,Someone,arystanluvsfutbol,,Give fair experiments mate you legit abused that LG 4 😑,21-12-2021,0
232,Просто Максシ︎,masim4ik_top,,Poco F3- Poco X3 Pro- Poco GT,21-12-2021,0
233,LøstV3ssel05,lostv3ssel.bs,,"Can you break Redmi Note series (8, 8pro, 9, 9s, 10, 10pro) phones?",21-12-2021,0
234,Scholar Monk,scholarmonk,,please 🙏 I need a phone can you grant me one of this iphones or LG or anyone please,21-12-2021,0
235,LINI🦁🦁🦁🦁,depayfan_10,,Try nokia 😅,21-12-2021,0
236,CEOunrashed_60Fps,ceounrashed_60fps,,pls do google pixel,21-12-2021,0
237,flixcy clan,flixcygaming,,redmi,21-12-2021,0
238,Join Ronaldo cult,ronaldojrrip,,What happed to 3?,21-12-2021,0
239,Eforiakos,eforiakos,,Nokia 3310,21-12-2021,0
240,BestFriendsIsBest,gaayalivesforjustice,,"Stylo 4 be like
ITS ABOUT DRIVE
ITS A POWER",21-12-2021,0
241,M,brave_cat_army,,"phones:pls no pls no noooo!!!!!
table:i gave you now",21-12-2021,0
242,Wojtek Z.,wojtelx,,try nokia,21-12-2021,0
243,ema_losy,ema_losy,,realme 8 pro,21-12-2021,0
244,nagrywam gry na dzień dobry,bamura0,,nokia 3310,21-12-2021,0
245,...,king_diseasy777,,yo con mi j2 viendo esto: 😢,21-12-2021,0
246,flips.scooter_ghost,fl1ps.sc00t4r,,stylo4,21-12-2021,0
247,errorek87,errorek87,,try LG k9,21-12-2021,0
248,toca boca🥳,katy123122,,LG STILA 4,21-12-2021,0
249,like sau te bat,mihnea_xx_,,lg stylo 4 100%,21-12-2021,0
250,I love ya🤍🤎🖤,beyourmom,,stylo 2,21-12-2021,0
251,Arman,official_a_61,,you should do Motorola,21-12-2021,1
252,Dannyk872,danny0140,,who want to play rock paper scissors,21-12-2021,1
253,user3332225964954,bence20041229,,whyyy?,21-12-2021,0
254,Braxton,braxton__winton,,do lower tear phones them things not breakable😂,21-12-2021,0
255,Badass player#12,badass_player,,Lg style 4,21-12-2021,0
256,Flump1988,flump1988,,Oppo range 😳😏,21-12-2021,3
257,Kassidy,kasssidy_09,,and no one knows where the 3 went rumor has it never has been seen...,21-12-2021,0
258,Kizza,onlyswom,,Nokia,21-12-2021,0
259,João Campos,jmcampos15,,LG magna or huawei p40 lite 🥺🥺,21-12-2021,1
260,2010 Special Edition Honda CRV,10.crv,,"Maybe put a battery in them?
You know that helps with structural integrity, right?",21-12-2021,0
261,Ps_Angel_OFC,ps_angel_ofc,,"do a1, a11, a21 and a31 :)",21-12-2021,0
262,lier,lier998,,un Blackview mejor 👀,21-12-2021,0
263,Balwinos_,balwinos_,,why?,21-12-2021,0
264,Liam.,konohalastreet,,Do redmi 7 8 9,21-12-2021,0
265,Im Lets Park,djbbomdi,,faz L80,21-12-2021,0
266,.bubbs1,carlfigglebottom,,could you try the Samsung s21 ultra,21-12-2021,0
267,Tyst?,user68e0lt54lv,,@3184elsa vad är ens LG stylo,21-12-2021,1
268,Lucas Copley,that_guy934,,where is 3,21-12-2021,1
269,Cami,idkcetm,,What is the Apple Watch doing,21-12-2021,0
270,(^_-),akimitsu.demadou,,Nokia,21-12-2021,0
271,4it0r_cdm,_s13te_,,el último LG x Nokia,20-12-2021,0
272,Diego 🇮🇹🇱🇮🇦🇷⚽️,diego.6.football,,The last one is clash royale approved,20-12-2021,1
273,samuel de luque batuecas,un_wn_random_xd__,,xiaomi,20-12-2021,0
274,Sleepy :D,_s.p.e.e.d.y.y_,,Lg has PHONES?!,20-12-2021,0
275,hello..,bmwlv,,TRY POCO X3 PRO,20-12-2021,1
276,BLAKOWERCAT_2018-2021,black_over_cat_tt25,,It's huawey time 😏,20-12-2021,0
277,ᒍᗩ ᗪET Eᖇ ᔕOᑎᗪᖇE,sondrebakkemen,,Do Nokia😉,20-12-2021,1
278,Diego Ralon887,diegoralon9xd,,yo tengo un LG Stylus 4 G,20-12-2021,0
279,Maxime Touzet748,maximetouzet0,,moi j' ai un tel c impossible de faire ca,20-12-2021,0
280,user5498356565559,carsgames9068,,music from knight rider,20-12-2021,0
281,Grace da Silva,dragon_.cristal,,plese do ASUS Zenphone,20-12-2021,0
282,Jema,jemalcala,,this is hurting in my samsung J3,20-12-2021,0
283,♟,fablaezed,,Le Siri de la montre il dit « oui plus fort »,20-12-2021,0
284,Starsigns,starsigns232,,It is definitely LG stylo 2👌👌👌👌,20-12-2021,0
285,Laurawr,sexinoodle,,"I could have eaten those, such a waste",20-12-2021,0
286,monkeywithdripooaa,monkeywithdripooaa,,The pain,20-12-2021,0
287,Save Ukraine,lookapussywow,,"Do my phone, Nokia 5.1 plus",20-12-2021,0
288,Cole Rudneski,colerudneski,,can you do a lg Velvet,20-12-2021,0
289,Mouadh El Gandli,torrdice,,Apple 🍎,20-12-2021,0
290,robel.hernz,robel.hernz,,tu pon un Nokia y ya verás quien gana,20-12-2021,0
291,Nephilim System,nordicenby,,try the one plus phones,20-12-2021,0
292,Paweł Paprocki,pawulon454,,Very cool,20-12-2021,0
293,ugly.beech,ugly.beechh,,Do nokia,20-12-2021,0
294,.,armand_de_gekke_persoon,,do nokia 7.1,20-12-2021,0
295,⠀ ⠀ ⠀ ⠀ ⠀ ⠀,____oisin____,,do OnePlus,20-12-2021,0
296,Xsjoe,xsjo25,,where is q6+ hahahaha,20-12-2021,0
297,_.bastoto😈._,_.baastyyy._,,Xiaomi redmi please,20-12-2021,0
298,JoJo💪💪💪,jotaro_is_a_king,,do Samsung galax A 10,20-12-2021,0
299,The Chad Men,thegigachadmen,,Le 12 Pro Max vu la brique que c’est bonne chanche,20-12-2021,0
300,Edi2991,edi2991,,I to jest test 😂,20-12-2021,0
301,wilson,wilson_official2,,2 just flopped,20-12-2021,0
302,Quentin.,qcomes29,,oh bordel moi mon tel il est tout pété et vous détruisez sa devant moi,20-12-2021,0
303,Magic_,magic_bot_,,try nokia 3310,20-12-2021,0
304,Hitachi televizor,bognakvadrat,,do sony xperia z5 premium,20-12-2021,0
305,friends call me kaisa🤭,kikuuh..lol,,can u do iphone xr? cause im getting it and i want to see how strong it is 🙋‍♀️🛐,20-12-2021,0
306,jamesnicholls955,jamesnicholls955,,samsung s series??,20-12-2021,0
307,боба,boba.zip,,@super_surge.bs нам треба останній щоб не могли погнуть,20-12-2021,1
308,idktoma,idktoma,,try samsung a72 its back is made out of metal,20-12-2021,0
309,Thephatchub,thephatchub,,You know lgs are not more producing and you’re destroying the last of their phones😏,20-12-2021,0
310,Max_vgn,max_vgn,,Mdrrr c’est chaud y’an a ils ont pas d’argent pour un tel...sans parler des matières premières très rares...,20-12-2021,3
311,yaaas queen,chintsetsu7,,Bro you could've given those to me I be chilling with the same phone for 5 years and you just break those 😭,20-12-2021,0
312,user9015062654107,mynzi_vieira,,Asus,20-12-2021,0
313,Faze_Ben😎😎😎,faze_ben97,,waste of lg 0 so not halal mode,20-12-2021,0
314,██████████,beau.is.the.boss,,stylo 4,20-12-2021,0
315,PR0V0DA,pr0v0da7,,теперь давай Нокиа,20-12-2021,0
316,Random_cuts,random__contents2,,Do iPhone,20-12-2021,0
317,totolecas,totolecas,,"là les lg ont l'air fragile mais une fois j'ai fais tombé le mieux, il s'est éclaté en plein de morceaux alors j'ai tout récolé en mode Lego (1)",20-12-2021,0
318,Zenitsu Uchiwa,zenitsuuchiwa,,pov la cause de la penurie,20-12-2021,0
319,Eli zabel,yyc.zabel,,Nokias turn next,20-12-2021,0
320,jullin,ak_jullin47,,eu digo e repito a lg só serve pra fzr tv,20-12-2021,0
321,alaxvedra,meteralurad_li,,try google pixel,20-12-2021,0
322,Walnutbaker 69,walnutbaker,,Looks like non of them but let's humor all phone brands,20-12-2021,0
323,DATO,moxeve_moxeve,,I have LG V20,20-12-2021,0
324,Iceeyz,iceeyz_,,LG StyloFold 2,20-12-2021,0
325,dyfuybr2rval,dyfuybr2rval,,LG G6 PLEASE,20-12-2021,0
326,Yeet,einfach._.oli,,Di Nokia,20-12-2021,0
327,otban24,otban24,,xiaomi redmi 9t,20-12-2021,0
328,Destroyer bot 2001,fredoman611,,KITT,20-12-2021,0
329,felipe,arthur_lewing,,eu querendo um célula novo e me aparece isso🥺,20-12-2021,0
330,Mr. Blaszka,mrblaszka47,,Xiaomi redmi note 8 pro,20-12-2021,0
331,Anakin Skywalker,call.me.skyguy,,Try Nokia and your hand will break,20-12-2021,0
332,Aff,rino.mmimm,,Nokia would snap the table in half,20-12-2021,1
333,Naruto Uzumaki,og.narutofans,,when is Xiaomi,20-12-2021,0
334,Demoy Brown,.follower_of_jesus,,try LG k9,20-12-2021,1
335,MaikHendges,_xhendx_,,no Knight Rainer,20-12-2021,0
336,Имало едно време 🎬,relentless_v2,,"LG G2, 3, 4 next please",20-12-2021,1
337,_.thanosbordanos._,_.thanosbordanos._,,😳4,20-12-2021,0
338,Arjun ̤̮,arjxnnn,,Nokia 😎,20-12-2021,0
339,Faxu,nicolas_fax,,and some people dont even have phones😳😳😳,20-12-2021,3
340,Cj the dj,defonot_callum.watson,,That last one must of been made in the Nokia factory 😂😂😂😂,20-12-2021,0
341,wiggle,wigglewiggle583,,and Samsung is still on top,20-12-2021,0
342,unknown,xoxo_joestar,,this song😏,20-12-2021,0
343,mellybaby,ynwmelly1999,,Con el 4 se lo tomó personal como Michael Jordan,20-12-2021,0
344,christianascone96,christian.thelonefan,,Oppo?🥺,20-12-2021,0
345,Léo lfc,leo_lfc,,stylo 4 couleurs,20-12-2021,1
346,Bence Kanyári,faszomtudja1231,,Why dontyou test iphone bruh,20-12-2021,0
347,ᗪ乇卂ᗪ_卂千,r_gricisins,,HTC the king😏,20-12-2021,0
348,Yuvraj Singh,yuvraj.s.07,,why u wasting phone,20-12-2021,0
349,Squibby,squibby2001,,have you done oppo,20-12-2021,0
350,Play Games,japanio_torpeda,,а ти попробуй нокиа и сигму сломать,20-12-2021,0
351,hey,ignited__burntrap_,,bro tossed stylo 2 like he was dissapointed,20-12-2021,0
352,kridz_sus_cherniq_session,mtb_kridz,,Can you do samsung s21,20-12-2021,0
353,Joey,catlover30002.0,,the background music is the beginning of Knight Rider,20-12-2021,0
354,black.russia1.0,black_russia1.0,,i have lg stylo 5,20-12-2021,0
355,jessica 🦭,jjessicaaoh,,is no one gonna mention that siri was listening on his watch the whole video,20-12-2021,0
356,Kristian Jéé Boss,_volaj_ma_kiko_,,Redmi,20-12-2021,0
357,GodlyPear29,godlypear29,,I can’t remember the last time I lent on my phone like this you be doing it all the time maybe your the problem,20-12-2021,0
358,Idkmyname,retro_gamerr,,The stylo 3: 😶‍🌫️,20-12-2021,0
359,ICF,2005banelersa,,LG Q60,20-12-2021,0
360,marce,marce.sik,,@milena.sik 8gb,20-12-2021,1
361,cs,_vojin_,,Nokia,20-12-2021,0
362,oscar,oscar_zav,,Can you do moto stylus 5g,20-12-2021,0
363,KainIsUseless,kainisuseless,,try to brake ulephone Ip-68😈,20-12-2021,0
364,Benja,benja_copado,,el de arriba del todo se parece a mi anterior celular que re murio,20-12-2021,2
365,Mustard Tiger,87mustardtiger,,Try the CAT phone.,20-12-2021,0
366,DYLAN41,dilanpro360,,Better to give me 🥺🥺Xq translates,20-12-2021,0
367,Kroger Toaster,krogertoaster,,could you do motorola phones?,20-12-2021,0
368,andy.t.kim,andytkim0,,Note 7,20-12-2021,0
369,Oso,user080920002,,Mano valora lo que tienes a tu edad yo tenia un celular de plástico que solo decía aya yai 😂😂😂😅🥺,20-12-2021,2
370,Tik Toker,antonio.k,,LG is just better off at making fridges and microswaves if im being honest,20-12-2021,0
371,giovann1par0,giovannipar0,,intanto siri: how can I help you with,20-12-2021,0
372,a,123hills,,can tou do samsung a50??,20-12-2021,0
373,Mauricio Gonzalez To,mauriciogonzalezt5,,why?,20-12-2021,0
374,Anna,anna_the_sincere,,I have Stylo 7,20-12-2021,0
375,joebidentoes,joebidentoes,,NokiAs wold never brake,20-12-2021,0
376,davi,davichaves123456,,Samsung zflip pls,20-12-2021,0
377,Leo,leo_s.h,,"ahora el LGQ60, tiene certificación militar, según xd",20-12-2021,0
378,donutzz,donutzzz_apex,,do oppo,20-12-2021,1
379,Ste.,ste_862,,poi c è il mio vecchio huawey che appena è caduto si è oiegato in due 😁,19-12-2021,1
380,avengers editor,i_m_iron_man3000,,"@nari.arts @
przepraszam musiałam",19-12-2021,1
381,Guillermo Gonzalez,guillermogaga,,Que esperabas que hiciera?,19-12-2021,1
382,no_ja_123,no_ja_123,,try LG k42,19-12-2021,1
383,Bogdan,bogd4n.q1802,,do poco x3,19-12-2021,1
384,Raphbwkwk,__rllr_,,@ikrxmm0 moi dans ma chambre,19-12-2021,1
385,Joseph,primalsucker,,do moto,18-12-2021,3
386,….,eycrackieman__,,Derr bre hat Flip phones erfunden,20-12-2021,0
387,Foxtrotquant,shuubaka_der_waeldler,,Wär geil wenn die an sind 😂,22-12-2021,0
388,glubb_eggn,glubb_eggn,,Ich hätte die auch kostenlos genommen.,21-12-2021,0
389,Damian,damian_joseph_bruce,,Da sind also die ganzen Halbleiter hinverschwunden,20-12-2021,0
390,🗿🗿🗿,gpo.trolli,,knight rider lang nd mehr geguckt,22-12-2021,0
391,EnnysAmnesie,ennysamnesie,,J'ai toujours rêvé faire ça,18-12-2021,139
392,vishnu,__vhu__,,why all the other phone you are are doing the opposite way and LG from the screen towards up? do like other phones!,27-1-2022,0
393,shadow,shadowwolf1012,,can u do a a45 LG,6-1-2022,0
394,akusukakuching,jangannuub,,"if u have,a broken phone just give it to me",26-12-2021,0
395,did i piss you off? :D,niceballsyagotthere,,that shi still useable? ill buy it off u,22-12-2021,0
396,kopro_j,letni2,,not your table,21-12-2021,0
397,Kid,honestlytruth,,The last one but u had to flip it but with the other ones u didn’t flip them huh,21-12-2021,0
398,Estel Paul,teselbalu,,Nokia pls,20-12-2021,0
399,moka,dis_fool_,,pls try xiomi redmi note,20-12-2021,0
400,s0m3_dud3,_._.memez._._,,lg is so bad,20-12-2021,1
401,Артем,overdxrl,,хрустики,18-12-2021,11
402,honza,stonksxdd,,wtf is this,18-12-2021,12
403,rodo02br,rodo02br,,yo tengo el dos y está bien pedorro,22-12-2021,0
404,* Camila *,c4.camila,,tanta gente pobre querendo comer um celular desses e ele faz isso😔😔😔😔,21-12-2021,0
405,iguinho,igor_hndrx,,tanta gente querendo comer um celular e você aí desperdiçando,20-12-2021,0
406,Guzin-San,gl.rlk,,tenta quebrar um Nokia aí pra nois,20-12-2021,0
407,eitilo,eitilo,,cade os k,20-12-2021,0
408,Kunglindhh,kunglindhh,,А нахуя ?,20-12-2021,0
409,Cycy,cycycy555666_anti_cancer,,La richesse en une video,21-12-2021,0
410,BOOYAH.,booyah_1902,,Me waiting for Vikks disstrack to start like: 👁️👄👁️,20-12-2021,0
411,Campos.sk8,campos.sk,,Why? This is the most unnecessary shit I've ever seen,20-12-2021,0
412,......,lgbt_super_trash,,perché sprecare telefoni così invece magari di regalarli,19-12-2021,1
413,Disney XD,anthonyturcios449,,Motorola I want to best,17-6-2022,0
414,Turi Ricardo,kid_crocs,,my phone is hard I guese,20-4-2022,0
415,Harrison✨,harrison_w6,,Siri listening like “mmmm cronch 😏“,19-1-2022,0
416,Joaquin Luna,joaquinluna74,,Do the lg k7 😂😂,12-1-2022,0
417,ESTEBAN RAMIREZ,ebon7980,,Non they’ve been retired,27-12-2021,0
418,catsmilk332 9468,catsmilk33_2,,do lgk8 it's my phone,24-12-2021,0
419,K.I.T.T. Fan,knightriderofficial_,,LG watching this like 👁👄👁,22-12-2021,0
420,Gaius,de_gaius,,bro pls send me one of ur phones,24-4-2022,0
421,Andrei Leo,andreileo03,,just try iHunt,3-3-2022,0
422,Chł3beq,chl3beq,,Bro just Drop test,1-1-2022,0
423,felice_fornaro,felice_fornaro,,Waist of elllgi so not halal mode😳😳,21-12-2021,0
424,kanapka to hleb,usubemka,,k40 to czołg,21-12-2021,0
425,🌟,rus.vladi,,Waste of phone Zero,21-12-2021,0
426,arekokop,arekokop,,pls do lg k41s,21-12-2021,0
427,Dylan Sledge,burntmelo115,,That’s just a waste of money just stop look what you’ve been doing,21-12-2021,0
428,Wreckless jap#1166/komono#4698,1jcs,,Do lgv30,21-12-2021,0
429,PHERGAME,cris_rock,,yo tenía el stylo,21-12-2021,0
430,⠀ ⠀ ⠀ ⠀ ⠀ ⠀,williamleighton12,,2 snapped just like Gwen Stacys neck😂,21-12-2021,0
431,maximusmercer,maximusmercer,,waste of phone 0,20-12-2021,1
432,izannnnn,izannnnn14,,yo con un telefono de mierda4,20-12-2021,0
433,◇,nobodyiscooi,,waste of phone 0,20-12-2021,0
434,‍ ‍ ‍ ‍ ‍ ‍ ‍ ‍ ‍ ‍ ‍‍ ‍ ‍ ‍,soxbw9fhrb,,siri is tilting,20-12-2021,0
435,Rafael,wu7bd,,se tentasse quebrar meu celular quebrava a mão,20-12-2021,0
436,𝚋𝚊𝚋𝚢𝚕𝚒𝚟,babyliv63,,you did not 6 stylo,24-12-2021,0
437,brock,brock_mc18,,bro ofc it's gonna do that when it doing that to them FFS,22-12-2021,0
438,Fabian,fabian._8852,,Cat S60,21-12-2021,0
439,David Daniel Țelu,daviddanieltelu,,doogee S88,20-12-2021,0
440,Mally,cinnamontabby,,lol LG forever sucked,6-1-2022,0
441,QuAliTy CoNtEnT,b_.rooklyn99,,Cos I’m gonna accidentally snap my fucking phone in half,22-12-2021,0
442,🧑🏿‍🦰,brady.pdf,,i had a stylo 4. it lasted one month. bought an iphone 11 and its lasted me years. dont buy LG phones. they suck,21-12-2021,0
443,マカロニボーイ,makaroni_boy0,,ARRÊTE,20-12-2021,1
444,Harry wiener,harrywiener69,,Do that to a peepee and it’s gonna snap too 😂😂😂,20-12-2021,0
445,David,davidtriesstuff,,"can you do the LG Wing? they arent terribly expensive, like 300 for a like new condition one.",25-12-2021,0
446,jay von,heartlessvxn,,a homeless person could've injoyed it ngl,20-1-2022,0
447,seguo chi mi segue,dioale37,,solo io mi triggero quando non li rompe?,30-12-2021,0
448,Cheesie_man,cheesie_man,,Good thing nobody uses LG phones,21-12-2021,0
449,Alex Brown🐶🐟🐸,alex.b___,,Of trying to be a flip phone,21-12-2021,0
450,Nicki X Lizzo X Cardi X Megan,meganz.hottie,,my mum had stylo 4 like 6 years ago,22-12-2021,0
451,Flf,orange_bahh,,I have style 4,15-2-2022,0
452,😐👍,einfachsechsdreiacht,,1254,19-12-2021,1
453,mihaela,ilovemymum6661,,@iitz._.eezi,20-12-2021,1
454,Samaï_ZeuXs,sama_ye,,@wesny.m,21-12-2021,1
455,ACME,ecec22957,,😂😂😂😂,24-5-2022,0
456,kayla,9skul,,@astrw.a,6-2-2022,0
457,Luke⚡️,lukehoffman01,,@wolfie.406,26-12-2021,0
458,hi!,imon1percenthelp,,@wss484_2,21-12-2021,0
459,Alex Daniel,jackdaniels.041,,@._.flavius,21-12-2021,1
460,r4na.l0l,r4na.l0l,,@xiter68,20-12-2021,0
461,user9712056433799,user9712056433799,,4,9-5-2022,0
462,Blake_Lilly_19,blake_lilly_19,,1,8-3-2022,0
463,Monke,monke_9,,4,6-3-2022,0
464,Tik Toker,dre.stackz,,4,6-3-2022,0
465,mileivi7,mileivi7,,4,22-1-2022,0
466,Rayshawn,rayshawn84021,,4,22-1-2022,0
467,Alien boi,alienboi75,,4,20-1-2022,0
468,Tiktoker,matthew58012,,1,4-1-2022,0
469,bellaxslime,bellaxslime,,2,29-12-2021,0
470,Anton Lundberg,antonlundberg09,,4,27-12-2021,0
471,extremegamer3653,wendigo_wwz,,5,26-12-2021,0
472,Xserius,xserius07,,Motorolaaaaaaaaaaaaaaaaaaaaaaq,25-12-2021,0
473,Subhan,subzzz96,,4,23-12-2021,0
474,raulpc8,raulpc81,,2,23-12-2021,0
475,roblox_fan,efus12,,2,22-12-2021,0
476,CloudyxNinja,cloudyxninja,,4,22-12-2021,0
477,🖕,hasbullatheroadman,,4,22-12-2021,0
478,waylon_Art,waylonribet,,4,22-12-2021,0
479,babynadiya,francesmceachin69,,4,22-12-2021,0
480,Aleksander Seremak,.mowgster,,4,21-12-2021,0
481,Darryle Hernandez,cartock.com,,4,21-12-2021,0
482,augustqueen208,augustqueen208,,4,21-12-2021,0
483,Heiks Heiks,l4zy_fish,,😅⃤,27-2-2022,0
484,Jasper Tall,turbodeisel2410,,@LG Electronics USA,13-2-2022,0
485,Shoeichi-kun,.shoeichi,,LG stylo 4,17-1-2022,0
486,MISAEL Lonazco Grana,misaellonazcogran2,,Se ve que esa persona tiene dinero 💰 para romper un teléfono nuevo así estaría loco,13-1-2022,0
487,Csak_egy_fiú,dyyiey9fdy67,,Látom van pénz,25-12-2021,0
488,⠀ ⠀ ⠀ ⠀ ⠀ ⠀,n0rmal.guy4356,,Huawei mate pls🥺,24-12-2021,0
489,user1366716794791,zuwi_gaming69,,now try lgg g flex it should bend,23-12-2021,0
490,Rico elBOMBA,ricoelbomba,,Seine smart watch is ja übel neugierig,23-12-2021,0
491,꧁꧂,mrflimflam298,,4,22-12-2021,0
492,Scherni,scherni2,,mach nokia bitte,22-12-2021,0
493,Valentino rossi46464646,zam_bo08,,trie lg k9,22-12-2021,0
494,naoufaldebeste,naoufal.123,,die you ever got glas off the phone in your arm?,22-12-2021,0
495,arno.graf,arno.graf,,nokia,22-12-2021,0
496,Vaco422,vaco422,,ZTE,22-12-2021,0
497,Paulaner_ Weißbier,paulaner_weisbier,,mach Mal mit nem Nokia und schau welcher Tisch am stabilsten ist,22-12-2021,0
498,kristofkekszi,power_k.i.b.a_1v4,,4,22-12-2021,0
499,640,jace_thomson640,,"4, 1, 2 then 5",22-12-2021,0
500,Me,animextennis,,poti face cu nokia?,22-12-2021,0
501,Dean streich,salidasbinich,,dan komt einfach cat s51 und zerstört seine hand,22-12-2021,0
502,Nikushimi no kajitsu [user],lunatic_cultist667,,après ya moi la marque de mon tél c vivo,21-12-2021,0
503,Caleb,caleb_the_student,,I have stylo 6,21-12-2021,0
504,Jr,junior_z10,,4,21-12-2021,0
505,Dylan 🎮,dylan_aub12,,4,21-12-2021,0
506,who_knows_it__,who_knows_it__,,can u do huawei p40 lite and pro,21-12-2021,0
507,charlieholmes533,charlieholmes533,,5,21-12-2021,0
508,Taylor,taylor_harrison012,,4,21-12-2021,0
509,jonassen,jomo_gai,,lg stylo 2,21-12-2021,0
510,user5990043018511,sd9486,,4,21-12-2021,0
511,Alexander Simpso9130,alexandersimpso0,,4,21-12-2021,0
512,Joaquito el dinosaurio,joaquito_.el_dinosaurio,,4,21-12-2021,0
513,DJ 880099,dj880099,,4,21-12-2021,0
514,followifyoulikerick_231,followifyulikerick_231,,4,20-12-2021,0
515,Liverpool,.....................coz,,4,20-12-2021,0
516,𝑟𝑎𝑐ℎ𝑒𝑙 ⧗,viveao,,0,20-12-2021,0
517,DIO BRANDO,that_wierd_guy27,,4,20-12-2021,0
518,KKMOSS235,popeisarockstar_ksm3,,4,20-12-2021,0
519,Michał Krelski,hiihajtekst,,4,20-12-2021,0
520,Emiliano,emiliano._s_,,"Do LG G4c H525n, YOU WILL NEVER BE ABLE TO BRAKE IT",20-12-2021,0
521,gamerkilian_,gamerkilian_,,ich hätte die Handys noch genommen ich hätte sogar einen fuffi dafür gezahlt🥺,20-12-2021,0
522,Hubert Van Klaus,wegencovid19hier,,Warum ?,20-12-2021,0
523,Milly and Harlow cheeky chaps,milly.tabby.harlow.moggy,,4,20-12-2021,0
524,Dainton Payne,wavyzrq2,,4,20-12-2021,0
525,Tayler Walsh,electric_lava_05,,4,20-12-2021,0
526,Nygt nygt,nygtnygt,,ich bin ein Erfurter,20-12-2021,0
527,andru,kaliwastaken,,"THAT'S NOT THE WAY YOU HAVE TO BEND IT, YOU HAVE TO DO IT ON YOUR FUCKING HANDS NOT IN A CORNER OF A TABLE",20-12-2021,0
528,アレクシ,edit_anime.ro,,Huawei?,20-12-2021,0
529,im a fairy,jimand_wilson,,4,20-12-2021,0
530,Eshan,eshan0207,,4,20-12-2021,0
531,Lucas,speedrunner9,,4,20-12-2021,0
532,Red Earl,red_earl,,Cüc lan,20-12-2021,0
533,lucamonaco345,lucamonaco345,,what a waste...,20-12-2021,0
534,🤍,gang6ter_kid,,4,20-12-2021,0
535,Alexis,alexis.baldini,,My impulsive brain wants me to do this to the phone im typing this on,20-12-2021,0
536,LYRICO504TBE,lyrico504tbe,,do style 6,20-12-2021,0
537,bailey_da_human,bea_da_human,,DO GOOGLE,20-12-2021,0
538,mrmarksman,mrmarksman395,,@luisguzman7224,20-12-2021,0
539,Vale,si_chip.claro,,yo tenia el 4 hace 1 semana y se me descompuso😬,20-12-2021,0
540,Jordan Shorts,jordanshorts23,,you gotta get a Samsung,20-12-2021,0
541,UwU,wolfiachan,,the only reason I'm offended is because they stopped production of phones and you just broke 4 of them. Unless they weren't brand new,20-12-2021,0
542,Megan Marie 🌙,..lightskyes,,can you do Motorola!,20-12-2021,0
543,Blaidd,blaidd_meta,,bro I used to have an lg Stylo 2,20-12-2021,0
544,kat,kat_astrophic1,,"Samsung 🤝 iPhone ""LG sucks""",20-12-2021,0
545,Aurelius,aureliusthe1st,,do the lg V line,20-12-2021,0
546,Charlie Drew,charliedrew463,,You already know I used to have that LG stylo 4,20-12-2021,0
547,alejandronieves97,wtfsoldierdetf2,,@pablobruschiok no podes cachooooo,20-12-2021,0
548,brittney manuel,potato_girl987,,"oh my old phone used to be strong-ish, nice",20-12-2021,0
549,lee/vance🏳️‍⚧️,superstinkystink,,I had a stylo 4 it was strong af,20-12-2021,0
550,Pedro Henrique Silva,gatokujo,,"se for de nokia, quebra a mão do cara a mesa e se cair quebra o chão junto",20-12-2021,0
551,sele,selelovesu,,y yo con 300 pesos en la billetera y un Huawei todo roto,20-12-2021,0
552,Samuca13,samuca13br,,@_fred_06,20-12-2021,0
553,Professional '05 Kid,its_ya_boi96,,I had a stylo 4 and went snorkeling with it in my pocket while in Mexico. I no longer have a stylo 4.,20-12-2021,0
554,🤐,_3xd6,,pon a prueba unos samsung😁,20-12-2021,0
555,Jay,supreme111023,,The stuff this dude is doing is really expensive,20-12-2021,0
556,Martiece Watts,zephyrzeppelin,,I love this song it’s such a classic and a vibe it also played in infinite warfare zombies,20-12-2021,0
557,EmoPiece,emoboy00000,,samsung A9 plz,20-12-2021,0
558,cuánto falta para navidad,faltaparanavidad,,tranki tienen templado,20-12-2021,0
559,Hi,celticsedit1,,The last,20-12-2021,0
560,Yes.,caprisunjuicyasslipz_,,I have an Samsung Galaxy A12,20-12-2021,0
561,.Biel.izzy,.biel.izzy,,do nokia,20-12-2021,0
562,Kevin Ceriotti,kevinceriotti,,en resumen: los lg son una vergq,20-12-2021,0
563,S,greenballast,,they just got bigger and sturdier batteries over time,20-12-2021,0
564,Ikra,ikrah1230,,4,20-12-2021,0
565,Sg Mg💞,mg_0908,,Pov: te levantas de tu cama después de estar sentad@ haciendo tarea 😂😂😂,20-12-2021,0
566,03,dtt023_,,4,20-12-2021,0
567,Deryzinn,deryzinn,,LG stylo fold,20-12-2021,0
568,eggz :),eggz_707,,Lol i have the last one,20-12-2021,0
569,Justin Hodgson,justinhodgson4,,Me watching this vid with my iPhone 8 that’s one drop away from destroying 🥲,20-12-2021,0
570,Juan Diego legón,seguime_o_sos_gay5,,samsung J7 NEO,20-12-2021,0
571,Ⓥ Luiz Gustavo ×᷼×,whx.uluizz,,Ainda bem que vi seu vídeo se não ia fazer a mesma coisa 😬,20-12-2021,0
572,idk,0_idkwhatmynameis_0,,why,20-12-2021,0
573,Meerkat,meerkatmanor95,,Huawei next,20-12-2021,0
574,Geri,orbipapa,,Gta new missions background song😵‍💫👂,20-12-2021,0
575,Jungle_17,jungle_17,,And you say Apple is weak,20-12-2021,0
576,idk,idk9226,,why LG they are out of the phone market,20-12-2021,0
577,jurrien,pik_likker,,can you try oppo,20-12-2021,0
578,lucaacsd,lcuaa,,lg is such a joke,20-12-2021,0
579,Uzur 42,uzur42,,do google pixel,20-12-2021,0
580,A nevem Yoshikage Kira,animehun06,,did this whit nokias?,20-12-2021,0
581,Jmndro,jmndrro,,You know it takes resources and energy to make them. What a waste,20-12-2021,0
582,l,metizsela,,why do you put them on their face just to flip it,20-12-2021,0
583,︎︎,marc_flt_mtb,,Was ist mit Siri auf der Watch passiert,20-12-2021,0
584,Gabriel,gabriel.09._,,do oppo,20-12-2021,0
585,MÆLÜČØNËVĪDÆ,maluconevida,,eu com meu xiomi viciado kakakkakakaka😅,20-12-2021,0
586,user6354827358156,crocnine0,,why waste good phones on a video I find it stupid,19-12-2021,0
587,Laura Webber726,funnyfun58901,,LG stylo 4,19-12-2021,0
588,Fera Mulders,fera.mulders,,The urge to try this with my own phone,19-12-2021,0
589,Gregorio Vega,vegagrer,,Nada!!! Como los uso para calzar el camión me parece correcta la comparativa!!!,19-12-2021,0
590,Frostbite,frost_wyvern101,,They basically got shittier,19-12-2021,0
591,Felix mi esposo :3,la_mejor_chanlixta_xd,,Do iPhone pls,19-12-2021,0
592,Alex,notmwa,,4,19-12-2021,0
593,kuba,kuba177302,,@oskar_178888888888888888,19-12-2021,0
594,.,diegoalejandroromerofer0,,y a qué hora ronperas tu reloj,19-12-2021,0
595,Hermès,syberian19,,Didn’t they stop making lg?,19-12-2021,0
596,03h05,lost_babygirl_22,,try LG K61!!,19-12-2021,0
597,You,deranonymeturke,,@leopold20200 hast du nicht das letzte ?,19-12-2021,0
598,Tarieli Vepxis tyavshi,chadnacisti,,"*G line and V line left the chat* test fuckin flagships, not budget LG 😂",19-12-2021,0
599,theatro_skiwn_mixali_pappa,mixalis_pappas9,,waste of money 0 so not halal mode,19-12-2021,0
600,Artemisa,quiensabe276,,"Esa manía de los gringos querer dañar todo, por eso nadie los quiere",19-12-2021,0
601,Luka,luka6287,,Try an I phone 5 that’s the one I have and I can’t break it,19-12-2021,0
602,jankarc78,jankarc78,,one plus?,19-12-2021,0
603,William Huish,william.huish,,4,19-12-2021,0
604,Uga Buga,ugabuga06,,try lg wings,19-12-2021,0
605,Markuss Birkmanis,markussbirkmanis,,do redmi note 9,19-12-2021,0
606,AMG,nikolaraikov0,,poco,19-12-2021,0
607,🅱️Landon💉,landon.c2,,what about the Lg stylo 6??,19-12-2021,0
608,Wassim,wassimw223,,why so weak,19-12-2021,0
609,Yelan is home,yelancamehome,,osmantus wine tastes the same as i remember,19-12-2021,0
610,SurvoltOFF • Abonnement,survoltoff.abonnement,,L'intérêt ?,19-12-2021,0
611,Cyrus,cyrussssssssssssss,,Daddy,19-12-2021,0
612,Predizom,predizom,,try lg velvet,19-12-2021,0
613,Nils Thurnier,nilsthurnier,,"das muss kein Handy aushalten, meiner Meinung nach",19-12-2021,0
614,SlovyToks,slovyyyy,,do g6 g7 g8,19-12-2021,0
615,Radulescu Dragos Cri,cristiaaaan09,,Make with Huawei,19-12-2021,0
616,Future,mangekyousharingan501,,Why? 😂😂😂😂,19-12-2021,0
617,Camden,camdenaylward,,4,19-12-2021,0
618,shena,noviadejotaroreal,,why,19-12-2021,0
619,🥶🐐,.kieran.rudden,,It’s lG 4,19-12-2021,0
620,🥶🐐,.kieran.rudden,,Oh,19-12-2021,0
621,jlflaco21,jlflaco21,,v60 please,19-12-2021,0
622,Habib ‘Rebel Joka’ Ullah x,rebeljoka,,Not that table,19-12-2021,0
623,Me,jjkth35,,nokiaaa xd,19-12-2021,0
624,Stefy,stefycuevasfl,,Asu si me sorprendió el último la dvd@espadas2k,19-12-2021,0
625,F1lo,pirazz07,,Poveri bimbi del Congo... Fatica sprecata,19-12-2021,0
626,C Cald,omegaxcc,,no one needs a phone to hold their weight they just want it not to bend in their pocket,19-12-2021,0
627,Jonilol,jonilol_,,make sony Xperia,19-12-2021,0
628,✨no clue✨,abigail_nicole_03,,looks like I got the right kind of lg 😂😂👍,19-12-2021,0
629,Vru,gogo77750,,@fossster10,19-12-2021,0
630,Matthew D'Errico,matteo__oettam,,why have you done every phone face up except iphone?,19-12-2021,0
631,kryptonic,kryptonic2,,fuck yea i got the 4😁,19-12-2021,0
632,Shiny new stone army,barak457,,xiaomi. 6 is strong it survived fall from 4 roof,19-12-2021,0
633,.,icosmo93,,Didn’t know LG was in the Foldable Phone business as well 😂😂😂,19-12-2021,0
634,molo kralce,malatacka77702,,do LG VELVET,19-12-2021,0
635,Chuy,daboychuy69,,i use to have a stylo 4 and i abused the shit out of it and it never budged,19-12-2021,0
636,Richard Péter,ricsusz_mipusz,,the throws are personal,19-12-2021,0
637,:),random.com279,,LG stylo 2 fold edition 😌,19-12-2021,0
638,MynameisUgo,culoafette,,"Fare test così non ha senso, ha solo buttato via dei telefoni",19-12-2021,0
639,Jakub,kubiczech01,,A siri on the Apple watch😅,19-12-2021,0
640,Rat,_.iam_.lia,,i have the stylo 5 so at least ik im good,19-12-2021,0
641,🤖,crimsonflayl,,4,19-12-2021,0
642,mr.vitaliy.x_o,mr.vitali.x_o,,go lg p705,19-12-2021,0
643,idiota,t0mate__,,todo se puede romper de esa forma es fisica clasica,19-12-2021,0
644,Freddy PR,kirbeethekid,,Google phones?,19-12-2021,0
645,Santiago Alatorre,santialatorre,,@kl_suset POR QUEEEE,19-12-2021,0
646,Padrino Antunez,padrinoantunez,,Nokia🙏please 😅😅😅,19-12-2021,0
647,Wenapo,quepasapipee,,con Xiaomi pls,19-12-2021,0
648,Fran,axfran.perez,,motorolaaa,19-12-2021,0
649,harmundo,harmundo,,"Dudeee, I'm Michael Knight, I thought KIT is calling me...",19-12-2021,0
650,traga callampa,tommton,,@m_j872 ...,19-12-2021,0
651,christine thomas,cookiebitesbacktrick,,Break the loud ass hello mortal,19-12-2021,0
652,Tik Toker,patriciafisher1683,,I got a LG Stylo 4,19-12-2021,0
653,Luca Polinessi,lucapolinessi,,nokia: * se le dobla la mano *,19-12-2021,0
654,semkri0,semkri0,,"Nokia, now",19-12-2021,0
655,Ave,adroucker,,LG Dual Screen. lol,19-12-2021,0
656,DiMn0,dimn10,,k2000 is back,19-12-2021,0
657,Vane Mishev261,vanemishev,,try lg l 50 sporty they are rly strong and hard to break,19-12-2021,0
658,baša365,barbora654,,try xiaomi redmi,19-12-2021,0
659,🌙,leon.mahangshkarin,,def. stylo 2,19-12-2021,0
660,ruben,rubenerniet,,can u do oppo a74,19-12-2021,0
661,Mitchell_🌚,mitchellflynn15,,Get a sturdier table lol,19-12-2021,0
662,aš mldc,gedysgaidys_,,test Nokia 3310,19-12-2021,0
663,anthoan_311_gamer20,anthoan_311_gamer,,4,19-12-2021,0
664,GEM VALLEY MUSIQ,gemvalleymusiq10,,can i have one of those phones😂😁,19-12-2021,0
665,Pokémon shit,pokemonshit_nl,,Bruh 💀,19-12-2021,0
666,𝙶𝚊𝚋𝚋𝚢,_gabrielledingwall,,@_gemmadurkin LG,19-12-2021,0
667,Conor,cmoroney43,,They say there’s a first time for everything,19-12-2021,0
668,ge ge,throllog1,,ulefone,19-12-2021,0
669,Caguilera,caguilera_7,,The thing is what kinda table is he using 🧍🏽‍♂️,19-12-2021,0
670,.,nonnowang,,And three ??,19-12-2021,0
671,Местный крокодил,crocod1e,,когда пытаешься доказать что у тебя не раскладушка.,19-12-2021,0
672,InsaneTerek,insaneterek,,time to do nokia 😈,19-12-2021,0
673,Nick,nick.vd.linde,,siri be flippin,19-12-2021,0
674,ZacharyDrozario,zacharydrozario,,nokai,19-12-2021,0
675,.babyfacee0,.babyfacee0,,Atdai mariukasuuu,19-12-2021,0
676,JereParnisari,jereparnisari,,Motorola g60s pls,19-12-2021,0
677,ywaffies,ywaffies,,Stylo2 got bullied,19-12-2021,0
678,habibisteelz1,habibisteelz1,,Try Nokia,19-12-2021,0
679,Jüniør Phixeline,skye_p_,,do Nokia next,19-12-2021,0
680,Crashityyy,crashityyy,,stylo 2 was just pain to watch,19-12-2021,0
681,marko kosarkarko,markkosarkarko,,nokia,19-12-2021,0
682,DaveTheZombie,davethezombie22,,Try with Samsung J4+,19-12-2021,0
683,jag_ar_konstig8,jag_ar_konstig8,,Waste of phone so not halal mode,19-12-2021,0
684,Andrew Maddox,andrew_maddox,,what about stylo 6??,19-12-2021,0
685,Furr buke👹,hentaixgod,,Tru dodgee,19-12-2021,0
686,313170175,313170175a,,try their flagships not the plastic toys... But it s not worth braking them because. the G and V series are amazing!,19-12-2021,0
687,teechfleecetoniedrip,ruzowedzinsy999,,lets try nokia3310,19-12-2021,0
688,Bw,bundeswehr_fan3332,,warum macht man sowas,19-12-2021,0
689,Neville,squarebodynev,,Mans bringing back my childhood with the knight rider theme,19-12-2021,0
690,Life hacks,life_hacks347,,Nokia: The table snaps in half,19-12-2021,0
691,Ronald Araujo (4),absolute_ra4,,Do Redmi 9😈,19-12-2021,0
692,Lukas Brinė,jhkmjhm,,4 strongest but try Nokia 3310 and brick į think brick going to be easer,19-12-2021,0
693,Tobi Uninteressant,gilmorsmiley,,Sony würde mich ja interessieren,19-12-2021,0
694,WhyAmISoFlipping,whyamisoflipping,,LG=TRASH,19-12-2021,0
695,CaptainCustard,.captaincustard,,me sitting here with a £160 phone realizing you snapped phones 10x more expensive than mine😐,19-12-2021,0
696,MinionGrufer68,mink_minionballs,,"The lg stylo 4 was like ""no no no,🥺 you're not gonna break me!""😅😅",19-12-2021,0
697,hijo de mil putas,votefortherats,,why,19-12-2021,0
698,nothing!,just_nothing97,,@opb_berb @cipicao.22 @pr.dxr calitate,19-12-2021,0
699,Tommaso calderini,tommaso_calderini,,Vik,19-12-2021,0
700,Seuraan takas:),mobiledataoff,,Okay but why would i do this,19-12-2021,0
701,.,bagatietiktokeririch,,No one,19-12-2021,0
702,rapid4014,rapid_4014,,Can you do the xiamo redmi note 10 phones,19-12-2021,0
703,Piro Catalán,piro_6,,Quieres dejar de romper móviles de una vez??????,19-12-2021,0
704,countdown,countdowtillchristmas,,3310,19-12-2021,0
705,gunk,pade.core,,I used to have a stylo 4! fell apart like Legos whenever I dropped it tho,19-12-2021,0
706,Jiles,jiles33371,,@jakuub_111 kosten: 200 euro,19-12-2021,0
707,Guille Rojas,guille710r,,Huawei,19-12-2021,0
708,Yare yare daze,_the____clown_,,А зачем?,19-12-2021,0
709,kallosbalintbalazs,kallosbalintbalazs,,HUAWEI p series,19-12-2021,0
710,kallosbalintbalazs,kallosbalintbalazs,,HUAWEI,19-12-2021,0
711,yo,omgferrell,,try LGK51,19-12-2021,0
712,Effective,ohsoeffective,,WHY.. I don't even have a fkn phone rn,19-12-2021,0
713,thewish.com,the_wish.com,,do motorola,19-12-2021,0
714,Cyclone Blender,jasonc176,,life's good 👍🏻,19-12-2021,0
715,Harvey_2765,harvey_2765,,"Huawei next! Plis
(huawei p30 lite) 🤭",19-12-2021,0
716,vitanohyl,vitanohyl,,why would you do it,19-12-2021,0
717,Arthur,arthur_morgans,,do Samsung J series,19-12-2021,0
718,ᴄᴀɴᴏɴ₇,acanonx,,El niño que salió de la alcantarilla: di los vas a romper dame uno 🥺🥺,19-12-2021,0
719,shiny_ruby,goriko12,,do xiaomi mi a 3,19-12-2021,0
720,hola :D,poke_.man,,@pablobruschiok cachoo,19-12-2021,0
721,oscar Anthony,pso861,,Si lo haces con un Nokia se rompe pero tu brazo,19-12-2021,0
722,user4475982809095,tommywolfiecat,,You should do car phones,19-12-2021,0
723,Mr.V🇦🇱🇧🇪,mr.mena24,,Why,19-12-2021,0
724,angelfernando,soufmaster253,,pov: eres misa,19-12-2021,0
725,Eternal Flame,eternalflame25,,what about the Motos?,19-12-2021,0
726,Adam Smekal,smeeeekos,,did u do Huawei ??,19-12-2021,0
727,2.0,_.a.k.i.r.a.31._,,🤡yo viendo esto teniendo un celular con agujeros en la pantalla,19-12-2021,0
728,Pao R,p.aorami,,don't do that god damnit,19-12-2021,0
729,Alayna,intuitivemuses,,these must be some expensive videos,19-12-2021,0
730,El sr jdm,el_sr_jdm,,El 2 de papel,19-12-2021,0
731,akilkmuhammad,akbeastboii,,this is why Samsung is the best Android,19-12-2021,0
732,DefinitelyNotTucker,definitelynottucker,,Google pls?,19-12-2021,0
733,TALOVO21,talovo21,,@pablobruschiok,19-12-2021,0
734,bernice,bitchassfuckinghoe,,@rafisjfin ur lg brik 😱😱,19-12-2021,0
735,☁︎︎𝙻𝚊𝚞𝚛𝚒𝚜☁︎︎,___.lauriss.___,,Uy parce manes con mucha plata,19-12-2021,0
736,a,fandelpouibai,,consumismo:,19-12-2021,0
737,Succional4,succional4,,"Mí Motorola g4 play es literalmente irrompible, lo tengo hace 5 años",19-12-2021,0
738,zach,zach..yo,,you should do google pixels,19-12-2021,0
739,Alexis Lopez40635,lexis_209,,u forgot LG stylo6,19-12-2021,0
740,lazarfrazar,yt_lazar_frazar,,do the Motorola g30,19-12-2021,0
741,msnshhxbendncnb,msnshhxbendncnb,,Stylo 2 was literally just a stick,19-12-2021,0
742,hahaguy24,hahaguy24,,Nokia,19-12-2021,0
743,emily,yljm3,,pov chiropractors,19-12-2021,0
744,Jesús Córdova,jesus_cor2000,,"súper necesaria la prueba, le hago eso a mi cel todos los días xd",19-12-2021,0
745,¡𝐌𝐀𝐂𝐇𝐈! 😸♡︎,.machixcarpincho,,"Boe, no usa mi plata, todo bien xd",19-12-2021,0
746,Diego,itsdiegoooooo,,nokia,19-12-2021,0
747,xᴀɢᴏ,s.a.n.t.i03,,que teléfono espera que aguante eso,19-12-2021,0
748,Matrix,.elpanacreeper,,me duele me quema me lastima,19-12-2021,0
749,ℤⓞ🄽𝐞,j__o__k__.e.__.r,,Do Nokia,19-12-2021,0
750,explocion3000,explocion3000,,@pablobruschiok,19-12-2021,0
751,Chandler Watson,chandler_2024,,iPhone 11 12 13,19-12-2021,0
752,diego xd,diegothedumbperson,,@pablobruschiok 😏,19-12-2021,0
753,🖤☠️,28_2022,,knight rider!!! love the sound,19-12-2021,0
754,Anime_fan12678,anime_fan12678,,Test lg k20,19-12-2021,0
755,Patryk Gaczorek,yeciak,,try LG G2 mini or G5 .. I literally threw G2 mini through the room and have not a single scratch. G5 it was used for hammering nails and making holes,19-12-2021,0
756,Follow if you like football,followifyoulovefootballs,,The two went nah fam i out,19-12-2021,0
757,el axolote :v,elaxoloteuwu,,"yo:ma ya esta mi telefono reparado
el reparador con mi telefono:",19-12-2021,0
758,somerton,somertonnn,,i instantly thought of the ted movie,19-12-2021,0
759,㊗️チャールズ🉐️,carlos64567465,,que buen quiropráctico de teléfonos xd,19-12-2021,0
760,el Peugeot,1985_peugeot_505,,try k40s,19-12-2021,0
761,fachero 🤑👍,jhunniors3,,mano aprovecha lo que tienes yo de pequeño tenia una maquinita que hace pipu pipu pipu pipu,19-12-2021,0
762,fasoboy,fasoboytwo,,nokia gana,19-12-2021,0
763,owen charles,owencharles4134,,i have a lg g6 and its been through so much,19-12-2021,0
764,Andy Reyes,fabriciorey2004,,A comprar un stylo 4,19-12-2021,0
765,Red,redxnbathereaper,,Bros Siri keeps going off on his watch,19-12-2021,0
766,MrKnightGrasoso,mrknightsdlg,,"no one is stronger, you are stronger",19-12-2021,0
767,fpgonz2756gonzale,fpgonz2756gonzale,,Lmao my iPhone 5 is stronger and I tested it,19-12-2021,0
768,IMTHEBBQ,imthebbq,,LG=trash,19-12-2021,0
769,samuelg1d1,xsamuelg1d1x,,@pablobruschiok as lo tuyo,19-12-2021,0
770,𝓗𝓮𝓪𝓻𝓷,john._.hearn,,my LG watching this 👁️👄👁️💧,19-12-2021,0
771,Lethargic,lethargicc_,,what about Google's pixels🧐,19-12-2021,0
772,amo a ellie,ellie.megafan,,@fan.dekirayoshikage,19-12-2021,0
773,hi,freyfreyaaa,,@jaymmiedodger cracking my back over the chairs at school:,19-12-2021,0
774,KolegaAdamaMałysza,szotgundziwkilaserykox,,Do it with Lg G,19-12-2021,0
775,embananado,bola_boboca,,nokia,19-12-2021,0
776,IamPiiykiu★,iampiiykiu,,motorola,19-12-2021,0
777,Kevin Jones,lilsmokie525,,what about the 6?,19-12-2021,0
778,👩🏻‍🦰,_217138_,,@user67908342690 pamietam jak brat mi tak telefon rozwalił,19-12-2021,0
779,Monkey,e.dpill,,Ok but Lg's are ass,19-12-2021,0
780,miguelmonteiro138,miguelmonteir8,,4,19-12-2021,0
781,É o mt,away47,,Xiaomi ? pls,19-12-2021,0
782,Andy Aldana,kokiatemierda,,what abt the lg stylo 6,19-12-2021,0
783,Asedium,asedium,,why,19-12-2021,0
784,c,_camil9,,4,19-12-2021,0
785,user9855836242788,azo0900,,poco pls,19-12-2021,0
786,Zzz,zdechlyxszczvrx,,4,19-12-2021,0
787,Picky,lilpicks9,,Waist of Of Money,19-12-2021,0
788,EggTheBusDriver,eggthebusbriver,,damn really had to break my phone like that,19-12-2021,0
789,Razvan,pablonesquikbar,,Try huawei p30 pro,19-12-2021,0
790,MonsterFuelsTheSoul,justaddmonster,,The 2 was so weak. I had one. 3 days in and it fell from 3ft onto some shorts. Bottom of the screen shattered.,19-12-2021,0
791,Ethan drakulich,willam_drakulich,,You should do Motorola,19-12-2021,0
792,123456949z394,123456949z398,,mach Mal mit xiaumi 9 oder wie das heißt das geht einfach nicht kaputt,19-12-2021,0
793,TokyoxSoul,tonyorow,,this is why they discontinued LG phones right here 😂,19-12-2021,0
794,davidgoodenough2195,konno._.griffith._.sama,,Nokia is the best,19-12-2021,0
795,caban,c4444got,,realme GT neo 2 please,19-12-2021,0
796,Król Królów,ni.g.e.r,,realme?,19-12-2021,0
797,Geo,geo_gokkiana,,No one: chiropractors,19-12-2021,0
798,KING BOZZO,gmodfnafoc,,Nokia,19-12-2021,0
799,Critico a lo pndejo xd,mago.de.magia,,try a nokia,19-12-2021,0
800,Austin Poignant,ackzzy,,Your stronger😩,19-12-2021,0
801,white.good.floyd,white.good.floyd,,DO cat,19-12-2021,0
802,._.brooke_gehon._.,._.brooke_gehon_,,try an lg g5,19-12-2021,0
803,.,vzxdsf,,:(,19-12-2021,0
804,user3024191887342,alessio1d,,5,19-12-2021,0
805,TheFingerMaster123,rupsampul,,lg stylo 2 folde z,19-12-2021,0
806,no sé que poner xd,aaaaaaaaaaaaaaaaaaaaaan7,,Xiaomi plis,19-12-2021,0
807,Tik Toker,it.is.what.it.is44,,I think it was the LG,19-12-2021,0
808,AAAHHHHHH,frostyakasuka,,I used to have lg style 4 and throw that shit around,19-12-2021,0
809,drop._veter._eter,vierkantedriehoek69,,i have the last,19-12-2021,0
810,user8346705207846,user301031906,,DOWN!,19-12-2021,0
811,Gren,grenisku,,And people are crying about iPhones snapping in half if people attack them,19-12-2021,0
812,Lucas,lucas_bogalzuk,,cá sua mão,18-12-2021,0
813,Harley,hxcrey,,4,18-12-2021,0
814,Lucas Palma,palmalucas221,,Siri was listening to those phones dying,18-12-2021,0
815,c̸ȓ̈e҉x͜͡z̾Ψ,r1skv66l,,no one talking about the watch siri,18-12-2021,0
816,Levi Ackerman,.levi_ackerman_official_,,try LG K9😌,18-12-2021,0
817,🤨🤨🤨🤨🤨,lolkop890_offical,,why?,18-12-2021,0
818,merry Christmas 🎄,venribe,,I thought so that’s gonna come off,18-12-2021,0
819,🐍,juariini,,do xiaomi,18-12-2021,0
820,Me rio toa la noche JAJAJAJA,ghostbusters.xd,,Xiamo Redmi 9A,18-12-2021,0
821,Jamper,jamprt,,@thebigge,18-12-2021,0
822,WumDango,jackdudee123,,Iphone 5!?,18-12-2021,0
823,JCR 🗿,__jcr__,,Do Motorola,18-12-2021,0
824,luis_ezz,luis_ezz,,while you are braking phones i need one and i do not have money,18-12-2021,0
825,⚠️🇦🇱🇦🇱,chillingwithlyrics,,do Xiaomi redmi,18-12-2021,0
826,Tff,ismailadiguzel2010,,Nokia,18-12-2021,0
827,Elias,ich_bin_da09,,Pov man hat zu viel geld,18-12-2021,0
828,Im a cool egghead,egghead_nerd,,4,18-12-2021,0
829,...,_nexo_one,,Huawei p Smart 2019 plzz,18-12-2021,0
830,jamirso_ official,mir.so.official,,4,18-12-2021,0
831,Bestminer2,bestminer2,,@why_guy_,18-12-2021,0
832,røttà,dyx22ww1fyjd,,one plud,18-12-2021,0
833,un mundo mandragora 🔥🥴🌌,om4rnet0,,samsung le gana 😌,18-12-2021,0
834,Death,gio_rgi36,,now do redmi 8 pls🥺🥺,18-12-2021,0
835,Mike_Oxlong,deez_nuts792,,LG stylo 3 be like:,18-12-2021,0
836,rafael.apostolides,rafael_05x,,Doing huawei plzz,18-12-2021,0
837,DRebola,d.rebola,,Bro old lgs are literally rocks,18-12-2021,0
838,Ziggz,probably.ziggz,,Nah you just strong af even tho I have a iPhone you just built like a tank you’re a beast keep going,18-12-2021,0
839,CHAMP14NS,marios_k7,,2,18-12-2021,0
840,Fenrir,fenrirdhela,,Nokia,18-12-2021,0
841,yungkomidis,yungg_kom,,Sony experia now,18-12-2021,0
842,fidgetsthebest52,fidgetsthebest52,,no its just you strong,18-12-2021,0
843,samm,smccu_,,what's the point,18-12-2021,0
844,toxicd00,toxicq00,,can u do shark phones,18-12-2021,0
845,Tik Toker,flammableobjct,,i have an lg stylo 5,18-12-2021,0
846,Aaro,artsaa07,,Ur siri wake up,18-12-2021,0
847,👀,veron1kqua,,omg 2nd Lg was my first phone,18-12-2021,0
848,kaleb15149,kalebbodie134,,do a Samsung galaxy s8 plus its indestructible,18-12-2021,0
849,melv1n.e_42,melv1n.e_42,,I think 2,18-12-2021,0
850,sWatt,swatt39,,iphone x pls,18-12-2021,0
851,AwesomeRL35,awesomerl35,,What I’m wondering is how you afford all those phones,18-12-2021,0
852,Jake Sundwall,jakesundwall,,@pixicandy,18-12-2021,0
853,.,balkanacbroj1,,bet you cant do it with redmi note 9,18-12-2021,0
854,乂❤⚡𝖙𝖍𝖊𝑨𝒏𝒊𝒎𝒆𝒄𝒖𝒍𝒕『💯,animeedits7262,,i have LG K52,18-12-2021,0
855,Raptor_30,marwan.shk,,@jerend050 la musique on dirais shaolin disco,18-12-2021,0
856,MR. Nath,nathaniel_mikus,,all of us waiting for nokia😌,18-12-2021,0
857,Bartek Turowski,bartekturowski0,,Xiaomi redmi 9 pro pls,18-12-2021,0
858,Nimi Nimrod,niminimrod,,Iphone 😳,18-12-2021,0
859,simonsmedberg,simonsmedberg,,@Bader Al Safar,18-12-2021,0
860,🌼_Yaku_🌼,_.sezam._,,oppo?,18-12-2021,0
861,Kubuś/Xen,xen_to_ja,,teraz już wiem czemu mi tak chujowo działa fon,18-12-2021,0
862,Zoro,min0rity_hunter_z0r0,,please do Samsung a 12,18-12-2021,0
863,👍,jobu2times,,@leangutt Mr.Fritz,18-12-2021,0
864,Danzy,danzyxddd,,a homeless man could've ate that,18-12-2021,0
865,declan power,declanp42069,,LG been trash,18-12-2021,0
866,Tik Toker,sexhaver024,,he looked so disappointed with the 2nd one,18-12-2021,0
867,4 types of matter,number20_padres,,jit got mad at stylo 4😂😂 and stylo 6 is probably stronger😂,18-12-2021,0
868,teagan karabal,trk22_,,do it with motorola,18-12-2021,0
869,Just games!,games.experiments,,you are😏,18-12-2021,0
870,Fl1x_RING,fl1x_ring,,Do Nokia 😂😈😈,18-12-2021,0
871,ak_snip3r_786,aryan_snip3r,,Can u try huawei phones (especially huawei y6 2019),18-12-2021,0
872,,seguo_solo_chad69,,do doogee,18-12-2021,0
873,مستر جلد,hacker_but_not_hacker,,try dodgee bet you can scratch the screen,18-12-2021,0
874,tdouble,tdoubledsc,,Google pixel next plz,18-12-2021,0
875,bruh that was so funny 😐,madaxistiktok,,"Give the lg v series a shot, I dropped my v30 down 10 concrete stairs and there wasnt even a mark",18-12-2021,0
876,Jasper Johnson,jasper_j404,,pov tiktok chiropractors,18-12-2021,0
877,jeremiahsetzer97,jeremiahsetzer97,,the masculine urge to try this on my phone rn,18-12-2021,0
878,BTD,denis_6219,,siri on the apple watch 🥶,18-12-2021,0
879,user2423716887614,bayley.o,,Just stick them in rice should be fine,18-12-2021,0
880,Carter,jcb_920,,4,18-12-2021,0
881,yasuo,yasuo_hirohito,,lg v10 strongest,18-12-2021,0
882,gas na kotačima,gas_na_kotacima,,can you do lg k 22,18-12-2021,0
883,gerardoromero3541,gerardoromero3541,,do motoralas,18-12-2021,0
884,L̸o̶r̷d̷ ̷V̴o̵m̴i̷t̸,vomitedd,,Wanted to see the LG G8 thinQ,18-12-2021,0
885,Caleb payton,calebpayton4,,the last one,18-12-2021,0
886,Tx.Nico,tx.nico4,,4,18-12-2021,0
887,Dior_Jan,dior_jancek,,do alpha,18-12-2021,0
888,Jérémy Voyer,thejerem,,You need to do Nokia,18-12-2021,0
889,bradley,bradley8001,,do lg coolpad,18-12-2021,0
890,gregaerts68,gregaerts685,,5,18-12-2021,0
891,skate Tag graffiti,dominykasfckyomama,,4,18-12-2021,0
892,a1kilbz,a1kilbz,,the masculines urge to karate chop those off that table…,18-12-2021,0
893,Julia,.jxlia.v,,can you do Samsung A52?,18-12-2021,0
894,🖤,silva_kksk,,nokia 😏,18-12-2021,0
895,Trevor Gammage,trevorgam,,I have/had the 4,18-12-2021,0
896,local drug dealer,...quandale....dingle,,4,18-12-2021,0
897,skittle,shark_vr69420,,2,18-12-2021,0
898,Ultimate_spider,ultimate_spider,,fair test no,18-12-2021,0
899,rhubarbandasparagus,rhubarbandasparagus,,How many likes on this comment for you to get me the new samsung galaxy flip3,18-12-2021,0
900,D41N3Y,d41n3yy,,1 or 4,18-12-2021,0
901,Darklordplayzgamez,darklordplayzgamez,,lg stylo 4 bout accurate to how mine was I could throw it at a wall and that thing wouldnt break,18-12-2021,0
902,Æ,tu_pana_vegetta,,Fuerza de rana,18-12-2021,0
903,zaviejackson851,zaviejackson851,,4,18-12-2021,0
904,jOrdO,jordo_8,,and androids are supposed to be strong? 🤨🤨,18-12-2021,0
905,Ben,bweeden_44,,@Chase Greiner,18-12-2021,0
906,ZaKillah,zakillaah,,"y recuerden amiguitos, todo lo que no tiende a doblarse, tiende a romperse 😁XD",18-12-2021,0
907,benji,stillbenji,,do lg areanas plz,18-12-2021,0
908,😐👉🚪,uareverycringebro,,Do lg k 41S,18-12-2021,0
909,Life Goes On,bitang_69,,the table,18-12-2021,0
910,AteZ,atez_drawing,,Do lg g2 mini,18-12-2021,0
911,Hi,im.dumb.and.bored,,No you started to abuse the stylo 4,18-12-2021,0
912,boskatten_anita,boskatten_anita,,4,18-12-2021,0
913,Putyourhandsup,angel_heart_gabriel3,,4,18-12-2021,0
914,Válalsz csekszet?,sckoppany,,hey siri,18-12-2021,0
915,🍪🥛,denielheyyy,,How to repair an LG Phone into Galaxy fold,18-12-2021,0
916,eu,kiwi.freco,,do oukitel😂,18-12-2021,0
917,Lauren berry,laurenberry17_,,Last 1,18-12-2021,0
918,HeyisBabyChris,heyisbabychris,,1,18-12-2021,0
919,.,randomljub,,like how u just throw them away,18-12-2021,0
920,Wednesday_my_dud3s,wednesday_my_dud3s,,I'm watching on a Stylo 5,18-12-2021,0
921,Me,..yoyo..louie,,It’s a flip phone 😂,18-12-2021,0
922,Jack Limiom,lame...kid,,LG Stylo 4,18-12-2021,0
923,Jarred McCarthy,thomy0rkeradiohead,,Tf is an lg stylo 😂😂,18-12-2021,0
924,furkan3838,irgendwie385,,ich hatte LG 4,18-12-2021,0
925,igotdrip47,igotdrip47,,4,18-12-2021,0
926,Simon Richard,simon_richard420,,What was the hardest phone you tried to bend,18-12-2021,0
927,roro19,roro19201,,redmi,18-12-2021,0
928,𝐅𝐒𝐙𝐍,fiendyszn,,4,18-12-2021,0
929,dzemik (dzemik),l...i.am._.dzemik...l,,nokia,18-12-2021,0
930,M1ndBreaker,m1ndbreaker1,,lg stylo 2 gone like new ipad,18-12-2021,0
931,mikey7,mikelad7,,waste of LG o,18-12-2021,0
932,daisy,daisyfryar15,,Nokia brick though 😳,18-12-2021,0
933,_morf1n_so2_,_morf1n_so2_,,хруст безе,18-12-2021,0
934,nice,bbqbaconburger42069420,,Millions of ppl can't afford a phone and we are over here just smashing phones like they are worthless.,18-12-2021,0
935,piippolanvaari007,piippolanvaari007,,4,18-12-2021,0
936,Fnaf_friends00,fnaf_friends00,,I have LG stilo 5,18-12-2021,0
937,user2381625528724,proforever1,,try hoppo pls,18-12-2021,0
938,hernandezxavior1,hernandezxavior1,,try lg stylo 6,18-12-2021,0
939,Nothing,nothing16560,,Do Nokia,18-12-2021,0
940,anthonyungureanu7,santa2trapy,,LG styli 4,18-12-2021,0
941,marialena,marialenalitou,,@__mouratidouu_,18-12-2021,0
942,Kingteaser🤯💀,kingteaserorsomething,,stylo 2 is so strong,18-12-2021,0
943,Kevin Tørrlenn💎,torrlennk,,U,18-12-2021,0
944,Football mad,s1_so.savage,,i have LG stylo 2,18-12-2021,0
945,user7958770786500,user7958770786500,,4,18-12-2021,0
946,🐈‍⬛,shadowcat56,,stop wasting money,18-12-2021,0
947,We are fairys😊,fairy_twins128,,Nokia😳,18-12-2021,0
948,Robmaster97,robmaster97,,try nokia,18-12-2021,0
949,Hello,a_simple_boy01,,4,18-12-2021,0
950,Gainz,disciplinedman18,,Iphone next,18-12-2021,0
951,someotherstudios,someotherstudios,,Lg Stylo Flip,18-12-2021,0
952,Michael Neys,michael_neys2,,try Nokia 8,18-12-2021,0
953,BIBER890,biber890,,WHY,18-12-2021,0
954,Battle Cats,batttlecats,,2 got folded,18-12-2021,0
955,𝕒𝕕𝕖𝕞_𝕆𝕍☑️,ad3m_05,,Stylo 4 was something personal,18-12-2021,0
956,Hi,cheesy_macaroni7,,@hypieeeeeisboredcometalk,18-12-2021,0
957,hi,extremebean0,,4,18-12-2021,0
958,Josp,josp123456,,"Bread👍
︎︎
View replies (645,279) ︎ᨆ
︎
︎
︎
︎
︎
︎
︎
︎
︎
︎
︎
︎
︎
︎
︎
︎
︎
︎
︎
︎
︎
︎
︎
︎
︎
︎
︎",18-12-2021,0
959,junior,warzone123s,,last,18-12-2021,0
960,Cayden Wesner,caydenwesner,,what a waste,18-12-2021,0
961,Harry Campbell,match.fc,,The music is a throwback,18-12-2021,0
962,,televis1one,,now It's time for nokias,18-12-2021,0
963,Figen Aka,tiago__45aka01,,Lg stylo4,18-12-2021,0
964,Iskrabin,iskrabin,,Have you done Lenovo before?🤔,18-12-2021,0
965,LESMANHN504😈😈,lesman504h,,Nokia turn,18-12-2021,0
966,_ford_focus,_fordfocus12,,redmi note 8,18-12-2021,0
967,ChIlDsUpPoRt,unregular_meme_dealer,,what about the blades from zte,18-12-2021,0
968,Aidans20092,aidans20092,,Lg style 4,18-12-2021,0
969,Step panzer 407,bibnynotgay,,can u do Samsung? a51 a52 and maybe s21,18-12-2021,0
970,Conner Tomlin658,xxspiderweb6,,try the LG k51,18-12-2021,0
971,nothing,lxcas.st,,Google pixel 4a is stronger than every phone on this earth,18-12-2021,0
972,nasti,flame4o_1,,please do motorola one macro and others at your request motorola,18-12-2021,0
973,Jason,jasonxd75,,probably still work,18-12-2021,0
974,Alex,butler.szn22,,how much money have u dpent in all and do nokia,18-12-2021,0
975,lolpol122,lolpol4k,,ohh I have that last one,18-12-2021,0
976,Forceit,forceitmusic,,"my man has every LG stylo but the 3, and I had it at some point. didn't liked the fragilitu of this phone.",18-12-2021,0
977,Was geht was geht,cfi_luca,,Huawei pls,18-12-2021,0
978,Spencer,unuseableboxfan,,the table is the strongest,18-12-2021,0
979,"""c betű""",drunkgd,,me waiting for the vikkstar disstrack,18-12-2021,0
980,krazy,thekrazyace,,do one plus phones,18-12-2021,0
981,EL TORO 🐃,eltoro583,,do Nokia its inposoble,18-12-2021,0
982,Peyton,notmrbeans,,i have the lg stylo 4 lol,18-12-2021,0
983,hpaskovs17,helmuts_paskovs,,try LG G2,18-12-2021,0
984,MLN_Cerrot,mln_cerrot,,I had the stlyo 4,18-12-2021,0
985,Artin,rayanartin561,,LG stylo 4,18-12-2021,0
986,jus,jus___d_orange,,try iPhone 4,18-12-2021,0
987,Leann Shoemaker,leannshoemaker,,bruh why u just breaking phones it cost moneyy,18-12-2021,0
988,really close,clos08og,,the stylo 2 gives iphone 6+ vibes,18-12-2021,0
989,🧀,redeemcodename,,Do asus bet you cant,18-12-2021,0
990,kanecox803,kanecox803,,i have the lg stylo 4,18-12-2021,0
991,limitlesskid,limitlesskid,,I used to have the stylo 2 it was a horrible phone very weak and slow,18-12-2021,0
992,Maitokissa,adolfastley,,"try nokia 3310.
you will break your hand",18-12-2021,0
993,the lads,the_lads99,,4,18-12-2021,0
994,XV.Harley.XV,enbymothbabe,,"I loved my stylo 4. it lived drop after drop, it died because it got soda in the charging port 🤙",18-12-2021,0
995,BABABOI,codmclips001,,i write this in a stylo 4,18-12-2021,0
996,Alex Zepeda,i_love_eric_8,,LG stylo 6,18-12-2021,0
997,Charis 💍,_..charis.gsy.._,,2 is dofo strongest,18-12-2021,0
998,Wall kickers noob,wallkickersnoob,,Ive had stylo 1 2 and,18-12-2021,0
999,cullen,cullengreen13,,do iphone,18-12-2021,0
1000,Tik Toker,diahhrea,,do xiaomi,18-12-2021,0
1001,Klara Fall,axqxuxa,,do nokia 5,18-12-2021,0
1002,áda,adam378,,why😳,18-12-2021,0
1003,𝕶𝖆𝖘𝖕𝖆𝖗𝕿𝖍𝖊𝕮𝖆𝖙,kasparthecat,,do caterpillar,18-12-2021,0
1004,Sacccii,sacccii,,Do with nokia bro pls😏😏,18-12-2021,0
1005,emir nafis redzeposki besim,legendarenkosarkar,,4 eldzi G,18-12-2021,0
1006,You have rabies,daddy_chill099,,What about throwing it off a roof?,18-12-2021,0
1007,Miisu,bolbpiipo,,4,18-12-2021,0
1008,schnitzel,schnitzel12887,,why would i do this to my phone??????,18-12-2021,0
1009,sketaloy,sketaloy,,why are you breaking the phones don't you know there are starving kids in africa😢,18-12-2021,0
