,Comment Number (ID),Nickname,User @,Comment Text,Time,Likes
1,Mother,thatgachagirl56,,It’s the fact that y’all don’t care about wasting your money it’s the fact that you could give people these phones that actually need them,26-3-2022,37
2,Zahrana,zahranascorpio,,My iPhone 7 felt that pain on a personal level,27-3-2022,61
3,IMAKEANYVIDEOS IDONTSHOWSPEED,nfl_home56,,Imagine if when those 2 fell they broke,17-3-2022,27
4,Ev3_jj,ev3_jj,,iphone 7 its barealy yas cracks,26-3-2022,7
5,Cayden Barton,football_ninja19,,i think galaxy S8 is the strongest,31-3-2022,6
6,🦶🦶,feetloverjulian,,Bro I could’ve have them,26-3-2022,5
7,🍭🍭,preppy_fidgetz34,,I’m using an Xr right now,28-3-2022,12
8,Olivia Jane935,oliviajane9357,,The last one,26-3-2022,9
9,PSN SUS_SHONFN,xaspctx,,s8,24-3-2022,14
10,Lauu,..n0_.1d34,,Bro si tu les veux pas ces tel tu peux me les donner 👀,2-4-2022,21
11,theyluvllana,theyluvllana,,iPhone XR and glacé 68,29-3-2022,5
12,Hotak🇦🇫🇨🇱,neamatullahhotak,,Qué es mi One Please,25-3-2022,7
13,x_Preppy.Tok_,x_preppy.tok_,,Can you do a iPhone 13 if you already haven’t?,26-3-2022,9
