,Comment Number (ID),Nickname,User @,Comment Text,Time,Likes
1,DreamTech · Ersteller,dream.pc0,,Ctrl + Shift + Windows + B,15-7-2021,18.1K
2,.,.xavineta._,,"i don't have enough money to buy a pc, i'm going to sell my little brother",16-7-2021,8920
3,Mikkel Sønderby Jørgensen,mikkelsnderbyjrge,,Nobody gonna talk about the lotion?,15-7-2021,4869
4,ʕ º ᴥ ºʔ,beruangz,,my Pc only have black screen with cursor now after update...what can i do i need help...🥺,15-7-2021,1446
5,Nico🇲🇶🇲🇶,nico785_,,Didnt see the letter,21-6-2021,2292
6,dipp,nadhifw11,,how to get a moving/live wallpaper like that?,15-7-2021,1317
7,dxd_keinbockmehr_aufmeinleben,_keinbockmehr_ofmylive,,pov: du siehst die Nivea lutzion🤔,15-7-2021,251
8,Selveste Sivert🤴,sivert.dragseth,,"Anyways here’s the Recipe for brownies:
1/2 cup butter
2 eggs
1 cup sugar
1/3 cup cocoa powder
2 teaspoon vanilla extract
1/2 cup fluor",15-7-2021,206
9,like.ths.cmnt.if.ur.nice,like.ths.cmnt.if.ur.nice,,Pov you saw my username,15-7-2021,666
10,follow @lostwyd,sushitrashfanboy,,Step 1: buy a $1000 pc,17-7-2021,205
11,Rick Sanchez,realwalkingw,,i see what's on the desk my boy,17-9-2021,117
12,allahdings,allahdings,,wie heißt der Glurak Background in Wallpaper engine?,15-7-2021,159
13,panguan,kingpanguan,,it's ctrl shift win b,15-7-2021,148
14,DreamTech · Ersteller,dream.pc0,,Who’s here now !,6-3-2022,8
15,Tu Mamá,www.edits.mx.com,,Where is windows key😅,15-7-2021,124
16,💫,akirhoxd,,how u got that live wallpaper in ur pc.,15-7-2021,95
17,Wasreimtsichauftiktok,wasreimtsichauftiktok,,POV: Du bist am kacken,16-7-2021,87
18,kor6660,kor6660,,"Nice Live Wallpaper, how its called?",24-6-2021,85
19,rob,robin_sibi,,POV you saw my username 😳📸,17-7-2021,81
20,Ryan,rstrack15,,Is it me or it made my pc worse then before,10-10-2021,78
21,ADRENALIN,ded_antonio_pripezduchy,,я ждал в песне фонк,15-7-2021,883
22,hielozzz,hielozzzjeje,,ya no prende 🤑🤙🤙,15-7-2021,4112
23,Vix0 👻,that_vixo,,amigo se me desactivo la pantalla que hago,15-7-2021,953
24,Abraham☠️👨‍🦯,abrahamziux,,bro ayudame por favor en mi monitor sale una raya morada el dia de ayer me salio sabes como quitarla?🥺🥺🥺🥺,15-7-2021,445
25,misael herrera,el_gran_misael_herrera,,es normal que haya leído cp?,15-7-2021,554
26,TH30,thxo.o,,WINDOWS 11 Est sortie ?,15-7-2021,175
27,user2486848208855,pedrohenrique556009,,Como é o nome do tipo desse teclado,16-7-2021,127
28,hola,tulaboyxikito,,"Gracias, revento el pc del gobierno 🤝",16-7-2021,400
29,Dilan,alexfquinnn,,GRACIAS ADIOS QUE ME LEÍ LOS COMENTARIOS XD,16-7-2021,217
30,loldvm2004 lol,dvm0601,,tambien sirve con alt f4 si las letras en tu trabajo de world se ven mal,16-7-2021,137
31,Alberth Fernández,stiff914,,una pregunta alguien más vio la crema del fondo 😳😳😳😳😏,15-7-2021,144
32,Томи,scornig_tt,,А что это сбросить графические драйверы?,17-7-2021,96
33,Isaac Vargas,tommydog84,,"Al parecer a la gente no le funciona la pantalla, bye xd",15-7-2021,113
34,Mani Demestre,manidemestre1,,ton fonds ecrands et magnifique!🔥 ou je pourrais le prendre?,15-7-2021,90
35,Zsomborka,fikakikapo,,a Nivea a hokizáshoz van?,15-7-2021,113
36,md,mends__,,"que creme é aquele lá, amigão?🤨📸",16-7-2021,83
37,DreamTech · Ersteller,dream.pc0,,FYP gang🚂,20-6-2021,168
38,Yuki,yuki_editc,,yo lo hice y solo sonó un pip y se me prendió de nuevo todos los comentarios de abajo son mentira xd,16-7-2021,118
39,BrTerrarian,metesteesta,,"não façam isso se vc não tiver placa de vídeo offboard, pd dar ruim na sua integrada e ficar tela preta",15-7-2021,82
40,Andry,andrew_ondra123,,"mám pocit že když to udělám, tak můžu pohřbít celej komp",15-7-2021,75
41,roses228,mydarling2280,,"Не юзайте это во время игры, экран черным становится, проходится диспечер задач вызывать и перезапускать игру",17-7-2021,66
42,Sahret,messiahsahret,,"this doesnt help at all. if you have problems with your graphics driver reinstall or update it.
this is not fixing it",16-7-2021,69
43,Kiluwa,kiluwanexo,,I'm saving this and I don't even have a gaming Pc 🥲,17-9-2021,52
44,KonoDaDuck,konodaduck,,what does resetting ur graphic drivers do,24-8-2021,32
45,Darius Matache,darriuus.7,,daily pc tips: go outside lmfao,15-7-2021,54
46,Ewann,p_ewann_a,,ptdr la crème,15-7-2021,53
47,RganG,rgang4,,if it didn't work u don't have graphics card,20-7-2021,50
48,T.045,t.0445,,sup,20-6-2021,48
49,Omen,bloxfruit133,,what happen if did that,15-7-2021,50
50,Brusa,brusssa,,come faccio a mettere il tuo sfondo del desktop?,15-7-2021,52
51,dyo1hlvuz5,tik_tak_memes_2,,а зачем,15-7-2021,52
52,Tranbeoo,tranbeo165,,Màng hình đẹp xỉu,15-7-2021,46
53,Wakai.Draw,wakai.draw,,tu peut faire un tuto pour ton fond d'écran stp 😁,15-7-2021,41
54,joao obici,obicifps,,eu tenho uma gtx 1650 posso fazer isso?,16-7-2021,56
55,𝖙𝖍𝖆𝖓𝖆𝖓𝖆𝖓 𝖙𝖎𝖒,tim_kungpr,,นี้คือปัญหาผมประจำ😂😂,15-7-2021,56
56,Patryk.,lequedogrande,,@szym3k989 mówiles ze ci sie monitor wyłącza na 5 minut czy cos. spróbuj może zadziala XDD,15-7-2021,44
57,i m b o r e d,void20091,,i have that exact charizard wallpaper,16-7-2021,43
58,zxclown🤡,cracapt,,СРОЧНО!!! ЧТО У НЕГО ЗА КЛАВА?,16-7-2021,42
59,±David,david_dmlpyb,,"para que es la crema de ahí 😏😏
?? 😂😂",18-7-2021,42
60,Braian Villatoro,braian4k,,yo lo hice y no prendió igual tranqui no es común que pase eso yo la trabe al hacerlo pero no pasa nada apagar del botón es lo mismo que desde Windows,15-7-2021,6
61,FAXER,faxer2.0,,No prendee 🥺🥺,15-7-2021,6
62,K A W A I Y A,kawaiya_,,"GPU gw ga bisa di pake anjir, cuman 16mb doang vram nya :|",15-7-2021,27
63,lulu,lulu_g23,,Sa sert a quoi ?,15-7-2021,27
64,ツ,smileey.1,,That intro was painful 😭😭,15-7-2021,27
65,Rui Supico,ruisupico,,Aquele creme 😏,15-7-2021,26
66,MecSteal,mecsteal,,"blz, meu pc parou dps de fazer isso",15-7-2021,25
67,Mox-707,yaboyishere707,,Me looking in the chat for the letter 😂😂😂,15-7-2021,25
68,i here Too,wasdexe,,explorer.exe ทำยังไงให้มันเปิดตอนบูต windows,15-7-2021,35
69,Bravask,bravask,,"aproveitando, qual é o atalho que vai direto pra tela que da pra ver a versão do meu windows?",16-7-2021,34
70,🕊️,justas155,,Um that skin care cream is for?,24-7-2021,33
71,⠀ ⠀ ⠀ ⠀ ⠀ ⠀,crucify_small_children,,Does it work on a lap top 😂,16-7-2021,23
72,drK final boss,drk_w23,,isso estraga alguma coisa do PC?,15-7-2021,6
73,flugengegenxoleni,vlordemordi,,win+ctrl+shift+B 😃,22-6-2021,31
74,Felipe Alejandro,eltunaa,,eso ayuda en algo cuando los fps bajan ?,15-7-2021,32
75,Esek,ryh220,,Jak nazywa sie ta tapeta,15-7-2021,16
76,majmocska ♡,_therealmonkeking_,,AHHhhhh mega charizard x 😫,21-6-2021,35
77,Raúl 👍,raul1633,,El comentario en Español que buscabas,17-7-2021,6
78,! 𝘼𝙂𝙉𝙀𝙎,agnes_070_,,이거 하면 삐 소리 나면서 껏다 켜져요 그럼 된거입니다,18-7-2021,29
79,IWasFirstToUseThisName,iwasfirsttousethisname,,Tip: Hold the windows button and press L it increases fps by lowering the time it updates the computer👍,15-7-2021,18
80,Raey Nega,vibrawetanium,,what da lotion doin there⁉️,16-7-2021,25
81,sprin 4K,elprro_n3g0,,lo estaba por hacer hasta que ví los comentarios,15-7-2021,19
82,ADMIN_RICKY,rickyfelix1,,El fondo está piolisima lo quiero 😼,15-7-2021,21
83,[$ÿĀ]写轮眼%%%%ĀĀÞÿĀ],xemlamgi12,,please give me wallpaper,15-7-2021,20
84,info,franchy_ruff_10,,unicorno puffoso del gelato,15-7-2021,31
85,astyot69,yosh1mora,,Скрытая реклама Нивеа,17-7-2021,35
86,Chepi22,chepi220608,,How to raise fps on a pc without a graphics card and with an amd 5 3400g processor Greetings from Peru,29-9-2021,11
87,notag,notag37,,뭐하는거죠?,16-7-2021,17
88,Hi,lalalalalalalalzlz,,Go vegan today! 🥗 Save the animals!! 😁🥰,19-7-2021,17
89,JNW.official,jnw.official,,Ммм перезагрузка видеокарты)),16-7-2021,14
90,🖤,_ro.1.5_,,Can u make a video showing and telling about ur setup? 🥺,2-10-2021,7
91,sus,susususususususuusususus,,sus,17-7-2021,19
92,idk,ik.who,,What happens when u reset it?,16-7-2021,12
93,debiderryberry ,debiderryberry,,What key switches are those,16-7-2021,12
94,บ' เบญ' อาร์ทติส,seksanhepmar,,ผมซื้อโน้ตบุ๊คมาใหม่ แต่แล็คช้ามาก มันเกิดจากอะไรครับ,31-7-2021,11
95,Rikiz,mygfisfromimagination,,i liked the video but i regret that i have no pc ..,23-7-2021,7
96,E.R_PLAYER,e.r_player,,não tenho um pc😁,15-7-2021,7
97,Astarr,astarr.exe,,@manudiiiiaaaa2007 tiens tiens tiens,15-7-2021,7
98,ПРОДВИЖЕНИЕ/World Of Tanks😝,w1zardwot,,мне одному мерещется что там стоит смазка? 😅,20-7-2021,7
99,𝓔𝓶𝓪𝓷𝓾𝓮𝓵 ꗃ✩,_yngberry_,,io povero che non il pc.,18-7-2021,7
100,Jorge,_fu7ur3,,Ayo share the wallpaper bro 😅,17-7-2021,7
101,eu,sxtuzs,,eu tenho o pc da barbie pode fzr?,18-7-2021,13
102,sla,mediafire_rtx,,eu vendo os comentários falando que dá ruim fazer isso na placa integrada sendo que fazia isso todos dias 😄👍,15-7-2021,12
103,⭐ ℓυ ⭐,naocata,,"oMG YOU SAVED ME!! I have no idea why but when i start my PC, It freezes most of the time :( This fixed the problem when It happens!!!",21-7-2021,12
104,recgamerx,recgamerx,,que teclado es? xd,15-7-2021,7
105,INNOVATIVE NATION! 💜,innovativeasian,,Wait so doing this makes my pc run faster? Does it delete anything on my pc?,29-8-2021,8
106,Akiyama,erza1501,,intel Celeron menyimak dari kejauhan,15-7-2021,12
107,mi7,_mdi1,,@dream.pc0 Keyboard name ??,16-7-2021,10
108,Nguyễn Thanh Hiếu,thanhhieu1515,,Tổ hợp này để làm j vậy ạ,19-7-2021,9
109,.,alessandro.ln,,como se llama el pokemon de fondo?,15-7-2021,9
110,Avenue,nahee30181,,ทำแล้วช่วยอะไรครับ,22-8-2021,10
111,xSols,xsols,,Una duda soy principiante instale warzone en mi PC pero creo que le jodí los gráficos por qué los fps y los gráficos no son los mismos alguien ayúdeme,16-7-2021,9
112,Me super simp yue,yuenumberone,,ctrl + shift + n🌚🌚🌚,21-8-2021,8
113,tiarabal _,tiaraballll,,"lo hice, se puso negra la pantalla por un segundo y ahora me anda joya *se le rompe la pc*",9-8-2021,8
114,Marcus,marcustechnology,,Crazy,20-9-2021,12
115,:3,mido_l,,já sem to zmáčkl a co to mělo udělat?,18-7-2021,5
116,SinaMon Martian,sinmamon,,"1.1 million likes and 5k comments , definitely not botted",17-7-2021,5
117,Ryan,ryan_howell_yt,,I heard that alt + f4 dose the same thing 😂,17-7-2021,5
118,สาว 2D จงเจริญ,db_bank,,Ctrl + Shift + N รู้จักกันบ้างมั้ย,7-9-2021,5
119,SagenessJosh,sagenessjosh,,How do I fix my pc if it don’t connect to internet it connects but says “no internet”,20-9-2021,5
120,A B D U L L A H,tx_abdullah..z,,thanksssss I was having issues with my graphics card,21-9-2021,4
121,Kazuki,kazukichamico,,doesn't seem to work for me 🤔,21-9-2021,3
122,Đức Anh989,ossimii2102,,"My bluetooth usually lost, what should I do?",22-8-2021,3
123,Pham Tien Nam205,nampkavpro,,how to set video wallpaper ??,20-8-2021,3
124,XxThat_Guy11xX,xxthat_guy11xx,,How do you fix your pc when it keeps powering off and then on and saying windows repair after,28-9-2021,4
125,Andy,insertusername2009,,Can you make with laptop,11-10-2021,0
126,Zaya.fn,toesman69,,"hey bro,can u show me how to change backround idk bci just bought it! 👋😄 Really hope u asnwer!",11-10-2021,1
127,JHNPHLLP,jhnphllp026,,where did u get that live wallpaper?,27-9-2021,1
128,Aku live nya xexior,nazrilputras_asli,,kok leptop gua yg kentang langsung mati yak😅,24-8-2021,1
129,반랭,dyrhlphs3o3l,,뭐하는거임,27-7-2021,1
130,JIMSHERA,jimshera3418,,Can u teach me how to show E disk pls it’s just disappeared and all my games are on that disk🥺😅 (pls),23-1-2022,1
131,Quinn,quinn.is.cool.erthanyou,,Can you make a video with a lot of your previous wallpapers,6-12-2021,1
132,NuNu,noahlnunu,,How much did ur setup cost? and where can i buy it,25-9-2021,1
133,caio,caio.yep,,@ivan_rei_delas MANO OLHA O MUSICA ORIGINAL VEI MT BOA,23-8-2021,1
134,NASaBASiIiSK,amballusa,,ขอรุ่นคีย์บอร์ดหน่อย,22-8-2021,1
135,michael,michael.plzm,,mousepad,19-2-2022,1
136,Antonius,itsmeantonius,,What do you have on your table @The Rock Reacts,26-9-2021,2
137,mateeej,_mjanos_,,thank you before 300fps now 50👏👏,25-3-2022,1
138,joe,heaintgotnolegs,,Any tips for speeding up a PC?,27-9-2021,1
139,개새,kys5763,,"wallpaper 쓰면 렉걸리는데
렉 최소화 시켜주는걸로 알고있어요",1-9-2021,0
140,Richard Brandt,richussy_,,why is the lotion there in the back? 🤨,29-12-2021,2
141,Adrii,adrii.coffee,,Al hacer esto hay algun beneficio? Otorga mejor rendimiento o algo de eso?,23-1-2022,0
142,stranger_thingsbtw,stranger_thingsbtw,,what keyboard do you have and mouse,26-1-2022,1
143,Sponky,sponkycraft,,Again what is the wallpaper,21-9-2021,1
144,Mur2fer,mur2fers,,Pour les fr Win+Shift+B,28-2-2022,1
145,Atomik,atomiko04,,Plis dime🥺,1-12-2021,0
146,Jesus Romero,jesusromero288,,Alguien sabe qué teclado es ese?,26-11-2021,0
147,Thassio Werlang,thaxxio.zip,,how’s the model of your keyboard?,28-9-2021,0
148,Full head All you,user3463167796284,,😆😌👋fine,28-9-2021,0
149,ไม่บ้าเเล้วครับ,demonic20037,,ทำให้ลื่นขึ้นหรอ?,14-9-2021,0
150,Ok,skennyz,,What does it do,10-11-2021,1
151,dy0e2uxup3tv,dy0e2uxup3tv,,tu Pokémon favorito es mega Charizard x,22-10-2021,1
152,L.Black616,l.black616,,en formato mp4 para sus pantallas,26-9-2021,0
153,Monchis Aguilarツ,elmoncho777,,"@elparcexd3 entra al ""Audio"" ahí esta la canción :D",18-8-2021,0
154,uwuchu47,uwuchu47,,🥺how about you show us some kpop website that kpop fans can play with,24-12-2021,1
155,L.Black616,l.black616,,ese fondo ya lo tengo,26-9-2021,0
156,mico,micohuesca,,Can u do stream app not lagging to play,25-9-2021,1
157,Chema,1wiind,,Ur tips are always the same bro,20-9-2021,0
158,TenebruhTTV,tenebruhttv,,But what does this do exactly? Your gpu is going to act the same. Usually have to rollback drivers to make changes.,15-8-2021,0
159,Kitty,4mai_,,Keyboard???,1-12-2021,0
160,Woody Woodpecker,woodpeckeratnest,,Won’t give you more FPS!,26-11-2021,0
161,Sever💪,logicname,,WOW,17-11-2021,0
162,nightmare22214,tray._2315,,background?,13-11-2021,0
163,khabib ufc,blakeblakeyb,,Any good pc for 1500 I am in new Zealand,13-11-2021,0
164,Minh Nguyễn,ndmchicuong,,chỉ em liên kết 2 màn hình thành 1 với,16-9-2021,0
165,ItzMeVortex,itzmevortex,,me that doesn't have a graphics card 👁️💧👄💧👁️,30-8-2021,0
166,stabbyvisuals,stabbyvisuals,,name of song?,12-11-2021,0
167,Adam McCray,juscliz,,only if I had enough money to get my dream never had a pc before too 😞,20-9-2021,0
168,I use Arch btw.,iusearchbtw74,,i like the video… but i use a gnu/linux system.,19-12-2021,0
169,JesusPalazzi,jjpalazzi,,Dude I got a huge problem with windows 10 64Bits got a failure on sound idk I tried everything.... It's start to sound all good but suddenly stop,7-12-2021,0
170,Hello,2kgodlol,,I want a pc,2-12-2021,0
171,💪💪💪,davidmarshy,,What’s the keyboard called and where did u get it,27-11-2021,0
172,😈😈😈,takethicccy,,Everyone already knows this,19-11-2021,0
173,Unknown,reniel_545,,can you pls show us how to fix not connecting internet pls,13-10-2021,0
174,KeithoHD_,keithohd_,,I did this and now my monitor is black screen ?,3-10-2021,0
175,Dolo,2xdolo,,Does this like mess with settings in game or does it help it more ?,1-10-2021,0
176,Mattekungen,vikin.gsr,,Can you help me i need a decent pc that I can play games on any recommendation?,24-9-2021,0
177,Stuart Young,stuartthelad,,I need help I just on tast manager and I ended some thing and screen is blue,20-9-2021,0
178,Zeno_Tiktok,zenosotired,,i wish i had a pc like this,17-9-2021,0
179,tu.es.malade.drn,tu.es.malade.drn,,I can't get the cupcakke remix out of my head!,24-8-2021,0
180,:):,raeeee055,,คืออะไรครับมันช่วยอะไร,22-8-2021,0
181,yuq32,aigyuq32,,card on board kiểu 🥺,21-8-2021,0
182,CamTheMan,camtheman785,,Keyboards,25-11-2021,0
183,Andrew💪👍,andreasstrat_,,hey does my monitor affect the fps ???,24-9-2021,0
184,Hanif A.,hanifatambil,,How to be colored the key board i have that keyboard but no light😞,24-8-2021,0
185,NPC_Fox,super_naniz,,"alt + f4
to be hackẻ",24-8-2021,0
186,איתי צובר,gettingovertiktok015,,How do u show fps on the desktop?,6-2-2022,0
187,sawatdeeka7799,anime1dancingstep,,"thank you so much
at first am going to restart but my mind just thinking about your Pc tip 😅",2-2-2022,0
188,LITVIN,the_pruf,,plus what?,29-1-2022,0
189,dd3mch3d,deimos4467,,It resets ALL drivers,17-1-2022,0
190,Michael Daley,tristen3242,,I need that chard so bad mine is dining,16-1-2022,0
191,danomite124,danomite124,,Like that keyboard what kind is it and where did you get it?,9-1-2022,0
192,Coolcat3775,nikitamaximov471,,What brand🥺,31-12-2021,0
193,Will P,willp608,,Keyboard name?,30-12-2021,0
194,Ben Dover 224,ben.dover5678,,Day 2 of asking for Keyboard,29-12-2021,0
195,Ben Dover 224,ben.dover5678,,What keyboard is that??,29-12-2021,0
196,Seppe Van Dyck And Yuppi,_amazing.doggy_,,how do you get that moving background?,2-12-2021,0
197,Pero,yesleo11,,What’s that key board called ?🥺,26-11-2021,0
198,Host,k9in9,,I love this song 💕,26-11-2021,0
199,Elias Hegle,tooncheating,,I need that wallpaper,24-11-2021,0
200,Casey_steve,casey_steve,,What keyboard,24-11-2021,0
201,"""CKSP""",lukazenka_lukasfrum,,what do i do? my screen is yellow,15-11-2021,0
202,maul,_darthmaul_,,is it safe???,3-11-2021,0
203,😺sizar😺,siearcat,,Some can geve me a steam account for free pls 😔,31-10-2021,0
204,Techy Jefe,techyjefe,,This will come in very useful!,31-10-2021,0
205,hxvoc,versusteeth,,hey dude Idk if it's my PC ory graphics drive but when I run other games graphics are good but fortnite runs on bad graphics I'm on GTX 625 btw,30-10-2021,0
206,Joshua Johnson2091,jjohnson9552,,My computer was working yesterday now it turns on but nothing pop up on my monitor help!!!,29-10-2021,0
207,Elinty,_elinty_,,is This ok to do???🥺😞,28-10-2021,0
208,Tristan 💯,dtbcurlyy,,Keycaps,24-10-2021,0
209,admiral_bacon,admiral_bacon7,,Pls how to fix power saving Mode while gaming plssss,22-10-2021,0
210,leafyman3,leafyman3,,how do you get an animated background,17-10-2021,0
211,Duckboy__,duckboy__,,How get live background,17-10-2021,0
212,The Overwatch,doomguy690,,I did this but now my wifi isn’t working anymore on PC,16-10-2021,0
213,CS👑GO,bluryface58,,how do on microphone my micro is off how?,15-10-2021,0
214,Jeffery Salesa,feardezz,,Damn worked like a dream thanks bro,15-10-2021,0
215,I love arguing,stepanpie09,,@DreamTech happy birthday,14-10-2021,0
216,vlad,pbwh._,,what do this do?,9-10-2021,0
217,Nikollinaaa,nikol.inaaaaa,,where can i find your wallpaper????,28-9-2021,0
218,riccardo tanghe,ricosaurus1,,What keyboard is that?,27-9-2021,0
219,gemini,nvrbe_urs,,im using it on my intel uhd laptop. the beep sound kinda cute tho,26-9-2021,0
220,giannakas,giannakass7,,Bro where you find your wallpaper please Tell me,26-9-2021,0
221,StesTechTips,stestechtips,,Sick,23-9-2021,0
222,rexgamer0q1,rexgamer0q1,,what is the name of that wallpaper?,21-9-2021,0
223,kou,yourcane,,what are the keycaps?,19-9-2021,0
224,Sheeshzone79,sheeshzone79,,what is that wallpaper,7-9-2021,0
225,𝙲𝚕𝚊𝚛𝚒𝚜𝚎シ︎,iiqclxarise,,HOW DO I UPGRADE MY DRIVER😭,26-8-2021,0
226,Tim Smith,csxjp302,,bon départ!,7-4-2022,0
227,Atomik,atomiko04,,Quiero ese fondo donde lo conseguirte,1-12-2021,0
228,levid83,levid83,,can u pls make a vid for a cheap but good pc for minecraft,12-10-2021,0
229,you dont know me,1_lonely_guy,,help getting a good and cheap pc for gaming,27-9-2021,0
230,シ,n1z42,,Will it delete any saved files or games??,5-9-2021,0
231,Ææ,okseul2,,저거하면 렉 없어지나요,21-8-2021,0
232,Spoty.Cheap,spoty.cheap,,I need to know how to have a smooth desktop and where you get those backgrounds.. fr fr,21-6-2022,0
233,deinrussee,deinrusseee,,maybe smth for More fps in games,17-6-2022,0
234,tiebevdbroeck,t_vdbb,,Nice keyboard 😁,5-6-2022,0
235,N i c h o.,ttnick1738,,On twitch or YouTube 😅,4-6-2022,0
236,N i c h o.,ttnick1738,,Do u stream,4-6-2022,0
237,edpdaddyunu,edpdaddyunu,,What dose it say shift and ctrl windows and the other?,22-5-2022,0
238,Wsgg,j0n1th1n,,7991th commenter,21-5-2022,0
239,Jon Brown1368,csxjp303,,wow i have not seen this for a while,12-5-2022,0
240,Tim Smith,csxjp302,,素敵で私はここに新しい!,10-5-2022,0
241,Ricardo Serrano1197,aswq_5,,whats your keyboard,19-4-2022,0
242,mx__7780,mx__7780,,please how to download games of pc,19-4-2022,0
243,mx__7780,mx__7780,,please how to download games of pc,18-4-2022,0
244,twitch_olliegx,cremecheese,,Wallpaper turtorial,17-4-2022,0
245,jeremiasmartinez3696,jeremiasmartinez3696,,can u do a typing test of your white keyboard from last video and this keyboard,17-4-2022,0
246,LEE,lx3_5,,Try circle and search person at the same time with H,12-4-2022,0
247,Tengo Kaxidze,animemoments16,,thenkiu,26-3-2022,0
248,Minkz_au,br3ndon_13,,Can you do a vid on how to get that Pokémon wallpaper plzz 😁🥰,26-3-2022,0
249,jasongarcia959,jasongarcia959,,Wait it froze my computer,25-3-2022,0
250,Zachary,zachmberg,,what keyboard do you have,20-3-2022,0
251,Chris,kazooha2,,What did I think would happen when I did this on my laptop???,20-3-2022,0
252,Thomas,mystic.thxmxs963,,same webcam as me,20-3-2022,0
253,LoluSussyBaka,editslolu,,Ayo i want dat skill ✨typing✨😂,13-3-2022,0
254,ImanR,imanr2022,,Can you do 3 best pc Cleaner pls? I really want,9-3-2022,0
255,Joseph Imoowo,josephunlimited5,,So how do you reset the network driver on pc,8-3-2022,0
256,360SCOPEE,360scopee,,is it OK to do this once per week?😅,6-3-2022,0
257,크ㅡ리ㅣ스ㅡ,chrisy738,,Wow thank u my,28-2-2022,0
258,Shipshap,shipshap2,,how to unlock key lock on monitor,28-2-2022,0
259,Despicable,despicable619,,Why doesn’t this work for me?,27-2-2022,0
260,Daniel,sausage_pc,,My game is still crashing,25-2-2022,0
261,Adam,its_mr_adam_bro,,I need this keyboard. name?,24-2-2022,0
262,Someone,d.t.n.moon,,what keyboard do u use?,22-2-2022,0
263,O0☢️aͥryͣaͫή☢️0☢️,secretagent867,,"what does it even doo
I want the creator to tell plz🥺🥺",18-2-2022,0
264,VL :),vlflx1,,where did you get ur keycaps from?,18-2-2022,0
265,Tech.Phreak,techphreakk,,Does he reply?,12-2-2022,0
266,♧︎︎︎𝑲𝒆𝒏𝑲𝒂𝒏𝒆𝒌𝒊♕︎,ken_nightt,,I love you content 🥰,11-2-2022,0
267,🇹🇭🇹HAI┊𝐄𝐋𝐘𝐀𝐔🌚,555tonpee0101,,tip,5-2-2022,0
268,.,startstarkr,,wallpaper name?,4-2-2022,0
269,Prince Vegeta,thatclownsrivalmevegeta,,bro u forgot something on ur left,4-2-2022,0
270,Pedro Glheverton,pedroglhevertonn,,ALGUEM SABE COMO REVERTE?,31-1-2022,0
271,Manny,eo.menz,,How you got moving wall paper,31-1-2022,0
272,~,._..___._..__,,bro thanks so much,25-1-2022,0
273,{TXM} • Oc3an,oc3an.gt,,What gaming pc would you recommend for a first timer??,23-1-2022,0
274,Big mil 💯,fwyamil,,Hey,20-1-2022,0
275,user4785608510623,cpkeycaps_official,,Hey,20-1-2022,0
276,Ahmad❤️,akhamdd,,Nice,19-1-2022,0
277,holaimripgim,rhivgym,,thanksssss!!! u save me,18-1-2022,0
278,Simon,simonkroeker_,,I want the chair pls lol,17-1-2022,0
279,Krijgteelbalaids,alexander.meert,,Please,16-1-2022,0
280,nee,kobe_drykoningen,,i want to win the chair,16-1-2022,0
281,Arjan,arjan_sran,,I have to win,16-1-2022,0
282,Grixtle,grixtle,,hi,15-1-2022,0
283,user2034963299322,wkey24.7,,What does this do for a functioning pc?,13-1-2022,0
284,Adiorru,adiorru,,Im the 2million th liked,11-1-2022,0
285,Ignatius,ignitnt,,show us how to download Grand Theft Auto 5 for free.please,9-1-2022,0
286,Potat,potatotoes1100,,Wallpaper name please?,6-1-2022,0
287,Ryonaki(Rishan),bolognese_b,,what does this actually?,3-1-2022,0
288,Remi,rem_0729,,Bro please tell me what keyboard and keycaps or whatever the whole thing is called,1-1-2022,0
289,Coolcat3775,nikitamaximov471,,What is ur keyboard called😳,31-12-2021,0
290,broodpandora427,broodpandora427,,Help I did that and my keyboard is not working,31-12-2021,0
291,denis._.foresi,denis._.foresi,,What can i do if my screen is frozen?,31-12-2021,0
292,Timmy Terna,timmyterna,,yo why you got lotion on the side😂😂😂😂,30-12-2021,0
293,∆Darkside∆,meowbah_d3ad,,first like?,30-12-2021,0
294,☀️,.ethvn_,,keycaps name ?,23-12-2021,0
295,followingpcpeoples,followingpcpeoples,,can you show us you're pc and what you've got in it?,22-12-2021,0
296,HI,rip.bozo.amogus,,like from your OG follower,20-12-2021,0
297,jeffthebulldoser1,jeffthebulldoser1,,What PC do you use,15-12-2021,0
298,user7569157784227,twigs165,,How did you get the charzard wallpaper,11-12-2021,0
299,майнкрафтер✨⛏,snowball_355,,а что он зделал?,11-12-2021,0
300,dead,doomy1609,,how do you make a moving background,8-12-2021,0
301,Arba,arba74200,,Je veux son fond d’écran TOUT DE SUITE !!!,8-12-2021,0
302,Fletcher Wheaton,fletcherwheaton,,What monitor are you using,5-12-2021,0
303,Minh Hiếu,minhhieu22040,,"How u do that with your screen, can you tutorial ?",4-12-2021,0
304,jun1or.tav,jun1or.tav,,can you please show me how u got that charzard i’ve been trying to find charizard gifs on google and can’t,4-12-2021,0
305,Billlover2,billlover2,,Bro every tip you have is this 💀,4-12-2021,0
306,꧁ঔৣ☬✞G∅YN✞☬ঔৣ꧂,g0ynvr,,hey do you know where I can get cool keyboards like that and ones that are good but are under like $200?,3-12-2021,0
307,<3 🥲,bxckroms,,keyboard name??,3-12-2021,0
308,Happy frog,happyfrog4815,,not even using the new mouse pad,3-12-2021,0
309,Gerald,g.raw.ld,,didn't work on my omen 🥺,2-12-2021,0
310,Deniz Kainz,deniz.kainz,,whats the name of the,2-12-2021,0
311,Seppe Van Dyck And Yuppi,_amazing.doggy_,,How do you get that moving background? plsss make totorial😅🥺,1-12-2021,0
312,lunala,lisamalpas,,setup tour plssss,1-12-2021,0
313,ICLIPAKE®,iclikape,,wallpaper?,1-12-2021,0
314,little Nicholas,nicholas679,,where do you find these cool wallpaper ?,1-12-2021,0
315,Mortal Lemon,mortallemon,,Just install linux and you shouldn't have to do this.,30-11-2021,0
316,kPancakeMans,kpancakemans,,whats that monitor?,27-11-2021,0
317,lucajt30,hydraforce24,,What’s the name of that wallpaper😳,27-11-2021,0
318,lcs_bln16,lcs_bln16,,Which Keyboard have you,26-11-2021,0
319,MathiasHG/2o8,mattifix,,What mouse do u have ? The name plzz,25-11-2021,0
320,Football Edits,ftbl_editz75,,Can u do a tutorial how to change the wallpaper on a locked school laptop,24-11-2021,0
321,Xiao,xiao._.main1,,Yooo I neeeeed that wallpaper,22-11-2021,0
322,Sever💪,logicname,,Nice tips,22-11-2021,0
323,ItsYaBoiKirbyO_o,itsyaboikirbyo_o,,yo can I cop that wallpaper?,21-11-2021,0
324,ᥫ᭡,allibearxd,,what kind of keyboard is that ?,21-11-2021,0
325,DaimantasMocevicius,daimizzzzz,,Does it work on gaming laptops?,20-11-2021,0
326,thedanplaysyt,thedanplaysyt,,Tysm,19-11-2021,0
327,roxy.mee,roxy.mee,,Im new on pc how do u get those cool backrounds??,19-11-2021,0
328,Ajj_nzrosales,ajjsjshsjssj,,what happens if I get pinned?,19-11-2021,0
329,teeree558,teeree558,,How to replace Yahoo on google.,14-11-2021,0
330,xd_Byle_/ co^_^,te__konto_.jest_ponic_,,laptops to 😁,12-11-2021,0
331,Isiah Figueroa⚾️🍔🤡,_isiah_4,,U should do best wallpapers on wall paper engine,11-11-2021,0
332,Rahh Twitch,rahhtwitch,,Defo didn't see this 6 times,11-11-2021,0
333,syd,sydloke26,,I followed cause we have same wallpapers,11-11-2021,0
334,b0T17_10,b0t17_10_official,,what's the pc monitor that you have?,11-11-2021,0
335,B-beluga?,justhecker,,how i the game called where u have to Klick at those points with the mouse and it's getting faster i just don't know 😅,7-11-2021,0
336,Setsen,setsen2005,,When I did this my screen is so zoomed in why,4-11-2021,0
337,user153305640850,jennifery1018,,I miss having a windows I might get it since you’re teaching these thanks!!!,3-11-2021,0
338,dhruvpatel39499,dhruvpatel39499,,wallpaper name,1-11-2021,0
339,:},beyond_cap,,You are really helpful thanks,1-11-2021,0
340,INS_Rain,ins_lucifer,,I did this and i forgot i sold mine LMAO,1-11-2021,0
341,XxxTic_TokerxxX,xxxtic_tokerxxx,,works omg,31-10-2021,0
342,Alex,alex_gamer059,,any tips on how to make your pc get better fps or something?,30-10-2021,0
343,Diell Mripa,die1l,,What do I do if I have blue screen on my pc I can’t seem to fix it help please?,30-10-2021,0
344,Kish Sebastian De470,l4cks3,,THANK YOU SO MUCH,30-10-2021,0
345,?,29kkyou,,tutorial how to put live wallpaper on laptop pls,30-10-2021,0
346,kye 👑,holykye,,I def need that wallpaper,30-10-2021,0
347,Bryan Andy and Jack and djeesi,sagurein,,hi my name is Andy and. I need to know how to factory reset keyboard on windows I don't have to keys.😅,30-10-2021,0
348,KietAnh,kietanh0088,,fix blue screen stop code dpc 😳,29-10-2021,0
349,Dark_89,g2_8xp,,how to speed pc,28-10-2021,0
350,Andrez Dipasquale,dracowitdagat,,what Exactly does resetting your graphics card do,27-10-2021,0
351,❤️❤️❤️111,wisjimop,,this man need to get verified @tiktok,24-10-2021,0
352,Génie kéta fame,cocodilo_explodando,,How should i do that when i open pc my wallpaper from wallpaper engine stay cause everytime there is another wallpaper,24-10-2021,0
353,Nobody,jayboomboom4,,Can,22-10-2021,0
354,rithea :>,itmeritheaurboy,,hey new fan 🥰,21-10-2021,0
355,yes,madeitinheavuun,,does this work on laptops? mine has been quit slow,21-10-2021,0
356,Aldrin Ilagan,aldrinilagan0,,how to record ?,18-10-2021,0
357,weirdo8550,weirdo8550,,can u make a tiktok how u get the moving Wallpaper,18-10-2021,0
358,cpu©,your_cpu,,I do this all the time with him😂,17-10-2021,0
359,🥶🥵🤡🤡,zhh.lxky,,Wich keyboard is this it looks nice,17-10-2021,0
360,Dare_Devil134,dare_devil134,,A have a question how do you reset the a computer or pc ???,17-10-2021,0
361,🇳🇿toby🇳🇿,error_404cantregister,,I can't find a good pc and monitor for gaming and my budget is 900 nzd 😬,17-10-2021,0
362,arbxr,arbrika,,dint you upload this same tip 2 vids ago??,17-10-2021,0
363,HEEHEE,bmgenthusiast,,i dare you to upgrade to windows 11 and use it for a week😳,16-10-2021,0
364,hey,jamesidkwhy,,what are your pc specs?😁,16-10-2021,0
365,shyta41,shyta41,,My pc overheats and my fps dropp 24/7. Does this help ?,16-10-2021,0
366,abashelhajoshua,abashelhajoshua,,Wallpaper name pls,16-10-2021,0
367,hi,jennnniiffferrrrrr,,ayo whats that bottle on the desk,16-10-2021,0
368,Leo Hagart,.leazzy,,What is your main monitor?,16-10-2021,0
369,Leo Hagart,.leazzy,,What is your monitor,16-10-2021,0
370,Taapy,taapyy,,Bro ty my pc usually freezing when I boot up but now it doesn’t,15-10-2021,0
371,Lmao you are cringe,vladisss24,,I DONT KNOW WHAT IT DOES CAN YOU TELL ME,15-10-2021,0
372,DW • Moskow,totaliysky,,happy birthday @DreamTech,14-10-2021,0
373,th3.b14ck.wh1t3.c4t,th3.n0rd1c.c4t,,ty my friend,14-10-2021,0
374,nial,nial_____,,happy birthday 🥳 (i think it’s today?),14-10-2021,0
375,justice,thejustifier17,,do windows 11 to,13-10-2021,0
376,ßæm,cqntralcee,,omg thx,12-10-2021,0
377,Banal.Yarn?,dont_cry66666,,How download offlane game for. Free?,12-10-2021,0
378,dantheman7077,dantheman1018,,where is the windows in a I buy power keyboard,12-10-2021,0
379,dantheman7077,dantheman1018,,why does my pc freeze randomly,12-10-2021,0
380,.,stasy.24,,does anyone know why some applications or games dont appear when i type in search bar? please,11-10-2021,0
381,Ken,lorecx6o0,,can you show how your Charizard image fits pls !?,11-10-2021,0
382,kitler,kitlerandhitl,,i like you you have good tiktok,11-10-2021,0
383,AWLX,duckdin3,,why do i lag so much but my pc is windows 10 pro,11-10-2021,0
384,Cheuminh Lee,_cheuminhking_,,Do u play Valorant???,11-10-2021,0
385,BigPappi,big_pappi445,,Why is my screen now pink,11-10-2021,0
386,breadrohls,breadrohls,,What keyboard is that?,10-10-2021,0
387,Jollibeach,g.maine,,can you teach me how to get live wallpapers please,10-10-2021,0
388,Cameron,cameronfrank4,,What keyboard do u have?,10-10-2021,0
389,SenkoTakeda,senkotakeda1,,my screen blacked out and I didn't know what to do and I tried everything so then I remembered a video that reset graphics drivers and it worked thx😁,10-10-2021,0
390,Max,maxi_boi17,,Show us a setup tour,10-10-2021,0
391,ThaToeZ,thadoemaunghtay,,Window 11 recommend 😁,9-10-2021,0
392,Kim Heang80,kimheang805,,Hey but how to lower ping in Roblox,4-10-2021,0
393,NamLord,namfk41,,QUESTION: How i can turn off the discord sound if i was on laptop,4-10-2021,0
394,JamDaMan69,jamobmx_,,Anyone know the run that you can type stuff in I went into that and put my performance to max and graphics low and now my fonts are mest up?,4-10-2021,0
395,Hector_Lawson,hector_lawson,,How did you get live the live background?,3-10-2021,0
396,AvrgDerk,derktheavrg,,how do-,3-10-2021,0
397,Karl.s,karl.slol,,Yall got mouse reccomendations under 30$?,3-10-2021,0
398,🦖Excision🦖,korruptedskies,,can u do a video for the wallpaper,3-10-2021,0
399,Someone,shin199180,,how get that wallpeper,1-10-2021,0
400,kataki,aligarcia96,,use this song lile old times plz,30-9-2021,0
401,riebduejdjejejdnd,sir.chungle.the.first,,what moniters do you have?🤔,29-9-2021,0
402,Bewaphur,_christie.566_,,I don’t know if it just mine but it makes it pixelated,28-9-2021,0
403,Simon,simonluu3,,How do u fix blue screen of death pc,28-9-2021,0
404,Dragon3,dragon25243,,how install windows 11??,27-9-2021,0
405,Nikolai Nikolov,n.nikolovv_,,Broooo charizard,27-9-2021,0
406,Khudeda,khudeda0_0,,wich pc do you have,27-9-2021,0
407,Jonathan Cesar,elbigjohn_twitch,,"one minimal PC for stream ? cod Fortnite GTA5 ? pls I have 300 dlrs for only Mobo, ram and processor",27-9-2021,0
408,Jumpinhippo2127,jumpinhippo2127,,Can I save,27-9-2021,0
409,Thirdy :>,ernesto.14.28,,guys how to record your screen? for online class hehe,27-9-2021,0
410,Ɨ’м✿ｐ𝒽áⓣ࿐🥇 👑,im.phat0605,,Wallpaper pls🥺,27-9-2021,0
411,Piggy,piggydoublep_yt,,do setup tour,26-9-2021,0
412,Ya,theyluv..darla,,How did you get that live wallpaper?,26-9-2021,0
413,_zaplotnik,_zaplotnik,,Wich walpaper angine walpaper,26-9-2021,0
414,L.Black616,l.black616,,how did you get that charizard wallpaper,26-9-2021,0
415,Keepa_Elliott,elliottgk30,,Keycaps name,26-9-2021,0
416,Random Landscape,randomlandscape2,,what's the wallpaper call?,26-9-2021,0
417,y_u_bully_me_10,y_u_bully_me_10,,How do I troubleshoot my computer,26-9-2021,0
418,Bee,h0ney_bee2786,,I wish to get a gaming set up in a few months what do you recommend to get started with😅,26-9-2021,0
419,ahahah,googoogagagfy,,Desk?,26-9-2021,0
420,aniszeppeli,aniszeppeli,,u have amd hacks,25-9-2021,0
421,Mattekungen,vikin.gsr,,Cab you help me i need a decent pc that I can play games on any recommendation?,24-9-2021,0
422,rasanakram2,rasanakram2,,can you please do black screen when i wriye my code it my hole screen is being black,24-9-2021,0
423,Tôi bị đao,lucjfer9,,sao win 7 ko làm được ae =)),24-9-2021,0
424,Arfuz,arfuz.lol,,Do setup tour,23-9-2021,0
425,talel bettoumi,_j0jo._,,"new one for me, thanks <3",23-9-2021,0
426,Ash Main ✨💖✨,psychoticnanno,,i did it it winked at me twice,23-9-2021,0
427,Carlos Saucedo,ohhsoosauceyyy,,What is that wallpaper called on wallpaper engine,23-9-2021,0
428,Cal,its_cal2,,When I try opens GeForce it says error code 000x3 do u know what to do,22-9-2021,0
429,adrian.stamatov,adr._..ian,,You really should use opera gx it's much better than google,22-9-2021,0
430,Ter Paliza,terpaliza,,im using low end pc. too much fps drops on game. any tips except buying a new one. 😅 i dont have money for now.,22-9-2021,0
431,tim,t1mmy_s,,can u tell us what ur monitor is it looks good im thinking of upgrading monitors soo😁,21-9-2021,0
432,Roland Villa,curlycurlyyy16,,What is the purpose of this in you computer?,21-9-2021,0
433,Black ben Bartholomew the 3rd,drippyblackben,,Backround please?,20-9-2021,0
434,don’t call me fredrick,shushtate,,Do a graphics one next pleaseee,20-9-2021,0
435,pbcolon25,pbcolon25,,this is the same as 66.,20-9-2021,0
436,Leke 🌹,lekesita,,ai la crema de manos cerca d ela compu es demasiado real JAJKSJA,20-9-2021,0
437,dis guy,halal_donne,,hey,20-9-2021,0
438,Thecardperson123,thecardperson123,,Hi 😅,20-9-2021,0
439,andy,andyncat,,Whats ur keyboard?,20-9-2021,0
440,Itsuki,lol_itsuki,,I lag a lot any solutions?,19-9-2021,0
441,MightyTNT,mightytnt,,Soon…hmmm,19-9-2021,0
442,Albanik Çollaku,albanikcollaku,,why do you have that lotion there,19-9-2021,0
443,nima,kubus_hehe2137,,what is your keyboard?,19-9-2021,0
444,kou,yourcane,,keycaps name?😳,19-9-2021,0
445,Ethan_Wells,ethan_wells45,,You did this one twice,19-9-2021,0
446,Laurence Angelo,lance_angel0,,how do u have a animated wallpaper?,18-9-2021,0
447,xXAmane_ShiroXx,xxamane_shiroxx,,How to get love wallpapers without paying,18-9-2021,0
448,ky,jakelngt0h,,wheress the windows,18-9-2021,0
449,KanteVeryBeautiful,kanteisbeautyful,,8001😁,18-9-2021,0
450,Smichel,smichel112,,instructions unclear my goldfish is now dead,17-9-2021,0
451,Carl Caps 🇵🇭,youngbaki18,,how to make my laptop faster its super slow😅,17-9-2021,0
452,TÚG•<ÁSTRØX>,deundergeound_shuzuki,,yessss thanks,17-9-2021,0
453,𝐘𝐮𝐫𝐢̂𝐢̀^𝐒𝐞̂𝐧𝐩𝐚𝗶,barbarboy69,,bro I'm new I think you have a Great technique can I ask a question when I'm restarting or opening I loads for minutes,17-9-2021,0
454,Panda<>gang🐼,pandaloverman,,hey bro can u help me to how to light up dis keyboard rgb k500 bro plss can u help me,17-9-2021,0
455,Nobody lol,sp_nobodylily,,i found the same video again naniii?????????????,16-9-2021,0
456,𝗩𝗠 𝗔𝗥𝗖𝗢𝗭,arcozv3,,Sa laptop pwede to?,16-9-2021,0
457,shouko_nishimiya2.7,shouko_nishimiya2.7,,i was watching you with my old acc even if i dont have pc but now i have one so i can do all things you said,15-9-2021,0
458,.,user64728284664,,@_____________wow3 nyoh lek ngelag2,13-9-2021,0
459,WBN | iTrinity?,itrinitygaming,,any low end laptop tips?,13-9-2021,0
460,m'ss,kirits18,,will it harm your pc?,13-9-2021,0
461,Challz308,ayobigmanting2,,😂 great now my wifi won’t connect,12-9-2021,0
462,Junior,junioraboyme,,Hoy to screen shot,10-9-2021,0
463,->,pyknic4,,로션이,10-9-2021,0
464,ไอนิกมันกลับมาล่ะะะ!!!,yesmam056,,ผมซื้อโน็ตบุ๊คมา core i3 ดีไหมครับ,10-9-2021,0
465,D R A Y,jayedit3,,how to put that wallpaper in my pc,9-9-2021,0
466,Suraj Sapkota,befirst23,,bro will this not affect the laptop,8-9-2021,0
467,patrick,blururass,,Nivea?,7-9-2021,0
468,Apollo,apollocodm01,,Does this works on laptop?,7-9-2021,0
469,On FF _,someofthese0,,"It has to be Windows only, right?",7-9-2021,0
470,Cauê Nicolas Guilher,jy_dine,,what is name live wallpaper,5-9-2021,0
471,rongcon20062012,rongcon20062012,,teach? 😂😂😂,4-9-2021,0
472,Khai Ko Ho?,_.ok._0069,,Bro my Gpu takes too much load and it heats so much what can i do??,2-9-2021,0
473,mokpok_lol,mokpok_lol,,I have an i3 and I'm not sure if I should switch to a ryzen 7 which would mean I get another motherboard or an i7. please help😁😁,2-9-2021,0
474,0-0,flawco,,Please help me i can’t change my wallpaper help me pls🥺🥺,1-9-2021,0
475,【百鬼組】單推{百鬼あやめ},siverx1125,,噴火龍很帥！！！,1-9-2021,0
476,‍ Henglay Sou,bobz_design,,Thank you,31-8-2021,0
477,save5,crchamp96,,เอารูปจากไหน,30-8-2021,0
478,Google,google2271973619,,Its reset my graphics driver on my chromebook 😳,30-8-2021,0
479,Thiên long hồ,lehylong29,,Me: VGA :(,30-8-2021,0
480,torfhunXD,torfhunxd,,Its real omg tysm,30-8-2021,0
481,Đỗ Gia Bảo,nghienheeee,,@gearvn,29-8-2021,0
482,2Haj,12hafphamj,,Mega charizad đẹp thế,29-8-2021,0
483,Mr. Mime,barrierd,,that charizard wallpaper tho..,29-8-2021,0
484,🧀,chesse201,,tôi và anh em khi lag = F5,28-8-2021,0
485,culto_do_ednaldo_pereira👍,culto_do_ednaldo_pereira,,ou a primeira palavra da musica ' -',24-8-2021,0
486,Duy Phong:>,phong792008,,Có tip nào có pc xịn ko?,23-8-2021,0
487,우산이,sinda.solo,,뭐하는거임???,23-8-2021,0
488,프로필을 보세요,ekdnfqqa,,닉,23-8-2021,0
489,.,sejin19gg,,컨트롤 쉬프트 그리고 뭐 누르는거에요?,22-8-2021,0
490,당신 투기장 열어달라는건가요?,userdgw4yi2o97,,배경화면 어떻게 그렇게 하나요?,21-8-2021,0
491,Maclean,maclean0508,,what keyboard is that,17-7-2021,1
492,DsDragonSlayer,imnoob70,,tell me how to put live wallpaper,16-7-2021,1
493,david,_davidabbott_,,@zacharyzouvas,17-7-2021,1
494,hicham,hchmrz,,ref du clavier ?,16-7-2021,1
495,Anthony Lara763,lilnoobito,,Are you an iPad or tablet user?,18-7-2021,1
496,Alexandra,iloveyoucentralcee,,@luvinqmarta,18-7-2021,1
497,Chri$_🤪,chri490,,@lc.joker214 I gotchu gang,16-7-2021,1
498,⠀ ⠀ ⠀ ⠀ ⠀ ⠀,saa2k5,,@ahmad132006,17-7-2021,1
499,Tempest,tempestrl,,"@wuugod_but_valo why it take me so long to find this, my drivers crash all the time",16-7-2021,1
500,PR0WN3D,pr0wn3d,,that just lags out my pc for a good 5 minutes,16-7-2021,1
501,sunny,username_260121,,@bigwilly112233,16-7-2021,1
502,Maser,blackmaser8,,Haha I don’t need this cause I don’t have a pc HAHAHAHAHahahaha hah…,18-7-2021,1
503,ow_in.14,ow_in.14,,@rhysemms,18-7-2021,1
504,grant,grubadub927,,@waterchompy,16-7-2021,1
505,Devun Kennedy,.tacoma,,Bro put your taskbar to translucent,18-7-2021,1
506,Hannah Brooks,hannahevebrooks,,@brodiegordon1,17-7-2021,1
507,Liam,liam.mrn,,@aidancaldwell321,16-7-2021,1
508,scout52,scout_52,,was bringt das,16-7-2021,1
509,Angelo Loyaga,estiven_loyaga,,que marca es el teclado que usas?,17-7-2021,1
510,ⒸⒶⓇⓁⓄ,carlo_imhandsome,,"puedes Anclar esto?
🛸　　　 　🌎　°　　🌓　•　　.°•　　　🚀 ✯
　　　★　*　　　　　°　　　　🛰 　°·　　                           🪐
.　　　•　° ★　•  ☄
▁▂▃▄▅",16-7-2021,1
511,aggeloss_ev,_aggelos_ev,,@tetos0.8,16-7-2021,1
512,Random NPC,suspect_irl,,@caidengames07 @jalengravesande,17-7-2021,1
513,Alex smith,adlh.smith,,@juanitojr4,16-7-2021,1
514,santi 🗻,socrtis__,,Y por que hay una crema alado? 😳,16-7-2021,1
515,chickie,thickiechickiee,,"my pc keeps kicking me out of games like warzone and eft…but it lets me play games on steam, i tried fixing it but i dont really know how. Any ideas?",17-7-2021,1
516,Jakesrightnut,jakeleftnut,,@jasonhahao,16-7-2021,1
517,Guilherme,guiii13579,,@arthurgd07,19-7-2021,1
518,ي,_yosfy_,,@ev_omar @lc_darkblade541,19-7-2021,1
519,Lukas Munn,lukas.munn,,I do that luke every hour,16-7-2021,1
520,🥡🥢,l_eo035,,@.welson,16-7-2021,1
521,𝐃𝐞𝐧𝐢𝐬❤️‍🩹,denisalczr06,,Lo hice en mi instituto y no tiene gráfica😎👍,19-7-2021,1
522,Tereks Play,_ignatov_artem_,,@chopocompik,17-7-2021,1
523,Yasuo o esilado,monoesilio,,Não funcionou...,16-7-2021,1
524,CrossMarmot,crossmarmot,,"ctrl + Windows + shift + b
reinicia o processador",16-7-2021,1
525,Chris Ferrari,chrisferrari0,,Can someone explain what resetting it does/why it’s helpful?,17-7-2021,1
526,WOOV,woooooooooov,,sa refresh le processeur y’en a ils sont imbécile,19-7-2021,1
527,.,zo7f,,@p_sser,16-7-2021,1
528,Roland Gliwa,okami_roar,,Ist trotzdem useless. Wenn der Treiber so Fehler produziert dann ist es mit dem reset nicht getan. Lieber neu installieren,16-7-2021,1
529,ivo,ivomijicc10,,@tkompar,16-7-2021,1
530,Spades,brycegin,,@s1ut4_a1ani,17-7-2021,1
531,Unkaputtbar63,unkaputtbar63,,Digga jeder weiss das,19-7-2021,1
532,✧,accountist,,@groids,16-7-2021,1
533,🍊N E C O🍊,neco_randomx,,"Sorry pero tu crema dice 'NIVEA"" Asi que no ví😏",16-7-2021,1
534,J_dsb123,jd9920,,@dsugrue_23 this might help ur FPS bro if it bugs or glitchsz,16-7-2021,1
535,João Paulo Netto,jpaulonetto,,@gui09010,15-7-2021,1
536,Михаил Коренной,baton_cherniy,,о боже,17-7-2021,1
537,laurirjorh,laurirjorh,,que lindo esse teclado,15-7-2021,1
538,abonne toi 🤝🔥👈,tunezoullettefrr,,ça sert à quoi svp 😅,20-7-2021,1
539,nome,xxprocicciogamer69xx,,"MA LO SFONDO, C'È, È TIPO NON LO SO STUPENDO",15-7-2021,1
540,Emery Bouk,emery.bouk5,,@connor.evans6,15-7-2021,1
541,.,aquelecarala..._,,Charizard M,15-7-2021,1
542,adrian🧛🏻,adryaan999,,ta nuta tylko z idolem mi się kojarzy,20-7-2021,1
543,‍‍‍,mellxww_69,,give credits,15-7-2021,1
544,SourFlooded😤,sourflooded,,@sourleaked,16-7-2021,1
545,Ein acc Einfach ein,iminlwy,,Was bringt das?,15-7-2021,1
546,Rayan,rayzthecrack,,@r33153r,19-7-2021,1
547,thwl00040,thwl00040,,wow![flushed],16-7-2021,1
548,pentom3,pentum3,,근데 이거 많이 하니까 거의 잘 안되던데 왜그런건지 아시는분 계신가요?,19-7-2021,1
549,Jibe,_jibe_,,@thoomaas.le.coontee,15-7-2021,1
550,Reyth.smith,reyth.smith,,@chase_simpson12,15-7-2021,1
551,keiro.,k31ro,,"Me pueden ayudar, mi monitor es de 240hz y se ha quedado pillado en 144 pone que es limite",15-7-2021,1
552,Benedict Manalo,benedict_mnl,,@ahahahamamatay,19-7-2021,1
553,Family is everything.,domtoretto._official,,Family is everything,17-7-2021,1
554,sieucapvippro,userhqd4whbgzo,,ai vn cho mình hỏi là máy tính của mình chơi game bth 70-90 fps nhưng lâu lâu lại drop xuống 10-15 fps khoảng 3 phút 1 lần ai biết cách khắc phục k ạ,17-7-2021,1
555,Ben,williamonnen,,@liamonnen @_aidenpadilla .,16-7-2021,1
556,.,gaab.kk,,what name off you key borrd,16-7-2021,1
557,.,aoichiro_,,eu ja sabendo😎👍🏻,16-7-2021,1
558,carmonildobenunes,carmonildobenunes,,top,16-7-2021,1
559,Hate,otsp_,,@darklord3760,16-7-2021,1
560,RN99991,rn99991,,@jackchallice,17-7-2021,1
561,poulart,poulart24,,@felipesoares480 acho que é um sinal,16-7-2021,1
562,Brandon,bochen_chen,,嗯？,16-7-2021,1
563,henry,henrymelrose,,ctrl+shift+n on a google tab,16-7-2021,1
564,Agus25_f,agus25_f,,ñ,16-7-2021,1
565,Gravi Al Berwari,gravialberwari,,@gr0ps_,18-7-2021,1
566,junim,junimxd_,,rlx que quando eu tiver o pc eu faço,16-7-2021,1
567,ms_0228,2486lol,,무슨키 눌러야함,18-7-2021,1
568,user7712068446465,ggftrinidad,,Can anyone tell me why I would need too reset graphics drivers with this,16-7-2021,1
569,AdamB,adamb2900,,Ton fond d’ecran est magnifique,18-7-2021,1
570,UNLOADEDBOOCH,joebidenismybtc,,@diego_4256,16-7-2021,1
571,Zeglin02,zeglin02,,@pedro_guerr4,16-7-2021,1
572,Tik Toker,canudoooo,,@jooj_solarbr nome da mac?,16-7-2021,1
573,𝘇𝖊𝖐𝖗𝖔𝖘𝖘,zekross_le_treisorien,,Sharizar X 😳 ( dracaufeu X 😳),18-7-2021,1
574,ElPanaPesunas,elpanapesunas,,@el_poto_de_andres,16-7-2021,1
575,Jose D,josexd___,,@manuelgb2006,16-7-2021,1
576,hiii☁️,yyx_,,@schofield38 @x_xmg @x.rxb7 @_xpew شفتو شي؟,18-7-2021,1
577,janet,janetdaii,,@mmmegnn @kianachen GUYS SEE I TOLD U I KNEW SOMETHING FROM TOKTOK,17-7-2021,1
578,elmikey,katsu_ic,,vrg borré en Windows,16-7-2021,1
579,Dakota Bear,its.dakota.bear,,@dillyginbz tell your brother to do this (show him this),16-7-2021,1
580,<?>,_yxx0r,,@bobthefish2525 i probably need to do this,18-7-2021,1
581,Norberto,noah_gf0,,geral falando do teclado eu me perguntando sobre o creme,17-7-2021,1
582,Colin,colingoodridge,,Go on ur school zoom and do alt A,18-7-2021,1
583,Lucas Armes,lucasarmes8,,"Whenever my pc has to register that someone is talking my mouse starts to lag and my sound buzzes from time to time, can anyone help me out?",18-7-2021,1
584,ZzZz,zibbbii,,@user694220690,18-7-2021,1
585,🗿🤝,kirito_is_fodder,,eu daria tudo pra ter uma Pc desse,16-7-2021,1
586,Cyril Benet-Barville,cyrilbenetbarvill,,@cmbtheo,16-7-2021,1
587,courtis,courtis3,,Классные обои на рабочем столе. Где бы такие найти,16-7-2021,1
588,Absolute cro-magnon,dystinity,,Can you tell me why my pc randomly freezes?,18-7-2021,1
589,Gabriel el taco man,gabriel_the_tacoman3350,,@mrengels so u dont drop fps👍👍👍,16-7-2021,1
590,Road to 1k 🥳🥳🥳,skocz._com,,@x.alexis.is.minez.x,19-7-2021,1
591,Vape god,vape_god_puffer,,Alt + f4,19-7-2021,1
592,Budak and angkol,angkol_budak,,"PLSSS I NEED TO KNOW, HOW TO CHANGE FPS IN WINDOWS PLSSSS",17-7-2021,1
593,Stratos,stratos_kf,,what the point😏?,19-7-2021,1
594,.... .- .-.. .-.. ---,....._._..._.._,,Wieso steht da Creeemee,19-7-2021,1
595,kimetsu no yaiba kon,kny.kon,,Daily reminder eren beats Kaneki,17-7-2021,1
596,valenvenzon,valenvenzon,,lindo teclado,16-7-2021,1
597,Mish_CC,mish_cc,,@ibridoga,19-7-2021,1
598,Nicholas,ecnaun,,not sure when you would ever need to do this. if your drivers are unstable you should be updating or reinstalling them,16-7-2021,1
599,perezm2021,perezm2021,,@danieljumbo6,19-7-2021,1
600,Зігс,jqi_z1,,я думал будет бит 😅,16-7-2021,1
601,zac,lazylimitz_zac,,@rihuh,16-7-2021,1
602,F4F,anto_kokki,,@koutsionas_ δες,16-7-2021,1
603,lucas,lukitasgut,,wallpapers name?,20-7-2021,1
604,Qusai89Natsheh,itzqusai999,,لشو هاي شو بتسوي,19-7-2021,1
605,👁👅👁,lolxxhun1erxx,,can I ask a quick question when do I need to do this and how often,16-7-2021,1
606,user7346436333286,snakesarecute_05,,Guys do it it’s worth it it makes a nice bloop,16-7-2021,1
607,Josh Munro,joshmunro22,,umm my screen is pink now,16-7-2021,1
608,Xyar,xyarzy,,lol you tried with the drumming no hate btw great video,16-7-2021,1
609,*Basic white boy name*,other_sammm,,@ilyember boop🙂,16-7-2021,1
610,Marcelo santos Sa145,antonymanoel_snt,,@um_cara_muito_bolado,16-7-2021,1
611,jiho_yang_,jiho_yang_,,I'm dumb but on what occasions is this for?,16-7-2021,1
612,alejo5751,alejo5751,,che es normal que en mí apu la utilización del gpu esté en 70 baje a 0 o 69 y baje a 2 constantemente cuando estoy solo en YouTube? es un r5 4650g,19-7-2021,1
613,user7346436333286,snakesarecute_05,,But what does this do?,16-7-2021,1
614,Eduardo,dudu.0502,,WALLPAPER PLEASE,17-7-2021,1
615,seb,sebblol,,@dylanrain106,17-7-2021,1
616,PinguWave,pinguwave,,worst fake typing ever,18-7-2021,1
617,Hi,xhostface,,@oliver_ernest 😂,17-7-2021,1
618,Nate,1nxnly.nate,,lemme save,15-7-2021,1
619,Максим Айрапетян,airmaki,,для чего сбрасывать?,17-7-2021,1
620,Sir_FruitloopsTTV,sir_fruitloops,,How you make a background live ?,17-7-2021,1
621,spongebob,goaz_,,@pc_snofnof try it,15-7-2021,1
622,Khai You,khaiyou0,,@mellostea might be helpful idk,16-7-2021,1
623,robin,rxob1n,,@erwando__,15-7-2021,1
624,UCHIHA . D . KIRITO,uchiha.d.kirito,,"Me kede sin pc, gracias",13-2-2022,1
625,Teo,teolvledup,,What’s the point of this? Seems helpful but idk lol help,16-7-2021,1
626,GamingLegend680,gamingl3gend680,,@hannahbakerschile,16-7-2021,1
627,WhyYouStoleMySandWich,radovan_ofc,,@denisekneu55,15-7-2021,1
628,Harith .,ritzqte,,@iiqtnaj oii try ni,15-7-2021,1
629,NutMaster15💀,nutmaster15,,@stepbroryze,16-7-2021,1
630,dyj292lx25z7,dyj292lx25z7,,sus,15-7-2021,1
631,.doodle_mask,.doodle_mask,,@be.monke,16-7-2021,1
632,Ludwin Contreras,ludwincontrerasdiaz,,Yo had you get that background it looks sick,17-7-2021,1
633,⁉️,someaveragethings,,Can someone explain to me what is a graphic driver,16-7-2021,1
634,Noaholsen06,noaholsen06,,The lotion in the background😏😌,15-7-2021,1
635,notethanlol,not.ethan.lol,,@wv3.caelen @unknown_entity178,15-7-2021,1
636,Musical Posts✨,musicals223,,@cameronhallett,16-7-2021,1
637,Hey it's Marlon,el.dababy,,@pato.wtf,16-7-2021,1
638,3nter_,https.arturek.com,,ja to już robiłem na elekcjach to resetuje karte graficzną,15-7-2021,1
639,Louis,the_mr_telephone_man,,@d0nuutt @chikenwings01,15-7-2021,1
640,Bjarne.r07,bjarne.r07,,"Dan noch ein Tipp von mir , mach dein PC an wenn du auf der Tastatur schreibst",15-7-2021,1
641,MikeyDePasquale,mikeydepasquale,,@j_bauer5,16-7-2021,1
642,dave_9.1,dave_9.1,,Pls tell us how to get moving home screens,15-7-2021,1
643,⚡️thunder⚡️,d3m0nsl4y3r_fan,,Amazing background 🤩,15-7-2021,1
644,jaina,ilikechickensandwhiches,,i did this and my drivers crashed and now i have to pay for a new one 😭😭😭,17-7-2021,1
645,Dude,dudes_earphones,,Me just loving your pc background,17-7-2021,1
646,Caleb_Miller10,caleb_miller10,,@gavin_zimmer,16-7-2021,1
647,monkey.d_luffy23,mon.d_3d_2y,,@naruto_world007 @mk_605,15-7-2021,1
648,Sandro Samir Pereda,shunrai._.09,,mi pantalla no responde,15-7-2021,1
649,mike_mar12,mike_mar12,,@_.kakaashi._ etsi spamaraei h ely,15-7-2021,1
650,loukaas_,pi.loco7,,@stavroskarampatsos 🤨,15-7-2021,1
651,Matt N,gameboi_carti,,@thombertrand_,16-7-2021,1
652,m30r,romeor46,,name your keyboard's brand?,15-7-2021,1
653,idgaftbh_,idgaftbh_,,can u make it saveable,17-7-2021,1
654,👁👄👁,celetapti,,"Pin this
🛸　　　 　🌎　°　　🌓　•　　.°•　　　🚀 ✯
　　　★　*　　　　　°　　　　🛰 　°·　　                           🪐
.　　　•　° ★　•  ☄
▁▂▃▄▅▆▇▇▆▅▄▃▁▂",15-7-2021,1
655,jojo,say0s,,@seb.rezz,15-7-2021,1
656,Wena oczywiście,marcweli__,,How to open graphic card settings,22-9-2021,1
657,davidkam,davidkamintski,,@userrv5cjbiwqk,15-7-2021,1
658,.,mrlama321,,What’s the keyboard called,19-9-2021,1
659,Fisher,fisherr8,,@dannyst9,15-7-2021,1
660,Gael Mora,gael73409773,,@naner1510,16-7-2021,1
661,Ivan,raftynitgmct,,"Believe in Jesus Christ and you will be happy and saved 🥰 not trying to force you, just think about it, please....",16-7-2021,1
662,Niko,tacticalnikoo,,@_dimitrik,15-7-2021,1
663,Ryus,tsumbame,,daily pc tip: don’t hit ur fucking keyboard u will open a lot of apps,17-7-2021,1
664,Joshy,skyy_joshy,,@mlneedscondoms idk but yeah,17-7-2021,1
665,L_FIN,meoww_mee,,what is that keyboard it looks Soo cool,15-7-2021,1
666,🧍🏽,daniel.dmvv,,would be helpful if i had a pc😔,17-7-2021,1
667,nunubtw,nunubtw,,"Thanks, that helped a lot",16-7-2021,1
668,tsuk,sensuaki,,@chopocompik слей его,15-7-2021,1
669,Tha Alone'man,catberry_t,,คลิปนี้สนับสนุนโดย Nivea,15-7-2021,1
670,Mehran,man.like.mehran,,@_.naqib2,15-7-2021,1
671,Nathan Maynard,nathanmaynard4,,@_c0zmic,16-7-2021,1
672,🦍,lobianiguga,,dont do it guys if u have bad pc or smth i did it and my pc got some errors i reinstalled windows by using cash .-.,15-7-2021,1
673,Blair.Ŷ,.younge,,@therealspongebob24,17-7-2021,1
674,🥲,speedmydaddyy,,@smellyushygushy,17-7-2021,1
675,ItzJoeeey,itzjoeeey,,"U literally copied @periahluv word for word, get your own content bozo",16-7-2021,1
676,dog.,dogdotz,,Background name ?? 😂😅😅,15-7-2021,1
677,RAFA ™️,rafariz_,,How to get that wallpaper,17-7-2021,1
678,kuba Salawila,cleptic,,@itsaidro,15-7-2021,1
679,Quinn,quinn.is.cool.erthanyou,,Bro why did it give me a warning when I followed you?,6-12-2021,1
680,Poepenholleke,user6940269402,,Keyboard?,15-7-2021,1
681,Al-kinani Hussein,alkinanihussein,,@tz_cassius buh als ge da nodig hebt,15-7-2021,1
682,โทบิรามะ,nonglucksathidetkunchon,,ได้วิธีเแกล้งเพื่อนละ,15-7-2021,1
683,Nassime,cestdumelontv,,On a tous vu le lubrifiant sur le bureau hein 👀😂,15-7-2021,1
684,houston,slax_16,,@metta.plays.apex.legends,16-7-2021,1
685,˚⋆꒰ఎ ʜᴏɴᴏʀʟᴇғᴛ.ᴇxᴇ ໒꒱⋆˚,extremer.edit,,ผมลองแล้วจอฟ้า555,15-7-2021,1
686,J.H.ARTS,j.h.arts,,Qd sa freeze sur ton pc et sur fortnite fait sa @abdv_yz25,15-7-2021,1
687,super luigi,yvernius,,I LOVE THAT WALLPAPER,15-7-2021,1
688,Hamilton182,hamilton182_,,Windows + L instantly signs you out :),16-7-2021,1
689,cjoaolucas693,cjoaolucas,,o cara trocou o wasd pelas setas... que pecado,17-7-2021,1
690,user5253944494134,lil_dud69,,@jason_inc8,17-7-2021,1
691,just josh👉🏻👈🏻,333red.g,,@spectre_sh,17-7-2021,1
692,James,mincyoxy,,@justlnmarquez @sickened.josh yo had to send it again,16-7-2021,1
693,Hi,miles_hh6,,@merlots4dz,15-7-2021,1
694,jean,jean_lcm,,@jelovebruneetvous JE SUIS UNE RACAILLE DE SHANGAI,15-7-2021,1
695,Dante4L,dante4l,,@emitofed,16-7-2021,1
696,A,zxcvop81,,XMRing คือไรหรอครับกินcpuเยอะมาก เหมือนโดนแอบขุดเลย,15-7-2021,1
697,LukAF1981,lukaf1981,,@theonlyparaline,15-7-2021,1
698,logan fittro,loganfittro,,@wyattrezek,17-7-2021,1
699,Siuuuuu,bullargillarjag,,Everytime u in a game click alt + F4 to boost fps,15-7-2021,1
700,Hamza ⚡🇲🇦,.hamzatfl,,Mon pc est figée depuis tout t'a l'heure c'est normal ?,15-7-2021,1
701,Idris,cruzshadowflex,,Coole cream im hintergrund👉👈😋,15-7-2021,1
702,Angel,angelg.503,,@alexisavaloss,17-7-2021,1
703,MICAH,micah_chillin,,@yourjoel_,16-7-2021,1
704,✨curry muncher✨,urfavcurrymuncher911,,@russ_who @codzy_l,15-7-2021,1
705,Cayden,caydencaydencayden,,Shift + windows + s screenshota,16-7-2021,1
706,Richard Balla,ricsi_xtre,,@domi_1246,15-7-2021,1
707,viny rs,vinyrs,,a música com putario ou eu to louco,16-7-2021,1
708,pasquazzis,pasquazzi,,@just_saru,15-7-2021,1
709,Bayron Daniel Hernan,amathysthorne,,Eso solo reinicia los gráficos por si se bugea,16-7-2021,1
710,?),xdwoshikawa,,@chopocompik правда?,16-7-2021,1
711,skyler melton,skylermeltonn,,@gus.orton,17-7-2021,1
712,hamid6418,hamid6418,,@kuropi00 this,15-7-2021,1
713,lochie jones,lochojones,,@heyman151515,17-7-2021,1
714,KIᗴᖇ独,idk_.20020,,@zukotf,17-7-2021,1
715,alex,alex_alexiou08,,@pvlddd,15-7-2021,1
716,Huh?,shaqschild,,Wut is it for tho is to to like reset ur games?,17-7-2021,1
717,〽️Jose,jose.yurrr.02,,@jaydodiezzz let’s buy a pc once prices go down so we can play whatever game we want,17-7-2021,1
718,pepe,aaaa13241,,alguien sabe pq me bajaron los fps? tengo laptop antes iba a 280 en cs y ahora a 180 o 160,17-7-2021,1
719,Metal Gear rising fan,metal.gear.rising.fan,,@mellabella001,15-7-2021,1
720,pjeterson,pjeterson,,"wow i noticed the song first, try bay city you wont regret it",23-6-2021,1
721,,tvoje_mama_z_bazaru,,my computer is off but monitor isn't how do i turn on my computer?,15-7-2021,1
722,Dude,interestedinscience,,Kann man durch die Grafikkarte Ghosting Probleme erhalten ? Frage da ich auf jedem bisherigen Monitor bis jz ghosting hatte,16-7-2021,1
723,Zay,zavygravy4,,Leave @acrello alone,21-6-2021,1
724,merkey,merkeydang,,Alt+f4,15-7-2021,1
725,baker,bakerotb,,@basenwestcoast,16-7-2021,1
726,pixo,ffl.dev,,@user42069694206922 alt+f4,17-7-2021,1
727,Aqe,therealaqe,,Who else expected the best to drop in the song lol,15-7-2021,1
728,Nøxy,noxynocks,,@steegzz,16-7-2021,1
729,BlueSkyll,blue_skyll,,What is your logiciel for make a wallpaper of charizard,23-6-2021,1
730,legally_not_Ethan,legally_not_ethan,,Can you do this with windows open,25-11-2021,1
731,I NEED HEALING,kennyw_3,,Dope,17-7-2021,1
732,Loaf,lawfullloaf,,what does doing that fo,17-7-2021,1
733,Mossymemes,mossymemes,,@mossy_z,15-7-2021,1
734,Connor a,connor_r34,,@xaviernelson7829,15-7-2021,1
735,Name,swimmingpantsbebussin,,WHY THERE IS LOTION,15-7-2021,1
736,Joseph,ctrlbrezy,,@s_mall22,17-7-2021,1
737,pablo,paabloo00b,,Instructions unclear my pc blew up,17-7-2021,1
738,kecoak,anakgblo,,buat apa itu?,15-7-2021,1
739,ign: oatrx,oatrx,,balls,17-7-2021,1
740,el zorrocraftteado,elzorrocraftteado,,"Alguien sabe donde encontrar el fondo de pantalla, pero animado?, ya busque por wallpaper engine y otras páginas, pero no lo encuentro",16-7-2021,1
741,Oh,_awigwog_,,1nD0 S3nD1r1😏,15-7-2021,1
742,Nekomercy,nekomercy269,,how can u made that screen,15-7-2021,1
743,affanjbr,affaannjbr,,@diikaaaaaaaaa pas fivem coba restart graphic driver gini,15-7-2021,1
744,8️⃣,sayuj.c,,what does resetting graphic data do?,17-7-2021,1
745,Charlie,charlielu_wh0,,@aditya.muddapu do this 5 times a game to get infinite frames,17-7-2021,1
746,Moe lester,alpha_giga_chad_male,,@joshuag.2008,15-7-2021,1
747,Ymon,aymenf3,,نيفيا وش يسوي هناا 🌚🌚,16-7-2021,1
748,Ash Milson,pineapplo.milyson,,whats the specs on the custom keyboard tho,17-7-2021,1
749,Michal Biskup,.michaalek,,What is it for,15-7-2021,1
750,.,muhaha1234567,,name pad ?,15-7-2021,1
751,🔥,tukangsarkas0,,Alt + F4 thats real not fake,15-7-2021,1
752,Stephan shaw,__shaww,,@i_manini_7_,16-7-2021,1
753,🙃,zoyee_,,c quoi ton clavier,15-7-2021,1
754,LOSTJAX,lostjax404,,@www.uzi,17-7-2021,1
755,Naruto sucks,polizeikrefeld,,@bens_hardware Stimmt das und bringt es viel?,15-7-2021,1
756,imjustbetter88,imjustbetter88,,@fornitemaster6969 that setup and keyboard tho 🥺,15-7-2021,1
757,JeremyxD__,jeremyxd__,,Alguien sabe porque mi compu le actualice el driver y ahora va a 90 fps y antes iva a 600 y el juego por mucho que cambie los gráficos va a 90 igual,17-7-2021,1
758,RonanByrne,rbyrne00,,@charlie67553,17-7-2021,1
759,yus_,riyus._,,What will happen if I do that?,15-7-2021,1
760,Tpp Gui Desbois,tpp_gui_desbois,,@naruto._.mha._,15-7-2021,1
761,💀,z.r.d.1,,Keyboard name?,15-7-2021,1
762,🌻Lucas🌻,black_lucaz,,best wallpaper,17-7-2021,1
763,Mathew Saldaña,darkyghost789,,@fl4vioo,17-7-2021,1
764,イドリス 🐺🖤,jlkuroashi,,@wael_mdj,17-3-2022,1
765,Entity,entitynum1,,@its.me.ally14,15-7-2021,1
766,Dan Burn the goat,justsammm,,How do u get that Home Screen?,20-6-2021,1
767,Dannoklos,danyelnikolos,,What does restetting them do ?,17-7-2021,1
768,niczus,niczus,,@niezesrajsiekc,15-7-2021,1
769,Professor Dad,professordada,,@mikel2760,17-7-2021,1
770,是自由的味道,frank878696,,求解,15-7-2021,1
771,broly,onlylamenigerssaythat,,what does alt F4 do,15-7-2021,1
772,TOE,t0egoat,,@tomspam999 look at his other vids could help u,17-7-2021,1
773,no.,elraafi2008,,gimana ya biar ada kalender gitu si taskbar ? gw gak ada,15-7-2021,1
774,zeref solos your verse,carrot_ar1,,how do i get that back round i need it,17-7-2021,1
775,•g,g1ul_.1,,@victoriadedavid CHE FIGO,16-7-2021,1
776,Joshua 🩸😎,moncler.joshh,,Mega charizard 🤝😩,17-7-2021,1
777,Jelly-JuiceHD,riley_lunardi,,Alt f4 ?,17-7-2021,0
778,noa,urb1tchnoa,,"i did that once and my screen just turned bright pink, why?",17-7-2021,0
779,CookingStone,cookingstone,,or you can restart the pc and it will refresh all the parts,17-7-2021,0
780,ine,ultrhabug_ine,,banda mi pc ya no funciona tips?,17-7-2021,0
781,Alex,alex_hatecrew,,link to the wallpaper please (:,17-7-2021,0
782,𝖒𝖆𝖗𝖈𝖔🐢,hiratamarcoo,,@MATHEUS Santi,17-7-2021,0
783,Человек,riolu_of_doom,,Ooh charisard,17-7-2021,0
784,PaP,duckoo_,,I like your background,17-7-2021,0
785,.,macaco__angolano,,pra q serve isso?,17-7-2021,0
786,Aye_y0o,aye_y0o,,Where u get that keyboard,17-7-2021,0
787,Megan Fall,meganfall,,@paco.web,17-7-2021,0
788,Xonva V8,callmexonva,,@just_marslol,17-7-2021,0
789,andy,wintercatssss,,"Sus 😱😱😱😱😱😱😱😱😱😱😱😱😱😱😱😱😱😱😱😱😱😱😱😱😱😱😱😱
Sus 😱😱😱😱😱😱😱😱😱😱😱😱😱😱😱😱😱😱😱😱😱😱😱😱😱😱😱😱
Sus 😱😱😱😱😱😱😱😱😱😱😱😱",17-7-2021,0
790,Meenice510,meenice510,,Don’t mind me just watching 🙂 🍿,17-7-2021,0
791,Gabriel Maa,gabomons_681,,Alt + F4 y Enter,17-7-2021,0
792,Ryan Strope,ryanstrope65,,@brandonsydsidonio this fool?,17-7-2021,0
793,🌚,cheesechugger,,Thanks bro,17-7-2021,0
794,и тебе привет,_odin.dwa_,,@chopocompik,17-7-2021,0
795,i,lnvested1,,how do y'all get those live wallpapers and can you send the link,17-7-2021,0
796,Erick.starr,erick.starr,,let me save,17-7-2021,0
797,🇭🇷,erik_sb_,,Was bringt das?,17-7-2021,0
798,:),takksha,,@toge1numaki,17-7-2021,0
799,kirym0,ifi7576010314,,y para q sirve,17-7-2021,0
800,Chilabingbanbigongbah,legendairy_milkman,,@dill._.dill @not_josh_owo,17-7-2021,0
801,👑💎🔥,micah_against_theworld,,Daily reminder lefty’s are better then righty’s,17-7-2021,0
802,Gabiel Milstein,gabielmilstein,,thks,17-7-2021,0
803,chewie2006,chewie2006,,if a hundred million billion likes ill do this on one of the work computers. it runs off windows 98 so....who knows whats gonna happen 😂😂😂,17-7-2021,0
804,Darko,darko.1_,,@artist1up,17-7-2021,0
805,⠀ ⠀ ⠀ ⠀ ⠀ ⠀,shootvstheworld,,u definitely bought ur likes wtf,17-7-2021,0
806,Marzzy,marzzyuwu,,@yooalejandro,17-7-2021,0
807,Shawn Sabaricos,shabaricos,,what's the name of the background?,17-7-2021,0
808,Cabino Deeno,ali_the_wadinator,,"Bro u this saved me for some reason, my game wouldn’t launch and I saw this vid and I tried it to see if it works launched the game and it worked",17-7-2021,0
809,Meme Do0d,blokdudo,,so any importance to this? like can you name some situations where this helps the most?,17-7-2021,0
810,⚠️Spam like= block⚠️,gangpuffosadelgelato,,🦄UNICORNO PUFFOSO DEL GELATO🍦 IL MIO COMPITO E METTERLOIN OGNI VIDEO ✔︎ ENTRA NELLA GANG,17-7-2021,0
811,Pacco,nikesceo,,@yakobu.716,17-7-2021,0
812,Jesus.,jesusscuhh,,What keyboard is that?,17-7-2021,0
813,Mama mo ain't simp,wsg_bitchess,,"i think my computer is broken.
i was playing gta san Andreas yesterday and i turned off my com last night
and when i opened my pc again it was gone",17-7-2021,0
814,🗿,ojeeh,,why does my pc keep blue screening. half of the time I won't even be doing anything and it happens,17-7-2021,0
815,☂️Anime ?,suisheee,,Plz say name wallpaper,17-7-2021,0
816,🅰️,abdelolk,,Ⓘ Dieser Kommentar steht nur Nutzern von TikTok 𝙋𝙧𝙚𝙢𝙞𝙪𝙢 zur Verfügung.,17-7-2021,0
817,Cystepmadness,cystepmadness,,we have the same monitors,17-7-2021,0
818,juansxx7,juansxx7,,"Si me funciono, se apago y al segundo hizo un ruidito y prendio normal pe",17-7-2021,0
819,i am back,stormy.stalker,,do you watch demon slayer,17-7-2021,0
820,Snacks,goldenjohnnyboy,,Does this work on Mac?,17-7-2021,0
821,Jack😊,lilhatestheworld_,,what does it do,17-7-2021,0
822,Vilma Mendoza,vilmamendoza14,,N,17-7-2021,0
823,Josue Gutiérrez826,josuegp_20,,ñ,17-7-2021,0
824,Dhavan,dhavan.wyaa,,@jaytin905,17-7-2021,0
825,AtJohn,atjohn_,,How is that beneficial? Does it update the drivers or….,17-7-2021,0
826,Justine,justineyburan13,,Hey bro!! my pc has this black circle on the screen how i fix it,17-7-2021,0
827,Gms,g.m.s69,,Step one: get a p c 😭,17-7-2021,0
828,spelt it wrong on purpose,bizzarres,,lotion,17-7-2021,0
829,gurllllchitosofine,gurllllchitosofine,,@destroyercharger,17-7-2021,0
830,🌙,elliswb,,So what does this acctually do curious x,17-7-2021,0
831,Avery Slice,averyslice0,,it beeped in it scared me half to death,17-7-2021,0
832,Jesse_duma**,jesse_duma0,,My keyboard broke and I won’t get a new one till the 3 rd next month,17-7-2021,0
833,Oscar Alejandro Sanchez Gamez,oscarsg_,,@ssenoraa,17-7-2021,0
834,Vic,vicfrohmeyer,,This guy thinks this shits like a flex 😂,17-7-2021,0
835,Fw.cLiT,fw.clitoris,,@fr1tzi unlucky timing,17-7-2021,0
836,💂🏻‍♂️,danilbes7,,Что за обои,17-7-2021,0
837,.,slxwmz,,Any one know how to fix infinite blue screen?,17-7-2021,0
838,sebashidalgoj,sebashidalgoj,,why u have lotion on the right side of the desk 😐😐😐,17-7-2021,0
839,exgyesggvxss2,glizzygladi2,,@assassin_365,17-7-2021,0
840,Kevin Ormaza Cevallo,kevinormazac,,y si no tengo xd,17-7-2021,0
841,Jean Francisco Coelho de lima,thejeanzin,,@marm00taa será que funciona?,17-7-2021,0
842,ActulyizGilly,one2manydonuts,,Remember to delete system32 for the best performance,17-7-2021,0
843,Jeffrey Larsen,jeffreylarsen0,,"Daily Tik Tok Tips
pt 1
Don't put the MOST IMPORTANT key under the account button",17-7-2021,0
844,Blank,blindinitiative,,What mouse pad do u have i will drop a follow and watch some videos if tell me please,17-7-2021,0
845,stoopid,qu3t3a,,"bro please tell me there's a shortcut for resetting the audio drivers, these windows updates are driving me mad",17-7-2021,0
846,kodypulleine,_kodez,,Alt + F4 to increase FPS,17-7-2021,0
847,( ͡° ͜ʖ ͡°),bruhsandwich69420,,the best one is alt + f4,17-7-2021,0
848,7raw.ty,7raw.ty,,que monitor usas?,17-7-2021,0
849,D4C,m00dyblues3,,Doesn't work,17-7-2021,0
850,Cayden,cayden51822,,I dont really play on my pc anymore just my ps4 but i love watching these incase i ever go back,17-7-2021,0
851,JM,jude__moran,,@alexporgan,17-7-2021,0
852,mlodyskate,himalayandude,,what's the keyboard,17-7-2021,0
853,Tommy Gomez,tomgtheking,,I have that same wallpaper how u make it move,17-7-2021,0
854,Faked53extape,sorryimgreat,,oh ok nice love,17-7-2021,0
855,>),thuuslove,,Ichigo solos your verse,17-7-2021,0
856,Pedro Verissimo,verissimo2206,,@w1z_skate,17-7-2021,0
857,TheBlizard Blitz,theblizardblitz,,"Bro I don’t even have a PC, how did I get to 39??",17-7-2021,0
858,Raul Donato,raulzito_gameplays,,@miguelxxin.com,17-7-2021,0
859,ADRIANメ,adrianeeeeee_7,,what are you searching and why are you druming,17-7-2021,0
860,Shinji,duckiegoquack,,I’ve got one. Don’t use the snipping tool instead use Win+Shift+S to take screenshots,17-7-2021,0
861,Thomaz Vilela,thomazvilela,,E esse gel ai? 😏,17-7-2021,0
862,Sargsyan,.narek,,@michaelsalamyan @artyom_yan___,17-7-2021,0
863,bubbles,sheluvzbubbles,,@shvnezy,17-7-2021,0
864,Andrés,xxxadiezxxx,,What is the name of your keyboard i want one,17-7-2021,0
865,Tyler Bate,tylerbate21,,@yourmothersfuckbuddy,17-7-2021,0
866,Bone_ripper,bone_rippur,,Why do u have wasd to arrows,17-7-2021,0
867,Hentai addict,dnw001,,I got a new graphics card today aswell 😂,17-7-2021,0
868,bakedbeans,baldskaijacksonshair,,bald skai jackson’s hair here,17-7-2021,0
869,Orv fan,omniscientreader1863,,Will this help anything to my potato laptop?,17-7-2021,0
870,mike_brown15,mike_brown15,,where did u get the wall paper?,17-7-2021,0
871,David Wakim,davidwakim,,sometimes my screen goes black and not even that resets it ....,17-7-2021,0
872,Call of duty!,call_of_duty.gameplayz,,Will it let me play gta 5 more smoothly?,17-7-2021,0
873,BBergeson,bloweyforce_,,Will it work on laptop also?,17-7-2021,0
874,tiktok,ompalumpau3737,,how do i fix my pc if it keeps freezing?,17-7-2021,0
875,Izunna,izunnaaaa,,Black clover>one piece,17-7-2021,0
876,coda,codsssss,,@phillip_shawty,17-7-2021,0
877,rizzi,r1zzii,,don't use on amd,17-7-2021,0
878,👀,kids.r.delicious,,how did u get the live background?,17-7-2021,0
879,⠀ ⠀ ⠀ ⠀ ⠀ ⠀nick gurr,doctor.m.morbius,,Pro tip: Play Hollow Knight its amazing,17-7-2021,0
880,Ale,aleeexbp,,Whats your keyboard?,17-7-2021,0
881,Swznn_psz,swann_psz,,tataki est partout,17-7-2021,0
882,Nobody,miamibaconpapi,,What’s the point of this?,17-7-2021,0
883,Clive Jonathan,clivejonathan,,@fab4_lin IMI,17-7-2021,0
884,Huaquanシ,hithere179,,What key caps for you’re ducky I need to get different key caps,17-7-2021,0
885,👑༺ItacʜᎥ_νιвєѕ༻👑,itaxhi_vibes176,,Ehm Mein Pc geht nicht mehr an?😬😬,17-7-2021,0
886,Acdsn,aldonsellner8,,Cool background,17-7-2021,0
887,Dom.toretto,domtoretto.official_fmly,,family✊🏿,17-7-2021,0
888,Footsalad,foootsalad,,Nice wallpaper,17-7-2021,0
889,Jacob Francis,jfrancis757,,Selling a tower,17-7-2021,0
890,dylqwf4ue83z,dylqwf4ue83z,,@adrikxs,17-7-2021,0
891,Макс,drmax07,,особенно после установки 10 винды разрешение слетает,17-7-2021,0
892,dstrysko,elonmvsk,,What caps,17-7-2021,0
893,Luke Holifield,7steel7,,@holidoesmusic Perhaps a look at this guy.,17-7-2021,0
894,Jimmy Lugo,jimmylugo2,,Donde descargo esos wallpapers gratis? 😩🙏🏻,17-7-2021,0
895,I.love.poison,i.love.poison,,I really want to type on that,17-7-2021,0
896,oJaoksks,ojaoksks,,já sabia,17-7-2021,0
897,Office gadgets,officegadgets,,😆,17-7-2021,0
898,DxCR1NG3xD,dxcr1ng3xd,,I use linux,17-7-2021,0
899,trapeznikovia1,trapeznikovia1,,Удобно при обновлении драйверов на нвидиа. Они долго ставятся и потом какое-то время подтупливают,17-7-2021,0
900,ed( ͡° ͜ʖ ͡°),._.eddy_g,,esa cremita nivea se mira sospechosa XD,17-7-2021,0
901,∫☋❡ᗰꍏ ♭ꍏ↳↳∫ ☾☈ꍏ☾ϰꍏ,rachels_pet_hampster,,Alt f4,17-7-2021,0
902,Germansheapardhusky,thegermansheapardhusky,,how do you get that background?,17-7-2021,0
903,Austin Bennett,goochgoober,,"I have windows vista, help.",17-7-2021,0
904,Jorjé,smellywrinkle84,,What do I do if my computer keeps freezing? Pls someone help.,17-7-2021,0
905,devdemp,devdemp,,Duh,17-7-2021,0
906,J,youngnigerianbaboon,,Also you should also get an ad blocker it says you so much time and money especially if you like anime and don’t wanna buy a subscription,17-7-2021,0
907,shart police,joe420nuts69,,"remember, If you think your pc isn't running fast enough, delete system 32",17-7-2021,0
908,Brody Garretson,brody_garr,,Keyboard?,17-7-2021,0
909,Солёная сука,b0redg,,@zaydders,17-7-2021,0
910,Javi 🥶,javi0906,,Y’all guys recommend me a good gaming mouse plz,17-7-2021,0
911,Davi,neymar_junior_entrou,,alt + f4 makes the screen😏....,17-7-2021,0
912,alibabacorp,t_challa1,,"спасибо, комп сломал.. 😞",17-7-2021,0
913,David,davidmogollon11,,"todo bien, tranquilo y todo pero para que sirve la crema ?",17-7-2021,0
914,L,user1859256851380,,No one else notice the moisturiser,17-7-2021,0
915,LuvMartin._,itz._martin3,,@.deryck,17-7-2021,0
916,Cheseeee.e,cheseeee.e,,Alt f4 does that too,17-7-2021,0
917,Timmy Ellison,timellison01,,When,17-7-2021,0
918,H£™️,h1.otf,,@theofficialh1__,17-7-2021,0
919,Dudu®,duduc575,,qual o nome do monitor ?,17-7-2021,0
920,Raphaël +,raphadlt187,,@azored_sama,17-7-2021,0
921,🇧🇷,027.davii,,@chuto.anao,17-7-2021,0
922,Newport,borto_boi,,"For a first pc, what should I get? Anyone have any suggestions?",17-7-2021,0
923,Ryle Alvarez,rylealvarez,,When I do that it disconnects my monitor until I restart. I’ve tried unplugging and plugging in the hdmi but no,17-7-2021,0
924,SLZ,slz.sx,,fy,17-7-2021,0
925,david :),_dhavi,,oye y la crema Nivea para que o que owo?,17-7-2021,0
926,Ryan Maina,youngstaryan,,Why the lotion tho?,17-7-2021,0
927,ButterNubz,butter1679,,Yooo that background 😯😳😳,17-7-2021,0
928,7raw.ty,7raw.ty,,what monitor do you use?,17-7-2021,0
929,Renátó Varga,vrenato1016,,"I dont have graphics driver, what should I do?⚠️",17-7-2021,0
930,Joey Scarp,jsteezy6,,keyboard???,17-7-2021,0
931,Rasher _YT,rasher_yt2,,@taakeeeee,17-7-2021,0
932,Name,jack.zorma,,let me save,17-7-2021,0
933,wyd,tywyd.206,,@hxxder,17-7-2021,0
934,_mike.mtm_,_mike.mtm_,,@melltoogoated @jo5hblu3 @jaymc1122,17-7-2021,0
935,HAYASE,hayase63,,"As if I have a computer
😂😂😂",18-7-2021,0
936,😏,weightedblanket8,,Where’d you get your keyboard from ?,17-7-2021,0
937,What a name 😮‍💨,deadbydaylightllll,,"@ta_fuerte_el_asunto1：i don't have enough money to buy a pc, i'm going to sell my little brother",17-7-2021,0
938,Rmskee.,romz.11,,umm can i ask a question? how to record?,17-7-2021,0
939,Cody Delong655,codydelong0,,Can someone tell me how to get the live wallpapers. It would be greatly appreciated!,17-7-2021,0
940,boydrisner3,boydrisner3,,Omg I’ve been trying to fix that for weeks thank you,17-7-2021,0
941,Will 🫠,duhh_willz,,I NEEDED TO FIND THIS THANK YOU,17-7-2021,0
942,Pedro Lucas,pedro_t67,,se fosse ruim n estaria ali p usar,17-7-2021,0
943,Денис Фельмен,maxhit_,,"пожалуйста, помогите кто знает, у меня после использования сочетания этих клавиш очень сильно стал лагать ноутбук и я никак не могу это исправить",17-7-2021,0
944,JINX,psychoarchemy,,@xequisxcincox,17-7-2021,0
945,Adam,adam9669martin,,Is this the 100th time I’ve seen this shortcut????,17-7-2021,0
946,i❤️mom,.sxnan,,Cwpiscivsäivduöwvpducwzocsitxsotwxotwxowzxwpucepucwüucwüuwcpuwcwzg,17-7-2021,0
947,Not_Jayden,globul4k,,@o_its_natalie @andreas_tellez @jacklo.l @karmzone @ciownly,17-7-2021,0
948,Tristan Ivan Guino-o,ivan.g88,,@invidergaming @dwaynerileyguino-o,17-7-2021,0
949,✨ Tsyrien ✨,tsyrien,,@ttvattentionwhor also mega char,17-7-2021,0
950,Ricardo Roa,ricardo._.2110,,@paco.web 😳,18-7-2021,0
951,WhoIsGustavo?,itzgustavo,,What wallpaper is that?,18-7-2021,0
952,TAMAULIPECO GAMER,tamaulipeco_gamer,,@dankou.u pa que será esa crema brócoli?,17-7-2021,0
953,3_53.am,.3_53.am,,How u get life background ?,17-7-2021,0
954,Alex-3927,alex32980,,Does anyone know how to get rid of the fn control on a Asus laptop? It’s annoying having to click the fn button and then the button I need.,18-7-2021,0
955,Sir Ramsey,thatguypeanut_,,Where do I buy a new graphics card for a two year old Desk top PC?,18-7-2021,0
956,Zílen,zilen_,,"Otro truco, si descargan por Microsoft store la app llamada ""Translucent TB"" se pone la barra de abajo transparente",18-7-2021,0
957,L3n630184nd,l4jf7ne3jzbb,,it's even funnier if you change ctrl + v with it,18-7-2021,0
958,Tomisin Odukoya,tomi_jah,,please can you make a video on how to fix wifi problem when it refuse to come up on a pc,18-7-2021,0
959,Jordan Morales,xlifeyx,,WHERE WAS THIS MY SHOLE LIFE?!?!,18-7-2021,0
960,Tik Toker,funky_cold430,,That wallpaper goes hard,18-7-2021,0
961,Jordan Cut,jordancut8,,@prettyboyfredo_12,18-7-2021,0
962,Ray Man,rayman804,,@rlpebanana,17-7-2021,0
963,DIEGO MARCOS NAGAMII,diegomnagamine,,wallpaper link pls,17-7-2021,0
964,GNR_Akatsuki,gnr_akatsuki,,Is that mega charizard x if so that’s dope,17-7-2021,0
965,JinZee,thejinzeebee,,"isnt it refresh, not reset?",17-7-2021,0
966,Nexu,watchnexu,,Wait you’re telling me someone actually dropped a unique useful tip in one of these?,17-7-2021,0
967,Gordon,grottan.olund,,cool zard background,17-7-2021,0
968,Shillingmesoftly,shillingmesoftly,,"5K BNB HC Presale! The biggest pre-sale of the year is on July 21st! Doge to the moon! 🚀
🙏 $egoD 🙏
#DogeReversed ◀️",17-7-2021,0
969,eknee14,superironranger,,CTRL SHIFT ESC is the best one,17-7-2021,0
970,xavier,xavierisshungry,,@iluvmommymilkers3,17-7-2021,0
971,ZarkCityRP,zarkcityrp_,,Black screen what u do?,17-7-2021,0
972,Yaku,yakufox,,bro just use translucent taskbar,17-7-2021,0
973,popspoops88,popspoops88,,Giving pc tips but don’t have a clue how to position a sentence to be visible.,17-7-2021,0
974,El Efecto,l_fecto,,para que sirve?,17-7-2021,0
975,mike garcia,contra_ctrl,,And what does this do? Like makes them go into default or just resets,17-7-2021,0
976,Sistema,_sistema__,,@d1n04arl0s,18-7-2021,0
977,Charlie 360,charlie6930,,That is the same picture as a one I have edited,17-7-2021,0
978,Jqhh,jq.hh,,Dream likes men,17-7-2021,0
979,1999_ROYKA,1831_royka,,can i save it,17-7-2021,0
980,DIEGO MARCOS NAGAMII,diegomnagamine,,qual o wallpaper ?,17-7-2021,0
981,LeLe,ale_anime_arts,,placas de video da AMD Radeon da certo?,17-7-2021,0
982,Georgi.petkov,daixyo,,Love the song,17-7-2021,0
983,Mike Sartain,themikester_yt,,whats a tip on affording a PC?,17-7-2021,0
984,.,thetraxguy,,@yes.man__,17-7-2021,0
985,naroutlover,naroutlover,,Don’t do it it makes your scream black and just a cursor,17-7-2021,0
986,KingJaw,kingjaw07,,@whydidimakeatiktokaccoun,17-7-2021,0
987,Daniel Chico,mrr.chico,,@xhyons,17-7-2021,0
988,L,llvivv,,"Before number 1, get a pc",17-7-2021,0
989,anna 🐈‍⬛🌺🌸,bigolbidds,,what does this do 😳 like is it good ???,17-7-2021,0
990,Eric P.,cypheruser,,finally one of these videos that are actually helpful,18-7-2021,0
991,David,.david_army,,"se me congeló la pantalla, ahora que hago? :(",18-7-2021,0
992,Mauricio Marquez,mauriciomarquez55,,my PC get freezed with PowerPoint,18-7-2021,0
993,Angelina:D,nina._.conrod,,Another tip: press all your keys while trying to wipe your keyboard down becuase you spilled water on it to remove ur icons (u can still acces it),17-7-2021,0
994,【・ヘ・?】,solo._.vlrt,,@achimmuckgoddang 난 이걸 해봐야겠어,18-7-2021,0
995,Empty,hmichael_,,@its_amir,18-7-2021,0
996,El macho,elmachoultrapro,,sonó un pip y revisé los comentarios no entendí muy bien y lo apague 😅,17-7-2021,0
997,Nobody cares,_chris_67,,Omg wow 🤩,17-7-2021,0
998,.,vanmibutbetter,,an1 got any suggestions on a pc for like 200-350 😅,18-7-2021,0
999,nooostooop2,nooostooop2,,as a console player i found this helpful,18-7-2021,0
1000,Oa loa,oaaa9394,,我比較好奇他桌布怎麼用的,18-7-2021,0
1001,Finn😶‍🌫️😶‍🌫️🥶,finnjp_0503,,Melts your pic tho,18-7-2021,0
1002,"Egg, Potato",bqllsqck,,is there one for sound,17-7-2021,0
1003,Robert Darby,robertdarby2,,Can you list your entire setup in detail please 😌,18-7-2021,0
1004,Thieberius,thieberius,,restarts the driver,17-7-2021,0
1005,David Cristian II,davidcristianii,,es verdad eso?,17-7-2021,0
1006,Zlepa,_zlepa_,,"Anleitung zu ungenau, meine Grafikkarte ist jetzt schwanger",18-7-2021,0
1007,aydenthguy,aydenthguy,,"thanks for this, thus will come in handy playing games on my 6 year old pc",18-7-2021,0
1008,BMS 💙🧡,iloveppsvr,,How do u get the live wall paper,18-7-2021,0
