,Comment Number (ID),Nickname,User @,Comment Text,Time,Likes
1,DreamTech · Ersteller,dream.pc0,,Need NVIDIA software for this,20-7-2021,63
2,pix,pixkssa,,im on AMD…😃,21-7-2021,25
3,me,manfromtheearth06,,alt+r🤦🏼‍♂️,21-7-2021,3
4,blackmilk,blackmilk57,,soo you Play osu,21-7-2021,9
5,st0nee_,st0nee__,,Tip number one. Uninstall GeGorce Experience 👋🏼,21-7-2021,1
6,DreamTech · Ersteller,dream.pc0,,Early Gang,20-7-2021,11
7,Gabe,gabe1817,,.....just sayin i knew that no hate......,21-7-2021,7
8,Jack :/,jackm3111,,@jaxwm311：You and also access setting to change the hud layout by pressing alt+z on your keyboard,20-7-2021,5
9,Adnan Dresevic,dresevic__0,,That wallpaper name?,21-7-2021,2
10,Samui,samixsh_,,or just pres alt+r,21-7-2021,1
11,Kobeyyy,kobeyyy_,,Man says early gang on his on TikTok,20-7-2021,1
12,_/MoHaMmEd\_,1m4q,,Just press ALT/Z,22-7-2021,1
13,stippc_tips,stippc_tips,,55sec ago 😂 Nice 😁,20-7-2021,4
14,martinanev06,martinanev06,,OMG that is my wp thx for the support mate,21-7-2021,1
15,W,almerrm,,how if use amd software?,21-7-2021,1
16,Семен Рыжов,faken_bitch,,can you do the same with radeon software?,21-7-2021,1
17,lgbtqisgay4u,specificfactsforyou,,Yo do u respond?,20-7-2021,0
18,МемоДел,brutalladyy,,What kind of keyboard?,20-7-2021,0
19,Kaleb,k0lebz_7,,Play osu,21-7-2021,0
20,You,imakidnapperrr,,@tech.no.blade look at all his vds,21-7-2021,0
21,Pedro Henryki Boresk,pedrohenrykibores3,,amd,20-7-2021,3
22,?!history,socialtarih,,а его нужно через нее запускать игры или с ярлыка можно,21-7-2021,1
23,กา' ฟิวส์,few.toxic.channel,,รอคอมเม้นไทยมาให้ความรู้,21-7-2021,2
24,Micin,micin__,,tymczasem ja mający Radka,21-7-2021,1
25,him_20e,_him.203,,là sao?,21-7-2021,1
26,pppppp,aassddwww,,ช่วยอะไรหรอครับ,21-7-2021,1
27,.,m._melo,,"legal, só falta o PC",21-7-2021,1
28,DreamTech · Ersteller,dream.pc0,,Should I do Q&A?,20-7-2021,4
29,Alvarez Emerson,mem0xd,,Alguien me. Dice que hace ese tip en el español?,21-7-2021,1
30,u0573,yuzero573,,alt + r ?,21-7-2021,0
31,Ethan_27,ethan_27000,,ou tu fais alt+R 😂😂😂,21-7-2021,1
32,Mèo Méo Meooooooo,dlongg_nee,,Alt+R là xong:)),12-10-2021,0
33,otgoootgoo8028,otgoo014,,bro how in are FPS lag fix,13-9-2021,0
34,kritishdhungana,kritishdhungana,,bro i don't have that icon 🥺,7-9-2021,0
35,Ahmad Almassawa,nabil.almassawa,,"is nvidia experience cloud gaming idk what it is...
....",26-7-2021,0
36,คนขายโลงศพ,namoandnavin,,How to open google Alt+F4 XD,23-7-2021,0
37,เพื่อ?,eybsfg432,,ต้องเป็นการ์ดจอของ Nvidia ด้วยนะครับ,23-7-2021,0
38,mixalisqube,mixalisqube,,whats your monitors,21-7-2021,0
39,nuggiesaretasty69,nuggiesaretasty69,,Just play minecraft will show u ur fps,21-7-2021,0
40,AJIB,ajibdotdot,,it's only appear 75hz bcs my monitor 75hz,21-7-2021,0
41,군침이싹도노,39eh2i,,What's your keyboard? its sooo colorful,21-7-2021,0
42,eljajh,elijarjarbinks,,"uh I have a question. I used a hose to spray down my computer bc it was heating up, and it won't turn on anymore. any suggestions?",21-7-2021,0
43,Tëma World,artemul_tm,,I watched osu,21-7-2021,0
44,𝑴𝒂𝒏𝒌𝒆シ︎𝑾𝒊𝒃𝒖𝒔𝒐𝒇𝐭,mankey.forever,,not available in my country😅,21-7-2021,0
45,Lucthemonke is my son,spoonbillchan,,I have a nvdia pc but I don't have the software for it. all I have is the nvdia control panel😅,21-7-2021,0
46,Serzhan Rustam,ssmako,,названия музки скажитеееенн!!!,21-7-2021,0
47,hobahecks,hobahecks,,only in pc?? how about laptop🥺🥺,21-7-2021,0
48,Brayan Dsh,brayandsh,,No puedo ya que son de latinoamerica,21-7-2021,0
49,Amplify,amplify77,,where is wallpaper from,21-7-2021,0
50,gabbyy111306,gabbyy111306,,Can someone tell me what wallpaper is he using????,21-7-2021,0
51,Hi there,izumikung22,,I can’t use it because my vga is Gt1030,21-7-2021,0
52,kazacek_5,ban.........kai,,:Я думал один сижу на nvidia,21-7-2021,0
53,soplii,sopliiivo,,"недавно изменили шрифт счетчика на закругленный, как вернуть квадратные цифры?",21-7-2021,0
54,»ταиοѕυκєツ🍥«,sywafiqz,,bro how u get that giyuu wallpaper 😭😭,21-7-2021,0
55,flown1ght,flown1ght,,"Ваааауу это так полеезнооо, я даже не знааааал",21-7-2021,0
56,RoninDOT,alone_ronin,,alt+r🤔🤔🤔🤔🤔🤔🤔🤔🤔,21-7-2021,0
57,Rvxign,val_reign,,How do i fix fps stutterring?,21-7-2021,0
58,Yojii,yojiidy,,can u give me your background ?,21-7-2021,0
59,Otto. Pietilä,otto.pietil,,I use geforce now because my computer is potato,21-7-2021,0
60,12danielh34,12danielh34,,or alt+z then go into the HUD layout,21-7-2021,0
61,im here,vayvhere,,Or you press ALT+Z,21-7-2021,0
62,Richard Bubish,richardbubish,,Faster if you press ALT+Z to open GeForce now,21-7-2021,0
63,W,endofrealms,,I’m trying to buy a pre-built and literally the most intensive thing I will probably be doing is Minecraft with shaders what would be a good budget,21-7-2021,0
64,AsYm,cs_1.6_god,,Can you do tip how to boost fps in DayZ?,21-7-2021,0
65,flexara bate flexara,.fl3xless,,demon slayer wallpaper??,21-7-2021,0
66,Qwerty,borrasquee,,How to open this? I'm not British but I practice English. If I had mistakes please tell me about them,21-7-2021,0
67,𝕄𝕚𝕜𝕖𝕪,ace_21231467,,why my pc have no NVIDIA,21-7-2021,0
68,🍺ZYXX🍺,tkj_smokey,,can you show us some program that you can play games limited for free on bad pcs,21-7-2021,0
69,K1RBY BURPY,k1rbyburpy,,Ayy we got the same background,21-7-2021,0
70,Imran_mamedzade,imranmamedzade,,what to do if when I make a clip via GeForce for some reason the sound of the game is not the same as I hear it as if with an echo,21-7-2021,0
71,Damian,nevermind_tak,,"u can use ""Performance"" and auto scan witch open afterburner",21-7-2021,0
72,Pchelka,alwaysinmute,,give me pls you wallpaper,21-7-2021,0
73,kHonka,senko624,,Как открыть эту менюшку где у него все игры были,21-7-2021,0
74,.,ic3..latt3,,How to fix NVDIA cannot obtimize game ?,21-7-2021,0
75,I love ophe,searching.forbaba,,Me With radeon,21-7-2021,0
76,arthur,cryplexx,,where do you find these wallpapers bro?,21-7-2021,0
77,Vasian,vasian_mafiot,,i don t have that thing with 3 dots,21-7-2021,0
78,Ryan Beemer,crazy_monkey_gaming,,any clue as to when they gonna make a fix for the new driver,20-7-2021,0
79,47,poiooioiioiioii,,muck,21-7-2021,0
80,.,_legardaoficiall_,,"@liamsanchez75 más FPS 😈, lo que te había dicho 😐",21-7-2021,0
81,Alex Nahuel Elias,alexnahuelelias,,sirve para subir fps ?,21-7-2021,0
82,Zyph,zyph.edits,,"Do you have to have a nvidea graphics card for this, pls answer",20-7-2021,0
83,.,pokaaacyca,,whats a wallpaper pls 🥺,20-7-2021,0
84,.,kubssq,,THX,20-7-2021,0
85,_.abdul.95_,_.abdul.95_,,can you help me,20-7-2021,0
86,Bronson,sneezyyeet,,first other than you 😂,20-7-2021,0
87,Tik Toker,ieatass93,,how do i enter that tho,21-7-2021,0
88,Shady,shadyfromthenight,,just use fraps,22-7-2021,0
89,OWNER HELLBOY,nnyzam,,amd user 😔😔😑😑😑😑,21-7-2021,0
90,🦧🦧🦧,i_am.monkey,,можно amd?,21-7-2021,0
91,Honza Zajíc,h0nzaa,,wallpaper pls i need it,21-7-2021,0
92,user132612457526,markva28,,Как Клава называетс,21-7-2021,0
93,The lazy man,thelazy_man,,Or just go alt r,21-7-2021,0
94,caticmat,mcmineral,,ohh on Me Intel i9 what to do,21-7-2021,0
95,triphan,triph.cc,,AMD pls,24-8-2021,0
96,Bekon Brestovci,bekiepikbro,,how to i download nvidia,23-7-2021,0
97,wishlist karlson,ifofufudufucufirodicif4i,,can I do it on intel,22-7-2021,0
98,Tim,timst15,,You can click Alt + R,22-7-2021,0
99,Gustavo Matos,gust4vo_m,,@m4g4l_ @jotta.mota alguém mnd pra tata,22-7-2021,0
100,fantasma,fantasmaksksk,,o cara tem o mesmo papel de parede do q o meu,22-7-2021,0
101,Kummakmak,cutenessies,,me who didnt use nvidia 😐😲😐,22-7-2021,0
102,kindermaxiking,rxhmon_,,i have the same wallpaper,22-7-2021,0
103,Woody,woody69fk,,Why my pc no WiFi show,21-7-2021,0
104,Long Lê,longhoimapmotchut,,how about AMD???😳😳😳,21-7-2021,0
105,Exotic spanka,exoticzzx,,isso consome desempenho,21-7-2021,0
106,𝐉𝐚𝐲𝐞𝐞𝐞𝐞𝐞𝐦,jayeeeeem5,,How about amd🥺,21-7-2021,0
107,Yã7ÏaメRåmøs,ya7ia_ramos,,ROAD TO 400K @dream.pc0,21-7-2021,0
108,ออสก้าครับ,ooscarssss,,Damn wallpaper pls,21-7-2021,0
109,Abandoned Habesha,abandonedhabesha,,what's ur PC spec?,21-7-2021,0
110,ewwicorn,ewwicorn,,"alt+r, it works too",21-7-2021,0
111,Giorgi,titangeli,,bro plays osu 👑❤,21-7-2021,0
112,Panc1Warteg,penguingantuk,,i don t have that 3 dots thing,21-7-2021,0
113,Андрей,hostvsw,,im AMD😅,21-7-2021,0
114,mergimAV07,mergimav07,,Gyu wallpaper ❤️❤️❤️,21-7-2021,0
115,йоша,emmfizzema,,can u do on AMD?,21-7-2021,0
116,Mr.jam,mr.jamdodgers,,Giyu tomioka,21-7-2021,0
117,floppa_supremacy,flopparos,,same wallpaper bestieee,21-7-2021,0
118,lovingleek,leektepes,,What’s y’all battery 🔋?,21-7-2021,0
119,alex,jsut.alex,,I can’t save video,21-7-2021,0
120,notag,notag37,,해석좀,21-7-2021,0
121,harel ohayone,hareloh,,Pls I need your wallpaper it’s my dream pls( tomiaka)@dream.pc0,21-7-2021,0
122,B.I.L,mr.arab141,,can u do a series of how to get free games.,21-7-2021,0
123,a,itsyaboyisaias,,Can I be whitelisted onto the server please,21-7-2021,0
124,LT_MILITARY_,lt_military_,,Carrot,21-7-2021,0
125,Csongor Molnár,csongib_,,Me with AMD: 👁👄👁,21-7-2021,0
126,Jay,djaydelpilar,,wallpaper name?,2-10-2021,0
127,ด.ช.สัปปะรด,porpee_29,,I Don’t have invidia 🥺,28-9-2021,0
128,Gilu Meow,gelo.meow,,where to download?,28-7-2021,0
129,...,vincenity1,,how about Intel?,25-7-2021,0
130,Jhon Paul Capalad,jpcpld08,,it's safe or not?,23-7-2021,0
131,Daniel Tasayco,danieltasayco4,,"@paco.web, confirma",22-7-2021,0
132,Šimon Končický,konca08,,Wow,21-7-2021,0
133,emin,eemyn_,,Wallpaper,21-7-2021,0
134,Iverson,_iversonfumo_,,keyboard????,21-7-2021,0
135,Kenshinbeem,kenshinbeem,,How toooooo removeee active windows 😭,21-7-2021,0
136,ErkutFreeRide,erkutfreeride,,bunu biliyordum,21-7-2021,0
137,foxezbro,foxezbro_,,@kokomen13 fps boost your pc,21-7-2021,0
138,A,uiaioerezine,,Ty,21-7-2021,0
139,리틀장어,littleeel1,,배경화면뭔가요,21-7-2021,0
140,Monky.de.DeFoLt,de.fa.ult,,TYYY,21-7-2021,0
141,andress,andress01__,,wallpaper???,21-7-2021,0
142,Dávid Bodnár,bdnrdvi,,@szia_lajos_szia LUK,21-7-2021,0
143,Ohc03,ohc_03,,Press alt + R,21-7-2021,0
144,yAlphaaTV,yalphaatv,,amd radeon,21-7-2021,0
145,Pádraig Mac Lochlainn,paddymcl16,,Wallpaper?,21-7-2021,0
146,Lupe爆頭,janicskazsombor,,wallpaper ?,21-7-2021,0
147,Anthony,anthonyv.000,,What is NVIDIA?,21-7-2021,0
148,Apokk7,apokk77,,Or alt+r,21-7-2021,0
149,ASTAGHFIRULLAH,position.exchange,,SC WALLPAPER PELEASE GOD,21-7-2021,0
150,IchBinMogens,mogensii,,what does it do?,21-7-2021,0
151,Кериллка Гречкин,fruter273,,он щас серьезно?😂,21-7-2021,0
152,h1zz,h1zz_offical,,нету,21-7-2021,0
153,Hayumi.san,l0za.hayumi,,!keyboard,21-7-2021,0
154,daaamn,antihornydoggo,,are you youtuber?,21-7-2021,0
155,YusufVarlık,limerencee31,,really?,21-7-2021,0
156,Yo wassupp,fuyakkk,,Is that an Akka keyboard?,21-7-2021,0
157,•-•,newzerker,,hi,21-7-2021,0
158,🛏,wubggg,,i have that wallpaper,21-7-2021,0
159,Peculiar,peculiaar0,,Wallpaper?,21-7-2021,0
160,j'ai pas de pseudo,lefandetrott,,AMD gang 😅😅,21-7-2021,0
161,Unkown T,callum.t14,,fy,21-7-2021,0
162,Vieira,gnrtransito112,,precisa do CPU NVIDIA?,22-7-2021,0
163,STRIKER_GX,striker_gx,,plz i need something download all games free,21-7-2021,0
164,pawel,414b,,can u still download Nvidia even though u have and? just to see the fps,20-7-2021,0
165,doogie,jbiscool.2,,When you dont have a nvidia graphics card,21-7-2021,0
166,i like hood modded,sigmanikolo,,i can install nvidia if i dont have nvididia system?,21-7-2021,0
167,ᴏʀᴇᴡᴀ_ɴɪsᴄʜɪᴛ,hancock._.luffy,,I've seen this vids for so long n I notice now that he has a tomika wallpaper😅😂😬,21-7-2021,0
168,Kevin 💸,kev.2xl,,You can always turn it on and off by hitting Alt + R,21-7-2021,0
169,Jaziru_kun,jaziru_chan,,eu não tenho placa de video alem da intel hd graphics tem problema eu baixar isso ai?,1-10-2021,0
170,Pbj59,nightrider453,,The only thing I have is NVIDIA control panel,13-9-2021,0
171,🔑,em_key11,,you can said TOI YEU VIET NAM??? 😅,10-9-2021,0
172,walangmeronditopar,kafi.gg,,in Philippines: no gefore/NVIDIA :((,17-8-2021,0
173,X.G XEETEN,xeeten1,,How to play fall guys on pc,7-8-2021,0
174,Gilu Meow,gelo.meow,,how to add genshin impact?,28-7-2021,0
175,Videnskab,videnskab,,Yo what's the wallpaper name,26-7-2021,0
176,Pete,pete24102,,How to change the overlay to a screen mian,23-7-2021,0
177,augus,augus8080,,i dont even install geforce experience,23-7-2021,0
178,Đoàn Ngọc Bảo Lâm,baorlama,,Amd graphic pls,23-7-2021,0
179,ikka,ikka_v,,"i knew this years ago, need something new😏",22-7-2021,0
180,ImKing_,metto.cose.a.caso,,What is the name of the keyboard,22-7-2021,0
181,Mạnh Cường,liam_amzing,,Please tell me keys you need i will send you links to pay,22-7-2021,0
182,user2095976259353,faku996,,That is nvidia cloud game software,22-7-2021,0
183,Giwrgos🦇,g1wrgossssss,,Can someone tell me how I update my Nvidia program?,21-7-2021,0
184,ᡕᠵ᠊ᡃ່࡚ࠢ࠘ ⸝່ࠡࠣ᠊߯᠆ࠣ╦╤──,y0nessbtw,,Обои пожалуста,21-7-2021,0
185,primordial_Bob,daydream_ix,,can you tell me what kind of keyboard is that? I wanna buy one like that 🤩!!,21-7-2021,0
186,Devo4kitashat,byowlzanosit,,"это не работает, она просто показывает вашу герцовку или вроде только 60",21-7-2021,0
187,JoseF_ 021,josef_021,,what is the wallpaper name?,21-7-2021,0
188,Clam,idl_clam,,как обои называются,21-7-2021,0
189,y.s4hin,y.s4hin,,Beyler renkli tuşları nerden bulabilirim internetteki ismi ne,21-7-2021,0
190,Hoàng,hizdapoet,,u can see FPS and temperature by MSI Afterburner xD,21-7-2021,0
191,eg0rix,eg0rix,,what shell i do if i’ve got rx 580?,21-7-2021,0
192,Danielle.1988,chronosloop23,,love ur wallpaper btw wr din u get it,21-7-2021,0
193,Quoc Cuong Nguyen,quoccuongnguyen76,,name of keyboard plsss,21-7-2021,0
194,aj,allenjermy,,what are those keycaps? :0,21-7-2021,0
195,Hoàng Bùi,hoangbui.13,,tell me your keyboard name? your ATM card here😁😂,21-7-2021,0
196,Nhựt Nguyễn6701,spychic_dominator,,msi afterburn blease 😳🙏,21-7-2021,0
197,😈hiitstoad😈,hiitstoad,,is the Alienware pcs a good choice to buy or not?? and what one would u recommend,21-7-2021,0
198,Spheraz,spheraz1,,amd tutorial next,21-7-2021,0
199,SteamVoltz,steamvoltz,,Aye what’s that wallpaper called?,21-7-2021,0
200,S1nk3ee,sinkeee07,,people with radeon😅😅,21-7-2021,0
201,Alkojnn,alkojnn,,"In 15 days im getting a new somewhat gaming pc for my bday and im saving all ur clips for when i get it, ty and keep up the good work my friend",21-7-2021,0
202,...,.zf.vx,,How do u get better performance with a amd software,20-7-2021,0
203,Sleepy,vix.h1,,Hi😁,21-7-2021,0
204,E666KX,vlad_.pel,,AMD?,21-7-2021,0
205,user918849,gambinnooo,,alt+r,21-7-2021,0
206,asta,othmanesharma,,please help i can t fix probleme with settings its not opening,21-7-2021,0
207,raziqhidayat,raziqhidayat,,Samsung odyssey g7 monitor is good va panel & same like ips view? Your thought?,21-7-2021,0
208,🐱,atzel__,,"я его не собираюсь скачивать, жрет очень много",21-7-2021,0
209,Trung Bill,toilapiu,,can i hear what the keyboard sounds like ps the switches that u use?,21-7-2021,0
210,zzz.mqq,zzz.mqq,,give me ur wallpaper pls,21-7-2021,0
211,Doruk,xratpvp,,What is your keyboard ?,21-7-2021,0
212,Стас Руснак,4elove4ok1,,1050ti Take the L,21-7-2021,0
213,kostek,mikikostek,,pls more fps 🥺🥺,21-7-2021,0
214,Abandoned Habesha,abandonedhabesha,,which nvidia do u have?,21-7-2021,0
215,BRUH,..d1nk,,DayZ tho sheeeeeesh,21-7-2021,0
216,HellFujii,rob3rys,,"Hey, sir uh... so i need help my internet icon isnt in my setting so i cant connect to any network check my last video i really need help...",20-7-2021,0
217,sterz,sterz.psd,,INDIA?,21-7-2021,0
218,Alexandru Ungureanu,animeedi25,,wallpaper giyu🥵🥵,21-7-2021,0
219,KaewHub,kaewhub,,"นั้นเเหละครับท่านผู้ชมที่หน้าหล่อ,หน้ารัก ตามนั้นเลยครับ😑",9-10-2021,1
220,DreamTech · Ersteller,dream.pc0,,Discord link in bio,20-7-2021,7
221,Haypır,haypir0,,Fps boost pack çıkardım şuan 4 kişiye sattım normal pack +120 fps mega pack 150-180 fps arttırıyor fiyatları makul tuttum valorant hesaplada takas olr,21-7-2021,1
222,GelusioweShoty,grzechushot,,"Jestem wszędzie
︎
︎
︎
︎
︎
︎
︎
︎
︎
︎
︎
︎
︎
︎
︎
︎
︎
︎
︎
︎
︎
︎
︎
︎
︎
︎
︎
︎
(przypnij to)",21-7-2021,0
223,Giorgos_stam1,giorgos_stam1,,dude we are not fucking dumb,21-7-2021,0
224,Freerider,fratila7,,i have Amd 🤡,21-7-2021,0
225,user4817926145975,user4817926145975,,I dont have that button 😂,22-7-2021,0
226,;),sam.durham69,,On my fyp this one going viral,20-7-2021,0
227,eroi,juannm_,,with Radeon software?,20-7-2021,0
228,behnam,behtheboss,,Can you please tell how do we stop the anti virus for Lenovo laptop,28-7-2021,0
229,Touffn,touffn,,fak displaynya sama,21-7-2021,0
230,Vašek Jablonský,masterofallcookies,,what if I dont have there thr first button,18-8-2021,0
231,mr.jopkin,mrjopkin,,98 Gen1 small tribe raid me 😁 @dream.pc0,21-7-2021,0
232,popik,popik_013,,"Alt+z , setting , hud-fps",21-7-2021,1
233,Maxwell,marvelous.maxwell,,Is there any way I can keep the overlay from showing up on obs streamlabs streams?,16-8-2021,0
234,🖤,egauustin,,i think you can access this a little quicker if you open the nvidia control panel through “Windows+G” and change the hud layout. Keep up the vids 👍🏼,22-7-2021,0
235,sk7v,vxzssn1,,Yooo give me ur tapetę,21-7-2021,0
236,Daman,dmn_sng,,Broooo can u make a vid for intel too only if u want need more fps ……,21-7-2021,0
237,Cryaotic,cryaothic,,so other people can see in real time how shit their set up is 🤙🏻,21-7-2021,0
238,SportVIDSCentral,sportvidscentral,,"the new fps counter is terrible, barely pops up on most games",21-7-2021,0
239,Shinra Tensei,sorus_96,,Press Alt+R for showing FPS,21-7-2021,0
240,Disonored,x_disonored_x,,"Hey bro, what's your keyboard?",21-7-2021,0
241,Minh Khoa,minhkhoadeptrai,,"NVIDIA block FPS at 40, don't do that",21-7-2021,0
242,Tempy,tomhollandstoelicker,,I just saw who tf opens osu with nvidia,21-7-2021,0
243,MyNameIsSamo,_mynameissamo_,,show your osu play,21-7-2021,0
244,С,psychosubver,,CTRL + Z LMFAO,21-7-2021,0
245,...,hellomynameis109h,,Followed,21-7-2021,0
246,Evan,evan_chumley,,Do you think a GTX 1650 4gb is a good graphics card,21-7-2021,0
247,TEQUILA,chad_4_eva,,pls tell me how i can fix black sides in my moniter after mesh it with my laptop with VGA AND HDMI CABLE,20-7-2021,0
248,JP,_1.hj,,bro can you teach us how to download offline games on pc? like generals or redalert?,21-7-2021,0
249,Ikki,ikki___0,,@ent3suesssauer,21-7-2021,0
250,ونبيسي محنك,x7amm,,@techcaffeine @mdl_xd,21-7-2021,0
251,Hideki 💀,5.hideki,,@2dxmon,21-7-2021,0
252,edit._.by._.ben,edit._.by._.ben,,@robertkrehl5,20-7-2021,0
253,Rumzy,rumzy_rt,,@periahluv,23-7-2021,3
254,emily,emxngyn,,@iikxyia @autumnns_ @lopsideds @_xin.chao_ I HAVE THE SAME WALLPAPER,21-7-2021,3
255,Son Goku_ Kakarot,son_goku_kakarot,,1,20-7-2021,1
256,乂ᶦפפɤɀ乂,iggyzttv,,@rafaa_064,21-7-2021,1
257,Lil yulson,ta1zo.0,,@_pls_dont_report_,21-7-2021,1
258,Vlad Popa,v_l_a_d_p_o_p_a,,@alessiomoldovan4,21-7-2021,1
259,Kirby_0313,frankie_collins,,@sqizyzclips,5-2-2022,0
260,WhiteFang,_justbannz_,,@katakuna3,10-8-2021,0
261,NathanAlwaysRight,nathanwright0.0,,@iloveyourvideoa,22-7-2021,0
262,🖤Pzw1🤙,_pzw1,,@_s0_sad_,22-7-2021,0
263,B4rbos4_,b4rbos4_,,@marm00taa,21-7-2021,0
264,Ikki,ikki___0,,@benbckrr,21-7-2021,0
265,fant0m61,fant0m61,,@loik.le.bro,21-7-2021,0
266,absolute,shimuexva,,@ur_down,21-7-2021,0
267,zxc,izxcl,,@rakanhani248 @fr._zxc,21-7-2021,0
268,Gyász,nemtom14hahaha,,😃😃,21-7-2021,0
269,VEPAR,__radoman__,,@paracapetar,21-7-2021,0
270,Luvae,luvae1,,[wow],21-7-2021,0
271,WYZZY 🇹🇷,ly0n3l,,@tu_connais_lbza_93,21-7-2021,0
272,Battousaiz,battousaiz,,@.erdn @daarrk__,21-7-2021,0
273,кловн,tippy_47,,@chopocompik,21-7-2021,0
274,❤️,ni.1q,,@dl8r,21-7-2021,0
275,Нн:/,selfixz,,@chopocompik,21-7-2021,0
276,Arthur Romeiro,arthurromeiroo,,@cagados123,21-7-2021,0
277,Mossymemes,mossymemes,,@mossy_z,21-7-2021,0
278,Tom🦦,420tom69,,@ugur42069 !!!,21-7-2021,0
279,Ester,esterfu,,@hubertstudio,20-7-2021,0
280,Michele Bombino,mike88rl,,@3_francesco_3,20-7-2021,0
281,El Chapo. ツ,.mokriq,,@_georgiew__,20-7-2021,0
282,Geoo,geoo.nt,,@dinos_g @_dimvil @leonidas.bapatsik,20-7-2021,0
283,Mihailo,mihailo089,,32,8-10-2021,0
284,.,n4zl_,,.,21-7-2021,0
285,german,germanxd7,,"ancla esto
🛸　　　 　🌎　°　　🌓　•　　.°•　　　🚀 ✯
　　　★　*　　　　　°　　　　🛰 　°·　　                           🪐
.　　　•　° ★　•  ☄
▁▂▃▄▅▆▇▇▆▅▄▃▁",21-7-2021,0
286,enespatosfanclub,evrim_agaci,,@bebek_sasuke31uwu,21-7-2021,0
