,Comment Number (ID),Nickname,User @,Comment Text,Time,Likes
1,DreamTech · Ersteller,dream.pc0,,Record your gameplay on your NVIDIA GPU,11-8-2021,
2,Smurf☂️✌️,_nikec_,,You can just alt + z 😐,11-8-2021,
3,Kante is the best,cleaningthecringe,,It doesn’t work on all graphics cards ….,12-8-2021,
4,DreamTech · Ersteller,dream.pc0,,Win + Alt + R,11-8-2021,
5,yuuta 乂 𝐖𝐈𝐁𝐔𝐒𝐎𝐅𝐓,zack_zxkwan,,why it didnt work im on windows 7,12-8-2021,
6,Xia,only1.xia,,why do you have cream on your table,11-8-2021,
7,yes,asap.soup123,,Can you please repost with allow save on and tag me please? I just dont wanna go to my cpu rn,12-8-2021,
8,Alex(Ali),etc.alex.xt,,mit alt + f4 wird euer pc geboostet und so viel schneller😱😱😱,12-8-2021,
9,im here,vayvhere,,Only ALT + Z,11-8-2021,
10,.,user.390467,,Alt + F4,12-8-2021,
11,Fionn McManus,fionnmcmanus6,,or get obs,11-8-2021,
12,TTV_zixy0シ,ttv_zixy0,,pov: you don't have a pc but have an old laptop 💻🥲,22-9-2021,
13,Adam,a.johns2006,,"I mean, not rlly. You first have to download the GForce experience. And you have to have a Nvidia GPU.",12-8-2021,
14,Amin_AKA_Viego,yuki_sama247,,"it didn't work🥺
i have GT 1030 😓",11-8-2021,
15,Rulo,ruleadito,,win+G,11-8-2021,
16,.,killerdoctor15,,win+g geht auch,12-8-2021,
17,Donut Mik,antek.mik,,where you buy this keyboard,11-8-2021,
18,Daniel Jabłoński,jack___dani3lss,,win alt r works too,11-8-2021,
19,Caspi,caspi_08,,How do i take a picture on my pc?,12-8-2021,
20,m1serY-死,simperboii,,but im on AMD graphic card lol😂,12-8-2021,
21,Lavidasegunkenth ✔️,lavidasegunkenth,,Cabe destacar a los que no les funciona que tienen que tener una gráfica nvidia y el GeForce experience instalado,11-8-2021,
22,xyune,6a6ka_outside,,люди у которых нет geforce experience/amd adrenaline: 🗿,12-8-2021,
23,.,jaao.exe,,"isso é para placas de vídeo na NVIDEA, PCs ruim é Win + Alt + R",14-8-2021,
24,who asked,nulpaopei,,win10 only =)),12-8-2021,
25,SHEEEEEESH,sk8.by.vatea,,@sano_manjiro_ist je pense tu lag pas si tu rec comme ça,17-10-2021,
26,DreamTech · Ersteller,dream.pc0,,ok,11-8-2021,
27,Nice,komin_25521,,Alt+f4 ลองเอาไปใช้ดูเวลาเล่นเกม😂😂,14-8-2021,
28,ต้นแซลมอน,kxng.tnk,,alt+f9 เป็นคีร์ลัดเดิม กดปุ้บอัดเลย กดอีกทีก็หยุดอัด,12-8-2021,
29,Yona,yona0513,,@low_ping_szar_556 ezt csináld meg,21-9-2021,
30,dreamphobic go cry bout it.,trapxhere,,i need a new pc. mine is a junk its since 2008,12-8-2021,
31,snitchdoom,snitchdooms._,,U can also win+ g and then select capture right?,12-8-2021,
32,SuperJAcKy trimas,rhythm_gamevertrain,,Does it work on laptop,12-8-2021,
33,MR. Konch,droo.py78,,prima cosa tasto Windows per aprire GeForce experience non serve secondo lo devo avere installato e terzo per registrare basta premere alt+F9,12-8-2021,
34,V0ID,ihavesocialcredit,,my pc doesnt have the right graphics card to do that,16-8-2021,
35,Jacob Frenkel,jacobf_05,,Win + alt + g and then it's Microsoft game bar no?,16-8-2021,
36,➰,queef.cum,,"i have it installed already, I can record games but not the chrome browser and stuff",13-8-2021,
37,madman10769,madman10769,,"Yes big disclaimer, to use this life hack you must either have GeForce experience installed on your computer, also comes with a lot of cool extra stuf",30-11-2021,
38,Jezeey Hunter,mrksfinebyme,,does this work on radeon,29-9-2021,
39,Tobi.,quitcodmyexus,,thx bro😁,12-8-2021,
40,user554285791017,nomontamir,,How do you do it on Mac,12-8-2021,
41,Vinker,danielismeme,,"Or just get OBS, it's free and the best, litterly everyone uses it",7-9-2021,
42,Sammi 💞,sammi.im,,OBS I REPEAT OBS,16-8-2021,
43,hi,kdjfkenekgne,,u didnt mention u can only do this with an nvidia gpu and u gotta turn it on in geforce experience,16-8-2021,
44,Nith,kronixnith,,"i love your keyboard omg, where to buy it?",14-8-2021,
45,MONKE,monke_maninvr,,Thx this helped alot,16-8-2021,
46,malikmakkkk,malik.maktabi,,Yall think its only normal for girls to use lotion😂😂,15-8-2021,
47,Was Xxmidnight.xX short (yuki),yukino.garden,,also on windows ■ the window button hold it and G thats also screen record :),12-8-2021,
48,Quindarious Figglebottom,quindarious.figglebottom,,For some reason it didn’t work for me and all the shortcuts don’t work for me for some reason even though I’m on windows 10 can someone help me,12-8-2021,
49,QWERTY,sqwerty_edxts,,It didn’t work for me,23-1-2022,
50,Aesthetic Girls,girlie.stuffs,,been wanting to see a tutorial here and you got this easy peasy! thank you! I can record my gaming videos now! 😏,27-9-2021,
51,✨,not_gush,,Isn’t it windows g,14-8-2021,
52,🥴,boba2548,,win+g is ez,13-8-2021,
53,SpicySoshe,plasticgogurt,,how do you clip on pc,12-8-2021,
54,.,jhsjdas,,@ice_cookie2 gurl,12-8-2021,
55,:3,no_one_on_this_acc3,,@niceiii_is_mwa FAI,12-8-2021,
56,rxmii,ii.rxmiiyhh_,,window + G,12-8-2021,
57,Patrix,patrix.56,,Skąd tapeta?,12-8-2021,
58,joe,joey.olivera,,Key cap set?,24-8-2021,
59,Toàn P,christaronald,,win + g is ok,29-9-2021,
60,Clvrbo,clvrbo0,,can it work on a laptop?,12-8-2021,
61,memesucker,daonlyveiwer,,can u do Intel next?,12-8-2021,
62,Road to 300 followers!!!,daivik_smallcreator,,can it record games?,12-8-2021,
63,Biaa,biaa_6634,,@whos.andra avem nevoie na acum ne a luminat,12-8-2021,
64,Jordan3002,itsjordan2003,,Look at my name 😏,12-8-2021,
65,Dừa đầu Moii,hddua2,,Đó là phần mềm😂😂,20-8-2021,
66,Spencer_,user7911234896470,,WHAT IS THE APP FOR THE BACKGROUNDS,16-8-2021,
67,Hades,themonkeysbestfriend,,Do ya need a pc or monitor to do this,12-8-2021,
68,wodny liseł,wodny_lisel,,f12 wystarczy,12-8-2021,
69,кристи,agdjuu,,you need to install Nvidia Experience,12-8-2021,
70,TheEggInnator,the_egg_innator,,U can just get OBS,12-8-2021,
71,Jankez_a,jankez_a,,Radeon users:😾,12-8-2021,
72,Nerrax,nerrax,,tipp:when you have an english keyboard but you playing in germany then you must press alt+Y,11-6-2022,
73,☕𝕟𝕠𝕠𝕓𝕪_𝕛𝕠𝕥𝕒𝕣𝕠☕,nooby_jotaro,,not working sad🥺,14-3-2022,
74,Jackson👁🫦👁,jacksonthemenace,,How do I save the clip?,9-3-2022,
75,I accepting only sad people,je_balaye_les_cancers,,what we do for stop the screenrecord ?,21-2-2022,
76,marcelinos corner,marcelinoscorner,,It didn’t work even I had GeForce experience,25-1-2022,
77,Ahmed_alamodi208,ahmed_alamodi208,,اضن انك تحتاج هذه الفيديو @a_u_r_m,17-1-2022,
78,⚗A?,ahwlexz,,Win alt z isn't working,12-1-2022,
79,𝐆𝐨𝐚𝐥:3k🤪🤘,kensha_anime.x,,its not working on my windows 7 laptop😅🥺,7-1-2022,
80,evelinakovalenko9,evelinakovalenko9,,omg tyyy i was wondering how do u record lol,4-1-2022,
81,xbluzyt,bluzyt,,Thx i’ve been looking for months,31-12-2021,
82,⚽️,joaoxcancelo,,yo how do i get the clips after,29-12-2021,
83,FelleCool,fellecool.mc,,But how do i send it to my phone so i can post it in tick tok?,15-12-2021,
84,Jonas,ganyu_main69,,Is there another way I can get to the recording screen bc my windows key is broken,9-12-2021,
85,Hipro 84,hipro84,,Only works with Nvidia,6-12-2021,
86,Ei,tahtbairon,,Or just alt+F9,28-11-2021,
87,levi🌮,saltytoesinmymouth,,it’s doesn’t work,19-11-2021,
88,Andātēika [天皇],zer.0cwan,,how to screen record using macbook air without using any webs to screen record?,8-11-2021,
89,Mattthewplaysisthebest,matthewplayz15355,,tysm it helps so much,2-11-2021,
90,On😗,cutie_pie_316,,mine why it shows gaming tho btw im using com today idk that u can watch tiktok on coomputer wow,31-10-2021,
91,🔴Leo The Red Cat🔴,leo.the.red.cat,,I got 3070 graphics card it should work on mine right???,26-10-2021,
92,you,_.zack._13,,i have windows 10 and it didnt work,21-10-2021,
93,.,thatlilbaconn,,bro if this sound didnt exist..,20-10-2021,
94,charlidamelio,__roblox..editss,,My school laptop is window + g,20-10-2021,
95,eueirheu3ueu,_.knxd,,PLS HELP I CAN RECORD ON MY DAD PC,18-10-2021,
96,Davide Dipaola,another_devis,,How do you remove what comes out by pressing ALT + Z?,17-10-2021,
97,vxrom,aifrizqi,,if you have no nvidia you can press win+g which will show up microsoft then press the record. If you want the shortcut you can press win+alt+r,16-10-2021,
98,Iz ❤,ixzmuslim,,your keyboard is so beautiful 😳,15-10-2021,
99,BìnhCóNY :),binhbeo498,,I’m just buy Rtx 3080 to use this screen Record 😳😳😳,12-10-2021,
100,GeneralQuestion,000generalquestion000,,Instead use windows key and g (more affective),12-10-2021,
101,🇺🇦❤️,evorila,,Oml I have a map behind my monitor too 😭,11-10-2021,
102,MN • Nínjà,keanchaze22,,i lost my Nvidia GeForce🥺,10-10-2021,
103,chloe,xnoncx,,it doesn't work 🥲,10-10-2021,
104,PRINCE,r1d0_22,,Doe's it work in Laptop too?,9-10-2021,
105,Sọ dừa,soduadepzai,,no bro my card is not support,8-10-2021,
106,😆😆,markkingsoncayago,,ty man its help me when I'm plying,3-10-2021,
107,TedTed TedTed,tedtedtedted0,,what's ur wallpaper btw??,2-10-2021,
108,takimnation191,takimnation191,,thanks this video so usefull,1-10-2021,
109,FliperstickyGM,fliperstickytk,,Can i still do this with a GT Series Gpu?,1-10-2021,
110,C-MOON🌑,kitaron3,,how to reacord video when play game : first in the game and press alt+F4,29-9-2021,
111,noob2pro8,noob2pro8,,TYSM now i can record my gameplay XD,29-9-2021,
112,pak asep,pembantai._yahudi,,why my window store dont have trending game,28-9-2021,
113,Uzumaki bonkrito,mynameismynamebutnotbob,,@DreamTech i have a question how can u record your screen without NVIDIA GPU or geforce experience?,27-9-2021,
114,wolfn1nja_fart,wolfn1nja_fart,,When this was the real song it triggered me,26-9-2021,
115,Dracdragonhead I Offline ☑️,dracdragonhead,,"Microsoft System: 🪟 + G
NVIDIA GPU: Alt + Z",26-9-2021,
116,VRC Shadow_Gaming01,vrc_shadow_gamig01,,Or just do WIN+G,25-9-2021,
117,Yakinbenar,bocilkocok,,can someone say something to encourage me continuing naruto,24-9-2021,
118,忍•|ᴅᴀᴍɪᴀɴ,spyxfamily029447,,how do i stream on twitch?,24-9-2021,
119,Tấn Dũng Nguyễn,tandungnguyen60,,lol i just need press f12,22-9-2021,
120,10,horishawa,,That’s oly work on geforce,22-9-2021,
121,vylz,notvylz,,I don’t have a gpu,20-9-2021,
122,Zik,ziggery0,,is it work on nvidia graphics card?,19-9-2021,
123,Jisooism,._.jisooism,,If I’m buying a 500 dollar pc how much should I spend on a monitor. It doesn’t have to be 4k but maybe 1080p. It is a budget setup. Please help,18-9-2021,
124,ｔｅｎｚ ａｎｄ ｋｙｅｄａｅ ｓｉｍｐ,biooo2m,,it does not work for me I'm using a 920m I think it is not supported,16-9-2021,
125,off 4 tahun,keziajosephine2,,what you name pc? i want to buy,16-9-2021,
126,Sandrabonerphriedegg,quandaviousdookiefart,,This should be basic knowledge,14-9-2021,
127, Apple,yourself516,,If the laptop works?,14-9-2021,
128,Yakane•Chirika,chirika1409,,Name of wallpaper plz 🥺,5-9-2021,
129,AlphaAR,alpha_ar1,,I have a gt1030 cause of you sortagre,30-8-2021,
130,Ventiheree,ventiheree,,it doesn't work for me 😟,25-8-2021,
131,Miar Leur Odasit,l.e.u.r,,including the Audio?,25-8-2021,
132,IwentRetro,iwentretro,,What’s that wallpaper ? Is it on wallpaper engine,25-8-2021,
133,alanblancas53,parzxval1,,what keyboard is that?,25-8-2021,
134,gabriel ig,whosgabrielman,,where did you get your keyboard??,23-8-2021,
135,Asterertplayz,asterertplayz,,What keycaps are u using,22-8-2021,
136,i am bread,grainlol,,windows alt r just chillin there,22-8-2021,
137,Someone,someonewhoisdump,,will it record our sound?,21-8-2021,
138,Moksh,mokshs25,,How do I get NVIDIA? I’ve tried before and it didn’t work on my pc so is there any alternatives?,20-8-2021,
139,มึงคิดว่ากูเป็นใครเหรอ?,redneondogyt_dark,,I have windows 10 and I can’t?,19-8-2021,
140,žâřő bêřø ļîĵ,zarotech,,woow nice i love you from Ethiopia,19-8-2021,
141,weatherMAN4o,weatherman4o,,What is the name of this wallpepar?,18-8-2021,
142,Tik Toker,jamalstealit,,i mean obs is so much better,17-8-2021,
143,Alterego,ur.human.diary,,why my rtx not works 🥺,17-8-2021,
144,Gökhan Üzüm,gokhanuzum,,"I also have a side screen, but when I Alt+z it records the side screen, not the main screen. @dream.pc0",17-8-2021,
145,Ngô Anh Tồ,ngoanhto,,can i get ur wonderful wallpaper ??,17-8-2021,
146,Kevin,kevin__hdz,,Have you done how to take a screenshot?,17-8-2021,
147,Christian Tuttle,im_too_tired_for_this__,,Where did you get that beautiful keyboard,17-8-2021,
148,Huntre,.huntre,,Only need alt+z for mine,17-8-2021,
149,kinnyslay,kinnyslay,,i love this account,17-8-2021,
150,Jake_Minniear,jake_minniear,,does it record discord audio and game audio?,16-8-2021,
151,._.,kartoffelrammler,,Win + alt + r is actually the recording from Windows,16-8-2021,
152,gha_bby.💯🔥,gha_bby,,it doesn't work for all PCs,16-8-2021,
153,ntoufass,_.ntoufass._,,shortcut for clips on Nvidia app?,16-8-2021,
154,Zohaib BOSS,tsm_zohaib786,,does work on Intel graphics??,16-8-2021,
155,rednax,wazzup1226,,how do u get ur wallpaper?,16-8-2021,
156,Auxaro,auxaro.tv,,Thank you sir,16-8-2021,
157,zachattack17,zachattack1788,,Do you have advice on retroactive recording with amd gpu (therefore shadow play not an option),16-8-2021,
158,Mark Joseph Dichoso,markjosephdichosorabela0,,I havent tried that. I always use win+G,16-8-2021,
159,ANTONIO PUIG PARDO,antonioopuig,,how i can clip in fortnite,15-8-2021,
160,tomas,tomas_13_13,,vždyť to nefunguje😳,14-8-2021,
161,armand1gemome2,armand1gerome2,,"u can just do
win + g",14-8-2021,
162,cobii 🤷‍♂️,ykrykm,,pov: ur just typing for nothing,14-8-2021,
163,NTW-20,1x1like,,i have g210 it didn't work 😕,14-8-2021,
164,name,caruleedaviss,,How do I stop recording?,14-8-2021,
165,You missed the joke dumbass,0mak_sus0,,Tysm my obs does not work i only have a black screen,13-8-2021,
166,Mladen Djuric,mladerinho45,,Me crying in background with integrated intel gpu,13-8-2021,
167,joe Murray,joemurray222,,Doesn’t work for me,13-8-2021,
168,.,brendon20202020,,Omg I Click The Alt +F4😳😳😂,13-8-2021,
169,akiyesha_♡,yahusa_babilalove,,What is your keybord name pls i gonna buy it i like it,13-8-2021,
170,Gabriel🧐👌,soygabriel.ff1,,I am gonna get a new gamer pc So thanks for ur tips 😁,13-8-2021,
171,Shadowed Banned,ganda._.143,,thanks lodicakes,13-8-2021,
172,Hud -_-,hudson_on_tiktok,,"I'm sure I heard of a recording software called obs, idk it just came into my head",13-8-2021,
173,😵‍💫,pucify,,What’s your keyboard called?,13-8-2021,
174,infinityshadow5,infinityshadow5,,for Nvidia 860m +,13-8-2021,
175,Alumi Chan,alumi.chan,,windows button and g opens a thingy and you can record too,13-8-2021,
176,Kiro?,archlngtopre,,window + g (･ัω･ั),13-8-2021,
177,lặn,gbeo06,,windows gamebar for who cant use geforce experience like me,13-8-2021,
178,⠀ ⠀ ⠀ ⠀ ⠀ ⠀,imfnoone,,oh yeah only in Nvidia gpu and need to install geoforce experience of their website,13-8-2021,
179,Subway Surfers Dino,subwaysurferdino894,,me in 32 bits pc: f12 ez,13-8-2021,
180,🗿,driluc,,win g then u see record thing that what i use,13-8-2021,
181,ItsCoderr_,itscoderr_,,OBS for me without a graphics card,13-8-2021,
182,AM44R_,am44r_,,only if you have a Nvidia graphics card you can do that,13-8-2021,
183,Brandon,brandonbd0,,how do I increase my FPS,13-8-2021,
184,duvlin,duvlinn,,what da cream doin?,12-8-2021,
185,Legion,legionize,,"just use obs, you can edit settings and make it really smooth",12-8-2021,
186,Некит,n0rz3x,,NEED THIS KEYBOARD,12-8-2021,
187,XVX Moa,xvxmoa,,or just do windows + g if you don't have a nvidia (it bring up the xbox recording and capture page),12-8-2021,
188,AkilPlays,akilplays,,Guys alt f4 everyone know that it lets record at high frames even with a bad pc😅,12-8-2021,
189,Zaki,zaki_nabyzada,,So whatch yo got for people who don’t have pc. ????,12-8-2021,
190,Travis,travis.24670,,bro go outside and touch some grass 😂😂😂,12-8-2021,
191,#FNaF＼(ﾟｰﾟ＼),anime_jestem,,window+shift+s=screenshot,12-8-2021,
192,charles,charles_1054,,alt + windows + r records using xbox app i think,12-8-2021,
193,꧁✰☾︎𝚜𝚝𝚊𝚎𝚌𝚔𝚣☽︎✰꧂,staeckzo,,can u do how to put videos from your pc to mobile bc i need that😅,12-8-2021,
194,PAINHUB,the_rode_to_pain,,bro im lirely gonna cry now i have searched for this like 7month thank you youre the best🥺🥺🥺,12-8-2021,
195,abdessamad bouzawit,le.vrai.abdessamad,,Why is there a cream on ur setup 🤨,12-8-2021,
196,MrCartoony,mrcartoony1,,Your a legend dude honestly I literally just watched all your videos I’m not kidding every single one of your videos is saved in my notes keep it goin,12-8-2021,
197,Maria,maria.gh7,,I love your keyboard,12-8-2021,
198,Rtk,rtk1034,,"My laptop doesn’t charge when plugged in, why?",12-8-2021,
199,Ur mom in a bag,ur_mom_in_a_bag,,Can you do one with the best clips apps that don’t make you pc lag please🙏,12-8-2021,
200,Liko,_likooo,,Bro install taskbarX,12-8-2021,
201,Alla backar,john.engstromer,,Its pretty bad that u dont mention that this is only for nvidia gpu’s in the video,12-8-2021,
202,♥︎ꪑꪖᦔ𝘴,mxdvee,,What’s the keyboard??,12-8-2021,
203,Ako ne folowaš gey si,anime_best_fan22,,You going to ma favorite list,12-8-2021,
204,FaZZy,fazzy_lol,,"it's only PC, that does not work on notebook",12-8-2021,
205,Markus,malenmarkus,,What you backround image name?,12-8-2021,
206,bwc,lana_rhodes_dad,,Give me ur keyboard,12-8-2021,
207,pinsan ni noel,sinosijosh,,is it only for nvidia users?,12-8-2021,
208,Emile van der haegen,emilevanderhaegen,,How do you clip something @dream.pc0,12-8-2021,
209,Neymar🔥🥵✨,ftbl_ney10,,If u have GeForce yes,12-8-2021,
210,Justis McClain,ohiostate3237,,As a drummer of 2 years it triggers me the way he did the drum intro,12-8-2021,
211,ᅠ,z3xtr1um,,Whoaa i need this keyboard.,12-8-2021,
212,เจเจ ชัยสมิทธ์กุล,fghuhyugguhy,,"Can you help me, my pc when I open it, it has only darkness left with mouse and I have to wait a long time for it to open.",12-8-2021,
213,George Putin,xxproanime_xx,,Alt+F4 works,12-8-2021,
214,Bryan☑️,bryan_lcy,,You can use windows+g too,12-8-2021,
215,Albirth👹,kenz_amongus,,I want a 600 FPS pc but I don’t hav EType money to buy 1 and TVs sad and I cant buy a monitor before I can buy a pc :(,12-8-2021,
216,Zzz,averagerobloxaddict,,Too bad I don’t have that on my computer 🙃,12-8-2021,
217,remainings,kamexr,,god DARN IT WHY DID YOU SAY EARLIER😂,12-8-2021,
218,someone…..,monke969,,Whats ur keyboard,12-8-2021,
219,callmeshaun,shaunnilfrenpasco,,thanks bro i really need this,12-8-2021,
220,Normal Person,navarotan_plyzx,,but.. ysing an AMD Radeon RX580,12-8-2021,
221,silver blox,silverthebronze,,how do you stop the recording where does the recording go souch questions,12-8-2021,
222,Giga bennett,commonsense4163,,im too busy singing the song:l,12-8-2021,
223,ammar.halid2.0,ammar.halid2.0,,for record a game type window + Q,12-8-2021,
224,(NAME),xkiofoolzx,,"ကြယ် တွေဟာ ကောင်းကင်ကဘဲ ကြွေတာမဟုတ်ဘူးမြို့ပြရဲ့တိုက်ခန်း တွေကလည်း ကြွေတယ်{၁၀၈၂၀၂၁}(၄၄လမ်း)"" #savemyanmar
#saveburma",12-8-2021,
225,Ryonaki(Rishan),bolognese_b,,how to get a free live wallpaper,12-8-2021,
226,Dashni,dashni_xx,,I love ur keyboard where did u get it 🥰🥰🥰,12-8-2021,
227,Wellplayed,wellplayed0101,,hey just asking how woud you fix lag in screen recorder?,12-8-2021,
228,follow me please,kellenmueller21,,I wish I could save this vildeo,12-8-2021,
229,John,yloofig,,its just alt+r no need for the windows,12-8-2021,
230,iggi,iggitheg,,Look maybe do a software not everyone has an graphics card 😢,12-8-2021,
231,B,kboth007,,how to share screen on your PC🥺🥺,12-8-2021,
232,Oily,oiily,,what is your wallpaper?,12-8-2021,
233,Anas,anas.qoutez,,how im on laptop,31-12-2021,
234,Cool kid,nic0pik0,,It ain’t working,4-12-2021,
235,Nope😈,drskullsand,,or just press alt z,16-10-2021,
236,the_watermelon_boy,the_watermelon_boy,,win g,14-10-2021,
237,Irish Frog,irish_frog,,just download obs,25-8-2021,
238,JujuTheBoss,jujuchbe,,And now for AMD,16-8-2021,
239,>:),i.know.nothingg,,I do Windows g,16-8-2021,
240,Jack_Man114,jack_man114,,"How do you record audio, I tried that and no audio",16-8-2021,
241,NotRafael,rafael_c29,,ok ty,13-8-2021,
242,Witam 😏,ignb0czq,,Alt+f9 its faster,12-8-2021,
243,Lxzer,lxzer__,,I use obs,12-8-2021,
244,Urmumsdaddyyuuurt,hans_get_ze_mp40,,Or download obs,16-8-2021,
245,Keah,keah_29,,how to send it to someone,19-5-2022,
246,diana,senorita_perfecta_,,it didn't work,28-2-2022,
247,13☘️,__spyr0giann1s__,,how about amd,25-12-2021,
248,sadgeboy,beasttitu,,pov 🥺 : amd,14-12-2021,
249,dyt2pyecq32e,dyt2pyecq32e,,지포스 익스퍼리언스 있어야 됨,29-11-2021,
250,✰,.rayans,,is geforce feee,20-11-2021,
251,Farz,ch1fuyuu3,,how about dell,7-11-2021,
252,WeeWee bob?,bob.wz,,I don’t have a gpu 😅,1-11-2021,
253,im gonna play gd,shaggy._.gd,,my pc blue screen,1-11-2021,
254,matthew,sqquiidge,,does it record audio,28-10-2021,
255,toh,labkitahon1,,its didn't work to 😥,17-10-2021,
256,Jeco,fozcot,,uhm how to stop it?,11-10-2021,
257,Dio Lỏd,minh290608,,Can window 8.1 do it,8-10-2021,
258,ポ.Rap?,rap_onups,,how to stop the record?,3-10-2021,
259,hi yes,lacy_has_died,,it doesnt work on dell,1-10-2021,
260,MYS Aviation,bloxy_mys,,I just use obs,30-9-2021,
261,CHIDO_AMV,beluga12344,,so sorry for No GPU user 😂,24-9-2021,
262,User,user8629462936293,,Just get obs,19-9-2021,
263,XxPsycoMantisxX,xxpsycomantisxx,,𝕕𝕠𝕤𝕖𝕟𝕥 𝕨𝕠𝕣𝕜 𝕗𝕠𝕣 𝕞𝕖,18-9-2021,
264,Harmony,sub__games,,Omg Thx so much!!,15-9-2021,
265,.,_reece09,,How do I download it onto my phone?,29-8-2021,
266,Multi fan page,strawberyeditz,,How do u get it on ur ios,20-8-2021,
267,EZ PEW,thevalentinabenz,,or windows alt r,18-8-2021,
268,-,ransomrain,,let me saveeeee,18-8-2021,
269,grey,junkertcwn,,just use obs,17-8-2021,
270,Wuai,imsaaid,,Medal all the way,17-8-2021,
271,dunce?,dunce.c,,It’s not working,16-8-2021,
272,no,.cig77,,get obs its better,16-8-2021,
273,Mason,masons0608,,Is it better than obs l,16-8-2021,
274,J<3,zan.jseph,,U can just use WIN + R,14-8-2021,
275,gau1712,op_quadz,,this song soooooo chilllll,14-8-2021,
276,anya kawaii,wiibutiktokid,,just nvidia caannn,14-8-2021,
277,:p,aflac73,,how do I do hand cam,14-8-2021,
278,Hi,________4352,,Or windows alt r,14-8-2021,
279,MJ Alviz,mjalviz8,,i do alt windows r,13-8-2021,
280,XeBECniboss,xebec291,,so how to end the screem record? 🥰,13-8-2021,
281,ตั้งชื่อให้หน่อยยยยย,syn83,,"It's over, brother.
คุย",13-8-2021,
282,Jon Christian Pajureray,jonchristianpajur,,how to live in pc,13-8-2021,
283,Aidenleir,aidenboy1307,,it didn't work,13-8-2021,
284,Hanh Dang,hanhdang43,,i cant press z,13-8-2021,
285,😩,khai_rixd,,My record is 2000,13-8-2021,
286,FroggyFella,pydronate,,wait wha? why did i just download OBS 😀🔫🔫,13-8-2021,
287,A Pablo 🐱,khunglong_2k0,,Window +G,13-8-2021,
288,the noob boizv ✔️,thenoobbro,,window 10,13-8-2021,
289,tnhan,ntnhan_21,,ng chs hệ obs 😂,13-8-2021,
290,Atrox,zabzabula,,What wallpaper is that?,13-8-2021,
291,Cyan Rayos,certified_dogeater,,Step 1: get a pc,13-8-2021,
292,刈り取り機,1mr_thing,,hands go brrrrrrrrr,13-8-2021,
293,Lytrix,lytrix7,,I have the same wallpaper😅,12-8-2021,
294,Zaina,...glowingxlily,,I wish to have a pc 🥺,12-8-2021,
295,thebraker,thebraker,,"for microsoft is win, alt, r",12-8-2021,
296,UE4 Dev,ue4_gr_dev,,Give me the wallpaper I need it!!,12-8-2021,
297,Zeep,ze3p0,,U can just press alt z,12-8-2021,
298,I give quotes💕,nep0l,,Windows and g I what I do,12-8-2021,
299,🆗️,rolexz13,,how do u stop the record tho?,12-8-2021,
300,Quandale dingles cousin,donquavioushiglebottom,,Can’t save :(,12-8-2021,
301,retard:),retarddumbass,,available on laptop?,12-8-2021,
302,Xander,xandersyr,,just instal OBS Studio,12-8-2021,
303,smiley,smiley04111,,sorry i dont have pc 🙂🙂🙂🙂,12-8-2021,
304,Harry Clarke,__._harry._,,Use obs it’s so much better,12-8-2021,
305,⠀ ⠀ ⠀ ⠀ ⠀ ⠀,jaythe.weatherkid,,I have a idea... obs,12-8-2021,
306,RaizerRite,raizerrite,,Can you show us your setup?,12-8-2021,
307,Viorel David,regeletau_17,,Ho have a good pc,12-8-2021,
308,Hồng Vân8401,dwsans9999,,"wait, how to sceenshot ?",12-8-2021,
309,Cute turtle,itskayden.bro,,What monitor is that,12-8-2021,
310,Duster,dusty_gaming3,,Does not work on windows 7,12-8-2021,
311,no_kids🤨💀,no_womenlol,,how to screenshot in pc,12-8-2021,
312,wall,maybethewall,,THAAAAAANNKKK YOUUUU😭😭😭😭😭,12-8-2021,
313,rizon,rizonrl,,bruh i got AMD,17-8-2021,
314,officialblacktoad,officialblacktoad,,But I have intel graphics,18-8-2021,
315,simp^^,ilovemygflolol,,I have a rx 550🥵🥵🥵🥵🥵,17-8-2021,
316,Clyft,twitch_clyft,,Is it free,10-2-2022,
317,Ahmed_alamodi208,ahmed_alamodi208,,@i_am_radioactive I think u need this,10-1-2022,
318,nedpaine,dirt.bike.central,,I need this😩,28-12-2021,
319,Kna Bek Tnam💊🤪,kna_bektnam,,I use ocam,29-10-2021,
320,matthew,sqquiidge,,likey voice,28-10-2021,
321,eueirheu3ueu,_.knxd,,WHY I CANTTTTTTTTTTTTTTT,18-10-2021,
322,ogamejr111,ogameyt6615,,windows g?,11-10-2021,
323,astig paren,hhumphrey14,,what about laptop,10-10-2021,
324,:)),dipuc73i3,,or Windows + G,9-10-2021,
325,blocking ppl that krissed me,illstayhere00,,it isnt working,9-10-2021,
326,TIGERINC,siuuuuuuu666,,tq🥰,4-10-2021,
327,jayriel codm,putosbxxjkaaoeorod,,naol nalng may pc haha,29-9-2021,
328,Luxiatore,luxiatore,,I deleted,29-9-2021,
329,KindoffYT,kindoff.yt,,How to stop the recording?,24-9-2021,
330,Sup boi,soulsopan3,,dont have one😞,24-9-2021,
331,Cutie,cutie.com.07,,THANK!,22-9-2021,
332,Jayden,itsvlov,,Wallpaper ?,11-9-2021,
333,Wheelie Liam,wheelie_liam2,,App name,3-9-2021,
334,Greece❤,._ellada,,its not working,28-8-2021,
335,jedi leba,zovu_me_jurke,,thx,25-8-2021,
336,TomIsAmazeBallz,tomjaxn,,keyboard,20-8-2021,
337,Jose Tim,josetim2,,Put windows + G,20-8-2021,
338,OO\______/OO,randumguyidk,,cap,18-8-2021,
339,Torch😃,torch_123,,or windows + g,18-8-2021,
340,Bot Constructor,bot.constructor,,Thx dude 🙏🏼,18-8-2021,
341,ensø,enso148,,wallpaper name?,17-8-2021,
342,me,tajnardo2,,Windows + g,16-8-2021,
343,NSG 23,nsg2324,,I have AMD,15-8-2021,
344,florantedaldejr,florantedaldejr,,windows 7 here,15-8-2021,
345,Cypher boi,itzjrboiok,,nvidia only,14-8-2021,
346,ISFP,user32260265,,해석 좀,13-8-2021,
347,Kyzz?,kyzz_890,,thx,13-8-2021,
348,Khyleramas,binoangchallenge,,Cap,13-8-2021,
349,Eva_pe_zona,eva._.pe._.zona,,Dont work,13-8-2021,
350,--------------,aljherlouis,,ANY WINDOWS?,13-8-2021,
351,Your Just Noob😎😎😎,tyler__is__cool,,"i use ""obs""",13-8-2021,
352,Chasemoore Yee Alian,chasemooreyeealian,,i cant,13-8-2021,
353,PicDert,teamuppro,,obs studio,13-8-2021,
354,Najib Sampaco,najibtot,,"F12, HAHAHA",13-8-2021,
355,natan izraelov,natan464,,wallpaper ?,13-8-2021,
356,Monkey.D.Gol,monkey.d.gol,,F12,12-8-2021,
357,1‘#1306,amor_is_gwn_cool,,@guillaume.vanbillemont2 vuwala,12-8-2021,
358,หนูเเฮมสเตอร์,robloxggthai,,win +G 😅,12-8-2021,
359,Cyan1de,o.o_cyan1de,,wind+r,12-8-2021,
360,quandle.dingle,quandle.dingle.thepro,,ty,12-8-2021,
361,_mpi_,_mpi.p_,,its not working,12-8-2021,
362,😊,iwantrobuxpls29,,࿖,12-8-2021,
363,miiiirko,aubaelatz,,I do Win+Alt+R,12-8-2021,
364,urbcgdcburbc,papasaris,,bro thanks,12-8-2021,
365,☭Tavaline orav☭,orav_.cr,,I have win 7😪😭,12-8-2021,
366,asert.,__.asert,,How to clip?,12-8-2021,
367,🦋𝖃𝕽𝕲𝕮𝖃🧛🏾‍♀️♠🔯,xrg7x,,@joinvegetacult04 u may need it,12-8-2021,
368,KAMI SAN,kami____san,,wish I had one 😂😬,12-8-2021,
369,Kygbi,kygbi,,or win+alt+r,12-8-2021,
370,内は,szydru09,,or win+alt+r,12-8-2021,
371,kr_samppa,kr_samppa,,or win+g,12-8-2021,
372,Ραφαηλ Φραγκιαδακης,rafael_fr13,,wallpaper??,12-8-2021,
373,🍉🍉🍉🍉🍉🍉🍉🍉🍉🍉🍉🍉🍉🍉🍉,jdmpost01,,F12 its that ez-___-,12-8-2021,
374,the_famous_Tom,the_famous_tom,,Use obs???,27-8-2021,
375,Ryan,ryan2o6,,Don’t forget to download GeForce experience first,21-8-2021,
376,Dlo.prods,dlo.prods,,It doesn’t work for me… turorial?,18-8-2021,
377,boborjgod,boborjgod,,What wallpaper u using,16-8-2021,
378,Rasmin Delalic,jampoo194,,So that mean i can make video for YouTube?,13-8-2021,
379,B-7 Yves Voltaire Mo,solotheyolos6,,Does it work on laptop HP??,29-9-2021,
380,Thanh Thủy,dyy7vqca47dp,,máy có vga mới làm đc,26-9-2021,
381,damzy,damzyx,,you forgot to tell them they have to download geforce experience bru,26-8-2021,
382,yesbli0,yesbli0,,I have to look behind me every 23 seconds to make sure no demon in behind me cuz i watch scary 3am and sam and colby videos 😎,20-8-2021,
383,Pyramaniac,pyramaniac,,"Xbox Game Bar is great too, shortcut is Windows Key + G. ❤️",16-8-2021,
384,Trxcks,ttv_ratio,,does it work on HO LAPTOP?,14-8-2021,
385,😘😘😘😘😘😘,mohmme52,,"انا مشهور لاحد يكلمني؟😭😭
︎ ︎ ︎ ︎ ︎ ︎ ︎ ︎ ︎
عرض الردود (9798)﹀︎",12-8-2021,
386,Echotachi 😊,echotachi,,What is the build specs of the job,15-8-2021,
387,Jon Christian Pajureray,jonchristianpajur,,its not work my pc its acer,14-8-2021,
388,Aj,adorn_antonio,,thanks,12-8-2021,
389,Choco,cotton_cupcake,,nope,22-10-2021,
390,Quang Nguyen,poxredxd,,how,10-9-2021,
391,baldski,baldski_forlife,,pass me the lotions,12-8-2021,
392,Fw.vex,father.vex,,Where can I get the clip after,25-8-2021,
393,Lyrics On The BEAT,lyrics.on.the.beat,,what's the lotion doing there bro🤨📸,13-8-2021,
394,бебрик с горы,kira__yoshikage33,,where you buy this keyboard??,12-8-2021,
395,Flosvic,flosvic,,Me without gpu: Why u bully me,12-8-2021,
396,ラファエル,ggybjgygy,,Can u open it manually ???😁,21-8-2021,
397,Delfox 10,delfox101,,Rip navi users haha,16-8-2021,
398,Roberto Boon,robertoboon124,,Me using obs studio😳,13-8-2021,
399,Aaryan,aaryan905,,Why there lotion there 🤔,12-8-2021,
400,Slavko,slavkony1,,nothing,15-8-2021,
401,Dily,raditfirasyt,,Windows + g gang,13-8-2021,
402,DreamTech · Ersteller,dream.pc0,,Come talk to my by joining my DISCORD Link In Bio🥰,12-8-2021,
403,RONI,juups._.1,,"Only I can
comment 😏
︎
︎
︎
︎
︎
The host has turned off comments
︎
︎
︎
︎
︎
︎
︎
︎
︎
︎
︎
︎
︎
︎
︎
︎
︎
︎
︎
︎
︎
︎
︎
(Pin this lol)",12-8-2021,
404,Tejash Niraula,tejashniraula,,obs studio,31-10-2021,
405,𝓒𝓵𝓮𝓪𝓻𝓵𝔂𝔂𝓪𝓾𝔁,clearlyyaux,,W tiktok account,21-11-2021,
406,Dio,dio_isgay,,can u do a tutorial how to get rtx mode in pc???,29-10-2021,
407,baoz19,baoz19,,cái đó để làm gì ấy,8-10-2021,
408,El_Gato,ravengatuz,,f12😑,30-10-2021,
409,Rose,rose_towerofhell,,How about surface do you know if u know pls make a video and tag me,13-8-2021,
410,Itz Me Xiaoxiao,itz_me_xiaoxiao,,How To Screen Rec on Windows10?,21-4-2022,
411,Hutao,hutao394,,it's not for win7 untimate,16-8-2021,
412,AnimeSimp,animesimp8883,,How do I stop recording it with the keys?,13-8-2021,
413,ᜇ᜔ᜈ᜔ᜁᜎ᜔,achilleszexis,,ig its gtx10 series up exclusive,12-8-2021,
414,.,s4v4ge_73,,"can we record without ""ctrl"" ??",12-8-2021,
415,damn,gxkfzuxfu,,how to do live wallpaper in laptop😭,12-8-2021,
416,Bien Fernandez,bien20111,,what about the phones🥺🥺,12-8-2021,
417,Hi 😃,flickzc4m__vr,,How you get it,24-4-2022,
418,Widing Storm,windah801,,it can't,9-10-2021,
419,Uniiivxrs,uniivxrs11,,Mine is amd 💔😞,18-8-2021,
420,Serxi?,serxinihhhwoy,,and how to stop?,28-9-2021,
421,Kyle1117,just_kyle1117,,how to stop,13-8-2021,
422,Curved Aviation,curvedaviation,,when you have an acer laptop: depression,11-9-2021,
423,Maren1k,maren1k,,yo where'd you get the keyboard from? looks sick af,12-8-2021,
424,quiting,fackyou_y1018,,But how to stop,28-9-2021,
425,ManjoTy Plays Roblox,manjotyu,,Fake,24-8-2021,
426,Ultraman Xenon,hikuntul5,,how to stop pls?😂😂😂😂,13-8-2021,
427,.,abba_hagytam_goodbye,,Fake,13-8-2021,
428,Neapl_Society😃🇳🇵 edit🖤,ayush_editing,,how to stop😂😂,12-8-2021,
429,book,beoken267,,𝕀'𝕞 𝕔𝕒𝕟'𝕥 𝕀'𝕞 𝕛𝕦𝕤𝕥 𝕔𝕝𝕚𝕔𝕜 𝕒𝕝𝕥 𝕒𝕟𝕕 𝕫 𝕚𝕟 ℙℂ 𝕒𝕟𝕕 𝕕𝕠𝕖𝕤𝕟'𝕥 𝕨𝕠𝕣𝕜!,11-6-2022,
430,Fak putin men,bolo_jee,,But mine only records for like 20 min and then it saves how do i make it infinit,12-8-2021,
431,æ,goooofyahhh,,And this whole time I’ve been using OBS🤦‍♂️,12-8-2021,
432,fOlloW oR I'll eAt uR CoOCKie,alex_iscoming,,and the same button to stop?,13-8-2021,
433,Elite Nasty,elite.nasty,,and u NEED a NVIDIA GPU so or u can use medal it's a free clipping software (I use medal too),12-8-2021,
434,🌞𝗦𝗽𝗮𝗺𝗼彡🌞,spamo.1,,@dream.pc0 Bruh i need your keycaps where can i buy it pls give me link pls,12-8-2021,
435,CodeyBR,codeybr,,You can also just alt-f9 to start a video,28-8-2021,
436,Unknown_vr,purplemonke_vrr,,I just do windows+alt+s,24-8-2021,
437,Rico 🤴🏽,son_rico,,"I just have instant replay always on, saves the last 10 mins on my hard drive. If you always hitting clips go for a 3+TB",17-8-2021,
438,LvStrng,.lvstrng,,"Attention, is only for nvidia drivers",17-8-2021,
439,i don’t like you,the.disappointment69,,my Geforce stopped letting me record in general,16-8-2021,
440,ntoufass,_.ntoufass._,,shortcut for clip on invidia app,16-8-2021,
441,🔴⚪️🔴⚪️🔴,_._.._3_.._._,,Or win + g using xbox panel cos i dont have nvidia installed and i cba lol,16-8-2021,
442,ben,benwyatt9,,yeah if you have a Nvidia 3D card,16-8-2021,
443,tak,multipla_najlepsza,,"Windows+g it will show menu of record clips and and there u can start recording, od u wants to record last 30 seconds Windows+Alt+g",16-8-2021,
444,David Romero6241,mcdavid689,,I have Radeon software and for that you just hit alt + r,16-8-2021,
445,Zesty,its__zesty,,Also tou can do alt+f9,15-8-2021,
446,Woytek07,woytek07,,Oh guys top tip if u got a low end pc and cant play hige games google geforce now and make an acc u acn rent an op pc and play games that are free wit,12-8-2021,
447,SuperD,scochi123,,This guy doesn't specify. YOU NEED A NVIDIA GPU AND THE GEFORCE EXPERIENCE INSTALLED,12-8-2021,
448,luca,lucascott25,,for people who dont have nividia do Win+alt+g,12-8-2021,
449,FINDINGNEMOOOO,lousptrdge,,you just can press alt+f4 k bye,12-8-2021,
450,"Someone, anyway",nullified07,,You need the GeForce experience for that.,12-8-2021,
451,Hiltel,hiltel,,or just click alt f9,12-8-2021,
452,Lol Poool,lolpoool82,,AYO U GOT LUBE ON UR DESK LOL,12-8-2021,
453,ji2b,ji2b_,,"if you can't use this use win+alt+r, or win+g",12-8-2021,
454,UnaPersonaACaso,fratellostupido,,To clip it’s alt f10,12-8-2021,
455,Ralfs Zeltiņš,ralfszeltins,,only works if you have geforce experience,12-8-2021,
456,आशिष साह..❤️✨️,yestopokuraraichanetaa,,or u can press all+f9,12-8-2021,
457,luktukh24,luktukh24,,"with gt 730 ""ALT + Z"" 💥bomb has been planted...💥",12-8-2021,
458,😲,wan_1x,,Oh Yea Go to You Game Or Google meet At Try Alt+F4 That can Be U Keyboard light,12-8-2021,
459,rai,raiondakopter,,Pt.11 to pt.56 bruh,17-8-2021,
460,305.Joaqui,305.joaqui,,Those keys r sexy,15-8-2021,
461,ѕмσѕнι☂️,arvinjoshsimon1,,just use f12,12-8-2021,
462,Tnc Aijiro,tnc_aijiro,,Me : Alt + F9,12-8-2021,
463,Leong Hai jie,xxxhowtoplaynothingxd,,press F12,13-8-2021,
464,Cosmo. 1,tiktokcosmo1,,Press f12,12-8-2021,
465,Brendan,itz_.brendann,,What do you do to stop recording the screen once your done?,17-8-2021,
466,Jonasbautista,xxtentacionfan111,,i know but im lag if i record😔,9-10-2021,
467,💀😖😖,valkgotproskillsatvb4.2,,•CLICK ALT F4 TO GET 30K FOLLOWERS•😂,13-8-2021,
468,Exotic_Aim224,landoniyoupe1,,It doesn’t work,6-2-2022,
469,User 2,theseconduser,,@mxsyz,12-8-2021,
470,Ur local ginge,local_ginge,,@d1llxn17,13-8-2021,
471,🥷🏽,owe.n___,,@jj_johns07,13-8-2021,
472,AntiSocial🈵💥,a1hunna___,,@imabuisybuisyman,25-8-2021,
473,minus4,amirlan_tt,,@sussypapi_,17-8-2021,
474,zachh.,shitty.z4ch,,@petraokire_,14-8-2021,
475,Stijn,stijn_hendrikx,,@ivarhoogendijk,12-8-2021,
476,sam,bluemonkey85,,@8bladi8,12-8-2021,
477,Brendan,itz_.brendann,,@boominations_,17-8-2021,
478,Majsen🌽,ofc._.majsan,,@majsan.hatar.dig,28-2-2022,
479,Kirby_0313,frankie_collins,,@sqizyzclips,5-2-2022,
480,keyy,keyyyy_z,,@ren13737,31-1-2022,
481,Prince_jr6,prince_jr6,,@blackxn8cantedit,7-11-2021,
482,stypn,stypn,,@,25-9-2021,
483,✞,.glorius,,@steliospapastylianou3,6-9-2021,
484,-_-,adudu443,,@steffyevans,5-9-2021,
485,better editor than ayd3n_ldn,tanjirotho._,,@golden_crown4,21-8-2021,
486,ᴛʜᴀʟᴀꜱꜱᴏᴘʜᴏʙɪᴀ,wxng_xz,,@wrdi_28,16-8-2021,
487,KevLeet,kevleet,,@dianalozano6,16-8-2021,
488,Jule 💗,jule_nma,,@www.maraa.de,12-8-2021,
489,.,fndan126,,@,12-8-2021,
490,Xx_EXCOM_xX,akkarawatxd,,ALT + Z ;-;,12-8-2021,
491,your.bby4,your.bby4,,wai wai wai i NEED the foto of the wallpaper right now,12-8-2021,
492,Fra,_._.fraaa,,You can also alt+f9,12-8-2021,
493,Jb,fortnitepogger69_420,,Amd users: what,12-8-2021,
494,Alexx PT,alex.s_pt,,if i have Nvidia,12-8-2021,
495,un0,un0ac4s0,,on my pc it doesn't work cuz I have a gt 1030 lul,12-8-2021,
496,kat,izdihar206,,"when I ask to Alienware R11 seller why is he selling with overpriced, he answer my question the answer is : to play Minecraft with maximum fps",12-8-2021,
497,frootloops,kyloop_,,obs best tho,12-8-2021,
498,Daniel,_did__you__know__,,I use OBS,12-8-2021,
499,eeeeeishom,marky_jj,,i really love your keyboard,12-8-2021,
500,Tiffジ,s._.tiff,,qual é seu monitor?,12-8-2021,
501,Grandpriest>>saitama,gokubeatsaitama12439,,It dint work for me,12-8-2021,
502,Grace 🐸,gorayce,,this litterally only works if u have a nvdia geforce,12-8-2021,
503,🖤,mr.ryuketsu,,that keyboard tho,12-8-2021,
504,我今天要早睡,yeet_ren7,,U actually just need alt+z only there s no need to press the windows key,12-8-2021,
505,Toni,toni.smithy,,"love your tips ❤️serious question thou, how many times have you recorded yourself hitting the air drums for your vids??",12-8-2021,
506,Tr Trung Hieu,hieuttr.03__,,It just nvdia record u need that graphic card to get the recorder,12-8-2021,
507,Stewie Griffin,kidvelardo0,,yall can just F12 to record and to stop hit F12 and it will be saved in your files right?,12-8-2021,
508,OʜMʏHᴀɴᴀ <3,r3nn0._,,is that work?,12-8-2021,
509,Botak,lad.luqm4n._,,hmm what u doing with that lotion,12-8-2021,
510,TANTAN,tantan.gc,,i use alt and f4 lol😅😅😅😅,12-8-2021,
511,alvingoo • following,alvingoo27,,press win+g to open Xbox game menu to screen rec,12-8-2021,
512,Tibo,tibokes14,,cap,12-8-2021,
513,bruhimagine,ottoman4life,,that only works with Nvidia cards guys don't even try it if you don't have an Nvidia card,12-8-2021,
514,I am the milkman🥛,bread91142069,,or just alt f9,12-8-2021,
515,FROG🐸✨,froggy.flowerr,,How can we stream on PC ??,12-8-2021,
516,Santiago Tria,santiagotriaa,,how to download gta 5 or 4 for free in pc?,12-8-2021,
517,3100?,union_europeenne,,how to record in desktop ?,12-8-2021,
518,l.,lucsrz,,just alt z,12-8-2021,
519,lowkey_Rajah,lowkey_rajah,,what keyboard is that,12-8-2021,
520,i like anime,animeasalways22,,how to screenshot i need it for school,12-8-2021,
521,wolisgoat,wolis_on_gfeul,,pin this 🛸　　　 　🌎　°　　🌓　•　　.°•　　　🚀 ✯ 　　　★　*　　　　　°　　　　🛰 　°·　　                           🪐 .　　　•　° ★　•  ☄ ▁▂▃▄▅▆▇▇▆▅▄▃▁▂,12-8-2021,
522,GotNew6,gotnew6,,คือไรครับ,12-8-2021,
523,StormZ,nasty._.gun,,or just alt + z,12-8-2021,
524,[NVD]Nam0NeverD1e,tasakung,,there's another way Window+G,12-8-2021,
525,M̆̈ĕ̈ğ̈ă̈n̆̈,.m.e.g.a.n.0,,@anyatyson01 do u think this would work on ur laptop just for like when we want vids of us on roblox and our achievements,12-8-2021,
526,FaNnY_GoDs4,fanny_gods4,,first: get a pc,12-8-2021,
527,I got hacked 😑,528xy7,,Yo what's that lotion your desk 😏😏,12-8-2021,
528,😎Asher.Boy96😎,mysticgod96,,@taymhp,12-8-2021,
529,juanjuan_,juanjuan1_,,You told my your monitor is the Samsung 1ms but it came up with a 12yr old monitor 😂,12-8-2021,
530,Richdad Abonita,_imthetrash,,nah obs is better,12-8-2021,
531,Marcsebastian123,marcsebastianofilan,,https://vt.tiktok.com/ZGJUNfVHA/,12-8-2021,
532,𝔹ℝ𝔸ℕ𝔻𝕆ℕ,neribrandonaguiles,,win+alt+z,12-8-2021,
533,Riley Blackburn,anime.kaden1,,dude the amount of weeks ive been looking for this song there is a guy called chris andrian and his voice is so good and hes resings this soong,12-8-2021,
534,Perigrine_,perigrine_,,U could also use windows + G,12-8-2021,
535,DeadLight_126,deadlight_126,,when im trying to connect the account to the geforce its not working and when im trying to record it automaticlly stops,12-8-2021,
536,Cindysh1ne,cindysh1ne,,@paularouwu,12-8-2021,
537,unknowns,uknownboris,,nice lotion 😏,12-8-2021,
538,Vinland Saga,alex.dluffy,,Its record sound to,12-8-2021,
539,Sato_Ryuji,ciaspyagent,,wait is it alt+winds+r or that one? im confused,12-8-2021,
540,Yuki,yuki_sakura_pink,,WAIT WHY DIDNT I KNOW THIS,12-8-2021,
541,Noel Jaye Sajonia,noeljayesajonia,,alt + z hehe,12-8-2021,
542,yo 😍💅,amb3rxx0x,,OMFG TYSM,12-8-2021,
543,SUS AMOGUSUSUS SUSSY SUS SUS,hentai_specialist,,"can you please answer one question, is it gaming or build keyboard?if its gaming say name pls",12-8-2021,
544,Segen,segen420,,Or Windows + alt + r,12-8-2021,
545,yukbakaissus,yukbakaissus,,Win+g,12-8-2021,
546,Shokololoy Original,anonymousolopy,,@joffyy,12-8-2021,
547,🍙 mora 🍙,vi._mor,,Alt + f7 starts recording and alt + z does a scteenshot,12-8-2021,
548,KιɳɠAɾƚԋυɾ☑️,hehehehehehehehehehe1st,,No it's Win + alt + r,12-8-2021,
549,.,zaikiramyidol,,Sir can you do about how to make ur mic audio so pretty Good?,12-8-2021,
550,VE•EggButD1ff亗,eggbutd1ff,,win + g try it,12-8-2021,
551,Give me D. Name,i.need_d.name1,,But when i clicked F12 it showed a redline at the corners of the pc monitor and it was recording,12-8-2021,
552,Shush ur not on badness,.sw1sh7,,@godlykacper I'm very sure yk already😅,12-8-2021,
553,Noah Nicholls,lfcnoah,,I thought that was blood on ur keyboard,12-8-2021,
554,Husejn Šakić,husox._,,why you have cream for hands here you watch something😅,12-8-2021,
555,gta5,potanginamooooooooo56,,f12,12-8-2021,
556,RaptaG,g.rapta,,You gotta make some Linux tips I think..,12-8-2021,
557,Rozek,mateuszmati188,,@__bucik__ oznacz mnie pod tym też,12-8-2021,
558,Max神,maxinator_11,,Dont work,12-8-2021,
559,vin.vfx,vin.vfx,,This was so helpful omg thank you🥺🙏!!!,12-8-2021,
560,กุเเซด🥲,zxrzia,,คืออะไรอ่อครับ😅,12-8-2021,
561,Kiel igop,kielacacio19,,its not work,12-8-2021,
562,Kiel igop,kielacacio19,,why does is nit work,12-8-2021,
563,user967161656128,franciscobalbeira1,,Para gravar para quem n tenha nvidia: carrega Windows +g,12-8-2021,
564,🐵👳‍♂️,shmulu,,"only alt+z
and u need geforce",12-8-2021,
565,👁👅👁,nekt70,,THATS FOR NVIDIAAA I HAVE AMD RADEON SHIT,12-8-2021,
566,ok,4frag,,Doesnt work?,12-8-2021,
567,abs0lutef00tball,abs0lutef00tball,,HAPPY EARLY FRIDAY THE 13TH!!,12-8-2021,
568,mia,idk_bob.shahal,,@idkclanontop,12-8-2021,
569,...,camm.66,,Why i cant save this video,12-8-2021,
570,CJ Recarro Vargas,cjrecarrovargas,,@dream.pc0 is it work to windows 7,12-8-2021,
571,18 . 06 🥳,prinxessjune,,Why I cannot?,12-8-2021,
572,Nik,foti_nik,,thats dogshit just use obs like a normal person,12-8-2021,
573,Roan van den Bogart,roanvdbogart,,WINDOWS KEY + G 😏,12-8-2021,
574,💫mmegant9876xxx💫,megantsweet9875xxx,,wait how do you stop recording😂,12-8-2021,
575,💫mmegant9876xxx💫,megantsweet9875xxx,,OMG WHERE WERE U WHEN I NEED YHIS😂,12-8-2021,
576,PaYaS,nigariansaurus,,Xbox game bar,12-8-2021,
577,🅰🆈🅰🅰🅽,2x.ay44n,,Delete system 32 trust,12-8-2021,
578,please,plzclickme,,"And that video saves in ‘files video, or somewere else?",12-8-2021,
579,ALLAH AKBAR,islamsmylife,,1:get a desk 2:a monitor 3:pc,12-8-2021,
580,Tik Toker,indianteliliqenisis,,Lol I broke my monitor cause of vr,12-8-2021,
581,Tomas,wolfine2007,,@bernardo560 a,12-8-2021,
582,admela <3,left_on_read_,,@iiquixrobloxgamer,12-8-2021,
583,",",psikopatpasha,,YOU NEED NVIDIA GPU TO GET ACCESS THIS FEATURE,12-8-2021,
584,IGN: 5332087128,revolv_here,,I Knw it there would be a random video saying u could record on any pc and later in comment says only on nvidia nice scam be happy for 5 seconds,12-8-2021,
585,Ty,mrst3pdad,,Bro you have exact same key caps,12-8-2021,
586,Crossi:),crossibad09,,@taypro0 geil,12-8-2021,
587,Tyler Harvey,tyler.h18,,let me save,12-8-2021,
588,XD.EXE,xdddddddd910,,co to za klawiatura?,12-8-2021,
589,Pivajdo,pivajdo_planes,,or win+alt+r😳,12-8-2021,
590,ณัฏฐ์นนท์ ศรีบัณฑิตบวร,99999999999s,,"BRO, My computer playing games is so fk lag, How to fix it.",12-8-2021,
591,Peterson,petersonwastaken,,Where can i get your wallpaper?,12-8-2021,
592,その幽霊,camoz_yt,,Lemme save,12-8-2021,
593,Jynxz,r9jynxz,,Nice,12-8-2021,
594,Wsc_Edwin,wsc_edwin,,@finns_a_qt,12-8-2021,
595,army and military,onlyboys543,,How do u put them on YouTube,12-8-2021,
596,😈,judd_da_spud,,Just need alt z,12-8-2021,
597,Rikka.,rikkabozo,,bro this keycaps😳,12-8-2021,
598,nathan 🥶,.yaboinathan1,,where did u get the wallpaper from?,12-8-2021,
599,ana piteira,anapiteira3,,O creme lá atrás 😂😂😂😂,12-8-2021,
600,martin007858585,martin007858585,,ehere I cut video? ( film.ts <-----) ??,12-8-2021,
601,Yoqu,yuxoo0,,How do you do it on a radeon rx 6600 card?,12-8-2021,
602,Luki,lluk15,,"That only works if you have geforce GPU, just do winkey and G that will open the win 10 built in recorder, set it to 60fps in settings insted of 30",12-8-2021,
603,Yes,mom_slayer420,,Can you do Screenshot next?,12-8-2021,
604,Harry Hughes,hxrryxhughxs,,Make it savable,12-8-2021,
605,__twenty_,__theboynextup,,what is the name font your profile,12-8-2021,
606,Tepetik,tepetik,,"Download tiktok videos without watermark and no cost :
https://tepetik.com",12-8-2021,
607,Peanut,peanutisit,,IT FUCKING NEEDS GEFORCE EXPERIENCE TO FKIN DO THAT,12-8-2021,
608,a może i jestem?,mnie.tu.nie.ma...._,,u can press windows + alt + R it will record too,12-8-2021,
609,Irham Hanifah,irhamkunz,,@rxzfdriesz,12-8-2021,
610,Murtle the Turtle,murtletheturtle8,,"Ha, I use obs",12-8-2021,
611,Christof Apolinario,christof013,,"only in Windows 10
if your computer is low e.g. Windows 7,
use bandicam",12-8-2021,
612,ﾠ,denislmaoo,,Small problem umm I don’t have a gpu….,12-8-2021,
613,Sky'sTheLimit,skysthelimit0011,,can u tag me in a savable version please??,12-8-2021,
614,Jason Liang,jason.liang,,Or just use obs,12-8-2021,
615,Hates_flys21,sebastians_2,,@jayden_8860,12-8-2021,
616,Hates_flys21,sebastians_2,,@p1uto_fn,12-8-2021,
617,Edan,edanlevi,,"its only if you have geforce experience app on your pc, idk why he didnt mention that...",12-8-2021,
618,Monsuuni on hyvee,benjan.dr1p,,Let me save,12-8-2021,
619,Yᴇᴅʀɪғᴛ,yedrift,,Don’t work for me,12-8-2021,
620,Matteo??,matteo_matteo08,,@alexz2314,12-8-2021,
621,Andrei Negoita,mrandrei0,,peepeepoopoo,12-8-2021,
622,Diligence,contruded,,I have a different pc so I just use radeon's recorder,12-8-2021,
623,Anonymous,truelordtokyo,,who tf doesnt know this,12-8-2021,
624,á,81z6_,,Or alt + f9 😁,12-8-2021,
625,games,ticktooq,,Note: you must have nvidia GPU for this to work,12-8-2021,
626,DioDio,nirvana.islife,,Its for only Nvidia,12-8-2021,
627,🥀samir🥀,not_samir,,But how do I post it on tiktok?,12-8-2021,
628,user133364083696,bu11et5,,I thought you spilt ink on your keyboard😅,12-8-2021,
629,Spectator,.polarize,,POV:you dont have geforce,12-8-2021,
630,stefi <3,tuxiiis,,screenshot?;-;,12-8-2021,
631,Sean Lee tawagin nyo ako sean,sean_7193729,,When u accidentally press alt plus 4,12-8-2021,
632,hannah,xxii._.o.o,,@miss.xiao,12-8-2021,
633,hi,cyndakin,,What pc do you have btw,12-8-2021,
634,Ninja.vibezz,ninja.vibezz,,What games do you play,12-8-2021,
635,Quin VR,quin._.vr,,If not is ur monitor Evan turned on,12-8-2021,
636,Om jag e taggad e jag känd lol,strogenrp,,Maos car pet,12-8-2021,
637,Your mom,mfxmax,,How to I screenshot my screen in PC?,12-8-2021,
638,Adam,itsarfix,,or download obs,12-8-2021,
639,Plasma Panda,plasma_panda425,,I need to save,12-8-2021,
640,Lukas_Bajsar,luks00000,,aru u cool?,12-8-2021,
641,Lukas_Bajsar,luks00000,,Alt + Z,12-8-2021,
642,.,doge_sk1,,@orlesk1,12-8-2021,
643,AFK,fullturkey717,,what da cream doin 🤨,12-8-2021,
644,SEMM + STTN,babyshinei,,How about window 10 DELL?😳,12-8-2021,
645,_abbru_edit_,_abbru_edit_,,Pls can you do Mac tips?,12-8-2021,
646,Royale603,supadupaelims,,didnt work,12-8-2021,
647,slendergaming322,slendergaming322,,you need to download nivada to start,12-8-2021,
648,I luv valorant,smxkzyy,,Does this save to files ?,12-8-2021,
649,Xdbroomstick,1_1tom1_1,,what keyboard is that? Also are they custom key caps cause they look good as,12-8-2021,
650,MrWater,mrwater.00,,If you have an AMD GPU it is Ctrl+shift+E,12-8-2021,
651,Antonis,gp_venom_ff,,@gi4nnis2,12-8-2021,
652,✨꧁𝙊𝙛𝙛𝙡𝙞𝙣𝙚ᕕ( ᐛ )ᕗ꧂✨__✍︎,farhah_482,,is not working,12-8-2021,
653,wsp,_.mango._,,o use alt f9 lol,12-8-2021,
654,yourlocalaibot,zzzzzaaaaaccccchhhhh,,NO! NEVER! JUST USE OBS!,12-8-2021,
655,Charlie,bigboycharlie5,,@jacobsalenieks0,12-8-2021,
656,DefNotWienHere.,justnot._wienhere,,OH I KNOW WHY I CANT because im on windows 11,12-8-2021,
657,macedonian vibes 🇲🇰,tnzodark_mags,,it's only for people who have Nvidia,12-8-2021,
658,Bủh,xam546556454,,Macbook pls,12-8-2021,
659,Trent,trentcant_skate,,RANDOM LETTERS 😳,12-8-2021,
660,YouTube link in bio,norwegian001lol,,I have gforce gtx,12-8-2021,
661,Ja,moderator.2000,,its only work on geforce expierence dump,12-8-2021,
662,⠀ ⠀ ⠀ ⠀ ⠀ ⠀,27hynekc,,or just do win+g and u can screen shot and talk to ur friends to if u have xbox..,12-8-2021,
663,arkenxz,arkenxz,,what's that keyboard?,12-8-2021,
664,꧁𝕌𝔻𝔸ℕ𝔾꧂,randomly997,,thx for the information,12-8-2021,
665,zvonimir,krastavac1234,,@matejsertic_,12-8-2021,
666,อ๊บ อ๊บ เองคั้บ,sosad001,,"I want to show FPS on the screen, what to do?",12-8-2021,
667,otakugamer3079,otakugamer3079,,👬👨‍❤️‍💋‍👨👨‍👨‍👦. 👭👩‍❤️‍💋‍👩👩‍👩‍👧,12-8-2021,
668,Alex,_alex__mourk_,,@why_jason,12-8-2021,
669,Raage Raage,raageraage0,,if you make alot of videos are youre fps going down?,12-8-2021,
670,🖕,milly_1234568,,What’s a good monitor to get 😅,12-8-2021,
671,Arran,arrandacrayon,,Or install obs,12-8-2021,
672,Gabri,gabri5381,,Only if you have Nvidia and your card mette the minimum requirements for that,12-8-2021,
673,Patryk X,patryk_x_klimek,,tanks🥰,12-8-2021,
674,BENZ ครับ,benz.v1,,🇹🇭🇹🇭🇹🇭,12-8-2021,
675,NksRl,nks.rl,,ctrl+alt+r better,12-8-2021,
676,Andrew,thestraightgang10,,Windows + shift + s,12-8-2021,
677,YoungCoderr,youngcoderr,,"You have to install geforce experience,and you must have an Nvidia gpu,don't work with amd ones",12-8-2021,
678,AsherGuy,asherguy,,alt + f9,12-8-2021,
679,Utku Çankaya,utku._.cankaya,,İs didn’t work i have intel hd graphics 400 😂,12-8-2021,
680,Jakub Pászto,jakub_13579,,@xdand_is_weeb,12-8-2021,
681,user7793135805175,yourlocalasiannerd,,Bruh I don’t have nvidia,12-8-2021,
682,I think so,rebelbigt,,Just get Obs,12-8-2021,
683,Meme god,memegod059,,u can also do win + g,12-8-2021,
684,hockeydylan24,hockeydylan24,,Is your keyboard a mini?,12-8-2021,
685,milk 🍼,matrix_142,,how do you end it??,12-8-2021,
686,Aannoyed YT🇵🇭🙂😋,aannoyed_yt,,i mean windows 7,12-8-2021,
687,Aannoyed YT🇵🇭🙂😋,aannoyed_yt,,im on windows 4,12-8-2021,
688,[who?],meef_04,,Alt+F9,12-8-2021,
689,🐐,su1e.2x,,@hxprkage,12-8-2021,
690,LOCO🥷🏽🥷🏽🐍🐍🇮🇹,samo.gr,,My fps from 📈 to📉,12-8-2021,
691,Isaac saldivar,isaacsaladbarz,,"can u do a keyboard sound test that
ts a nice keyboard ngl",12-8-2021,
692,Dal,puyyuhyyuhpu,,my pc suddenly start working veryy slowly by slow i mean like you have to wait 30 seconds for it to open google how do i fix it??,12-8-2021,
693,shadxw?,userwulsqd85wa,,"does not work, writes that you need to start the game",12-8-2021,
694,Zukuru,zukuruu,,Thanks bro,12-8-2021,
695,finn >>>>>>>,mioyaiscrazy,,that would always pop up when i wanna play rblx on my bros pc,12-8-2021,
696,London Schaffer,londonschaffer,,@dream.pc0 you should use translucentTB it’s free on the Microsoft store it makes your taskbar clear,12-8-2021,
697,[REDACTED],says_what,,yo what keycaps,12-8-2021,
698,QKCD,ngacox,,Win+G,12-8-2021,
699,Alex💀,siclizard,,Love your keyboard btw,12-8-2021,
700,если это не рофл то я твоего д,ukaikovtun,,940mx ... Xd,12-8-2021,
701,My Name Is Destroyer,destroyer_1117,,@orfanotrofio5,12-8-2021,
702,Pu77_Puff,pu77_puff,,Question. what is your keyboard. Is it good and what is your key caps and switches???,12-8-2021,
703,ian,ian2061,,but I have an Intel :/ I only use the Xbox One Game Hub,12-8-2021,
704,Sainsblox,sainsblox,,how do u get that i tyred and it didnt work and i have a HP,12-8-2021,
705,justaweeb29,justaweeb_3,,Or if you have an Xbox acc and it’s linked to your com or pc you can press windows+g so then have access to game bar to record,12-8-2021,
706,Thyan Botha,xd_thytan,,only works on nvidia gpu's,12-8-2021,
707,danypetrov97,followingtoofast658,,Or win+g,12-8-2021,
708,St.Peter,renrensario,,it depends on the pc u have lol 😏,12-8-2021,
709,verticaljunki,verticaljunki,,Can you do something for windows surface?,12-8-2021,
710,zyncey_da_tiktok_guy,zyncey_da_tiktok_guy,,Or just install Obs Studios,12-8-2021,
711,I like video games,notjacob01px,,"dude I've never watched so many videos on one acc, ur the best",12-8-2021,
712,Ascote,ascote_,,Bruh just do alt f8,12-8-2021,
713,И кво от тва :),kr1m4eto,,"First step: have a nvidia graphics card
Two: Install Geforce Experience",12-8-2021,
714,Asher x,asherhezron1020,,i didnt use that,12-8-2021,
715,leococoni,leococoni,,Yo lo hago con alt+z pero tengo que aclarar que creo que necesitas una tarjeta gráfica NVIDIA y GeForce experience instalado creo,12-8-2021,
716,s,1threat,,obs is better,12-8-2021,
717,angga aditya,anggaaditya39,,win +alt + R,12-8-2021,
718,William,british_kid_,,I do control g lol,12-8-2021,
719,Crystal,crystalclearpvp69,,I alrey knew this and it doesn’t work for me since I have a gt 730,12-8-2021,
720,salamancajoseph,salamancajoseph,,keyboard???,12-8-2021,
721,sushi,sushi_dude123,,Congratulations. You found me. The sushi lover. You’ll most likely never find me again. Goodbye now 👋. Have a wonderful,12-8-2021,
722,monkey,.monkey16,,il rather use obs,12-8-2021,
723,monkey,.monkey16,,were did u get that keyboard,12-8-2021,
724,valoranymeme,jxnasplayz,,how to stop record,12-8-2021,
725,jyzeiah/zeizei,couldnt_find_nice_name_,,@mrs_shimi3 like so I can remember ok,12-8-2021,
726,i,murmon601,,i recording with bandicam,12-8-2021,
727,waleed,wixrd_,,people with amd,12-8-2021,
728,sxlty._,jus_a_normal_teen,,how to screen record on a normal stock laptop-,12-8-2021,
729,MrGangster Boy,mrgangstrboy,,u have to have GeForce experience installed first guys!,12-8-2021,
730,Lemme think,ilikemensexually,,alt f4 for extra frames I ypur recordings!,12-8-2021,
731,Erichone Fainoiu,erichone2,,can you white-list me plssss name:Erichone,12-8-2021,
732,Tan5,tannnnn54,,OBS enjoyer 😎🤙,12-8-2021,
733,robertcanton,chong_boi0,,review nga idol sa gigabyte g24f,12-8-2021,
734,frc2090,frc2090,,that's only Nvidia dumbass this vid is not a tip at all,12-8-2021,
735,✰ 𝐊𝐀𝐋𝐄𝐈 🌈🍍💜✰,kaldabsondahaters,,How do i send the video to my phone?,12-8-2021,
736,Adam Moreno,adeymmsss,,the best tips is to always have a tiolet paper beside your pc😂,12-8-2021,
737,_nobody,idfreakingcaree_,,Just press ALT + F9 🤧🤧,12-8-2021,
738,MonkeyBroSpot,monkeybrospotyt,,The lotion 🧴 doo,12-8-2021,
739,ihminen,aka.rompetori,,or just download obs,12-8-2021,
740,rude,ihavaarude,,what are those keycaps,12-8-2021,
741,mafini.sk,mafini.sk,,pls name of keycaps 😅,12-8-2021,
742,iceygamer1234,iceygamer1234,,or use obs,12-8-2021,
743,Eagle,darling._.eagle,,To record a clip in game press alt +T+R+F4,12-8-2021,
744,channing,qt.4.you,,I need laptop tips...I just have a moniter connected,12-8-2021,
745,Sashko,sash3to,,Wallpaper?,12-8-2021,
746,Spooky👻👻,s.p.o.o.k.y.2,,tips nah i’m gonna show one,12-8-2021,
747,Harlow,ele_phant.1,,Dude I am following my pc is coming tomorrow,12-8-2021,
748,Lookoutyourbackwindow,lookoutyourbackwindow,,this did not work for me,12-8-2021,
749,Khanh Nguyen,dattenthoicungkho,,"do pink screen error pls, thanks you so much",12-8-2021,
750,Maksim Lyubovskiy,maksim_lyubovskiy,,alt+z only works if you have an nvidia graphics card. win+alt+r is if you dont,12-8-2021,
751,bye,byeeveryoneiguess,,HOW TO UPLOAD TO IPHONE,12-8-2021,
752,Rez bum,that0neguy_1,,haha I have a gt 710 so I can't do it,12-8-2021,
753,JustNubb,justnubb,,Just download obs.,12-8-2021,
754,Syke_2008,syke_2008,,@ilililililililil00 @panosss_123 parte,12-8-2021,
755,♤Neithan,neithansamaco,,you can try win + alt + r,12-8-2021,
756,Ivory,ivorytok,,AMD USERS: 🥺,12-8-2021,
757,NonZaDiss,rachanon669,,อิหยังช่วยบอกที,12-8-2021,
758,Ari.mp3,ariiscool21,,LET ME SAVE IT,12-8-2021,
759,I like men,tombecrazy,,When I do that my pc just like oh no I’m just gonna turn off,12-8-2021,
760,Futt.Sam,futt..samm,,"Damn i was thinking of making some videos soon and this helped me, tysm",12-8-2021,
761,Thịnh Nguyễn Gia,jazz_think,,if u have a card nvdia :)),12-8-2021,
762,金冬天,ansel.tey,,Flex pc set up,12-8-2021,
763,Fishcat<3,ily_fishcat,,I do it on mac,12-8-2021,
764,🎴Random edits🃏,infiniteditzz,,Same keycapsss,12-8-2021,
765,Vincent /\/\/\,kappagd69,,Or use obs,12-8-2021,
766,₥ilk 🥛,xctyz,,PC tip pt 69 - how to get a pc,12-8-2021,
767,Tik Toker,benoitlikesmen,,that’s only if you have geforce experience tho,12-8-2021,
768,Yokaiguyyt,yokaiguyyt,,Just alt z,12-8-2021,
769,Merlin,wraith_the_wrath,,@bananacruncher 👍,12-8-2021,
770,Borås,linuzhansson,,what’s ur Keycaps?,12-8-2021,
771,Buzzaw,buzzawxd,,that's if you have gforce,12-8-2021,
772,Trrent0n,trrent0n3,,What keyboard do you use?,12-8-2021,
773,CrafterGaming,a.mullinex,,@gavinfrance0,12-8-2021,
774,i WaNt To dIe <3,florie_dullspill,,but does it work on widows 8 thats not activated,12-8-2021,
775,Teesh,ilovecats.com70,,@daffyedits,12-8-2021,
776,Aadian,fwaadian,,or win g,12-8-2021,
777,honore_de_balzacc,honore_de_balzacc,,"u dont need to press windows button, u can just use alt+z",12-8-2021,
778,BB,bb.vr,,ever heard of obs,12-8-2021,
779,Zolla Silva,dzolla,,bang keypcaps nya beli di mana itu,12-8-2021,
780,🥶,s.shinra,,Ty,12-8-2021,
781,i love you all ✊🏽💯,lilbabyamarii,,@.The Fallen One.,12-8-2021,
782,Random_videos lol,goaheadnrage,,Bro not me downloading screen recording apps 😁,12-8-2021,
783,Dan👍,danie11h,,No the lotion on the side,12-8-2021,
784,Jayden,jay125629_,,I don’t know why my Pc can’t record with Nvidia,12-8-2021,
785,apocalyptic,apoca1ypt1c,,Where you buy these key caps?,12-8-2021,
786,andrevargas,pingu747,,ESTA INFORMACIÓN VALE MILLONES,12-8-2021,
787,Lukas,lukasfarrell034,,Where do u find the videos,12-8-2021,
788,IVXY299,ivxy_299,,THANK YOU i just got a new pc for this thx,12-8-2021,
789,Joestarsan乂𝐃𝐄𝐄𝐙𝐍𝐔𝐓𝐒𝐒?,konodiodazawarudo_,,how about laptop?,12-8-2021,
790,Vincy787878787,vincy787878787,,Please pay attention to me.thank you!,12-8-2021,
791,Charlie Faris,c.faris22,,or alt+f9,12-8-2021,
792,brr🥶,userq0a5lzjp2u,,let me save this 😐😐😒😒,12-8-2021,
793,Steven Kidd,stevenkidd22,,Win + G for HP amd,12-8-2021,
794,Alex CROSS 😩😩😩😩,arekkusu_kurosu,,Where did you get those key caps I need them,12-8-2021,
795,Dave 🥶🥵🔥💀👨🏿‍🦲,briano4000,,Nice setup 😁,12-8-2021,
796,Quacks,quacksyerboi,,sad obs noises,12-8-2021,
797,Henry,dr.chokonmacok,,Thx so much I just got a pc and this really helps,12-8-2021,
798,Arvin,arvin3315,,😶,12-8-2021,
799,Tik Toker,im.n0t.using.this.acc,,were did you get those keycaps or keyboard??,12-8-2021,
800,hey!,super_sonic001,,How can u stop recording tho,12-8-2021,
801,Osama’s Grandson,unclerayyanbbc,,@meme_lord69_69_69 this what I use u automatically have it if u have a GeForce gpu which u have,12-8-2021,
802,A soul in a shell,jaytheduck._,,use win + g 😐,12-8-2021,
803,Bentley Thomas,bentleythomas15,,But how do you get the mic to work????,12-8-2021,
804,Tavontanius FingleDingle,tavontanius,,cries in poor,12-8-2021,
805,mcdevittjoe,scanurman21,,I ceep getting messages on the corner of my screen how I stop it I have a Asus,12-8-2021,
806,H,mhhskjd,,btw for AMD press alt r,12-8-2021,
807,Abbadon,abbadon6,,kayboard?,12-8-2021,
808,Jesús,monkey_boy_8,,you need nividia graphics driver,12-8-2021,
809,SUSSY BAKA,ifollowbackin10minutes87,,what about chromebook,12-8-2021,
810,Micko,micko_nlove,,Bro thx you sooo mucchhhh!!!,12-8-2021,
811,*Blxck 🖤,deez_bennett,,nice,12-8-2021,
812,.,nropron,,That keyboard tho😫,12-8-2021,
813,.,dadq,,*it only works if you have a nividia gpu*,12-8-2021,
814,fivedudey,fivedudey,,how to stop recording,12-8-2021,
815,Hi :D,gxmingfr33k,,What keycaps are those?,12-8-2021,
816,Duhick,der0pen,,WHY NO WROKL\,12-8-2021,
817,anthony,anthonyvaldez746,,but on which social media🤔,12-8-2021,
818,Levi,levigarrels,,@lilmustardd,12-8-2021,
819,Osvaldo-luis Cabral,osvaldo_eldominicanito0,,Dose this work on computer,12-8-2021,
820,L.C,1iam.c,,It’s just alt z you don’t need to click windows too,12-8-2021,
821,daisy,daisya327,,*dies from cringe*,12-8-2021,
822,Rafal Kopec,rafalkopec1,,I need help when I’m trying to live I need to do some stupid cookie settings I did everything it said and still nothing,12-8-2021,
823,Mr_Rapid_,mr_rapid_,,@lifspooky,12-8-2021,
824,Buzz,green_laffy_taffy,,ok,12-8-2021,
825,💫Playboi.Aaron💫,plyboi.editz,,bro I can't save,12-8-2021,
826,Pk,pk_1202,,it's better than using OBS?,12-8-2021,
827,Cheems cult member ✨,fewslinkytiktok,,I use obs,12-8-2021,
828,andreww,andrewopen,,can't save :/,12-8-2021,
829,E,bobtim05252008,,Use the Xbox overlay video thing it records videos at 1080 60 fps,12-8-2021,
830,swft,swft___,,itz only alt+z,12-8-2021,
831,Trevbear74,trevbear74,,Or just download obs,12-8-2021,
832,CrampedDust 397,crampeddust397,,Or just get obs,12-8-2021,
833,Wyatt Sypnier,wytt88,,Where’s that suck keyboard from?🤤🤤🤤,12-8-2021,
834,ㅤ,e16ton___,,@mrouglasbruh,12-8-2021,
835,Gunnar,ruffman2000,,I have a red boi,12-8-2021,
836,Rat,watermelom_rat,,Why not just get stream labs or obs for free and better,12-8-2021,
837,♪今日,igiveheads,,@audraluvsyesh,12-8-2021,
838,Cosmo VR,cosmovrlol,,I don't have a gpu lol,12-8-2021,
839,*＊✿❀𝚅𝚒𝚌𝚔𝚢❀✿＊*,vickyotakuu,,I just use obs,12-8-2021,
840,idk,step._.bro_._,,how to install minecraft?,12-8-2021,
841,PattTheRat TTV,pattrat,,only works for nvidia graphics card and you have to have Gforce experience shadow play enabled,12-8-2021,
842,Elainna,nagasakisenpai,,fok my mouse is broken and all the store closed-_-,12-8-2021,
843,0_0sicx,0_0sicx,,@Shy,12-8-2021,
844,Noe,noethebest0,,it don't work on a laptop,12-8-2021,
845,EJay,itsnotejay_,,"POV: ""Radeon RX5700...""",12-8-2021,
846,思雨,cyl92,,Alt+ z,12-8-2021,
847,Gravitrax,gravitraxkid1,,Are we not gonna talk about the cream that so happened to be placed on the right side,12-8-2021,
848,Arthur_ms_,amsxd09,,@000lost000,12-8-2021,
849,Chris,sog_madik193,,if only I had a pc,12-8-2021,
850,N308AT,n308at,,Neez rtx tho ir gtx 16,12-8-2021,
851,Floppa,floppaflopsbadly,,Mac?,12-8-2021,
852,Yousef Eldarrat,yousefeldarrat,,"Hmmmm, maybe download obs?",12-8-2021,
853,Luka Stoevski,yaboipeceluka,,people with intel umm..,12-8-2021,
854,Ayden,ayden_fulton,,I need a tip how to make it not that laggy,12-8-2021,
855,Rykster,rykst3r,,If you have a compatible NVIDIA GPU,12-8-2021,
856,Dontavious,ily.adrian.1,,where did you get the key caps plaease answer,12-8-2021,
857,IMPACT,rm_impact,,shiiit I'm new to pc and I use obs at 12000 birate recording,12-8-2021,
858,ツ,jdm.p,,"hey where can i buy that keyboard or custom keys, it looks really nice",12-8-2021,
859,EXO,santiagoenamorado854,,wallpaper mutuals,12-8-2021,
860,mr marlo,mrmarlo,,shut up,12-8-2021,
861,Kemuri,fw._.k3mur1,,AYO U FORGOT UR LOTION ON THE DESK 😳,12-8-2021,
862,Ime,hehehehehime123,,Window+g,12-8-2021,
863,Itachi,anbu.itachi.01,,Just if you have invidia,12-8-2021,
864,Its me rytas,everynametakensmh,,nope,12-8-2021,
865,𝔗𝔬𝔬𝔫𝔰,toons_vr,,Luv those keykaps,12-8-2021,
866,Jacob.s,jacob.s080908,,Obs studio or stream labs obs? It gives you much more customisation for free,12-8-2021,
867,Crimz,crimz14,,I just need to do alt and f9,12-8-2021,
868,Asain =A+,chinkrsmart,,Wrong it’s alt cntl g,12-8-2021,
869,Lim🇷🇺,larlim1,,bro in my windows 7 didnot work,12-8-2021,
870,Twenty Two,codexxxhow,,When RX Radeon 570:😳,12-8-2021,
871,ynik,kingster.fj,,@shaquille_oatmeal280,12-8-2021,
872,Beuh,ezio_euhh,,Alt z not windows alt z,12-8-2021,
873,Davidrevival78,davidrevival,,i canot dowload :(,12-8-2021,
874,Mega d,thedonsigge69420,,PLEASE TELL ME WHAT KEYBOARD THAT IS,12-8-2021,
875,😈😈,hooditive,,Hey where do I get those key caps from there fire 🔥,12-8-2021,
876,Pepper-can,pepperchans,,can you do one on a hp,12-8-2021,
877,Shafts,big_wilikins,,why not use obs?,12-8-2021,
878,Brave,braveheart2112,,You can also just do Windows key+alt+r if you have windows. If that does work do it from Windows key+alt+g,12-8-2021,
879,shadow,shadowdg2,,i dont heave a nvidea gpu 😔,12-8-2021,
880,rough,fkmsf,,if you have a supported gpu,12-8-2021,
881,dmmdmdkckc,dmmdmdkckc,,U have to download GeForce experience,12-8-2021,
882,Niv,niv_singhh,,@merqs10n_n,12-8-2021,
883,It’s just jumbo,hiimhi04,,Where can I get that keyboard,12-8-2021,
884,Čo sa staraš,zecmykar1267,,You can do only alt-z 😁,12-8-2021,
885,admist,admist_was_taken,,what the fuck are you typing,12-8-2021,
886,Cameron,camerameronn,,I love your keyboard 😍,12-8-2021,
887,Drip Naruto Son,drip_naruto_son,,But how do I only record one monitor when I have 2?,12-8-2021,
888,Dimi,dimipc,,if u have geforce,12-8-2021,
889,eniran,blaze_idk,,cakahole u need geforce experience,12-8-2021,
890,Matt W,iitssmatt,,what’s your keyboard?,12-8-2021,
891,davian 😈,theyluv._dav3,,@Madalyn,12-8-2021,
892,Noa,user5324557,,My pc isn't amazing at all tbh I have a 1650 and i5 10400 I get alot of frame drops in fortnite for example to like 60 fps and in splitate,12-8-2021,
893,Jameson,exoticpancakez,,cool but whered you get those keycaps?,12-8-2021,
894,Fivedragoon,personthatknowsu,,F12,12-8-2021,
895,Oliver malone,oliver_malone,,Nice lotion,12-8-2021,
896,SaxtonIsVerified,saxtonisverified,,How about clips?,12-8-2021,
897,Discord Bot Developer,discordeveloper,,OBS is better with the correct settings,12-8-2021,
898,Carter C,rexzery.rl,,How did u get a keyboard like that plz I wann know,12-8-2021,
899,ChrisPlayzOCE,chrisplayzoce,,How did you get the red theme in your settings??,12-8-2021,
900,🏝️☃️🌲,.erius,,that's Nvidia,12-8-2021,
901,"The Simp, son",freedom4jameski,,"Yooo, you got the Razer Goliathus, right?",12-8-2021,
902,Blitzuvo,blitzuvo,,I have the same background lol,12-8-2021,
903,🥑,helpmyphoneison1percent,,REMEMBER TO DELETE SYSYEM 32‼️‼️‼️‼️IT FREES UP YOUR RAM AND STORAGE‼️‼️‼️‼️‼️‼️‼️,12-8-2021,
904,CokieCrafterYT,cokiecrafter,,W—Why is there this cream?,12-8-2021,
905,fitnesswithanz,fitnesswithanz,,Help me reach my goal 💪,12-8-2021,
906,S1,yxngs0,,@thehydroarmy,12-8-2021,
907,I like cheese pizza,k6mi_,,I can do that with only alt z,12-8-2021,
908,Donée,queen_lavish14,,"Y'all I found the keyboard on Amazon 👇🏾
https://www.amazon.ca/dp/B08PFGX6ZQ/ref=cm_sw_r_cp_apa_glt_i_XQHR9ZYW7JPBTR6NAJEY?psc=1 or search up+",12-8-2021,
909,Pigpro46,pigpro46,,Ñ,12-8-2021,
910,Aizakku,aizakuu1,,Bro I have these exact key caps they are so sick 😅😂😁,12-8-2021,
911,.,cars.by.edwin,,Do you know How to fix frozen laptop? bc when i log in 5 seconds later my laptop is Freezing and i can only move my mousse,12-8-2021,
912,froggy,_______froggy___,,Didn’t work for me 😂,12-8-2021,
913,⚜️⚜️,azqwrr,,How restart pc with keyboard?,12-8-2021,
914,ToastBruh,duckygod,,getting a pc soon I'm hype,12-8-2021,
915,Jude,higney,,@inter.ya.nan this for u b,12-8-2021,
916,0nyx,adg0053,,It’s just alt z,12-8-2021,
917,Remixx,weebremixx,,Let me save it,12-8-2021,
918,kris kon,kris10727,,Where does the file go after and how can I send it somewhere for example discord or upload on YouTube,12-8-2021,
919,HEY 👋,why.are.you.here112.0,,this work only with NVIDIA.. right?,12-8-2021,
920,Capybara,capybara.132,,u can alt + f9 to shortcut,12-8-2021,
921,craciu25 YT,craciu25yt,,"People use amd:
FAKE",12-8-2021,
922,no elo,twojstary123dupaaaa,,obs lepszy bo lepiej zoptymalizowany mam dobrego kompa a jak nagrywałem tym windowsowym to lagi na nagraniu a jak obsem to git,12-8-2021,
923,Rxbbe_,zurpeqx,,where do i get these keycaps?,12-8-2021,
924,Jakub Pešula,cavojacob,,@dream.pc0 where i can buy this keyboard? 😩,12-8-2021,
925,Azem,leo_azem,,Dosent work,12-8-2021,
926,💚𝙒𝙊𝙇𝙁𝙄ʙsᶜᵃʳʳʸ ʸᵒᵘ😈,wolfi._.never._.die,,inly nvidia😥,12-8-2021,
927,Doggy is hungry✔️,dog_god_hog_god,,Only peoples with Nvidia GeForce can do that lol,12-8-2021,
928,jcarlosboxes,jcarlosboxes,,@jay.clxtches,12-8-2021,
929,Freddie,rezn_cr,,POV : u have amd 😳,12-8-2021,
930,fix_info,fix_info,,wait is that sakura keyboard? i need it,12-8-2021,
931,Pop one for Ukraine 😈😈😈,di_kaykaykay,,How am I able to see the pc icon,12-8-2021,
932,Rain,rainymemories,,oml thx,12-8-2021,
933,vlone.ariel,ybnariel,,"@qg_lost：cool.anyways here’s the Recipe for brownies:
1/2 cup butter
2 eggs
1 cup sugar
1/3 cup cocoa powder
2 teaspoon vanilla extract
1/2 c",12-8-2021,
934,Diogo Oliveira,prodjdigas,,People with a amd gpu :😑😑😢😢,11-8-2021,
935,t4apo.Edits,t4apo,,@wsspayo,11-8-2021,
936,プーチンをファック,____zetereq____,,what is this keyboard?🥰😳,11-8-2021,
937,Spud0o8,spud0o8,,Hey bruh uhm my text has gone glitchy can you shoe how to chwnge defult font,11-8-2021,
938,tato,tato.is.best,,im have a radeon,11-8-2021,
939,unknown,spicykratos,,gonna stick with bandicam,11-8-2021,
940,Your favorite Whiteboy,smittyy.cap,,How do you record with an amd gpu?,11-8-2021,
941,lol,ph4ros,,Thank you,11-8-2021,
942,Гнида,_i327_,,win+G,11-8-2021,
943,the vlogiest one,thevlogiestone,,That's how I stream anways,11-8-2021,
944,Moldo,moldo019,,thanks!! 😁😁😁,11-8-2021,
945,light ammo,apex_light_ammo,,@nochillpotnoodle,11-8-2021,
946,marquitos,marquitoz00,,this cap,11-8-2021,
947,hannah,9aretz,,what wallpaper do yoy have,11-8-2021,
948,jakebrige3,jakebrige3,,Can you do macs too please,11-8-2021,
949,...,___noting___,,@.polciapv,11-8-2021,
950,Dex,fw.dexi,,LET ME SAVE FOR THE FUTURE?,11-8-2021,
951,Hello,random_commenttttt,,And how do you edit them,11-8-2021,
952,cool,captcha01,,only for Nvidia graphics cards,11-8-2021,
953,Michal Schaubmar,zippexik,,i have same keycaps on kboard,11-8-2021,
954,Delphineq,delphineq.twitch,,Nice Keyboard bro,11-8-2021,
955,Batata,fried_batatas0,,Wow really but what about amd boys what are we supposed to do,11-8-2021,
956,Kat,katucite.7,,What abt laptop,11-8-2021,
957,Cooper m,chicko173,,What if you don’t have the windows button,11-8-2021,
958,Alex. Anastasopoulos,alexanast6,,@pablo69692009,11-8-2021,
959,Armando Chīsana,djkorexsmash,,@tortasdxd,11-8-2021,
960,Gabriel Razvan,razvan._.jr,,Where do u get your keycaps from?,11-8-2021,
961,Molin,molinoman,,U forgot to mention that you need geforce experience,11-8-2021,
962,Ryan Burrell241,ryfi_24,,Wie heisst deine Tastatur ich brauch die umbedingt,11-8-2021,
963,.,.._ok_..1,,or press alt+f9,11-8-2021,
964,.,sz_24s,,I got laptop it work?,11-8-2021,
965,Pantex,pantex180,,Alt+f9,11-8-2021,
966,oby-_-,oby_464,,Ye men for sure everyone got default geforce expiriance on there pc umhu 😅😂,11-8-2021,
967,デビッド,drtx08,,@brian06202,11-8-2021,
968,YTC MrYooTube,mryootube,,Just use alt+f8,11-8-2021,
969,_,celtic.tillidie,,"BROTHER I LOVE YOU, YOU HELP ME SO MUCH",11-8-2021,
970,rdofightclub,rdofightclub,,How to edit the recordings,11-8-2021,
971,?,491969296sl,,alt f9),11-8-2021,
972,ZeroPersona,zeropersona,,is there something else I can use if I don't have gforce?,11-8-2021,
973,Megalodon,_..megalodon.._,,I use radeon soooo,11-8-2021,
974,𝗦𝘂𝗯𝘀𝗰𝗿𝗶𝗯𝗲,mr_explosion_,,Whats your keyboard g,11-8-2021,
975,NIGHTMARE928,nightmre960,,i use only alt+z,11-8-2021,
976,Damoose,0damoose0,,Alt F9 to start recording,11-8-2021,
977,Ashraful,authorxi_sm,,"You can’t just ALT+Z by default, it’s only for GFORCD NVIDIA. And you need to buy the PC Specs for it.",11-8-2021,
978,maddox😩,maddox_lmao,,There is something called obs studio,11-8-2021,
979,Sam Sam Sam Sam Sam Sam Frith,1dontnoclip,,alt f4 brings up a better recorder 😁,11-8-2021,
980,no,notlovinzekids,,"ayo i see that cream😂
caught in 4k",11-8-2021,
981,gde_onyme_pazany,gde_onyme_pazany,,у меня такие же обои,11-8-2021,
982,Florent Krasniqi,florentkrasniqi05,,Just do more slowly 😅,11-8-2021,
983,Pato2459,pato2459,,"if you dont have Nvidia software,press win+g",11-8-2021,
984,M I H A Y,m1h4i_.404,,I have NVIDIA and don't work 😳,11-8-2021,
985,madara uchiha,shoimul_gabi,,can u do SS couse when i do win+shift+s it dosent save the SS,11-8-2021,
986,LandonP23,landonp231,,hey man just want to say I love your videos,11-8-2021,
987,Anthony,anthony_g1980,,got to ask whats with the hand cream lol,11-8-2021,
988,Zero,iamnotzero_,,Where u get the keyboard,11-8-2021,
989,Nix,gawaguwa,,or just use obs😅,11-8-2021,
990,EddiMST,barry.deez.nutas,,broski u gotta do a compilation of every hack in a 3 min vid.... for my name😏,11-8-2021,
991,Craftking1977,kopimatej,,Nvidia geforce app do laging my fpd,11-8-2021,
992,yeetboys_172,yeetboys_172,,@eddie_on_60_ping,11-8-2021,
993,Tyler Priston853,wbalubadubdub,,ok but how do you get your shortcuts I to the hot bar at the bottom so you can see your wallpapers so nicely,11-8-2021,
994,Ktos Ktos709,ktosktos49,,@dream.pc0 can u help me for Nvidia Gforce Error bug :003?,11-8-2021,
995,Anyel,tuky_hn,,😂 the cream,11-8-2021,
996,Matt,matt...otte,,Amd???,11-8-2021,
997,caca,caca100d_,,Keybord?,11-8-2021,
998,Sycuz,sycuz,,que avec NVIDIA je précise,11-8-2021,
999,🍁,goldfish.is.da.baby,,you need to download the geforce experience,11-8-2021,
1000,Marius,mariues,,what's the keyboard called,11-8-2021,
1001,Ketsueki Sensou,suchafuckedfate,,Amd users🥲🥲🥲,11-8-2021,
1002,Big toe toey,joemama573,,what about imacs?,11-8-2021,
1003,DajMiPokojUž,matuldo123,,AMD users be like🤡🤡🤡🤡,11-8-2021,
1004,Kraqz_,kraqz_,,Pov: you joined before he hit 100k 😁,11-8-2021,
1005,user9196657930392,cervicek1,,where u buy this Keyboard,11-8-2021,
1006,KiyoshiKouki,kiyoshikouki,,hi its my birthday could you do a cheap keyboard plssss it would be so nice,11-8-2021,
1007,Matt,mxttwastaken,,or ALT F9,11-8-2021,
1008,Luis,luiscv__,,first you need GeForce experience installed ._.,11-8-2021,
1009,TeamFloors,team.floors,,How do I get my clips from my pc to TikTok,11-8-2021,
1010,Colton,coltonhatesidiots,,You can actually just press Alt+Z. Windows Key isn't needed.,11-8-2021,
