,Comment Number (ID),Nickname,User @,Comment Text,Time,Likes
1,Bens_hardware,bens_hardware,,"THIS IS NOT FOR REDUCING PING. EXITLAG DOESNT EVEN ADVERTISE LOWER PING, ITS FOR IMPROVING PACKET LOSS",7-9-2021,928
2,nothinbutfacts12,nothinbutfacts12,,Apps to get on your PC: None. Have your PC as minimalistic as possible to reduce excess CPU and Memory consumption.,7-9-2021,427
3,IydaTT,iydatt,,any thing that claims to reduce ping is most likely a scam and its not possible to do it lmao... 😂😂,7-9-2021,166
4,Acc’s dead me me what to post,bizishokage,,I installed this like yesterday and got more ping,6-9-2021,224
5,Jorge Ferreira,jorge__ferreira,,No! Never! Don't ever do this.,7-9-2021,116
6,Jon Brown,jonbrown1994,,Don’t listen to this dude,8-9-2021,31
7,kiko,fqllenxangel,,Bro you giving useless tips now plus just making ppls pc slower,7-9-2021,15
8,Jden,kazo_rl,,it costs moeny :(,10-9-2021,55
9,DreamTech · Ersteller,dream.pc0,,Early Gang 🚆,6-9-2021,73
10,Leon Schoolmann,leonschoolmann,,Ist ja gut ich habe verstanden dass ich keinen Pc mehr habe weil der von der Polizei verschrottet wurde 😂😂,7-9-2021,8
11,.,arasde74,,an alle das ist eine app womit ihr auf anderen server spielen könnt aber es kostet geld,7-9-2021,3
12,LenniGer,lenniger,,@bens_hardware wie funktioniert das? kannst du dazu ein Video machen?,7-9-2021,9
13,xdcoffee0,xdcoffee0,,I’m gonna need that wallpaper,7-9-2021,9
14,Pafik520,polak122456789,,what's this fo,6-9-2021,19
15,Anime Cosplay,funnyhub021,,pla next fps boost tip😁,6-9-2021,35
16,🪐,menssurd,,Eyoo what's your wallpaper name plss?,7-9-2021,4
17,connerjd97,connerjd97,,What keyboard do you have please?,6-9-2021,10
18,.Bbambucea,.bbambucea,,i'm the first?,6-9-2021,8
19,Dominik Fousek622,fussi27,,Doesnt work btw😄,7-9-2021,5
20,Franz Kleinholz,i_am_your_dadi,,Vorallem „apps“,7-9-2021,3
21,ʕ⁎̯͡⁎ʔ༄,egzloop,,Для чего эта прога?,6-9-2021,7
22,Nhân nemo,nhanuncle,,việt nam đâu r tarrr,7-9-2021,23
23,????,e_7880,,cadena de @paco.web 👇,7-9-2021,10
24,😽😽,kuvbseq,,@_adus1337 co to robi,7-9-2021,15
25,Meowmid 💀,khai78a1,,Do roblox work my ping at 2000 ms,7-9-2021,7
26,joh,user3208473836,,Бессмысленно если далеко от серверов провайдера,15-9-2021,9
27,Rogério,big_.smokee,,Pago,12-9-2021,5
28,farmeritto,farmeritto,,płatne,7-9-2021,10
29,62xhoxhoy,62xhoxhoy,,es de paga bro,7-9-2021,6
30,_vincenzodinapoli :),_vincenzodinapoli,,"ma solo io, Guardavo la tastiera😳",8-9-2021,6
31,Sawat deekub,sawatdeekub14,,มันทำไรได้คนไทยบอกหน่อย,7-9-2021,3
32,DreamTech · Ersteller,dream.pc0,,Credits to @Strye 💎,6-9-2021,30
33,Vymen,sztxn,,@florianptc @vikitor1234 @realjaxus juste pour vous prévenir faire jamais ça de votre vie,7-9-2021,4
34,gass,ddickheadd,,but it costs money,7-9-2021,3
35,Toshechka,tsulimenov,,А есть кряк?,7-9-2021,3
36,1O6K,.1o6k,,It's foot🦶+ball⚽= football⚽ hand✋+ egg🏈= handegg🏈 so the debate is over football⚽ handegg🏈 spread the message‼️,7-9-2021,4
37,ATH,athstreamsandmore,,It’s snake oil. The route is determined by the ISP due to their routing table.,7-9-2021,4
38,Leviシ,_levi_2010,,"MAGYAROK!
ez free?",7-9-2021,4
39,im Hinata Shoyo🧡,hinata_shoyo807,,link tastiera?,7-9-2021,4
40,♡꧁VL♤SI꧂♡,vl.zi,,What is the name of your background??,7-9-2021,1
41,:3,yomamatoofatt,,do how to fix screen tearing pleaseee,7-9-2021,2
42,Jacob,anti_1221,,@basiclovemc im guessing this is the video you watched?,7-9-2021,1
43,Nope.,xxnykxx,,Beyler bune anlatın bea bizde yararlanak,18-9-2021,2
44,ㅤ,bolsenelegenda,,спасибо теперь мой компютор просит выкуп в размере 100000 долларов,16-9-2021,2
45,V!RUSS,v1russ.08,,Imagine not having a curved monitor 💀,12-9-2021,2
46,Humberto Terceiro,tresbertom98,,Coloca aí pra melhorar fps,7-9-2021,2
47,z4minhka,z4minhka,,Not free :((,7-9-2021,2
48,Vincent,vincefunny111,,@c0301t for lag if u need it @ttivvany.d,16-9-2021,2
49,Grͬaͣcͨz3ᴋⷦ,cgracz33k,,-to jest płatne,16-9-2021,2
50,aquezy,aquezy_,,@tamuwart AHHAHAHA 100% REAL,7-9-2021,1
51,QMati,noninpak,,Polepsza to ping i usuwa loss pakiety?,8-9-2021,1
52,Luca Curia,lucacuria1202,,@jinkiplayera funciona? si esto funciona nos volvemos 0 de ping en mine xd,7-9-2021,1
53,Clarence,obliteratedclarence,,IT'S FOR PACK LOSS PLEASE GET INFO BEFORE JUST COMMITING MISLEADING INFORMOATION,8-9-2021,3
54,Nvidia RTX 3080 TI,nvidiartx3080tifounders,,exitlag costs money tho,7-9-2021,3
55,Tuấn Anh,tuananhvuong00,,@thanhthattha0312 có giảm ping đc thật ko anh😅,7-9-2021,1
56,𝙐𝙧𝙞 𝙃𝙪𝙜𝙝,dmmhacker,,lol guys it just free for 3 days and will pay money for using,8-9-2021,2
57,Matthew Smith,mxtt.za,,keycaps?,15-9-2021,2
58,💦💦💦💦💦💦💦💦,lil.gasz.meg.a.szenvedes,,pov:orosz vagy,14-9-2021,2
59,white sheep-cừu trắng,songnghethuat,,is that have gta5,7-9-2021,1
60,.p3akqd❤️💙,.peakd,,Hey bro when i gointo exit lag and i go to select my game region when i try to everything on the screen is just white/ black can you help e bro pls,8-5-2022,1
61,kaliganjamafia,szafranorr97,,to jest tylko darmowe na 3 dni,14-9-2021,1
62,Nikita,nikitadoyle2,,WHAT IS THAT BACKGROUND,9-9-2021,1
63,Dead Trim,callumrose28737,,just me who noticed lotion,7-9-2021,2
64,₣łⱤɆ̣́́Ӿ₮,.fire.xt,,@tipsnipper2 here,7-9-2021,1
65,K,k3mai,,#ad,7-9-2021,1
66,vyzkiz,vyzkiz,,ГДЕ ДОСТАТЬ ТАКУЮ КЛАВУ,7-9-2021,1
67,Sebastian Rebaza,the_sebax0407,,"@paco.web que tal bro, un poquito tarde pero puedes testearlo, saludos desde Perú",7-9-2021,1
68,하응,2gussen,,그래서? 이게 뭔데??,28-9-2021,1
69,REN.RL,im.ren.noob,,@danix77_ per rocket,16-9-2021,1
70,W,almerrm,,@thunder wolf biar gk ada alasan lag,11-9-2021,1
71,xSesandu_TH,xsesandu_th,,netflix free pls🥺🥺🥺,8-9-2021,1
72,no,kidcreamster,,i have 4 ping do i need this?,7-9-2021,1
73,Darkar190,darkar190a,,@paco.web solo te creeré a ti xd,7-9-2021,1
74,momodudeguys,momodudeguys,,i just saw another person telling to download this app but he had 0 ping 😂😂😂😂,7-9-2021,0
75,Filip Drywa,drywcio,,I co to daje ?,7-9-2021,1
76,Noob đẹp trai VN 😏,jamesacwy_4355,,Really ? 🤔,7-9-2021,1
77,Muzan,fwmuzan._,,How do I delete it,6-2-2022,0
78,E,jcd_tv,,IT IS FOR PING! THE WHOLE THING IS ADVERTISED FOR PING!,17-1-2022,0
79,Rashkovskiy,haddakon,,You should download free ram on internet,5-12-2021,0
80,AGK_04,alexknight_4,,Have to pay now,4-12-2021,0
81,Arminus69,arminus69,,what's your keyboard?,25-11-2021,0
82,calamargaming,calamargaming,,i love how you did this in among us,25-11-2021,0
83,Dlekeldkke,rupegorilla,,great video,22-11-2021,0
84,TinhmessiYa =)) đừng nhờn,mcpect,,mobile đê :)),21-11-2021,0
85,Roblox Moderation,baconisbest27,,what does it do,13-11-2021,0
86,.,raevanellimlimlim,,Do I have to pay for this,8-11-2021,0
87,Dani B,danismekerucartierului,,whats the name of the wallpaper ?,4-11-2021,0
88,punnotfoundtt,punnotfoundtt,,I use it in minecraft and got banned for some reason lol,25-10-2021,0
89,へり,iamsizuesama0314,,日本人解説ください,23-10-2021,0
90,Darkened,hndhd865,,what switches do u have on the keyboard and i t cost money tho,21-10-2021,0
91,ShaninZ,shanzoyx,,"check comments to know if its real or not😂
100iq",18-10-2021,0
92,Greenzo,thatone.filmerr,,please wallpaper reveal,16-10-2021,0
93,Tech,entrexa_tech,,Wallpaper pls😌,12-10-2021,0
94,onsee,7onsee,,but you pay for this exitlag right? I mean its not free,10-10-2021,0
95,teknochannelone,teknochannelone,,what is this friends?,9-10-2021,0
96,wonkadennis3,wonkadennis3,,Wow,8-10-2021,0
97,anh bạn trẻ#@,duonglc18,,Gta 5 free,6-10-2021,0
98,Tik Toker,mclwtfplayer,,Can you show how to dowload the forest? please🥰🥰,6-10-2021,0
99,user8506424600874,s0ldiero,,What monitor is this!!!,4-10-2021,0
100,quotes_by_bw,quotes_by_bw,,Just have a Ethernet cable and good WiFi,3-10-2021,0
101,thành,phamtienthanhfbi,,@Tuấn Ngọc đây! thật không anh?,1-10-2021,0
102,🃏 Anh yêu 🎴,marco15862,,mikey đây helo 😬,30-9-2021,0
103,ㅤadrian,wavyysalad,,bro ur not even typing,29-9-2021,0
104,Mr. Hecker,octomisprimechelsea,,can you also play hitman?,28-9-2021,0
105,thektho.k,thektho.k,,can you do chromebook,27-9-2021,0
106,Quika,quagkhanhtr,,tưởng mất tiền,26-9-2021,0
107,丂乇尺乇ㄚ ᐯㄩㄒ卄,vuth070,,do ipad please 🥺,26-9-2021,0
108,Noah Sene,noah_ns10,,wallpaper name ? :D,22-9-2021,0
109,!! BIBASH !!,bibash0090,,@al_o_ne000 yo rakha😂😂,21-9-2021,0
110,🥵Csak_egy_fiú🥶,live_for_speed_s3,,véres a billentyűzet😳😱,19-9-2021,0
111,mineajonatan,mineajonatan,,is free?,19-9-2021,0
112,❤️Jordan❤️,jlinksl,,Is this free?,19-9-2021,0
113,JustNotFunny,habibisgoon,,POV u use Mac,19-9-2021,0
114,izzy 🤍,morris.im,,omg I have that same wallpaper lmao,18-9-2021,0
115,アルカード~TIKTOK,alutiktok815,,bro can u teach me how to get and install the live wallpaper,18-9-2021,0
116,Xotic,xotic47,,Is it free?,18-9-2021,0
117,⠀ ⠀ ⠀ ⠀ ⠀ ⠀,realtalllegsguy,,Tnx,18-9-2021,0
118,Ssj3 solos,_ssj3_,,What’s your wallpaper Called on wallpaper engine,18-9-2021,0
119,🪕🎸🎷🥁🎻🎺🎚🎙,best_music_worlds,,что за обои?,18-9-2021,0
120,Goal: 2k followers,firku_,,What name is this wallpaper,18-9-2021,0
121,Б. Ганзориг,suzyk1s,,Sus,18-9-2021,0
122,itss.dani,itss.danni,,it doesnt work for free,18-9-2021,0
123,Abdullah ALKathiry🎖,15hk,,طبعا يعطوك كم يوم مجاني بعدين بفلوس 🙂,18-9-2021,0
124,beh,..behzad,,wallpaper?,18-9-2021,0
125,geoo171,lol.geo10,,@1baby1david na bai 200 ping,18-9-2021,0
126,_Miss_dalijam_77,_miss_dalijam_aiko,,pls mobil🥺,17-9-2021,0
127,🖤🤍,timmyofficial,,i like sooo this much sakura style,17-9-2021,0
128,ㅤ𝔪𝔦𝔠𝔥𝔞 𝔦𝔰 𝔞 𝔯𝔞𝔱 <3,faith.rdo,,what keyboard r u using and if u have custom keycaps tell me that too please 😅,17-9-2021,0
129,.,liz_aboba,,download in google ...,17-9-2021,0
130,kapd be kutya,es_edits23,,csak nem ingyenes😂,17-9-2021,0
131,Thatkid_Joell,ogs_jokerslayer,,@wtf.eclydes this is for when you get your pc,17-9-2021,0
132,Franek Multan,franekm18,,you can Say its not free,17-9-2021,0
133,♡no hate pls♡,chill_pumkin,,can u do a tut on how to get yandre sim,17-9-2021,0
134,просто Тёма,tyomaaaaaaaaaa,,@manchpubgmb es incha??,16-9-2021,0
135,Her>>>>>>>>>>>>>>>>>>>>>>>>>>>,999chirpchirp,,Can I save,16-9-2021,0
136,Tik Toker,leeisherexd,,It's a miner,16-9-2021,0
137,"Tadou, Blue Racer",ta_daronne_du_63,,Probably a remote access Trojan with a hvnc and a miner in it,16-9-2021,0
138,Brendan,dumb.brendan,,What’s the background called?,16-9-2021,0
139,<---- tu są drzwi,tojestemjax,,what keyboard?,16-9-2021,0
140,Lil JeY,liljey1535,,Give safe please,16-9-2021,0
141,Bob the blob💦💦💦💦,bob_the_blob_17,,CRlNGE,16-9-2021,0
142,davis,davis_meng,,same background,16-9-2021,0
143,Całe To ugułem Konto Boże,goldenretriver.tg,,I install this but I don’t have a VIP,16-9-2021,0
144,yukeo,yukeo.val,,keyboard?,16-9-2021,0
145,akulakotorieneplavettone,notfoundpaszczur,,co to za tapeta??,16-9-2021,0
146,Jan,thenewshinystone,,IT costs money,16-9-2021,0
147,Outwork,ignoutwork,,What is that wallpaper I need it,16-9-2021,0
148,R4ZE,markpetershougaar,,og costs,16-9-2021,0
149,Ⱨ₳₦₦Ɏ₳,2x.paisen,,Whats your keyboard name?,16-9-2021,0
150,🇫🇮,aarniarska,,IOS Version,16-9-2021,0
151,Tomato man,tomato_man01,,I don't recommend it for Minecraft,16-9-2021,0
152,aaron.le,_9buck,,What keyboard is that and the keycaps please,16-9-2021,0
153,EC James,ecjames5,,What wallpaper do you use,16-9-2021,0
154,Aaden,asianaaden,,lotion,16-9-2021,0
155,elad,elad1830,,סתם חרטא,16-9-2021,0
156,LOLOWE LOLE,lolowe_lole,,NVIDIA ge force now gives my 122 fps in CSGO on RLL BAD laptop,15-9-2021,0
157,Matic,mbg.mm,,it's not free,15-9-2021,0
158,💳KUBUS💳,3kubusekk,,wallpaper,15-9-2021,0
159,Yungtimo,yungtimo9200,,@krewiii cos dla cb,15-9-2021,0
160,⠀ ⠀ iamkxylez,itzeciipse,,u have to pay,15-9-2021,0
161,Biskuvit Minecraft,biskuvitv,,Money ?,15-9-2021,0
162,f-16 fan,jarkojason,,it's free?,15-9-2021,0
163,ItzLiXaMoAw,itz_lixa_s02,,@цены,15-9-2021,0
164,menyurt,menyurtj,,Keybord name please,15-9-2021,0
165,etokto75,etokto74,,И че это?,15-9-2021,0
166,Kiss András,gdkmjejd,,mousped name? egérpad neve valaki tudja ?,15-9-2021,0
167,szybki_arkusz,szybki_arkusz,,co to za klawiatura?,15-9-2021,0
168,...,edgar_munson1,,Для чего,15-9-2021,0
169,Dovydas Jokimčius,dovydas_treneris,,How to get this wallpaper,15-9-2021,0
170,Oliver,big.mama07,,what keyboard and keycaps you got,15-9-2021,0
171,Scheka Schneider,schekaschneider,,thx i have now 1 Billion FPS in Fortnite 2,15-9-2021,0
172,leon2112,leon21122,,@_blurry___ 😳 does it work,15-9-2021,0
173,Drattorixx_XD,drattorixx,,È gratis per i primi 3 giorni poi 5 euro al mese,15-9-2021,0
174,Cheyenne,mrs.tig,,Can we please see the keyboard?,15-9-2021,0
175,Ghani Yousafzai,ghaniyousafzai07,,Don’t even work,15-9-2021,0
176,I like chicken doe,sauce_uke,,yall dont downliad random stuff ppl tell you to,15-9-2021,0
177,2frs.13,2frs.13,,Yo tutorial for ur keyboard ?,15-9-2021,0
178,Dolphin.swimmer.123,potato.eater.420,,wallpaper and keyboard?,15-9-2021,0
179,bladeonke,bladeonke,,nivea 😳😳😳,14-9-2021,0
180,username1827261,username272721822,,co to za klawa?,14-9-2021,0
181,benjamin,be.hrd,,Wallpaper ?,14-9-2021,0
182,C1rm0skaa,cirmoskaa,,I tried it like 2 or 3 weeks ago and it's not helping :),14-9-2021,0
183,😑😑Aron😑😑,aron.kj,,how can i get it for free for life time?,14-9-2021,0
184,Lеvц,levu._,,doesn't work and you need to pay,14-9-2021,0
185,Isla || 00.k,barleycgdzx,,Can u try play toca boca,14-9-2021,0
186,Oh,kingofdoshiraki,,what if there's not my region,14-9-2021,0
187,☠,reyhia_,,is it free???,14-9-2021,0
188,curti$,curtidropa30,,where did u get those keycaps,14-9-2021,0
189,Lukáš Ruffer,lukasruffer,,@_siwy_0 to ví potřeboval Lukáš,13-9-2021,0
190,hi,.zmywarka,,to nie działa,13-9-2021,0
191,Jake Fousek,jakexploring,,What wallpaper is that?!?,13-9-2021,0
192,LovleyyDia,diamonddark8,,@11unknown101 maybe u need dis,13-9-2021,0
193,TheBestDawn,thebestdawn,,Existlag is a VPN for gaming but it's a paided app,13-9-2021,0
194,Pbj59,nightrider453,,Is there a free FPS booster,13-9-2021,0
195,satisfying_pops0989,satisfying_pops0989,,But what’s that wallpaper🤔,13-9-2021,0
196,.,life.suckz.man,,Exit lag does nothing,13-9-2021,0
197,Nisse,nisse.112,,can I play Miles Morales?,12-9-2021,0
198,A Not so New Java player,avonado_,,Wallpaper name ?,12-9-2021,0
199,certified cat lover,teddy_bbears,,miner,12-9-2021,0
200,‼️ඞI FOUND AMONGUSඞ‼️,bakamakalakaka,,thats 🧢,12-9-2021,0
201,Sanesss,na_maika_ti_labadaq,,Visual Studio Code,12-9-2021,0
202,Eyal Bar,eyal_bar,,מה זה עושה?,12-9-2021,0
203,ZeF:>,phucqw,,Name screen,12-9-2021,0
204,РЭП НОВОСТИ,rap.nevvs,,ХХХАХХА ДЛЯ ЧЕГО У НЕГО НА СТОЛЕ КРЕМ😂,12-9-2021,0
205,L & B 💎,lielbar17,,נודר היה לו קרם שם,12-9-2021,0
206,.,franzphoenix1,,that app have a house of the dead 2?,12-9-2021,0
207,Cole,heycoledl,,You need to pay aswell,11-9-2021,0
208,The_Friday,...julek,,is it payable?,11-9-2021,0
209,Alexander,hsdbfjdjdmskx,,Thanks u very much🥰🥰,11-9-2021,0
210,SOSUKE AIZEN,2lyts,,SUS,11-9-2021,0
211,~Seizureeeeeee,jhazper1337,,I've been using this for over a year 😂,10-9-2021,0
212,Liq,l.leylac,,What’s with the lotion,10-9-2021,0
213,Amin_AKA_Viego,yuki_sama247,,"you don't know ""topnet"" in Tunisia😏",9-9-2021,0
214,Amin_AKA_Viego,yuki_sama247,,"it needs money
😢",9-9-2021,0
215,yo 😍💅,amb3rxx0x,,is Minecraft on there? if so I am downloading it,9-9-2021,0
216,govnoed228,qnarlybastard,,@chopocompik что скажешь?,9-9-2021,0
217,ASY,_asyrl_,,it's free?,9-9-2021,0
218,ciao_sono_manu,ciao_sono_manu3,,What is doing she making high the ping?,9-9-2021,0
219,🐐🤙Thành_Đạt🤩,bruno_dat0404,,Tt,9-9-2021,0
220,Tik Toker,horikita_suzune123,,@Tuấn Ngọc đây! Thật ko anh.😳😳,9-9-2021,0
221,𝐒𝐡𝐚𝐭𝐭𝐞𝐫𝐞𝐝,shattered.media,,i thought this thing requires buying ??,9-9-2021,0
222,Nghia Phan,nghiaphan2k7,,là sao,9-9-2021,0
223,Daniel_BST10,daniel_bst10,,does it work for CS:GO?,9-9-2021,0
224,Xxxjaysann47,xxxjaysann47,,Inkscape???,9-9-2021,0
225,Ảo thật đếi!!!,aothatdei1,,Blocked,9-9-2021,0
226,Nam Trương,tqnam5,,nó ghi là you must cofirm your email to receive the trial VIP:))?,9-9-2021,0
227,『𝙃𝘼𝙏👑』Pò🐮,iam_podaynee,,@tuanngocday thật hông anh😂😂😂,9-9-2021,0
228,Located,thereallocated,,lets freaking go,9-9-2021,0
229,poes.naai,poes.naai_,,he forgot to mention it costs quite alot for whaf it does,8-9-2021,0
230,tkhoi.tt9,nguoixemtiktok3090,,anyone can give me name of keyboard plssss 🙏🙏🙏,8-9-2021,0
231,Muumin-H,muuminh1,,I don't get it... what is this?,8-9-2021,0
232,mhmoud alsayed,mhmoudlolz,,this is like vpn?,8-9-2021,0
233,Kirby superstar,jesuskirbo,,Is 200 ping a lot?,8-9-2021,0
234,Hà Duy Nguyễn,darlinginthefranxx838,,xin ảnh nền được ko,8-9-2021,0
235,Kirito x asuna hihi,kiritovaasuna1234,,exitlag,8-9-2021,0
236,Juicey,juice_slays,,Dont use it on minecraft hypixel I got banned for 30 for it😅,8-9-2021,0
237,VierVijf,viervijf,,Back ground?,7-9-2021,0
238,ย้ายช่อง,klao6440_x2,,Good,7-9-2021,0
239,I am Tomic,tomic2211,,Is that free becuse say 3 days free?,7-9-2021,0
240,HT GN,na111m,,it work in GTA ? 😂😂😂,7-9-2021,0
241,Tacitos🌮🌮,thiccassboi5_,,Need to pay,7-9-2021,0
242,E X P E,expe_gg,,Let me save plz :),7-9-2021,0
243,Tom is my name,_tom____________1,,lol youll need to pay for it,7-9-2021,0
244,Pierro,lesbianmales,,lmao this is for mining,7-9-2021,0
245,L,supemessi,,What type of monitor is that,7-9-2021,0
246,rxre,rxreval,,it costs money,7-9-2021,0
247,LUCCIOUS乂HALALSOFT,._luccious156_,,@aquanox08 @iplaywarzoneonps4 download,7-9-2021,0
248,eyetaki7,eyetaki7,,where are all comment,7-9-2021,0
249,<3,sadnibruhhours,,It costs,7-9-2021,0
250,leon,leonftp,,Whats that for an monitor?,7-9-2021,0
251,I N V U,isakurai,,"just download a new gpu, cpu and ram 🙄 actually just download a new pc honestly, wayyy more efficient",7-9-2021,0
252,NINJAHEHE,ninjaff1029,,Tôi dây,7-9-2021,0
253,Speccy,mazespeccy,,BACKHROUND???,7-9-2021,0
254,NeyRestic_YT,neyrestic_yt,,Now does this actually work and ia this like a trial or some?,7-9-2021,0
255,gamerbow_,gamerbow_,,bruh whats this its crypto for ur pc and it makes ur pc slower,7-9-2021,0
256,KenBlade • Following,ckenbladec,,Free?,7-9-2021,0
257,user5425707072567,putds,,Umm can you link that keyboard :),7-9-2021,0
258,BRUH,krouxe,,last time i used that you need to pay before can use it..... is itstill like that or its really like that????,7-9-2021,0
259,wiktor,wiktorrrr166,,it aint free tho,7-9-2021,0
260,RVixen,rvixen,,I've been using ExitLag for 2 years when game server is far... ExitLag reduces jitters and improves ping stability,7-9-2021,0
261,Nobody🥲,edvonglemciloci68,,ExitLag,7-9-2021,0
262,(•_•),louis___________________,,would be nice if you say what it does,7-9-2021,0
263,Zechisokay:),zechisfine,,Tysm :),7-9-2021,0
264,samuele fiore,samutchi02,,WHERE I CAN FOUND THE IMAGE ON YOUR DESKTOP,7-9-2021,0
265,Panha@123,hihihihi32166,,app watch movie for free please🙁,7-9-2021,0
266,RentRemy,_layschipies_,,Do not download this,7-9-2021,0
267,.,linklovee202,,how to user,7-9-2021,0
268,wizzron,wizzron,,do i need to pay anything? like a membership or something to pick a specific server?,7-9-2021,0
269,NoCringeEditsPlz,nocringeeditsplz,,Bro don’t you have to pay for it,7-9-2021,0
270,KainMina,kainmina,,Wallpaper name??,7-9-2021,0
271,buiphux,buiphux,,among us,7-9-2021,0
272,M9 winyko,jasonwinyko_12,,is it free,7-9-2021,0
273,Call me Daddy,daystem,,Nivea is back...,7-9-2021,0
274,oscar,oscarkong_,,wallpaper?,7-9-2021,0
275,𝖐𝖔𝖓𝖓𝖆,konnaxdd,,It's 3 days free trial,7-9-2021,0
276,fresha,goshootaliexpres,,money money,7-9-2021,0
277,(ﾉ◕ヮ◕)ﾉ*.✧ WELCOME,troublegoof,,every time i get off my pc these TIKTOKS BE SHOWING UP AND JUST LIKE WHY,7-9-2021,0
278,xhGm,xh_gm,,Can u do fps boost app?,7-9-2021,0
279,aboalfoz,xsybo,,what is the name of your pc wallpaper?,7-9-2021,0
280,Edrigen_-_-,deadbold,,why i cant save the video,7-9-2021,0
281,Tar CTP,tar_ctp174,,how to play gta free. คนไทยดันๆ,7-9-2021,0
282,david_csgo,1010101010101010a8,,trojan lol hahahaha,7-9-2021,0
283,Obℓiͥ∂eͣrͫαtor,_obliderator_,,It's really work?,7-9-2021,0
284,[ jerry ]👍,hls831,,ty so much,7-9-2021,0
285,Pandalinu💕😈,exotic.pandalinu,,it costs😂,7-9-2021,0
286,Templex,templextiktok,,Vpn,7-9-2021,0
287,Aito,aitopog,,If only there were mac tutorials💀,7-9-2021,0
288,Wheels,haydzzzzzzzx,,Pov u get 0 ping anyway,7-9-2021,0
289,,skrrtskrrt_bb,,anyone know how to fix input lag?,7-9-2021,0
290,guilherme,guilhermeaf44,,buy 10 for week kkkkk,7-9-2021,0
291,💜𝔏𝔢𝔢𝔷𝔟𝔱𝔰𝔞𝔯𝔪𝔶💜,leezgabrielbtsarmy,,yo it works,7-9-2021,0
292,XIK_Jxrdan,xik_jxrdan,,it's sad you think we believe that ngl,7-9-2021,0
293,Kenzen Minagawa,yours.truly.kenzen,,What is that wallpaper?,7-9-2021,0
294,w,bagelenthusiast101,,🚨 DO NOT DO THIS 🚨,7-9-2021,0
295,Nick,coffeeeez,,What wallpaper is that,7-9-2021,0
296,JINO,jino69420,,work on roblox?,7-9-2021,0
297,Marek Musil,maramcz,,its paid,7-9-2021,0
298,Jackson🙂,jacksonpotthoff,,What wallpaper is this,7-9-2021,0
299,___Sandr0___,i5.sandro,,"Got the same KeyCaps, i'm cool now",7-9-2021,0
300,Tanavwin 🔥,tanavwinkanjan,,คือไรห,7-9-2021,0
301,Chan Uy Bui910,kenucuri321,,"3 days for trial, i have no money :((",7-9-2021,0
302,Ruebel,benruebel,,PLEASE CLEAR YOU!,8-9-2021,0
303,Sep,cup_de_nudel,,Why is there hand cream on your desk 😳,8-9-2021,0
304,am i asleep,d14a4,,that aint even true💀,8-9-2021,0
305,vxins,vxins0,,keyboard?,8-9-2021,0
306,Junior,jrandroid,,No free :(,8-9-2021,0
307,Acephnix,acephnix_fanpage,,DO NOT LISTEN TO HIMM ITS FOR PACKET LOSS IT IS IMPOSSIBLE TO LOWER YOUR PING!!,8-9-2021,0
308,セバスチャン,lxmonsebastiantbx,,How do I download apps on laptop,8-9-2021,0
309,Arran,arranw01,,bro.. just download more internet.. 😐,8-9-2021,0
310,Kristjan Heyerdahl - Fitness💪,krisnumberone,,OnLy $39.99 pEr MoNtH,8-9-2021,0
311,Porfile,onionyy,,it's a miner by the way,7-9-2021,0
312,ronaldo,imnotmxtixs,,you have to pay for it,7-9-2021,0
313,Bux,buuxxyy,,its impossible to reduce ping,7-9-2021,0
314,Ben hough,ben_hough_,,is it free,7-9-2021,0
315,TORENIII,bigfoetoreno,,Wallpaper?,7-9-2021,0
316,Fernan_Brothers,fernan_brothers,,is there something to improve performance? or simply more fps,7-9-2021,0
317,Sami Sheikh,iamsamiis,,WALLPAPER???,7-9-2021,0
318,andyvo543,andyvo543,,@tuanngocday được không a 😳😳😳,7-9-2021,0
319,The Creator,the_cre4tor,,Big Cap,7-9-2021,0
320,Charlie HC,charliehcc,,No,7-9-2021,0
321,derpy memes,derpmemesweretaken,,do u pay?,7-9-2021,0
322,✵.❃Mizuhara❃.✵,mizuhara.ily,,this app has fortnite game ??,7-9-2021,0
323,FrotniteBeest.69,frotnitebeest.69,,Use this it gets me 0 ping in fortnite,7-9-2021,0
324,【Ａｅｉｏｕ】,paymbro,,WALLPAPER PLS,7-9-2021,0
325,shantoshdoit,shantoshdoit,,Dose it work,7-9-2021,0
326,Leyrn,leyrnburstat,,u play albion?,7-9-2021,0
327,YUICHIRO SOLOS,godofreality1st,,Mine cant handle even candy crush,7-9-2021,0
328,JackySamoyed,jackysamoyed,,i got exitlag for a month with their membership and had no difference at all,7-9-2021,0
329,tame,apparantlytame,,u got ava or its just reccomended? 😳,7-9-2021,0
330,Hello,klaxxton_ema,,Wallpaper name plz,7-9-2021,0
331,SIKED🧊,ustolemycheese,,cool but how to screen record bc I'm making gaming vids,7-9-2021,0
332,Denis Drujescu,s1mp1ist1c,,u hav to pay 😂,7-9-2021,0
333,"Official JackCaes 2,5K",the_real_jackcaes,,Is it free?,7-9-2021,0
334,FBI TikTok VietNam,fbitiktok_unofficial,,typing nothing's,7-9-2021,0
335,skyside,skyside_,,Doesnt this cost money,7-9-2021,0
336,Mr Pablo,_u_r_2,,Lmao its a btc miner😂😂😂,7-9-2021,0
337,somonyukno,weetlober,,who gonna pay for the subscription?,7-9-2021,0
338,user,unknownuser12847213,,its no for ping but for packet loss,7-9-2021,0
339,Slapin.vfx,visualsbyslapin,,wallpaper,7-9-2021,0
340,XilvorGaming,xilvorgaming,,Cool,7-9-2021,0
341,Andi,ciarx3,,das ist alles bullsht das zeigt keine wirkung leute das ist alles clickbait ihr könnt auch selber eure grafikstufe runterstellen und das im game,9-9-2021,0
342,Dario Schwedt,brunos_welt,,Omg mach noch schneller damit garnix lesen kann bruddah😂😂😂😂,7-9-2021,0
343,dipsyweedtortue,dipsyweedtortue,,Ton fond d’écran stp?,1-12-2021,0
344,łowca gwiazd,prezeszixter,,Pls wallpaper link 🥺,16-9-2021,0
345,c.st.g,c.st.g,,Link to your wallpaper pleaseeee,16-9-2021,0
346,110100011100101011010010110100,ed0066,,and pay,15-9-2021,0
347,pinkyboi471,pinkyboi471,,yo yo yo wallpapwr?!,15-9-2021,0
348,pierog,pierogek,,kupa z wiatraczna jest ultra smaczna,15-9-2021,0
349,idk,ewadrerrie6,,jou have the gk61 as keyboard am i right,8-9-2021,0
350,jjj,cristianbtc,,wallpaper?,8-9-2021,0
351,Nick Smithyman 🤠,eggmenu,,OMG IS HE PIRATING GAMES 😏,7-9-2021,0
352,BossDoᴎg2ツ,allaniellamoste,,what about mobile? 😳,7-9-2021,0
353,Mateox,mateox_____,,ban jest za to,16-9-2021,5
354,Gukikok,aferistin_,,"Всем привет, меня зовут Саша , я диктор канала мастерская настроения",15-9-2021,0
355,Oddaje obserwacje,olegq13,,"Hello pls help me on my youtube 🥺
https://youtu.be/mH5DG1iAiVw",14-9-2021,0
356,tiktok,comments6262,,welcome to the cap store🧢🧢🧢🧢🧢🧢🧢🧢🧢🧢🧢🧢🧢🧢🧢🧢🎩🎩🎩🎩🎩🎩🎩🎩🎩🎩🎩🎩👒👒👒👒👒👒👒,9-9-2021,0
357,Scottieboy_official,scottieboygamer,,what PC do u have @dream.pc0,1-12-2021,0
358,ghats,ghatsyb,,virus,12-10-2021,0
359,susnus,susnus1,,thats bullshit,16-9-2021,1
360,likkleman,wagwan_likkleman,,bro it's not free only for 7 days for free that's dumb whoever's created this seven day thing for exitlag should die,18-9-2021,0
361,Zion beech,zion.beech,,"why isnt this pinned? 😅😅😂
︎︎
View replies (114.5k) ︎ᨆ
︎
︎
︎
︎
︎
︎
︎
︎
︎
︎
︎
︎
︎
︎
︎
︎
︎
︎
︎
︎
︎
︎
︎
︎
︎
︎
︎
︎
︎
︎",17-9-2021,0
362,s.wag_grants_,s.wag_grants_,,wizard set up is a virus,9-9-2021,0
363,WuseligAry,wuseligary,,who use Exitlag on valorant go delte yourself,7-9-2021,0
364,KFCbuketOfficial,kfcbuketofficial,,"I don't want to overclock my CPU, it's already good enough it's a iCore i7 and I have a MSI RTX 3060 TI.",26-12-2021,0
365,RR10💫,absoluterr10,,Lol I got virus HAHAHAAH,27-10-2021,0
366,🥷🏽🥷🏽🥷🏽🥷🏽🥷🏽🥷🏽,secretive._._,,Dont do it guys,8-9-2021,0
367,mangusta 69,mangusta96,,pls make vidoe how to fix d3d11 error fortnite,9-9-2021,0
368,u r gay,xkochamcycex,,Wallpaper?,7-9-2021,0
369,pablo,sqxeshee,,Setup wizard is virus lmaoo,9-9-2021,0
370,Jaxoncolpoys9,jaxoncolpoys_9,,A virus appears,8-9-2021,0
371,armandmitracheCB,armandmitrachecb,,Why i think if i download this and put The files in virus total 63/63 says virus?,7-9-2021,0
372,🐐,axelmaoo,,Ends up : virus,7-9-2021,0
373,Michal Štrba,strbster,,fake,17-9-2021,0
374,メ,n2vk,,استخدمته و تبندت من هايبكسل ( ماينكرافت),15-9-2021,0
375,Jared,jared_angiolillo,,Exit lag is awful don’t get it literally does nothing,15-9-2021,0
376,『🅻🅰︎🅳🆇 』,mikagamesalot,,This makes it even more bad don’t download,12-9-2021,0
377,József Orsós,scarface2374,,"Ennél gyorsabb nem is lehetne, hihetetlen, és idegesítő",9-9-2021,0
378,patrickderkek,patrickderkek,,fake,9-9-2021,0
379,jacob dworak,xoticc617,,its fake,8-9-2021,0
380,NXZE,nxze.prod,,Don't do this.,8-9-2021,0
381,Ash FlashFoxy,ashflashfoxy,,pls stop making computer videos if u have no clue of computers etc,7-9-2021,0
382,Kevin Dos Santos,eazzym0d7zz,,Fake,7-9-2021,0
383,GazzarJames,gazjamesgames,,Please dont do this,7-9-2021,0
384,iamspeed,mumumurder,,don't do this,7-9-2021,0
385,TomatoIsDaBest,tomato_programmer,,"https://www.exitlag.com/en/download
link đó mấy bro",29-9-2021,1
386,Aayush Gaire,aayushgaire2,,wow https://youtube.com/shorts/7h61_W1Qe08?feature=share,8-9-2021,1
387,Snoop loc,d.dotleft,,It don’t wrk don’t bother,7-9-2021,0
388,taco Ingeniero,tacoingeniero,,@paco.web traera virus?,7-9-2021,0
389,Magnus 10,magnus1065,,Virus,7-9-2021,0
390,Gakhokia,gakhokia,,it’s not free. btw if someone knows free program like thes reply please,10-9-2021,0
391,Andrew Baloucoune,its_andrewb,,For like 70 bucks 😂😂,7-9-2021,0
392,Stormy,spicystormy,,Exit lag is very bad,16-9-2021,1
393,MursalovMehemmed,mursalovmehemmed,,https://vm.tiktok.com/ZSJogTVuu/,19-9-2021,0
394,Martyn McLaughlin,just_m_n_m,,Oh dear 😳🤦‍♂️🙄🤣,14-9-2021,0
395,Benjamin Chen,benjaminchen3,,Scam?,12-9-2021,0
396,.,gs.snowleo,,nice scam 😅,11-9-2021,0
397,Louis,louismayyoutube,,shut up,8-9-2021,0
398,TheKiller2498,thekiller2498,,there are free apps like this that a tually reduce ping. this is not for ping. also. these are VPNs so they can let unplay games in school,27-9-2021,1
399,Sneaky Boi,auroraunit313,,Useless crap to not install *,19-9-2021,0
400,Name,renz.xd_,,"This thing did not reduce my ping in Hypixel Minecraft, But i dont get disconnected anymore so often. FROM ASIA.",19-9-2021,0
401,kylruby,kylruby,,followed for good tips some are good like these eh,19-9-2021,0
402,Melonboigotboiled,melonboigotboiled,,You will go to jail for this,19-9-2021,0
403,ELectric_LordGamer,electric_lordgamer,,it cost money hack ur pc and mine Bitcoin,18-9-2021,0
404,gent,_kenti,,"its not for ping, its for packet loss",16-9-2021,0
405,Cveja,cvej1c,,I almost got banned in r6s bc this shit,16-9-2021,0
406,me_0s0,_m4ksi0,,where i can donlowd this wallper,16-9-2021,0
407,Matty,mjbarctic,,"software cannot physically help hardwares issues, an app cannot reduce ping in any circumstance, its physically impossible",16-9-2021,0
408,Sam,yallahg,,no thanks don’t want some shitty virus on my pc lad,16-9-2021,0
409,Frosty,vibewithfrosty,,"it's a btc miner, he probably got paid big time to advertise this, smh",15-9-2021,0
410,Marciano Huijsman,marcianohuijsman,,nah this is shit and fake dont work,14-9-2021,0
411,M4vm,m4vm_,,its a bitcoin miner 😂,12-9-2021,0
412,Meadow Brandmcgovern,myschiefdoh,,what's the easiest way to make space on ur pc I'm working toward getting a bigger hard driver about a 2tb,10-9-2021,0
413,Jammy,ahamatus,,"@bens_hardware：Im gonna be blocked anyway, so please let as many people as possible see this. Thanks.",8-9-2021,0
414,Jammy,ahamatus,,"@bens_hardware：THIS IS NOT FOR REDUCING PING. EXITLAG DOESNT EVEN ADVERTISE LOWER PING, ITS FOR IMPROVING PACKET LOSS",8-9-2021,0
415,user1656368905040,grzybiarzzzz,,Its exactly like a vpn: it won’t reduce your ping as your packets have to go to more servers (the game + extra from this thing or any vpn),8-9-2021,0
416,joesiph,nxisz,,paid app,8-9-2021,0
417,Erick Khan’s Sister,medicatedmatttv,,Lower ping 🤡,8-9-2021,0
418,Jessnix,j_essc,,bit coin miner,8-9-2021,0
419,Kagerou Kanemoto,frapskillar,,reduce ping? it reduces packet loss and it comes with a subscription. do you even know what ping means?,8-9-2021,0
420,showarty6,showarty6,,"all apps you need are on ninite.com. if you want to tweak your Windows, just disable startup apps and background apps.",8-9-2021,0
421,andree,.andrree,,"Hey, you have to pay to use ExitLag, you're welcome",8-9-2021,0
422,ShoxDanger,shoxdanger,,you can't reduce shit with this stay away from it,8-9-2021,0
423,iamSnipez,entrepreneurfab0,,It is not gonna lower ur ping and u gotta pay for it monthly,8-9-2021,0
424,Sammy,random.smf,,"oh you gotta be shitting me
EXIT LAG IS ""NOT"" FOR REDUCING ANY KIND OF PING OR LAG
IT IS FOR PACKET LOSS AND IT COSTS YOU €",7-9-2021,0
425,Tik Toker,kingv1rm,,classed as a cheat will get u banned,7-9-2021,0
426,<3,kinghamster2,,Damn clean setup,7-9-2021,0
427,Bozzz_mode_activated,bozzz_mode,,Yk that it’s impossible to get a 0 ping and it’s not to reduce ur ping it’s just for better packet loss,7-9-2021,0
428,Alcano22,alcano22,,"Reducing the ping is technical and physically impossible, the only way is getting a better internet connection. A 0 ping is completely impossible.",7-9-2021,0
429,Noctem,n0ct3m,,"Hell yeah, who knew that you could increase the speed of light with a free app?",7-9-2021,0
430,James,knotty1985,,Lower your ping by setting the right network settings. Razers main app will do this for you,7-9-2021,0
431,🤔,th1s1smyusername04,,Yeah that would do fuck all,7-9-2021,0
432,Manolis Papagrigoriou,_.papagrigoriou1,,How can I get higher fps,7-9-2021,0
433,_,user722458063125784,,What’s that lube doing,7-9-2021,0
434,Jirka Čuba,pikaboo1337,,Nivea for soft hands 🙂💦,7-9-2021,0
435,IM NOT TELLING YOU MY NAME,nahjustproblem,,"are you positively sure thats gonna ""reduce ping""",7-9-2021,0
436,Ruined,userba8lkxb3pp,,My man is typing the cancer cure,7-9-2021,0
437,Upps,upping_,,Trash u got to pay money for it,7-9-2021,0
438,нет,_guts_2m,,It's for bust FPS?,7-9-2021,0
439,michaellllllllllllll,lolmikes,,apps.... damn times have changed,16-9-2021,0
440,Rik,arz3152,,is it a cr**to miner ?,7-9-2021,1
441,🌪「 𝕍𝕖𝕟𝕥𝕚 」 ࿐,ventiisms,,"DONT LISTEN TO THIS. THIS PERSON CREATES PC CONTENT AND HAS ZERO CLUE. FIRST IT COSTS MONEY, AND IT DOESNT REDUCE PING IT REDUCES PACKET LOSS.",25-11-2021,0
442,user5930838703777,sh4wzy,,obvious bloat 😂,24-11-2021,0
443,yaiph.x,yaiph.x,,@curtisross64 welcome for doing nothing,8-9-2021,0
444,Al_terentyev,al_terentyev,,Бесплатный способ понизить пинг для обладателей Lenovo качайте программу Lenovo vintage и радуйтесь,8-9-2021,0
445,Đức Deck,delayzzzz2k1,,exit lag nó chỉ cho dùng thử 3 ngày thôi sau đó trả phí mới đc dùng 70k/1 tháng (mua của ng khác ko phải mua trực tiếp ),7-9-2021,0
446,Luca Gardan,not_j3st3r,,@andrei_iq,7-9-2021,0
447,.,silvverek,,@goferek._.o,7-9-2021,1
448,koa,koadey.618,,@iloveyousomuch987,7-9-2021,1
449,aglaeXD,aglaexd,,@Marvin Garcia,7-9-2021,1
450,𝕲𝖚𝖎𝖑𝖑𝖊𝖗𝖒𝖔 𝕽𝖆𝖒𝖔𝖘,guilleeramoss_,,@moniexi_love_you,31-10-2021,0
451,🔥JoshyFN🔥,youtube.joshy,,@Night Yt785,20-10-2021,0
452,Aaron Gurung,aarongurung_,,@bbella.xox,7-10-2021,0
453,coccobello,coccobello.coccofresh,,@xxd1egolordxx,26-9-2021,0
454,S7S☠️,hassan_ahmediii0,,@unknownboy6788,24-9-2021,0
455,Kalo566,koki4a_2000,,@0__milkoff__6,19-9-2021,0
456,Salmon,tnt_gambit,,@shotex667,19-9-2021,0
457,lomi,mefe0_,,@jvetuua @slpoop,19-9-2021,0
458,هاي يا حلو 😉,.2rkm,,@caesar____,18-9-2021,0
459,👊🏻🕸️,06.seko.88,,@chopocompik,18-9-2021,0
460,Harry,harrish2008,,@yeetkingytyt,18-9-2021,0
461,Ahegao lover 😈,therealahegaolover,,@el_flacog1,17-9-2021,0
462,МИ ПРОТИВ ПУТИНА,putin_kurwa_,,@anonymousdub,16-9-2021,0
463,Scott come back:((,olafcio0909,,@_itz_kamilson_,16-9-2021,0
464,ノタリアルマン,grid_off_the_perk,,@o.c.s.sghost,16-9-2021,0
465,quittato,.quittato,,@usernonhonulladafare,16-9-2021,0
466,The_Tivo,the_tivo,,@bens_hardware,16-9-2021,0
467,iz,_its_iz,,@plutoin8bit,16-9-2021,0
468,Nguyễn Minh Hào660,nguyenminhhao250806,,@Tuấn Ngọc đây!,15-9-2021,0
469,𝙈𝘼𝙓,dolby147,,@ilegend053,15-9-2021,0
470,Owen Monbleau,whyhaet._,,@lukeszo,15-9-2021,0
471,NiCk_ApLaK,nick_aplak,,@nikospro12,15-9-2021,0
472,__vhan__,__vhann__,,@_zip0,15-9-2021,0
473,goldenloop,goldenlooop,,@raradu8,15-9-2021,0
474,DerNiki.,derniki0209,,@bens_hardware,14-9-2021,0
475,brandon hu,brandon._.hu,,@stacey18_ @yada_yeet @leannhu,14-9-2021,0
476,😝✨🎊,queenforliferrrr,,@asthenialeah,13-9-2021,0
477,Kin,kiennn__,,@lakehieu3,13-9-2021,0
478,꧁ঔৣ✞ⒶⒹⓇⒾⒶⓃ✞ঔৣ꧂,just_adrian_idk,,@dorito.66,12-9-2021,0
479,Maxime Tremblay,maximetremblay90,,@guillaumet174,11-9-2021,0
480,tommy,txmmy_wilson,,@bromley_smith,11-9-2021,0
481,user6896261631326,yjleeeee,,@,10-9-2021,0
482,🎋,zinvqlx,,@paco.web,9-9-2021,0
483,Василий Попов,mad_men253,,@chopocompik,9-9-2021,0
484,HoàngPhiHùng,hoangfphihungf,,@vuboss93,9-9-2021,0
485,NathanAlwaysRight,nathanwright0.0,,@iloveyourvideoa,9-9-2021,0
486,Are You Having a laugh,itsme_junior1,,@drippyduxth,8-9-2021,0
487,Alpha22,alpha_759,,@‍,8-9-2021,0
488,طليطل,3a6t,,@x_lavi1,8-9-2021,0
489,_悲しい少年_,prietoelsadboy,,@paco.web,8-9-2021,0
490,Benny Louis9,benjizzy,,Which keyboard is it? Welche Tastatur ist das?,7-9-2021,0
491,Lenny M,weqzftn,,@dts_fn,7-9-2021,0
492,ahmet 38/50 🇹🇷,ahmxt.44_,,@bens_hardware legende,7-9-2021,1
493,راكان القحطاني 🖤🇸🇦,w8z7,,@5i05,7-9-2021,0
494,Summoners War,sebastianwanker,,kostet aber 😏,7-9-2021,0
495,Siiiiiiiiii,wow442176,,"@jm____80：انسخها وانشرها
الحمدلله ٣💖
سبحان الله ٣💖
استغفر الله ٣💖
الله اكبر ٣💖
لا إله إلا الله ٣💖
اجر لي ولك ٣💖",7-9-2021,0
496,Joe,bigey,,No this isn’t a miner guys but it doesn’t work too well,7-9-2021,0
497,Tfg,ghosty_tfg,,lol why do you want to give us virus?😳,7-9-2021,0
498,user8522344542285,ferzarmb,,"Fake, i got more ping",7-9-2021,0
499,Alex,cazuni_,,I’ve had this for like 5 months. It works for me at least.,7-9-2021,0
500,Xeno.tard’s alt,fwxenot,,I dont need it i have amazing wifi,7-9-2021,0
501,C4shew,c2shew,,This works only if you live in us or maybe like russia but still may not be useful,7-9-2021,0
502,jjjdkurbb,jdkrbb,,can u make the tittle more clear on thumbnail of each vid? so we can find it easily to watch 😅,7-9-2021,0
503,Liêm TG,liemta2k7,,can i do it with roblox game,7-9-2021,0
504,Brycen 💯,domesticbrycen,,Downloading random software from the internet now…,7-9-2021,0
505,th 🤠,011thzin,,wallpaper name??,7-9-2021,0
506,yuh,gabe.itches.69,,"you only benefit from exitlag depending on the game’s servers, server region, where you’re located, etc",7-9-2021,0
507,🤥,dicklickingg,,crypto miner 😂😂😂😂,7-9-2021,0
508,REACH.Cambodian,reachseng,,Do u know software can install all in one click,7-9-2021,0
509,я👁⃤ ᴋ,richtheonekid,,Step 2: freeram.com,7-9-2021,0
510,わたしは、あなたを愛していま,raeywen,,They’re so pretty,7-9-2021,0
511,わたしは、あなたを愛していま,raeywen,,How much were your keycaps,7-9-2021,0
512,Tom,khanglam1111115,,ok e p i c,7-9-2021,0
513,Peter F. Cervante,peterf.cervantes,,Can it download to android too?,7-9-2021,0
514,Just Ryan,slayercental,,Can I get Asian girlfriend,7-9-2021,0
515,Geometry Dash Videos,mystix25x,,@bens_hardware,7-9-2021,0
516,Andrés Gaitán,andy17gaitan,,@donpablofonseca,7-9-2021,0
517,monkey.D brook,kisamiauchiha,,"first of idk if this real or not
second of I don't need ping I just need a fp",7-9-2021,0
518,Dunkyzz,dunkyzz0071,,@bens_hardware,7-9-2021,0
519,.,kakachi_nt,,man theses ideos sound more like : viruses to get on your pc pt10,7-9-2021,0
520,Tik Toker,user5kj56et4zt,,it work in League of Legends ?,7-9-2021,0
521,Cameron Sinclair,c4m3r0n_s1ncl4ir,,his pc after ⛏ 💰,7-9-2021,0
522,idothatsometimes,idothatsometimes,,IMA NEED THAT KEYBOARD,7-9-2021,0
523,Chris,hi.lol_me1,,What keycaps are those?,7-9-2021,0
524,឵឵,.1773013,,bro i get 5 ping on cs and 5 on r6 idc,7-9-2021,0
525,Jonas J,i_bleed_blue_2,,How do you keep your mouse from going into another monitor while playing a game ?,7-9-2021,0
526,joseph hwang,h_oseph,,Ain’t no way I just A.v.A. On that list,7-9-2021,0
527,អុី នាង,callmehliam0,,what is that for🤣,7-9-2021,0
528,Ershaddinosarus <3.,ershaddinosaurus,,@bens_hardware ist das real?,7-9-2021,1
529,._.,kartoffelrammler,,"An alle die @Bens_hardware Makieren, er würd sagen das es ein völliger Schwachsinn wäre weil es nur ein VPN ist und es dir nichts bringt",7-9-2021,0
530,Logan Vicente😎,officialsniperytbackup,,What is exitlag going to do?,7-9-2021,0
531,Lee Keebum,leekeebum1,,Is Exitlag free?,7-9-2021,0
532,จา,puttinatsommart,,@arintaran_xx,7-9-2021,0
533,Justin,thetofuguy_3,,Wah,7-9-2021,0
534,SJSNENRIC,mrcookies757,,Basically what it does is play Ads in the background to make money without u realizing please don’t get this,7-9-2021,0
535,scaseypics,scaseypics,,I did this an downloaded ram. My performance has been much better since. Thanks man!,7-9-2021,0
536,Eli,pretzel._.boy,,Or just deal with it?,7-9-2021,0
537,xander,dualease,,💰 ⛏️,7-9-2021,0
538,cheese balls,ddtm16,,"Apps to download on your pc if you would like someone to mine crypto on your system, increase your ping, and lower FPS",7-9-2021,0
539,Mr. Markey,monkeydemarkey,,what's your keyboard bro? currently looking for one but can't seem to decide which one is better :(,7-9-2021,0
540,WRAPPHI,wrapphi,,Crypto miner lol,7-9-2021,0
541,ɾҽҽɾ,wasinq_q,,windows 7 ultimate can download?? 😅,7-9-2021,0
542,moises_juega,moises_juega,,@paco.web,7-9-2021,0
543,Brandon,chillvibes496,,@Timothy,7-9-2021,0
544,@NoOne Gaming,mrnoone0606,,can you teach how to increase our FPS? 🥺,7-9-2021,0
545,Brendt,brendt_016,,the region selection doesn't work why,7-9-2021,0
546,Jev,.itz_jev,,I have the same key caps,7-9-2021,0
547,Brody,iamuncool,,why did it try and flash the bios,7-9-2021,0
548,̯̃,loganbenover,,No do not download that wtf terrible tiktoker,7-9-2021,0
549,🌸,exyriis,,what's that wallpaper?,7-9-2021,0
550,sozu.vrc,sozu.vrc,,yh these don’t really work lol hope you know that (just change your dns server to 1.1.1.1),7-9-2021,0
551,Tyler Frost,jaskkar,,what keyboard is that?,7-9-2021,0
552,Brooks,clbrks,,It literally doesn’t even work,7-9-2021,0
553,Journey,friendzoned.4.life,,anything that claims tk reduce lag is just gonna eat ram like nothing else,7-9-2021,0
554,yckhaixin,yckhaixin,,Do you need to pay to use ?,7-9-2021,0
555,Quandale Dingle,llxi0nllx,,instead of downloading crypto miners upgrade your pc parts,7-9-2021,0
556,Russell Soler,kazukuro51,,doesn't even work hahah I downloaded it today it says your ping is going to be 18 but guess what I still got 28 hahaha,7-9-2021,0
557,Rainier,rainier_antioquia,,does this work on mac?🤣💀,7-9-2021,0
558,D2K_CS,d2k_cs,,"if you know how computer networks operate, you'll know its impossible to reduce ping/latency by introducing extra steps.",7-9-2021,0
559,Punlork Chean,cheanpunlork,,what's it sir?,7-9-2021,0
560,JOHAN LIEBHEART,no_soy_josue,,@paco.web,7-9-2021,0
561,Rivan Danha,drrivan,,@md7776,7-9-2021,0
562,ℕ𝕒𝕥𝕙𝕒𝕟Ā,nathan7310,,@vickiwatson69 @tobythehomie765 we gotta try this everyone uses it,7-9-2021,0
563,👴🏾,sirmatthews_,,Just get better internet??,7-9-2021,0
564,Sergio Borda,sergioborda,,@paco.web,7-9-2021,0
565,md hossain,mdthesniper1,,my trial ended and cant get it again,7-9-2021,0
566,TTV_Zero2135,ttv_zero2135,,@zeroawesome2135 🥰,7-9-2021,0
567,Oscar Arauco,oscararauco0818,,@paco.web 🥺plis es seguro?,7-9-2021,0
568,🦩,iamnotjustyourhealer,,@homphobicrasict you need this,7-9-2021,0
569,Prite Melody,pritemelody,,Pls tell me the name of wallpaper in wallpaper engine 🥺🥺🥺,7-9-2021,0
570,pbsnake256,pbsnake,,It dosent do anything it’s fake,7-9-2021,0
571,owenw,owxnw__,,yay! free virus!,7-9-2021,0
572,Hi!👀,itoywithsenpai,,Pablo,7-9-2021,0
573,Vaz1k,vaz1k2.0,,You have to pay for it tho 😂😂,7-9-2021,0
574,M,mbxndz21,,What keyboard is that bro @DreamTech,7-9-2021,0
575,Enzuli,enzuli_96,,@paco.web,7-9-2021,0
576,متجر | زُمْرة ⚔️,ik9y,,Wallpaper name pls?,7-9-2021,0
577,SebasRpro月闇,sebasrpro18,,@miike_rz,7-9-2021,0
578,sauce pan,error.on.line.32,,@chiefgyk3d,7-9-2021,0
579,BaneHallow_s05,banehallow_s05,,@paco.web,7-9-2021,0
580,tonho,05_tonho,,name of wallpaper,7-9-2021,0
581,SirachaYT,sirachayt,,Enternet cable????,7-9-2021,0
582,Apple User365379,littletommy35,,What’s your wallpaper I’ve been looking for it please and thank You,7-9-2021,0
583,Joaquin Novoa,joaquinnovoa5,,@paco.web confirma,7-9-2021,0
584,ThiccoMode,stonkkerrs,,I lose faith in tecktokers bit by bit everyday,7-9-2021,0
585,Okay,akz_76,,Just optimise it on geforce experience does the same thing,7-9-2021,0
586,John Young,theunknownone012345,,the only thing to reduce your ping is going to be the distance to the server you're hitting or a speed upgrade to your line. done believe this bs,7-9-2021,0
587,Naulizan,naulizan,,@.chombe,7-9-2021,0
588,oui,ohbahquivoilaje,,Your wallpaper ?,7-9-2021,0
589,Jaime Ballesteros,jaimeba_,,@paco.web no solo lo teste tb diga que hace 🙌,7-9-2021,0
590,ScruffyChucky,scruffychucky,,It’s shit for most people anyways 😅.,7-9-2021,0
591,sℓιмεү,tooslim3y,,Are you dizzy bruv,7-9-2021,0
592,Chris D’Agostino,chris_dagostino,,Does it work like a vpn?,7-9-2021,0
593,♡ H †,hanntsuu,,u wallpaper is from wallpaper enigne?,7-9-2021,0
594,Daniel Guerrero,mini_might,,@paco.web y es seguro?,7-9-2021,0
595,맞고 싶냐,woohyung307,,뭐하는거임,7-9-2021,0
596,JACOB,jacobo_.99,,les recomiendo ThrittleStop es buena me da muchos más fps,7-9-2021,0
597,Toby,tobyeditsss,,what wallpaper is that,7-9-2021,0
598,D,darkside_lords,,Funny thing is they don’t tell you that you need a payment,7-9-2021,0
599,Josh,smth.josh,,When u realize its not free,7-9-2021,0
600,Rumpel,rumpel25,,which keyboard do u have?,7-9-2021,0
601,Hamza Nadeem,dizzydwarfs69,,whats the wallpaper called???,7-9-2021,0
602,Hamza Nadeem,dizzydwarfs69,,what's the wallpaper called,7-9-2021,0
603,louay kiwan,epicrichfamoustictoker,,Where do u get that wallpaper,7-9-2021,0
604,Loko ASIAN,fatherluxy,,Don’t u have to pay,7-9-2021,0
605,nigerdjhs,qrnisback,,wallpaper?,7-9-2021,0
606,Tom Rebel,tom_rebell,,Wallpaper name plz😳?,7-9-2021,0
607,Mrcelopingu Elpingu,pingusiu,,@paco.web,7-9-2021,0
608,Proud Serb,proudserb4,,Bro i love you #nohomo,7-9-2021,0
609,🇺🇸 Cole 🇺🇸,cole..hunter,,@zustyofficialbackupacc,7-9-2021,0
610,Kookie Thompson,kookiethompson,,@uhhhhjavy,7-9-2021,0
611,👎😹,huffyyw,,Works on hotspot?,7-9-2021,0
612,electricmidnight1,electricmidnight1,,Imagine copying this video idea from @Strye,7-9-2021,0
613,Panagiotis Vrontis,panagiotisvrontis,,is it legit? thats the 1m question..,7-9-2021,0
614,breadpao311,hugordola,,u have to pay,7-9-2021,0
615,_Fox_308_,_fox_308_,,"что это
и для чего?",7-9-2021,0
616,Tik Toker,germany_swftly2,,I went to space with donald Trumpet,7-9-2021,0
617,Nunya,runthempockets09_,,You could just set the right region in game,7-9-2021,0
618,Michi D,s_w_a_m_p_y,,@bens_hardware stimmt das?,7-9-2021,0
619,🟥🟥🟥🟥🟥🟥🟥🟥🟥🟥🟥🟥🟥🟥🟥,knownbox,,is it safe ?,6-9-2021,0
620,Viktir,viktirr,,"Honestly looks like a rootkit, I don't wanma watch the rest of this series.",6-9-2021,0
621,Our lord,jesus.loves.you.102,,ROMANS 1:16✝️FOR IM NOT ASHAMED OF THE GOSPEL OF GOD FOR IT IS THE POWER OF GOD FOR SALVATION TO EVERYONE WHO BELIEVES / that’s mine,6-9-2021,0
622,Ryan Janey,mooperx,,What keyboard is that? Looks sick,6-9-2021,0
623,what?,mate.fuckoff,,@paco.web testealo porfa😅🙏,6-9-2021,0
624,Anonimo,zekrom.ideale,,What make this,6-9-2021,0
625,Uhm_May,uhm_may13,,"DO NOT , gives you more ping",6-9-2021,0
626,justriz,dr6g8n,,How many gb is it?,6-9-2021,0
627,Game Banana,gamebanana5,,is it only me that saw his keyboard bacwards,6-9-2021,0
628,Luis,br0luis,,So why is there lotion in your desk😳😳👁👄👁,6-9-2021,0
629,Harry Nash,harry_nashh,,Gets you Vac banned on CSGO. As it’s a third party software.,6-9-2021,0
630,backtrackz_____,backtrackz_____,,What does it do?,6-9-2021,0
631,covid 19,covid19or20or21,,ja lekker betalen,6-9-2021,1
632,no name,miiha_49,,is it free?,6-9-2021,0
633,Phantom,phantomraidr,,It said I had to pay for it,6-9-2021,0
634,никита,nonajeri1,,"sheesh, thank you so much bro😆",6-9-2021,0
635,Kai,lmgoingtocry,,this a bitcoin miner,6-9-2021,0
636,R3n4i,r3n4ih,,@raknacker solo para k lo sigad,6-9-2021,0
637,user8172307875723,death4v,,"Hey man, do you know where I can find double shot pbt white keycaps with top print for a 75% keyboard?",6-9-2021,0
638,ENDER 08,ender0838,,@bens_hardware,6-9-2021,0
639,Lestat_hb,helios220,,Wallpaper name ?🙌🏽,6-9-2021,1
640,Isaiah 💀,isaiahisalone,,U pay but u get a 3 day trial 3 days yeah,6-9-2021,0
641,Johnathon,johnathon_randomnumber,,Don’t you have pay for this tho,6-9-2021,0
642,thik😵‍💫,thik_18125,,wallpaper?,6-9-2021,0
643,NETO,srn3to,,@paco.web,6-9-2021,0
644,¿?,pablozzzzzzzzzzzzz,,@paco.web,6-9-2021,0
645,emir3675,emir3675,,A good bitcoin miner👍👍👍👍,6-9-2021,0
646,♡ jailen ♡,funnboyyy_j,,Lemme save bruh,6-9-2021,0
647,.,wantsurmommymilkers,,@thedad561,6-9-2021,0
648,mustafashush,mustafasuii1,,softaim for every game?😏😏😏😅,6-9-2021,0
649,1krxmz,fut.neutral,,is it a malware?,6-9-2021,0
650,Jayden,jayden_bfd1,,People that were looking at the lotion on his desk 😳😳😳 >,6-9-2021,0
651,Rah,its_me.rah,,"fast and direct to the point, just perfect✨",6-9-2021,0
652,Spaz,nawar.nasr,,"bro when my freee trial ended,it locked me out of every game on my pc and I couldnt delete it,I have to reset my pc,dont get it",6-9-2021,0
653,↻⇲,boredboii2,,What dose it do ???,6-9-2021,0
654,User7284930193729101,camper337,,You have to pay,6-9-2021,0
655,Twitch Hexcord,officialhexcord,,Gotta pay,6-9-2021,0
656,?????????,s___u___l___t___a___n__o,,где русские?,6-9-2021,0
657,owned by Angels#4169,nopussyniggas,,@nvldia.com：hey man whenever i turn my pc on it shows a blank black screen w a blinking think u csn help?,6-9-2021,0
658,owned by Angels#4169,nopussyniggas,,hey man whenever i turn my pc on it shows a blank black screen w a blinking think u csn help?,6-9-2021,0
659,$,ja52n,,This makes you lag,6-9-2021,0
660,Rodrigo,pereirzz_,,3 days for free,6-9-2021,0
661,.,smune_,,@chiara.dtb,6-9-2021,1
662,88Tomm,thomas_ball3,,is it free,6-9-2021,0
663,Idc.,amprocvm,,ps: spend like 1000$ and get a good connection,6-9-2021,0
664,Glorious_salmon,mrchesecup,,You can do it without exit lag,6-9-2021,1
665,CJT,crth_jll,,does that work with my old laptop? i cant even play anything on my old laptop tho-,6-9-2021,0
666,Piggy,piggydoublep_yt,,How can I get that wallpaper without wallpaper engine,6-9-2021,0
667,Goawaybro,promiseudontknowme,,@ronanjohnson1,6-9-2021,0
668,𝑐ℎ𝑙𝑜𝑒,chlo.txx,,@kianclev,6-9-2021,1
669,Plawl_azure,plawl_azure,,@________nope._________,6-9-2021,0
670,Anime Cosplay,funnyhub021,,real??,6-9-2021,0
671,zach,zaztherat,,what kind of mouse do you have,6-9-2021,0
672,🧂,_swhn,,LMFAO THEN YOU COPIED HIS VIDEO 😹 @qt.stylez,6-9-2021,0
673,SMILE IF YOU ARE GAY,ginamoszzzzz,,Early but not early,6-9-2021,0
