,Comment Number (ID),Nickname,User @,Comment Text,Time,Likes
1,Bishop,le_sketchy,,"Daily PC tips pt. 71
Press the power on button to turn on the pc",17-10-2021,1012
2,Andrew,ndrewswrld,,"this makes u use ur cpu more than ur gpu. and the fact that discord uses 1% of your graphics card when not streaming, it doesnt to anything in respect",18-10-2021,164
3,先輩𝖆𝖖𝖚𝖆,aquaxh,,what is the name of this wallpaper???🥺,17-10-2021,199
4,DreamTech · Ersteller,dream.pc0,,Do this to boost FPS,26-9-2021,415
5,jannis🇧🇧,trenchkidjannis,,wie heist der name vom hintergrund in wallpaper engine,27-9-2021,33
6,Rabah,html.rabah,,"@bens_hardware ich seh das eigentlich sehr Oft, weiß aber nicht was es genau macht, also ist es gut wenn man diese Funktion auf dc an macht oder nicht",27-9-2021,185
7,Tommyy,tommydelmazza,,keyboard and wallpaper info,17-10-2021,25
8,football.world,_ftbl.world.._,,my pc isnt working and Amazon still hasn't come with my new pc🥺,26-9-2021,95
9,😵‍💫,kartipar,,yo should i keep vsync on for games? when should i keep it on or off,27-9-2021,71
10,Andreas!,andreassas,,Where is the Keyboard Form?,26-9-2021,18
11,tulet_,tulet_,,Very helpful continue with the hard work,26-9-2021,52
12,Ooga booga,krypte.x,,What is that wallpaper,27-9-2021,46
13,TJ,tj__cr,,Where do I get that keyboard,18-10-2021,6
14,ジャネック,jasukos,,what name of keyboard (no type),27-9-2021,28
15,Tik Toker,7elzx,,wat wallpaper is that on wallpaper engine looks fire,26-9-2021,19
16,Diamond,diamondr6s,,"To those who know more about PC's than I do, how can fix my frames to returning to normal?? It's been off for over 6 months then when I turned it back",17-10-2021,19
17,Noah_f,53._93wwww,,wats keyboard,29-9-2021,12
18,broken_loon,broken_loon,,will this really help every game run smoother😁,26-9-2021,14
19,Angel,avoidhd,,So you turned it off ?,26-9-2021,14
20,Collin_xr.,collin_178,,Woher hast du den Monitor. :),2-12-2021,0
21,🦍,kqi__,,@bens_hardware stimmt das ?,28-11-2021,0
22,PELMENI PLS,sanyok_hd2,,@bens_hardware WIR BRAUCHEN DEINE HILFE😳😳,2-12-2021,0
23,Zusammengeschrieben,zusammengeschriebennn,,BIN ÜBERALL IN DEN KOMMIS,1-12-2021,0
24,Moritz Oertel,sozialernaturgeist,,@Bens_hardware Bitte sag was dazu,14-12-2021,0
25,Hobbyloser Typ,xhobbylxser,,dings btw laggt discord dann maximal rum bei mir,14-12-2021,0
26,prawy.m2,prawy.m2,,co to daje,16-10-2021,39
27,🕷🕸♠️,toytoy_19,,คือ,27-9-2021,64
28,average enjoyer,averageenjoyer694,,@bens_hardware2 stimmt das?,28-11-2021,0
29,🇹🇳🇹🇳🇹🇳,chs.bny,,Vous avez une apli pour gerer les. Son svp,26-9-2021,66
30,Ian Romo,ianromo_17,,@paco.web confirmas?,26-9-2021,17
31,마마보이,itschickenage0,,발로 벚꽃 세트 살 거 같은 배경화면과 키보드,28-9-2021,39
32,power,powerpower229,,壁紙はウォールペーパーエンジンでJapan Sakura Treeって検索すると出てきます。,29-9-2021,80
33,Ben đã có bồ 🥰,6102018ben,,Có cách nào nhận nitro free vài tháng không nhỉ,27-9-2021,32
34,Óscar n.d.a,.______.145,,Oigan no se si sepan de componentes pero me quiero comprar mi primera pc y quería saber si estos componentes son buenos actualmente,27-9-2021,6
35,Anime_amv,anime_amv_____,,Ref du fond d'écran svp 🙏🏼🙏🏼,16-10-2021,29
36,dywwujvhsi8c,dywwujvhsi8c,,이게머임,29-9-2021,6
37,DreamTech · Ersteller,dream.pc0,,Train 🚂,26-9-2021,45
38,ig:zelazny_moto,zelaznymoto,,@f4u6r coś dla cb,17-10-2021,6
39,blaze <3,papitoblaze,,kb?,27-9-2021,7
40,❤🩹,ast.cwti,,я ждал фонк(,16-10-2021,13
41,Egor Razvodov,egorrazvodov1,,а где брал клаву и за сколько?,26-9-2021,7
42,iliesgfxstrong,iliesgfxstrong,,Tu connais le poto bleu,16-10-2021,7
43,No name,jequiquelqu,,Tu connais poteau bleu,16-10-2021,12
44,Hack272619,hack837281073,,whats ur wallpaper plss is so Nice,27-9-2021,8
45,✖𝓗𝓮𝓵𝓮𝓷𝓪✖,l4krmn,,มันช่วยอะไรอ่ะ คนไทยช่วยหน่อย🥺,3-10-2021,13
46,Matin Gm,matingm,,it will disable overly,27-9-2021,11
47,V0ID,ihavesocialcredit,,its not compatible with my nvidia geforce gt 730 from 2014,17-10-2021,12
48,unknown,ahmadabusara9,,pls any one can help me when iam in a call and playing a game i cant see names up left on my screen i tried every thing and also i know hiw to active,27-9-2021,12
49,Ⓜ️AC_✡️,15y196cm,,ต้องลุกไปเปิดคอมอีก,13-10-2021,11
50,Olzsoc,olzsoc,,Yo how do I enable sound playback,29-9-2021,8
51,francescodegobbi4,sweetyyyyyyy23,,bro pls name walpaper,28-9-2021,9
52,Huy Toàn Vương,toanhuy2207,,làm như nào để nâng fps của lol lên cao hơn mng nhỉ. vào game cứ bị tụt fps,27-9-2021,9
53,hhhhhhhhhhhhhhhhhhhh,gggghjbffgvbhhgx,,dosent this make your PC use your CPU Instead?,27-9-2021,5
54,belalewis_,mariofromstarwars,,@Bens_hardware stimmt das?,17-10-2021,0
55,NNarwanYY,nnarwanyy,,@baisunia sprawdz,27-9-2021,5
56,BOBO,bob_na_hulajnodze,,Polska jak nazywa się tapeta ?,27-9-2021,5
57,myles,myles_sanborn,,Varmilo keyboard ?,17-10-2021,5
58,1Vinizin,1vinih,,algum BR que manja de inglês pra me explicar oq aquilo faz?,1-12-2021,7
59,ᴋ,kevinwithaw_,,quick question i have been having this problem with my monitor and pc where it displays no input signal on my monitor whenever i turn my pc on 1/2,21-10-2021,6
60,Joy,joyfulpotato_,,@smol_soba17 where was this before..,19-10-2021,6
61,dl3x0r,dl3x0r,,jaka klawiatura? czy fajna?,16-10-2021,4
62,Josue Perceus,josueperceus,,Como consigo ese fondo 🥺,18-10-2021,4
63,,mruwkagang,,Myslałem że filmik jest bez dźwięku Ale zauważyłem że mój iphone 13 pro max połączył się przez bluetooth do mojego nowego mercedesa amg g65,17-10-2021,4
64,Staphan,yotsawin_tiwter,,ตัวพี่ชอบกินตับหวานส่วนตัวน้องนั้นชอบทานตำไทย~,15-10-2021,4
65,Cucinella Paolo,baolo_.c,,io che uso betterdiscord i miei fps da 300 a 20. 🤡,14-12-2021,4
66,ARTOKEYTB,artokeytb,,les français comment sa se fait qu'il est le #0001 alors que c fuze qui l'a ?????,2-12-2021,3
67,Aadit Shukla,aadit_shukla,,@armadillofromtheeast @thewhiteknight5 @bara_corp like I already had this off idk why anyone would have it on but if any of u have it on then turn it,17-10-2021,3
68,Zach,steeltik,,nah,18-10-2021,2
69,GabrielAsker1,gabrielasker1,,Why does discord need gpu acceleration,17-10-2021,3
70,🧃,av3ryfink,,Do this for spotify and Google too😁,3-12-2021,3
71,MB,sjshdhshsbdhd,,the best way to boost a fps is to buy better graphics card,1-12-2021,2
72,KuroAno,kuroano,,"Disabling gpu acceleration on apps isn't gonna make your pc faster but slower, because your CPU is gonna do the work instead.",30-11-2021,2
73,Alex,wlnter06,,@snowry_ you might need this one,17-10-2021,3
74,anzher,anzher_,,everybodys gangsta untill he starts typing on desktop,30-11-2021,2
75,Bast BecazY,hahalane,,อยากได้ทีมหน้าจอเหมือนเค้า😂,6-11-2021,1
76,Dave เอง ic.,dave.ic8340,,คีบอดที่เค้าใช้คือรุ่นอะไรครับ จะหาซื้อ,16-10-2021,2
77,Pilgrims,heute2,,ハードウェアアクセラレーションの設定ですね、Chromeにも同様の設定があります,21-11-2021,1
78,わわわわわ,li1lllllliiiiiililli,,なんですかこれ,20-11-2021,1
79,.,chohanjung4,,디스코드 자꾸 모르는방에 초대가 되는데 이거 멈추는법 아는사람?,29-10-2021,0
80,プリンちつ男爵,ppchooo,,なにしてるのこれ,21-11-2021,0
81,100 John,100john,,my diskord lags too mach how can i fix it,3-12-2021,2
82,ScoobySnackzzzz_,scoobysnackzzzz_,,"@michaeljgryan @jakobs6996 make sure u do this, u get like 20-50 extra frames",17-10-2021,2
83,dydb25pf5h4a,dydb25pf5h4a,,"저거 벚꽃 배경화면 어떻게 하나요?
벚꽃도 떨어져서 예쁘네요",22-11-2021,0
84,Chloe <3,ch1loesprivv,,@official.jaylynn_ THE KEYBAORD IS SO COOL,21-10-2021,2
85,Emw1r,emw1r,,ne işe yarıyor,16-10-2021,2
86,sav,saakeni,,@.sicrobes oh,19-10-2021,0
87,dragutin miladin,aleksicc031,,Keyboard?,2-12-2021,2
88,Snap: Jayden Yuh,that_.one.random.person,,Where’d you get that background?,2-12-2021,1
89,Happy2650,eripe42,,what is your wallpaper?,2-12-2021,1
90,tak,20.hoppa,,you have keyboard i get in next mounth it is good?,2-12-2021,1
91,love.it.when.it.snows,hundredmanslayer_,,name of your wallpaper?,2-12-2021,1
92,felipe,cobrajk,,gpu acceleration is so bad for fps,17-10-2021,1
93,Deraxim,deraxim_,,"a year ago: damn wish i had a better pc
me now: damn i wish i had something to play
*looks at his library with 320games*",17-10-2021,1
94,dizo,thedizo,,https://discord.gg/TGeWkSfk,17-10-2021,1
95,iHolodec_,iholodec_,,@l1pistok клава и обои имба,16-10-2021,2
96,Tiny hawk fan,tinyhawkfan,,Btw if you want your task bar to be translucent you can download translucent TB,21-10-2021,2
97,ArmyAction,tnayte,,yep,3-12-2021,1
98,Nealjpeter,nealjpeter,,zeno,27-9-2021,1
99,Bren,bren.chen,,"I need that wallpaper, wut is it",17-10-2021,1
100,ThatssKayy On Twitch 🦋,nyccodeine,,@its.chxpo @user7688007909041 do this nowwww,21-10-2021,1
101,corvo_attanoo,corvo_attanoo,,اصبر يبن حلال,12-12-2021,1
102,yay,pphysique,,Keybord name,5-12-2021,1
103,szybciutko,szybki_kozak0,,name wallpeper?,4-12-2021,1
104,Seonghun,sonkeydonkey,,Do a live wallpaper one,4-12-2021,1
105,vogelnest,z34.vogelnest,,can I do it on my phone too? 😂,3-12-2021,1
106,Cody,none98362,,That’s default,2-12-2021,1
107,.gxuap,.gxuap1,,Wall paper name please,2-12-2021,1
108,NFXT_Pc,ksjfbdbdjd,,no thank's,2-12-2021,1
109,._.CaRs._.Power._,._.cars._.power._,,name a car for an edit,2-12-2021,1
110,🙁,lennartmenace,,I am everywhere,2-12-2021,1
111,kik yy,kikyy17,,Wallpaper name?,2-12-2021,1
112,Eliot BIMAL,eliotbimal,,Keybord ???,1-12-2021,1
113,Mili,mxi.zc,,Wallpaper?,1-12-2021,1
114,Matt,matttttt_____,,@evabara12 I have that same wall paper,17-10-2021,1
115,a chike boum chike boum,a.chike.boum.chike.boum,,que le poto violet vous znjolie vos vie!,17-10-2021,1
116,ZXCкепфус,uweqlz,,Что за обои,17-10-2021,1
117,chillw635,chillw635,,name de el fondo de pantalla?,17-10-2021,1
118,🥷🏾Gambino🥷🏾,gambino.raul,,@jozsef_bodi csak nekedd,16-10-2021,1
119,@,alwayxaxa,,ลื่นๆ,15-10-2021,1
120,tiktok,aroussi59,,UwU,24-10-2021,1
121,.,gojo_1437,,กูที่พึ่งเล่นดิส;-;,22-12-2021,1
122,balls,eliizzvp,,@︎emi here,22-10-2021,1
123,lil skippo,smokey_slumber,,Bro that background + key caps combo is LIT 🔥,19-10-2021,1
124,Mauricio Rivera,taco279,,para que sirve eso?,29-10-2021,1
125,vonnie,evonneleeee,,@bArBIe has chom tried this,20-10-2021,1
126,VALI.AVD,vali.avd,,"can u tell me please,what is wallpaper name..",1-12-2021,1
127,Vazix,curtaincali,,the first damn tip that ACTUALLY HELPS?!,1-12-2021,1
128,HappyGrayParrot,happygrayparrot,,It gives me frame drops,1-12-2021,1
129,Filip Rudnikowski,filip.editz_,,WALLPAPER NAME PLZZZ,30-11-2021,1
130,Skiz0r3,arrowee69,,@bens_hardware true?,30-11-2021,1
131,Marcel,2115marcel,,brand @bens_hardware,30-11-2021,1
132,AdrianIFullFart,lordanoos69,,Step 1; Get a pc,29-11-2021,1
133,PaulOderSos,paulodersoo,,omg now i have 1fps more thx,27-11-2021,1
134,Your name,.0_yourname_0,,Whats keyboard?,24-11-2021,1
135,M20oneA on YT,m20oneaonyt,,Or if you don’t need it open just close the hidden app and yw,31-10-2021,1
136,Lightt,wmax___,,For me just ruined it,23-10-2021,1
137,LeSchoux16,leschoux16,,Can i have your wallpaper ?,23-10-2021,1
138,Kermit the Junkie,not.jacksom,,I need that keyboard link. 😤,23-10-2021,1
139,Kasper (DELETED ACCOUNT.),kasper.cos,,I needed this- thank you,22-10-2021,1
140,A pro,ethan_dapro,,I would but my monitor broke 🥲,21-10-2021,1
141,Zac,lertow,,Hey if i got a 3060 should i turn It Off or what?,21-10-2021,1
142,twitch.tv/mikofusco,mikofusco.ttv,,does discord lag for anyone else😐it never used to but it started this month-ish,21-10-2021,1
143,Nezuko 🌸,nezukoxuwu,,whats your background? u use wallpaper engin right?,20-10-2021,1
144,Bethany Stevenson,bethanystevenson3,,Where did you get your keyboard?,19-10-2021,1
145,dani,dvniellleee,,i have that same wallpaper :D,19-10-2021,1
146,kaly,cyanidevl,,KEYCAPS?,19-10-2021,1
147,Logan,loob_goob,,"When I did this, it made my friend streams laggy when pulled up on my second monitor whilst tabbed into a game",18-10-2021,1
148,Kadyn Pitre,kadynpitre1,,why won't discord play the audio of videos I'm watching. me and.the boys tryna do movie night,18-10-2021,1
149,hiimvan_1,hiimvan_1,,nma làm như thế thì discord bị crash:)),18-12-2021,0
150,...,empty_ttt,,pasa fondo:c,14-12-2021,0
151,NOAH,noa_9170,,il a télécharger discord sur Google ou nn?,1-12-2021,0
152,@just_bruttaly on instagram,just_bruttaly,,ten pocit když na začátku jak píše na klávesnici ani jednou nezmackl mezerník😂😂,1-12-2021,0
153,你的尼克,05km04cm,,哪間盤到底啥牌子 看很多人在用,10-11-2021,0
154,Доктор Гнус,cmexotyn,,Шмяк ма ессссссс,23-10-2021,0
155,ひかり,aoumu0701,,デメリットは？,29-12-2021,0
156,龍影QQ,dinosa_8787,,什麼意思,18-12-2021,0
157,rOzEw,rozeiiim,,рубят подскажите почему когда ко мне на дэмку кто-то заходит у меня перезагружается дискорд?,14-12-2021,0
158,🌬,nicht_gekauft,,Keyboard?,28-11-2021,1
159,kumalala55,kumalala55,,it's about Drive is about power we stay hungry we Devour put in the work put in the hours and take what's ours,28-12-2021,1
160,Not_leela,_not_leela,,@jonthebonbonboy that’s the same keyboard as you,21-10-2021,1
161,mattiseek,mattiseek,,k čemu mi to bude dobry?,15-12-2021,0
162,Cristo_Die,cristo_die,,ese teclado lo necesito,15-12-2021,0
163,23:14,mxthisss_,,Ne le faites pas discord est super lent après,14-12-2021,0
164,endri,endrihodaj,,@stelios_kiagias to έχεις κάνει αυτο;,14-12-2021,0
165,Tik Toker,ipushfatkidz69,,Wats the keyboard?,19-1-2022,1
166,poeka,luci._.m._,,which keyboard?,2-4-2022,0
167,Leo Muller865,leomuller35,,Yessss🥰thank,1-2-2022,0
168,ッBreezy,breezy_is_lit29,,Wait theres a discord app on pc,4-1-2022,0
169,_SdK_,tuttocasareccio,,Keyboard???,2-1-2022,0
170,Nguyễn Vinh,user102747370,,vinh đây,21-12-2021,0
171,Thuan,_minhthuann_,,can some one teach me how to use discord ?,19-12-2021,0
172,𖨆,teddee96,,Pubg Mobile boost fps please,17-12-2021,0
173,RYPE,1rype1,,i really want a pc but i dont know from where in egypt hellppppp anyone pzlz🥺,17-12-2021,0
174,.,nya.cs,,0001....wow,15-12-2021,0
175,Ryu.Murashige,ryu.murashige,,What’s that background,15-12-2021,0
176,Zander,zander__ga,,What is that background is it on engine wallpaper,15-12-2021,0
177,Dezeko,its_luxz_i_think,,Wut turning it off will it literally says turn off if your experiencing fps drops. Lol,15-12-2021,0
178,🤡,clownonmeth,,On or off,15-12-2021,0
179,Meme_kingu,offcial_meme_king,,I am getting my pc on Christmas,14-12-2021,0
180,sam.cazza,sam.cazza,,what is the nome of the screen pleaseeee,14-12-2021,0
181,Finlay Bell,finlay_bell,,where’s the keyboard from bro?,14-12-2021,0
182,rodrigao,rodrigues_pedro2,,I use in Google lol,14-12-2021,0
183,CJ,apple_sause_crosser,,"im new to the pc community so a few questions:
What pc do you have?
is it pre built or built?
price?
would you recommend it for long time use?
thanks",14-12-2021,0
184,demicc10,demicc10,,WALLPAPER,14-12-2021,0
185,Worbule,worbulous,,No,14-12-2021,0
186,︎︎︎︎,guckly,,keyboard name ?,14-12-2021,0
187,_CYCEK_ XD_,cyc3k_ogorek,,SKAURA KEYBOARD OMGOMG,13-12-2021,0
188,josh,joshrchrdson,,background ?,13-12-2021,0
189,aßscrack,sunmutsi78,,here is a tip:Take your GPU out of your pc and get 200 fps boost,13-12-2021,0
190,Rodri Flores,rodriflores_,,necesito ese fondo,12-12-2021,0
191,TheNowhereGuy,thenowhereguy,,yooo we have the same keycaps man,12-12-2021,0
192,WPandaax,wpandaax,,where do i get those sakura keycaps,9-12-2021,0
193,Jotaro Kujo,starplatinumsavesyou,,"Star Platinum, Za Warudo!",8-12-2021,0
194,ky,fuck.ky,,wallpaper?,7-12-2021,0
195,Floats,floatsval,,Floats,7-12-2021,0
196,18,iichiigoat,,"Can’t imagine it helping much also then this puts all the work on the cpu, unless you’re playing at 4k this is unnecessary",7-12-2021,0
197,???,zertox369,,@albertomihai21 na daca ai lag,7-12-2021,0
198,Cola-rich,colarich,,Ehem... wallpaper souce?🥰,7-12-2021,0
199,Alex,nothing_to_see_here006,,Anyone know what keycaps those are and where I can get them😌,6-12-2021,0
200,STFUUrMoM,fqllenkarma,,Y’all I need help so my keyboard won’t work like it does but it won’t type out anything..,6-12-2021,0
201,Kara,kara._.000,,wallppaper?,6-12-2021,0
202,pierogixja,pierogixja,,name a wallpaper?,5-12-2021,0
203,Tech_Boy,tech_boy2,,dont do it because the diffrence is not noticable,5-12-2021,0
204,ahmedz,ahmedzzlpb,,@airkai.i sa sert a quoi ?,5-12-2021,0
205,user3515372534222,joza390,,Name of wallpaper?,5-12-2021,0
206,𝔻𝕣𝕠𝕤𝕚𝕒,_drosia_,,ma ktoś link do tej tapety?,5-12-2021,0
207,🥱🥱,sacha_trch,,réf clavier,5-12-2021,0
208,Mr.Kosovar,ol.imrj,,What is the keyboard plz,4-12-2021,0
209,Ricardo,pulga_10xd,,@sentxbot @eldudox juegan ?,2-12-2021,0
210,oli,0l4fz3n,,wallpaper name????,2-12-2021,0
211,Damian.D.W,tool_678bix12,,czy tylko ja zauważyłem że mogę teraz napisać do tego typa,2-12-2021,0
212,thevavanz ytb,thevavanz,,je le met en fav on sait jamais 😂,2-12-2021,0
213,🤘🏻,onikamisenpai,,I want ur wallpaper,14-11-2021,0
214,valeriaaa,they.luv.vval,,"I wanna get a pc because I need to start training on PC for a scholarship I want, but I can’t afford one 😔",22-10-2021,0
215,🤠,therdbayo,,we have the same keycaps,22-10-2021,0
216,Hello.,angelightful,,As a percussion player I do not accept your hand grip,21-10-2021,0
217,― 孤独な魂,gangar.exe,,keycaps link?,21-10-2021,0
218,GITCHIE GITCHIE YA YA DA DA,hobby.th3.emo,,@.why.no.4k here you go to help if you get one,21-10-2021,0
219,␦,chiederei,,@hooriyaaa_ for you,21-10-2021,0
220,angie,ang1e.11_,,@vdrizzz keycaps,21-10-2021,0
221,Nonsense,person_nonsense,,@zexer000 tips,20-10-2021,0
222,JD Paredes,jd_paredes,,Where did you get that wallpaper?,19-10-2021,0
223,.,redmoon257,,where should I get my pc specs on?,19-10-2021,0
224,Kristi,.kristi_,,What background is that? It’s beautiful,19-10-2021,0
225,Damon | Hidden ツ,just._.hidden,,this really do be beginner tips,19-10-2021,0
226,Cold,honestresponse,,What it say?,19-10-2021,0
227,Ваня Орлов,dary13337,,"Люди на встройке:
Понял, принял",18-10-2021,0
228,obamanugget,thelastnugget007,,Thought you were gonna be an angel and tell us to turn on light mode,18-10-2021,0
229,UwU Herobrine,uwu_herobrine,,bro I have those same key caps,18-10-2021,0
230,Josh,josh.batista,,Wallpaper?,18-10-2021,0
231,pockett0,pockett0,,Don’t need this my computers a beast,18-10-2021,0
232,windowskkkj,wendellexp,,Wallpaper name pls,18-10-2021,0
233,Alex,__fvnk__,,What are your key caps,18-10-2021,0
234,V,arch.on,,"Yoooo, thank you. I have to keep it closed because of FPS drops. Ily",18-10-2021,0
235,ilikecoffee,itswoosa,,Got any tips on ram storage?,18-10-2021,0
236,¡gio¡,kaiiyso,,how do i stop discord from making everything else laggy when i’m on a call ?,18-10-2021,0
237,.,keemani._,,Lemme save for when i get a pc this week cuz ima forget,18-10-2021,0
238,Elijah Peters,elijahpeters_04,,Where or what is your keyboard and key caps I have been looking for some like that,18-10-2021,0
239,Alexis,stuckintheimpossible,,We need to bring this audio back,18-10-2021,0
240,Ayo,lyokkkk,,What keyboard?,18-10-2021,0
241,Redcow16,redcow16,,the impact of gpu accelerated hardware inst significant enough to influence your fps unless ur in really old hardware,18-10-2021,0
242,Nathan Holtzclaw,nathanholtzclaw,,You can also uninstall it and it won’t use anything,18-10-2021,0
243,ooga booga,oogabooga98,,yo i got those key caps,18-10-2021,0
244,Logan bergeron,logan..bergeron,,I have the same key cap set,18-10-2021,0
245,rac🐍,driftoria,,this does not do anything to high end gpus that's only for low end gpus turning this off with a high end gpu will cause lag,18-10-2021,0
246,Stouey,stouey,,yoooo now it get 0.3 more FPS,18-10-2021,0
247,Diego,tandimi34,,can you show us how you got that background in you pc the Japan one,18-10-2021,0
248,Rafael Silva,rspersonal_,,"i was really on my bed i turned on my pc on purpose, lemme see this, it works dude, no way.. i ... 👍",18-10-2021,0
249,Nim Nam Jimjam,nimnamjimjam,,I want that desktop photo,18-10-2021,0
250,Ryan,_iamrin,,ayo I’m gonna need some info on that wallpaper quick fast 💳💳,17-10-2021,0
251,Qorxulu!,tamuregal,,@.lostdreams get a pc already bot,17-10-2021,0
252,Wanderlust.Taka,wanderlust.taka,,I have a 3080. Don’t think this really makes a difference,17-10-2021,0
253,simon,swyckqt,,SAME WALPAPER,17-10-2021,0
254,Matt,mattlicence,,Why would you make ur name dream,17-10-2021,0
255,Donovan Inouye,donovaninouye,,Wallpaper?!?,17-10-2021,0
256,Joey Joe Johnson,somethingquiteclever,,But can’t even save the vid,17-10-2021,0
257,AckezaBeats,ackezabeats,,I try it,17-10-2021,0
258,Ehnvy,ehnvy_._,,Can u pls tell me how to stop using wifi2 and go to normal WiFi pls,17-10-2021,0
259,Hokage,official_next_hokage,,Where did you get that keyboard?,17-10-2021,0
260,Village_idiot,firstlast358,,Haha 3080 go brrrrrrr,17-10-2021,0
261,Delta Prints,delta3dprints,,when you're PC is so good you don't have to do all this 🤡😂,17-10-2021,0
262,세상이 날 억까해,wtf_hahahahaha,,이게 뭐임?,1-10-2021,0
263,Midusekcz,twelvepvp,,@rtv_wyxr mozna ti to s discordem prestane lagovat zkus to,22-10-2021,0
264,annie,user272294530666,,@ryanxing7 MY WALLPAPER,22-10-2021,0
265,baba,cyborgcum,,what keyboard?,21-10-2021,0
266,😳,l1l1thhhh,,@racc_fam does this help u,21-10-2021,0
267,Raysko FX,rayskofx,,Wallpaper ?,15-2-2022,0
268,Kasidit Silachot,kasiditsilachot,,แค่เธอส่งยิ้ม,18-12-2021,0
269,💣Slowz💣,le.inmane.des.kdz,,what yoir keyboard ?,15-12-2021,0
270,pod,fwpod,,type on the keyboard at least,14-12-2021,0
271,Jãooo,jao._.pereira06,,"cap🧢 it's reverse, he improves DISCORD FPS",14-12-2021,0
272,Mark,marktheuser,,"Don’t do it, my pc went black and smoke started coming out",14-12-2021,0
273,😩ØчɆнЬ😖 яБлØк𝖐🍎 𝚇oчЕцА🥰,4akuma,,off,14-12-2021,0
274,⚜♦♦♦♠🔱👑𝙱𝙼𝚆👑🔱♠♦♦♦⚜,bmwe39_m5,,what is the name of live wallpaper?😅🤤,14-12-2021,0
275,Donát Kocsis,gyuriii1,,Walpapper name ?,14-12-2021,0
276,Ramin,lazer_49,,if i turn off i will have less fps,14-12-2021,0
277,Diego,justdiegox,,your keyboard?,14-12-2021,0
278,Bilal,bilal08941,,just use the browser version then you will get the most out of your FPS,14-12-2021,0
279,زارا,micuzara,,Wallpaper?,14-12-2021,0
280,fntech,fntech_,,man i just think my 30 series has a fault gpu driver tbh,14-12-2021,0
281,NotQuiny,fbquiny,,Wallpaper?,13-12-2021,0
282,D go crazy,user8qu2ou5jlo,,I want to get a good pc but I’m not too rich so what pc do u recommend me to buy- my budget is max 1300,13-12-2021,0
283,adaś,adasisbraindead,,whats the wallpaper?,13-12-2021,0
284,Andrew_dgaf,andy_dgaf,,What the best keyboard 100$ and under I could get??,13-12-2021,0
285,𝗣𝘆𝗿𝗮𝗰,pyrac,,@zynacity simple but effective,13-12-2021,0
286,-Mariuszek-,.mlodyadison,,co to za klawiatura,24-11-2021,0
287,Chanom,gaochanon,,ใครที่ไม่รู้นะครับคือ ถ้าเราเปิดไว้เวลาเราเล่นเกมมันจะมีเเถบคนที่พูดอยู่ในช่องดิสซึ่งมันมันจะใช้การ์ดจอจึงอาจทำให้กระตุก(ต่อ),14-11-2021,0
288,ETmaxter Technology,etmaxtert,,Well done,3-11-2021,0
289,Jetbuster101,jetbuster101,,Thanks bro really helped,30-10-2021,0
290,juzl,yaboyjuulztf,,@izumi.ent fact or cap,22-10-2021,0
291,Aamer,theofficialaamer,,GIVE ME YOUR WALLPAPER NOW KID………… plz,22-10-2021,0
292,escape,myisolatedescape,,my mouse pad would match your keyboard and wallaby,22-10-2021,0
293,Apple cider vinegar,applesidervinegar,,wallpaper?,21-10-2021,0
294,Kakashi,uchihakakashi773,,Onu yapsamda 30 fps den düşüyo her türlü,21-10-2021,0
295,imagine_085,imagine_085,,Where’d u get ur keyboard from,21-10-2021,0
296,lolsaint,4.saint,,Ayyy got the same keycaps nice,21-10-2021,0
297,tricia,misaskitten_,,@vian.trn boost fps 😂😂,21-10-2021,0
298,Its not me,itisntmethough,,@Sebbyx5 Minecraft @moresebby,20-10-2021,0
299,klozik,itzklozik,,"помогите, что делать если винда активирована, но майкрософт стора нету?",19-10-2021,0
300,Dussi,deadligma,,Normally you want it off tho cause it causes frames to drop. It just make discord run smoother,19-10-2021,0
301,crystal,chrystual,,THATBWALLPAPER NAME PLEASE,19-10-2021,0
302,😵‍💫,poppitox3,,Haha wow this would be so useful if I had friends :) thanks !,19-10-2021,0
303,Y2Jay,they2jay,,"This would cause high cpu usage for discord, so it's an option for either using your gpu for discord or cpu 👍🏻",18-10-2021,0
304,Michael Hernandez,mikehdz92,,What’s that Wallpaper though,18-10-2021,0
305,Crab,crabbbbbbbbbbb0,,Screensaver pls,18-10-2021,0
306,Tony The Streamer,xxgibmasterxx,,Thanks for making the tip for .3 seconds and the rest of the clip super long!,18-10-2021,0
307,swimmerjack,swimbruh,,Keyboard??,18-10-2021,0
308,Derek,derek1k,,I have a 3070ti I don’t need more frames,18-10-2021,0
309,██████████████████,austinvzqz,,off,18-10-2021,0
310,Raz,razgriz2180,,Anyone else have to watch it the second time and pause cause it transitioned WAY too fast 😂😅,18-10-2021,0
311,AjaxNotFranciss,ajaxnotfranciss,,PSA: this will make discord run like absolute hot garbage and give you maybe 1-2 fps max in games. It isn’t that serious. Keep this setting on.,18-10-2021,0
312,Dara,zzarpz,,this doesn’t affect fps much. discord uses hardware acceleration to make screen sharing better and loading embeds,18-10-2021,0
313,appleuser48855831,lassihnlol,,Macht das NICHT es zieht nur Leistung da euer Discord nur schneller und besser wird und an alle @Bens_hardware hat da zu auch ein Video gemacht,17-10-2021,27
314,JoJos,benutz.ername,,Dieses intro is so möchtegern typisch,30-11-2021,0
315,Simsn12,simsn12,,Man merkt nur nen wirklichen unterschied wenn man wirklich alte komponenten im pc verbaut hat,14-12-2021,0
316,Денис Рокотянский,jax_pitorson,,и что это даёт,19-10-2021,0
317,user349837,letslol_lul,,and than will reakt @bens_hardware than u dead,1-12-2021,0
318,Adzio,xadzio_,,ale to kazdy wie,28-11-2021,0
319,rileymiller1109,voorfreude,,what am i turning off i cant see,23-10-2021,0
320,lonely genius,lonelygeniusty,,what is that wallpaper dude?,22-10-2021,0
321,Valentina,sugarbabytina,,Ok but what’s the keyboard it’s soo pretty,21-10-2021,0
322,aben,abenf_,,Keycaps link pls,18-10-2021,0
323,Zolttt,vadow_,,"Lui c'est Thomas il a 0 ans à chaque like il a un an de plus
😎
👔🎒
👖
👞👞",26-9-2021,67
324,prashivec,prashivec,,i must turn it off or on?,27-9-2021,6
325,พี นะจ๊ะ,ududuhxn,,ทุกคนครับ ผมมี16000ประมาณนี้ครับ ผมอยากได้คอมเล่นเกมส์ fpsไม่ต่ำกว่า60+-นิดหน่อยอะครับ พวก apex fivemมันพอมีสเปคกับจอที่พอเล่นได้ภายในราคานี้มั้ยครับ,27-10-2021,0
326,Me,that.one.kid_8,,"NEED HELP, MY SUB TEACHER WROTE A NOTE ABT ME TALKING DURING CLASS, MY MAIN TEACHER IS GOING TO SEE IT TMR, WHAT EXCUSE SHOULD I USE",15-12-2021,0
327,hardcorekrumpli,hardcorekrumpli,,"gyertek inkább egy galaktikus utazásra eme csodás discord szerverre
https://discord.gg/z46esQNQWa",2-12-2021,0
328,💨🕯,lust.for.death,,🚨🚨 | BLUE BANISTERS BY LANA DEL REY OUT TOMORROW 10/22,21-10-2021,0
329,Bored Singing,boredculio,,I'm an ambitious singer songwriter streamer networking like crazy to get the word out 🤟💎❤✌👑💯💪,18-10-2021,0
330,dyfffuj16px7,dyfffuj16px70,,壁紙なにこれ,29-9-2021,10
331,ワクチンマン,kirbyxxx1,,なにこれ,28-9-2021,9
332,PAPABEAR,zaddy_daddi,,"wait I can't share screen tho right or am I wrong?
(In discord btw).",27-9-2021,9
333,Official Bingus Brotherhood,bingusbrotherhood,,bruh every time I open discord my laptop just dies and it's so laggy,5-12-2021,1
334,TrumpIsMadSus,trumpismadsus,,actually it was worst when I turn it off.,18-10-2021,1
335,jayonaaa,praanmdean,,@miyuxan so we can call better 😤,21-10-2021,0
336,Jamiegang😮‍💨,tands307,,I sent you a friend request,8-1-2022,0
337,silver :),silversiltzz,,any mommys?,7-12-2021,0
338,milos_ran4,29misko10,,That is such bullshit it doesnt give u more fps it just lowers the gpu usage by like 1%,6-12-2021,0
339,mat,a.verfied_creator,,SA MARCHE PAS CETTE PUTAIN D'ASTUCES DE MERDE,4-12-2021,0
340,dwagun.,brick_thing,,What if I don't have that butto?,2-12-2021,0
341,kurone,laiskinefi,,Name of that wp pls🤩,1-12-2021,0
342,Equero,equero_,,Fake af,13-12-2021,0
343,Equero,equero_,,@bens_hardware,13-12-2021,0
344,Razu,razu.sensei,,@oof.zee,13-12-2021,0
345,Pony,ferdi._.sed,,@Bens_hardware,12-12-2021,0
346,KEKW.......1,kekw.......1,,@Bowler,12-12-2021,0
347,¿,edits0139,,@nora.rdc,12-12-2021,0
348,Kosalov,kosalov,,@.mikmaq @pozule,7-12-2021,1
349,NongArt001,nongart001,,เอาจริงๆ ปิดไปก็ได้นะคับ มันจะทำให้ดิสเราลื่นขึ้น ซึ่งไม่รู้ว่าจะลื่นไปทำค*ยไร,20-2-2022,0
350,Anaïs you know,iasan_,,@enigma_brooklyn JE VAIS ENFIN POUVOIR PTET LES UTILSIER PTNNN,14-12-2021,0
351,Miraga,miraga,,love your videos don't stop making them🦾,18-10-2021,0
352,OOOO🐟,joniaczek,,co to za tapata,15-12-2021,0
353,ㅤㅤㅤㅤㅤㅤㅤㅤㅤㅤㅤㅤㅤㅤㅤㅤㅤㅤㅤㅤㅤㅤㅤㅤㅤㅤㅤㅤㅤㅤ,lime_terracotta,,lime terracotta lmao,16-10-2021,15
354,Whispering Kifo,whisperingkifo,,What keyboard is this,14-12-2021,0
355,𝔍𝔲𝔩𝔦𝔞𝔫 :),yourmumsgeh,,old dc ?,6-12-2021,0
356,Diar,diar_wdl,,YO HIS TAG IS #0001 WTFFFF,30-11-2021,1
357,Escanor,hkg_escanor,,Fake,14-12-2021,0
358,R a g N a r,8x5i,,شدخل ام الديسكورد بالفريمات,14-12-2021,0
359,mzsurr,mzsurrr,,You make me mad,14-12-2021,0
360,Heyitsgabe,ominousttv,,yeah no don't do this. disocrd will run at like 2 frames and you can barely use it. your mic will sound awful and you can't stream,14-12-2021,0
361,LEGO-SICK,beulego,,That shit is turned on by default who are you helping?,5-12-2021,0
362,Layzeeer,layzeeer,,"Sa sert pour les pc de merdes mais un conseil ne le faites pas, après si vous le faites vos partages d'écran bugeront",2-12-2021,0
363,exoticcactus,exoticcactus,,I wouldn’t do this shit. It makes my discord laggy and calls are bad quality. It’s your choice,18-10-2021,0
364,matkyl2022,matkyl2022,,its fake?,17-10-2021,0
365,Bryan💪🏼,grenade.r6,,Holy crap i need a pc,14-12-2021,0
366,retecer,retecerttv,,screw the cpu am i right,3-12-2021,0
367,LemiCBT,user36185613,,"yes, and it runs like shit, if you want it to use less resources use the browser version or the opera gx one...",17-10-2021,0
368,Sh1tghost,havisama,,bro atleast tipe something real,30-11-2021,0
369,_5Combo5_,_5combo5_,,Delete system 32 also,18-10-2021,0
370,The jump Brothers,kokushibu666,,@nass59_,2-12-2021,1
371,.rsg 🧃,rsg.200,,@katrielekindacool @playerbob42 @danieln_,17-10-2021,1
372,🪄,y.yuunaa,,@sonnete,1-12-2021,1
373,Alexandra,a1exandra26,,@x.anjaxx,30-11-2021,1
374,Daft,daftfinnerz,,@vx_rrr,15-12-2021,0
375,Ejabuyo,ejabuyo,,@its_eligur,14-12-2021,0
376,sweatzx.exe.,sweatzx.exe,,@eherox,14-12-2021,0
377,𝟬𝟮𝟬𝟰𝟮𝟬𝟮𝟬,lukas_bow,,@lukas.istperfekt,14-12-2021,0
378,🥱,404eska,,🧢,1-12-2021,0
379,i like anime,micujin,,@tendospielet101,30-11-2021,0
380,_angelova_,andrea_41207,,@cxzy...x,21-10-2021,0
381,😋😋,orangejuice.official,,@txrtlz,21-10-2021,0
382,HOUD,ho.2,,@pb0,17-10-2021,0
383,Simon,nooboss2,,🤡🤡🤡,14-12-2021,0
384,Austin Hartley216,threshyyy,,@kirbybun @seratya_ @poopootates,17-10-2021,3
385,brenda huynh,breee_da,,@jayda_vn @calvenyeap,20-10-2021,2
386,Tacit,goodguytacit1,,@lov3bvgg,17-10-2021,1
387,Nik,hottestbitchonearthh,,@beskare,19-10-2021,1
388,Mari,yui_carson,,@rosaww_,18-10-2021,1
389,G,gibjaina,,@hg_ratchapon,18-10-2021,1
390,Dakota,kestara12_,,@ywel_ @cjanice911,18-10-2021,1
391,.,wayathh,,@.la.fougere,3-12-2021,1
392,user8393351188162,manafuchiha,,@vik.btw,2-12-2021,1
393,vivienne,vivienne.___,,@pancakeria,21-10-2021,1
394,śķýəľāř,skyelar_van2007,,@stepmilflover,21-10-2021,1
395,coconut,motomoto237,,@kristenxxo,21-10-2021,1
396,jaeda (derogatory),cryingcryingcryin,,@fightinbleedinlosin,20-10-2021,1
397,ang baho mo,sukii328,,@welovesuki627,19-10-2021,2
398,iOptophobic,ioptophobic,,@Ruben Elizalde,18-10-2021,1
399,bvtx,bpvtlll,,@damianlaszczyk,18-10-2021,1
400,Loweens,loweenns,,@lil._.zxk,17-10-2021,1
401,Cohen,coh3nm,,@lukesandberg23,17-10-2021,1
402,🐙,analbeadzzz7,,@cxmdumpstr 😱,17-10-2021,1
403,Little.kiddo,little.k1ddo,,@milo_axaxa,17-10-2021,1
404,jacklast7,jacklast7,,@who_is_charlie @drippydunstan,17-10-2021,1
405,prosti__,prosti__,,@patrykxd69,17-10-2021,1
406,Weisheipel,weisheipel,,@trmotry,17-10-2021,1
407,Yellow flash,thank.u.ezzi,,@angelxaguero,17-10-2021,1
408,Zetsuk.o,zetsuk.o,,@arthur_le_celib_ @pierrewttw,17-10-2021,1
409,Thatkacper,thakacper,,@waazul,16-10-2021,1
410,not me,ksienciunio00,,@szlepsz,16-10-2021,1
411,꧁꧂,diana.stolicc,,@matthewwalton69,21-10-2021,1
412,f.kuneckyte,f.kuneckyte,,@smoggyplatypus,19-10-2021,1
413,Gabriella’s Alt Acct🥴💗,riyanssexygirlfriend,,@riyan_alexander,19-10-2021,1
414,Montana,montanatalley00,,@brooke.s_26,19-10-2021,1
415,Chombo <3,chomb0_,,@lectorfan,18-10-2021,1
416,Nugroho Rahmanto,nugrohorahmanto,,@brithany,16-11-2021,1
417,xTANx,xnarkx,,@name_akira @xnewx2005,19-11-2021,1
418,alisha,alisha611,,@raz.ax,21-10-2021,1
419,DARKER210F,darker210f,,@paco.web,14-12-2021,1
420,Jorge,ogputo,,@tomasitoe @porteruli,18-10-2021,1
421,ハントゥ,fwhantu,,@.hantu,3-3-2022,0
422,Nishz✰,nishzop04,,@rankwillup,18-12-2021,0
423,《ザック》₩~●,zack_idk13,,@maxsavage054 👀,14-12-2021,0
424,Luciifer,luciifermp4,,@s34nry4n_670,14-12-2021,0
425,ByKulmi,bykulmi,,@bens_hardware,14-12-2021,0
426,szymon_twarog,masno21115,,😌,14-12-2021,0
427,Jaydizzle,jaydizzlehi,,@bens_hardware,14-12-2021,0
428,Lan,_lan_hd,,@bens_hardware,14-12-2021,0
429,👌💣toka😍😎,mtodor526,,@pajco0,14-12-2021,0
430,andkduabe,andkduabe,,🐐,14-12-2021,0
431,Daniel.fischer,danielfischer482,,@bens_hardware,6-12-2021,0
432,TheBlend32,the_blend32,,@bens_hardware,6-12-2021,0
433,RUSSICK2,russick2,,@bens_hardware,6-12-2021,0
434,♡,.esxa,,@emittcus,5-12-2021,0
435,Ohlsen,ohlsen_,,@Bens_hardware,4-12-2021,0
436,krxst24,isthakrist,,@damarcusthethirdjunior,4-12-2021,0
437,Professor dummes Gaming,professordummesgamingyt,,@bens_hardware ?,4-12-2021,0
438,IgnacyTheGirly,ignacythegamergirly,,@bens_hardware,3-12-2021,0
439,Chifuyu,mikey_sakuru,,. @_zeref.dragneel_,3-12-2021,0
440,Fanis_vrettos,fanis_vrettos,,@orfeasntogkas,3-12-2021,0
441,Stitch 300,stitch3004,,@bens_hardware,3-12-2021,0
442,꧁𝖆𝖓𝖎𝖒𝖊𝖎𝖘𝖑𝖎𝖋𝖊꧂,www.your.daddyy.com,,@anonym_boy2611,3-12-2021,0
443,user8730093578049,_air_rich,,@bens_hardware,3-12-2021,0
444,turbo,t_urb0,,@mlody_boss_1,3-12-2021,0
445,louis.uhs,louis.uhs,,@bens_hardware,2-12-2021,0
446,"3,1415... pi",phil.g0,,@bens_hardware,2-12-2021,0
447,Zedak,zedak974,,@2cms_zeo_yt,2-12-2021,0
448,iTzPaul,itzpaul05,,@bens_hardware,2-12-2021,0
449,𝖛𝖎𝖇𝖟,vibzval,,@bens_hardware ?,2-12-2021,0
450,Jonas,jonas.5720,,@bens_hardware,2-12-2021,0
451,Deal4Miner-_-,deal4miner,,@Bens_hardware,1-12-2021,0
452,😳,almalantz,,@fricksaucer @Blackscreen,1-12-2021,0
453,marinettieferleger,marinettieferleger,,@bens_hardware,1-12-2021,0
454,Evyx,thelifeofevyx,,@bens_hardware,1-12-2021,0
455,DaysDone,deaconsboozeman,,@bens_hardware ?,1-12-2021,0
456,user1965410177371,verpissters_step_sis,,@bens_hardware,30-11-2021,0
457,joschmaooo64,joschmaooo64,,@bens_hardware,30-11-2021,0
458,Maxim-Miau,maximmiau,,@bens_hardware,30-11-2021,0
459,Thiesi_,thiesi_,,@bens_hardware,30-11-2021,0
460,Seb XD,sebxd76,,@bens_hardware,29-11-2021,0
461,𝑫𝒊𝒎𝒊𝒕𝒓𝒊𝒋,aka.kyuubi,,@Bens_hardware,28-11-2021,0
462,JP.exe,johnpulido0,,@zaith.dc @renzohatdog @avocadoandmilkk4_ @aaestacio,23-10-2021,0
463,Reclaimer,reclaimer0,,"And remove Discord because there is a risk of you getting token logged, but these loggers can't log your token from browser",22-10-2021,0
464,زينة,xenaashton,,@micheeeeelllllllleeeeee,22-10-2021,0
465,Kailyxpink,kailyxpink,,@_urnextbae,22-10-2021,0
466,E,goblin0124,,@alon3710,21-10-2021,0
467,A🥀,yourmomcallsmea,,@vicijustbeingdumb,21-10-2021,0
468,✨Shana✨,.shana__,,@themilkman69m ???,21-10-2021,0
469,susi,motokachan,,is der song aus irgendeinem anime und wenn ja welcher war es 😅,21-10-2021,0
470,lola,lxla.128,,"@angigotbanned weil dein pc ja manchmal hängt, vllt geht es so besser",21-10-2021,0
471,scaseypics,scaseypics,,🤦‍♂️,21-10-2021,0
472,appelypi,appelypi,,@luvmarshii,21-10-2021,0
473,lei,lei_the,,@grffn_c,21-10-2021,0
474,Pyrelol,pyrevfx,,If you turn this off your discord streams are gonna be bad,21-10-2021,0
475,hami,herrscheroflegs,,@misodeep,20-10-2021,0
476,негры,betonproof,,@java_240,19-10-2021,0
477,Mattie Rose,mattieraerose,,@josh.battles,19-10-2021,0
478,no one,jhetty_sins,,@xoblxnk,19-10-2021,0
479,Kendall,ittosleftnut,,@ittolover_,19-10-2021,0
480,Bigg1n,bigg1n,,@j0nny_hume,19-10-2021,0
481,jizz,jzkua,,@._.alex0_0,19-10-2021,0
482,lena,lenavo__,,@_jen.vu,19-10-2021,0
483,Cure,nervecure,,@4lksavavge,18-10-2021,0
484,what the heck,buttknutter69420,,This 1-2 FPS gain is not worth slowing discord's interface down for,18-10-2021,0
485,Anthony,cookiesarefriends,,@...yoda_,18-10-2021,0
486,Cristal_R🦋,xo.cristaall_,,@l4cydcry,18-10-2021,0
487,Logan,bearl0l,,@kitteyvcat,18-10-2021,0
488,Francesco_stefanos,francesco_stefanos,,@edrianb31,18-10-2021,0
489,Justin Southard,justinsouthard1,,@wucus0405,18-10-2021,0
490,ak,zlou1s,,@mghv,18-10-2021,0
491,Tray,heyimtray,,@agentcolton_,18-10-2021,0
492,Cooppy,co0ppy,,Is that why my frames drop so low when I leave my mw tab to look at discord,18-10-2021,0
493,josh,cheejoshh,,got a $1000 pc just to sit on discord and spotify,18-10-2021,0
494,tot_samqy,ariuski,,хахахахаха дадада,18-10-2021,0
495,.,yomamatits1,,@ak.gus.12,18-10-2021,0
496,Zealot,zealotck,,Terrible tip,17-10-2021,0
497,Qorxulu!,tamuregal,,@gparanoid08,17-10-2021,0
498,sanatizdum,sanatizdum,,@sujay_j21,17-10-2021,0
499,un mec normale,nazgrhreil,,booster les fps sur discord ? faut m'expliquer l'intérêt 😕,17-10-2021,0
500,Nischo,niischoo,,@bens_hardware,17-10-2021,0
501,Yaaaaaaaa,memes_for_,,@mmhm.exe,17-10-2021,0
502,Oskar Wajs,oskarwajs01,,@crymzlive,17-10-2021,0
503,Jeanthebean,bros4life02,,@bryce.hudson1 @j.wray24 @rng_jimmy @tris.m3 @terrymays,17-10-2021,0
504,Ig zlatarekk,zlatarekk,,@najmanica,17-10-2021,0
505,F1SHWA,f1shwa,,Someone comment to keep me on this video plz,17-10-2021,0
506,kag,kagclips,,@elistrickland12,17-10-2021,0
507,Yanho,yanhotv,,Wallpaper?,17-10-2021,0
508,:/,mr.feckoff,,Where's the wallpaper from,17-10-2021,0
509,user5835808101487,andrewm1lls,,Sick intro,17-10-2021,0
510,Lef,leffurt,,@larslangbroek voor je valorant,17-10-2021,0
511,The goat George,realgeorge_washington_,,Question what if I don’t have a gpu?,17-10-2021,0
512,WT-F,ljn7,,معندك غير ذي لك شهر,17-10-2021,0
513,Jake Butler,jakebutler90,,"then increase CPU resources bringing the fps back down. good job, you played yourself",17-10-2021,0
514,Max is loud,max_is_loud,,"If you need to do this to get extra frames, you probably need a new pc. 😂",17-10-2021,0
515,Awold,awold98,,How do you get discord to stop launching on startup? I even tried turning it off on the startup settings,17-10-2021,0
516,Usuário.do.tik.tok,jogador.mp4,,@_._.xxx_,17-10-2021,0
517,NeptunToSzefö,neptunisboss,,jaki monitor??,17-10-2021,0
518,Yohan Boucher,yohanbouchh,,ctrl shift t in chrome,17-10-2021,0
519,Black NNNI,remii42069,,HE HAS THE OLD LOGO,17-10-2021,0
520,O_o,ethanm01san_,,can I find your wallpaper on wallpaper engine?,17-10-2021,0
521,ok,zzzwird0,,tipp leute das gobt keine fps sondern macht eure pc nicht nur das der chat leiser ist! glaubt so ein net wenn findet selber heraus,17-10-2021,0
522,user142367444663,_nottherealslimshady_,,@Bens_hardware,17-10-2021,0
523,Knuttimasti,knuttmaster,,a lie .. dont do this,17-10-2021,0
524,calato,ayocalato,,what's the name of your keyboard,17-10-2021,0
525,Ayden,ayden.u,,For some reason my discord doesn’t open on startup anymore and idk why. I looked in task manager and in discord settings but can’t find a fix. Help?,17-10-2021,0
526,User 1,yungnikolas,,hey where die you get your keycaps from?,17-10-2021,0
527,‘ interea,intereahvh,,Discord > rightclick > uninstall,17-10-2021,0
528,(),zxmbt,,this will make your (and everyone else's) screen share laggy because discord can't access the hardware encoder on your GPU,17-10-2021,0
529,Bleacher report,eatthatass420,,You have the same exact key caps as me lol,17-10-2021,0
530,Detonators,.detonators,,i need that keyboard,17-10-2021,0
531,AKG 420,akg963,,@user3447mabwnz,17-10-2021,0
532,AikohatesCoffee,aikohatescoffee,,Give me them keycaps,17-10-2021,0
533,renaldas.sar,renaldas.sar,,Das boostet einfach garnichts man merkt zumindest nichts davon 😅,17-10-2021,0
534,Luminqry,jamesewamesy,,whats ur wallpaper im begging,17-10-2021,0
535,Tik Toker,lahzzyybtw,,then u got a shit pc,17-10-2021,0
536,Jody du Preez,jodydupreez_,,@uimattgear4,17-10-2021,0
537,Jordi Jordi,jordijordi8,,@goofyqueen_kanita,17-10-2021,0
538,nav,navtej.l,,shut up woman,17-10-2021,0
539,user5794784699847,jacob.taurima,,This also stops people from crashing ur discord when people put those gifs in.,17-10-2021,0
540,darien,darienh115,,sakura themed setup,17-10-2021,0
541,fyugxf,fyugxf,,name wallpaper ?,17-10-2021,0
542,cloudy ☁️,easycloudy,,keyboard?,17-10-2021,0
543,yeat better,d_acevski,,Makes ur discord slow as shit tho,17-10-2021,0
544,charlie,charlie706iddd,,whats your background Called?,17-10-2021,0
545,Tiwol,tiwolek,,@arlion365,17-10-2021,0
546,Nodarik Chyorny,geozpiii,,"спс не знал, +150 фпс во всех играх",17-10-2021,0
547,dirtfix,dirtfix,,@earlyfax,17-10-2021,0
548,Niko the Fish,_niko219,,@nani202qw,17-10-2021,0
549,Ring!,ringpinged,,I have this on since my games still run as smooth and discord is more fluent,17-10-2021,0
550,Rjgonzzzz_,rjgonzzzz_,,Nice,17-10-2021,0
551,Del,apryllefools,,Ohhh I wanna have my icons like that 😳,17-10-2021,0
552,dont.have.an.user.idea,dont.have.an.user.idea,,@xyqwvi,17-10-2021,0
553,Jake_Nar,jake_nar,,@.,17-10-2021,0
554,🇮🇶🇮🇶🇮🇶,d.iraqi_0492,,what the name of your background,17-10-2021,0
555,kazaxy,.kazaxy,,Which keycaps,17-10-2021,0
556,OKKO,_0kko_,,What is the name of your wallpaper,17-10-2021,0
557,Shioku,shioku1337,,Me with a 3070: ahh yes very interesting with my low fps,17-10-2021,0
558,FreddiePeacock,freddiepeacock,,Matee. This will ruin discord when tryna run videos ppl send you. Also don’t do it on chrome. This kid knows legit nothing,17-10-2021,0
559,syde,syde_g,,bruh who the fuck didnt know this,17-10-2021,0
560,B,kuhschupsclan_,,@bens_hardware real?,17-10-2021,0
561,lenspixgranie,lenspixgranie,,music?,17-10-2021,0
562,1,d7eh8phwg0e,,Че,17-10-2021,0
563,no-one,nobody_sir,,@sayfaah WAIT WHAT!?,17-10-2021,0
564,𝙼𝙴𝚂𝙷𝙰𝙻,xxj.w,,رجعوني 👽💤,17-10-2021,0
565,Guciuś,militaryrim,,"pls, what is the name of your wallpaper",17-10-2021,0
566,Archie Sims,_dg_8_,,Off*,17-10-2021,0
567,gert,jdjdjdjdj012,,keycaps?,17-10-2021,0
568,davide noferi,davide.noferi,,Hey where can i buy that keyboard’s keycaps?,17-10-2021,0
569,Poindexter..,poindextr1,,@owvd1 @.bouj كذا عشان معد يفتح عند الدس اذا شغلت الي سي,17-10-2021,0
570,💢,.sseba,,please I need japanese keycaps for 60%,17-10-2021,0
571,Angus_boi😎,angus_boi,,"I'm gonna get a PC soon and Ive never had one before, any tips?",17-10-2021,0
572,calebprior77,calebprior77,,i like your keyboard,17-10-2021,0
573,ㅤ,slut4zoe_,,yeah if you do that discord will be super laggy.,17-10-2021,0
574,omgRonny,g0dzilluh,,This single setting was lagging my 3070!!,17-10-2021,0
575,floyd,fllyd,,keyboard?,17-10-2021,0
576,Marcos Orduno,marcosorduno,,Whats the wallpaper,17-10-2021,0
577,qquoshious,qquoshiouss,,@notaisarlove,17-10-2021,0
578,qquoshious,qquoshiouss,,@roni_vr7 tip for ya,17-10-2021,0
579,Afshin,afshin099,,what wallpaper are u using,17-10-2021,0
580,.,lupus_,,Обои хочу,17-10-2021,0
581,@igi766,igi766,,whats the name of the wallpaperm,17-10-2021,0
582,77777777777777,fakerockbtw,,This won’t help you in games where the engine is cpu bound,17-10-2021,0
583,iignxs,iignxs,,@gintxs,17-10-2021,0
584,Dothefig,dothefig,,"When you’re air drumming, make sure to keep proper technique and make your hands horizontal not vertical. It’ll stress your thumb to wrist muscles.",17-10-2021,0
585,Amarantidis,.haroz,,my pc doesn't have a gpu 😭,17-10-2021,0
586,GeorgeFlowers,rastellion,,@georgehybridz,17-10-2021,0
587,Tenari Petaia,tenari.petaia,,Wats FPS boss???,17-10-2021,0
588,User163836738466,user37384748733,,I’ve been saving for theee years only third left to go 😁,17-10-2021,0
589,user5886528714906,user5886528714906,,Only do this if your CPU is better than your GPU,17-10-2021,0
590,K0ra54,k0ra54,,tu connais l'escalier en béton ?,17-10-2021,0
591,Santos,....ooooo3,,@goncalo_ascencao07,17-10-2021,0
592,YarishaVFX,zugxkifftog,,wild wie heißt der Hintergrund,17-10-2021,0
593,Fighter pilot,fighter_pilot21,,Discord is sucks,17-10-2021,0
594,Physics56,physic56,,What keyboard and keycap u got,17-10-2021,0
595,ali_PAVZ,ali.pavz,,@mvko_o,17-10-2021,0
596,ვაკო ოსაძე,playasvako,,This will make your discord incredibly laggy be aware,17-10-2021,0
597,Balázs Lisztes,shg_balazsl,,i can't save it,17-10-2021,0
598,eine person,lolichbineinmensch,,@bens_hardware Wirklich oder wieder nur fake?,17-10-2021,0
599,Aj_Aej,aj_aej,,@harv_hawk @finskx85 @bigharrystone,17-10-2021,0
600,生き物,chasinaestitheticsgang,,@.staqiin,17-10-2021,0
601,JeFavoPeruaan,1.65kleinekutperuaan,,Omggg you keyboard what does it called,17-10-2021,0
602,.,pr0ln,,Wallpaper pls,17-10-2021,0
603,Torda Rajna,tordarajna,,Bro tell me ur wallpapper please,17-10-2021,0
604,@:)ccg,xccnm,,ต้อง ปิดหรือเปิด?,17-10-2021,0
605,Passi,123pasii,,Bulshit,17-10-2021,0
606,Vehx,vehx1098,,whats the name of that wallpaper if u on wallpaper engine,17-10-2021,0
607,dylhoang,dylhoang,,@burgerzam might help u,17-10-2021,0
608,Chris,chriskatris,,i bet you dont even know what these things do and im sure you have seen them from youtube,17-10-2021,0
609,ItzJens🇳🇱🇳🇱,itzjens,,@______........._______1,17-10-2021,0
610,DasTrisran,dastristan,,@maxighg_,17-10-2021,0
611,FMG,jast0me,,name of this song 🎧,17-10-2021,0
612,Jacob,jacobfradella,,Anyone been noticing a lot of lag in rust?,17-10-2021,0
613,1-1291-@1,user6666666666666_06,,A,17-10-2021,0
614,Gaylittlekids,________balls_______,,I really want a pc lol,17-10-2021,0
615,.,userty335,,If you have 2 gpu or slow cpu dont do its pls.,17-10-2021,0
616,v_nt1,v_nt1,,no way we are the same discord profile picture!,17-10-2021,0
617,♡MrBonnie<3◇,mrbonniesir,,how do you speed your pc up??,17-10-2021,0
618,Donnovan xiong,isimpforanimewoman,,works on laptops to right,17-10-2021,0
619,ocihpyl,lyphico,,ITS ABOUT DRIVE ⁉️ITS ABOUT POWER 🥶 WE STAY HUNGRY👹🍗WE DEVOUR😈🗣💯‼️PUT IN THE WORK 😮‍💨💪 PUT IN THE HOURS 😈💪,17-10-2021,0
620,Captainkirk6868,captainkirk68681,,@not.toby,17-10-2021,0
621,Brandon Westerfield,brandonwest2016,,Keyboard?,17-10-2021,0
622,Joraan Brown,itsjay_brown,,So where do I get a pc from what’s a decent one that isn’t too high in price,17-10-2021,0
623,tapuraka,tapuraka,,@romanmccallum,17-10-2021,0
624,Aidan,aidan_85,,@jackbar.09,17-10-2021,0
625,Malloy,malloydaking,,Show me your wallpapers please,17-10-2021,0
626,Eu,bh...0,,@relinqui123 @piadoka09,17-10-2021,0
627,Alonso,alonsoo_05_,,@diego_14r,17-10-2021,0
628,Leon Elias,leone.prv,,hab seit 1 Monat kein discord benutzt,17-10-2021,0
629,Noah,noah_j0,,@blixxy100,17-10-2021,0
630,Jerome,sevenatedee,,Whats the name of ur wallpaper,17-10-2021,0
631,Ulxn | LeetHeartz,enganese,,And there is hardware acceleration in chrome(browser).,17-10-2021,0
632,Name,nameusermeme,,Thank you sooo much 👍,17-10-2021,0
633,Jonathan,jonabockwurst,,bei chrome auch ne ganz wichtige sache,17-10-2021,0
634,crenitzu_YT,crenitzu_yt,,ñ 😳,17-10-2021,0
635,Liamhill,liam.hill_7,,@connorobrien__,17-10-2021,0
636,⠀,echo_namikaze21,,@paralelo_00,17-10-2021,0
637,Luke,lucas.davis9,,where did you get your background,17-10-2021,0
638,k.a.,kimo_nees,,i cyk zapisane na potem czyli nigdy do tego nie wrócę,17-10-2021,0
639,Bleez,bleezgod,,btd,17-10-2021,0
640,Erick,erickkzhang,,what keycaps,17-10-2021,0
641,user8205569414981,thm.stbl,,@l_arbuste_sauvage,17-10-2021,0
642,Bono Graziano,graz_bon,,@sweexyz_,17-10-2021,0
643,Simon Jerina,simonjerina,,it must be off for better preformance in games right? 🤔🤔🤔,17-10-2021,0
644,Olof,username789145,,@erikkennn,16-10-2021,0
645,Weebsomething🤙,weebshit13,,Wallpaper?,16-10-2021,0
646,Martiz,martizzyt,,Keyboard?,16-10-2021,0
647,Modris Vidmanis,str0nex,,yo whats that wallpaper?looks awesome,16-10-2021,0
648,⚫🔵🟣𝑍_•𝐸•_𝐷🟣🔵⚫,_zedda_,,wallpaper?,16-10-2021,0
649,promethiyas,promethiyas,,quelqu'un sait comment faire pour que ça record que le son du jeu et pas des autres applications ?,16-10-2021,0
650,✨Charlie ✨,.charli_e00,,Wallpaper ?,16-10-2021,0
651,txbby01,txbby01,,Oh I just bought a pc from Amazon with okay specs please don’t say it’s a scam 🥺,16-10-2021,0
652,XDarkMachine XD,xdarkmachinexd,,I would use it but my mom grounded me for my tone 😂😂,16-10-2021,0
653,PandikYT,pandikty,,what's the wallpaper,16-10-2021,0
654,Fabian,21.fabian,,@bens_hardware,16-10-2021,0
655,antoineleger42,antoineleger42,,what s your wallpaperrr,16-10-2021,0
656,Verified_layne,verified_layne,,Hey let me have your keyboard,16-10-2021,0
657,lauty miranda,lauti_miranda,,@pctipsbylauti,16-10-2021,0
658,yo_boi_Matt,yo_boi_matt,,song,16-10-2021,0
659,Zaluin_,zaluin_,,@nandatoboy,16-10-2021,0
660,Nuv_ CléMenT,laissemoidormireazebi,,C archi faut les gars,16-10-2021,0
661,Miklas,miklasek,,@olaficzus @kocham_cocacole sprawdzcie to,16-10-2021,0
662,Arian,alboshq,,Kann ich dein Hintergrund haben,16-10-2021,0
663,Jim,jim__h,,What background,16-10-2021,0
664,Xx-Hellboy-xX,.xxhellboyxx,,what ist this for a Background?,16-10-2021,0
665,what the dog doin,dogstockphoto,,You really knocked this trend out huh,16-10-2021,0
666,Canyoucallmefrenchspaghetti?,splachifs,,"if you have a low-end pc, use memreduc. very cool.",16-10-2021,0
667,miru,miruhatsu,,what keycaps do you have if you don't mind my asking?,16-10-2021,0
668,dušan,mukyy_0,,name of your wallpaper,16-10-2021,0
669,allaalla9598,allaalla9598,,@bens_hardware,16-10-2021,0
670,'-',blackliongo,,@bens_hardware @bens_hardware2,16-10-2021,0
671,Zachary,xxsoilgamer69xx,,turn on light mode for a bazillion dollar setup for sure no cap,16-10-2021,0
672,Yotsakorn Thongchai,yotsakornthongchai,,Wallpaper?,16-10-2021,0
673,Zugspotting_tv,zugspotting_tv,,@Bens_hardware,16-10-2021,0
674,Chris,chuksito,,@vuxsito,15-10-2021,0
675,Oj clips,ojclip,,wair,15-10-2021,1
676,shoto todoroki,agumitsu_zenitsu919,,"hey these daily pc tips and I've been wondering, do you gave any tips that are more easy",15-10-2021,0
677,ComputingWarehouse,computingwarehouse,,God's work.,13-10-2021,0
678,juuaivan,juu_eivaan,,FUN PC TIP TO SAVE BATTERY!!!: Turn off your pc then it doesent consume any electricity😳😳😳😳,12-10-2021,0
679,zank,zank_ps,,can i get your desktop background,12-10-2021,0
680,Phieubengoan🔫,phieubengoan78,,Cho xin tên hình nền,12-10-2021,0
681,.,mxzz__,,@1999,11-10-2021,0
682,Nuko,14_21_11_15,,everyone in the world knows that,11-10-2021,0
683,IzzTomVN,izztomvn.0411,,@tuanngocday anh ơi!,10-10-2021,0
684,Xerner,imxerner,,Where u get the wallpapers from idk if u made a vid I just followed you,9-10-2021,0
685,MikeNhuttt,mikenhutt,,Nhìn mã discord ông ý,9-10-2021,0
686,1ใน4มหาเทพ,sixthell666,,ควรปิดหรือเปิดดี???,8-10-2021,0
687,Tik Toker,bgoog,,@ggthegangs,8-10-2021,0
688,J2Trappy,bigpoggersmanyes01,,"Any turn it off if your getting lag from discord you can check in task manager otherwise it will make discord slow, unresponsive sometimes.",8-10-2021,0
689,DeltaruneLover🤍,pierozek_gaming,,wallaper name,7-10-2021,0
690,ROBLOX_Avatar,rob1ox_00,,dude i cant download google crome from microsoft edge,7-10-2021,0
691,ばの,lcfr_mrngstr,,!keyboard,4-10-2021,0
692,서율,hnhrn4yn3y,,@xhwk0164926w,4-10-2021,0
693,Logan Rose,roseoflogan,,"When I did this it completely crashed my computer, any idea why",3-10-2021,0
694,낭만,liiiiillilllli,,키보드 바밀로 2세대 벚꽃 맞음?,3-10-2021,0
695,gaming,usergame969,,wow helpful🥰,3-10-2021,0
696,.-.,dyidigh,,컴 킬 때마다 컴디코 화면 켜지는데 그거 끄는 법 아는 사람..? ㅠㅠㅠ,3-10-2021,0
697,0,MS4wLjABAAAA0qompoWKN_yzYIzRO3jaWyzoQRo_z4wCCS55lEAblN8k3b9IQLPzTsMdquWNCt3A,,저거 하드웨어 가속인데 저거를 끄시면 더 원할하게 게임이 돌아간다는 뜻입니다 ㅎㅎ,3-10-2021,0
698,f,clashroyale00000,,글카 3060이라 딱히 할 필요 없을거 같은데,3-10-2021,0
699,어~허,leegunhee135,,😂thank you,3-10-2021,0
700,UCCCCC,uc12.t,,@davidchou1028,2-10-2021,0
701,kyojun2,kyojunyoon,,오 윈도우 헬로를 지원하는 캠을 쓰곴잖어 정말부러운걸,2-10-2021,0
702,Dre,dre_an3,,@dyan_jade yan pc tips,2-10-2021,0
703,리을이응크쿠쿠쿠다스,cucudas18,,오,1-10-2021,0
704,ℱ𝓇𝑒𝒾𝓉𝑒𝓈,.spxcx...__,,keyboard?,30-9-2021,0
705,【No war】,maron2258,,これほんと？,30-9-2021,0
706,中卒ニート,neet284,,"キリトかなーやっぱw
一応オタクだけど彼女いるし、俺って退けない性格だしそこら辺とかめっちゃ似てるって言われる()
握力も31キロあってクラスの女子にたかられる←彼女いるからやめろ！笑
俺、これでも中1ですよ？
ps
彼女はアスナ似です(聞いてねえ",30-9-2021,0
707,TobiSlayder,tobislayder,,Thank for shit tutorial,29-9-2021,0
708,Rith,rithbewbew,,so i killed my pc😳,29-9-2021,0
709,eeeliii,nicho.lei,,@arsynluna @wtf.jared,29-9-2021,0
710,Zyk.,hyperrisez11,,เปิดหรือปิดครับ,29-9-2021,0
711,.,rhythmgamenoob,,smạc my át,29-9-2021,0
712,ray,ray60298,,基本都知道吧,29-9-2021,0
713,mui_panuwit332,mui_panuwit332,,"ROVUVNM783T เดียวใส่กลับ ให้ครับ
ใครใส่ให้ผม😳😳😳..",29-9-2021,0
714,‡ 乃卂乇 ‡,vestatiicz,,What wallpaper is that?,28-9-2021,0
715,Cậu vàng,luudancuk,,How to boost fps for pc,28-9-2021,0
716,Nah,incognito010110,,Cái Key hoa anh đào này rao đến 7 lít trên Lazada :v,28-9-2021,0
717,Ông Nội,jedyhennessy,,@biofreak @gauisme,28-9-2021,0
718,nai,nelieltu_odelschwanck,,@ryptyx @king_lycan_pagaddu,28-9-2021,0
719,SIUUUUU 😎🔥,aothatday991,,uoc mo cua toi giong avatar chu tus,28-9-2021,0
720,MohammadPaimon,mohammadpaimon,,@sav.qr,28-9-2021,0
721,YanTao,yantaonewyanfeisara,,@tukelvin13,28-9-2021,0
722,Lam Thien An,lamthienan1,,@imdeadinside.fr @hic2411,28-9-2021,0
723,Dương Phú Thành,dphuthanh,,@csknlm .,28-9-2021,0
724,lampubesi,nic.how,,what about laptop....,28-9-2021,0
725,Tùng Dương,ch1ckens0up4thes0ul,,@chimbuhon,28-9-2021,0
726,Reyii,reyii_17,,spill the keyboard pliss🥺,28-9-2021,0
727,BruhJangxD,bruhjangxd,,@odzww,28-9-2021,0
728,GianCods,giancods_,,"I cant even open discord cuz it says ""Update Failed"" 😞",28-9-2021,0
729,Koii,koikoikoikoikoikoikiyo,,@Zan⛩ @zan 😬,28-9-2021,0
730,Oli_Ride_Rose,oli_ride_rose,,@bens_hardware,28-9-2021,0
731,👎🏿,ngovanwuyn,,discord nó tăng fps thật à,28-9-2021,0
732,ariana,biggblueballs,,@not.kriswally3,28-9-2021,0
733,Tammyyy,tamvertex,,สำหรับคนใช้ Discord นะ😅,28-9-2021,0
734,user8256089030583,user8256089030583,,"yo when i sharing my screen, all the member in the channel cant hear anything, the audio doesnt work at all, how can i fix it, thanks very much",28-9-2021,0
735,N-ORD,galdohanzo,,Me watching tips for PC in even though I don't have one.😅😂,28-9-2021,0
736,Fade_assassin248,fade_assassin248,,step one get pc,28-9-2021,0
737,YT Skort,ytskort,,poop,28-9-2021,0
738,"6388833,,$)",abrrasive,,it makes my discord lag tho.,28-9-2021,0
739,♧♧♧♧♧♧,justalex577,,@mike_cy,28-9-2021,0
740,Riley Bonin,ohmatomita,,this boosted my ingame by 30fps. bless,28-9-2021,0
741,iitzCaz,24k_loner,,@anti.vfried @froxn69 here this for u cuss u a pc😁,28-9-2021,0
742,UmmahOfSAW,islamreminder_99,,Thank god I found this page my new gaming laptop is coming on Thursday soo... Great timing 🥰👍,28-9-2021,0
743,ﾠ,koa,,Big dubs Glks,28-9-2021,0
744,Honeyglazee,misshoneyglazee,,@learsiiiqt,28-9-2021,0
745,𝙧𝙞𝙮𝙖𝙙,riyvd,,@gyroo_z,28-9-2021,0
746,Mohamed Essam,mohamedessam2171,,@yahia_258,27-9-2021,0
747,hugo 🌙,notvero_,,"imagine gate keeping a wallpaper, a literal wallpaper bruh",27-9-2021,0
748,XD,kalot.t,,off,27-9-2021,0
749,Vinsouilleee ⚡️,vincent.grrd,,@999_neyas,27-9-2021,0
750,<3,egt.n,,@clearlyepic stay with meeeeeeeeeeeeee 👍,27-9-2021,0
751,ENV Tr4p,luckyfailure0.0,,what is that background called?,27-9-2021,0
752,Rozek,mateuszmati188,,@__bucik__ oznacz mnie też pod tym,27-9-2021,0
753,fernando,mifercho175,,@unvegetalazulxd,27-9-2021,0
754,Simão Santos,scaetano006,,@shiiinyy,27-9-2021,0
755,Krzysiek,fxchrisss,,discord tip use light mode😏,27-9-2021,0
756,SylarRB,sylarrb,,@ohheydinkel,27-9-2021,0
757,creampuff,chcmallows,,@maryxloyola @reyginalim @dxxnx_8 @pechloeliar @syramvrn,27-9-2021,0
758,Steven Marion,itsstove,,Who has problems with discord FPS lol,27-9-2021,0
759,Leon,moinmeister1234550,,@bens_hardware,27-9-2021,0
760,Lewis 🥷,lew.cl4rk,,Set up tour,27-9-2021,0
761,ariel,arielluvsfortnite,,@evecohen1235 קחי תעשי את כל ה70 שלבים הוא נותן דברים עוזרים ממש,27-9-2021,0
762,René,speeeeeeeeedowagon,,😳,27-9-2021,0
763,Hoàng Đặng,dhoangg,,"Tôi chơi LOL toàn bị tụt fps là sao nhỉ :(( ai có tips nào khongg? Máy tôi 1050Ti, i7 7700 ram 16 :<",27-9-2021,0
764,Mr. Big funny man,joshboshx,,Another one delete system 32,27-9-2021,0
765,Raphael_tay.lor,raphael_tay.lor,,Wallpaper?,27-9-2021,0
766,Kurt (:,kurtis2218,,Key cap link ?,27-9-2021,0
767,.,w.r1.5,,@zecons,27-9-2021,0
768,Beans,ashleylamo444,,wallpaper?,27-9-2021,0
769,Mason Strohl,masonvalvidian,,Yoooooo imma try this,27-9-2021,1
770,Giwrgos,kalivas_6,,we want how to get the old discord logo,27-9-2021,0
771,Ngọc,ngocc49212,,#0001 ???,27-9-2021,0
772,no siema,m3ris12,,"this keyboard ✋🤚
letters on screen ""hkwjveksvkwieb ej""",27-9-2021,0
773,✨Lasse✨,lasse__777,,@bens_hardware,27-9-2021,0
774,vicㅊ,hbk.v1c,,Wallpaper name pls,27-9-2021,0
775,Mazur,_mazurr__,,@nicolciasikorcia,27-9-2021,0
776,Gorkido,gorkido,,do this if u want discord to be laggy asf lol (well if your cpu is good then that won't happen),27-9-2021,0
777,pupskopf6,like_oder_du_bist_gay10,,@bens_hardware,27-9-2021,0
778,Yuu Kichiro,yuu_kichiro,,nccc,27-9-2021,0
779,Owen,owen0101010191019,,Give this guy the tick already,27-9-2021,0
780,rizie,rziee3,,@neno,27-9-2021,0
781,Jessy💋,gallardojessyy,,@vlscal,27-9-2021,0
782,Camiel,nudububu,,@vascoiscool doe dit,27-9-2021,0
783,KING U3,king_u3,,On or off??,27-9-2021,0
784,tommyjiujitsu,tommyjiujitsu,,day 6 of asking what your background is called on wallpaper engine,27-9-2021,0
785,jackorchard,jack_orchard,,How did u get the background,27-9-2021,0
786,Kenny Chau,mrkchau,,what is that wallpaper called,27-9-2021,1
787,Wiktor Jabłoński,wiciuu_6969,,Po co to,27-9-2021,0
788,M A S H,kerumari,,Keyboard?,27-9-2021,0
789,Дэм,d3m.fx,,"Знаю такую штуку, реал фпс повышает",27-9-2021,1
790,ja,ktos.o.imieniu.kamil,,wallpaper?,27-9-2021,0
791,Kiet Bui,kietbui084,,ổng gõ lụi à 😂😂😂,27-9-2021,0
792,Fahrien,fahrienzulll,,@aleeeapo sila lah buat,27-9-2021,0
793,NguyenTienDaz,ignguyentiendaz,,@vbn.0212 hình như giảm la,27-9-2021,0
794,Amireo,amireo2,,13,27-9-2021,0
795,69egg,69egg_,,wallpaper?😳,27-9-2021,0
796,Yuzuha Fanboi,yuzuhafanboi,,what mechanical keyboards do you think is great?,27-9-2021,0
797,S ti n,hellojasten,,how to boost fps in valorant,27-9-2021,0
798,S ti n,hellojasten,,how to boost fps in valo,27-9-2021,0
799,The strongest melon 😈,god_ofthe_melons,,@bens_hardware,27-9-2021,0
800,seb <3,sebby.sebbi,,@freakinghana,27-9-2021,0
801,suggmaballz11,suggmaballz11,,This really won’t do anything besides make discord run slower,27-9-2021,0
802,⠀ ⠀ ⠀ ⠀ ⠀ ⠀Feel_likea_god,felllikeagod,,"Olá, desculpe incomodar :(
É que eu sou editor e todos os meus vídeos flopam, estou tentando desflopar por comentários:)fixa? @snk_editsz",27-9-2021,0
803,ThaGoat,zuerich.marian,,you dont have a mouse,27-9-2021,0
804,Amar Sulo,tw3ttty,,will it consume more memory?,27-9-2021,0
805,Miltos Ritsakis,_._miltos,,και πόσο θα βοηθήσει αυτό;,27-9-2021,0
806,LenoxBlue,lenoxblue,,wenn man das macht zieht es zu viel an der leistung der spiele dadurch hat man weniger FPS also macht es nicht !!!,27-9-2021,1
807,Z,buttercse,,hey my alt tab has swapped with win tab and whenever I press alt tab now my tasks view pops up please I need help,27-9-2021,0
808,faicyy©,faicyyy,,@bens_hardware2,27-9-2021,0
809,Merijn,merijn0744,,Keyboard?,27-9-2021,0
810,Cherryripe,cherryripex,,BET,27-9-2021,0
811,kane.del13,kane.del,,@vince_clemente,27-9-2021,0
812,ㅤadrian,wavyysalad,,i like how he wasnt typing anything,27-9-2021,0
813,shiyaa,_ashiye14,,more,27-9-2021,0
814,Confused.But.Blessed,wrld.of.beast,,and then your screen share is shit and everything feels slow,27-9-2021,0
815,Cameron,cammyboy100,,Lukaku was so quiet that game,27-9-2021,0
816,Trần Duy Dương,duong6504,,what keyboard name,27-9-2021,0
817,Oggyestleslascar,wwewewewewewee,,La réf du clavier,27-9-2021,0
818,Arad J awla,aras._.surchi69,,@0sc44r awa chya,27-9-2021,1
819,serenity,ms.kitk4t,,@christeyneee,27-9-2021,0
820,Ngộ 0,tvlqm,,😏😏,27-9-2021,0
821,Ana,tamagochw,,@potatolejen coba,27-9-2021,0
822,mmj,mmjsr50,,Wallpaper name?,27-9-2021,0
823,Kendit,kendit1000,,Sakura theme keyboard ? 😱,27-9-2021,1
824,悲しい,lordjamraj,,@kimaaaaaah,27-9-2021,0
825,........,wasssup327,,What is that wallpaper it’s 🔥,27-9-2021,0
826,user5685519833043,f31522,,@secretxzoom,27-9-2021,0
827,Oscar,helloworldimyamum,,"Hi, how do you stop discord opening as soon as you open up your computer?",27-9-2021,0
828,el,whothefuckisperc,,@Cedrick Isidro yan pre,27-9-2021,0
829,Notification,alert.tictok,,bro your keyboard is FIRE 🔥 what's is it please tell me,27-9-2021,0
830,i_missed_the_joke,whati_said_was_hella_cap,,I can't unhear the remix LOL,27-9-2021,0
831,G.,.pil0t1,,wallpaper name😬,27-9-2021,0
832,Trung Natsu,lovechaeyoung97,,chả hiểu sao mic dis tui lâu lâu nói chúng nó ko nghe với lại lâu lâu nói nó bảo nghe giọng robot,27-9-2021,0
833,Sigma,.lawch,,@d.lzex,27-9-2021,0
834,wahyu,rizawn69,,@lemaonima,27-9-2021,0
835,okay,pihachuuuu,,thanksaaa,27-9-2021,0
836,Mageed Abo tareef,mageedabotareef,,@vcl_black7,27-9-2021,0
837,Mageed Abo tareef,mageedabotareef,,@trepz.fn,27-9-2021,0
838,2ez,dogshit____,,is there anyways to fix boot looping when im playing apex?,27-9-2021,0
839,Kalko GFX,kalkogfx,,Tips to boost fps. Stop running useless shit in the background and have the hardware to directly support the game,27-9-2021,0
840,klesh2о,clash2o,,"can u take Russian please, don't understand u because very fast",27-9-2021,0
841,Asesu,iceu_valo,,@angeloshane5,27-9-2021,0
842,Kingston,kinqstonvonq,,what your wallpaper?,27-9-2021,0
843,Frhn,_frhnr,,udh tau cas? @capcaplin,27-9-2021,0
844,Fenrir Ingi,fenriringi,,What is that keyboard case?,27-9-2021,0
845,Bastian Frederiksen,jacoberi0,,Omg wtf,27-9-2021,0
846,ZRT,zrt0001,,thanks :),27-9-2021,0
847,don’t call me fredrick,shushtate,,Day 5 of asking for graphics upgrade,27-9-2021,0
848,no,maitomies34,,Wallapaper?,27-9-2021,0
849,Your biological mother,someonesalt76,,I just moved to Ubuntu thanks for reminding to turn that off,27-9-2021,0
850,milutinkragic69,milutinkragic69,,people with no gpu bee like:😳😳😳,27-9-2021,0
851,¯\_ʘ‿ʘ_/¯,milan1792,,@supercars.m @rezli.yt,27-9-2021,0
852,kaikkea,seppo102,,do u have video boost fps whole pc and games,27-9-2021,0
853,Er1c,er1c_,,Bro what's is this wallpaper give me name,27-9-2021,0
854,broken atomen,ultramanpatahkaki,,@stepekciken,27-9-2021,0
855,laurence5926,lxwau,,off*,27-9-2021,0
856,Blank,._.blank,,It only works if you have the worst hardware ever and even then it only halps a bit but if you have a good gpu and CPU it doesn't boost your fps,27-9-2021,0
857,*Ich geh Milch holen*,slixxy21,,@bens_hardware,27-9-2021,0
858,Alouchiserhal1,alouchiserhal1,,ok,27-9-2021,0
859,Doãn Đại Hiệp,0tingtingting0,,có ai dùng air pod mà hay bị mất tiếng lúc bật discord lên k,27-9-2021,0
860,Sniiiiiiiiiiiiiiiiiiiiiiiiiiik,lsqdx5,,Wom,27-9-2021,0
861,7zxn,9xalc,,Dc geht auch so 😌,27-9-2021,0
862,haizivīts,sir_haizivits,,@rihardsgamer551,27-9-2021,0
863,Tanyon,itz.not.tanyon,,Do you know one to lower cpu usage?,27-9-2021,0
864,7,j7ssica,,can i get a link for that wallpaper,27-9-2021,0
865,SHA-256,bobbyv_123,,bro discord is overhyped and their ui is pretty bad. Telegram is better,27-9-2021,0
866,👑-GhostFace-👑,thephonkerguy,,"i dont have a good pc, i have trash can on core i 3 and nvidia 750",27-9-2021,0
867,Егор Овчинников,egorovchinnikov08,,keyboard cost 15000р,27-9-2021,0
868,Gamer,fuccingamer,,Will this help with my dual 3080s,27-9-2021,0
869,Bobby,bobby.rosicov,,My pc is too shit and I only get 700 FPS is that good,27-9-2021,0
870,Alysson Santana,kbkjee,,wallpaper?,27-9-2021,0
871,Shinksdul,shixzskdul,,What keyboard is it or did you buy the keycaps?,27-9-2021,1
872,kenboi,kenuchiha23,,got any tips to stop streamlabs from skipping frames when i stream?,27-9-2021,0
873,Alfie,ixvinz,,What this do,27-9-2021,0
874,Tristan.vo,0r.jayden,,@ludooue,27-9-2021,0
875,Jake,jake___apex,,NO WAY THANKS BRO used this and dropped my first 50 bomb on discord 🌝🌝,27-9-2021,0
876,David :),dejvoooos,,@radinek_,27-9-2021,0
877,aarrnon,aarrnon,,"My discord when using the music bot it hears the music bot soft and lags, how to fix it?",27-9-2021,0
878,Angelo,keurt_,,Whats the wallpaper called ik its from wallpaper engine just what is it called on there,27-9-2021,0
879,Ty,tyrone.leee,,where can i get your background?! in need pleaseee,27-9-2021,0
880,Yaboi♾,flboymateoo,,WHATST THAT WALLAPPER MAN,27-9-2021,0
881,Uziel Cruceta,alpha_pika,,@.noirx_,27-9-2021,0
882,Zapzidus,zapzidus,,Wallpaper?,27-9-2021,0
883,Ahegao lover 😈,therealahegaolover,,@las_abs_de_todoroki,27-9-2021,0
884,DreadfulMist,dreadfulmist,,Which background is that on wallpaper engine ?,27-9-2021,0
885,Alex,g3rtyy,,what kind of keyboard is that? 😬,27-9-2021,0
886,KneaXy - Trailers,kneaxy,,"Il faut arrêter avec les fameux boost FPS, investissez.",27-9-2021,0
887,WendelL ML :),wend31l,,How to put legal paper size on pc,27-9-2021,0
888,EC James,ecjames5,,Wallpaper?,27-9-2021,0
889,user5031473897178,memelord789,,Bro I did it and it made my discord laggy and buggy as fuck like I couldn’t move my mouse or anything,27-9-2021,0
890,memes I gess,ben..morgan,,off*,27-9-2021,0
891,Miznatnasah,miznatnasah,,do these tips work on laptops?,27-9-2021,0
892,Garrett,_garrettcooper_,,What’s your background,27-9-2021,0
893,Nick,8x3au,,That’s not gonna give u a fps boost,27-9-2021,0
894,moe,allamy14,,Pleas do a tiktok for wifi boost on wireless,27-9-2021,0
895,Zhai,sushi321321,,"My computer can't turn on the microphone, is there a way to fix it?",27-9-2021,0
896,dewy sus fan page,yourstrulycam,,@wnl_domo @itsampfr @eswannn,27-9-2021,0
897,Joey Jones,joeyjones200,,@saiyansavagery,27-9-2021,0
898,Tobi,tobiascb13,,What keyboard 😅,27-9-2021,0
899,24Atlantis24,24atlantis24,,Keycaps?,27-9-2021,0
900,Ni ni,khszxt,,Is your keyboard the rk61?,27-9-2021,0
901,kozar_io,kozar_io,,walpaper name?,27-9-2021,1
902,Mikhail Scicluna,mikhail.scicluna_,,stop typing at the beginning,27-9-2021,0
903,Manji.val,manji.val,,So it’s hardware acceleration that we need to turn off?,27-9-2021,0
904,Sloppy McFloppy,wet.beans69,,Hey bro I just got blue switches and my whole house hates me now 😬,27-9-2021,0
905,WarzoneLegend62,warzonelegend62,,Homie ya wallpaper is gonna eat more resources then fucking discord using your gpu lol,27-9-2021,0
906,Doug,duh_duhg,,What keyboard is this?,27-9-2021,0
907,Carlos,carlosxs13,,nome da musica/name of music,27-9-2021,0
908,Jack Tindale,jacktindale,,What mousepad is that ?,27-9-2021,0
909,?,andrisbomzis,,JUST STOP THIS DOES NOTHING TO IMPROVE FPS,27-9-2021,0
910,Pedro,synxsyhehe,,@bhmatt,27-9-2021,0
911,Jordan,jordan__119,,Yo bro where did you get those keys from I have a uk layout keyboard and never find keys that work for the big enter key 👎🏼🤔,27-9-2021,0
912,SheloveSaber,doggiesolosyourverse,,Question Whats the best setup for pc gaming At walmart im getting gaming stuff for my birthday,27-9-2021,0
913,Logan White,logan_is_white,,it works when discord is open and your playing a game,27-9-2021,0
914,Nate,natebeigel,,"I can’t open discord it’s weird, whenever I open it before it can even fully load it just crashes",27-9-2021,0
915,Ryan,redguy_rr,,"@bigjopo do this, now",27-9-2021,0
916,NaturalGlitch,naturalglitch,,"@low_quality_memess watch this person, they Will help you a crap ton",27-9-2021,0
917,Nah,sttealthyz,,What is your key board,27-9-2021,0
918,Viktir,viktirr,,"It doesn't improve fps, if you wish to improve fps disable game overlay.",27-9-2021,0
919,🌊🦋,wekxy44,,any good looking white/pink key caps for 80 keyboard?,27-9-2021,0
920,Nezar Saleh,nezarsaleh19,,@Sean,27-9-2021,0
921,𝖠𝖻𝖽𝗎𝗅𝗋𝖺𝗁𝗆𝖺𝗇,MS4wLjABAAAA-JG0nUTdzo2ZIqwvfDCCZv8TvtG5aghVw4czGt28bXjWZWEHCPTcV7S5gq-0HQoF,,Kl tbn,27-9-2021,0
922,Bkfighte,bk.fighter,,@fluttershyinlove @@,27-9-2021,0
923,felis,felis.val,,give your pc head and it runs faster,27-9-2021,0
924,Isaac Lee,euisungisaac,,@albert0515kim ????😅,27-9-2021,0
925,E,jdm.may,,AYY we have the same key cap set,27-9-2021,0
926,🐇,uvlax,,@.samuilua,27-9-2021,0
927,muxzyy1,muxzyy1,,Ffs just ran in blue screen resetting everything I’ma use this fps boost things,27-9-2021,0
928,Kingsley_.67,matthewsszn,,@logan_rozsas,27-9-2021,0
929,Miles,milesspader,,does this affect how discord runs?,27-9-2021,0
930,デイビッド ルイスデ,ruisuda,,Thank you soo much,27-9-2021,0
931,Matths.1z,matths.1z,,😁,27-9-2021,0
932,Matths.1z,matths.1z,,lobe the setup,27-9-2021,0
933,BigCanOfBeans,bigcanofbeans7,,no turn it off it increases fps in games while using discord,27-9-2021,0
934,IKnow_shaf,iknow_shaf,,@yax001,27-9-2021,0
935,,heart4758,,@ethevals,27-9-2021,0
936,davidbxllxntyne,davidbxllxntyne,,where did u get ur key caps from?,27-9-2021,0
937,John Nimrod Toledo C,nimrodpogi,,howww,27-9-2021,0
938,Ai Blevins,wya_smxkey,,"9,900th like",26-9-2021,1
939,Green Spooderman🟩,spoodergreen_vr,,Where are u from?,26-9-2021,0
940,Adrian Guerra,adrian.guerra,,@_lewisrobertson_,26-9-2021,0
941,SmollerBoi,smollerboi,,Building my pc in 2 days so that’s a follow,26-9-2021,0
942,nicky,ls400nicky,,wallpaper rn i need it,26-9-2021,0
943,.,eiwkskkskd,,I don’t even have a gpu,26-9-2021,0
944,David Dumitru,pisik004,,where did You get your keyboard from?,26-9-2021,0
945,SilentDagger,siientdagger,,@bens_hardware,26-9-2021,0
946,Notbehdudj,bokmshhe,,Hey can you help me my pc uses 100% disk and Idk why,26-9-2021,0
947,Nate Lennon,natelennon389,,Hey man any chance you also know how to fix stuff with PCs? Been having issues,26-9-2021,0
948,Anthony Li🗿🗿,antho_li,,I only have developer mode and hardware acceleration,26-9-2021,0
949,nahs555,nahs555,,thx,26-9-2021,0
950,Darth_vader670,darth_vader670,,Do these tips work on laptop aswell?,26-9-2021,0
951,Trevor,trevor_40,,@unclaiimed,26-9-2021,0
952,Russian,zerg_hydralisk_devolved1,,system 32 then delete,26-9-2021,0
953,Ly,loay90069,,"isjfjwoncjuchrbfkcownbcixkbbtbduc, that what he was typing when the video start 😂😂😂😂😂",26-9-2021,0
954,Krzysztof Olek,krzysztofolek,,What is this wallper name ?,26-9-2021,0
955,Yusufoh69,yusufoh69,,"hey bro, how are you doing, can you help me",26-9-2021,0
956,luca__jong,luca__jong,,Can you make one that show us how to do an overlay on discord on your wallpaper,26-9-2021,0
957,🇺🇸 Cole 🇺🇸,cole..hunter,,@zustyofficialbackupacc,26-9-2021,0
958,Reampi,reampi,,Menace,26-9-2021,0
959,Dawid Bugara81,dawidb20,,@kamis977,26-9-2021,0
960,ᅠᅠᅠᅠᅠᅠ🦉,.isqiah,,this only uses less power for discord,26-9-2021,0
961,kakaj,mamradcernypera,,"my pc is lagging, is good to do factory settings?",26-9-2021,0
962,Bryrod,rod_b_1255,,You have a tip on making desktop icons to work?,26-9-2021,0
963,xmlv_off,xmlv_off,,Keybord ?? Plz,26-9-2021,0
964,kein_bock_auf_schule,winoza_tv,,@bens_hardware,26-9-2021,0
965,Bigblockchevy8.1,thatwhite_8.1,,Your vids help a lot but didn’t you already show this one?,26-9-2021,0
966,Nova studios,nova.unit0,,Join vision today,26-9-2021,0
967,noli,ynumberr,,Cool,26-9-2021,0
968,S.,s.pradez,,First,26-9-2021,1
