,Comment Number (ID),Nickname,User @,Comment Text,Time,Likes
1,DreamTech · Ersteller,dream.pc0,,"Count to 100, 100th gets a prize 🎁",14-12-2021,198
2,Owen,haenous1,,For those where it didn’t work you need to have caps on even when typing the numbers and when you click enter it should work,16-12-2021,339
3,Brenden,brenmarten,,works on any star wars song not just that btw,16-12-2021,137
4,RNG Shadowbomb,rngshadowbomb,,I clicked the playlist and started playing songs and nothing happened.. anyone help?,16-12-2021,5
5,Trevey >:D,treveyyy5,,how do u change it back?,15-12-2021,3
6,OlyOly,0ly.0ly,,Bruh u didnt show what to click on so whats the point,15-12-2021,69
7,Tony,tonyraso,,Do you need to download the playlist or anything?,15-12-2021,2
8,Akosih,majikwizord,,What background wallpaper is that?!,15-12-2021,3
9,Kordiack,kordiack,,it doesn't work...,15-12-2021,3
10,𝓈𝑜𝑝ℎ𝑖𝑎𝑎 🤍,sophiaa_florendo.x,,Ayeeeeee earlyyyy,14-12-2021,36
11,matt,mootmoot77,,What keyboard is that,15-12-2021,3
12,SUV_papi,suv_papi,,my spotify broken,15-12-2021,2
13,FluffyCatToast,fluffycattoast,,"Does it make the bar a lightsaber for every song?
Cus I've had this before but only with songs dedicated to the star wars universe",14-12-2021,1
14,AHHHHHHHHHHHHHHHHHHHHHHHHHHHHH,aucjk,,does it work for mobile?,15-12-2021,13
15,Colton,agentcolton_,,didn’t work rip,14-12-2021,2
16,DreamTech · Ersteller,dream.pc0,,Count to 100 1 number per person 😂,14-12-2021,6
17,Cameron,cameronanderson55,,We love the early posts,14-12-2021,3
18,VishwaM,vishwam890,,It works!!!,14-12-2021,17
19,T3eKay,t3ekay,,where did you get your mousepad??,14-12-2021,3
20,Gusshy,gusshytiktok,,"What's that app in your taskbar, like a x in a kinda box or smt???",14-12-2021,2
21,nntiinteressa di,w.il.duceeee,,keyboard?,14-12-2021,3
22,luca__jong,luca__jong,,Same background gang where you add? ⬇️,14-12-2021,4
23,Donovan Clarke,joker_smoker420,,what keyboard is that?,14-12-2021,5
24,Benjamin Nuñez,.axriqu,,Terraria,15-12-2021,3
25,HedTB,hedtb_yt,,uh somewhat early,14-12-2021,5
26,...,kaka0wy_wlamywacz,,wallpaper name,14-12-2021,3
27,-,cazrz,,How did you get that Christmas tree wallpaper?,15-12-2021,2
28,Epic-RainzyVFX,rainzyvfx,,Only works on the star wars theme 😩,15-12-2021,2
29,⠀ ⠀ ⠀ ⠀ ⠀ ⠀,jakob_je,,Which keyboard,15-12-2021,2
30,Simon Brianese21,user562384257236,,also happens when you listen to star wars music lmao,14-12-2021,2
31,MikeyisYourDaddy,wyd_mikey,,doesn’t work,16-12-2021,2
32,Sage,sage.d.goat,,Is it permanent?,14-12-2021,2
33,Danny,drozenblat,,@archiedougs no way this works,18-12-2021,3
34,cora 🥶,fehreinheit,,may the force be with you,15-12-2021,1
35,Ricardo Ulici,ppllxx12,,⚠️ATENÇÃO⚠️SE TENS UM PS3/X360 NÃO QUER APROVEITAR O GTA ONLINE AMANHÃ É O ÚLTIMO DIA,14-12-2021,1
36,Incomplet,iamincomplet,,It only works on that specific playlist,15-12-2021,2
37,Samira,xsamiralive,,how do you change to dark theme like thattt,22-12-2021,2
38,Daniel,dchenwong,,@almondk05 youre welcome,16-12-2021,2
39,Riley McGee,angelicwookie,,@Atomic Akuma AYOOO IT WORKS,15-12-2021,2
40,Wyatt Neigut,wyatt.n6,,What is the wallpaper name?,15-12-2021,2
41,Swayo,the_real_swayo,,I did but yeah,15-12-2021,2
42,la97eb charara,trah_ija_haka_chway,,didnt work for me,15-12-2021,2
43,If you read this you’re gay,destiny.lom,,It does that with duel of the fates too,15-12-2021,2
44,NinjaPlayz X,ninjaplayzx,,that wallpaper in wallpaper engine if so what's it called?,14-12-2021,1
45,swifty HD,elite_swiftyhd,,alreddy knew,15-12-2021,2
46,Valentin.giron,xvalexg,,I did! Pay me!,15-12-2021,2
47,Trent,_trent66_,,"hey can u help with this? Whenever I load into a game like fortnite for example, the first game I play, I keep getting lag spikes and stuff isn’t ⬇️",15-12-2021,2
48,Isaac Adler,frogguy95,,You can do that with any Star Wars song,15-12-2021,2
49,👺,youssef_sae,,Install windows 11,14-12-2021,1
50,Lmabbess,logan_hentai,,THX1138,15-12-2021,2
51,lowkey_Rajah,lowkey_rajah,,wallpaper ?,15-12-2021,2
52,Elly,ellyistaken,,How do I change it back :(,15-12-2021,1
53,graphictitan,graphictitan,,wow,15-12-2021,2
54,Adrian Herrera,astroadriano,,What kind of keyboard is that?,15-12-2021,1
55,"Life is short, and so am i",shinovz,,"my friend taught me this in 2019, still pretty cool tho",15-12-2021,1
56,nolan,nxlaan,,Omg what is ur wallpaper!?,15-12-2021,2
57,Gauntlet,gauntlet13,,About that,18-12-2021,2
58,...,seenful,,What keyboard is that sir?,14-12-2021,1
59,David,krappenschitz22,,Apple music is better,19-12-2021,2
60,Sten Vaillemans,fonckjrsv,,It also works in yt if you type ‘awesome’,15-12-2021,1
61,Juan Jo,jotika134,,Can you please make a video review of your wallpapers please,15-12-2021,1
62,Patrick,patrick.s_36,,"You can just listen to many Star Wars songs, but still very cool Easter egg!",23-12-2021,2
63,adonde simpson,adondesimpson0,,"THX1138
Your welcome",20-12-2021,2
64,user2859617709963,m1llrtym,,"When I shut my computer down, the screen goes dark but it all stays on. Do you know why?",15-12-2021,1
65,Preston,gamingbros32,,"what keyboard are you using, imma need to cop one",15-12-2021,1
66,Darpan Vora,voradarpan,,Keyboard?,15-12-2021,2
67,Mark,mbdc04,,Hi do you know how I can fix my mic? I tried testing it with my friends and I’ve also tested it so I can hear myself speak but for some reason…,15-12-2021,1
68,E.T,swift_eclipse,,knew this for 2 years now.,15-12-2021,1
69,Nitrox51,nks_rsr,,Where is the Wallpaper from?,15-12-2021,2
70,Chris,cmellyyy,,i knew that tho,22-12-2021,2
71,Judith,_judith_vk_,,@i04m19 proberen!!!,24-12-2021,2
72,Max,_max_1313,,Somehow I already knew this 😂😂,14-12-2021,2
73,toothacke,toothacke,,"This is amazing since im a hug starwars fan, thanks for the tip",14-12-2021,2
74,Shagysnacks,shagysnacks,,I wish I had a pc🥺,15-12-2021,1
75,Pryor,pryoinho,,You don’t even need to search that playlist to get the swords,15-12-2021,1
76,josh,joshthepro14,,yo,14-12-2021,2
77,Matt Saunders,kiosfriend,,"says pc tip, is spotify trick. Mislead aand hidden.",15-12-2021,1
78,SexyPalpatine,sexypalpatine9,,I knew,15-12-2021,1
79,user6588480400266,felix081,,I got the same exact tip from another TikTok literally the one before this one,15-12-2021,1
80,こんにちは,..berzins,,I knew it,15-12-2021,2
81,Tue,shmequinox,,Ayy let's go my guy is on his terraria grind 🙂,15-12-2021,1
82,Robert Lee,rob_ert_lee,,it does that with any soundtrack out of starwars,15-12-2021,1
83,Samjantzen,sam_jantzen,,What’s your keyboard looks really nice,15-12-2021,1
84,Niar,shrimpyy69,,I played a random star wars song and it had it,15-12-2021,1
85,myabuela15,noyalexgamesyt,,This happened once to me it was amazing,15-12-2021,1
86,Markus Thomas,marki_poo_,,All of the Star Wars soundtracks have on Spotify do the same thing! (John Williams and Michael giacchino),15-12-2021,1
87,Holly,avmbz,,DAME BACKGROUND GANG,15-12-2021,1
88,Simon,simonsaiditt,,100,15-12-2021,2
89,Sedurikuu,sedurikuuu,,100,15-12-2021,2
90,Filippo Mutigli,filippo_mutigli,,"Star Wars - Fabri Fibra, Massimo Pericolo, same thing",16-12-2021,1
91,user7367781850773,.luke.sweeney,,How do you turn it off?,15-12-2021,1
92,fish..,fishsticksondeeznuts,,it did not work did I do Smth wrong??,15-12-2021,1
93,HolySpaceMonkey,holyspacemonkey,,Is there I can make the lightsaber stay permanently,18-12-2021,2
94,AitchBeeSea,aitchbeesea,,”Pc tip I guarantee you didnt know” BOI EVERY VIDEO OF THESE I KNOW!,21-12-2021,2
95,Eric 3e,flurry31,,I surprisingly did knoe this,19-12-2021,2
96,Josh Hutty,yoshii_val,,Literally any Star Wars OTS Album works,18-12-2021,2
97,Beastishhh,beastishhh,,"Bro is playing terraria, a man of culture",18-12-2021,2
98,Jóhann Østerø,suuunly,,"Well sir. I'm here to inform you that I did indeed know this! 🧐
What do I win 😇",24-12-2021,1
99,Henrik Theisen,henriktheisen3,,can somebody Tell me what this keyboard is called,22-12-2021,1
100,Ryker Travis,rykertravis,,How do I get that wallpaper?,15-12-2021,1
101,rissa :),ittsme.marissa,,@_ilovemarissa IT WORKS,23-12-2021,2
102,Cash,._.vxper,,I cant get ot🥺,21-12-2021,2
103,Jacob Chavis,jacob.chavis22,,100,15-12-2021,1
104,Aleboy King05,aleboyking,,i knew that already,15-12-2021,1
105,Deryck Pominville,deryckpominville,,Old thing,15-12-2021,1
106,Marcus Tomyim,marcus_tomyum,,is it permanent,15-12-2021,1
107,ben_berrier,elimzmist,,I knew this already😒😒 thought it was gonna be something interesting,18-12-2021,2
108,⠀ ⠀ ⠀ ⠀ ⠀ ⠀,piloog,,I need to know am I the only one that it disappears when I play a song that isn't from that playlist?,18-12-2021,2
109,Aaron,aaronrm646,,THX1138 is the name of George Lucas's (the creator of star wars) first film,16-12-2021,2
110,Ioan Campbell,i2trappy69,,ayo what’s good callum,15-12-2021,2
111,niggly wiggly 🍫,nigglywiggly_11,,did know😳,15-12-2021,1
112,badgerboy2804,isaacywaccy,,I have the same PC wallpaper!,15-12-2021,1
113,Sid,distortarte,,"actually I did know that by accident, was listening to chillhop and a star wars song happened?? I don't even like star wars",24-12-2021,1
114,dominic,yellowdom,,Omg I totally forgot about this feature.,22-12-2021,1
115,Lars,lars.1605,,How is the name of your wallpaper?,22-12-2021,1
116,.,user1882948291,,I’m running the same wallpaper on my 2nd monitor,16-12-2021,1
117,brooklyn,isteponants,,@bailey.wastaken here,22-12-2021,2
118,Boy,polarzandvvc,,Hello how is your day,14-12-2021,1
119,Kreeqs,kreeqs,,didnt work 😒,15-12-2021,1
120,KerchooVR,kerchoovr,,Ayo got any tips for a chromebook,23-12-2021,1
121,Riot Gunbuddy Plz,nichlaskrell,,Knew it😤,15-12-2021,1
122,Boom,boomboomooh,,"It only works for the song u are listening to, I wish it would stay there permanently",18-12-2021,2
123,AidanWasHere,aidanwashere_____,,What kinda keyboard is that??,23-12-2021,1
124,albingashi285,red_hood4639,,Did know that,15-12-2021,1
125,urgrade8artproject,urgrade8artproject,,buddy is def new to life,24-12-2021,1
126,wavy.wtf,inkoxd_,,What webcam do you use?,15-12-2021,1
127,TequilaJoeseph,tequilaj0eseph,,Haven’t this thing been out like so long,23-12-2021,1
128,Donald Dump591,hackerkittay,,THEY ADDED MORE LIGHTSABERS,22-12-2021,1
129,Maleah,maleah.mcg,,Or you can listen to some really cool music from Oga’s cantina,22-12-2021,1
130,esme,el..gato.t_t,,"so i tried it once and it didnt work, now after watching this i tried again and it worked oml",22-12-2021,1
131,Valentino,cerebro84,,wow what wallpaper is it? i want that one. Looks amazing😍,22-12-2021,1
132,Benvin,benv1n,,And how is that useful?,21-12-2021,1
133,Fred Gamer,fredgamer420,,this only works on the desktop version and not on phone BTW,21-12-2021,1
134,Fred Gamer,fredgamer420,,I knew this from a Year agoo,21-12-2021,1
135,Embers_,atlantis_sts,,Or listen to Star Wars music,21-12-2021,1
136,it's yaboi MarkyMark,markymark1808,,what keyboard is that?,19-12-2021,1
137,Selvano Patterson,chefboiardae,,Hey that’s my background as well,19-12-2021,1
138,Pineapple0503,pineapple05030,,"Bro, I'm not lying I figured that out myself",19-12-2021,1
139,Auxtal,auxtal,,"Breh its an easter egg not a ""pc tip""",19-12-2021,1
140,charlou,._.mouais,,hum my spotify app dont work he say refresh the tab i do it and dont work uninstal réinstal nothing work help plz,19-12-2021,1
141,Tuna,tuuuuunnnnnaaa,,Finally a tip to make my pc a little more festive.,19-12-2021,1
142,daysoundslk1,daysoundslk1,,SoundCloud is better,18-12-2021,1
143,abc123jr15,abc123jr15,,okay but why does discord keep lowering my voluming to 50%,18-12-2021,1
144,V.alor,v.alor,,"I knew this already, thanks to you..",18-12-2021,1
145,PrivaK,the_privak,,it auto does this when u play star wars music,18-12-2021,1
146,naslittledude,boneless_wangs3,,I got the same wallpaper bro😅,18-12-2021,1
147,Sloth,ironslothfps,,it works but it doesn't stay you gave to do it each and every time you open it,18-12-2021,1
148,Webix_,austinx98,,This has changed my Spotify experience completely 🤣🙌🏻🙌🏻,18-12-2021,1
149,OneVoiceRises,fearthekirby,,It works but only works while playing the Star Wars soundtrack sadly.,18-12-2021,1
150,187Julian,ju_ma0602,,Search the Star wars theme by Maynard Ferguson and u will have that too,18-12-2021,1
151,Jaden Ryland,jadenryland0,,what's that wallpaper called in wallpaper engine? looks amazing,17-12-2021,1
152,Nck,nckturner,,not working for mee :(,17-12-2021,1
153,Leo,leocerrai,,yes i knew that and no it's not a pc tip,17-12-2021,1
154,Mareks Pulle,mightybraxy,,"Well, I don't trust you, cuz I've known this for a year or so",16-12-2021,1
155,Joe Man,domin0s_pizza,,It does this with any official Star Wars song,16-12-2021,1
156,Ethan Swiantek,ethanswiantek,,what do you do after you search it doesn't work,15-12-2021,1
157,Maxie ♡,nystad.mxxn,,Does it work on Mac?,23-12-2021,1
158,Devan Ray215,deavnray,,"PC tip 1 get a PC
I don't have a pc 😔",23-12-2021,1
159,zTxVo •,ztavo,,What keyboard is that,21-12-2021,1
160,Kevin,wildkevss,,My guy is playing Terraria nice bro!❤️,17-12-2021,1
161,ABC,abc123467896,,What wallpaper is that,23-12-2021,1
162,Leah,.randomuserontheinternet,,@maille.jpeg here,23-12-2021,1
163,Alexi,valojuice,,I did 😳,21-12-2021,1
164,Quinn,quinn_layton,,Can I make it stay on permanently????,22-12-2021,1
165,Lil_billy,thatscooterkid18,,how do i do it it dosent work for me,16-12-2021,1
166,Коля🦊,therealkettumasa,,Or just use the force theme,24-12-2021,1
167,ImEpic4You,imepic4you,,"already know it.,.",24-12-2021,1
168,lets win!!,_cherry_dumb,,thx1138,23-12-2021,1
169,CadTDL,cadtdl,,@qra1201 @saanvikulkarni_ WHAT,22-12-2021,1
170,dragoncop,dragoncopp,,I did,15-12-2021,1
171,derek,derekward65,,ratio,15-12-2021,1
172,Izzy,1zzy_fox,,knew it already,22-12-2021,1
173,Grinding.Gears,grinding.gears,,It didn’t work,16-12-2021,1
174,Benjamin,benjamin18th,,"Damn, i did not know this.",21-12-2021,1
175,Dark9891,dark9891,,@ojmc1605 yoo it actually works,18-12-2021,1
176,quikur,quikur,,ur guarantee was wrong...,22-12-2021,1
177,John Sargent,s3mp3rfi_00,,only works on star wars songs,21-12-2021,1
178,DAELKIN,daelkin,,@starjuic they might be onto something....,20-12-2021,1
179,caeden_argyle,caeden_argyle,,it didn't work,19-12-2021,1
180,landocal1027,mr_unicat,,It works with any Star Wars song!,18-12-2021,1
181,WarrHAVAN,warrhavan,,does it stay forever?,23-12-2021,1
182,Ruby Morris 🇬🇧,rm._.eventing,,mine didnt work... u cap,22-12-2021,1
183,Yo,its0nsight,,Its doesn’t work,19-12-2021,1
184,Crecker The Hecker,thecrecker,,I doesn't work,15-12-2021,1
185,Vector,haworth_rion18,,not true,23-12-2021,1
186,heat,nets.u,,@thyluvxah just in case,21-12-2021,1
187,gamer,ded_lucky,,@l1ttldm va gaidy,21-12-2021,1
188,Foxen,foxenfn,,i knew it,21-12-2021,1
189,Ka_jedi,ka_jedi,,spongebob,19-12-2021,1
190,Kingcodinggg,kingcodinggg,,I have that wallpaper,19-12-2021,1
191,cam_fishy,cam_fishy,,I knew this,18-12-2021,1
192,Kota,kotartine,,waths your keyboard ?,14-12-2021,0
193,hdasdfg1,hdasdfg1,,cool,26-12-2021,0
194,sarah❤️,quxxnsxrxh,,they added more types???,22-12-2021,0
195,gracie,ewitsgracie_,,@aalexclarke do this now,14-12-2021,0
196,Ayden Toddler,aydentoddler2,,How are their backround moving,5-3-2022,0
197,Heavy Golem,heavygolem,,It only works on star wars songs though,19-1-2022,0
198,3kitten<Sagee,noahslayz,,i wash i got rick rolled,1-1-2022,0
199,schwarz man,maelan_black,,it stops working when you do a different song 😭😭,30-12-2021,0
200,Anthony Stabile,adoroam,,i don't use Spotify lol,28-12-2021,0
201,Turkey.Is.Everywhere,mrtoptomato2,,Bro really spent like £3000 on a pc😂,28-12-2021,0
202,Watcha Watching bud 🤨,systemconfiguration,,This really works thx for the tips my guy 🙂,26-12-2021,0
203,chickenNuggetMan,sw_mcu_chicken,,I already new this😏,26-12-2021,0
204,shawneh,shawneh__,,or just play like any star wars song and it will also do that,26-12-2021,0
205,EAS Alarms,kalimba_guy1,,What's the name of your wallpaper?,26-12-2021,0
206,Ruby,hotwheelsruby,,lmao that's the name of my wifi,26-12-2021,0
207,JazzPanda11,jazziepanda11,,it does work but it isn't permanent. you have to enter it every time you open the app,26-12-2021,0
208,kakikoch1206,kakikoch1206,,THX1138 Just copy this thank me later,25-12-2021,0
209,x2.davvyd,x2.davvyd,,We have the same keyboard😳,25-12-2021,0
210,joemamalozzi,joemamabartolozzi66,,or play any star wars piece,25-12-2021,0
211,GranAutismo2DumRaskere,granautismo2dumraskere,,Paying for spotify 🥴,25-12-2021,0
212,Sn1pes1,sn1pes1,,I knew it ngl I knew this what 1 year ago,25-12-2021,0
213,Redi,arthurhastherealplan,,already knew it when i was listening to cantina band,24-12-2021,0
214,Martin,martinveet,,TIDAL user :(,24-12-2021,0
215,Chandler Short,ahwll,,is this a money back guarantee,24-12-2021,0
216,Pandillo,pandill0,,"Just so yall know, THX1138 was george lucases first movie (the guy who made star wars)",22-12-2021,0
217,LandofZozz,darth_ramen,,"wait, there are still people that haven't heard about this all this time?",21-12-2021,0
218,shaydizzle,shvyden,,Nah I knew this already,19-12-2021,0
219,Nicholas Culmone,weatherman_phil,,"it does this for any star wars song, you don't even have to do this",19-12-2021,0
220,Henry,twizzy.henry,,how long does it stay?,18-12-2021,0
221,Electro Gaming7013,electrogamingyt0,,What is your background is it on wallpaper engine,18-12-2021,0
222,Crazy,crazyguy0510,,𝔻𝕠𝕖𝕤 𝕚𝕥 𝕠𝕟𝕝𝕪 𝕨𝕠𝕣𝕜 𝕠𝕟 𝕡𝕔?,18-12-2021,0
223,Conner Jado,jadooo._,,im using the same wallpaper as you 😁,18-12-2021,0
224,V_alor,v_alor,,"I already knew it, pay me now",15-12-2021,0
225,Хаммие,hammiehxr,,WHATS THE WALLPAPER,15-12-2021,0
226,Goof Ahh Uncle Productions,quandale.dingle47,,I knew that,15-12-2021,0
227,Lmabbess,logan_hentai,,did not work :(,15-12-2021,0
228,Marcus !,ireallylikemoney,,It’s not working,28-3-2022,0
229,CJ Cajala,cjcajala,,How do u undo it tho HAHAHA,25-12-2021,0
230,Quintuz,quintussy,,I already knew that,15-12-2021,0
231,KJ F,kjf159,,the colour doesn't work ?,15-12-2021,0
232,Lucy・_・,lucylyle14,,Ik that already,11-4-2022,0
233,Alberts Pukis,albertspukis,,@teki_tex testaa,25-12-2021,0
234,Zander,zander39,,@c_a_d_e_n_69 you should try this,25-12-2021,0
235,Ely Thom,et_baseball6,,THX1138,24-12-2021,0
236,Tickle Me Crazy,tickle_me_crazy,,i new it😏,19-12-2021,0
237,Kefi,kefifteen,,"Funziona anche con star wars in
machete 4",25-12-2021,0
238,Erdem,erdem.yag,,Ich will keinen sehen der Bens Hardware markiert 😑,25-12-2021,0
239,DreamTech · Ersteller,dream.pc0,,Share with a friend if you didn’t know this !!,14-12-2021,5
240,ᴍᴇᴍᴇs,0rangenpr3sser,,Whats the namw of the Wallpaper?,15-12-2021,3
241,:),tumstock,,Bruh I did a video on this like 2 years ago. You slow my guy😳,22-12-2021,2
242,SMU,piimasilli,,It works with other star wars songs aswell,15-12-2021,2
243,ManWithaPlan,manwithaplan808,,"also hack, if you play any star wars song on Spotify, it changes to a lightsaber",18-12-2021,1
244,marksy,marksy.lxtwgk,,"I broke my pc,for the phone?",15-12-2021,1
245,glenv__,glenv__,,Works on every star wars music,15-12-2021,1
246,Matvejs spieķis,artuursliepinsh139,,Scams,24-12-2021,1
247,JingoKong,jingokong,,How do u reverse it?,22-12-2021,1
248,.,mynamefreecss,,blocked😂,16-12-2021,1
249,Paste,__paste__,,how u turn it back bruh,16-12-2021,4
250,michal_252,michal_252,,Give me some nice wallpapers please 🥰,14-12-2021,2
251,Snap-lpentz19,www.findgaybsf.com,,on my way to my computer,14-12-2021,1
252,rl_koe,rl_koe,,i need a new keybord any tips ?,19-12-2021,1
253,youpvanasten,youpvanasten,,@fighterboy29 dit is best wel ziek,18-12-2021,1
254,Jesterino57 -,yumeneer,,Based on the game you are playing I can tell you’re a man of class 😏,15-12-2021,2
255,Cole,coal_p,,Pov: you hit view more all the way till the 100th comment,19-12-2021,2
256,Aleks Gapinski,sekzigalekzig,,can i turn it off?,21-12-2021,2
257,Ethan Harding,crisp_e_bacon,,How do you toggle it back to normal?,17-12-2021,1
258,Jack hoff,chiefsmilingriver,,zendaya dies,15-12-2021,1
259,TurdInMyCar,xxminorslackxx,,Lying ass,19-12-2021,1
260,KS,andreaskskoglund,,HAHA I KNEW THIS SUCKER (respectabily,26-12-2021,0
261,joshua070.__,joshua070.__,,Does this work forever? And can you turn it off?,25-12-2021,0
262,Danislav Borisov,dankataa_,,Show something for deezer,24-12-2021,0
263,David Tschida,davidtschida43,,"Doesn’t work, he just wants you to play his playlist",15-12-2021,1
264,™️,kiyahzeegers,,i knew it,22-12-2021,2
265,semveld,semveld,,Any star wars song works lol,26-12-2021,0
266,-Šäm-,_sam.holmes_,,Get windows 11 @Dream.Pc.00,15-12-2021,0
267,Samko,samkoffical,,And I knew this.. YOU LIED TO ME!,15-12-2021,2
268,Lane,teck_desk_lane,,I HATE MY PC IT SUCKS,15-12-2021,2
269,Jamisen,jamisenh,,This has existed for close to a decade wtf,22-12-2021,1
270,Zvkami,zvkami,,Unfortunately I already knew this so you lied when you said you guaranteed it,16-12-2021,2
271,LTU_3V1L,ltu_3v1l,,How tf is this a pc tip this should be a Spotify tip/Easter egg,26-12-2021,0
272,Joe Herrejon,iamjoeherrejon,,"Pointless PC Tips I didn't know about * Part 1, Jkjk that's sick tho",17-12-2021,0
273,scaseypics,scaseypics,,"Great, now, show me where the hidden Hi-Fi button is that they promised back in Feb :(",15-12-2021,2
274,jdmcars,jdmcars.rb,,"Daily PC tips from me, ALT + F4 in important game will make you win
your welcome 🥰",15-12-2021,1
275,Michael Johnston,mikeyj48,,@emmxrosss,21-12-2021,2
276,Marcus Tomyim,marcus_tomyum,,@billysmith213 @auschtit,15-12-2021,2
277,Chad,chadhampshire0,,@Alex Megert,15-12-2021,2
278,no this is patrick,compmeta,,@hunfrees75s @slimyswag,18-12-2021,3
279,💖Jaidens babygirl💖,galaxy__spike,,@galaxy_spike,14-12-2021,2
280,Kershaw,kershawj.z,,@veronicazh_,15-12-2021,3
281,:/,______levi__________,,@moggingt0n,14-12-2021,2
282,Romano Humphrey,roman_amador__,,@reynamari.e,15-12-2021,3
283,lucc,lucslot,,@_evazhxng,15-12-2021,3
284,Montana,montanatalley00,,@brooke.s_26,22-12-2021,2
285,justz,imcomingforyourdog,,@ricegodd,15-12-2021,3
286,Callum,mynameiscallum06,,@pitchertoby20,19-12-2021,2
287,Jack,kkccaj,,@nevankevan @ceo_of_simpin,18-12-2021,2
288,ItsChris (:,..its.chris,,@jeppettv0,22-12-2021,2
289,Alice,theoneandonlyalicee,,@mattogrill,15-12-2021,2
290,Glen,glen_obrien,,@_ir1sh,15-12-2021,2
291,Irene,ire_romo,,@blacklights_3,23-12-2021,2
292,Thuan,thuan_n,,@winterfalconx,22-12-2021,2
293,Caitbinnie,caitbunnie,,@allyings,22-12-2021,2
294,Mateo,twixz0__0,,@sabbysturino,15-12-2021,2
295,King_Tyler,tlang_24,,@h20justin,15-12-2021,2
296,Kaiden Harvey,kaid3nharvey,,@Jacob Mrnak,15-12-2021,2
297,Christian,lilmucachoninyonhondaciv,,@madelynmcghee,15-12-2021,2
298,Kath4shi,kath4shi,,@willow_loves_miko,15-12-2021,2
299,Randy Rhmf,no_aim_neyrox,,@feliceeeeeeeeeeeeeeeeee,15-12-2021,2
300,driftxyz,driftxyz,,@hajimari01,15-12-2021,2
301,Liam,liam.mrn,,@aidancaldwell321,15-12-2021,2
302,jcrazy,jcrazy190,,@Drew McFarlane,15-12-2021,2
303,Purple,blakeak,,@feo_bear,15-12-2021,2
304,Vavaマ,goodstickvava,,@.ezzflash,15-12-2021,2
305,KatieBella,katieebella,,@briannachristinad,21-12-2021,1
306,nyron2015,nyronos,,😑,19-12-2021,1
307,A,anthonyjacobbb,,@4lz.c63,31-12-2021,1
308,Kevin Pancrazio,kevinpancakes,,@itsjoeyp,26-12-2021,1
309,elizabeth,elizabethantrotterest,,@canadianmafia,26-12-2021,1
310,Faefocta,faefocta,,@borissoup,26-12-2021,1
311,x_jenna_x,j.i.w.610,,@flynn_williams,26-12-2021,1
312,barb,barbara.yasss,,@_r3n3..__,25-12-2021,1
313,Miso,misoooz,,@bgdd13 @brafinlong,24-12-2021,1
314,mck,aidensgirlfriend23,,@mckennasboyfriend23,24-12-2021,1
315,Michelle D,michellelellelelelee,,@firedesire004,22-12-2021,1
316,kark,cheesiouz,,@joly.rancherss,22-12-2021,1
317,Krunchy_xG,krunchy_xg,,@steviecoupons21,20-12-2021,1
318,Rose🙃,rose.am_07,,@_.demi_,20-12-2021,1
319,Wáwå,goubabearr,,@ay23120,19-12-2021,1
320,Gavin Martin,shmemar,,@paul_canning_,19-12-2021,1
321,No,bigalmonds102,,@dra.in,18-12-2021,1
322,Connor Hennessy,connorhennessy3,,@aaronmilazzo123,18-12-2021,1
323,QuintenVanDenBerghe,quintenvandenberghe,,@rikschrever,18-12-2021,1
324,Droe415,droe415,,@partyshirt,18-12-2021,1
325,Jaidyn✨,jaidyyyyyn,,@soggy_bread05,17-12-2021,1
326,😳,m.yezzi,,@yosantinoo,16-12-2021,1
327,...,thatgaychinesekid,,@butternutsquash121,15-12-2021,1
328,m.schmidt-berlin,m4rio.187,,@jk.bln 😬,15-12-2021,1
329,Nathan,riskynat_official,,@m0nkeacid,15-12-2021,1
330,KBros,kbrosplays,,@bananaking12266,15-12-2021,1
331,💧 Jaxson 💧,jaxson_hits_dingers,,@.jjuuliaaann,15-12-2021,1
332,ju4n,wgm.ju4n,,@wgm.mok @zutmo_,18-12-2021,1
333,For You,flaw_playsmc,,@waterr_mx.minecraft,15-12-2021,1
334,jessica,jessicaraebarkerxo,,@res432,23-1-2022,0
335,AA,adzy420,,@kcryll,29-1-2022,0
336,M1chu,m1chu_33,,@cluth_,26-12-2021,0
337,_,adam.hall.unoficial,,@boyofplenty,26-12-2021,0
338,Ben,benny.boy44,,@_speedy11,26-12-2021,0
339,Jasmine Lancaster,jasminelancaster5,,@brettdoughty,26-12-2021,0
340,Ida<33,stupid.minor,,@mcmc906,25-12-2021,0
341,emma 🍴,emtoya,,@nick.491,25-12-2021,0
342,Konnorcoolhe,konnorcoolhe.0,,@d1.chan,25-12-2021,0
343,BRONTO2750,bronto2750,,@micel._,18-12-2021,0
344,Gabe.vinlu,gabeee.vinluu,,@viinlu_val,18-12-2021,0
345,Ppexdendus,ppexdendus,,@theylovebaljeet,17-12-2021,0
346,QueenRage_,queenrage_,,@ivinsaspect,16-12-2021,0
347,Verzt,youtube_verzt,,@swissovr,15-12-2021,0
348,Jamie,jamsamwij,,@confusedteletuby @adam.fay @owenfay,15-12-2021,2
349,Croissant oui oui,ferreiriinha_07,,3,14-12-2021,2
350,VisionaryMotive,visionarymotive,,@ryanquack01 @nicolastran33 @jerrydaberry2,21-12-2021,1
351,Squid,squid141105,,SUIIIIIIIIIIIIII,25-12-2021,0
352,caitlyn🧸🍄,ciderfrog,,@its_uncle_time,15-12-2021,2
353,Will I Am,william.parks_,,@dr.phil_is_god69,15-12-2021,2
354,krish,krishchopra_,,@rip.biggie.chesee,21-12-2021,1
355,a,chilledfr,,@chilled_fn @archiebigcoc,16-12-2021,1
356,aznboidvd,aznboidvd,,@knighttofu,15-12-2021,1
357,Alex,alex..595,,@ur_mommydearest,26-12-2021,0
358,Joey Simmons,sclegacy0002,,"Cool, but don't see how it is a tip.",15-12-2021,1
359,J<3,jzmiew,,nothing happened,30-12-2021,0
