,Comment Number (ID),Nickname,User @,Comment Text,Time,Likes
1,Audi RS e-tron🥶🥶🇩🇪♥️♥️💙,1988.di_sportster.rally,,nokia laptop like:,22-9-2021,
2,Nun Dog,uglypooho,,Because the screen doesn’t have anything important that the laptop needs in order to operate,22-9-2021,
3,عدنا ||🫀,aavdna,,hp- heavily protected,8-8-2021,
4,Lexie,lexiepinnuck,,yall should see my crome book,10-8-2021,
5,Beautiful Sky,kumiho_cookiefan,,The Laptop is built different.,22-9-2021,
6,Rocky,rock.dylan,,Now you don't need to buy a keyboard 😂😂😂😂,18-8-2021,
7,Im romanian btw😮‍💨🤌,duckzzz.__,,The most important part is the bottom bc it has all the stuff in it,7-3-2022,
8,mi amor😽,.9.1.97_,,PLSSS,11-8-2021,
9,Kevin,kevin_.chen88,,@ellie_.chen beautiful,15-12-2021,
10,Madeleine,marl3n31,,THATS LUCKY,25-9-2021,
11,anon,universetj,,thank you thinkpad,26-8-2021,
12,ven✨,._.venicitea,,"@hatsunekyraa
""is that a pc or a laptop?""
""yes""",29-8-2021,
13,ꕥ,m0mmymr1s,,@ryukish0tt @ihatelifesteph my computer part 2,11-8-2021,
14,Koko😍🥺💕💖💅,kokobecauseyes,,@.vspmills.x THIS U? AHAHAHAHAHAHA,19-8-2021,
15,No,gooseinmyyard,,@Allison,9-8-2021,
16,Buff helpy 🫡,carrr__boi,,Finnaly we have “lap” and not top,17-9-2021,
17,just some random guy,random_username_lol_,,it evolving,6-8-2021,
18,shut up,isoldmymomforlegostarwar,,I did the same thing but connected my laptop with my tv bc the laptop screen broke 💀,19-8-2021,
19,officialblacktoad,officialblacktoad,,Finally: Lap.,25-8-2021,
20,Hey <3,letmehypeyouupppp,,I never seen anything like it 💀,8-8-2021,
21,♡Shiinea♡,shiineaa,,@sypany_olej WIDZISZ MOGŁAM ZOSTAWIĆ DÓŁ LAPTOPA XDD,22-9-2021,
22,Nice,sophi___aaa,,yay custom pc,1-9-2021,
23,nic,kvbicz125,,How to make laptop into desktop tutorial.🤣 not recommended,6-8-2021,
24,kiss me,yeti._the_.tubby,,𝐌𝐚𝐠𝐢𝐜,23-8-2021,
25,El!J@h🙈🙈,belikemeofc,,Oh no😭Our table😩It's broken😔,10-8-2021,
26,Scrunchy Rat,scrunchy_rat,,Bro upgraded it,8-8-2021,
27,User1u272727,deeg._91,,them school laptops are invincible🤣 if u went to a public school u will know what I'm talkin bout,6-8-2021,
28,fer 💐💟,ferin.s,,@rairai28 thank god a got a hp,25-9-2021,
29,cole,cole.vr,,all in one keyboard,9-8-2021,
30,lil_rozee_,lil_rozee_,,@crazyfl4k3s HAHAHAHAHA,23-9-2021,
31,jepp,wsftyuuby,,@wkejejjade YOOOO,23-9-2021,
32,༒𝖗𝖊𝖉𝖓𝖎𝖓𝖏𝖆༒,red._.ninja,,that laptop on life support,9-8-2021,
33,😫SiMbA mIdGeT😫,dior.emck,,@lil_swagy_ bruh toj tk kt od gunga k smi pokazu vid😭🤚🏻,26-8-2021,
34,𝕜𝕒𝕝𝕖𝕓,_ka13b_,,Lap no top,6-8-2021,
35,user8323647640103,user618987362,,"Same with my laptop lol, the screen came off an i use a monitor",20-8-2021,
36,-.. --- --.,theresadeadratie3,,yeah it's my Lego pc,18-8-2021,
37,Nicolás,keviner324,,Mi compu está igual,22-9-2021,
38,iceygamer1234,iceygamer1234,,its just bc the botyom is the components,22-8-2021,
39,nathannnnnn,asheijisbeloved,,you really said “custom built”,11-8-2021,
40,Aidan,aidan_tr4n,,Lap wit no top,6-8-2021,
41,ur daily flop era,lovelypeaches408,,i did this my my old laptop the screen literally got unattached from the laptop and i connected it to my tv with an hdmi cable 😭😭😭,1-9-2021,
42,Lunatic,13489tyqern9tuyq7ety9,,keyboard with build in pc,18-8-2021,
43,Damn,iwilltakeachip,,It’s in life support,18-8-2021,
44,lleev.o,lleev.o,,my laptop caught on fire few months later,1-11-2021,
45,user4450322767272,questooning,,it’s a one in one,8-8-2021,
46,adambijikapalan,fishermandoge,,that's actually smart if you think about it,13-8-2021,
47,Maya! 💕,mayas..rblx,,WAIT I HAVE THE SAME AND ITS BROKEN LIKE THAT AND STILL WORKS,22-1-2022,
48,.,.ixxia,,@bruisedl0ve our teachers fixing it when the computer breaks:,8-8-2021,
49,roseluvscoal,stup1d,,NO WAY-,31-10-2021,
50,🌱☾︎ᑕᕼIᗪՏ☽︎🌱,pastethetic,,DIYYY😏😏😏,4-9-2021,
51,bella,hugs4beomie,,oh no our table,8-8-2021,
52,rukashy24,rukashy1,,حاسبتي باختصار@lightorx,18-8-2021,
53,🧑‍🦯,wolfisha,,POV: he play rblx tower of hell,14-8-2021,
54,Matthewdoesmc81,matthewr2110,,how to turn a laptop into a commodore 64😂,17-9-2021,
55,Jj,billysbat,,That is an iPad,10-8-2021,
56,Thatkid,pieckham,,"almeno puoi usarlo come ""PC fisso""😂😂😂",22-9-2021,
57,Rob · Ersteller,robstech,,@lenovo opinions?,11-8-2021,
58,Anneli🤍,suxmeg,,I have walked on my mac still works and dropped it on the ground still works,1-10-2021,
59,rile,shinjurorengokuu,,"oh no,,,,, our table!!!!",26-9-2021,
60,Æ,quandaledingebetterrun,,same i have dropped water to the keyboard a million times and it still works,21-8-2021,
61,R For Real,d741x,,my friend's one has magnet to close the screen💀💀,31-10-2021,
62,Dzd_km,dzd_km,,Because only the screen was damaged...,23-9-2021,
63,D.B,monjiiro,,Y'all need help? I know how to fix computers 💀,9-8-2021,
64,opti,optify.k,,it only lost the display it will obviously work,17-9-2021,
65,Alfie,alfie.gilbert,,Mans become a pro at legos,19-8-2021,
66,vro,lolxdddddddde,,porque el procesador y todo lo importante se encuentra abajo XD,18-8-2021,
67,Krxziol.#6666,krxziol,,@bronkostaj2 @kubomaister0 mój laptok,1-10-2021,
68,user271467299,briane10s2,,My pc is nokia bc i puch it throw mouse and keyboard but the mauz and keyboard break,18-9-2021,
69,evan.silverstein,evan_silverstein,,@kamaldworth10 bu,18-8-2021,
70,T,2xtypo,,Thats a lapnotop,31-10-2021,
71,charlie,xdaisyz,,@pissdeity YOU LMQO,8-8-2021,
72,Tech Videos ⬇️,harrystechvideos,,pov hp,6-9-2021,
73,𝕁𝕒𝕪𝕪𝕪💅🏽✨,min_hobiii,,@ruby69_ we do this with our smart TV lmfaoo,11-8-2021,
74,flying frenemy,flyingfrenemy,,i am crying rn😰😱😭,31-10-2021,
75,.,susername.0,,حاسوب ثلاث ريال,24-8-2021,
76,bella,isabella_36754,,manoKKKKKKK,22-9-2021,
77,Issy,isabellehope22,,just put it in rice,6-9-2021,
78,user696969696969780,counciloftiktok,,Oh if you could see my laptop,18-8-2021,
79,robloxgtplayer,scp_049_a1,,It didint hurt the mother board,19-8-2021,
80,Bartholomew,kingbartholomew,,POV: epic fortnite RGB pro Ali a gaming pc,26-9-2021,
81,cool girl - taurus - <3,user6qx3me0s3k,,BYE,1-10-2021,
82,thats not a sussy bacon,splendedbacon,,PLS,23-9-2021,
83,The Noob,makakoki6,,its a monitor now,2-9-2021,
84,Tik toker,.nofly,,Key board!!,31-10-2021,
85,S,sa..1221,,Now its a toplap,18-8-2021,
86,gerardoflota1802,gerardoflota1802,,i have the same laptop and problem 😂💀,31-10-2021,
87,LILBUNNY,lilbunny_official,,POV your mom when she gives her old phone to you and says “it still works”,18-8-2021,
88,Angelezz__,angelezz__,,Oh 😳 No 👎 our 👺 Table 😃 It's 🤯 broken 🛹,10-8-2021,
89,•|Milleon|•,mzlleon,,Sheesh free upgrade to bigger screen🥶,14-12-2021,
90,Kk <33,.kk.69,,@yoon.berry06 you with your possessed computer that just plays music randomly,8-8-2021,
91,essammarwan917,essammarwan917,,can you make a tutorial about how to free up ram space or get better performance plsss🥺,26-10-2021,
92,Sussy,domrodri1,,Pues técnicamente en una laptop si se rompe la pantalla y tienes entradas Hdmi o Vga puedes usar un monitor ya que todo lo importante está abajo,17-9-2021,
93,~¥~¥~¥~¥~¥~¥~¥~¥~¥~¥~¥~¥~¥~¥~,y..u.r.i,,ye so I bought a computer of wish for 1$ it's so good right?,10-8-2021,
94,musicnation🕺🏼,297edits,,Bro Switched From Mac To Windows 😂,23-8-2021,
95,imagine matching with yourself,diamond._axe,,Nokia watch out,17-9-2021,
96,Do it for the vine,bigblackmenkisser69,,Whole upgrade,19-8-2021,
97,No is no,gokusuper36023,,*Table breaking* Oh no😳 OUR table😬,10-8-2021,
98,Ava_and_anya.gaming,ava_and_anya.gaming,,Same here idk how mine is still working it’s the exact same but I can’t use it cuz the internet card in it brike,31-8-2021,
99,1K TYSM,pridexenon,,wait you don’t know how it still works?,18-8-2021,
100,Farid,furu.furu.hex,,@angiero710 mi celular dándolo todo para las tareas en línea,31-10-2021,
101,hi owo,kislovelyy,,They dont wanna break,10-8-2021,
102,2k_______________________🏎_1k,xsbh44,,Me 2 I have that junk,25-8-2021,
103,Nixxa,nixxa69,,@mansasnake ☠️costom built pc💀,30-9-2021,
104,sam,ventsam,,@anayawilkinss my phone by the end of summer 💀💀,18-8-2021,
105,Goldenvr,goldenboivr8,,That actually looks pretty clean if I do say so myself,22-8-2021,
106,a,your_ownmom,,Scared for my life,23-9-2021,
107,Tails>,mil3s.tails.prower,,oh😃no😟are👿table🐒its☺️broken🐴,11-8-2021,
108,👯‍♂️,_ranboob_,,@kaszaribi SIROKXDD,20-9-2021,
109,Ķřı§§əď💀,to.be.continued.com,,@majmoss na wszelki,31-10-2021,
110,adobo,catscatscats048,,intoducing the newest keyboard,1-5-2022,
111,Rin,vlxogit,,Lenovo ideapads built diff 😟,16-4-2022,
112,adapterfactory1,ams999adapter,,😯so good,29-3-2022,
113,carterfans,adapterfactory2,,😔hello，make a friend,29-3-2022,
114,idk,uglyomegledude,,my screen literally collapsed and it still works,12-3-2022,
115,N00BYT,walkingtoes,,All lenovo laptops do that,1-3-2022,
116,M0ney,official.m0ney,,can u try just cause 2 please,28-2-2022,
117,Toki_wastaken,toki_wastaken,,@adrian_nja look it's not just me,6-2-2022,
118,Tyler Becker,supercomputer679,,Laptop broken 🕗🕘🕢🕥,20-1-2022,
119,Doge 👽👽,fall_twex,,Nokia edition lenovo collab?????🥵🥵🥵🥶🥶🥶🥶,12-1-2022,
120,brody white:),brodyx2,,i once had an hp 11 inch laptop that was broke in half and the power light was still on 🤭,9-1-2022,
121,🐢,fekasu,,what gpu,7-1-2022,
122,[𝘼𝙖𝙧𝙧𝙤𝙣]•𝙋𝙡𝙖𝙮𝙯,vannesaplayzs,,how to turn your laptop to a computer,21-12-2021,
123,TaSoS,_its_tasos_,,How can I download Windows Vista or Windows 8 Please I really need your help,12-12-2021,
124,.,_.kellurz,,oop,6-12-2021,
125,Juu,urboymiska,,laptop becomes a desktop in 2 secs,18-11-2021,
126,hear me out,gyros.hat_,,@schuychu Junichi,1-11-2021,
127,Shin_Syco,shin_sycoish,,"because the monitor isnt a important part of the pc, the motherboard is on the bottom, some are different but this is the norm",1-11-2021,
128,@eunickhii,nickhii_editx,,o monitor caindo akakakaakakakakKakakakakakakakakkakaka,31-10-2021,
129,NêjīHātKîđ,rei_chikita_lover,,Si corre el Roblox está bien,31-10-2021,
130,Milo 😩,thecrispymilo,,@anna.dianna bruh how come theirs works but mine don’t 😀,31-10-2021,
131,canjica preta,canjicabrasileira,,this laptop becomes a tablet thats why and i have it--,31-10-2021,
132,🥗,stephenkingssock,,this is literally my pc setup,31-10-2021,
133,Camarografo Llorando🎥😢,camarografo_llorando,,alguien para jugar minecraft?en Android,31-10-2021,
134,Aitanaquierellorar,aiitana.maarcos,,@イサベラです yo,31-10-2021,
135,__Seebaas__,__seebaas__0,,pc minimalista xdxdxd,31-10-2021,
136,.,doncomediaxd52,,Free iPad,31-10-2021,
137,Succional4,succional4,,"igual alta notebook, un i7 6500 re piola",31-10-2021,
138,L@ris,_larislaris08,,@natordi0 @sofia.froes o ipad,31-10-2021,
139,🫥,kyotosrevengge,,@urgirlgigii nosotros,31-10-2021,
140,Kamil,kamil.s_,,@💵✨ toi be like,31-10-2021,
141,Choppa,_lilch0ppa,,why is it windows 😳,31-10-2021,
142,reapz,.reapzr,,macbooks are so fragile my brother had to put duct tape around the screen,31-10-2021,
143,waffts#6384,xonnify,,free pc,31-10-2021,
144,🏎,gar7ield,,lap @laranjapropreyslk,31-10-2021,
145,180SX,jarik457_,,Тоже самое у меня,31-10-2021,
146,Mateusz Fojcik,fojcik_,,@luzne.barton tak było,31-10-2021,
147,Gigachad,greek.gigachad,,that's actually great,31-10-2021,
148,Ur moms nuts,kurestw0,,@heartt.exe @emiliaa.a_ wasze laptopy?,31-10-2021,
149,🍞,menwstommb,,@user0709202107 malaka ti,31-10-2021,
150,117,no_c_que_poner_aqui_2,,oye la verdad se ve pro,31-10-2021,
151,…,__69__q,,in that rhink where the keyboard is are the components.I dont think they are dameged that bad,31-10-2021,
152,Fire Game,firegame25,,Я поначалу подумал это ps5,31-10-2021,
153,king bob for life 👑👑👑👑,wannabe._.ttv,,the inside of the coputer works but the screen is broken so connect to a monitor and bam u can use it ez,31-10-2021,
154,:v,dav0._.pm,,Lap,31-10-2021,
155,Fenixit0o_DMC,fenixit0o_dmc,,"la ram, el procesador y la tarjeta madre están en la parte de abajo, no en la pantalla",31-10-2021,
156,kevin,kevinca_,,That’s why I use iPad 🤟🏻,31-10-2021,
157,Pro Plajel,orginalnynick_,,@chomik802 XDD,31-10-2021,
158,SnobbysTech,snobbystech,,My friend had that laptop and the hinge broke off and the screen is about to fall off lol,8-10-2021,
159,Real0ver,real0ver,,That's a very cool concept.,2-10-2021,
160,🎃🎃alisa🎃🎃,millenial_tree_cookie,,is no one talking about what the person in the frist vid was reading?,1-10-2021,
161,leche,yego_el_lechero.xd,,no veo problema solo soluciones xd,1-10-2021,
162,Hi,n0body_atall,,Cause the whole power supply is under the keyboard not the screen 😁,1-10-2021,
163,Jellwy,jellwy_,,@xiihus a bueno computadora Bluetooth,1-10-2021,
164,AAAAAAAAAAAAAAAAAAAAAAAAAAAAAA,xdnt.zzz,,ya dejalo descansa en paz,30-9-2021,
165,😼❣️,mollykuti,,@t3mii.k NAHHHHHH THIS ONE MAKES URS LOOK GOOD,30-9-2021,
166,Vini God 🇧🇷🇦🇷🇪🇸,..viniciuxxgod1.x,,mi papá lo iso hace unos años yo me quedaba: 😰😢😱😱😱😲🤯😱😱😲😱😱🤯🤨🤨🤯🤯😱😱,29-9-2021,
167,main acc for now,aidxnfortnite,,@crybozohahaa how?,29-9-2021,
168,Dante Alighieri,dante.alighieri.officia,,nokia's pc,29-9-2021,
169,toggle_cat,togglecat,,yeah did this with my laptop that was holding on 2 wires,29-9-2021,
170,.,nailclipyourteeth,,you seriously just threw the screen,29-9-2021,
171,me,kingmega175,,its just the screen that's why,28-9-2021,
172,Envy ¡!,envytimee,,si aguanta para el genshin 🚶,28-9-2021,
173,.,wjehe39,,well now you have a diy pc good job😂,27-9-2021,
174,︎ ︎ ︎ ︎ ︎ ︎ ︎ ︎,bitchflix1,,Abi türkler nerede kendimi yalnız hissettim,26-9-2021,
175,EvanYTTiktok,evanyttiktok,,*your laptop screen become monitor*,26-9-2021,
176,Arctic,arctic_fox111,,the screen doesn't have to work as long as the lower part is still intact cause that is where almost all the electronics are,26-9-2021,
177,Enzø søtø,enzosg5,,"bueno, al parecer hay gente con peores computadoras que la mia",25-9-2021,
178,slay,user1029293298354,,@__shutup1 HELO,25-9-2021,
179,2018_bmw_m5_competition_,2018_m5_competition,,Rob can u do a windows 10 1507 vs latest version performance difference on ur dell inspiron 6400 to the performance slowness on new builds,25-9-2021,
180,Long lost Ariana x Jiafei😝😝,therootedhumanoid,,At least they are smoother than my HDD laptop 🤧,25-9-2021,
181,🎃Farree-pongg-kinn🎃,faripongkin,,how the,25-9-2021,
182,x 1.3k x,blxck.bxnny_,,what,24-9-2021,
183,Alberte,alberteemiliaa,,@rebecka.schnuchel ⚠️AESTHETIC WARNING ⚠️,24-9-2021,
184,David Daniel Rodrigo,davidmc3000,,bluetooth,24-9-2021,
185,torifingler,torifingler,,@madiwalk_09 @spamayambam @samaraann26 madi is this what mr klein said would happen if i bend ur chrome book?!?,24-9-2021,
186,Daddy Johnnys bald head 😩,johnnysbaldhead,,@lisemarie666 AHAHAHA KAFAEN 😭✋,23-9-2021,
187,Miranda or Adam 👍,danrin.ronpa,,@tubbo.moment gale:,23-9-2021,
188,Jestemf,jestemf,,HOW?,23-9-2021,
189,[Nat],its.me.natasha0_0,,How just how,23-9-2021,
190,♡︎,jiiminq,,oh no . our table.,23-9-2021,
191,Christian Hiscock,messivert,,POV: You spend $300 on a laptop,23-9-2021,
192,Herobrine17041-final,herobrine17041,,Pinned video lol,23-9-2021,
193,user8801577918528,dazzmx6,,samsung notification sound,23-9-2021,
194,Roberts,roberts2010xdd,,its bc tge broken thing is just the screen,23-9-2021,
195,xpl0d3d,xpl0d3d,,"if you're looking for answers, here they are: it works because the components are in the laptop's... keyboard? idk how to say it.",23-9-2021,
196,roland :),oxeanzzzz,,HP Heavily Protected,23-9-2021,
197,Luxius Dream,luxius_dream,,la pantalla no tiene ningun componente es como un monitor y en la parte de el teclado esta la pc,22-9-2021,
198,𝗢𝗹𝗮𝗺𝗶𝗽𝗼𝘀𝗶,bxbyclover,,How that keyboard still workin ☠️,22-9-2021,
199,sinatraa,freemyboyjaywon,,BC MY SISTER WAS AWAKE TOO AND I PRETENDED TO JUST DROP IT AND SCREAM OH NO AND MY STORY WAS JUST I DROPPED IT ON A CORNER,22-9-2021,
200,✰𝚅𝚊𝚕𝚎✰,bencivengaa,,free iPad,22-9-2021,
201,🤍,_jo.mama_1,,ye my dad do that,22-9-2021,
202,lawea23,lawea23,,el mío también está así xd,22-9-2021,
203,Tristan cook,m0nkeytristan,,Lego,22-9-2021,
204,theo,theopbc,,The screen is just the display all the crucial parts are under the keyboard,22-9-2021,
205,User,roborlox_2,,oh😏no😳our😂table😳its😞broken💔,22-9-2021,
206,♥︎,vxxwz,,Oh🤓no😭our😳table🤬is🌚broken😤,21-9-2021,
207,.,urfavshadoww,,I m dead,21-9-2021,
208,.,woah.blxck,,"@lee2_valid that ain't a laptop,that's a pc😳",21-9-2021,
209,Amogus,edit._.fucker,,yey mini keyboard and pc,21-9-2021,
210,‍💀H💀,officialhaashplayz,,😳 what the,20-9-2021,
211,Mct,mctstech,,"Wow congratulations on 479,9k likes 🥰",20-9-2021,
212,🤎,hettyanne,,Lap,20-9-2021,
213,no,nemos_lost_owner0,,Oh🥺no🌚our👽table🤬it's🤓broken😤,18-9-2021,
214,Paulina,okejpau,,@56xvibxes HELP,18-9-2021,
215,Calogero,calogeropaouli,,Good gpu at a good price?,17-9-2021,
216,Сейчас бы пельменей,cfg.zip,,"Uh, okay? It's nothing something unbelievable, display is just monitor, lol",17-9-2021,
217,YOU MAD YEA 🤬🤬🤬,mad_man_god_21,,Wait ny name Robert aswell😂😅,17-9-2021,
218,Frog,captain.phrog,,@kedonsaurus visual representation of my laptop,17-9-2021,
219,Sam Matravers,the_cool_dude0,,The screen is not actually connected to anything but the motherboard,17-9-2021,
220,Like sadly,tsg0.0,,@beatrice_xdd8 oh no........,17-9-2021,
221,Coffe1nnity.off1cial,..coffee..multy,,No way😂,17-9-2021,
222,officialblacktoad,officialblacktoad,,lap,17-9-2021,
223,max,squib_0,,wait nvm this gonna be my laptop soon holy moly grand canolli,14-9-2021,
224,ㅤ,whoamiwat0,,nokia,11-9-2021,
225,♥*♡∞:｡.｡ 💙𝙎𝘼𝙂𝙀💙 ｡.｡:∞♡*♥,marielywreinnicol,,nice,8-9-2021,
226,Lunna,your.local.acesexual11,,I-,8-9-2021,
227,Kneefruit,knjl0v3r,,@Ninke Pie @renata i wanna do his,5-9-2021,
228,Idkkkkkkkkkkkkkkkkkkkkkkkkkkkk,unknowntech.exe,,"Simple explanation: the actual components to the system are under the keyboard, so it does not need the screen, because the components aren’t in",5-9-2021,
229,logged out,qeiloe,,life support,3-9-2021,
230,WOMEN R HOT,l3sbianz4life,,MY LAPTOP DOES TAHT TO OMG,2-9-2021,
231,Fallse,mrfallse,,The laptop works because the actual computer is under the keyboard,2-9-2021,
232,sis-,yassificationdreamss,,My grandpa broke his laptop to the point where it was a keyboard and it still worked 😟😟,2-9-2021,
233,Iina,daddyspongebob,,HOW,2-9-2021,
234,bv,boredvibrations,,I did that too when my laptop broke,2-9-2021,
235,grapefruit2017,jakubslomka,,what 😀,2-9-2021,
236,moved,apsxs09moved,,pc,2-9-2021,
237,driip,aact1ve.drip,,@happened to my laptop as well fam 💀,2-9-2021,
238,Sheep,theywannabes,,What gpu is that again?,2-9-2021,
239,Hey who’s serenity?🤠,what.happened.to.srenity,,it went from broken to table,2-9-2021,
240,NotAnimeI,notanimei,,A Samsung phone as a laptop be like the first video 😂,2-9-2021,
241,stupidassmario,stupidassmario,,It ain’t called a laptop anymore it’s a lap now,2-9-2021,
242,Hanz,schnitzelpanzer_hanz,,what,2-9-2021,
243,BigManWang( ͡° ͜ʖ ͡°),bigmanwang124,,because all of the components are under the keyboard,1-9-2021,
244,ａｋｉｎａｒｕｓｈｅｒ86,jeff37337uu0,,the reason it still works because the keyboard has all pc parts and monitor doesn't,1-9-2021,
245,shin,shin_tenshi,,i have a pocket staff and it came undone and it broke my laptop screen,1-9-2021,
246,QUITT,katsfavxo,,@.sunkinxsh4rks omg,1-9-2021,
247,Mo,..itsmo_,,When they say that there is no warranty,1-9-2021,
248,Orangeplex,greenncomplex,,you just broke the monitor wdym,31-8-2021,
249,hm,urmothersb4e,,My laptop is perfectly fine but it has 2 keys missing,31-8-2021,
250,YFL,driperka,,@itzz_jesieniara XDDDDD,31-8-2021,
251,E,pinkdildos.co.uk,,just plug a keyboard and mouse into it and you have a pc lmao,28-8-2021,
252,@sonia.coz is ew and mean,quittting,,BRO MY TWO YEAR OLD COMPUTER DIESNT EVEN WORK AND PEIPLE OUT HERE EITH THIS 😭,27-8-2021,
253,Awnsering questions rn abt me,zel_playz,,New pc,26-8-2021,
254,kia_picanto_2012,kia_picanto_2012,,kia picanto 2012,26-8-2021,
255,offroadquad,offroadquad,,"the compoents are at the bottom of the laptop, if its damaged then yeah its not gonna go good",26-8-2021,
256,Collin,tailsiscool3,,Finally lap,26-8-2021,
257,4k_✈_____________5k,niosgr_,,"""yeah yeah I have a pc.. """,25-8-2021,
258,⋆ ° ｡* ◌ ༅ ะ ⊹ ˚,misasbugjuice,,@707luverr OUR WHITE LAPTOPS,25-8-2021,
259,Mario y mordecai,mario_y_mordecai0,,PC casera 😎,24-8-2021,
260,rylen 🔥,rylenanil22,,Lap,24-8-2021,
261,guest6779guest,monkesmonkes13,,Ok break the hinges and get a hdmi,23-8-2021,
262,...,funtimefreddy175,,COol ComPutEr 💻 bRo,23-8-2021,
263,I follow back :),axoaxo33..1,,Is that a HP-?,23-8-2021,
264,klee乂🍀,ayikapan,,wow portable,23-8-2021,
265,Karlfanpage,karlfanpage2000,,“Crash” oh no our table 😂😂,22-8-2021,
266,I don't know. 👁_👁,confusing162,,How?😂😂😂,22-8-2021,
267,bea!!,ywezb,,parece o meu,22-8-2021,
268,v3rus,whydidintyoureply,,it still works the monitor dosent,21-8-2021,
269,You’re loved ❤️,xxxtentacion17292,,O😅no🥺our🙃table💩it's🤮broken😛,21-8-2021,
270,KittyCat2020,kittycat528,,It still works because the cables are still connected,20-8-2021,
271,Al fin algien,ei..theclubonlyelectro0,,What-,20-8-2021,
272,🌹,.splxtzzz,,Lap monitor,20-8-2021,
273,penis,cabhos,,ig it was TRANSforming ehe get it 😅 (im not trying to be homophobic i just wanted to do a pun),20-8-2021,
274,rawan<3,r.a.w.a.n.nn,,Nokia computer😎😎,20-8-2021,
275,~SOY SU DÚO~👈😏,tampoco.aqua43,,Es lógico por que el procesador y todo se encuentra abajo de el teclado xd,20-8-2021,
276,helado,isiproxdd,,@sunnycool.pro tu compu después de q explotara el cargador,20-8-2021,
277,:/,cannibal.boy,,My old primary school teacher be like : “THIS IS WHAT MAKE DO AND MEND MEANS KIDS”,20-8-2021,
278,€,chzrtsi,,why did i think peach what talking in the audio,20-8-2021,
279,im a computer/bed 🥺,ilikecoffee_tt,,HOOWWWW LMAO,19-8-2021,
280,yuri🧷✡️,miku_hell,,@miachu_two19 19,19-8-2021,
281,منهو,youssef2169,,NO problem 👹👹👹👹👹👹👹👹👹👹👹👹👹👹👹👹👹👹,19-8-2021,
282,Jo is small,joeywoeyz,,"mine got replaced but it still worked, I lost.msot of my keys, I still have my space key in my backpack, everything fell apart",19-8-2021,
283,limrid,aeughhhhhhh,,Free pc,19-8-2021,
284,Happy Pride Month <3,random_does_stuff,,@strawberryheart188 the one on the right is my laptop lol,18-8-2021,
285,<3,hauntbraelyn,,@.lubaiko HELP,18-8-2021,
286,<3,.viviqu,,just plugged in his life support,18-8-2021,
287,Idk,itzz.shayyyy,,"Mooooom can we have a pc in our house?
Mom:we have pc in our house
Pc in house:",18-8-2021,
288,gay cuck,doinyamome,,it’s bc the top half is only a screen,18-8-2021,
289,lgbtqslayer22,firelinx,,lap,18-8-2021,
290,ﾠﾠﾠﾠﾠﾠﾠﾠ,curlymommy01,,apple better,18-8-2021,
291,Wezzy,apexwzy,,why wouldn t it work,18-8-2021,
292,Abdulaziz Mahmood0,abdulazizmahmood0,,Oh NoO😱 our TAbLe😲 it's BrOkEn😟,18-8-2021,
293,user3478127390837,mpsn7,,@ultimaton0 nayakami😂😂😂,18-8-2021,
294,Gamer_GuestYT,theguest_developer15,,HOW DID THIS WORK😳,18-8-2021,
295,Bruhimirish,bruhimirish,,WHAT,18-8-2021,
296,B,camthefishfvkr,,bro just copied lego starwars,18-8-2021,
297,S,flownqx,,@llomzll is this ur laptop?,18-8-2021,
298,blessing ఌ,kombalol,,@basic...celine NAH,18-8-2021,
299,Vibester,pr3ttyflacko_,,It’s a laputer,18-8-2021,
300,Davidas Pro,davidaspro,,laptop = PC,17-8-2021,
301,Chizu!!!,somebody..giveme_qiqi,,OH NO😭 OUR TABLE🤪ITS BROCEN😞,16-8-2021,
302,🗿 • Mengikuti,hanyamanusia187,,OH NO 😩 OUR TABLE 🙀 ITS BROkEn 👹,16-8-2021,
303,kath👽,rr4venz,,FREE KEYBOARD 🤪,15-8-2021,
304,MINION CULT🟡🔵🍌🍌,kadenzhere,,😂OH😮NO😱OUR🥵TABLE🪵IT'S🤡BROKEN😭,15-8-2021,
305,-,_kkenziii,,@imsosecretive2.0 HELP,14-8-2021,
306,sulli linda,dorothy_000,,QUEE QUE QUNEJEBR EE,14-8-2021,
307,《 ▪︎Sage▪︎》,yttdsage,,NO😰 MORE😱 LAPTOP😭,14-8-2021,
308,kiwi,tweedledoot,,@demonicpp this is u,13-8-2021,
309,hi,yvogabriel8,,what,12-8-2021,
310,The Ocean Sea,the.ocea.sea,,it'll still work the screen was just the broken the system was underneath,12-8-2021,
311,gumi < 3,sk8treiinn,,LMOOOOOA,12-8-2021,
312,rainusgamer77,rainus.tabalon,,now its a keyboard,12-8-2021,
313,I'M GONNA BE A STAR ⭐,teahoongf,,help,11-8-2021,
314,jess <3,miyuki_yui,,@desklamp.cos it's not a laptop no more,11-8-2021,
315,roy,royvoid,,HELP,11-8-2021,
316,DORA,panaxd_rabit,,oh no😰 are table,11-8-2021,
317,scarlet (˃̵ᴗ˂̵),scarletinred,,@_swaggyslugs I FENYIENRMLY GAVE NO AIR LEFT JNY M Y SYSTEM,11-8-2021,
318,lottie,walhepgo,,Ok thanks for letting me know my computer is durable 😳,11-8-2021,
319,Sof,soferosee,,LMFAO,10-8-2021,
320,Mxth Mxne,mxthmxne,,It's because the backside only carries the electronic for the screen the bottom part is the actual computer. It's pretty much how a Xbox works,10-8-2021,
321,Cheps,crispycrispscrispier,,same laptop as me,10-8-2021,
322,ψ,ryan..k08,,Same I raged and punched my laptop screen so much it fell off but still works if I use HDMI,10-8-2021,
323,Floppy,floppy_650_second,,That’s literally what I did I plugged it in my tv and it works better than ever faster even 😂😂😂,10-8-2021,
324,merry..christmassss,merry..christmassss,,the parts are in the keyboard if you k ow what i mean,10-8-2021,
325,lynnie,lynbhatesu,,@fxtesrecordings the comps at east:,10-8-2021,
326,Suga = Bae,agustdian,,It’s broken,10-8-2021,
327,S372,yaboys372,,I would’ve enjoyed a headphone warning,10-8-2021,
328,EvansTech_,evanstech_,,It’s because the stuff that makes your computer run isn’t in the screen,10-8-2021,
329,Nat,itsnathaliatf,,@loser_bish_idi0t uhm k,10-8-2021,
330,I’m coming for you,youarenowallalone,,Num num,10-8-2021,
331,your mom,constellationcos,,HOW,10-8-2021,
332,xFoxyxz,xfoxyxz,,💩oH 🦶🏻nO 👻oUr 😃tAbLe 🦴ItS 👹brOkEn!✨,10-8-2021,
333,𝓗𝓲,officialchrislel,,cus all the electronics are in the keyboard and not the monitor,10-8-2021,
334,🐈‍⬛,skullygloom,,NO MY LAPTOP IS DIBSORBSIS-,10-8-2021,
335,☻︎ʏᴏᴜ ᴀʀᴇ ᴀɴ ɪᴅᴏɪᴛ☻︎,brbhugginganna,,@xthesunshinequeenx OH NO OUR TABLE😔💔💔🖤🖤🖤🥺🥺 #BROCKEN #WAP,10-8-2021,
336,At school,.sargagg,,FUN FACT: IF YOU SAY FUN FACT PEOPLE WILL READ THE WHOLE THING I WANT MY LIKE NOW,9-8-2021,
337,dex,koisbestbrother,,Robert Ski,9-8-2021,
338,lizzy,1pxly,,ŒhNoóø 💝öœOuùr 😞 Taæblé 🍕 iįts 🤬 Brœōkën🫀,9-8-2021,
339,zane,wowitszane,,@bertholdtaddiction HELP,9-8-2021,
340,Lana,95ae,,Pleaseee,25-8-2021,
341,Lucinda,puzzyslayer546,,THE WAY IT FELL IM SHITTING ORGANS 💀😭😭😭😭,24-11-2021,
342,Yes,orange_peel_1,,Reminds me of the Lego games,10-8-2021,
343,bonniexd,xd.123b,,WHY THE VGA😭,26-1-2022,
344,a normal person,xxzeinab_mahmoudxx,,Arab phones be like,29-9-2021,
345,REX,rex0670,,life hack,18-9-2021,
346,Amazon but I find stuff,amazon_finds083,,Well you actually only destroyed the screen so none of the important parts broke,1-9-2021,
347,kilarpus figglebottom III,thetinydiamond,,Replace the sound with the lego game building sound,19-8-2021,
348,cooper,coopdotcom,,logitech webcam,19-8-2021,
349,Ssots2,sonicthomasfoxyfans2021,,Boi What The Hell Boi,10-8-2021,
350,why u looking at my name,manifestedthewrongtrump,,it’s a top now,10-8-2021,
351,Elif Naz,elifnaz_ak,,@dinmammasmisstag HAHAHHAAH,31-10-2021,
352,Sly,slythegay,,When your dad said I'll get you a new pc but the pc is shitty so your pc decides to do this:,31-10-2021,
353,Ahmad Talha Butt,ahmad_20005,,That saves me buying a desktop 😂,24-8-2021,
354,Julie<3,kidneyboogerslash_the1st,,mom mom has a Lenovo computer accidentally broke her charger AND THAT MF STILL WORKS IT JUST AS A HUGE GAP IN THE CHARGE THEY SHOUD MAKE LENOVO PHONES,26-8-2021,
355,aiden <3,beachyjcsh,,"now its a lap, no top",20-8-2021,
356,Cedar,savenlycresc,,That poor thing hanging on for dear life,17-8-2021,
357,Aurora,subwaysandwich1,,@deadgears ur white pc be like,10-8-2021,
358,Thomtoolz,thomtoolz,,My iPhone XR got fixed by Textoolz on Instagram successfully,16-2-2022,
359,Hola 😃,una._cuenta_random._.xd,,Pc gratis,1-11-2021,
360,uwwbicorn1234,uwwbicorn1234,,bih came clean off😏,31-10-2021,
361,hi,questi0n_m3rk,,500 iq moment,14-10-2021,
362,no name,user_name.949,,"that is what i will call a ""desklap""",25-1-2022,
363,.,user7802453113,,"Bro thats why i would bever get the shitty lenovo g50-80 intel core 17 55OOU 8GB, 1tb 15.6 windows 8.1 64 bit-",3-1-2022,
364,Bonnye Bonbox,bonnyebonbox_official,,I have a lenovo miix 320-10icr but it dosent power on,31-10-2021,
365,😮‍💨😮‍💨😮‍💨,e_anton,,"Ну работает же, ну и всё",31-10-2021,
366,Cuca Gado,shauzaint,,"Pathetic, I have a Packard Bell from 2005 and it still works",31-10-2021,
367,cineva cine nuti poti imagina,the_heretics_cult,,yooooo IQ 2000,31-10-2021,
368,gruuuby,gwalciorson2137,,BC you dont have screen behind you dont have any supply so your pc still większość,31-10-2021,
369,chris,imjustchrisss,,damn thats a cool lap,31-10-2021,
370,MonkeWunkyVR,monkewunky,,bro just scammed Apple,23-9-2021,
371,random access content,narenchris_223,,"good idea, Lenovo 😼😼👌",23-8-2021,
372,ANIME_FAN2470,king_president12,,it went from laptop to lap💀💀,13-8-2021,
373,࿔᭬ৡ⃪꫶⃗၇͜ᩘ🦋͜ᩘ၇⃪⃖ৡ࿔,f.e.n.i.k.s._,,@utqq_03k oha bilgisayar hala çalışıyo nası aq,25-8-2021,
374,DankPods Fan,floppa_sui,,please help me this vid that I'm rn commenting on says it is ur last vid made BUT IT WAS MADE ON 3TH AUGUST WTF,20-9-2021,
375,salvatorestechvideos,salvatorestechvideos,,Shut up,1-1-2022,
376,.,hermi0ne..oficial,,@vvm.miones.sister tf-,31-10-2021,
377,400purplecats,400purplecats,,HAHAHAHSHDHDH HOW TF DID THIS HAPPEN,21-9-2021,
378,⠀ ⠀ ⠀ ⠀ ⠀ ⠀h,auraexditsy,,That mf does break do it 😳,18-8-2021,
379,.,fp.jimin.fp.bts,,mi się zepsuły zawiasy i tak robiłam jak w tym po prawej,6-12-2021,
380,Tyresechina,opppack02,,Jou poes,21-8-2021,
381,Marissa TwT,gucha1kidx_xmarissa4ever,,How do you fix the on button if it’s sliding in your laptop don’t ask,22-8-2021,
382,★I'm cool fr fr◡̈★,pillowcats,,what the-,10-8-2021,
383,ドロ,poppy_the_mouse,,i did the same thing when i accidentally fucked up the screen so my dad decided to repair it instead of bying a new one,14-9-2021,
384,-/-//||\_|\_..\,freememes4dakids,,"Because the working components are below the keyboard, as long as the damage isn’t like water damage you’re fine",18-8-2021,
385,pretentious.idiot,pretentious.idiot0,,dude u just leaked ur serial number,18-8-2021,
386,Kieran SOMEONE CHANGED MY USER,bleedingscream,,Yeah now you don’t need a new pc anytime,18-8-2021,
387,Okiks,deciduousgreninja,,"nah bro thats not desktop, thats desk",10-8-2021,
388,josh tbh 💁🏾‍♂️,doughletariat,,brb boutta go make my own desktop,10-8-2021,
389,jo,wiiyoo,,you can make that an all in 1,10-8-2021,
390,Holly x,holloeyx2,,"I read ""mf still"" as milf 💔",10-8-2021,
391,George 🤟,egroegybgir,,Lenovos do be durable af they literally made the think pad,1-10-2021,
392,Luke,slvter_,,damn haven't seen VGA in ages,30-9-2021,
393,‍ ‍ ‍ ‍ ‍ ‍ ‍ ‍ ‍ ‍ ‍,funkerless,,BOY WHAT THE HELL,29-9-2021,
394,Deleted_wordx,deleted_wordx,,He's working cauz it's just the damn screen completely destroyed,26-8-2021,
395,✿,wolfie.and.max,,@a_idoit1 LMFAOOO,24-8-2021,
396,🕴🏻,pooplord1234,,bro is on life support,27-9-2021,
397,Isaac<3 (PkXd),isaac_editz_,,But does it drain battery when connecting to the monitor like it will shut down or you need to plug it in to an outlet so it will look like a desktop,25-3-2022,
398,SEOL YOONA LOML <33,alcxa,,"OMG SAME, EXCEPT IT WASN'T THAT BROKEN THE SCREEN'S BROKEN FROM THE INSIDE SO ITS JUST ALL BLACK SO WE CONNECT IT TO OUR PC SO WE CAN USE IT 😭😭😭😭",1-10-2021,
399,Lina <3,l.zhang_,,That aint a laptop that’s just a lap,30-5-2022,
400,.,julian.sissingh,,😂,23-1-2022,
401,Hei du er en fisk :),fiskefot,,@.._angelinaa,31-10-2021,
402,✩.,tsuoski,,@sonder.wonder ?!!???,8-9-2021,
403,Antonio,antoniom200829,,@dskaggs420,20-8-2021,
404,🙌Laila,urasquib,,@chr1stinaaa 😭😭😭,16-8-2021,
405,<3,madzekska,,@esgieee,31-10-2021,
406,Jo,josefine_lu,,@bellfart,21-8-2021,
407,Follow my other acc @aliwaysme,whokassie,,@xgowthersin,20-8-2021,
408,emma,looking4emma,,@evweeb,14-8-2021,
409,࿔᭬ৡ⃪꫶⃗၇͜ᩘ🦋͜ᩘ၇⃪⃖ৡ࿔,f.e.n.i.k.s._,,@evet.zorbayim,9-9-2021,
410,kk,karkatbucket,,@sayorixd,10-8-2021,
411,Love Shania 💗,zerefdragneelstillsoles,,@bruh_its_perry @thelabyrinthyt @nix24685 new pc check,2-9-2021,
412,zahra,urmomido,,LMFAOOOOOOOO,13-9-2021,
413,Annabelle_Dang,annabelledang,,@janithisemage,11-8-2021,
414,???,m1lan911,,@robloxis4evasuperior @dom.sng1,18-8-2021,
415,.,_tillyy,,@_clara_hansen_,21-11-2021,
416,lewis tough,user8283828_,,@Calebw_24,6-11-2021,
417,.,cauaricardox,,@heitorcuboidored,1-11-2021,
418,ToxicScope,toxicscope,,@Apple User685375,1-11-2021,
419,claudia,mxgankaa,,@v.leszczynskaa,31-10-2021,
420,tori_nini,tori_nini,,@nyarumisia,31-10-2021,
421,adel<3,sashwuzhere_,,@_rikatoka_ @alexandra_dubska_,31-10-2021,
422,Csaky,chonky.0,,@gayjungwon,31-10-2021,
423,Domi 😎✌️,legogayjago,,@.supercaca,31-10-2021,
424,cookierunkingdom,pon10292,,@oxaies @..ssmarx @qsweytr0,31-10-2021,
425,lite,.lite_,,@.emmacairr,31-10-2021,
426,ale🤟,supent,,@teddyksz,31-10-2021,
427,gskillz,y2kgskillz,,@ilx.maggie,30-10-2021,
428,sophia💓,sophiahudson._,,@jaimejohnsonn,25-10-2021,
429,🦋Deivinta🦋,_.zybartaite._,,@xx_gretta_xx 🤣🤣,23-10-2021,
430,rubi,rubihawker,,@leximcneal.xo,3-10-2021,
431,Yea,_v.levko_,,@jukebox.69 @wtfmarcel,29-9-2021,
432,~❤️~,hahazuichi,,@rugruge,29-9-2021,
433,sergio,gnorreas,,@brianrorepmi,29-9-2021,
434,morgan :),notoastleft,,@tomlinsonlol555,29-9-2021,
435,𝚛𝚊𝚌𝚑𝚎𝚕♥︎,rachelllxz,,@abigaildochertyy,29-9-2021,
436,jordan <3,txmeleap,,@fxbuleux,27-9-2021,
437,I went to h@ng .,scified.x,,@b0blk,27-9-2021,
438,Ibby,user1038238580,,@jordansaily,26-9-2021,
439,Xiao_obsession,phoenixgateso_o,,@rg4l_ibeskyhigh,26-9-2021,
440,Ni.ky,ni.ky,,@todor.d07,24-9-2021,
441,pikpyetje,jon0rmal,,@fairy_babe_,24-9-2021,
442,🦈,ene1rad,,@abuewita @eba.rant 😭,24-9-2021,
443,judy,judymooody,,@picturethis.1,24-9-2021,
444,renan cansilier,renancans,,@brunocans,24-9-2021,
445,Abigail Ureña,aby_.y,,@enrique392,23-9-2021,
446,ᗩᗪᗪᗴᗷOI,sctadde,,[evil],23-9-2021,
447,ᗩᗪᗪᗴᗷOI,sctadde,,[angel],23-9-2021,
448,Caìto,dj_caito,,@marcywuisalive,22-9-2021,
449,misundelig,misundelig,,@pastor.harry,22-9-2021,
450,Tik Toker,wiccacrafto,,@evselizabeth,22-9-2021,
451,Riana,_.riana4,,@eli_55102,22-9-2021,
452,mmmmmmam,eleelams,,@d5shwasher,21-9-2021,
453,疑わしい,im.indecisive,,@noeclipsetonigghhh,21-9-2021,
454,pucic,lamisskirt,,@hans.thighs ...,19-9-2021,
455,BURLO,burlek,,@mr.clearr,18-9-2021,
456,Lil_sage,lil__sage,,@ricey.with.a.dot,17-9-2021,
457,madds,m4d3line2,,@vreauosanie @cristunaa,17-9-2021,
458,sz,szions,,@green_adora,17-9-2021,
459,lia,emoloohoo,,@hello,9-9-2021,
460,aly,alywhos,,@strfiena,1-9-2021,
461,eddie munson’s gf (real),teun__jansen,,@iimkoe,1-9-2021,
462,ᅠᅠᅠᅠᅠᅠ,getaiife,,@imbaddiesonly,1-9-2021,
463,You got games on your phone,dumb_duck69,,@golden_dirft_touch,1-9-2021,
464,Gigachad,gigacha420,,@tsuki.elixir,31-8-2021,
465,Micky😖,mickymouse453,,@dylan_cwc 😂,31-8-2021,
466,ItsClipsy,itsclipsy,,@tiaa_johnstone,27-8-2021,
467,Toca 0.0.0k🤍,.mocha.tocatown,,😁,27-8-2021,
468,Toca 0.0.0k🤍,.mocha.tocatown,,:-),27-8-2021,
469,GGfoxy_,ggfoxy_official,,@awita066,26-8-2021,
470,Nai 💟.,nxom11,,@ojakepcso 💀💀💀,26-8-2021,
471,Sara,ifuckinglovemitskisomuch,,@gikookv,23-8-2021,
472,..,xialengz,,@youre.therapist,23-8-2021,
473,Afnar amar abba,sheluvs._nb,,😂😂,23-8-2021,
474,ALEX!!!,alexxtheswagthe3rd,,@17.nuha,22-8-2021,
475,j,jvygrl,,@rashayyss,22-8-2021,
476,brissa,999brissa,,@hexasoul,20-8-2021,
477,el diario de greg,randalldelarosa,,@jazzydragoon736,20-8-2021,
478,kiki,keiyaraa,,@the0idris,19-8-2021,
479,.,ronaldofan986,,@crystal_on.yt,19-8-2021,
480,Leila,leila.cost.a.dollar,,@yourdad315_,19-8-2021,
481,Like and follow!!,swaggyryder_,,@hannahisveryverycool,18-8-2021,
482,b0bmast3r,gentai_nooze,,@flashyslashers,18-8-2021,
483,Hannah,hannahrichardson7,,@trishliikefish888,18-8-2021,
484,Corruption,cxrruptxxn,,@vxoid1,18-8-2021,
485,mini_dream.smp.members,mini_dream.smp.members,,@vincentstrike,18-8-2021,
486,notpawqqit,pawqqit,,@daalex745,18-8-2021,
487,shrek is love shrek is life,shreksthrobbingasshole,,@theonlymeggy,18-8-2021,
488,.,chrzvhs,,@hi.tree_elves @itsmelly_123,16-8-2021,
489,Damien,verhexen_,,@lesbianrobertpattinson,8-8-2021,
490,miley chau,mileyfreakingchau,,@wasssup_andy101 this reminds me of Ana’s laptop,8-8-2021,
491,mind,0hmin7,,@ccelexa @bloodyfairys @restabbedd,8-8-2021,
492,smd .,disaperktalkkk,,LMAOWHAT,8-8-2021,
493,Hey sexy😩,smellytowel,,POV five minute craft,8-8-2021,
494,<3,hercatbebussin,,oh my 😭,8-8-2021,
495,sofie<33,semallah08,,@totallynotcotton,8-8-2021,
496,Tik Toker,smutoneshots,,@wombatholy,8-8-2021,
497,Likeifyouraccountsdead,deadrottenm3at,,Just remember joe solos,8-8-2021,
498,April,lorenrgeay,,that’s not a laptop it’s a lap,8-8-2021,
499,drea’,marqz.hotgf,,BRUH WHAT OFMOAOAOAOAOA,8-8-2021,
500,Who?,who.is.layla._,,That thing went as fast as my mental state,8-8-2021,
501,stef (￣^￣)ゞ,s73ff,,Oh,8-8-2021,
502,caidence <3,caidencez,,@kazutorasfavgf YALL JUST LET IT GO,8-8-2021,
503,crystal,crystalluvzz,,@whomidzy,8-8-2021,
504,OJ!!,thotoutinbana,,@isabelle.vicari sound,8-8-2021,
505,yaz,xcyazmin,,@turtleslol._,8-8-2021,
506,heaven,8akugou1,,@jxcquexo,8-8-2021,
507,•April• 🐻,patrickstarrzz,,@lizbetheuniceflores,8-8-2021,
508,Lele,igotamilf,,@keepitinurhead BRUH?,8-8-2021,
509,cheetoes,royale.hotcheetoes,,they got that protection shield and unbearable padding 😭,8-8-2021,
510,emani,izuchuu,,@m.wayy12,8-8-2021,
511,Ur mom’s fav ;),mental_snail,,Yeah but putting your bag gently on your bed with the school chromebook in it makes it look like you dropped it from Mount Everest,8-8-2021,
512,Jasper,___.beloved.___,,@undyneluvr 2 in 1,8-8-2021,
513,Yuh,mrsparkerlol,,@evaspam143,8-8-2021,
514,chi,kicheebe,,@heahtehr,8-8-2021,
515,skinnybitchmusic,32views,,😳😂😂😂😂😂😂😂,8-8-2021,
516,s,sopheeeaa,,😰😰😰,8-8-2021,
517,dovesd fan page,dovesd0,,@dovesd,8-8-2021,
518,Ivangotmilk,steezalicious,,"Oh no, our table, it’s broken",8-8-2021,
519,piss sock,xiaosleftpube,,@tainedg3 idk bout you but this is how mine was made🥶🥶🥵,8-8-2021,
520,Scott,roscobosco6,,Laptops either last forever or for two seconds,8-8-2021,
521,2smoove🦇,khamxz,,oh,8-8-2021,
522,kaylee liriano,simpforcardan,,@raquel_lysette,8-8-2021,
523,🙏🏼🙏🏼,cartispickmegirl,,@hotassorangutan LMAO HELPP,8-8-2021,
524,bleach,bonesinmyass,,my mom had to do that when i fucked up my laptop,8-8-2021,
525,j,_jn.3,,@jxzzy_liban I’ve been seeing too many of these recently,8-8-2021,
526,دينا,d_ina_12,,@linabean70,8-8-2021,
527,❁,.cupid__,,@kaylatherat_1,8-8-2021,
528,C 💝,dolllfaceee,,@rockkouttyonii,8-8-2021,
529,lil green ski 💚👍🏾,lil_greenski2,,Oh no our table 😰😥,8-8-2021,
530,-,a.dead.ratt,,@pablo4lifers oh no our table,8-8-2021,
531,Hello.Human.Species,hello.human.species,,Bro it turned into a iPad,8-8-2021,
532,<3,rayisasleep,,@d14v010,8-8-2021,
533,kimora,.marikim,,@clownchey,8-8-2021,
534,aster,_insertname_1,,@eggs.and.shells,8-8-2021,
535,فزا,luvvfizza,,@shunappucos LMAO,8-8-2021,
536,Jamira <3,jxmiraa,,@skareyy pov my laptop in a couple months,8-8-2021,
537,tianna🧞‍♂️,sweetee9,,@thegr8nadi1 LNAO YOURS,8-8-2021,
538,meli,bigcckmeli.666,,@jeffnutz5,8-8-2021,
539,mae 🧛‍♀️,polaroidloveenthusiast,,@_ughitserika @fabiola.r2020,8-8-2021,
540,xeu hao pao pao,nowhyt,,OH NO😰😰 ARE TABLE😖😖,8-8-2021,
541,Genesis 🛋,888genaa,,@ibis.hp your old laptop,8-8-2021,
542,CADENCE,rhinestoneheart,,@ritaisnotsmelly @bigdingdongs77 @dumbmooness AND MINE DOESNT HUH,8-8-2021,
543,👸🏽,1uvann4,,@p1ercedv4mp wtf,8-8-2021,
544,⠀ ⠀ ⠀ ⠀ ⠀ ⠀,bussykayla,,@theofficalemojiman,8-8-2021,
545,Following back:),._.i.hate.sch0ol,,@animebiss._,8-8-2021,
546,I ❤️ Kim Si-hyeon,min.yoongi.luver,,@catrastherapist me asf,8-8-2021,
547,Darwin Gamewar Watterson,darwinposeidonwatterson,,Free gaming pc lol,8-8-2021,
548,mike literus,sablesuds,,@brooke.ann.hull bruh your computer,8-8-2021,
549,lol,userjhpynux4dw,,@leanasbf 💀,8-8-2021,
550,Jan :),seienoph1le,,@organicextract i,8-8-2021,
551,Shaina Belle?????,shainabellebelle2,,@passthepepsi,7-8-2021,
552,Xii_Demi_iix,iibasic_demiix,,@2wavynana,7-8-2021,
553,Cyren Yee Yee,wetlongpubes,,"@sleepyinternetboy @childesofficialwife @princeofchristmas @mrllawliet @gremlinboogies this takes a whole new meaning to ""i made it myself""",7-8-2021,
554,.....,.kuki.shin0bu,,@ollie.has.tiktok,7-8-2021,
555,Megan,itz.meegan,,@mochilea__ wtf,7-8-2021,
556,unknownsamoan,rejected_d.r1,,Gforce PC on wish be like,7-8-2021,
557,LESBIAN APOCALYPSEEE😦,ghostsv1be,,laptop to monitor,7-8-2021,
558,rory,rouriyee,,@ad1ct1ons i imagine youre mouse breaking like this laptop,7-8-2021,
559,1060 DREAMS TYSMSHEUSURISJ,..a11iee,,@bordercolliekovu @probfatima,7-8-2021,
560,mabbie<3,strip4maddiee,,@sophie.herman,7-8-2021,
561,nyah (nyan),nyanned,,✈︎ flies to your house☜︎☝︎︎☟︎☞︎,6-8-2021,
562,キャラ‼️,kiwibea_,,@hollyyounadim4,6-8-2021,
563,dulce 𖧷,m3tallicaa,,@S ¡!!,6-8-2021,
564,🌙🏳️‍⚧️ ¡! theo,__.itz.the0,,THE WAY MY JAW DROPPED 😶,6-8-2021,
565,Lia ;),whois.liaa,,@wrexrod wtf,6-8-2021,
566,goof,vippre,,"""My pc is a prebuilt""",6-8-2021,
567,⌨️ Wulf-x ❄️,wulffxmentality,,@bratyluvr my laptop,6-8-2021,
568,ultrasalo228 69 1337 05 338,bobr228_1337,,@andrei228super:@userfortnitebrawl хазазахаха,6-8-2021,
569,land🏅,landen.266,,Now it’s a lap giving you top,6-8-2021,
570,Soy Clauwu,soy_clauwu,,@santiondelay,5-8-2021,
571,₴₳₦₮ł₳₲Ø Ɽ₳₥łⱤɆⱫ,santi.ago16r,,@ohno664,5-8-2021,
572,💚🦇🐀🐙💚,coyotefood,,@your_local_coconut_head,5-8-2021,
573,x.x.ae,charlotte.vuole,,@alesc3,5-8-2021,
574,Kimberly,kobeenii,,@ranposcandybag,5-8-2021,
575,ok so❓,axitily,,@sarangxocean,5-8-2021,
576,Ashley,ashley_orty,,@wheresbadcitystar 😭,5-8-2021,
577,Tik Toker,useriohf6f5wtk,,@testastrone @ilovebigboycockidoodle,5-8-2021,
578,Gayqnlolea,fandelasmilfs,,@voolkacier tú computadora,5-8-2021,
579,hendrick,hendricote,,@sexcboi41968,5-8-2021,
580,Joelle,notlittenspace,,@massiveattackaddict,5-8-2021,
581,SharpStealz,sharpstealzg,,Bruh that a Laptor 😂,5-8-2021,
582,eden,wtfdenki,,@hoon.i IT JUST FELL LMFAO,5-8-2021,
583,Arzum,7rxuu,,@goeknur118 mein Laptop,5-8-2021,
584,amelia summer❤︎,ameliarobinsonx,,THE SEQUEL @tess.deeere,5-8-2021,
585,Dumb Gemini ♊️,auntie_diana_1979,,@nickiminajthequeenpofrap,5-8-2021,
586,mcnb,maricaronaranja,,@andreacringenunez @parkmariana24,5-8-2021,
587,user4728747737959726,user4728747737959726,,@ethan_blomquist,5-8-2021,
588,adibah ghulami,adibahghulami,,@kellywittings,5-8-2021,
589,Jop Jam,jopjam5,,@melissamendez1622,5-8-2021,
590,-,el_.editz,,My school chromebook:,5-8-2021,
591,clem 🪄,clempople,,nice,5-8-2021,
592,:),liz_7872,,@akaashhi how i be🥰,5-8-2021,
593,amy,_______amy_________,,@jourvloxo,5-8-2021,
594,lais,eaecamarada,,@banana_comleite o meu antigo ta assim,5-8-2021,
595,.,p1loser,,@__m.yg,5-8-2021,
596,Chriz GD,chrisrb16,,@paolofifi PC 🤑,5-8-2021,
597,echo n luka!!!,echobubblecos,,Guess u got a pc now,5-8-2021,
598,makayla,userha85uhatda,,BRUHH,5-8-2021,
599,pp ava,randomannoyingbitch,,@dontworryiknowimugly._.0,5-8-2021,
600,sasa,sasaempty,,@diseasedoll,5-8-2021,
601,Chaeryeong’s Wife🥀,therealjungw0n,,@bakubakubarkbark my old laptop😭,5-8-2021,
602,eden,zaedennn,,@lolg2gttyl,5-8-2021,
603,elianna🤭🫧,bucklingkneecapz13,,@ahaha____ Vinny,5-8-2021,
604,Sallybollywood,meb2b3,,@kinboo2131 the hp,4-8-2021,
605,🪐,emilyperetz,,DIY😜,4-8-2021,
606,VAGINER,quakesclitussy,,@b00biez222 NOW GURL,4-8-2021,
607,athena ☆,emiluh,,I’m,4-8-2021,
608,chifuyus spouse,valecup_,,@.xeji i should do this,4-8-2021,
609,fabiolaa,fabiola.sn,,@stinky_bleh,4-8-2021,
610,namorada do jean,lambisuamae,,@rikakkkjkyk o meu tá quase assim,4-8-2021,
611,carmen,c4rmentv,,@deeznuts1901,4-8-2021,
612,ali,alisoonzzz,,@numero17ab,4-8-2021,
613,tt,kanyew3stlover,,@shaggygaby,4-8-2021,
614,_Kr0w,_kr0w,,@golgothasterrror,4-8-2021,
615,ᜊ,combbry,,My laptop drops one time and it acts like I just blew it up 😒,4-8-2021,
616,ana julia,riplilash777,,@bekkkkjj meu computador,4-8-2021,
617,Kaylasjjxsndjkwkdjiw,beefbanana69,,@prossloy,4-8-2021,
618,cathlyn :),radiohoofd,,@joyceannan73_05,4-8-2021,
619,Freya,puthbysucks,,@puthby oh my god,4-8-2021,
620,kay ✫,kvryz,,@qvzckity what the actual fuck.,4-8-2021,
621,taiyaki,riki.taiyaki,,@elombligo_.debakugo,4-8-2021,
622,ناصر,nxsser.ba,,@roarxd88,4-8-2021,
623,Ur mom,yezdos,,@iloveyezda,4-8-2021,
624,Winter Hart,sxmmer_hxrt_,,@anisathepizza the lap,4-8-2021,
625,moz/mox/orca,witheredbonniesfag,,OMFG😭😭,4-8-2021,
626,Solaris/Jeremy,yumishusband,,@ples.0,4-8-2021,
627,kita<3,yktv.k1ta,,@perwqmrd lit yo con mi computador,4-8-2021,
628,she/they,iluvjulka,,@nikoicia,4-8-2021,
629,hazza,herrystiles69,,@jujupucpuc969,4-8-2021,
630,jj,yeahotto,,@meguminsss,4-8-2021,
631,Artur,arturkunst,,@shakirapintocabeloverder o meu note tá assim,4-8-2021,
632,Neat💿,nestedneat,,have to put it on life support first,4-8-2021,
633,dakota 🎋,melancholypudding,,@blxccberry,4-8-2021,
634,SQUID🎸🌩️,vibinsquid,,@..spork,4-8-2021,
635,sadie,sadieisntfunny,,now it’s just a lap,4-8-2021,
636,Justing,quadpen8,,At that point it’s just a keyboard,4-8-2021,
637,MariaVictoria,victoriamxgc,,@valeriaprtyu yo,4-8-2021,
638,daniyah.,ballbiter3001,,now,4-8-2021,
639,phia,sophiangyyn,,@anhthugraygubler,4-8-2021,
640,emilie,emilieminch,,@walkerscearce LMFAO,4-8-2021,
641,anh,lyanh2693,,@__ayaaaaa__,4-8-2021,
642,ur mom,arcadiumb,,Oh that’s actually really common those have a niche fandom of so called half top users,4-8-2021,
643,Suzuya,kazuhas3,,@esma.ykl,4-8-2021,
644,Brianna,mangowinx,,@hxnyuz your laptop,4-8-2021,
645,🪴,saturnokkkkjk,,@himikkoi @chiakinhaaaa O NOTEBOOK AHSJSJSJKWWKJSKAKAKALAKAKKEKAKAK,4-8-2021,
646,Gorillabish125,daijahpt,,@xiaglover me and my ghetto laptop,4-8-2021,
647,ᕦ(ò_óˇ)ᕤ,mfb3e,,@_s2mle__100les_,4-8-2021,
648,⌧,aevucii0,,@xaleynax8,4-8-2021,
649,sodacan🥤,phoneguyslays,,@n0odle_hair,4-8-2021,
650,screee,screee333,,way nicer set up tbh,4-8-2021,
651,user2769763951202,antiachilles,,"Now *THAT* is a ""thin-n-light"" 😅",4-8-2021,
652,amelia,kkrool_,,@ghostvie,4-8-2021,
653,iman,imannextdoor,,LMDAOAOAO WHAT,4-8-2021,
654,jacobsteinberg09,jacobsteinberg58,,@romyowen,4-8-2021,
655,kyra <3,_crusty_rat_,,@yeaitswhatever,4-8-2021,
656,jenn 🧙‍♀️,jenniferye_et,,@hotamazingscorpio,4-8-2021,
657,kez,manicful,,LFMSOAOAO,4-8-2021,
658,Boh,dearmewoah,,@freya_marie06,4-8-2021,
659,🫦,wlwjason,,HELP THQGA TKRNFKKD@qwertykai20 miya atsumu with his school issued chrome oom,4-8-2021,
660,˚₊‧olivia‧₊˚,linoswamp,,@tendai.tm you,4-8-2021,
661,shadow <3,vincentiscold,,@__3r0s HUH,4-8-2021,
662,lna0,suchaprettybitch,,@dudsscm,4-8-2021,
663,Balls,doodooassfart,,@jake.acton69,4-8-2021,
664,m&m,emeieme_,,@shc12345678 AJJAJAJAJA,4-8-2021,
665,jam,soobcns,,@kat,4-8-2021,
666,blisss,therosemarysystem,,@heatwaves_404,4-8-2021,
667,Misa,ijustllovemyself,,Unbreakable ‼️💪🏽,4-8-2021,
668,Elinder YT,elinder.1,,He never dies,4-8-2021,
669,mai,serpiiico,,@washiiou,4-8-2021,
670,sex lord,goneabsolutelymad,,@m4isie_p3rham,4-8-2021,
671,‍,aqwwariusss,,"""you can't get rid of me b¡atch""",4-8-2021,
672,Lex is ROUGES WIFE,latinoreki,,@pyr0eis,4-8-2021,
673,who,iamnotlaian,,@imbustedohcrap HAHHAHQHA ONFG I AM DYING,4-8-2021,
674,eriol,erioliez,,@fr0bbyyy mój laptop be like,4-8-2021,
675,︎ ︎ ︎ ︎ ︎ ︎ ︎ ︎ ︎ ︎ ︎ ︎ ︎ ︎ ︎,smellyrui,,@reigenuhh,4-8-2021,
676,Yeet,michelleislittyxd,,@ssslannn,4-8-2021,
677,Mammon>His brothers,jenni.mp4_,,@purrmela,4-8-2021,
678,Jacob,jacob_91711,,@blur6307,4-8-2021,
679,u,buddercookies,,@virtualinsanityy,4-8-2021,
680,⠀ ⠀ ⠀ ⠀ ⠀ ⠀,lis9988,,@vrd5h my laptop b likd,4-8-2021,
681,no,kgiut5,,@vanox.cos thats a whole lego set,4-8-2021,
682,Multihoe,tyuningsus,,my laptop also turned into a pc 😭 it's sad,4-8-2021,
683,mal,hitchbf,,@burgundyotter32 you,4-8-2021,
684,nagi,komaaeda.irl,,@dilfsandorangejuice_ this gonna happen to mine soon,4-8-2021,
685,Emi,glitterpestopasta,,@ameliaqorri_ this is never not funny,4-8-2021,
686,dweamy poop,riuisfather,,@venusmuushr00m._.ho3,4-8-2021,
687,irana,idkbroistg,,@gladly.julia,4-8-2021,
688,Tik Toker,amreeta.s,,@nish.methuku,4-8-2021,
689,cal 🕺,mentallyillmadre,,@norabussyshart,4-8-2021,
690,clou,clvnau,,@elfmano benm laptop 🤗🤗,4-8-2021,
691,Skittles,.bruh_boiiii,,lap but where is the top😳,4-8-2021,
692,ꕥ,.florkkk,,@rayssamarcelina,4-8-2021,
693,hello,user029287444529,,@ssaeryan,4-8-2021,
694,mista,sritkatitka,,@sponge50 arajdusz,4-8-2021,
695,🍂libby <3,libby.williams__,,@dellboy3,4-8-2021,
696,No,sourpatchesfartslime,,@da.zana @urnumber1bestay LMFAOOO,4-8-2021,
697,Fortniteman3214,cumjaw,,"""you like my gaming setup?""",4-8-2021,
698,K,at.tva.mama.chcipne,,@thataceguy,4-8-2021,
699,zoey,zzovcx,,@liz.thecoolest,4-8-2021,
700,samuel,samufobia,,@emokala,4-8-2021,
701,Tyler,tyler12374,,@beatricelixia,4-8-2021,
702,david,darvardd,,@ihavedeadkidsinmypool,4-8-2021,
703,Yung flexa,bigboyshd,,@plot1111,4-8-2021,
704,stds🤷‍♂️,aidensaidso,,@iatetidepodsho,4-8-2021,
705,cindi,rancherojotaro,,HOW,4-8-2021,
706,🇲🇺,mysmetal,,@mushrews Nowz,4-8-2021,
707,(Aj) Lesbian apocalypse,infectedclitpiercing,,gots to see it through,4-8-2021,
708,Someone,someone0262,,Life support for a laptop,4-8-2021,
709,ur . 🎸,plaqu1,,@yeastinfectionheadass 😍😍😍,4-8-2021,
710,💋,g1oomyj,,@kazluvr HUH,4-8-2021,
711,phoenix‼️,aqu1lo,,@anuskix,4-8-2021,
712,Valentine,valentinezghost,,@nagitoh0pes,4-8-2021,
713,ana<3,ana.bananaq,,@rosedmoons,4-8-2021,
714,.,vvianav,,I JUST SAW THAT VID YOU DUETED,4-8-2021,
715,⠀ ⠀ ⠀ ⠀ ⠀ ⠀,personthatdoesthings1,,bruh It literally just turned into a pc lmao,4-8-2021,
716,I love cats,whosyarl1,,@trlppiredd,4-8-2021,
717,.,pillowtzlk,,@pewachy_,4-8-2021,
718,Puzzled,puzzled123,,@freedomdiverr,4-8-2021,
719,leti,elcipsia,,@v9leria this is how i felt like when my laptop screen broke,4-8-2021,
720,klaud fan page,spoonoski,,@koiowouwu THE WAY IT SLID,4-8-2021,
721,Poopypant,ur.goofy,,@massimorolandi_ @snazzysamara,4-8-2021,
722,•W u j i ' s • •c x,strxnger_carrot,,@xffxnxff bro,4-8-2021,
723,Diego-,notdiegg0,,@swaggy._.lauraa lol,4-8-2021,
724,Killian,killiandatiktok,,desktop team,4-8-2021,
725,enya,stunnaenya,,oh no our table,4-8-2021,
726,<3,gxbbyxs,,@gorjusballz,4-8-2021,
727,😎,sm_.1.5,,Custom bulit,4-8-2021,
728,kiwi💪,.71w1,,@kiwwifruite,4-8-2021,
729,zami,muzziedazai,,@kikeqing,4-8-2021,
730,👋,bluelistic,,@virgjnity,4-8-2021,
731,kev,kuno996,,ayo what’s the monitor called,4-8-2021,
732,reya!,cilzilin,,@shreya.s.24,4-8-2021,
733,jaisen,jjaisen,,@jahaisen,4-8-2021,
734,•_•,alanperez0371,,@blaker2023,4-8-2021,
735,♥️🧣,taylor_del_reyy,,@robertplantswifeasf,4-8-2021,
736,kylá!,kydimez,,@wilshire_cmiygl3 oh lord bud,4-8-2021,
737,🐺,mo.on_._air,,@brithneyspares,4-8-2021,
738,nicole,su_nicole,,@ivyhhuang time to invest in one of those,4-8-2021,
739,Mey,meylvs,,SABÉS QUE YO,4-8-2021,
740,Jess 🫶,dusterfan42,,HELP,4-8-2021,
741,coco 🎲,dangerjungkook,,@f1ng3rn4ilz my computer,4-8-2021,
742,< yidan 3,yidan_456,,@.whotfisrosa,4-8-2021,
743,tguisar,rosadorito,,@sopebabyxd,4-8-2021,
744,Yes,toqear,,@.gianela,4-8-2021,
745,sally,bally_bunez,,@befanybunez 😭😭,4-8-2021,
746,ash! <3,rjmashh,,@zzznic0las yop JASHSHDGS,4-8-2021,
747,Malachi,malachiii04,,@laymck04,4-8-2021,
748,Matching pfps,coollid049,,@izabellehatepage26,4-8-2021,
749,jacky,jacko1064,,@88kylen88 @lucasgeds,4-8-2021,
750,eris wang 王凌玥,ytj_2304,,@dennushuynh,4-8-2021,
751,meena lover,incluvr,,HELP IT FEL,4-8-2021,
752,molly,mollymck3nna,,@sanjisrightarm,4-8-2021,
753,.,cepha03,,it's a laptor now,4-8-2021,
754,user2976401649517,c0nceptl0l,,@monapatell,4-8-2021,
755,Julian,julio_mps6,,@horse.pipi,4-8-2021,
756,nio,nb5241,,@niosgf,4-8-2021,
757,kite,ecco2cuteee,,A whole monitor bye,4-8-2021,
758,Silly Little Fella,feelinpeachypie,,@geomimie @stabby_bread,4-8-2021,
759,kai,kai30946,,@aissakura,4-8-2021,
760,Roblox noob png.png,ragnir_,,A pc without the pc,4-8-2021,
761,😦 kai 😦,pokeboi145,,@txny_aestheticz,4-8-2021,
762,🥷,svqrxa,,im showing this to my dad 💀💀,4-8-2021,
763,chantal,chantalcostco,,@stinkygiraffe,4-8-2021,
764,Big juicy balls,ca11y.n,,Computop,4-8-2021,
765,althea,altheabethcny,,@thispussybelongstowaps this u???,4-8-2021,
766,انا احبك,busyrichlara,,anything is posible..,4-8-2021,
767,sizar( ͡° ͜ʖ ͡°),sizar109,,@sammy_figs,4-8-2021,
768,craig😒,kadensbf,,what th,4-8-2021,
769,!,golfwang111,,@cxntero oh no [surprised],4-8-2021,
770,curly french fry,gowonsearlobe,,@dyingharder my phone,4-8-2021,
771,Jayla !!,vhampz,,@cxrsedior,4-8-2021,
772,deez nuts,holaninos386,,@ally..softball.x.09,4-8-2021,
773,user6079091119693,creative_name_cool,,@m15tyk1tt3nx @customwudbunning @crazywasherboy2007 @meme_productions_ @roblosamica my laptop be like,4-8-2021,
774,🌳🌲Josh🌲🌳,idk.badger,,@cormn_flaek,4-8-2021,
775,Mommy,polar.bear.matt,,@alopez113006,4-8-2021,
776,Marco,marcodoesthings,,@kippes0 uhhhhh,4-8-2021,
777,love,anfaallu,,how tf did u,4-8-2021,
778,superstiffy,userg70s9mc6ub,,Ay free keyboard built in trackpad,4-8-2021,
779,Ariana 321,truthfulquotes1,,That laptop on life support,3-8-2021,
780,🇺🇦Cpt.Price🇺🇦,bravo6.goingdark,,Lapdown,3-8-2021,
781,Anneeeeee <<333,annesofie.__,,@sonjahere2 I can’t stop laughing how the top just fell,3-8-2021,
782,NathanR1DA Wickerbeast,nathan_r1da_wickerbeast,,@the_true_cactus_man,3-8-2021,
783,GhostyFox17,ghostyfox17,,@gnasher119,3-8-2021,
784,jnichols,j_.nichols,,@f3shh,3-8-2021,
785,Pj/Vesper,myrtille576,,@wolfskuli HELP,3-8-2021,
786,who what when why,mewhen42,,@waiwaitwait,3-8-2021,
787,Ash,ashv1n_,,@.danperks this tiktok is right after the original on,3-8-2021,
788,offline,doomahnutss,,THIS IS LTIERALLY WHAT I DID WHEN MY SCREEN DETATCHED,3-8-2021,
789,ケビン,ltskingkevin,,@kenji.zane 💀💀💀,3-8-2021,
790,🫶🏾,dfw.nayy,,this is just concerning,3-8-2021,
791,🪱,ayakuh,,hot,3-8-2021,
792,yandere._.san,yandere._.san,,beacuse its just the screen that fell off,3-8-2021,
793,nina,ninaaanguyen,,@lucy_ivanaj0,3-8-2021,
794,steveazz,littlelad25,,@anxious.monster,3-8-2021,
795,doheehd,cheezer31,,You now have a pc,3-8-2021,
796,scarlett,thierrysgirlfriend,,@ameliaa.booo PAHAH STOP,3-8-2021,
797,Roblox Gaming Channel,viktor124358,,HP quality,3-8-2021,
798,ultime,1ultime,,moi aussi je fesait sa rien de special enfaite,3-8-2021,
799,Camille 🫧,cdawg.40,,@toesluvbunz21,3-8-2021,
800,Bill Kerman,bill_kerman_official,,schools chromebooks be like,3-8-2021,
801,pöljä,vehneri,,lap :D,3-8-2021,
802,404,awayfr404notfound,,Bruh it's on life support now,3-8-2021,
803,Jaques 💪🏼🐺,jaquesthegoat,,This Mother fricker turned it into a freaking desktop,3-8-2021,
804,emma,emm.a78,,@wilbursootsleftlung i have this laptop,3-8-2021,
805,Dom,dom_c.22,,@i_is_cody,3-8-2021,
806,Neo,evoxs5m,,They should sale these,3-8-2021,
807,morbing,hopperismyhusband,,@76kill,3-8-2021,
808,cooper,hoodrapnycnews,,💥bbbBbbbBbbtt😰oh😲no😥our🤭table😩,3-8-2021,
809,balls,kwi.b,,just like my ds,3-8-2021,
810,evil spawn :),crispyy_taco,,PLS HE JUST CONNECTED HALF OF IT?,3-8-2021,
811,kid,kidwot,,.... amazing,3-8-2021,
812,Yes,intercrude,,@moadam94 😂,3-8-2021,
813,mina,mariomiado,,@agua.de.jamon yo,3-8-2021,
814,"Tarnished, Maidenless & Pro",taosbestghost,,Only alphas work with no screen 😤,3-8-2021,
815,Simon,simonvoell,,Wanna 🙋 break 🚫 from the ads 💸 watch 👀 this short ⬇ video 📽 for 30 minutes ⏰ of 🚫 ad free 🛇 🔥🎶 music 🎶🔥💯,3-8-2021,
816,ㅤ,francescovidvaccine,,lap top,3-8-2021,
817,eye am cool,._.gotobedbro,,😟😟😟😮oh no😄our table👹it's broken,3-8-2021,
818,🤷🏾,cdd.mk,,OMG,3-8-2021,
819,aymen,aymenhache,,@hugoo__o,3-8-2021,
820,yfein,yfeinzs,,......bro?????????,3-8-2021,
821,Tik Toker,ciouth,,LMAO,3-8-2021,
822,Mvuksan544,mvuksan544,,It works bc the motherboard is located under the keyboard meaning (unless your down part is bent or destroyed) your mac will work,3-8-2021,
823,zayne,zayne.rammouni,,I JUST SAW THWE PTHER PNE,3-8-2021,
824,Dzsesszi👍🏻,hueninkaiiq,,YOOOO WHERE CAN I BUY THIS💥💳💥💥💥💥💥💳💥💥💳💥💳💥💳,3-8-2021,
825,danky,dnaky,,unintentional raspberry pi 400,3-8-2021,
826,Horny man,its_ya_boy_bayoumi_fouad,,bros laptop became a keyboard,3-8-2021,
827,JohnPapaya99,mlartigue10,,Best setup ever,3-8-2021,
828,lolololololololo,a.m.o.g.u.s.s.u.s,,your laptop turned into an imac,3-8-2021,
829,Fingerswaggled,metabru,,I saw the same video on my fyp lol,3-8-2021,
830,.,24_characters24,,Lebron Jahamad,3-8-2021,
831,yes pizza,blue_4807,,"huh,kinda like my acer laptop lol",3-8-2021,
832,ardei,david._.andrei_,,I can't🤣,3-8-2021,
833,nokkaa,nokkaa12,,ah yes,3-8-2021,
834,ellouise,e2trappyy2,,.,16-11-2021,
835,kluska 🍂,klusea,,@ima_lonly XSSSMSDD,31-10-2021,
836,Serenity,fxserenity0,,@urfavhoexxxx,31-10-2021,
837,EmoGacieBabci,cypnaa,,@Wielbłądzica araba.,31-10-2021,
838,gay,enevicyx,,@userfaaf83cagg IM SCRWMING,31-10-2021,
839,qalhesmaツ,qalhesma,,.,29-9-2021,
840,Naaaadiiiii,itz_nadyo,,@uservnye9ye23e,28-9-2021,
841,Novio de Ariana Grande68,noviodearianagrande,,@sofy_rojaas JWGAJSBBS,28-9-2021,
842,Dawko king 👑,dawkoisking,,@mryeet25 @liamxdragon7521 @geko5849 @mustyrat6377,25-9-2021,
843,:),zeph.exe,,"@PukiTheAwesomeGuy LMAO IM GONNA CRY ""custom built"" HQAHQHQHQHQHQHHHSQHA",8-9-2021,
844,🥵WAIFU_DANSEL🥵,unknownking027,,@Jirah Fataalii @DRIPKAGE808,5-9-2021,
845,Paz Duadua Manzano,pazduaduamanzano,,😅🤣🤣🤣🤣🤣😌🤣🤣🤣🤣🤣😉😉😉😛,31-8-2021,
846,Paz Duadua Manzano,pazduaduamanzano,,Jliiij,31-8-2021,
847,Hobbit487,hobbit487,,₲ĐɎ₵₲₲ӾɄĐɎĐӾⱧ₣₲Đ₣₩₴Ɏ₴₲₲,29-8-2021,
848,Hobbit487,hobbit487,,"꒯꒻ß)ꊰ꒤ꊰ♡ ∩_∩
（„• ֊ •„)♡
┏ O[cute]O - • - • - ღ❦ღ┓
┊Want TikTok Emojis?
┊٩[lovely]۶☟𝗙𝗼𝗹𝗹𝗼𝘄☟ଘ[angel]ଓ
┗ღ❦ღ • - • - • - • - • - ┛
@facemojikeyboard",29-8-2021,
849,Jacob,jacobmckennaaaa,,@Skye @Kpcar,27-8-2021,
850,Hot,grassybassy,,@duh.erinn,26-8-2021,
851,katle,katletbh,,@_.guabobo._,18-8-2021,
852,🌠,3xstarzz,,@@victoriaaaisamazingg,15-8-2021,
853,kayla,kayladupreee,,@bassgutz,15-8-2021,
854,I’ve started Gacha and edits,mintyestolia,,💥💥💥💥💥💥💥💥💥💥 OYH NOE OWR TAYBEL…. IYTS BROKIN,14-8-2021,
855,Falco Synthesize,falcosynthesize,,@soulsss0,12-8-2021,
856,🐌,esmi.sc,,@.aimeeannan,10-8-2021,
857,emilija🫀,harrysg1rl,,@harryinitt,10-8-2021,
858,🌺,theshroomjack,,@childetartaglharbinger11,10-8-2021,
859,🧟‍♂️,rastrosdecometa,,@sofisza,10-8-2021,
860,Danny,d4nny_the_cha0tic,,@ranainnit,10-8-2021,
861,nk,ns.tlk,,@da_night25,10-8-2021,
862,.,whosverrii,,@corntub_,10-8-2021,
863,Mango,mangololl33,,@commonbulleyz @papiitreyy “yah guys I built a pc”,10-8-2021,
864,Aj,a.jxx22,,@sscaramouche___,10-8-2021,
865,Nik,yoitsnickiminaj,,@Banned at 1500,10-8-2021,
866,call me she for short!,your_randomgachaperson,,@shawnlastguest,9-8-2021,
867,♡ clover ♡,absolute_garbage101,,@uh..hike.._,9-8-2021,
868,ben,valenjup,,@annabella_martins,9-8-2021,
869,🪐🪴🍄,b4tf4c3,,@toddynerd,9-8-2021,
870,Idk,idkidkidkidkidkid828,,Maybe bc all of the hardware is in the bottom half and the top is just the monitor like most of the time ???😳,9-8-2021,
871,Leila,_anthonyrayy,,@rubyr3by,9-8-2021,
872,😕,howareyou.9,,lap no top.,9-8-2021,
873,giss 🧃,hrts4seeun,,HWLP,9-8-2021,
874,Conor,conor_james_30,,king shark,9-8-2021,
875,k,iadoremitski_,,LMFAO@alonecaring,9-8-2021,
876,bruno o kubo,phrogglet,,@cambeans.v3,9-8-2021,
877,￼,harps616,,@1b00bies this happened to me but it still work,9-8-2021,
878,Carter,carters3.6thbraincell,,"ofc it still works, the main part seems fine, its just the screen thats badonked",9-8-2021,
879,aghnis,ohedward,,PKSAO WHAT,9-8-2021,
880,Avasgold2,avasgold2,,Lap top with no brim,9-8-2021,
881,Mutuals?,fw.twerking,,@gpocontentiguess relatable,9-8-2021,
882,A,iaihpos,,@user6lptn3twd4,9-8-2021,
883,9/9//92,vvangs,,theres a little gap there,9-8-2021,
884,9/9//92,vvangs,,WHAT.,9-8-2021,
885,Aly👻,509aly,,@www.nooneaskedyou.com,9-8-2021,
886,bighead luke,rrrocketz,,free monitor,9-8-2021,
887,Nessa <3,iheartnessa_,,@verymuchnotmori you,9-8-2021,
888,t,_kleechuu,,@gyuspigtails you,9-8-2021,
889,odeh,oheh.odeh,,@professional_bullshitter,9-8-2021,
890,AJ =),xeroz_isnthere,,a lap with no top,9-8-2021,
891,ani,vampical_,,@5riendly me,9-8-2021,
892,joyce,notbreww,,@sunaeeeee LMAOAOAOA WHAT IS THIS,9-8-2021,
893,🅿️,luvkqylee,,@.k6ylaa,9-8-2021,
894,yoi,squvix,,WYAY,9-8-2021,
895,Manager: quackity,dsmp..collab4,,What the Bible,9-8-2021,
896,MATERIAL BOII,wenissucke.r,,you know if you fix it up a bit it would look like a cool pc,9-8-2021,
897,Greg,cabybara.official,,Bam bam bam just use a pc and plug it in to the keyboard for the old computer problem solver,9-8-2021,
898,Kay 🫶,_theonly.kay_,,What are y'all putting them through 💀,9-8-2021,
899,Ddawg_044,ddawg_044,,@jada.tipton,9-8-2021,
900,:) Olivia,alohaiseeyourreadingthis,,HUH,9-8-2021,
901,no,whoiselabro,,bro,9-8-2021,
902,sev,egruma,,@cali.xoo 🤨🤨,9-8-2021,
903,rachie rae,vurrila,,@agentrobotic,9-8-2021,
904,Gdzie jest mój boy?♥️,zulant,,XD,9-8-2021,
905,Marissa,mstinelli,,@arianna.spamzies ur computer,9-8-2021,
906,aiza,aiza.ansoury,,NO BC MY COMPUTER USED TO BE THIS BROKEN @editinghubb PLEASE TELL ME U REMEMBER THE FIRST LAPTOP I HAD FOR YEARS I USED TO CALL U ON IT LAST YEAR,9-8-2021,
907,boi,hir00x,,@.ninasthv,9-8-2021,
908,bri,spkkie,,LMAO,9-8-2021,
909,kenzie <3,still.kenzie,,@questeria,9-8-2021,
910,زهيلة🌙,zuhaylaa,,😭😭,9-8-2021,
911,ren,livelaughctubbo,,bro wtf,9-8-2021,
912,Poopmuncher,lynyein,,@ray @mona’s #1 simp THESE COMMENTS,9-8-2021,
913,janiylae,ilvdsjj,,@nxtalia_13,9-8-2021,
914,Mila,crazycoolcat1718,,pit bull,9-8-2021,
915,Selene,selenewbu,,LOLLL,9-8-2021,
916,banannananna,cactus.cash,,i’m,9-8-2021,
917,Lol,getnoobed_lol,,@o_papi,9-8-2021,
918,FreeGiftCardsOnMyPage,freegiftcardz0nmypage,,Read my name thank me later———🤜🏿🤜🏿,9-8-2021,
919,Hellenkellerkooukievibraytor,hellenkellersviberaytor,,@xlov3rr 💀,9-8-2021,
920,vic,ulria,,@viccini3,9-8-2021,
921,yippee,sunnydbottlecap,,Free-ish pc,9-8-2021,
922,kayla,bobkink,,@kobo.hobo,9-8-2021,
923,⠀ ⠀ ⠀ ⠀ ⠀ ⠀,soapsoaps,,@sophialaughedatme,9-8-2021,
924,brooklyn,.brooklynsheehan,,HELP,9-8-2021,
925,jas,teen1dle3,,@n6ptunee,9-8-2021,
926,illydic,illydic,,@gvracie,9-8-2021,
927,🫶🏾🇯🇲 I don’t use this acc,aniaisntpresent,,@frogsgomeep,9-8-2021,
928,varia😘,variaboo,,😭😭,9-8-2021,
929,syd ✰,justreko,,@joe_ditullio [shock],9-8-2021,
930,rin,vitized,,WHAT 😨,9-8-2021,
931,vale,iloveandreafr,,☠️☠️☠️☠️,9-8-2021,
932,brayleigh,brayleighkills,,@_brayleighssimp,9-8-2021,
933,silvia,silvia.nyc,,@r4y4.4 this is gonna be my custom built pc,9-8-2021,
934,Vivian Fan Club (Elliot/Ell),elltenn,,@edisfruitypebble [wow],9-8-2021,
935,(ง'̀-'́)ง,ntalani,,@8raydenn,9-8-2021,
936,.,k4rlar,,@katietruett LMFAOAO,9-8-2021,
937,kayla.,inlvewthurmom,,@user3129064291,9-8-2021,
938,Sleeping 😍👋,killugonshipper_,,Glue that shit back on,9-8-2021,
939,𝒥𝓊𝓁𝒾𝑒,theyluvmejulie,,What even is that😭,9-8-2021,
940,Marcoboyfriend49,marcoboyfriend49,,😁👍,9-8-2021,
941,rosemary!,ly.rosey,,@xojingwa HELP,8-8-2021,
942,Name,skeletorgirlfrnd,,@corpse_flowrr @gageybrr,8-8-2021,
943,lover,taeandjung,,@dumb_bitch_salad,8-8-2021,
944,kim .,4mybf69,,how.,8-8-2021,
945,Aurora,auroraivey,,Because everything is on the bottom… lmao,8-8-2021,
946,Sir Coya,miss_coya,,I think it’s time to let go,8-8-2021,
947,ana💖,destroyana,,lap w no top,8-8-2021,
948,maree,mariastatertots,,@notdazaikun,8-8-2021,
949,yonatan,yawnatin,,@megstfu,8-8-2021,
950,Allan,allan.encarnacionn,,@somehotcheetos,8-8-2021,
951,jaylen🥥,ytry444,,@tumother.com UR CHROMEBOOK LAST YESR,8-8-2021,
952,ᡕᠵ᠊ᡃ່࡚ࠢ࠘ ⸝່ࠡࠣ᠊߯᠆ࠣ࠘ᡁࠣ࠘᠊᠊ࠢ࠘𐡏~♡,s.shalindaaa,,WHAT,8-8-2021,
953,L,luis.c4646,,@danny.montez @agentasfriend043,8-8-2021,
954,Micheal Jackson,wh0re_for_inosuke,,Laptop with no brim?,8-8-2021,
955,ㅤ,makailllaaahhh,,oh no! our table,8-8-2021,
956,kassia 🤟🏽,lemmedrivethetruck,,@yuhuzasgf,8-8-2021,
957,Oliver 💚🍵,.mr.oliver.transman,,@kitaraz,8-8-2021,
958,😝,evanpetersbiglefttoe,,@s_y_d_n_e_y_w,8-8-2021,
959,Noelle main,seatoken,,@scrffle how do some laptops get this bad.,8-8-2021,
960,User,user184572951040803,,@agentclydee,8-8-2021,
961,Zero,_._impxrfxcion_._,,@lindseyj003 How-,8-8-2021,
962,Nevaeh🫶🏽,ll.13.21,,@nikkirightboob 💀,8-8-2021,
963,alex 🫧,alexvsmm,,@._________.__________,8-8-2021,
964,Sebastian.,local_mexican126,,@minority_oppressor,8-8-2021,
965,aylinn☺︎︎,.lov3aylin,,😭😭@bri.1g @who.ismay,8-8-2021,
966,kate,6hverse,,LMFAOO,8-8-2021,
967,hua cheng’s wifey!!,11il1yy,,@martarart,8-8-2021,
968,⠀ ⠀ ⠀ ⠀ ⠀ ⠀,reslurq,,LMFAOO,8-8-2021,
969,yuh,_4eth3r_,,@.kzune LMFAOOOOO,8-8-2021,
970,bimgus,ardvol,,its because only the screen is broke,8-8-2021,
971,Kimchi,kimch1_,,Bro wdym how you broke off the screen not the pc 😂,8-8-2021,
972,emma <3,totallyemmajazzlyn,,@anthxny_25,8-8-2021,
973,dee 🎸,dee_table,,o,8-8-2021,
974,Amari 🚹,lvrx0dd,,@2gd4u.lol,8-8-2021,
975,me,radicalcaca,,@fefifofumg this you?,8-8-2021,
976,lettuce,souls_lettuce,,@amyalvarez72,8-8-2021,
977,soraya,junobmacguff,,@Jack Wright,8-8-2021,
978,niki nihachu<3,n1k1mybeloved,,I can not tell you how many times my anger issues got out of hand I hit my laptop💀,8-8-2021,
979,I h8 bologna,lordratmilk,,@anarminsimp oh,8-8-2021,
980,olly lol,ollylol5,,how do yall eve. break it like thAt 😭,8-8-2021,
981,Eh,voosts,,@yk_wxrthless HOW,8-8-2021,
982,FrancisForeverByMitski,mitskilo.ver,,@gh0sty_haha,8-8-2021,
983,Ok?,dxrk..nico,,O no our table 😎🥵,8-8-2021,
984,- cmulahhh ㊙️🤍 .,444chrisann_,,☠️,8-8-2021,
985,Evelyn,stfuevelynn,,@failedpulloutmethod,8-8-2021,
986,marie,marielauraaaa,,@gathilda,8-8-2021,
987,janiya🪴,janiyab1123,,..,8-8-2021,
988,david,ghosty_david,,now its desktop,8-8-2021,
989,Gucci,guccichopsticks,,@1ol.ur.mad,8-8-2021,
990,YOUR GIRL CHARLEAH😜,charleah._._,,Now it’s not a top no mo,8-8-2021,
991,alexa,alexaa6661,,how tf does it get that bad😭,8-8-2021,
992,ʚɞ,ethicalcrybabyyy,,LMFAOAOAOAO,8-8-2021,
993,jordan:),joran_7,,@str8.outta.here reminds me of barba,8-8-2021,
994,Robot nuclear Bunny,mrduck476,,oH😇No🤓OuR🥳TabLe🧐iS🤓BrOkEn😭,8-8-2021,
995,Berry,superdogecat,,@superdogecats_gf,8-8-2021,
996,koybs,koybs,,@bleach.d,8-8-2021,
997,brady,6radyyy,,@dickbiter,8-8-2021,
998,⠀ ⠀ ⠀ ⠀ ⠀ ⠀,kangyspamy,,@shreeyaraiii,8-8-2021,
999,skylar🌌,skahlair,,@dave_strider_1,8-8-2021,
1000,isha,ishx_06,,@shushburger06 how-,8-8-2021,
1001,Smoop,opiiiiiiip,,"Guy asked me out, went to his house and he pulled this mf out AS A LIGHT SOURCE",8-8-2021,
1002,lix,lixative,,now how’d this happen girl,8-8-2021,
1003,Marie<33,lovlely.marie.x,,Some of you guys don't deserve a laptop[joyful],8-8-2021,
1004,.....,cemiyette_pistim,,@7235.6739 bubneeim laptob,8-8-2021,
1005,Lilly,london.chqrzz,,@naenae2910,8-8-2021,
1006,Nina_2raww,nina_2rawwgptbanne,,what a good- oh my computer broke im.just gonna fix it:),8-8-2021,
1007,carin😝,carintheetiger,,OMC RUING,8-8-2021,
1008,loving snc and angel 😽😽,snclovelys,,@.dsmpcharlz,8-8-2021,
1009,lia,sunoosrealtiktokacc,,"@mankywater WTF DO PEOPLE DO TO THEIR LAPTOPS?.!.?,",8-8-2021,
1010,carli barli,carlibotkin,,um,8-8-2021,
