,Comment Number (ID),Nickname,User @,Comment Text,Time,Likes
1,⠀,hjarnskada,,I repasted my gtx 1060 laptop and it barely reaches 80C now,3-12-2021,
2,Carson,juststatik,,"I want a pc and convincing my parents that laptops are worse than a full pc, I should’ve told them, if I wanted to start a fire I’d get matched",17-12-2021,
3,⠀ ⠀ ⠀ ⠀ ⠀ ⠀,eontiktok2,,I’m stuck with a 1050 Ti,3-12-2021,
4,( ͡° ͜ʖ ͡°),r00d4y_,,my laptop does 120 fps,8-1-2022,
5,Rareș P. Popa 🇷🇴🇷🇴🇷🇴🇷🇴,rares_123_bh,,"is a ROG, i don't think it overheats 😅😅😂😂",3-12-2021,
6,Manny duke,xxxmustangsallyxxx,,I’ve got an omen 15 with a 1650 and a 9th ten i5 I’ve seen both get in the early 100s but most commonly 90s will re pasting and cleaning help that muc,3-12-2021,
7,Rand0m,ev3ryth1ngrand0m,,Mine are Intel HD Graphics 615 💀,30-1-2022,
8,🫁,kanczopanczo,,"""just a little bit warm""",3-12-2021,
9,Ham,hammish46,,bro just download RAM online smh 🤦‍♂️🤦‍♂️,26-12-2021,
10,🥇,silkwatts,,@iohannishatepage now this is dark humour,3-12-2021,
11,Jesse pinkman,coolmethgame.com,,My 1050ti laptop never goes over like 65’,8-1-2022,
12,Quandale Dingle,sub2leolaus,,bruh mine has a gtx 1050 and it's from 2016,5-2-2022,
13,Mo,omgitzmo,,Bonfire season hits different,29-1-2022,
14,rs7vihob,rs7vihob,,what laptop is this ?,16-1-2022,
15,Dany,dany_the_carrot,,at least it's portable,5-12-2021,
16,XC_MN,xc_mn,,Thats 🔥,8-1-2022,
17,Consumify,consumify,,@spongier isn't this ur laptop,10-12-2021,
18,,malt5ze,,get a laptop fan,16-12-2021,
19,quandale dingle here,humptydumpty6969.69,,hahah so funny,2-1-2022,
20,Herobrine17041-final,herobrine17041,,Watching From website,5-12-2021,
21,bravo,f53532,,the graphics are fire bro,5-12-2021,
22,hyundaiboii,hyundaiboii,,1650 and only goes to 70 degrees,4-12-2021,
23,H,cumyewest,,This is my PS4 on rest mode,4-12-2021,
24,Elliot does tech stuff,elliot_does_tech,,i have gtx 1660 ti in my laptop,4-12-2021,
25,15,c6_sy,,use a laptop cooler it helps and remove the bottom of the laptop,4-12-2021,
26,Tik Toker,yassinnazoume,,how much FPS u get on a game,4-12-2021,
27,Zack plays pk xd and Roblox,laksshayboy,,today chrismast?,4-12-2021,
28,Windows Uranus,microsoftedge4,,Ayo new avatar mery Christmas 🤶,4-12-2021,
29,《Obito》,obito_naturt0,,how do you have the same laptop as me?,4-12-2021,
30,candy Joey idea 🤔,cupcakke_candyjoeynaky,,@robstech Computer Windows Microsoft office,4-12-2021,
31,azka,zkapoetra,,I've never had some problem with my laptop while gaming... Can play 180 fps on valorant tho,4-12-2021,
32,man farts,fatcheese23,,they actually dont compared to my windows 7 garrys mod on the gaming laptop acutally have worst graphics meanwhile my garrys mod have good graphics,4-12-2021,
33,what the actual fuck,akshaytkdeotak,,my cousin's MSI laptop which isnt that old literally can cook an egg on it,4-12-2021,
34,i wanna be a star to die fun,fransiskusferoz,,Did you touch grass?,4-12-2021,
35,??????????????????????????????,diedaccountownerneveruse,,POV: the cpu and gpu,4-12-2021,
36,Zack lol,zack_lol32,,fyp,4-12-2021,
37,The noonoo plush from fnatl❗️,plushy.noonoo.does.smthn,,Song: skee loo(I think) - I wish,4-12-2021,
38,Hehe,_thanhh.6021_,,Me with an Intel HD Graphics 520 : 👁👄👁,4-12-2021,
39,user4463438589036,philly0729,,bro my msi gets like super hot bro and the fans start going crazy,4-12-2021,
40,Tech Related Content,_dyllie_,,LMAOOO,4-12-2021,
41,nut,nut1324,,I have a 3050ti with a ryzen 5 5600h and it gets to 90c playing Warzone,4-12-2021,
42,iwannnaslayandslout,iwannnaslayandslout,,how many FPS do you get in Minecraft with optifine?,3-12-2021,
43,Hi,hajaiajajajajahsjsjs19,,Just want one because I don’t have to set everything up to play. I can just play anywhere.,3-12-2021,
44,Orange boi,flameboi900,,Can’t relate,3-12-2021,
45,gaming,skatespacepiter,,you just need to take Care of the laptop like the little stands that free up the fans or cleaning it,3-12-2021,
46,🧑‍🦯,wolfisha,,friendly reminder he,3-12-2021,
47,CVD,cvddude,,i have a gaming laptop with 1650 gtx and it can hadle shaders on mc with 90 degrees 😏,3-12-2021,
48,CVD,cvddude,,yes they fo,3-12-2021,
49,🐈,username928519194,,Is Asus ROG GL552VW laptop good?,3-12-2021,
50,傑姆西姆²¹³⁷,kentz_frl,,mine does,3-12-2021,
51,Potato,potato__848,,Just put it on balanced powerplan mode,3-12-2021,
52,DumitruAlex2020,pilot.alex07,,is an rtx 3050 4gb good for laptop,3-12-2021,
53,Lourencolanca_,lourencolanca_,,wow,3-12-2021,
54,"""",cappybaras_dont_exist,,not even lying my laptop struggles to get 20fps on minecraft with the lowest settings,3-12-2021,
55,iwannnaslayandslout,iwannnaslayandslout,,how many fps do you get on Minecraft with optifine?,3-12-2021,
56,CVD,cvddude,,do,3-12-2021,
57,.,emoeder_,,and here i am with a mx450😂,20-12-2021,
58,Killian,killiandatiktok,,Nothing gets hotter than a Mac,5-12-2021,
59,Waleed,waldoszn,,repping iris Xe intregrated graphics 😈,4-12-2021,
60,user8944625427562,user8944625427562,,Mine reaches about 93C when playing COD with an rtx2070,17-12-2021,
61,Alkomonek,alkomonek,,i got an rx 580 i avrage about 130 in fn,31-1-2022,
62,ThisaRobbery88,packmanthegunman,,"My 1650ti at idle : 55C
My 1650ti running war thunder at 120fps medium : 60C",17-1-2022,
63,techa_la_la_la_la,techa_la_la_la_la,,i rip the back cover part out for more air and i clean it every weeks gl552jx,4-12-2021,
64,NotNotepad,notnotepad,,mine can reach 200FPS on Minecraft with shaders,3-12-2021,
65,yes,xav1erchan,,my msi while doing little google chroming,3-12-2021,
66,Stra,straatonfire,,thats why i got a desktop with a rtx 3070 ti and i7 12700k😏,4-12-2021,
67,Kel,sickoworlds,,me chilling with a 3070 in mine😏,4-12-2021,
68,Annoying ass kid,not_okp,,Damm that shit really on fire,4-12-2021,
69,IAmMusical YT,iammusicalyt,,BRO YOU GOT THE SAME LAPTOP AS ME TF,4-12-2021,
70,Tutorial.PC 123,tutorial.pc.123,,Stop💀,3-12-2021,
71,Deleted User,deleted_account199,,laptops are only good for like a year to 2 spend the money for a pc,4-12-2021,
72,ㅤㅤㅤㅤㅤㅤㅤㅤㅤㅤㅤㅤㅤㅤㅤㅤㅤㅤㅤㅤㅤㅤㅤㅤㅤㅤㅤㅤㅤㅤ,lime_terracotta,,lime terracotta lol,4-12-2021,
73,Harry Archer 🧋🍩,harry16416,,Wait……. that kinda seems like my laptop trynna run vm’s without being plugged in lol,30-5-2022,
74,Akairuna,sathhhhhh,,@ezmee,22-12-2021,
75,Used to be “zorkux”,not.your.dad.lmao,,My 1050ti laptop doesn’t even run fn it’s for a i7 8th gen 16gb ddr4 ram and 500 gb space yet it runs fn on 30 fps,17-12-2021,
76,🇨🇦,l4vsh,,@qtsnickers,4-12-2021,
77,j,johnatkinsonn,,@rambo7641,4-12-2021,
78,my comments are jokes (some),hazelfunny,,💀,3-12-2021,
79,biggest jettix fan,darklatexfan,,vrEEEAAOOOOWWWWFFFFVVFVFVFVFVF,17-12-2021,
80,﷽﷽﷽﷽﷽﷽﷽﷽﷽﷽﷽﷽﷽﷽﷽﷽﷽﷽﷽﷽﷽﷽﷽﷽﷽﷽﷽﷽﷽﷽,yvcm,,1650 ti gang wya ->,14-12-2021,
81,︎,agooduserna,,"rssszdsssdz, yo you gf gffghhg fed feed d CB b b",4-12-2021,
82,Roan,evoliloll,,yessir🤣🤣🤣,20-12-2021,
