,Comment Number (ID),Nickname,User @,Comment Text,Time,Likes
1,pathy14,pathos14,,that probably means you won't get paid competitively either,21-9-2021,522
2,Ryan,gallagher0919,,"when I see ""temporarily"" remote",21-9-2021,405
3,James,wanderinggummiofdoom,,at this point working in an office is a no for me 😂,20-9-2021,802
4,Val,valeria.cpp,,"So many boomers saying ""ok get paid less!1!1"" when in reality Facebook, Google, Microsoft, etc. all have ""dress for your day"" codes.",9-10-2021,49
5,Not_jimmyjr,not_jimmyjr,,"I will always wear a hoodie and joggers, business casual just doesn’t do if for me",21-9-2021,13
6,Justin Turner,jturner151,,why would I dress up to work from home? 🧐,21-9-2021,231
7,elixate,elixate,,Seriously!! And every single company is temporarily remote too 😳 I guess they learned nothing about coders 😂,23-9-2021,3
8,Alperen Kuru,alperenkuru,,Why is that a red flag? Some offices want to keep a professional environment?,21-9-2021,19
9,Danalyst,danalyst,,lolz girl😂😂😂 it doesn't matter. get that offer and shop around😂😂,20-9-2021,19
10,pidouble145,pidouble,,"Honestly, I love first world standards. This is how you know we got it made!",9-10-2021,4
11,Maggie,magplanning,,cries in tech consulting,21-9-2021,3
12,no,soupbimbo,,literally me I’ve worn the same hoodie for weeks,21-9-2021,1
13,SecretHollywood,secrethollywood,,On the west coast?? No way,21-9-2021,52
14,Jay,itbeelikethatt,,Ya that’s a negative from me. I dress how I want 😂,21-9-2021,1
15,TheShyGuys,theshyguys,,I won’t even interview if it’s in a office lol,7-10-2021,3
16,Y,itsyaz1,,Isn’t everything always business casual? Never worked in a place that wasn’t.,23-9-2021,1
17,blue.blooms,blue.blooms,,Yes. A resounding NO 😂,21-9-2021,10
18,Jus,jbuzz88,,bruh there's no way😂,21-9-2021,1
19,Neal,neal.chauhan,,Fr fr,21-9-2021,1
20,Jeremy Bowditch,jbowditch,,I wear what I wear,21-9-2021,1
21,Plurk,plurky,,id be there in the same outfit every single day 💀,9-11-2021,0
22,Austin,cho4l,,If someone ever has to see me in person it’s a no,4-11-2021,0
23,fyq47470,fyq47470,,I’ve been wearing a hoodie WFH for 1.5 years now. My feet don’t even fit in my dress shoes anymore.,19-10-2021,0
24,Paul,bytesunfish,,I'm leaving my current job for an anything goes dress code company. It's sure to be a refreshing change,18-10-2021,0
25,A....,achen033,,"tbh for programmers, that just means wear fannel",13-10-2021,0
26,Isa,rub_isa,,Is this role remote? No it’s hybrid… Thank you but I’ll go ahead and pass.,10-10-2021,0
27,Abhishek,curykong,,I don’t mind pulling up on a nice suit flexing on mofos,9-10-2021,0
28,What? Dumb luck,user5ndc8im5ae,,It’s worth it to look further into. Advertised was “business casual” but upon reading the actual policy “blue jeans allowed” just need collared shirt,9-10-2021,0
29,Saif Chowdhury,saifchowdhury03,,hell yeah,9-10-2021,0
30,Squid,squidspeed_,,"They want business casual? Ok. I’ll dress in business professional attire with cuff links, nice tie, tie clip, and everything—all week.",9-10-2021,0
31,Avi,avidarkk,,My job said “We need to talk about the back to office plan” and I put up my resume on indeed immediately after.,9-10-2021,0
32,elfenicelogistics,elfenicelogistics,,"ok, live in your pajamas 24/7",9-10-2021,0
33,giant asparagus,giant_asparagus,,I'm not even a dev and I'm turned off when all my interviewers are in business caj,9-10-2021,0
34,Ozzy Tozzy,ozzytozzy,,where do I learn python,25-9-2021,0
35,Daddy C Dollar,daddycdollar,,Looool… just know it’s below market rate pay lol,23-9-2021,0
36,no u,doppelgoose,,any job at this point.,22-9-2021,0
37,v,vegarni,,there still places that do that?,21-9-2021,0
38,Sav Atthi,careersavvy,,looool trust me,21-9-2021,0
39,UCSB COE,ucsbcollegeofengineering,,Yup!!!,21-9-2021,0
40,Trippyyyyyy66,trippppppyyyyy66,,Uh oh,21-9-2021,0
41,mads,not_a_senator,,that and drug testing!,21-9-2021,16
42,John,johndoe_18,,You can’t even program,27-9-2021,0
43,Khrys,khrys.svg,,I bought way too many lululemon pants over the last year to go back into the office,21-9-2021,4
44,Mort,mortbort420,,Screams “after the team works on it for 2 months we’ll present it to the 60+ year old C-suite to see what they think for the first time”,21-9-2021,1
45,saxxie.dev,saxxie.dev,,"I've decided to read ""business casual"" as ""t-shirt""",21-9-2021,9
46,Caroline,crawlita,,the audacity of asking for business casual when we have the option not to wear pants,21-9-2021,2
47,Luke,t1mewizard,,This is almost exactly how my capital one recruiter call went,21-9-2021,13
48,Incel with GF,no_tocar,,"1 time I started a job that had a business casual dress code. When I showed up all the Dev’s were in shorts & T-shirts, only client people dressed up",21-9-2021,1
49,Ronald S,ronaldstew,,I add on an extra cost per hour for dressing up,21-9-2021,2
50,Scotty Doesnt Know!!,scottydoesntnoe,,Good thing yall gonna be automated soon,21-9-2021,1
51,ProfYoak,profyoak,,This is called being spoiled as hell,21-10-2021,0
52,James Nguyen62,jnuge,,why have a big work office when you can work from a work house?,21-9-2021,0
53,FoodFighterZurich,foodfighterzurich,,"dressing up for interviews is so 1980s, so no.",26-9-2021,0
54,user4980838083682,fixer0002,,Agree. I don’t have a problem having a dress code for meeting clients but not for everyday.,26-9-2021,0
55,victoryforphil,victoryforphil,,Software out here really destroying old office culture 😎😌,25-9-2021,0
56,David M.,happynacho,,"If they have a business casual DC for developers, it’s a shit place to work.",23-9-2021,0
57,yourcalicocat,yourcalicocat27,,Bro they told about a drug test AFTER the second interview and I said he’ll no,22-9-2021,0
58,LeonLéDon,leonledon,,"if I can't walk around my house in my draws while working, then I don't want the job",21-9-2021,0
59,user5609883802872,atticusred,,Or how they think they're being quirky asking what kind of beer you drink.,21-9-2021,0
60,user4108255302484,needs_a_laugh,,It’s a no for me too! Come work remotely with me at Okta and wear what you want!,21-9-2021,0
61,HonorAndProfit,honorandprofit,,"I personally just keep a dress shirt on hand and pop it on as needed for meetings with anyone above me, but not peers.",21-9-2021,0
62,Hummus,babaganoush11,,Do none of you takes pride in the way you dress? There's more to style than baggy and unflattering jeans and hoodies.,9-10-2021,0
63,ccodfp,ccodfp,,"you’re paying me for my labor, not dress up. if you don’t interact with customers physically & directly, there is NO reason for it.",9-10-2021,0
64,BloodyGreedy,bloodygreedy,,Imagine not being a woman and actually struggling hard to get a job in STEM because companies fight their gender gap with not hiring male engineers.,9-10-2021,0
65,Finster Dexter,finsterdexter,,Yeah 1975 called they want their dress code back,22-9-2021,0
66,Ryan Slater,theryanslater,,@brookiea_,27-9-2021,1
67,kiara,cheeky_shiba,,✅✅✅,23-9-2021,0
