,Comment Number (ID),Nickname,User @,Comment Text,Time,Likes
1,Sick Ballin',thesickestballer,,"I guess SIGKILL is fine, but SIGABRT isn't",4-11-2021,154
2,gerardorodrigue6492,gerardorodrigue6492,,Trying to Ctrl-C with Plan-B but Governor-A said no way :(,4-11-2021,97
3,Aidan Burnside,adbabyeagle,,Why is no one talking about how the first result was how to abort puppies?!,6-11-2021,4
4,Joe Colasurdo,joecolasurdo4,,"Hmm. This must be why AWS doesn’t have an AZs in Texas. (Im not counting edge locations, their datasets are probably less than 6 weeks old)",4-11-2021,23
5,Rana_Loca,rana_loca21,,apparently I can't delete my word doc because it has the potential to be a medical journal that finds a cure for cancer 🙄,10-11-2021,1
6,Iris,duckisu,,💀💀💀Hello from a Dev in Texas. This is comedy gold.,4-11-2021,12
7,shiftmeasure,shiftmeasure,,this is comedy right here,4-11-2021,44
8,CougarBrah,cougarbrah,,Lmao this is underrated 😂,4-11-2021,3
9,user443021785521,shakesalot,,people who don’t understand the law 😂,4-11-2021,2
10,Pranav Ramesh,hhydcc,,Bro,17-1-2022,0
11,Chris,java4yomama,,YOOOOO PEAK COMEDY,4-11-2021,1
12,mury,amrimur,,How did you start coding? Courser and stuff… Thank you,4-11-2021,1
13,user7817709215750,zeroprofit.000,,"Be afraid, be very afraid",4-11-2021,1
14,Danalyst,danalyst,,#nopoliticsontiktok,5-11-2021,0
15,Phantom,friscophantom,,I lol'd,9-11-2021,0
16,Ryan Lee,ryvn.lee,,LOL,6-11-2021,0
17,Ikiris,ikiris_fallen,,As long as you make sure it doesn’t have a heartbeat you’re probably fine 😂,5-11-2021,0
18,user9911293011094,gizm04life,,Peak comedy,5-11-2021,0
19,JreeYu,jreeyu,,“Ur”,5-11-2021,0
20,Andrew Bowen,andrew_bowen19,,Row Operations vs Wade,5-11-2021,0
21,laser,laser8000,,how to abort a child (process),8-11-2021,0
22,Rami Al-Chacar,ramikazi,,How to abort a puppy?? 😂🤣,9-11-2021,0
23,Fey6678,fey6678,,"no wonder your a bad programmer, you never abort, you just kill the orphans",5-11-2021,0
24,McNuggies,klovingmcnuggies,,How to fork parent and k1ll child.... process,29-11-2021,0
25,Erick,erock__,,I thought you were going to shoot it 😂,23-1-2022,0
26,Sean,misterbethel,,"killall -f ""last bit of hope we had""",5-11-2021,0
27,jimjam,jimjam5227,,I’m curious about the rest of the results if you exclude your git search suggestions.,5-11-2021,0
28,Jitin,hiforj,,@missqt317 😂😂,29-11-2021,0
29,Nchloasi,fcuboi,,😳😳😳😂,4-11-2021,1
30,wiz.anand,wiz.anand,,@𝓮𝓶𝓶𝓪 ッ,5-11-2021,1
31,None of your business,sultanworldwide,,💀💀💀,4-11-2021,1
32,Roy Campell,a4xzfxerdvrdaxvs1475m,,Ctrl C,1-2-2022,0
33,ليث,1ai7h,,W,4-11-2021,1
34,Ijyoyo,ijyoyo,,Hahahaha,4-11-2021,1
35,Jordan,teslaftw,,I don’t get it,4-11-2021,0
