,Comment Number (ID),Nickname,User @,Comment Text,Time,Likes
1,No,murlocslayer,,"Gives ""female tech bro"" vibes and I mean this in the most complementary way possible",12-2-2022,5
2,MCaud,mcaud,,I guess filming reality would be boring. A true software engineer wakes up 1 min before sprint meeting.,17-1-2022,1044
3,Andrew Kessler,andrewkessler7,,as a software engineering my routine lately involves much more pokemon playing.,17-1-2022,96
4,user793460785953,rn719962,,nothing to do with software engineering 🤣,17-1-2022,1254
5,australianmango,australianmango,,matcha and brown sugar?? i need to try😭,17-1-2022,11
6,Cal,uniteddairyfarmers,,"i have an ember mug too, its cool but idk if its worth the price",17-1-2022,53
7,Yikes,tired_eggy,,I wake up 2 minutes before standup 😅,17-1-2022,3
8,GettingThingzDone,gettingthingzdone,,Y’all get sun 🥺,17-1-2022,271
9,Meals,momma.mmmeals,,mine is staying in bed until 3 mins before stand up 🥴,17-1-2022,4
10,shawoo,shaawooo,,you had me at skating in the house,17-1-2022,14
11,Ashley Norman,acinnababe,,You should try matcha with maple syrup . Some reason the darker sugars so well with matcha🥰,18-1-2022,15
12,Josh,iz.joosh,,did u buy the house or build it?,17-1-2022,31
13,sirwilliamlxix,sirwilliamlxix,,Lol I wake up 5min before my standup 😳,18-1-2022,3
14,desmondAC,desmondac,,only 1 monitor? 😬,17-1-2022,167
15,Osman,osmanreborn,,Turning my software into hardware 🙇‍♀️,17-1-2022,1
16,k b,donalddarko,,Palm trees and a blanket?,17-1-2022,11
17,rockstar13,rockstar90121,,"Question, since you’re sitting down most of the day, what office chair do you have? I get back/shoulder pain - wfh problems",17-1-2022,1
18,Outcom,lolastick,,What degree do you recommend for software engineering?,17-1-2022,2
19,Uf,sm_wallpapers,,Con you be software engineer without going to uni ?,17-1-2022,1
20,Halpert Erik,erikhalpert,,It's funny how different people daily routine can be soo similar!,14-3-2022,1
21,Blank,itsamemariooo64,,(X) doubt,17-1-2022,5
22,Shh they can hear 👀,christianpim,,What kind of computer do you have,17-1-2022,1
23,ElRisas,elrisas600,,cafe y cigarro muñeco de barro,31-1-2022,43
24,Colita Master,doncolas,,vaya entonces porque yo despierto con ansiedad y llorando🥺,17-1-2022,78
25,User:8572851563,user8572851563,,XDD ta jasne,3-2-2022,7
26,Mo,mo_aliali1,,Borro Babba,18-1-2022,1
27,iGRIEGA,1.5metros,,Cómo bien diría nuestra amiga Pinky Pie: ✨ay ajá 😒✨,17-1-2022,9
28,Jiménez Irving,irvjck,,mi novia no hace eso....😅😅😅,12-3-2022,1
29,You can call me Crook,vinniethecrook,,Lmaooooooooooo def not your usual SE,11-3-2022,1
30,Joseph Ofonama,josephofonama,,Wat did you drink?,24-3-2022,0
31,0×AstroHuman,0xastrohuman,,I love Matcha,12-3-2022,0
32,miguel dias,buedaswag,,This reminds me I wish I had a US salary 😅,12-3-2022,0
33,Ph. Ex,phaorex,,Ippodo?,11-3-2022,0
34,Nas,nasimk1,,okay but drop the link for the cup?????,11-3-2022,0
35,Elias,liapez137,,where did you buy that matcha shaker?,11-3-2022,0
36,VitaliySuh,vitaliysuh,,And after that you hearing alarm and woke up 😂😂😂,11-3-2022,0
37,Pavel Cabrera,pavelcabrera,,the music is 🔥🔥🔥,10-3-2022,0
38,RaizoKuzuri,raizokuzuri,,"Something is not right with this software engineer…. One screen, have energy to stretch and prepare juice …. You usually get tired n look for sugar 😅",10-3-2022,0
39,rideordie2687,rideordie2687,,"I want to change my career from nursing to software engineer,",17-2-2022,0
40,Alfalfa Buster,alfafabuster,,Only if you live in SF.,4-2-2022,0
41,Paktrax,pktrx,,pro,23-1-2022,0
42,stepbackszn,stepbackszn,,I stan,17-1-2022,1
43,T,unstreamable,,i gasped when she opened the blinds 😱😍,17-1-2022,1
44,G.,mood9963,,omg i love you,17-1-2022,1
45,PonziFA,patou123456,,The girl thinks she s on Instagram,23-1-2022,1
46,George Fiotakis,georgefiotakis,,Well that’s totally inaccurate 😂😂,19-1-2022,1
47,Sir Bert,sirbert5,,Knowing how my friends shoot 🏀 that window would not be safe 🥰,18-1-2022,1
48,🇳🇵chhetri🇮🇳dilip🇺🇲,chhetri.dilip,,"not sure. My morning starts at 9:00am when I take meeting call from bed, breakfast at 10:30am or so.",23-1-2022,1
49,user4308245029900,segfaul.t,,what is that drink?,18-1-2022,0
50,Philithid,philithid,,im literally waking up and start working lol,18-1-2022,0
51,Nathan Puch,boiler_123,,Where do I get one of these,22-1-2022,0
52,Vanssarse,vnssarse,,Do u need to study 4 yrs CS to be SWE,11-5-2022,0
53,nosaki.x,nosaki.x,,"Cap, i dont see enough dailys and 2 hour meetings",6-4-2022,0
54,torrever,torrever,,life without kids😅,22-3-2022,0
55,VitaliySuh,vitaliysuh,,What is this green thing?😳,11-3-2022,0
56,REPLit,misosoup2273,,Yes. A whole lotta yes. Funky beat is ice cream in the background.,21-3-2022,0
57,Lexiuz,lexiuz,,"Yo escribo ustedes completan :
Primer....",12-3-2022,0
58,Skye,skyeflowerpower,,Falls off skateboard & breaks tail bone is me 😂😂,12-3-2022,0
59,fernando quiñones,ferdinand1987,,what's that green thing in your cup?,12-3-2022,0
60,dy8gvyiw3nj0,dy8gvyiw3nj0,,Nice routine ❤,12-3-2022,0
61,Montgolious III,final.front.ear,,"As a software engineer, I recognise none of that. Apart from sitting in front of a computer at some point.",12-3-2022,0
62,Francis,francisx10,,me dijo pobre solo por preparar un cafe,12-3-2022,0
63,I taste better than you think,death_on_toast,,Speak for yourself woman!,12-3-2022,0
64,Knight,knightm4re69,,lmao 🤣 i would very much like to see what softwares you engineer,12-3-2022,0
65,user0000000069420,user0000000069420,,As a project manager I can confirm this is all software engineers do in a day.,12-3-2022,0
66,Johan Hasslevall,hasslevall,,Nice taking the board to the office!,12-3-2022,0
67,ah haha,jakob._.n,,Bo burnham - White Woman's Instagram,12-3-2022,0
68,Yano,yano_kitsune,,You have a morning routine? I just wake up on point and start everyday with a meeting 😂,11-3-2022,0
69,Yannick Erpelding,concentratedcake,,Green text color? I doubt it😂,11-3-2022,0
70,Psy Epileptic,psyepileptic,,"yep, Just like that. u miss videogames after work",11-3-2022,0
71,Ano Niem802,omgtikkertokker,,A true software engineer rolls from bed to laptop in 1 minute time and only goes out of the room for food and coffee,11-3-2022,0
72,Michael Ken Nielsen,michaelkennielsen,,First meeting at 1 pm means you are not a software engineer. You are gonna have some sort of standup meeting in the morning unless you are working on,11-3-2022,0
73,TalentlessHack,tiktok_recruitiment,,I would like to be included somewhere in the morning routine please,11-3-2022,0
74,マルチン,mrtnjbst,,what have you done to this precious matcha😬😬😳,11-3-2022,0
75,Simion Oli,olitds,,Children? Where are your triplets?,11-3-2022,0
76,Fa Bass202,fabass25,,yeah 💪,11-3-2022,0
77,boolysboo,boolysboo,,"My morning routine in IT support:
1. Put toaster in bath
2. Curse UK electrical safety",11-3-2022,0
78,Anders Holmenlund Mi,amilling,,You gotta have a big house for you to be able to skate around in it 😂,11-3-2022,0
79,Gin,devgin,,So normal,11-3-2022,0
80,CalmSpooon,calmspooon,,All you Yogies are the same. Perfect copies. Amazing.,11-3-2022,0
81,haijim,haijim,,twerk,10-3-2022,0
82,_Kajal_,_kajal.06_,,Where’s that wallpaper from 🥰,10-3-2022,0
83,rickgeek0,rickgeek0,,I do want to live the dreams pool boy,4-3-2022,0
84,VickaZz,vickazz8,,Absolutely nobody 😂,1-3-2022,0
85,Arthur Zhuk,ug02fast,,We’re so similar,27-2-2022,0
86,The Tech Leaders Podcast,thetechleaderspodcast,,So inspiring!,21-2-2022,0
87,Kevin Kim,kevkim,,what was that thing you put the cup on 😳 does it keep your drink warm???,15-2-2022,0
88,Roman5443,wizerwings,,wow u so rich,6-2-2022,0
89,Dakota Malchow,dakotamalchow,,You don't lower the basketball rim and get at least 10 dunks in before work???,4-2-2022,0
90,SmartedPanda,smartedpanda,,the blanket doing work,3-2-2022,0
91,—,dna0311,,"I’m software engineer I don’t do that, I wake up 2 mins before the standup",3-2-2022,0
92,DPM,z_no0,,Am I allowed to have this morning routine if I have a different job?,3-2-2022,0
93,TooOldForThisApp7,toooldforthisapp7,,"As a software engineer I can tell you I wake up 4 minutes before my first scheduled meeting, whenever that may be, and do none of this",3-2-2022,0
94,Spencer Smith,spencer_recneps,,Ember is 10/10!!,3-2-2022,0
95,Rick,rick895,,Is that brown sugar?,2-2-2022,0
96,Midnight.Mercury,midnight.mercury,,the blankie...I feel that,1-2-2022,0
97,bruh,...shavvn,,I’m tryna be like u,29-1-2022,0
98,theo sieber,treekangarooorgeee,,Someone best be getting good use outta that hoop,29-1-2022,0
99,ecab,ecabmydude,,Twerk,29-1-2022,0
100,Anonymousweirdo,shadowhunter695,,I'm a software engineering final year student. can anyone suggest me a good final year project?,29-1-2022,0
101,Spooky,spooky_kyle,,HOW THE HECK DO YOU GET A JOBBBBB,24-1-2022,0
102,RowRow Walka,rowrow3rd,,Still wouldn’t trade my job for that 😂,24-1-2022,0
103,0x45,0x45h,,lost me at morning,23-1-2022,0
104,user1431799643876,ash2ashes00,,"Please, be my mentor",23-1-2022,0
105,Cat Dad,da_cat_dad,,and I'm waking up 5 mins before my standup meeting. pffff,19-1-2022,0
106,Nit Picker,nit.picker,,"Gone are the days when software was about coding, it's about being cool, drinking matcha, talking diversity and no lines of code.",18-1-2022,0
107,Tomk,tomkk71,,You are inspiration 🥰🥰,18-1-2022,0
108,Tim 🍎,timblokzyl,,this seems about right to me,18-1-2022,0
109,irwinb1979,irwinb1979,,Good routine,18-1-2022,0
110,Aaditya Mandal,adimatter,,are you skating in your house 😳 im a fan,18-1-2022,0
111,user8580895233510,user85808952335101,,What language do you do most of your work in?,18-1-2022,0
112,Aaron Bopp,aboppy,,where do you get your matcha?,18-1-2022,0
113,Will Okano,okanowill,,Indeed a work of art,18-1-2022,0
114,SherylSaravia,sherrycolacoke,,"I need an ANSWER, so you use physics and calc on your job as a software engineer?!!",18-1-2022,0
115,Cfive.co.za,cfive.co.za,,Wheres the engineering part?,18-1-2022,0
116,Carter,cm.meadows,,Embers are fantastic,18-1-2022,0
117,maxwelllio,maxwelllio,,Flexing that ember mug much 👀,18-1-2022,0
118,Erik Umenhofer,firebellys,,hurry up that jira backlog isn't going to code itself,18-1-2022,0
119,Cladquintero,carlosquintero_,,I should do one of these but it’s just me walking over to my desk at 9:29,18-1-2022,0
120,3CloverLeaf,userus8ynzqx1g,,I just wake up 2 mins before work and start 😳,17-1-2022,0
121,Nirues Benildus,cyber280,,hi love ur vids quick question can you be a successful software engineer with a college advance diploma instead of university degree,17-1-2022,0
122,linxbrick,linxbrick,,You hoop?,17-1-2022,0
123,BeardedDadBod1981,beardeddadbod1981,,Yea.... I'm gonna bet she hasn't written a line of code in years,17-1-2022,0
124,AZ Dodger,azdodger,,Got an Ember mug for Christmas and now I can’t live without it,17-1-2022,0
125,TheMadCloakTTV,themadcloakttv,,And here i am as a software engineer waking up at 8.55am make a coffee and start working 😂,17-1-2022,0
126,😳😳,unsanitized,,what’s the name of the matcha?,17-1-2022,0
127,Tristan Bemert,bitbytebit42,,Marry me😳,17-1-2022,0
128,Bryan Alicea Nazario,neglectedwithpotential,,living the dream 🥺. I'll get there one day,17-1-2022,0
129,Addy,addscam,,Can you show your matcha recipe plsss,17-1-2022,0
130,Melody,ilikecyberpunk,,The dream,17-1-2022,0
131,Litz,chickennuggies69420666,,Hi,17-1-2022,0
132,Jif1010,jif1010,,I think I’m in love,17-1-2022,0
133,Jose,hoe.say,,I made a game on scratch one time,17-1-2022,0
134,Nyx_02,nyx_2,,I MADE IT,17-1-2022,0
135,Josh,yesjoosh,,What that,17-1-2022,0
136,hamburger buns,burgerbunsham,,What’s is your degree in?,17-1-2022,0
137,amelia,melio.pdf,,i hope this is what i’m doing when i’m older 😮‍💨,17-1-2022,0
138,.•*,hi.maev,,Where is the matcha?!,17-1-2022,0
139,Max,maxvision_,,"i love these type of videos (sharing routine). your yoga ""mat"" has mine beat bigtime! nice",21-1-2022,0
140,Ektadizzle,ektadizzle,,I have a standup at 8:30 and I literally wake up at 8:29.,21-1-2022,0
141,marc !,monetcache,,Damn i really need this cybersecurity cert to come thru,20-1-2022,0
142,HiddenKitten01,hiddenkitten01,,Am I doing matcha wrong by just stirring it into the water?,18-1-2022,0
143,Peek,goodborp,,Most complicated drink bro just drunk oj or water lol,18-1-2022,0
144,sidwilroy,sidwilroy,,I do absolutely none of those,18-1-2022,0
145,Yd,mrkz53,,right... this is of,18-1-2022,0
146,6024 x 4016,only6k,,Can I be your Filmmaker Boyfriend,29-1-2022,0
147,user796810121493,bagoony,,Hella sugar!,29-1-2022,0
148,gas_fit,gas_fit,,I’m always wake up to 500 JIRA issues,25-1-2022,0
149,Souff B,souffb,,I'm feeling the vibe,24-1-2022,0
150,visva,visva_05,,I think I have fallen 🥺,24-1-2022,0
151,NJ,nigelrankin,,"IRL as a dev with kids, I’m lucky if I get time to make a cuppa tea in the morning rush to get them ready for school 😂",24-1-2022,0
152,ProfYoak,profyoak,,1. Most of that isn’t from her money 2. These types of people are the same ones as the “5 steps to get rich quick!” Type of people. Just view bait,24-1-2022,0
153,Tobias Isaksson,dr.debase,,I wake up 10 minutes before stand-up at 10 AM. During those 10 minutes I slowly get dressed and take a glass of water up to the computer.,24-1-2022,0
154,fv,fvredag,,Y’all this isn’t reality. They are glamorizing it. I am a swe too,24-1-2022,0
155,anyway,lukasgilbert8497,,"are you saying you’re so rich you have skateboard around the house, cause of how large it is",23-1-2022,0
156,rauko23,rauko23,,"need money for this life, not real.",23-1-2022,0
157,emdjeih,emdjeih,,The electric plate… 😕,23-1-2022,0
158,Aiham Hmade,hokageaiham,,How did y’all pass math courses,22-1-2022,0
159,FergBerg,fergberg,,she use software on one screen😅,22-1-2022,0
160,Dominik Kurbiel,user6453676842229,,What’s that green powder,22-1-2022,0
161,S,....hxrt,,Is this satire?,22-1-2022,0
162,Garvežiukas Tomas,garveziukas_tomas,,"can't relate, I get out of bed 30s before a meeting",22-1-2022,0
163,ScottyPlop,scottyplop,,Ma’am this nice but why are you skating in socks??? That’s how you lose a toe. Cool life though 💪🏻👍,22-1-2022,0
164,Angelo Fernando,angi5588,,I wonder how you get all this time to do all of those 😒 can you hire me to ur company 😏,22-1-2022,0
165,Ben Todd,spacebearmeditaions,,I’m a software engineer too,22-1-2022,0
166,Anjelica,anjelica______,,What leggings are those? They look so good!,22-1-2022,0
167,Cpt Dizmember,cptdizmember,,what is that green stuff?,21-1-2022,0
168,user235568,user23556873,,This is the life,20-1-2022,0
169,ccorey,coreyeaso2,,House tour?,20-1-2022,0
170,Di,sadwitch669,,this is not how my morning looks like 💀,20-1-2022,0
171,misshilton420,misshilton420,,"This has nothing to do with being a software engineer, just say it’s for content and go 💀💀💀",18-1-2022,0
172,appleuser89342852,i_have_diamond_hands,,marry me 🥺,18-1-2022,0
173,69420,6senpai.9,,Yikes,18-1-2022,0
174,user043691,yuyunbunai,,Lmao 😐,18-1-2022,0
175,gme483,gme483,,1 screen?,18-1-2022,0
176,Naveen,tictictick,,Work of Art 😳,18-1-2022,0
177,sca ne,antilopenstyle,,Ich der dachte: Was ist das fürn komisches Ott,12-3-2022,0
178,Ismael Urdaneta,ismaelurdaneta,,Is this true? @lucam7575,8-2-2022,0
179,Michelangelo,pillowparty3000,,What is that monster thing under your desk?,11-3-2022,0
180,i.amace_,i.amace_,,You know damn well this ain’t nothing like a software engineer morning routine,11-3-2022,0
181,Miłosz Zając,milosz.zajc,,cant belevie she is anythink engeener xd no way,11-2-2022,0
182,Dylan Turner,the_uke_dude,,Wish I was this productive in the morning. I wake up and get on my standup on my phone while still in bed lol,6-2-2022,0
183,J,jw8675309,,Damn so you not even gonna go outside and shoot a 3 with that setup,2-2-2022,0
184,KendoCocaine,kendococaine,,And?,24-1-2022,0
185,PMPoeItems,civiljawner,,"Nobody move there’s blood on the floor, and I cant find my heart",18-1-2022,0
186,Wasiq N.,wasiq0326,,just say My morning routine.,17-1-2022,0
187,TheElPanda,theelpanda,,Do you just pennyboard everywhere around your house? 😂,17-1-2022,0
188,on god,neverlamp,,god Im so tired of techtok,17-1-2022,0
189,Владислав,vladku5,,can i be your day route too?,21-1-2022,0
190,mmmm,dont_click_my_profiles,,"why is everyone on tiktok bragging about being software engineer, they will always find a way to tell u they are software engineer.",26-1-2022,1
191,praxe4,praxe4,,@darkderek01 on Telegram is a real vendor I can’t believe my eyes that man too real Go on his Telegram He you sell credit card with high balance💯,8-3-2022,1
192,TheShyGuys,theshyguys,,As a SSE I wake up 5 minutes before standup lol,17-1-2022,2
193,sinosuque,sinosuqu3,,elige 5 números del 1-50 y 2 del 1-12😳,18-1-2022,0
194,LEpEX | Leon,leon.lpx,,thats cap way to much Sun light,11-3-2022,0
195,-__-,peanut.arbuckle,,Please post the drink recipe!,2-2-2022,0
196,Coro,coroclash,,"Like if really just wake up 20 mins before work, stay in bed until five mins before work, then go to your laptop. Shower an hour after start work lol",19-1-2022,0
197,Fardad Hajirostami,realwafflez,,this is fake news,18-1-2022,0
198,Yung Yoder,yungyoder,,I work from my bed until noon lmao,19-1-2022,0
199,Николай П.,starfallda,,"Just woman videos, keep scrolling…",12-3-2022,0
200,SuperUgly,510frisco,,Ew,29-1-2022,0
201,hshhahzzs,hshhahzzs,,most of the software engineer i know are fat and bald . All the software engineer in tiktok wake up early meditate and go to gym and eat crappy food,19-1-2022,0
202,juan79925,juan79925,,I just roll out of bed straight to the desk,21-1-2022,0
203,xo,xo_ch,,that subtle flex 😭,17-1-2022,1
204,Luca63455,luca63455,,Smashing it,11-3-2022,0
205,Kevin,bootchy981,,"Damn, that house so big you use a board yeah?",11-3-2022,0
206,Hermann del Campo,hermann.delcampo,,That’s the purest and honest demonstration of my daily work …,11-3-2022,0
207,@JaydeeSan,jaydeesan,,"I suck. Not to sound stupid, if you’re one of those people irritated at questions, but what resources do you recommend for coding practice?",18-2-2022,0
208,Bro,bro_how_to,,"habe nothing to do with being a SWE tbh , my morning is full of back pain , lots of coffee, and a lot of prep for the day and a shitty meal cuz time",4-2-2022,0
209,adrianhurta94,adrianhurta94,,do you take interns?,3-2-2022,0
210,Andrés Reyes,userwqdb0xfq1w,,as a software engineer... this is a goddamn lie,3-2-2022,0
211,Some guy,gotozero0,,Ye gods. Don't make me duet my miserable existence,29-1-2022,0
212,banoczyg15,banoczygergo,,"Im studying to become one, but I dont drink shrek juice",22-1-2022,0
213,Slashbin,slashbin_fr,,"lol my software engineering routine is coffee +c,nnabis blunt + checking my servers + checking charts for bitcoin",22-1-2022,0
214,Baja Funyon,bajafunyon,,Why is it that software engineers think anyone gives a flying fuck,21-1-2022,0
215,user547746836523,hildebert87,,Lol to healthy 😂😂,20-1-2022,0
216,Av,tmb745,,"Did you do internships before landing your Amazon job? If so, what kind of internships? I’m not sure what is an acceptable enough internship or not",19-1-2022,0
217,Eune01,eune01,,POV: absolutely false you wake up and go straight on your computer because you dreamed how to solve the problem 😁,18-1-2022,0
218,Nicky P,bunglife,,definitely thought this was gonna start with breaking some ankles with some sick crossovers,18-1-2022,0
219,Josehara1,josehara1,,more like rich routine 💀,17-1-2022,0
220,edude03,edude03,,"Using yoga pants for yoga, that’s shockingly rare",17-1-2022,0
221,R,rykbe,,'My morning routine' would have sufficed. No need to flex your trendy job.,17-1-2022,0
222,Will Cotton,willofthecotton,,just showing off your physical possessions and not your skills 😂,17-1-2022,0
223,Apple Turnover,appleturnover5,,Lord that looks so boring,17-1-2022,0
224,DaRock,darock_reacts,,Nobody cares+Ratio+L+Nobody asked,23-1-2022,0
225,Santiago d'Azevedo,santiago.azevedo,,how do you do yoir matcha?,11-3-2022,0
226,Carlos,mr305regional,,"The matcha was spot on, but I rush it",24-1-2022,0
227,garryb,garrybr,,Need that matcha tutorial,18-1-2022,0
228,roybotnik,roybotnik,,I'm losing my mind it's so boring. I've been doing this for 15 years,24-3-2022,0
229,Axel L.,axell300,,"so long until they start doing shit, work voor 14 minutes then they burnt out and need 7 weeks of 'me time'",12-3-2022,0
230,blank,skaffah,,wtf I am an software engineer and my morning routine is completely different! how is this possible... that's crazy,11-3-2022,0
231,Cah,cabacula_,,Aka you do nothing,30-1-2022,0
232,Chris Clark,chrisclark710,,Fake news,27-1-2022,0
233,rhrhhrr,ppeppepspepepeep,,fake news,24-1-2022,0
234,Sean,misterbethel,,This is a good joke. A great joke even. But I have to ask you to stop anyway.,18-1-2022,0
235,Angie 🌞,amor.xandra,,So jealous of the sun 😭 it’s so grey in Georgia,17-1-2022,0
236,Adrian,caboose289,,aaaaaaaaand now I hate my life more,17-1-2022,0
237,Kovács Jancsi,johnjanos,,"{>>"" # How long time (( ' junior software enginner going up in senior? "";}",16-5-2022,0
238,Zak,zakishii,,Step one: oversexualize yourself for male attention,17-1-2022,1
239,My name is Sal,immustangsally,,"Let me guess, new grad? Lol give it 2-3 years and you’ll miss standup just sleeping in because you won’t gaf anymore",14-2-2022,0
240,ianmccourt652,ianmccourt652,,Guys this is unrealistic. Your doing enough,24-1-2022,0
241,MrMoe,dahabibiboy,,literally anyone could do this. DO BETTER,23-1-2022,0
242,Geoff French,geofffrench,,You literally make my click click go quick. Get over yourself.,23-1-2022,0
243,user6863424097413,swizzydangies,,"Out of curiosity, did you employer verify your degree or did you pass the coding interviews and didn’t care?",17-1-2022,0
244,user5453909611950,koalakuun,,Ur trying way too hard,17-1-2022,0
245,juan benavides,juan._.benavides,,"stop promoting the false image that software developers are morning people, I really can’t do it",21-1-2022,0
246,bluePalmBalls,bluepalmballs,,"Doesn’t look like a software engineer - someone who spent summers in math camps, 4 years of hardship in college and now spends 10 hours a day …",21-1-2022,0
247,humor,humorouscoder,,not if you work in marketing,22-1-2022,0
248,longliveiran,long_live_iran,,🧢,16-2-2022,0
249,tasos,tasos_kv,,@sorkouk,22-1-2022,0
250,user9052977260443,xq_si_ken,,🥰🥰🥰,18-1-2022,0
251,Rfhjddhiffugf,bgddtuokhgrdd,,😳,17-1-2022,0
252,aaronrobles117,aaronrobles117,,@no_digas_mmds_mary_jane,7-3-2022,0
253,Supervillain,supervillainkani,,Y’all’s matcha routine is more complex than most girls daily makeup,13-3-2022,0
254,user5964660380622,blazay_13,,"I usually just rub one out, and then approve a code review I spent less than 2 minutes reviewing",2-2-2022,0
255,Sam Ali Fishback,canibalstalker,,a cup warmer? why didn't I think of that??,27-1-2022,0
