,Comment Number (ID),Nickname,User @,Comment Text,Time,Likes
1,TM,arhemeinnoh,,That’s too much tech. You need tech cleansing 😂,9-3-2022,1
2,José Muñoz,david.yvr,,Drop the zelda for those breadboarding accessories pls,10-3-2022,1
3,DevHero | Heroic Devs Apparel,devherobrand,,5 computers 😅,25-4-2022,0
4,—,dna0311,,Ends up just using laptop to work,8-3-2022,32
5,alli (Taylor’s Version),fourlokosleepytimetea,,I’m screaming. Not only do I have a random tech box I think it’s the same fabric cube box that you have,8-3-2022,67
6,Emma Adams,emmajsadams,,does an ultra wide count as multiple monitors ... if so you described my apartment 😁,8-3-2022,12
7,Aeri,aerikim.com,,"Notice, there is no umbrella on sight 😂😂💕💕",9-3-2022,1
8,Leo,kingofmiami22,,wait... can you do vid on electric frisbee 😳,11-3-2022,2
9,josueraor,josueraor,,Do you need a roomie lol,4-4-2022,0
10,_random_ramblings,_random_ramblings,,"Not sure about the apartment, but you wanna grab coffee over the weekend? Apparently it will rain",3-6-2022,0
11,BigT,runningoutoftaim,,I have a few tech tote bags with unorganized wires and adapters. I'll take that.,6-5-2022,0
12,Zach McQuiston,imsteez,,Gf you gotta mount those monitors at least 😭,8-3-2022,2
13,CompSciLib Founder | Boston U,um0h_,,5 computers?!?,8-3-2022,26
14,emilyp,emilyp16,,I also have fabric cubes filled to the brim with cords 💀 and 5 computers,8-3-2022,7
15,kenneth kang,kenneth_kang,,Ugh I have all of these except standing desk. But I promise I am unique,6-5-2022,0
16,Krishna Pullakandam,kpullak,,Spot on,25-4-2022,0
17,Yash,z3kooo,,Superhot is so gooood!,8-3-2022,1
18,Rafael,rdoolit,,Issa vibe,5-4-2022,0
19,Founding Titan,shauryasworld,,I like this,8-3-2022,3
20,Moyinoluwa Agbalajob,moyiinnnn,,Please what are your tech stacks?,10-3-2022,1
21,tlqse,wkjwkspwjxhs,,Oh to be you😭,8-3-2022,0
22,nina <3,tokyofi,,you’re living my dreamm😍,8-3-2022,1
23,thoughtbar,thoughtbar,,your joggers where from?,31-3-2022,0
24,David Ovando,davidovando1,,Omg I have the same things 😂😂😂😁😁,20-3-2022,0
25,Conal Da Costa,dacostarepublic,,"I’m in Cape Town, South Africa and it’s literally the same life😂",9-3-2022,0
26,ChelseaKayWright🇯🇲,chelseakaywright,,Any ideas for affordable housing in Seattle im a new grad heading there to work at Msftt,2-4-2022,0
27,Dylan Turner,the_uke_dude,,I should get a new desk,31-3-2022,0
28,Sundi Dundi,sundidundi,,My apologies for this being off topic but how is it living in Seattle? Would you recommend it? I’ve had my eye on it recently for work and living.,16-3-2022,0
29,cris_cerv,cris_cerv,,So … do you ever go outside? Lol pretty sure all that tech is harmful to the body.,16-3-2022,0
30,Hussain Al-Radhi,ha4ever37,,OMG! I swear I do exactly the same 😂,15-3-2022,0
31,thalia ✨,deprellita,,Me thinking FIVE Computers??? Why? Also me: realizing I also have 5 computers 😳,15-3-2022,0
32,mastachaos7777,mastachaos7777,,Why why 4 monitors lol 😳😳,14-3-2022,0
33,JackieMoon180,jackiemoon180,,Could you spare a laptop?,14-3-2022,0
34,Sagehaze,saigehaze,,Girly I can’t to be like you,14-3-2022,0
35,user4558795791971,canchososabroso,,Ok... But where's Gaben?,14-3-2022,0
36,Karina Denise ⚜️,kari_95gm,,Did you go to UT?,14-3-2022,0
37,Ankit,clueless.prodigy,,Woah UT ECE sticker on one of the laptops 😳😳,14-3-2022,0
38,lactoseinsomnia,lactoseinsomnia,,Which VR headset was that? It looks different from the Oculus.,13-3-2022,0
39,mushrikeen,mushrikeen,,you play superhot ?,13-3-2022,0
40,7443chris,7443chris,,um electric frisbee :/,13-3-2022,0
41,nyiko050,nyiko050,,Girl you're living my life 🥺,13-3-2022,0
42,RealGlowingPear,realglowingpear,,Marry me,13-3-2022,0
43,Emily,verywet,,I genuinely want to know what the purpose of having 5 computers is for,13-3-2022,0
44,Swisher sweet,swishersweet21,,Yess this is what I want,12-3-2022,0
45,grouch5,grouch5,,I'm just a gamer and I still have all this stuff😂😂😂,12-3-2022,0
46,HeyItsInjoh,heyitsinjoh,,Where is your top from?,12-3-2022,0
47,generic.nikhil,generic.nikhil,,Makes me happy to see a Telecaster 😌,12-3-2022,0
48,MrDoorey,mrdoorey,,hahahaha the random tech box hit different,11-3-2022,0
49,AchillesKneel,achilleskneel,,make and model of electric guitar?,11-3-2022,0
50,Alexis,lex3nicole,,Engineer + frank moth wall prints + random tech box.. are we the same person 🧐,11-3-2022,0
51,osertcar,osertcar,,Are you an Italian 🥰,10-3-2022,0
52,ApandiBBQ,apandibbq,,I feel sad for you.,10-3-2022,0
53,HeHasRisen2021,.dev.nu11,,no coffee? access denied! 😂,10-3-2022,0
54,Zen04,zen0412,,Electric frisbee! Demo pls,10-3-2022,0
55,Wyatt,the_teck1015,,Can I be on your dev team?? 🥺🥺,10-3-2022,0
56,BargraphBitches69,bargraphsandbitches69,,Do you have any eye strain from being on the computer all day? Do you get to take a decent amount of breaks away from the screen?,9-3-2022,0
57,omarabiakar,omarabiakar0,,I SWEARRRRR … I am studying still but i feel this is my future😂,9-3-2022,0
58,justin06064,justin06064,,WAY too much tech for me. I’m in seattle area as well. The only jobs here are tech / IT,9-3-2022,0
59,Jayasruthi,jayasruthivr,,Not the code font!,9-3-2022,0
60,joeligraphy,joeligraphy,,Wait. This is too accurate,9-3-2022,0
61,user4765097317360,jojoker65,,In what language do you code ?,9-3-2022,0
62,Solstic Storms,solsticstorms,,i am attacked,9-3-2022,0
63,christosmatskas,christosmatskas,,I can totally relate…I suffer from the same ‘issues’,9-3-2022,0
64,Romeo3556774,subgero2021,,Ends up keeping old company laptops 😂,9-3-2022,0
65,Mike Roberts,mikeroberts419,,And still broke at the end of the month. unable to afford own house.,9-3-2022,0
66,bryanhitc,bryanhitc,,Fr tho I have like 5 computers and don’t even know how they got here?? It’s a problem,9-3-2022,0
67,GettingThingzDone,gettingthingzdone,,Marry me.. ? consultants just carry a laptop,9-3-2022,0
68,Ovrwrite,ovrwrite,,I might be moving out to Seattle for a job. How do you like it there?,9-3-2022,0
69,Kelsius⁷,kelsiuss,,not the random tech box 😂,9-3-2022,0
70,notreallyreal421,notreallyreal421,,I feel exposed 😭❤️,9-3-2022,0
71,Miah,miah_pelesci,,I m starting to like IT cus of u,9-3-2022,0
72,reddyrangana,enrajed,,"EPI is a ""light read"" 🥵",9-3-2022,0
73,pritikasawant30,pritikasawant30,,Lol m in texh. I feel like i need upgrade,9-3-2022,0
74,Axel,a.x.e.l.r,,Spot the flaw: breadboarding accessories? 😳 Interesting 🥰,9-3-2022,0
75,boi12543,boi12543,,Do you work for Amazon in Seattle?,9-3-2022,0
76,irwn,iamirwin,,Okay but 5 computerssss 😅😅,9-3-2022,0
77,kaguyasama101,kaguyasama101,,why does this almost describe my house and I'm in Boston 😭 #engineercore,9-3-2022,0
78,prakthakkar,prakthakkar,,Do you have Mac and PC too?? 😎😎,9-3-2022,0
79,Waltz,waltz.cpp,,"Random tech box is a must, never know when you’re going to need a random cable",9-3-2022,0
80,Kayla,virtualcrash,,company swag,9-3-2022,0
81,Ryan Austin,ryanaustinx98,,I feel attacked.,9-3-2022,0
82,user5017203895898,preitam_patel,,Epi🥰,8-3-2022,0
83,bhad berry,bhadberryx,,Box of random cords 😂,8-3-2022,0
84,Zubair Khan,reviewedbyzubair,,Breadboarding accessories but why??,8-3-2022,0
85,Cheddar,extracheeeese,,Super hot W game,9-3-2022,0
86,mkwmoses,mkwmoses,,Can you plug me with the standing desk link??,8-3-2022,0
87,user4395223662039,user4395223662039,,Why du need more than one? Stop ur brags. You are just fixing broken machine. A real SWE dont have time for these BSss!!,8-4-2022,0
88,imadethisaccountforu,imadethisaccountforu,,Wow! People like this are just spores of the disease that is the technobureaucracy and have been willingly absorbed into the nightmare for $$$,12-5-2022,1
89,Arjun Singh,arjunsinghh1313,,Breadboard? Are you in embedded?,8-3-2022,0
90,Omar Hamdan,omarhamdan198,,damn v accurate,8-3-2022,1
91,Josr,josr1134,,"Wtf it’s like being my apartment as well, also DO WE ALL HAVE TECH BOXES?! Cause I know 2 friends that do",8-3-2022,1
92,Georgemark0911,nasac10028,,"This is the biggest opportunity I had in the making from the comfort of my home counting the racks like never before "" @faithphillips0",9-3-2022,0
93,user6053494662536,vickid.guzman,,i got a successful withdrawal of 78k and I am so happy I didn’t listen to haters; I would have lost the opportunity of @stevenmrily,8-3-2022,0
94,mat,mat_mto,,i LOVE superhot,11-3-2022,0
95,Roman,royurboatz,,Go crazy,10-3-2022,0
96,loganbissonnette1,loganbissonnette1,,I feel personally attacked. Only thing you’re missing is the corovan boxes,9-3-2022,0
97,Vishnu Desai,seandenny81,,just show off,9-3-2022,0
98,Abdulrahman,ab94.7,,Wait.. umbrella??????,12-3-2022,0
99,davides_io,davides_io,,Not a single miss,12-3-2022,0
100,William Xie,williamxie2,,And I thought the 3 monitors I have is already a lot. 🤣,11-3-2022,0
101,Agustina Pérez Iriar,chicadelosjazmines,,that standing desk shows strength 😅,11-3-2022,0
102,rishu,rishu.mp3,,I have 0 of these things,10-3-2022,0
103,Code Drip,codedrip,,Lol realistic af,13-3-2022,0
104,"CEO, entrepreneur, born in 64",jeffrey_bez0s0,,and depression?,11-3-2022,0
105,Omosefe Chukwuemeka,omoseisreal,,This is accurate af,9-3-2022,0
106,IQarchnet,iqarchnet,,F R I S B E E,8-3-2022,0
107,Shasta_McCain,shasta_mccain,,Do you go out for like job trips or do you tend to spend most of your time at home. Do u like traveling?,10-3-2022,0
108,Lil 🌲,liltree987,,I'm a Canadian female software developer looking to land an entry level job and move to Seattle. can anyone help? thank you!,27-5-2022,0
