,Comment Number (ID),Nickname,User @,Comment Text,Time,Likes
1,Felix,ng_fck,,The motivation I need. also goodluck at your place of work,2-5-2022,594
2,Maaz Qureshi,maazqureshi890,,You better be right dawg or imma sue,3-5-2022,176
3,Vikas S.,viks2372,,so close to graduating Computer Engineering 😩,2-5-2022,348
4,Orlando Martinez,orlandomartinez210,,Preach it I spend 4 years in the library so that now I can spend my weeks at the beach 😏,4-5-2022,5
5,Jake,jkempt10,,"Huh?? Life gets easier after college?😂😂 Nah fam, I graduated with an ME degree and I PROMISE it does not get easier",4-5-2022,4
6,no,noyeet123,,Thanks but I’m failing rn,4-5-2022,2
7,Chris,java4yomama,,Ah thanks haha I need to study for this discrete math exam i have on wednesday,2-5-2022,44
8,takeajilpil,takeajilpil,,i wish i felt this way 😭 i just started so i guess i’m going thru a learning curve but i wish i was back in school 😭 swe is not easy,2-5-2022,94
9,Scumbag,scum_bag,,This better apply to CS too istg,4-5-2022,2
10,Joseph,supertrekpro,,"Graduating in 2 weeks, been telling myself this for the past months❤️",2-5-2022,25
11,Jerry,siemprewey,,Graduated Electrical Engineering and I can confirm this. Still loved college with all my heart though ❤️❤️❤️,2-5-2022,32
12,User,user2457919574,,Is this ur HOUSE,3-5-2022,7
13,Kevin,kevineatsbabies,,Too bad I’m a physics major going into academia,3-5-2022,1
14,Andrew,zdrummerboy,,"Sometimes I think about going for more gradschool, then I remember how chill my life is and think it’s not worth it",3-5-2022,1
15,Rosie,rfranci267,,Needed this reminder!!,2-5-2022,24
16,Richard Rivera,reversetanks,,Ima be going for my masters in information systems this fall so I guess I got 2 more years till it gets easier,3-5-2022,0
17,Gyasi Linje,gyasilinje,,This,3-5-2022,6
18,st,.ty2k,,For the lucky few😂,3-5-2022,1
19,User,valeriaabdala2,,thaaaaaaanks,2-5-2022,2
20,A,anjalisaraswatt,,@broc0lioli ur motivation,3-5-2022,1
21,edwardc120,edwardc120,,Isn’t this the case for most jobs lol,3-5-2022,0
22,Christopher Martinez,christophermartin425,,"Graduated from CE last year, can confirm this is true",3-5-2022,0
23,Av. Insurgentes 34,ladetrajeazul53,,"Which events are y'all skipping, we get invited to none",3-5-2022,0
24,David Rollins,davidrollins271,,Girls don’t like you that much more tho folks don’t get your hopes too far 😔,3-5-2022,0
25,Hanny,ha.nnyy,,Just counting down the days till I can reclaim my weekends and truly enjoy them,3-5-2022,0
26,Arunn,arunieeeee,,I am waiting for thisssssss!!,3-5-2022,0
27,jcer,jcer.._._,,do u know if genetic engineering is worth it? is it a job with great money or not so much conpared to other engineering fields?,3-5-2022,0
28,Vegputhy,vegputhy,,Do u recommend going to college for software engineering?,1-6-2022,0
29,Nabil,zermaatt,,Graduated a week ago and I am living the high life. Never felt better in my life.,28-5-2022,0
30,technologicallytay,technologicallytay,,Thank you for this Queen,26-5-2022,0
31,Nick,blankeyytv,,I’m in software engineering 2nd year after quitting a mundane previous career. Staying on task to have a better future!,18-5-2022,0
32,Noluthando,icesings,,just started cs but this is a nice motivation,15-5-2022,0
33,sydzz,dem.sydz,,It’s so crazy that I’m no longer up all night and I have weekends free 😭 I love it,8-5-2022,0
34,UhhWassup,blessedart1997,,Facts,5-5-2022,0
35,jbandz73,jbandz73,,Life get a lot less fun after College,5-5-2022,0
36,Carter Van Hammond,cartervanhammond,,AZ best state idc,4-5-2022,0
37,🤠marwa🤠,marsbars553,,Yay,3-5-2022,0
38,samayabowles,sab202012,,😭 thank you for this! I’m an adult student so this feels harder with responsibilities and family. My brother is having his first baby and I just,3-5-2022,0
39,Nivramlel,nivramlel,,Biggest 🧢 is that studying is chill and fun. Working in your late 20s without children is deluxe,3-5-2022,0
40,razuba_,razuba_,,2 more years to go!,3-5-2022,0
41,ME,fernnnaanndd0,,Got my last final tomorrow and then I graduate 😬😬 hopefully it’s true,3-5-2022,0
42,Chosen One,mysterygal35,,"Seriously though, it was a huge contrast for me",3-5-2022,0
43,Kaya,kayaj0nes,,Needed this,3-5-2022,0
44,Syed saud Humayun,saud2000h,,Well I hope so,3-5-2022,0
45,camdstszzie,camdstszzie,,i needed this tysm,3-5-2022,0
46,dark_tech5,dark_tech5,,Works at amazon lol,3-5-2022,0
47,christy_choma,christy_choma,,Graduating in 3 weeks and already secured a swe job just scared of my OS and computer networking finals,3-5-2022,0
48,maya,maya4.2.0,,Is the whole yard yours?!!,3-5-2022,0
49,alaa,exclusivelyalaa,,i needed this rn 💗,3-5-2022,0
50,Mohamad Amine,amindadream1,,i need to hear this so thank you😅,3-5-2022,0
51,Penny Devourer,penniesinmytummy,,"Mine got harder, but I make a lot of money so 🤷🏻‍♂️",3-5-2022,0
52,Norzilia 🌊🌳 नोर्ज़िलिया,norzilia_universe,,Needed this. Senior year is going to be 😅,3-5-2022,0
53,maddie,zapaline,,just what i needed to see right now,3-5-2022,0
54,amogh,amoghden,,I worked WAY less during my CS undergrad than I do now as a product manager 🥲,2-5-2022,0
55,Jose🫡,warluz18,,Thanks for the motivation 💀,2-5-2022,0
56,lookatthishighlighter,lookatthishighlighter,,So great to take Sunday easy and not be doing hw for Monday class 🙌🏻,2-5-2022,0
57,Javi Goons,javigoons,,i needed this. one more year of having to deal with electrical engineering then it’s easier,3-5-2022,0
58,🌹Shosh,get.over.it_,,Thoughts on bioengineering???,3-5-2022,0
59,Alexa Smith,alexa_amazonstolemyname,,😭😭,7-5-2022,0
60,Skylor H,skylorh,,Needed this,4-5-2022,0
61,grace,graceclop,,me with my cs final in 40 minutes,4-5-2022,0
62,Michael C255,climbmichael7018,,"This is truth, graduated in December of 2021. You get all that time back to relax",4-5-2022,0
63,tomm,wutdafuc,,needed this,4-5-2022,0
64,Mike,michaelstiktok69,,i love you,4-5-2022,0
65,BigNoseJew,lil_guzi_vert.0,,They literally tomorrow thanks g,4-5-2022,0
66,Martin Caceres,maich100,,About to graduate and preparing for finals and projects as an industrial engineer,4-5-2022,0
67,caleb smith,calebtocool,,Thank you finna take finals next week,4-5-2022,0
68,Cole W,cole.au,,you just gave me so much inspiration.,4-5-2022,0
69,Jacob,jacobscu,,AND DON’T FORGET THE $$$$$$,4-5-2022,0
70,Alex,alexmedtan,,How did you afford this after 3 years of working?! So impressive!,4-5-2022,0
71,Memphis Lee,memphislee7,,Man i thought life was supposed get easy after high school,4-5-2022,0
72,Evan Nelson,evannelson06,,"I need this thank you, ChemE is making me cry",4-5-2022,0
73,connorthompson,young_blizzy__,,Does it actually get easier after college tho lol?,4-5-2022,0
74,Ajey,yoitsmeajey,,hopefully this is true since I'm doing a SDE internship at Amazon rn and gonna continue full time after graduation,4-5-2022,0
75,Andrew Jones,andrewnjones2500,,Tomorrow is my last final ever :),4-5-2022,0
76,Gavyn,gavynmc,,I’m only in calc 2 and I’m screaming inside💀,4-5-2022,0
77,Wallop,cheetahflames,,I gotta exam tmr and should be studying but guess what I’m doing,4-5-2022,0
78,Ishaan Sharma,ishaan.r.sharma,,You have no idea how good this made me feel as an aero engineer,4-5-2022,0
79,dozi.3,dozi.3,,Bruh I’m in high school and it’s hell… you’re saying it gets worse from here?🧍🏾‍♂️😭,4-5-2022,0
80,Riley,litworthy,,This what I needed,4-5-2022,0
81,Ice,roefreezy,,Couldn’t be me… I’m a pre-med student,4-5-2022,0
82,JoeRys,j0exotic,,I needed this,4-5-2022,0
83,Jack,italianstig,,I’m seeing this during finals. Thank you for the motivation lol,4-5-2022,0
84,Ain’t nobody,like_nobody3,,I needed this the most fr 🥰thanks,4-5-2022,0
85,Laurence,laurencemet,,Business majors be like 🫣😎😂🤣,4-5-2022,0
86,Gamble,gamble819,,1 exam left!!!!!,4-5-2022,0
87,cayd,cayd0,,Giving me hope,4-5-2022,0
88,🪂,jundie88,,Needed this,4-5-2022,0
89,joshrav21,joshrav21,,Yeah I needed this,3-5-2022,0
90,Cleveland Lewis,cle.lewis,,Nah,3-5-2022,0
91,sahilk.2,sahilk.20,,🥲🥲🥲🥲,4-5-2022,0
92,Samer,samerai3600,,Needed this as an aspiring dental student,4-5-2022,0
93,Suave Bose,suavebose,,"Needed this, just got 2 more exams tomorrow and I’m done with sophomore year",3-5-2022,1
94,shewhocodes,_cybermorgan,,Are you expected to keep up with CE?,2-5-2022,1
95,Ahnaf Khan,ahnafkhan40,,So happy I’m not in classes anymore 😂,2-5-2022,2
96,Sunnyville,sunnyvillee,,Hol up that’s your place ?,2-5-2022,1
97,Baby boy juju,adoniaaas,,"I need a new car, anyway you can help me with that ?",4-5-2022,0
98,Logan14051,logan14051,,Do you pinky promise cuz I’m getting real sick of this shit,4-5-2022,0
99,Chris Quilla,chrisquilla,,"""life gets easier after college"" 🤡",3-5-2022,0
100,Nik,justshawarma,,"Fuck that, I’m trying to enjoy everyday I have on this planet. No day goes to waste, if I fail I fail",3-5-2022,0
101,JevonAllan,jevonallan,,this made me go back to studying,3-5-2022,0
102,Park,ceilingfan425,,surprised ur not working weekends at amazon,3-5-2022,0
103,super_guy118,super_guy118,,Felt this when studying for exams last week like 6-8 hours a day 😅,6-5-2022,0
104,Christopher Lamps,cronbron,,"Yeaaaa, no social life better not be permanent…",4-5-2022,0
105,4eyez,blue.check.marks,,Chemical engineering. Master distiller at age 22 :),4-5-2022,0
106,Sergio Serrato,sergevox,,Graduate in 2 weeks 🫠,4-5-2022,0
107,kingtimeeee,kingtimeeee,,you’re killin it honey!,4-5-2022,0
108,thiccychrissy2,thiccychrissy2,,Finance majors often ignore the extremely low job satisfaction in their field. Much rather be a lil stressed for 4 years than be an investment banker,4-5-2022,0
109,Andrew,andrewgaudreault,,I dropped out from engineering,4-5-2022,0
110,yanni,yannivu,,engineering final tomorrow and i haven’t studied at all,4-5-2022,0
111,Mikey,mkysteeze,,finishing structural eng. this quarter and going into construction management...excited to be out😅,4-5-2022,0
112,Josh,joshhhd,,So accurate,4-5-2022,0
113,Martin,martinlacsamana,,I needed this. Thank you.,4-5-2022,0
114,G,grant1361,,1 year left for aerospace engineering. Fml,4-5-2022,0
115,Leo Nobrega,frankdickersonnn,,Yeah but then you have to study for FEs and PEs lol,4-5-2022,0
116,McKay,mckaymower,,Gives me hope :),4-5-2022,0
117,Thorp,ya_yup,,fr need this rn,4-5-2022,0
118,Caitlin Chamberlain,caitlin.chamberlain,,thank you so much.,4-5-2022,0
119,Surbhi,_nursingthingswithsurbz_,,I’m doing nursing and want to change majors so bad,4-5-2022,0
120,Topher,tophherr,,Nah I switched majors,4-5-2022,0
121,david,anotherhispanic,,imma see if i can graduate without studying,3-5-2022,0
122,chickenfield,chickenfield888888,,amen. work is easier than school.,3-5-2022,0
123,shaylaaa,shaylaar444,,Exactly this.,3-5-2022,0
124,elton_ago,elton_ago1,,Took an L on my calc 3 exam. I needed this lmao,2-5-2022,0
125,Shirish Veerabattini,shrshk7,,Production bug watching from the corner 👁👄👁,2-5-2022,0
126,Jordaan,atsangbe,,Not every weekend is like this unfortunately as well 😂😅,3-5-2022,0
127,dON,dis_don,,I keep telling myself this,3-5-2022,0
128,lonce,not.lance3,,MechEs?,3-5-2022,0
129,Ale,atomictac0,,Just took my vibrations exam 😅,3-5-2022,0
130,Nayh Addaf,hyanyo,,Just cheat,4-5-2022,0
131,colechamb,colechamb,,Why u gotta lie to them like that.. life definitely doesnt get easier after college,4-5-2022,0
132,staticsilence,staticsilence,,dude thanks,3-5-2022,2
133,arutoria_m,arutoria_m,,@needsoup,4-5-2022,1
134,Aayan,ionhydrogen_,,@realphilswiftnotfake @eathegamer_yt im scared,4-5-2022,1
135,Gabriel Haro,gabetheshrimp,,@Sue Le,4-5-2022,0
136,Fady Israel,fadyisrael4,,@e__251,2-5-2022,0
137,nim,nimmynuetron,,@swethasethuraj,9-5-2022,1
138,Christian Garcia,crisssps,,My go to technique is to just not study 👍,4-5-2022,1
139,izzy,__.israel,,i don’t go out at all.. all i think about is code… i finish in august though can’t wait to be making 6 figs and then work on peace and my social life,3-5-2022,0
