,Comment Number (ID),Nickname,User @,Comment Text,Time,Likes
1,𝙘𝙖𝙢,cam.1104,,OK I've seen this now delete it so stuff doesn't go out of stock,25-3-2021,
2,Doom,mf_cody,,Dino nuggie sales after this 📈📈📈📈,25-3-2021,
3,SucksToBeTheBus,suckstobethebus,,2013 Nissan Titan,25-3-2021,
4,weird,sliyis,,What’s the difference between Amazon and Amazon warehouse,25-3-2021,
5,masternazz,masternazz,,Wall paper?,25-3-2021,
6,NecxZz · Ersteller,necx_zz,,Honestly the deals are Amy,25-3-2021,
7,Ⓒ𝓪ᵈđ𝓎,cadddy,,I have a question is the hyperX alloy Origins Core Mechanical Gaming Keyboard a hood keyboard,25-3-2021,
8,Javi,brown_excavator,,It’s used,25-3-2021,
9,Bjrieue,jeheufnrur,,YEAH YEAH ‼️,25-3-2021,
10,ns,ns_sym,,Its used and prob broken,25-3-2021,
11,s m,qq_sam_,,can you order a mouse from there and post it cos I might get a new mouse. I have a terrible one,25-3-2021,
12,user,user729372371037,,Boutta buy a striker pack,25-3-2021,
13,Lightskin papi💫,johnnyycc7,,razor viper mini is literally $29.99 why risk getting a broken mouse to save $4,25-3-2021,
14,jrjr9136,fluxy_valid,,"Hello, Ryan",25-3-2021,
15,no07ho,no07ho,,@re62_y,25-4-2021,
16,Ace 🆒,aexoace,,I got the razor mini from my friend,25-3-2021,
17,Alex,alex_burmann420,,Fuck the glorious model d is out of stock,25-3-2021,
18,Marilia Chesterfield,igotafriendinme,,Bro what,25-3-2021,
19,Thai,thaicantsleep,,Wallpaper?,25-3-2021,
20,OOTB,oneoftheboyzzzz,,God loves you,25-3-2021,
21,Booka,bookaoffsum,,@ixqualify,25-3-2021,
22,monky,monkeymayn,,I thought warehouse was like for used products and stuff,25-3-2021,
23,🇹🇼❌🇭🇰❌🇨🇳👍👍👍,liu_shaoqi,,I've seen so many people say not to ever buy from that because they are almost always used and amazon lies about them still working half the time,25-3-2021,
24,Doom,mf_cody,,Live rn?!?!?!,25-3-2021,
25,jack,dead.coffee.beans,,what desk you have?,25-3-2021,
26,not an Egirl,willy_notanegirl,,yo pls post the wallpaper on wallpaper engine 🙏,27-3-2021,
27,Marco,maph2050,,Don’t use this products can be malfunctioning and they are returned,29-3-2021,
28,~,sentinelsryo,,SHEEEEEEEESHH,5-4-2021,
29,Migui Lagrimas,codiwithak,,What’s ur wallpaper called?,12-4-2021,
30,Pine,pineoli,,"How people don't know aboit this? It's already a couple of years of ""Amazon Warehouse Deals"" in the home page",18-4-2021,
31,Divine StarGirl,divinestargirl,,join my amazon deal group link in bio,7-5-2021,
