,Comment Number (ID),Nickname,User @,Comment Text,Time,Likes
1,Gabriel Harris,gabrielharrris,,That’s what I had until a hit it with a basketball,6-4-2021,
2,😼,jayy_7779,,Can u do a review or how u feel about the ACER,6-4-2021,
3,kieran,pitchio104,,i got the same mobo! what cpu do you run with it?,6-4-2021,
4,Kyle,skate__3,,I had enough money but I bought a g920 instead,6-4-2021,
5,.,kevin2o9,,@brayannikka dead pixels lmao,6-4-2021,
6,rui,phuyonn,,what’s the resolution?,6-4-2021,
7,Ronit Podder,ronitpodder5,,I bought that yesterday someone tell me if there’s anything bad about it😁,6-4-2021,
8,Bailey,baconstrips678,,i have that one and it’s actually really good,6-4-2021,
9,ashton,ashtonj.r,,i’m sorry but what is a v8 panel,6-4-2021,
10,Paul Wilpon,paul_follow,,I just got this monitor and it is a amazing!! Would recommend,6-4-2021,
11,No,rogue_ki11ua,,How do you start makeing stream elements mouse pads,6-4-2021,
12,_seebi,_seebi,,Auflösung 144p 😅😅,16-4-2021,
13,Amory‼️,nahhurjokes,,Can u do a 240hz pls,6-4-2021,
14,Follow me on YouTube,grouleth,,i have it and for me it was 98 dollars,6-4-2021,
15,Braden,braden.lafler,,I was gonna buy that when I got mine but it was out of stock,6-4-2021,
16,Landon Humphrey,smileyyy.luvs.u,,I have a lg ultra 165hz look it up i think its good,6-4-2021,
17,deku,kenkanaki68,,wat about 240,6-4-2021,
18,You don’t know me 😱,ripdxrkxd,,bro can u do a keyboard?? 🤨,6-4-2021,
19,Nathan W,nathan.w006_,,@thatsteven.sus ik what I'm getting next,6-4-2021,
20,n a t h a n,nathanisfunky,,No,6-4-2021,
21,Noah Fraser,noah_fraser1,,I have one exactly like that and it was $599,6-4-2021,
22,NecxZz · Ersteller,necx_zz,,Will this one go viral too?,5-4-2021,
23,hi there,hiaodhe,,I have the same mousepad,6-4-2021,
24,JAYNYC🐐💫🗽,jay.nyc_,,"First,but the price went up",5-4-2021,
25,Daniel,chickenflavoredgatorade,,@loonagf if you want a new monitor I already sent this to mal too,6-4-2021,
26,mmichaell00,mmichael210,,bro plz tell me rid is real because i have been in need for a while,22-4-2021,
27,Checo,jae.lmao,,If you want something simple get that,6-4-2021,
28,hey,dirtypill,,bro I need a second monitor thank you,6-4-2021,
29,Carson,northen_noth_18,,Does it have cross hairs that I can use,6-4-2021,
30,Eduardo,notdevelop,,"What’s your mouse pad, and what are some good mousepads (for model o wireless below 40$)",6-4-2021,
31,_isaac_o6,amyourdadkid_,,What is va panel,5-4-2021,
32,Spirit Truly Humbled,spirit.th,,Is it good for ps5 cause I am try to find one for someone?,6-4-2021,
33,skelle25 Twitch,skelle25twitch,,what is the name,4-5-2021,
34,SssalCccarrow,scarrow21,,@adirecho0 damn,27-4-2021,
35,Oliver,wyd.oliver,,nah ill spend more than 200 because i want to start graphic design when I get my pc and I need the highest color correction I can get,26-4-2021,
36,maxim hens,mixam23412,,me who just bought a 60 hertz cuz of my budget,15-4-2021,
37,Elicer,el1cer,,"I have that monitor and it is anti fists, I love it",12-4-2021,
38,jokj,jetvvvvvvvvv,,i have that,11-4-2021,
39,Ammar Gill,gillyboi100,,what is the best sub 200 monitor 144 Hz with speakers,8-4-2021,
40,YT: Skoupy (Please subscribe),skoupyfn,,NOOOOO I WANT IT BUT IM WORKING FOR IT PLEASEDEE DONT BUY ITTTT,6-4-2021,
41,your fav uncle Charles,cmeisy,,DONT.,6-4-2021,
42,.,eeeverett,,I might get this as a second monitor,6-4-2021,
43,tino,florent1no,,What is a va panel,6-4-2021,
44,oscar,0scy,,unavailable,6-4-2021,
45,Azz,as.fineze,,Bruh it doesn’t work Canada,6-4-2021,
46,Mitchell Was Here,m._.elliott016,,It’s 200,6-4-2021,
47,koa,koa.corn,,can you do a 144hz 27in.?,6-4-2021,
48,Sg Bofor,sg_bofor,,I got that 3 months ago,6-4-2021,
49,VP,vpooy,,I HSVE THAT ONE I DO RECOMMEND,6-4-2021,
50,Danny,dannygetsnofanny,,It’s fake it’s actually 23.8 inches 😅,6-4-2021,
51,Follow,junasiah,,"VA panels are pretty bad. They have tons of ghosting, bad response times, and their image quality is usually pretty crap. Source-LTT.con",6-4-2021,
52,Advay.Nataraj,advay.nataraj,,"What’s the cheapest secondary monitor, less than 100hz",6-4-2021,
53,Vln_Rhino,vln_rhino,,24inch is pretty small tho,6-4-2021,
54,Gabriel Harris,gabrielharrris,,Msi has a curved 27 in 165 for like 30 mor dollars on Best Buy,6-4-2021,
55,RebelRed528,gian528_,,You can get it refurbished for 105,7-4-2021,
56,The lexka,lex.organa,,It''s a good one it has g sync,7-4-2021,
57,.,x_.0o1,,yeah but I need bbn one that has G sync,6-4-2021,
58,Jr Valenzula,jrvalenzula0,,@ceoofcuteassuwus,9-4-2021,
59,.,tunuevoamante,,@yersuh,6-4-2021,
60,jadan.,mediali5x,,@tyglocc,6-4-2021,
61,Dingle Barry,dingle_berry_bob2,,@nate2411,6-4-2021,
62,Clover🖤✨,yourkindacute0_0,,@jrvalenzula0,9-4-2021,
63,Dehr34prrxxx,dehr34prrxxx,,@carterpcs,6-4-2021,
64,bruh,jared_7382,,@jaredthegoat11,6-4-2021,
65,jack may hoff,cheese_with_no_burger,,@logan_r6s,6-4-2021,
66,user7676879990183,localdealerbehindcvs,,@wildcatz8408,6-4-2021,
67,Justin 999,vxnish999,,@nickphastiktok,6-4-2021,
68,more😬,m._kj,,🔴🔵 guys what I buy 2060ventus 6g ocv (386$) or 1660 ti gaming x (360$) & is b460 motherboard good.🔴🔵,5-5-2021,
69,Kameron,user12466293470,,$180**,11-4-2021,
