,Comment Number (ID),Nickname,User @,Comment Text,Time,Likes
1,j,jstnxzd,,Stabs≠ good keyboard,19-6-2021,
2,stick,zekeboppin,,nah guys get a bughaboard😤💯,8-6-2021,
3,SIMILAIRE,ignsimilaire,,kbd67 lite r2 has better stock stabs lol,8-6-2021,
4,shiro,shir0kun_,,It’s not rgb so not valid 😤,7-6-2021,
5,user8817470710437,grant22__,,Is it hotswap because if it is I’m copping for sure,8-6-2021,
6,Lane,mygoth6itch,,if it's over 60 I ain't buying it,8-6-2021,
7,𝙻𝙾𝚂𝙴𝚁,atwentyfourcharactername,,What reasons other then stabilizers?,8-6-2021,
8,svshi,svshikun,,They still tick tho 😳,7-6-2021,
9,ㅤ,wavechecc,,varmilo slaps,8-6-2021,
10,Definitely_Not_Ammar,definitely_not_ammar,,Leopold Fc660m always on top 😤,8-6-2021,
11,Mhm,lhes___,,Nah get a gk61 silver switch,8-6-2021,
12,avrahm,avrahm.w,,"yeah no, mines still 20x better",8-6-2021,
13,Valorent,unknown_m4xi,,U sound like carter pc,6-7-2021,
14,mmsilva 145,mmsilva1459,,whats the wallpaper name,22-7-2021,
15,user8679800939860,idylani0,,We’re can I get it I need to know pls,3-10-2021,
16,Silveky,silveky,,what's that wallpaper,10-8-2021,
17,Big daddy,dinonugets33,,Name,14-7-2021,
18,Babben,achooonator,,Average,4-8-2021,
19,kërnël,yvngkernel,,early,7-6-2021,
20,Tik Toker,demilavatossp00n,,what was the first?,25-2-2022,
21,Sergej Mrdak,mrdak14,,im buyin gk61,7-7-2021,
22,Sergio M,sergitoe,,what switches,7-6-2021,
23,Ss,ss3xyh0eman,,Fyp,7-6-2021,
24,Keven William,keven_2008,,name wallpaper?,20-7-2021,
25,™,uilaboyy2x,,Where do I get this,4-7-2021,
26,Memes,randomthings0182,,What kind of switches do u have,1-7-2021,
27,bawzu,bawzu,,switches?,30-6-2021,
28,brian,brianjarama,,what is that keyboard called again,30-6-2021,
29,Fredvy,gaiakys,,switch?,29-6-2021,
30,Jack,jack_6947,,Not everyone likes tkl boards,29-6-2021,
31,GBurns50,gburns50,,What keyboard is that,28-6-2021,
32,Nickolas,nickolasc26,,Wallpaper?,28-6-2021,
33,Taylor Coward,y3ventry,,Why don’t we stop this conversation and get the keyboards that interest and we like. 😂,26-6-2021,
34,NOXSYS,_noxsys_,,Name of the kb?,25-6-2021,
35,Kiran💫,kiranmadison,,Yea no thanks all of my builds are well over 15 times better,24-6-2021,
36,rassasinn,rassasinn,,@aylalool keyboard blah,24-6-2021,
37,Memes,randomthings0182,,Can u send me the link for the keyboard?,1-7-2021,
38,Luffy solos naruto,scoralbinokang,,Then why did you buy the keyboard,23-6-2021,
39,Ewan Cogley,ewanpcs,,150 is still expensive,23-6-2021,
40,sam,pazerunas,,ok but what r the keycaps on the first obe,23-6-2021,
41,Frankie pientka,fwpientka,,I just ordered mine. I couldent see this earlier😭,23-6-2021,
42,Meow,kuya.jays0n,,What’s the name of that wallpaper? It’s really nice,22-6-2021,
43,Onno,onnolmao,,Do je wordt gespammed sound test,21-6-2021,
44,Ok,clashbum3,,My cousin has that one and it sounds amazing,21-6-2021,
45,Nils,bigbeefi,,name is va88m,20-6-2021,
46,Memes,randomthings0182,,Can u send me the link for the keyboard?,1-7-2021,
47,Vincent dumb fucks,yessssiurr,,Your the one that bought it,20-6-2021,
48,JJ,jj_tech,,The first keyboard has a sa keycap set right?,20-6-2021,
49,Rayan Younes,itzjustrayan,,You don’t understand this hobby.,20-6-2021,
50,Zako,coys.zj,,What keycaps are on that first keyboard?,20-6-2021,
51,nathan,vrnerddd,,best 30-50 dollar keyboard?,20-6-2021,
52,🫀,justicevv,,what kind of keycaps did you have on the first keyboard,20-6-2021,
53,「桜」,heyman485,,Still wanna build my own,20-6-2021,
54,Ryan Meadows,ryzen520,,varmilo’s are still 100$ plus soooo yea this isn’t really valid as “not expensive”,20-6-2021,
55,damian,daymeown,,can i have the first one if you don’t want it,20-6-2021,
56,Ethanbergdahl,ethanbergdahl,,no,20-6-2021,
57,cxzm1c,cxzm1c,,Bruh *presses only middle of the keys* StaBs MeAn GoOd kEyBoaRd,20-6-2021,
58,Zemtex,zemtex.rl,,What’s it up even called,20-6-2021,
59,Blank Dragon,blankkeeb,,What was the first keyboard keycaps,20-6-2021,
60,Warden,warden_helmet,,I wanted to get that one half a year ago but I didn't find the fitting software on Varmilo's website 😂,19-6-2021,
61,Kevin,rukkiiaa,,I’m not wasting it :(,19-6-2021,
62,Elton a,eltonimakaroni,,"Bro those stabs have tons of rattle and u have to desolder them to fix it, so no I ain’t buying",19-6-2021,
63,marl.,marl_18.06.18,,"Me not even having 10$
tiktok:",17-6-2021,
64,ninjmadpig,ninjmadpig,,I accidentally meant keyboards Auto correct,17-6-2021,
65,ninjmadpig,ninjmadpig,,I love keywords but now when I really think about it it doesn’t really matter they all typed exact same😅,17-6-2021,
66,Luke Head,lukasaralious,,wallpaper and mousepad?,16-6-2021,
67,Bean,..sawyer..a,,Where can I buy this?,16-6-2021,
68,user9922559209832,andychopper,,What is that white keyboard,13-6-2021,
69,Finale,ilyfinale,,I got a varmillo ec rose,12-6-2021,
70,CAJ,cajwastaken,,My first proper keyboard was a Varmilo Sakura. Now I love building keyboards,9-6-2021,
71,dennis!,howmuchforahug,,best monitor 100-150,9-6-2021,
72,lucasmittelstedt,lucasmittelstedt,,Stock?,9-6-2021,
73,RaptorzX,raptorzxfn,,it doesn't have omnipoint switches,8-6-2021,
74,Drup,drup__,,Wallpaper?,8-6-2021,
75,🪷LustedLove🪷,gstep2x,,cap,8-6-2021,
76,Grant fortner,grant_fortner,,Where do I go to get one,8-6-2021,
77,Daviddddd,dahvidddddddd,,If it ain’t hotswap it ain’t good,8-6-2021,
78,Toothless_brz,toothless_brz,,"I feel like a lot of these comments are overlooking the idea behind the hobby, it’s not just getting the best deal on a keyboard that sounds good",8-6-2021,
79,Bird,zxydnn,,"Not hot swap, not that big of a deal. Switches are scratchy. Plate mounted. I would lower it to 120$",8-6-2021,
80,silas neal,r6.silaz,,i have one,8-6-2021,
81,Ozzy ali,ozzyali6,,@zubayrali123,8-6-2021,
82,mjmonge2,mjmonge247,,Nope totally didn’t drop 400 dollars to build a custom keyboard,8-6-2021,
83,Neely_Jacob,neely_jacob,,"Varmilo keebs are great and I recommend them all the time, but a good custom blows it out of the water",8-6-2021,
84,Ynglazi3,ynglazi3,,mousepad?,8-6-2021,
85,moose,im_urvsss,,wallpaper?,8-6-2021,
86,user4466678715337,woodrow.j,,WALLPAPER PLZ NAME,8-6-2021,
87,👑Barrett✝️,barrett______,,Can you tell me a good 100$ keyboard,8-6-2021,
88,willl,willsamf,,This trumps a keykult 1/25? Hm,8-6-2021,
89,Arctic,yt._.arctic,,Apex pro is better,8-6-2021,
90,Donda 2🥰,caelenvrancken,,Cap,8-6-2021,
91,Jamaal_a,jamaal_a,,the stabs are lubed right?,20-6-2021,
92,Asian dog eater + squid gamer,zyphloc,,Where can I get the key caps on the “stupid expensive keyboard” ?,20-6-2021,
93,Deep patel,offthedeepend,,@necxxzz You gotta look into the keychron q1 coming out. $150. south switch. gasket. hotswap. screw in stabs. via/qmk and more.,20-6-2021,
94,charlotte,chxrlotte544,,get a razer blackwidow,19-6-2021,
95,XRove18,rove_18,,Bro stupid dumb expensive the keyboard ur showing is 150,19-6-2021,
96,user3787445925934,caonima420_69,,your voice is horrific,12-6-2021,
97,Aaron,aaron.fshr,,"Minimal switch options, non hotseappable pcb, no easy access to modifications, same issue as to why people stopped buying the ducky",9-6-2021,
98,Chris Lanoi,puggythegod,,my next keyboard bill is like $400 is that overkill 💀 I'm new to building keyboards,8-6-2021,
99,אורי קפלן,looting_yt,,@carterpcs,12-8-2021,
100,matthew copp,matthew.copp,,@carterpcs,6-7-2021,
101,Jay,jay_ryan1__1,,@carterpcs,23-6-2021,
102,David Edwards,official.davidthompson,,@carterpcs,19-6-2021,
103,bigblueboxman,bigblueboxman,,@carterpcs,8-6-2021,
