,Comment Number (ID),Nickname,User @,Comment Text,Time,Likes
1,jay | 🇺🇸,frjayyo,,purple and white💟,17-1-2022,
2,Gabe,gabe.robertss,,Finally someone says blue on white is valid 😭😭,18-1-2022,
3,___,vujakkk,,green and black🛐,21-1-2022,
4,Sethjeee,sethje08,,Were did you Get that mouse pad from white and blue,26-1-2022,
5,Nathan K,nathan.k005,,Black and red is pretty cool too,18-1-2022,
6,RADOX_69,radox_69,,What are them wallpapers called,13-3-2022,
7,fqvso[⭐️],fqvso,,White on white hits different,22-6-2022,
8,NecxZz · Ersteller,necx_zz,,Should I make this a series?,17-1-2022,
9,cosmic,3dprinterthings56,,red and black,17-2-2022,
10,Pixie,pixie_vfx,,Wallpaper names,18-1-2022,
11,Dominic torreto,the_only_filip,,Pink and blue 🥶🥶,18-1-2022,
12,THE0NLY7,gwn3lijah,,Wich mousepad is that,1-3-2022,
13,hi,i.heartdreadedheadboys,,blue and white clean 🥶,7-5-2022,
14,Matheus,matheus_b00,,Whats the wallpaper,18-1-2022,
15,Fahad,atlantispcs,,all of these schemes are fire bro,17-1-2022,
16,L҈҉҈҉I҈҉҈҉A҈҉҈҉M҈҉҈҉,11.lfc,,What about blue and black,24-2-2022,
17,mark gaming,markheathcliff_gaming,,blue and orange?!,1-3-2022,
18,Active,active_06,,Early 😳😳,17-1-2022,
19,hi I'm kole,hi_im_kole_14,,Red and black,25-4-2022,
20,Folg mal,just.kalterkellner,,I want a Blue on white Setup,2-2-2022,
21,Askan_027,askan_027,,📄Paper power📄,30-1-2022,
22,Putte,supermotovibes,,I like blue and black colors on my setup,27-1-2022,
23,Autoheartt on oculus,autoheartt,,What is the pc case?,26-1-2022,
24,Joshua,joshie_h_,,I kinda like red and black idk why,25-1-2022,
25,V,2004deetee,,Can somebody tell whats. The wallpaper name,25-1-2022,
26,RADOX_69,radox_69,,Hello what are the wallpaper called,13-3-2022,
27,Sub to my yt link in bio,robloxinggodstudio_playz,,What about full black?,25-1-2022,
28,suraj,durajthegarage,,purple black 😬,24-1-2022,
29,Apple User267599787,poompa53,,Yellow on dark blue 😏,23-1-2022,
30,isaac,isaac.sharpp,,purple and black gang,23-1-2022,
31,Kuku,kukurb0,,Your 😏,23-1-2022,
32,Santi Martinez,santis_a_dummy,,Whit and orange,23-1-2022,
33,money,koyontt,,orange black and white,23-1-2022,
34,.,2fazedd,,red and teal,23-1-2022,
35,Tyshawn,vlxne_tyshawn,,wallpaper???,23-1-2022,
36,Daniel,daniethemaincampusweirdo,,blue and pink?,22-1-2022,
37,poppyfloppo,poppyfloppo,,purple and black is elite,22-1-2022,
38,hi•••i follow back•••🦩🐚🌸,0nlyfayeee,,Def rainbow bc I already have those which I don’t use,22-1-2022,
39,Ryan,ryan.lam07,,blue purple and black,21-1-2022,
40,Carter,carter_foster16,,where did you get the cars,21-1-2022,
41,DrEgyptian,dregyptian,,"white and red, mine",21-1-2022,
42,Mario Caporossi,cappyrossi_,,The camera work is so good I at first skipped past this thinking it was an ad 😳,20-1-2022,
43,arttu,artupartukarhukarkuhartu,,i have red and black,20-1-2022,
44,<3,frvggo_,,whats the white and black wallpaper,18-1-2022,
45,Autoheartt on oculus,autoheartt,,What’s that first mousepad called,23-1-2022,
46,emil_stahl ._.,emilstahl1609,,what Keyboard do you use,18-1-2022,
47,User,userisinfkskssko19293838,,From where ist the blue mousepad,18-1-2022,
48,💙RS3💛,2019_audi_rs3,,"I have a question, is msi optix g241 a good monitor?",18-1-2022,
49,Luke,luke_eats_chicken,,What desk do u have,18-1-2022,
50,RADOX_69,radox_69,,What are the wallpapers Called,11-3-2022,
51,Yuriy Vydash,yuriyvydash,,white on white?? that was black on white,18-1-2022,
52,⚽️🏟,jamms_,,Blue wallpaper?,18-1-2022,
53,Simon Svensson,simon.svenssonn,,Where did u get the the black mousepad with white lines?,17-1-2022,
54,RADOX_69,radox_69,,Hello wallpaper,13-3-2022,
55,Kxixy,lil_student69,,Red and black🥰,4-2-2022,
56,.,rexfyy,,Wha mouse pad is that for white on blue?,9-5-2022,
57,Zyro,zyro_zzz,,What’s that wall paper,17-1-2022,
58,Gamer,gamerdev_gaming,,What mouse pad is that on the blue and white,8-6-2022,
59,Scittl,scittl,,THE CAMERA QUALITY HOLY CRAP,17-1-2022,
60,Caden H,i.amcall,,Pink and blue 😩💗💙,26-1-2022,
61,Hunter,hunterar16,,Mouse?,23-1-2022,
62,Slow_Tech,slow_tech,,bro where to find black keycaps,17-1-2022,
63,me,graysen_._,,purple and yellow,23-1-2022,
64,🪦 H4rL3Y 🔱,hxrz_08,,what is tgat wallpaper,18-1-2022,
65,Cheese connoisseur,a_glizzy_which_is_fizzy,,Black on white 😮‍💨,7-2-2022,
66,jay,jayy7.7,,@dont.let.off_31,17-2-2022,
67,Shortkid,sust1n,,@matterchoc,23-1-2022,
68,Minion,minion_174,,Is bleu and black also cool?,22-1-2022,
