,Comment Number (ID),Nickname,User @,Comment Text,Time,Likes
1,Emanuel Crespo,sagacious82,,A broom that does lines!! Expensive to maintain 😂😂😂😂😂,12-1-2021,6069
2,🦋🦋🦋,stephs.glory.hole,,This guy is in 2090,12-1-2021,2143
3,Mariana Lara,itsmarianasierra,,It’s 80$ on Amazon *cries in broke*,12-1-2021,642
4,Inimical Goddess,inimicalgoddesss,,Oh is that the cheap version of roomba?,14-1-2021,8
5,Cici,auntie_cici,,I need this. idk why but every dust pan i buy disappears,12-1-2021,22
6,ryanj707,ryanj707,,At this point just use a vacuum,12-1-2021,299
7,Cory Smith,corysmith8150,,man take this video down before my wife sees it!🤣🤣,12-1-2021,17
8,Christian De La Cruz,ride_wit_my_bois,,bro us hispanic kids need this,15-1-2021,26
9,user992830161563,beyza310sp,,So that last pesky line of dust & debri is gone??? What??? What’s the link of this type of witchcraft?,12-1-2021,806
10,LiteViwithWandaRN,wandatoby_r.n,,lol my daughter needs this. she sweeps and leaves it for someone else to do 🤦🏾‍♀️. Of course she's the one that sent this to me lol.,13-1-2021,17
11,Plant_Nymph,plant__nymph,,For that little bit that always goes under the desk pan!,16-1-2021,7
12,b.m.l_3,b.m.l_3,,I know what that is!!!! Thats a nimbus 2000!!!! 🧹,13-1-2021,10
13,..:),yuhduhvv,,A week later that motor gonna be burnt 😁😂,12-1-2021,8
14,thesalmer_k,thesalmer_k,,*sigh opens Amazon 😏,12-1-2021,18
15,NEW YORK MADE 🗽,des.diorrrr,,Omg we’re did you get this from,13-1-2021,10
16,Shameless_end,shamelessend,,I just got mad excited for A BROOM 😳😏,13-1-2021,7
17,Jacky D Siefferman,donkeyboo,,I love my Vabroom! best purchase ever,13-1-2021,6
18,Nicole F.,ohhey_itsp1zzz4,,What 😳 the 😳 Houdini 😳,12-1-2021,6
19,no,a.wtfzon,,He just flexed on us 😐🤚🏼🤚🏼,12-1-2021,6
20,USer914914914,user9144190000,,Dang my MIL got a car upgrade this yr,12-1-2021,39
21,_chill_will_,_chill_will_69_,,What the he...! I’ve never knew I need one of this so bad,13-1-2021,6
22,Nancy,shesaidseeyalater,,I’ve never ran to amazon that fast just so I can put this in my cart knowing there’s $8 in my account 😂🤣,13-1-2021,42
23,Tariq,itsametariq,,when in the name of all that is lazy!!! I need one.😳,12-1-2021,42
24,Bree 💕,loveellyybree,,Brb gotta go charge my broom,12-1-2021,7
25,Terry Evans,terryevans69,,I love this,14-1-2021,6
26,Bruh moment,thisabruhmoment69,,Mans in 2077,12-1-2021,6
27,Jocy ‘Opez,jnlz143,,@dumnick got chills!!,12-1-2021,6
28,Austin powers baby,leiitlow666,,Nimbus 5000000,14-1-2021,4
29,Pumpkins,mypumpkins16,,The swiffer vac and sweep works and it’s 40 dollars cheaper at target,12-1-2021,5
30,Jasmine🫶🫶,peachesfatbuthy,,Wait.... I was just talkin how they should make a broom like this with my friend on ft😳😳,23-1-2021,5
31,John Sapno,jsapno,,"Hold on, what in the 2066 is that",15-1-2021,4
32,Yini Montes,yinimontes,,I need it where can I buy it ????,13-1-2021,4
33,Ashley Gonzales,ashleygonzales037,,What...@mandyr2310,13-1-2021,2
34,Margie Longoria,margielongoria23,,oh man i want that lol,13-1-2021,2
35,Jasmin Cuevas,jasmincuevas22,,"anyone notice his (""Adidas"") huaraches?😳😂😂😂😂",13-1-2021,2
36,Stacy Phelps🤪,staaacyyy,,Why not just buy a vacuum 🤨,13-1-2021,4
37,Monica Jaines Ortiz,monicajainesortiz,,Alguien que me diga donde la compro,14-1-2021,1
38,Villarreal_956,villarreal.956,,Me va dar mas ganas de aser sweep lmao,12-1-2021,2
39,Notbehdudj,bokmshhe,,I would buy one but it’s 80$,13-1-2021,1
40,si.worley,si.worley,,sold,12-1-2021,1
41,ClaudiaThickAFRecend,claudia_araceli,,@thatragerguy definitely need,13-1-2021,1
42,user7898294768065,sachaly9413,,Omg yo lo quiero,13-1-2021,1
43,Alexandria Juliet,alexandriajuliet42,,wait what 😳 nice,12-1-2021,1
44,wendy,wendy__le,,@maestrolyfe WOAH,24-1-2021,1
45,Jamirr,sosamus.prime,,@sophiscool2 yoooo,23-1-2021,1
46,Marco,omarco.oo,,@heyparis I think u might want one of these no 😂😂,13-1-2021,2
47,Zahara_ATL,zahara_atl,,Wow whattttt lol,14-1-2021,1
48,Yescalante,yescalante1,,I use my vacuum all the time,15-1-2021,3
49,Lizbeth Arteaga Juar,lizbetharteagajua,,@yakiiiia we need this,13-1-2021,1
50,Nickee Richardson,nickeemacgyver,,that's cool,13-1-2021,1
51,Este Bestie,basicparents,,😳 I want one.🥰,13-1-2021,1
52,lily lamborghini,lilylamborghini,,omg I need this,14-1-2021,1
53,user5189569802873,lydnluna,,wowwww 😲😲😲,13-1-2021,1
54,Lane Begaye,unkwayne41,,@shaynaparker7 we need!!!!,12-1-2021,1
55,Encarnacion Martin,encarnacionmartin,,@wendy.janette 😳 I need,12-1-2021,1
56,MARIA,m_fonseca19,,I love it!!!!,12-1-2021,1
57,Nicole M,wonderwoman1691,,I need this,14-1-2021,1
58,Luna 🌙,lupitaluna8087,,Damn he’s already in 2030,13-1-2021,4
59,Gabriela Romero,grg4444,,Bruh,14-1-2021,1
60,Carmen,cracracarm,,OMG!! I want one!!!,13-1-2021,2
61,Rob,gtz777,,Shooketh 😲,23-1-2021,1
62,user3717933539778,user3717933539778,,VaBroom on amazon $79,13-1-2021,1
63,Este Bestie,basicparents,,What’s the brand ?,13-1-2021,1
64,__edgaarr47,__edgaarr47,,I feel poor,13-1-2021,2
65,Rayah Israel,rayahisrael,,I want a Vabroom! 😂,14-1-2021,1
66,Tati,tatianadborges,,Excuse me WHT,12-1-2021,1
67,BryBry,bcraw5.0,,I bought this as a gift lol,14-1-2021,1
68,April Joy,vibingwithapril_,,Smart vacuum!!😳,14-1-2021,2
69,Mo,kingmb09,,80$ on Amazon !!!,14-1-2021,1
70,Maris,sol.ar89,,Need! Is there a link to this?,14-1-2021,1
71,user3064199260778,humanlynormal,,where do i get one,14-1-2021,1
72,Victoria,delbones,,Yes! I need that. Where do I get it?,12-1-2021,1
73,Aleayah Arman,aleayaharman8,,OMG that's that's that's amazing,12-1-2021,1
74,Mari,marieysol,,Where do I get one of these?!?!?,12-1-2021,1
75,karenyvera134,karenyadira01,,@jocelynvera495 I need this,12-1-2021,1
76,☘️☘️,barbeque...tiddies,,WJAT,14-1-2021,2
77,Stxaticc,stxaticc,,What’s that broom called ? 😂,28-1-2021,2
78,Truckerrickyp,truckrrrickyp,,where u get that ?,23-1-2021,1
79,Jake the man,jcon111,,Where u get that,13-1-2021,1
80,Kait,boohbe,,I really want it,12-1-2021,1
81,user2469386171768,beedee2121,,Just get a vacuum,23-1-2021,1
82,Georgia Peach-Tea,ga_peach_404,,Shark MopVac... ✔,13-1-2021,2
83,Brenda Arroyo,brendaarroyo26,,oh cool. where can i buy one broom,12-1-2021,1
84,DrEaZ89,adrea11142189,,I thought your feet were bleeding😂😂😂😂😂😂😂,12-1-2021,1
85,Because He Lives ✝️,becausehelives7,,Wooow,13-1-2021,1
86,monab,mon3ca,,😲😲 i need one,12-1-2021,1
87,debra,debrey,,@enavarrojr87 we need this,13-1-2021,1
88,Mya_Puppy,puppy_love0020,,I need that,13-1-2021,1
89,GGV4700,chula4700,,I need this,13-1-2021,2
90,fifi🖤,fifi.1030,,q@jorgeeljefe93 @jazminnarriola @pauari01,13-1-2021,3
91,user1079620544307,marilynkm,,for that get a vacuum,12-1-2021,1
92,adriane,amichelle507,,I want one,12-1-2021,2
93,Alysha,bookcase.beauty,,Ohhh now my broom has a turbo mode 🧹 my husband will be ecstatic 😏😂,13-1-2021,2
94,Vale,x.valee99,,@gysandra I’m getting old... porque I need this in my life lol,12-1-2021,3
95,Lilibeth Baez,lilibethbaez2,,yo la quiero porfis,12-1-2021,1
96,Vasquezfamily_18,vasquezfamily_18,,@ramgi35 whatttttttt 😂,13-1-2021,2
97,user2467980068010,ryan_mtz101,,@_.victoria.01 I want this,14-1-2021,2
98,Kayyy🥰,10_kay_,,@queenap1 where 👀,14-1-2021,2
99,2000?😚,babyfac3_cece07,,@deaviannah wowww,12-1-2021,2
100,adi🫶🏽,aclopezz,,want,12-1-2021,2
101,esther choe,es.therchoe,,@diana.choe omg need,15-1-2021,1
102,user6548649523937,grexerg,,Dude said ✨ehsyooyeh✨,12-1-2021,3
103,Vanessa Moreno,ness.a98,,@nury_ensy okay but like I need,14-1-2021,1
104,︎,whos..leua,,@._martynka o nie,8-4-2021,1
105,Ashley Flores,slayathomemom88,,whhaaaa 😳 @adilenejimenez26,13-1-2021,1
106,Chantel_ Chanelll,chantel_chanelll,,@ioamobre woah,13-1-2021,1
107,rhaiza,rhhaizaa,,@jeniellecny.1 WAIT,12-1-2021,1
108,Antonio Sainz,chongyrirongy,,vamop,13-1-2021,1
109,Teri Gonzalez,terigonz85,,@lydiaberry4 NEEEEEEEEEEEEEEEEED,13-1-2021,1
110,Korina Michelle,korinamichelle,,Uhm where,15-1-2021,2
111,EliudGaleana,eliudgaleana_,,@dalia_tapia i need this,13-1-2021,2
112,...,cisneros81,,I want this!😂,13-1-2021,2
113,Sonya,shapitohyu,,@m.millanaa это гениально!,12-1-2021,2
114,Star,08.st4r,,@r4ym0ndc I HAVE 2 DOLLARS TAKE IT OR LEAVE IT,26-1-2021,1
115,𝑻𝒊𝒎𝒂 𝒔𝒂𝒍𝒆𝒉 💛,timas.209,,@i_d_k_you_101 @e_g98 omg lol I need this,24-1-2021,1
116,Michelle🤍,_amhh_444,,@maribelhernandez98 I need that,24-1-2021,1
117,Tree,tree1993,,I feel like you bought this at Halloween town 😏,13-1-2021,1
118,kim,itskimburlee,,@tiffffwrist jaw dropped,14-1-2021,2
119,Doubl R,doublr202x,,This man really in 2021 we’re still 2000&late,16-1-2021,2
120,Geo Escobedo,highimgeo,,But where’s the link,13-1-2021,1
121,Astaria,astaria.l,,Idk what j was expecting but it wasn’t this,13-1-2021,2
122,Jaylin,theyhatejay_0,,It not gonna pick up bottles and shii😂😂😂,13-1-2021,2
123,shrimpbear,bearwithashrimp,,I neeeeed ittttt literally😂,13-1-2021,1
124,jada🧚🏽‍♀️,jadaaikoo,,@annie.evette we gone need this,13-1-2021,1
125,Araceli Engstrom,araceliengstrom,,Whaaaat!!!!!??!!! I need it!!,13-1-2021,1
126,Cheddar John,cheddarjohn,,I just...use the vacuum...uhm...don't buy this peeps,12-1-2021,2
127,Re,r3_smokes,,The link sir. Where is the link,23-1-2021,1
128,Danni.Bee,i.am.danni.b,,I need this!!!!!,15-1-2021,1
129,viri viridiana,viri199229,,@basii_17 your problem has been solved 🤯🤯🤯🤯,14-1-2021,1
130,user3148640737982,charlette.4,,@naomibaxter I need this,13-1-2021,1
131,Stephanie,anotherdayinparadise0_o,,Ok what now?!?! That got my attention lol,12-1-2021,1
132,luvyabtifuracistBYE,nopressure9035768,,where you get that? i must have,13-1-2021,1
133,Annie Espinosa,anniee724,,where do i buy it at?? 😳🥰🥰,13-1-2021,1
134,Big Nicco,bignicco,,wait hold up... there's vacuum brooms?,16-1-2021,0
135,Charli,tatt_goddess,,omg i need one,15-1-2021,0
136,Alma,maye_8080,,Man tiktok is gonna leave me broke 😩,13-1-2021,0
137,Kailaa.aa,kailaa.aa0,,EXCUSE ME?!,13-1-2021,0
138,mostinterestingm,mostinterestingm,,Hehehe,5-6-2021,0
139,Ashley Magee,ashleymagee69,,That’s cool,2-4-2021,0
140,Aaron Yarnell,aaronyarnell,,😌😌😌😌pop,14-2-2021,0
141,Natasha Gallinger,natashagallinger,,where did you get it,11-2-2021,0
142,Jasean Henry,ebony_devil,,Or just get a regular vacuum,3-2-2021,0
143,Jane Herrera,janestone_,,lol what ! I need that 😂 @maddie__94 @the_jiveturkey,1-2-2021,0
144,Edgar Carreno,carreno1992,,@bestblondelife I feel like u need this 😁😂,1-2-2021,0
145,Amina,aminabax,,What is its NAME?,31-1-2021,0
146,Gabi,gab00tyyy,,The gasp I just let out...,31-1-2021,0
147,Dalia 💕,dalia_562,,We need that,31-1-2021,0
148,150maibaa,150maibaa,,How do you empty it?,31-1-2021,0
149,Haidyn Leath,haileath,,Mopvac tho?,30-1-2021,0
150,Dylan Biby,dylanbiby,,Just...vacuum....,29-1-2021,0
151,Annie 🖤,anniefm.443,,I want that,28-1-2021,0
152,Mariangel SolisMoral,mariangelsolismorales,,I need this because you picking up the trash and notice I’m out side like😂,24-1-2021,0
153,Jackson Richardson,userh8zfxghcof,,woah,24-1-2021,0
154,【known】,_nata1y_,,I already know what I need for my birthday💀,24-1-2021,0
155,txfu sean,0nlyz_sean,,That’s that “VROOM”😂😂😂,24-1-2021,0
156,✨Your bestie✨,luh.brezzy._08,,Wat?,24-1-2021,0
157,_.jaree,jareee_.0,,Technology 🤓🤦🏻‍♀️watch the brooms 🧹 take over the world not so handy now 🙄,24-1-2021,0
158,Joanna Chávez,joannachavez09,,Wow!!,24-1-2021,0
159,Kenderly Faucher,kenderlyfaucher,,Leme send this to my mom,23-1-2021,0
160,Lauren🥀,laurenquickkk,,@ashlynquick2 we need,23-1-2021,0
161,Ellias Raymore,elliasraymore,,Vacbroom sounds better,23-1-2021,0
162,Trelisa Urban,trelisaurban,,I’m where do I get on one,23-1-2021,0
163,Nikki Vigil,this_ho_again,,What the future,23-1-2021,0
164,Curtney Odhiambo,mr.spriteinacan,,sheeesh,23-1-2021,0
165,JR Brooklyn,brooklynmademe9,,The broom did a line,23-1-2021,0
166,K.,mrs_pistner318,,Looks like the Halloweentown brooms,23-1-2021,0
167,Tiffany Smith,buckfurpees_fitness,,$80?! 😬🥴,23-1-2021,0
168,Crochetingsilly,crochetingsilly,,Differeeeeeeeent 😳,23-1-2021,0
169,bonsensei,bonsensei,,@gentlepaw I want one!!,23-1-2021,0
170,Melissa c,melsue88,,or just get a floor sweeper.,23-1-2021,0
171,Jeremy Forbes,jeremy_sewell,,FOR THE FOREVER LINE,23-1-2021,0
172,Rhianna Gonzales,grex333,,@3_sopapillas look this os cool,23-1-2021,0
173,selena,clout3d,,Yoooo😂 im buying one period 😂,23-1-2021,0
174,666,theyfamousandabundant666,,Where was this when I was 8,23-1-2021,0
175,TREEZIE,davidtreezie,,"was not expecting that, cheers🍻",23-1-2021,0
176,Taylor_grace98,taylor_grace98,,This reminds me of Marnie’s broom in Halloweentown. 😂😂,23-1-2021,0
177,Paulie,paulinajuzaino,,I need it asap,23-1-2021,0
178,Nezuko,creepyramen87,,I need that broom,23-1-2021,0
179,Miss Beautiful,a_beautiful.disaster,,where can I get one 😂,23-1-2021,0
180,Here4urBS,here4urbs,,I want it 🥺,23-1-2021,0
181,I.saac,l.m.i_19,,Sup,20-1-2021,0
182,🥵Dessi🖤,destiny.b24,,@evanie19 show this to mom,19-1-2021,0
183,22Yvette,liddieevans,,where I get one at,19-1-2021,0
184,Bellahella²⁰²⁰,bellahella37,,where do I get one please,18-1-2021,0
185,Natalee Gordon Boone,nataleegordonboon,,I want it 🥰,17-1-2021,0
186,pauline minor,paulineminor,,need 1 of those in my life,17-1-2021,0
187,Elizabeth Idrogo,elizabethidrogo8,,Dude where from,17-1-2021,0
188,Mike Cupp,mikecupp1,,very cool,17-1-2021,0
189,Jenniferl.82,jenniferl.82,,Yes please! 😂😂,17-1-2021,0
190,SELFMADE 4L,slefmade4l,,Where you get this at bro,17-1-2021,0
191,D E,will_je_suis00,,You’re living in 3008 while we’re just 2000 and late,17-1-2021,0
192,Sueling Latham,suediddy,,I NEED THIS!,17-1-2021,0
193,ayybabyt,ayybabyt,,WHERE,16-1-2021,0
194,Miriam Gonzalez,miriamgonzalez280,,damn. i use the vacuum after i sweep😂😂,16-1-2021,0
195,Jay,jays_fabulis_finds,,This has been around forever! best thing ever,16-1-2021,0
196,Ruby Smith,rubysmith41,,I thought he was in jail 😅,16-1-2021,0
197,Alo,alo02140,,Where can I buy this ??,16-1-2021,0
198,Jaimie,jaimietran,,This makes my scoliosis happy,16-1-2021,0
199,Uhh.,yourandonlyone,,I— was not expecting,16-1-2021,0
200,Jessi Tyson,jessityson,,WHAT,16-1-2021,0
201,CreativeThoughts,mycreative_thoughts,,I never new I needed this,15-1-2021,0
202,🕷MONIQUE🕸,prone_2_wand3r,,Ok but where do I buy it?,15-1-2021,0
203,KarlaJazminee,karlajazminee,,Omg i want it,15-1-2021,0
204,Vontay,kingvontay24,,Where??,15-1-2021,0
205,sanchezyesenia5,yessss_si,,😳I want one,15-1-2021,0
206,6ickness,6ickness,,yoo this legit,15-1-2021,0
207,jordann,jordann.1uv,,he said step yo broom game up😂😂😂,15-1-2021,0
208,Dru,drudrubee2,,@zozoxo25 that’s cool,15-1-2021,0
209,Krystal Smith,krystalsmith359,,Vabroom,14-1-2021,0
210,🥳,_marrisol_,,When I tell you I was shoooookkkk😳,14-1-2021,0
211,Itzel_1313,itzel_1313,,It’s on amazon just search Vabroom,14-1-2021,0
212,claudia d,claudiad91,,Omg I need this!!! Lol😂,14-1-2021,0
213,its_jenny_08,its_jenny_08,,That’s cool,13-1-2021,0
214,Laura Blanco,laurablanco613,,Hay no manches yo la quiero,13-1-2021,0
215,Lean cuisine,f33llik3dyin._,,Ohhhh,13-1-2021,0
216,TM Sriracha,tmsriracha,,Sheshhhh,13-1-2021,0
217,L,userg615fpnp04,,I never had a broom make me feel broke,13-1-2021,0
218,Kelly,luckylibra40,,I'm dying 😂😂😂 idk why this is so funny to me,17-1-2021,0
219,boxer48314,longjohn483,,lmfao,15-1-2021,0
220,Maxiii🇯🇲,maxythedoll,,I literally busted out laughing,15-1-2021,0
221,Reena,queen_henry19,,Where did you get that,19-1-2021,0
222,Jenifer Price,jenprice15,,Where did you get this ??????,17-1-2021,0
223,Kimberly Mercier,kimmikat99,,Where do we buy this,15-1-2021,0
224,rebecca 🦋,pduprebecca,,I NEED THIS,15-1-2021,0
225,user1045215108259,damian_daplug,,helll nah thats illegal asf imma tell my grandma,12-1-2021,6
226,90sMommaaa,90smommaaa,,"Ikyfk, you mean to tell me i been bendin over picking it up when i could just fkin vacuum it. Im done",13-1-2021,1
227,Anastasia,squidwizards,,Buying! 🥰,14-1-2021,1
228,Franklin,frankhundo,,He in 2050😂,13-1-2021,2
229,Angelica,azelaya1,,when i tell ya my jaw dropped😳😳,13-1-2021,1
230,Jeanette 🧿🤍,payasa27,,What is this sorcery,14-1-2021,1
231,J A I D E E,lablanquita_,,What in the Halloween town is this 😫,13-1-2021,2
232,DMPBaby,dmpbaby,,Hoooooold uppppp,22-1-2021,1
233,Luis Cervantes,luiscervantes335,,Take my money!!,13-1-2021,1
234,Sarah,sarah2drippy,,dang this was gonna be my million dollar invention,29-7-2021,0
235,Nacho,idkkignacio,,Cokebroom,6-2-2021,0
236,chivi4344,chivi4344,,Where from? I need it.,17-1-2021,0
237,Cole,coleslawsl_t,,Walmart has an electric 3 in 1 sweeper for $20 dude..,12-1-2021,6
238,Coco Torres,cocotorres.74,,Wtf!!!!!!!!!!!!!!!!😳😳😳😳😳😳,28-1-2021,1
239,Nothing here,bananabreadisgood4u,,Don’t watch my last two vids 😏😏😏😳😳,8-2-2021,1
240,KingKaardo,kngkaardo,,Link?,3-2-2021,0
241,Missheavenlly,missheavenlly,,Wth I’m about to order this 😳,13-1-2021,1
242,Elijah Zaragoza,trulyme19,,I was all like “tf the pan at? Ahhh sheeeeit nvm”,15-1-2021,1
243,Anais Vazquez,icyyy.nanaxoxo,,Omg yes where tf can we get this,1-2-2021,0
244,𝚆𝚎𝚗𝚍𝚢 𝙰𝚕𝚎𝚓𝚊𝚗𝚍𝚛𝚊,wendyalejandra,,Tf😳,29-1-2021,0
245,😈Jake Adams😈 NV,jake___937,,Wtf,17-1-2021,0
246,Liv 🧚🏽‍♀️,royaltyy.livv,,@team.ebony21 @taylorthreadgill wtf,13-1-2021,3
247,mariah,itzmariahyo,,@laxtanis can you please buy me this for my birthday😂🤦‍♀️,14-1-2021,1
248,Already Back To Life,alreadybacktolife,,"Its cool, but not worth $80. 🤷🏽‍♂️🤷🏽‍♂️🤷🏽‍♂️",12-1-2021,2
249,Geofferson Scott,geoffersonscott,,That’s a weird looking Dyson ... oh wait 😂,23-1-2021,0
250,Erica🌹,erica5310,,For $80 I rather just pick it up with my mail😩🤷🏻‍♀️,23-1-2021,0
251,Nicole,nikkinakpattiewak,,Omg! Shut up and take my money!,13-1-2021,0
252,user2949674628515,jenypr787,,"Just search broom vacuum on Amazon 😂😂😂 I just bought it instead of food , fucking tik tok",13-1-2021,2
253,user629548,tgreen93,,The last thing my wife needs is a motor on her ride....,13-1-2021,2
254,Michael S,galaxyopal_,,"Shit spend 20$ more get the shark vac mop, way better",13-1-2021,1
255,MommaCassens,fancy_mommacassens,,Or get a vacuum that can be used of hardwood floors 😏,13-1-2021,1
256,Drew Cotton,drew.cotton,,I guess you guys never saw the dirt Devil broom vac’s in the 90s/2000s,12-1-2021,2
257,Joanna Molinaro,joanna2391,,fucking tiktok..... stop showing me awesome shit I dont need,12-1-2021,2
258,Juggernaut,pissedoffjuggernaut1,,I'm calling the police.,12-1-2021,2
259,divinerubyy,divinerubyy,,😳...yep. let me pick up my jaw before you vacuum it up 😂,12-1-2021,2
260,Stop whining Karen,the_truth_hurts_dont_cry,,My women would love that as her new ride.,13-1-2021,2
261,Venus 🌞🌚,__wildwoman,,I fucking need it,14-1-2021,3
262,Slant 😈🏎💨,h22anthony,,Step ya shoe gang up bra. Toes up,12-1-2021,3
263,Bear,bear427,,can you try broken crayons before I buy my kids make huge messes,17-1-2021,1
264,Kero,kero_e46,,This guy did not just flex at me with a vacuum 🤧,16-1-2021,1
265,Ingrid Reyes,inspiredbyslim,,"80 bucks! NO thank you, better off buying an actual vacuum.",14-1-2021,1
266,luna87,vero61187,,79$ no thank you...I rather do it the traditional way.,13-1-2021,1
267,Don’t ask,iamlegit91,,I love gadgets as much as the next guy but shit bro I’ll stick to a dust pan lol,13-1-2021,1
268,BLemon,lemoon1975,,"Long overdue, I been bending for years",16-1-2021,1
269,Berecitah,pinchebere,,$80 on a broom lazy shit STIMULUS 😂,14-1-2021,1
270,Mabell💕,ummmhii_8,,Had that like 15 yrs ago that shits old.,14-1-2021,1
271,Papi Chulo,papichulo44,,A vacuum cleaner with extra steps,13-1-2021,1
272,Porchia,allpktimee,,😳 Wow more shit added to my Amazon 🛒,13-1-2021,2
273,Nezar Osman,nezarosman3,,Goddamn,12-1-2021,1
274,Stephanie Garcia,stephaniecg141520,,@ponceana92 me opens up Amazon app 😏,12-1-2021,2
275,PRO ACADEMY,proacademy2,,wtf that's facts,12-1-2021,2
276,Mrs.RachelTaterbug,racheltaterbug,,That is bad assssss,12-1-2021,2
277,.,estebantelainca,,Thats a crack broom,13-1-2021,2
278,Xareni Valentin,loving_life564,,🙉🙉🙉 definitely need this in my life 👀👀,13-1-2021,1
279,Summer Dawn,konaschaos,,Just use a fucking vacuum like the rest of us,6-2-2021,0
280,Follow my twitch asianmoe123,moekevin246,,Watch me live on twitch asianmoe123,30-1-2021,0
281,Jacob Santa,jacob.santa,,That shit sound like a leaf blower,24-1-2021,0
282,aClown,ethiopiadotcom,,Can I use my credit card? 😉,24-1-2021,0
283,Juliesthoughts,juliesthoughts,,"Sir, that’s a vacuum with unnecessary steps.",23-1-2021,0
284,Kat,katcreates,,@senoritalauraa lmfao neeeed,23-1-2021,0
285,Bandicoot,keak666,,"I usually sweep it , then get my vacuum and vacuum up the pile",23-1-2021,0
286,Nishatrustno1,jelonnieray75,,Hold tf up,23-1-2021,0
287,Jackie Biser,jackiebiser,,On another epospde of “things tiktok made me buy”,23-1-2021,0
288,Charlie,ouchcharlieethathurt,,Or just get a dyson,23-1-2021,0
289,Corena Alec,corenax4,,bruh wtf 😅 yo . i need this,23-1-2021,0
290,Renzi,kingrenzi,,Woooah wtf,23-1-2021,0
291,Ashley Rodriguez,vivianaelizalde,,$79 no thank you .,17-1-2021,0
292,Ms. Sara,ms.sara20,,oh my! I have a thing for vacuums... add brooms to the list of things that just get me going,16-1-2021,0
293,Mr J,sirlordjesus,,"So not only woman can use it for transportation, to sweep they can now use it to vacuum too. 😳.",16-1-2021,0
294,BrittanyS,brytbryt2728,,"with 2 kids and a husband,79.99 is an investment im willing to make!!! 😳😳😳",16-1-2021,0
295,Huh,joseherrera04,,Whaattaaa fackkk where? This man living in 2030,16-1-2021,0
296,🤫,hidd3nagenda,,wait... but you don’t need a broom if you have a vaccumm?,16-1-2021,0
297,Itss Elaina,itss_elaina,,I need that asapppppp,13-1-2021,0
298,Liz Bravo,lizbsd619,,wtf i need one,13-1-2021,0
299,Lucy Mania,lucymaniia,,I just bought the tineco floor one S3 and now this crap 🤦🏻‍♀️I’m definitely going broke 😳,13-1-2021,2
300,Ayan Yasin,ayan_39,,Ummm what the actual fuck! Where do I get one tho 😳😭😂,14-1-2021,2
301,user2793380831808,mindplode,,Buying it for sure. And dude you got some cool ass shit on your page! 🤘,13-1-2021,2
302,mvalles951,mvalles951,,They got those da fuck,13-1-2021,1
303,Bamba,bambalovelife,,Wut the fuck,12-1-2021,2
304,Andrea Comeau,andreacomeau5,,Reviews are so crappy,16-1-2021,0
305,crizm,cr1zm,,@gingergarza,23-1-2021,1
306,Karen,karieeexo,,@risssaasxo,12-1-2021,2
307,LolaCv,lolaxcv1,,@johnsung 😳,23-1-2021,1
308,Brianna,_sikfl,,@_sikflsfanpage,13-1-2021,1
309,Mary,marylibyan,,@hagirahmed,13-1-2021,1
310,N,nada19226,,@hanangaber27,12-1-2021,1
311,Denise Campos,denise_campos96,,@lizbeth0319 😳😳😳😳,24-1-2021,0
312,Hannah Howard,hannahhoward34,,@rebelgirldarlin,23-1-2021,0
313,santosvegajr87,jose.vega87,,@missrachel.xoxo,17-1-2021,0
314,Niomi Pugh,niomipugh,,@abbymaress,15-1-2021,0
315,Alexandria Dee,alexdeesvegancocina_30,,@.renz0_ 😳,13-1-2021,0
316,Reina 👑,reinabrito123,,@tatertotsbabe 😳😳,13-1-2021,0
317,Emely,emely..hernandez,,@kaylieroessler1,13-1-2021,0
318,Kiara,key.araa,,@zulemairacema,13-1-2021,0
319,Claudia Andrea,claudy.co,,@oscar.nunez @marysclubber,13-1-2021,0
320,N🦋,its_nesshaa,,@lexisssparkless,13-1-2021,0
321,Bebe,bebestiktoks,,😲😲😲😲,12-1-2021,5
322,Vanessa Hernandez,vanessaehernandezg,,@blancahernandez087 @jessicahdrz,13-1-2021,1
323,Kristal Delacruz,kristal.dlc,,@eyebrowssbyjenn 😳,14-1-2021,1
324,Giselle Santacruz,gisellesantacruz5,,@alondraaa_e,24-1-2021,1
325,Tunnyramirez,kittykittyr,,@marine.emi95,23-1-2021,1
326,Vanessa,vanessabee19,,@vxleriie11,13-1-2021,2
327,crusty tampon,dusty_bawls06,,@haylee_marie__,7-2-2021,1
328,Mowis,hi_1846,,@lyssaerin96,3-2-2021,1
329,yary💰,yxryy_,,@liz.veras1,1-2-2021,1
330,lacki<3,heluv.lacki,,@ishagrg_,24-1-2021,1
331,Jared Janvier,jaredjanvier,,@angela.f0,24-1-2021,1
332,𝒟𝒶𝓃𝒾𝓈𝒽𝒶,danishaaaa_,,@anaisope @ihy.melyy,24-1-2021,1
333,Cathy,liilcathy,,@marieaudry,24-1-2021,1
334,✨☁️Uh.Nayonna☁️✨,xoxo_its.nobody,,@cdiamond1989,23-1-2021,1
335,faxxmaxx,faxxmaxx,,👁️👄👁️,15-1-2021,1
336,Allison Arreaga,4eign.beauty,,@katiecaceress @juicy.papi_,13-1-2021,1
337,Lorna Zapata,califlorna,,@teerishz,12-1-2021,2
338,PERLA,xoperly,,@jenniibabyyy,12-1-2021,2
339,.,llll.llj,,@uzilovemee,12-1-2021,2
340,Dev,d_xv1ne,,@rosamaria_ofc_ 😂,12-1-2021,2
341,Chiann,chiannlikecayenne,,@drew_torres2 @kimberlyclift,17-1-2021,2
342,Kamryn Faulkner,kamelizabeth10,,@pimp00daddy,25-1-2021,1
343,Puthywillow,puthywillow553,,@sexcdaddybae,23-1-2021,1
344,Alexia<3,ang3lcl1t,,@olismilebig,23-1-2021,1
345,Frankie Cantu,frankokream,,@sesilyperales 👀👀,17-1-2021,1
346,your favorite 🥰,itss.jesss.__,,@alexy.s,17-1-2021,1
347,V I C T O R I A R E D W O O D,unknownnn475,,@everydaychasin,16-1-2021,1
348,Emily Nguyen,emmilyyn,,@jimmypreet416,15-1-2021,1
349,Mmnx_,monceexo,,@coldersplash59 !!!!😳,15-1-2021,1
350,Denniseee,moradennise99,,@briandamerino 😳😳😳😳😳,15-1-2021,1
351,Emma Voss,emmavoss0,,@idontknowwhatwasthatguys,15-1-2021,1
352,Desree,leavemeal0n3_,,@isabel.mtz27,14-1-2021,1
353,Eloiza R.💫,elowezzy22,,@theyluvrenee,14-1-2021,1
354,Anthony Rojas209,anthonyrojas845,,@angel_tempest1,13-1-2021,1
355,Josias Bello,j0sias713,,@em2glock,13-1-2021,1
356,user7871460750552,andysodope,,@michiex.j15,13-1-2021,1
357,jennessycc,jennessycc,,@ash.ley2311,13-1-2021,1
358,jahir_1920,jahir_1920,,@jaysanchez665,13-1-2021,1
359,Pablo Montoya,pablits22,,@kat_0323,13-1-2021,1
360,Cindy Villanueva Ser,cindyvillanuevasermeno,,@pattygdz,13-1-2021,1
361,LloanaC,lloanaaa2,,@juanisyourdad1,13-1-2021,1
362,Cinthia Cortez,cinthiacortez92,,@cortez_0420 😳😳,13-1-2021,1
363,blacktivist ♒️,lamissdjj,,@darbiparchelle @laneeshashereece,13-1-2021,1
364,Aylen Urias,aylenurias,,@leslyurias56,13-1-2021,1
365,shahd🤩,othmann.shahddd,,@salsa0_0bloop,13-1-2021,1
366,LaGueraSosa,laguerasosa.2,,@yuhsosa,13-1-2021,1
367,Diana,diana.lovey,,@pokoyo.12,13-1-2021,1
368,JoceyRuiz,joceyruizs,,@susethsantini,13-1-2021,1
369,Christopher Barnett,cbdatdude,,@iris3lo,13-1-2021,1
370,Canelita Girl,br0wn_barbi3,,@mamalanaaaa,13-1-2021,1
371,Kendall‼️,k3nnddaall,,@jazznune,13-1-2021,1
372,Brittni,brittni323,,@jwalker2008,13-1-2021,1
373,Alexis Almaguer,alexisalmaguer93,,@3dith83,13-1-2021,1
374,nancykg16,blueturquoise95,,@cgarcia.20,13-1-2021,1
375,🖤.Bella.🖤,bnashy78,,@irachetajackie27,13-1-2021,1
376,Mom.,forevermpl,,@nancylaoyang,13-1-2021,1
377,mannyfresh_18,mannyfresh_18,,@hekkaandshit,13-1-2021,1
378,Delfina,d.e.l.f.i.n.a,,@petergirgis06,13-1-2021,1
379,Pillinaa.x,pillinaax,,@michelleee0106,13-1-2021,1
380,Alex Vega,janni_vc,,@deisywithane,12-1-2021,1
381,Yyvllii,yyvllii,,@carmenyaretzy,12-1-2021,1
382,Jordan Aguilar,jordanaguilar27,,🤯🤯🤯,12-1-2021,1
383,Lorena,wickedbubbles,,@mulan1230,12-1-2021,1
384,Leslie Ann Lane,leslane2012,,@derekwlane,12-1-2021,1
385,Anerica,anerica.lozano,,@jadedelgado25 @america_lozano01,12-1-2021,1
386,Jorge Rodriguez Jr.,j_i_t_o914,,@love_is_shi,12-1-2021,1
387,user6041218537054,karinatuncel,,@karlisz31,12-1-2021,1
388,Shi sup,excuse_me_dawg,,@ameerha.55 @hold.up.what,12-1-2021,1
389,@_@,taiga23023,,@lament_tzzzz @nina.princess,12-1-2021,1
390,Bbgon,bbgon13,,@kimberlygonzale50 @melissaaviless13,12-1-2021,1
391,Bernadette Mason,bernadettemason67,,😳,12-1-2021,1
392,kassmadrigal,kass.madrigal,,@alyssaatorress_,1-8-2021,0
393,Deoletty13,deoletty13,,@dopeimean_,10-2-2021,0
394,🧍🏽‍♀️,bluefish057,,@t0rres_rubyy,2-2-2021,0
395,victoria :),ummimvictoria,,@ashobee24,1-2-2021,0
396,a.amy_,a.amu55,,@avm_123,31-1-2021,0
397,Fhdhdbv,rrhf05,,😳,31-1-2021,0
398,yanirarubio73,yanirarubio73,,@jorgelokero,31-1-2021,0
399,Holly Holt,holly_holt1979,,@theparkerfamily_,31-1-2021,0
400,Alyssa,alyssa_gone,,@boomerzay,31-1-2021,0
401,.,shawtyl3ss,,@randomuser2230,30-1-2021,0
402,Ashley Noemi,favashh,,@davidgaspar1854,29-1-2021,0
403,enrrique rivera,enrriquerivera0,,🤯🤯🤯,28-1-2021,0
404,jenette,mcmxcvii.28,,😮🤯,25-1-2021,0
405,_erica.rae_,rickkkkyyy_1,,@nicia.king,24-1-2021,0
406,Gladys Machuca,gladysmachuca7,,😃,24-1-2021,0
407,❤️,ollxbgg,,@xoxox.0,24-1-2021,0
408,🤍,theonlycoolmf_15,,@asmerelldahamilto,24-1-2021,0
409,Eccenceee,eccenceee,,@e.liyahsurles,23-1-2021,0
410,Karina Perez,karinaperez8,,@high_flyer27,23-1-2021,0
411,Yuh,watched_interstellar222,,@yazmeani3,23-1-2021,0
412,k b,kemp339,,@sunshinebri20,23-1-2021,0
413,minaaa,fwminaa,,@wowneezy,23-1-2021,0
414,Dayanara,its.dayanararivera,,@nathalie_rivera56,23-1-2021,0
415,Kimberly,kpossiblekp,,👁 👄 👁 !!!,23-1-2021,0
416,sp00ky.lunaa,sp00ky.lunaa,,@pow_is_here,23-1-2021,0
417,Patty🌻,pattylexxie,,@evelynjuli1 😳,23-1-2021,0
418,Chloe,wheresthe4vocados,,@picklesnrice1,23-1-2021,0
419,Nck,rstricted,,@ytineo76 😳,23-1-2021,0
420,Janae Alhammadi,janaealhammadi,,@mohammedalhammadi77,23-1-2021,0
421,Brenda Flores,brendaflores242,,@carlosgmartinez3,23-1-2021,0
422,sheewhoshallnotbenam,sheewhoshallnotbe,,@edwarddiaz9111,23-1-2021,0
423,Stussyman117,stussyman117,,😑🥱,23-1-2021,0
424,Bianca Medina,puxxyweed,,@michellesolis446,22-1-2021,0
425,Kriztofito🔥,krizvancastle,,@yo.celin_xo,17-1-2021,0
426,Aya Sallee,ayafore60,,😟😟😲😲,17-1-2021,0
427,Alyssia Linton,alyssialinton,,@kwilliams1913,17-1-2021,0
428,GOOD VIBES ONLY☀️🌸,jessicasodaaheyy,,@codycarson8,17-1-2021,0
429,NaeSki 🥴,ganaejamison,,@user6801052872901,17-1-2021,0
430,Shailyn D Olguin,shailyndolguin,,@jasperthesneakerghost,16-1-2021,0
431,Flapjack,lilbittzzz,,@victoriafrabbiele,16-1-2021,0
432,Curtis Edmond,curtisedmond,,@brittneysmith488,16-1-2021,0
433,Hubert Escobar,hubertescobar5,,@naharaaragon,16-1-2021,0
434,Justina Stanley,ninastanley_8,,@rdegy,16-1-2021,0
435,Nancy Nieto,nancynieto66,,@marylouc2313,16-1-2021,0
436,Alexis Azua,y2klexi,,@yama10k,16-1-2021,0
437,Sherry,sherry_love19,,@h_lanea1981,16-1-2021,0
438,Adriana Morales,adriana032616,,@jesusaguilar928 😳😳😳😳,15-1-2021,0
439,Nataly's🦩,nataly41613,,@paulavillacres4,15-1-2021,0
440,mariah,famouss.rriah,,@symone_w1,15-1-2021,0
441,jazmiineeeee._,jazmiineeeee._,,@lultana,15-1-2021,0
442,☁️𝕋𝕒𝕚𝕟𝕒☁️,t_mvl,,@aurea_8,15-1-2021,0
443,Ceecee28,cynthiialmejia,,@lettiimounce 😳😳,15-1-2021,0
444,Katelyn Buzzard,katelynbuzzard31,,@jbuzz90,14-1-2021,0
445,Nancy 🦋🥀,nancy._.m,,@gbc.janeth15,14-1-2021,0
446,Lulu,lulu_kitana,,@ashley_xo1993,14-1-2021,0
447,Leish,chvz43,,@harley1997,14-1-2021,0
448,KT,trrskrn,,🤯,14-1-2021,0
449,Brendita,brenditagui,,😱😱😱😱😱,13-1-2021,0
450,🦁,jaynathalie,,@mespino69,13-1-2021,0
451,123,3c177,,@michelleeee2x,13-1-2021,0
452,Mario Chavez,mariochv,,@paulaa8e1,13-1-2021,0
453,Natalie Rodriguez,talie_._0,,@jandroc70,13-1-2021,0
454,Audrey Rose,audreyrose40,,@1014iada,13-1-2021,0
455,che,nonperishables,,@1radical_s13,13-1-2021,0
456,Robin Griner,robingriner,,@robsab85,13-1-2021,0
457,lobv,lolamana_,,@kashincee,13-1-2021,0
458,Daniela Lopez,_trustmedanny,,@n47hn,13-1-2021,0
459,Mayra Maldonado,mayra..89,,@yosoy_ivan_,13-1-2021,0
460,mechealvarez_,mechealvarez_,,@itzbella413,13-1-2021,0
461,Jennifer,jennyjamiex7,,@dheidy @cuba1220,13-1-2021,0
462,Liyah1820💙🤍🥰💯,smile33122,,@tweety_bird32,13-1-2021,0
463,Indiaaaa❤️❗️,indiajacksonn1,,@sooiceygirl.k,13-1-2021,0
464,Josh Watsonero,sun_flowerz1994,,@imbanditz,13-1-2021,0
465,Sarenity Watson,sarenitywatson08,,@danionnabeat,13-1-2021,0
466,Leo Camarena,lilceo775,,@meruhdeath,13-1-2021,0
467,Marcos Silva,m_silva12664,,@silvafamily541,13-1-2021,0
468,Musiktattd💯,musiktattd,,@teresedano,13-1-2021,0
469,jamie,jaymee_soto,,@feljam21,13-1-2021,0
470,Jason Toler,bigbino88,,@brmilla,13-1-2021,0
471,Spanishxbarbieeee,spanishbarbie.1,,@jessicaalbizo @spanishhxbarbiee,13-1-2021,0
472,Adelin223,adelin223,,@rosalbaguerreropa,13-1-2021,0
473,Crys M,mrs.negativity,,@nolifeh1234,13-1-2021,0
474,violetkat01,violetkat01,,@yoshimitsuuuuu,13-1-2021,0
475,Erika Bjerke,erikabjerke,,@amberbjerke,13-1-2021,0
476,Eau,eau.apok,,@julianacx,13-1-2021,0
477,Oscar S,oscars1024,,@nancy88h,13-1-2021,0
478,Sole & Toa,soletheucepitbulll,,😳😱🤯😂,13-1-2021,0
479,Nereida Berrios,nereidaberrios,,@jaaddeee_10,13-1-2021,0
480,Alexis Almaguer,alexisalmaguer93,,@eljuly06,13-1-2021,0
481,Tayley,tayleybayley,,@jordanshandor,13-1-2021,0
482,Cristian Cayax,xayacayax,,@ciindii_c,13-1-2021,0
483,Sierra Febus,sierrafebus,,@skyemarie96,13-1-2021,0
484,Irvin Nava,irvinnava96,,@jackiejack25,13-1-2021,0
485,Courtney Thornton,courtneythornton39,,@joelrcorrales,13-1-2021,0
486,jackieJZ,jackiejz,,@missycastle 😳,13-1-2021,0
487,Matt Green,mattgreen98,,@amberking84,13-1-2021,0
488,Natalie,natalieeemartinez,,@joshvento,13-1-2021,0
489,SylviaDMG,sylviadmg,,@steveag93,13-1-2021,0
490,Angelica Pickles,lil_jelly12,,@20foursvn,13-1-2021,0
491,david moreno,_davidmoreno,,@xochil.arcos,13-1-2021,0
492,vvs,vivsxl,,@jeniferlopez204,13-1-2021,0
493,Lily Gonzalez,texasqueen915,,@gerardochairez213,13-1-2021,0
494,Becca_her27,becca_1915,,@elisarios110,13-1-2021,0
495,lydia_delzeith,lydia_delzeith,,@sergiothegoat0,13-1-2021,0
496,user1589859495170,lyssajayne111,,@adamllorence,13-1-2021,0
497,Marissa Cazares,maricaz81,,@annagomez1983,12-1-2021,0
498,Jenni Urbina Tapia,jenniurbinatapia,,@bereniceurbina5968 @itsfazioofoo,13-1-2021,0
499,Vanessa,vanessabee19,,@itsabigsky @arielleeeeexo @cynthiaaa310,13-1-2021,0
500,Jazmin Ponce,jazminponce52,,@carlosponce133 😳,12-1-2021,0
501,Andrea Nallely,andreanallelycreations,,@arturodiazdeleon 😅,12-1-2021,0
502,Lilly V,lilly_210_,,😳,13-1-2021,0
503,mal.keo,mal.keo,,@mayahposada_,13-1-2021,0
504,Holden Afart,holden._.afart,,@narcobarbie15 @dtn.leilani,12-1-2021,0
505,user756049694753,millionaway,,😳,13-1-2021,0
506,user8473421086367,layneyudith1,,@user4068415457418,13-1-2021,0
507,YaYa,_yaya_krism_,,👁👄👁,12-1-2021,0
508,Marlubug92,marlubug,,@lunav12910,13-1-2021,0
509,SuuWhoop,roqui437,,@rebeckasi,12-1-2021,0
510,Cairo,400cairo,,@nayeexoxo,12-1-2021,0
511,Trent Pickering479,trentpickering4,,@octavia.rae,16-1-2021,0
512,Criddle,criddlewiddle,,@sallyphung24,12-1-2021,0
513,Maria Mendez,carmen_mendez7,,@jeffreytrumpy,12-1-2021,0
514,Ronnie Ott,ron0tt,,@ayydrianah,12-1-2021,0
515,Plain Jane 👸🏾,kyladrisker,,@amaadlebronmoody @mybusinessaml,14-1-2021,0
516,Clover,.clovers.life,,@user3059691527041,12-1-2021,0
517,kabootle418,kabootle418,,@luiscervantes335,12-1-2021,0
518,Sayra Dgnf,sayradgnf,,@efraiin.c,12-1-2021,0
519,walka,lamsoakakdkkaka,,LMFOAOAOOAOA,14-1-2021,0
520,luzanna1120,annnaa111,,@anahernandez8239,12-1-2021,0
521,MONICA SICAL,monica.sical,,😳,14-1-2021,0
522,Astrid❤️,wavvy.dxddy532,,Aaaaa,14-1-2021,0
523,Vanesa Castillo,vanee_005,,@biancacastillo69,12-1-2021,0
524,Ana <3,ana_quebrado.23,,@criddlewiddle 😱😱😯,12-1-2021,0
525,Salomon Segovia,52sallll,,@erikalevick,12-1-2021,0
526,M V,marlenev_r,,@j.q92,12-1-2021,0
527,alisson<3,alissonm,,@bella.barrientez,12-1-2021,0
