,Comment Number (ID),Nickname,User @,Comment Text,Time,Likes
1,BM,bm8c7,,I remember jailbroken ps3's was hella expensive,25-1-2021,16
2,Tik Toker,gravewalks,,i never knew you could jailbreak s console,22-1-2021,32
3,Aydin,aydin_foley,,ps3 ultra pro 9000,22-1-2021,6
4,my name dubs yall,t_y_aka_dubs_himself,,"play station is life
❎🗑",5-3-2021,3
5,peni,telev1z,,More,22-1-2021,2
6,user6554965405491,skared_eclipz,,Make part 2 right now please 🙏,23-1-2021,2
7,Manny Sousa,mannysousa3,,I got a jailbroken ps3 best game to mess round wit either black ops or gta 😂😂😂,12-2-2021,4
8,𖤐,onloyaal,,never seen someone waste this much time,25-1-2021,0
9,Dylan Shaw,but.sir,,Where’s part 3,11-2-2021,0
10,zzz,k2ps0,,ayo where part 3 bro?,14-2-2021,1
11,Rizey Dizey,riskyrizey,,DOWNLOAD GTA5 mods lmao,25-1-2021,0
12,941 Dawg,941.jhit,,where’s part 3,10-2-2021,1
13,José Espindola,josespindola,,you take too long,2-2-2021,0
14,sebekk4,sebekk4,,Tag me in part3,24-1-2021,5
15,Yur,yourcancermomy,,Is still got a ps2 somewhere but i found the (XBOX) the og big old wires controller one and its jailbroken😳,25-1-2021,0
16,𝕬𝖚𝖘𝖙𝖎𝖓2𝖋𝖑𝖞,_.enderman,,bruh I was waiting for you to be bricked,25-1-2021,0
17,Drixify B.V.F,cybrxl,,I remember I jailbroke my ps3 I was so fucking hype lmao,7-2-2021,0
18,angel,tarbabymilk,,Slide me a CID,2-2-2021,0
