,Comment Number (ID),Nickname,User @,Comment Text,Time,Likes
1,🕺🕺,biglargefries,,All that just to have your door broken with a strong kick ?,1-3-2021,92
2,Mike,mikedecastro24,,Bro it’s on a wood door lol,1-3-2021,44
3,Neno George,nenogeorge,,who flexes a door knob😂,27-2-2021,14
4,demetrius🧸,demetrius._.27,,where do i get one?😂,1-3-2021,18
5,Matthew,mattthewvl,,Bro what!?!? We have those same kinda door knobs as the first one in our house.,1-3-2021,9
6,miran,md.tkc,,@jskaiser2005 hast du auch oder,17-3-2021,2
7,Wiktor Wdowiak,gamingtuber081,,And.. it only costs 348$ GO BUY IT NOWWW,22-4-2021,5
8,Riley freeman,riley5655,,can't you just break the whole door,2-3-2021,6
9,Michael,mitchellincognito,,pov: 5 min crafts,1-3-2021,6
10,🅕︎Ⓘ︎🅡︎Ⓔ︎ت︎,fire.luvs.you,,trust issues:,4-3-2021,5
11,Ghxst,ghxst545,,so are people now showing off there doorknobs?🤔🤨,3-3-2021,5
12,Dre wilson,moredrewilson,,What’s homeboy hiding in there🤨,1-3-2021,1
13,ABOW KNAS,abowknas_112,,Where can you buy this? I want one😳,16-4-2021,3
14,Cooper The Sheepdog,cooper_collie,,sheesh that's neat,7-6-2021,2
15,Noah,noahisthehero06,,Wow,1-3-2021,1
16,...........,typhos017,,Change the door to a 30feet vault,4-3-2021,1
17,𝕊𝕙𝕦𝕘𝕘𝕒,shuggs_._,,"He got the key the NFC, The mp3, the dvd. He got all of that",1-3-2021,2
18,Banana 🍌,.b3ast,,what you doing in there,2-4-2021,2
19,.,_just.ala,,@snowyyy_dawod123 sheeeeeeeshhh 🥶,27-4-2021,1
20,MichaelSanchez08,fwegilump,,What brand is this?,16-3-2021,1
21,Apple User853436368,user7785435026665,,"What if you in danger and you can’t open yo door fast enough, or lose one of the things you need to open it and are trapped? (This is a genuine questi",2-3-2021,1
22,dxegox,dxegox123,,uai e se tiver sem energia??,4-3-2021,6
23,tessaabaetens,tessaabaetens,,@emsdewulf DA HEBT GIJ NODIG!,4-4-2021,2
24,par0ks3tyna,par0ks3tyna,,@_p_w powinnas sobie taki zrobic,4-3-2021,2
25,:),manino247,,ose la primera opcion es buena para uir de un asesino pero la segunda es buena para que no entren tus padres😅😅,5-3-2021,18
26,Friyu512,friyu512,,encontré una perilla más inteligente que yo,13-3-2021,3
27,.,collip7_,,Name?,21-4-2021,1
28,Bert Boye,bertboye,,THE ZOMBIES ARE GONNA GET YOU BECAUSE YOUR OILY HANDS CAN'T OPEN THE DOOR FAST ENOUGH 😭😭😭,20-4-2021,1
29,d14y,daddiesliittleboy,,but the door still in wood😂,18-4-2021,1
30,Xavier,x.av_ier,,mad trust issues ...,18-4-2021,1
31,Joshormerod2006,josh_ormerod8890,,He said no mom you can’t come in,2-4-2021,1
32,,driopolos,,,29-3-2021,1
33,kiara,kiaraavdiaj3,,@christinegk7 I need this,27-3-2021,1
34,51,astronasa51,,@elena_gsb u need this,25-3-2021,1
35,Jason park Prada🔚🎮♠️♟🖤,jasonparkprada,,😂😂 I WAS WAYYYy AHEAD OF YOU A YEAR AGO MY DUDE ! But until my mom wanted to act like the police and know my whole door down!,4-3-2021,1
36,Ze Trash Man,ze.trash.man,,Good thing I have an axe 🪓,4-3-2021,1
37,Jack,jacobroy82,,Your widow tho??! What about your WINDOW HUH,2-3-2021,1
38,Jpanda4life,jpanda4life00,,Well there both yours😂,1-3-2021,1
39,user978986,user637enendbjdjdndjd,,What you hiding in there god,1-3-2021,1
40,Cason,casont3,,What u doing in ur room bro,1-3-2021,1
41,idk,_m.808,,what if you have a handle 🤔,1-3-2021,1
42,FIJI Reclips Yt,sethyydee,,I have a sliding door😂,1-3-2021,1
43,Undeldog,undeldog,,Tell me you have trust issues without telling me you have trust issues,1-3-2021,1
44,Fredrick Dunlap,fletcher0010,,Hahahahaha,1-3-2021,1
45,Mian Jalal Syed,mianjalalsyed,,Mans is drippy with it 😂😂,17-11-2021,1
46,b e r t h a,aliciaswanderlust,,@x4nick619 i saw this on amazon😳,14-10-2021,1
47,.,yvngxhmad_on_expo,,SHEEEEEEEEEESH😳,12-4-2021,1
48,876weir,876weir,,where can I buy 1,16-4-2021,1
49,Stephen Livingston,ksl.2k,,@_kaitlynnicolee I need this,1-3-2021,1
50,Random acc,marekbulejcik,,its not smart door lol its smart lock,30-3-2021,0
51,serban.py,serban.py,,Ooo bro i need a laptop with kali 😂😂😂,11-4-2021,0
52,WASSLA™,wassla.shope,,nice one,4-4-2022,0
53,DAPPRA,pusatindustri,,good,2-4-2022,0
54,ob,obza77,,We're did you buy it,30-1-2022,0
55,Ja’quavion Tavius,calmdownjamal03,,Seen it it ok ig,8-1-2022,0
56,Triadicplaines27,triadicplaines27,,What’s it called,2-1-2022,0
57,Blanclord,blanclord,,brake the door down.,12-8-2021,0
58,king of the skeletons,helli752,,we can just break your door😏😏😏,25-7-2021,0
59,ryuukiwifey,ryuukiwifey,,So if u were running from danger how long will it take u to get in... Or do u only need one of those security keys to get in?,16-7-2021,0
60,dad can i have a cat 😍😍,l0cal_cat_l0v3r,,I need this so bad- my sister comes into my room without knocking,16-6-2021,0
61,Nomaddict91,nomaddict91,,where ya get it?,30-5-2021,0
62,Raivid_IV,rai_iv,,where can I buy it,30-4-2021,0
63,Cloud Pockets 🧘🏻‍♀️💗,cloudpockets,,Why did nobody comment,30-4-2021,0
64,user519039,chrisdawrist,,1 kick and job done😂,29-4-2021,0
65,Josh Hamilton,theulsterbus,,"I mean, I’d still kick the door in 😂",29-4-2021,0
66,Hallo,x_kloschen_x,,Mine is like your too,28-4-2021,0
67,Ralph Muurlink676,idk_good_name123,,where to buy?,24-4-2021,0
68,damien,damienvdberg2003,,Where can you buy this,22-4-2021,0
69,Dan,dani101947,,I don't have one,21-4-2021,0
70,Corey Evans,coreyevs1,,It's wood I'll just kick the door through,13-4-2021,0
71,Calvin Williams,calvinwilliams80,,"Hey Alexa, open the door.",13-4-2021,0
72,Arez,whosarez,,Coming in at 2000 dollars,13-4-2021,0
73,george brooks,the_radom_videos,,What if you are trying to escape a cereal killer,13-4-2021,0
74,spaceorion01,spaceorion01,,this man locking out his ex 😂,13-4-2021,0
75,Vince,kirishimavince,,i have a doorhandle,13-4-2021,0
76,Memes,meme_banterz,,Where did you buy and how much,13-4-2021,0
77,Atak Mc,atakmc,,"Give me 2 mins with the lock or 5 seconds with the door, either it'll be open.",13-4-2021,0
78,TWIISTED STUDIOS,twiistedstudios,,and I bet lockpickinglawer can still open it 😂🤣🤣,13-4-2021,0
79,Megan Talbott,megatron_3000,,and we allllll know whats behind that door,13-4-2021,0
80,johan,itzjanpregp,,Dis nice en als maar jy kan mos net die deur af skop as jy will in kom,12-4-2021,0
81,Deviltraps,deviltraps,,Thats not gonna save you when someone gonna break the door down😂😂,12-4-2021,0
82,Joso DA,okt.07,,Mine is just a blanket,12-4-2021,0
83,bruh,_bruhh.hh.hhh_,,wyd if a thief come in ur house and ur room is thw only place u go,12-4-2021,0
84,🦋,naturallyvibes,,Mine is broken,12-4-2021,0
85,Ben,ukkeliteben1,,You hiding the cure to cancer or something,11-4-2021,0
86,It’s just me,u.gwija_materialgurl0,,don t need to brag,9-4-2021,0
87,Gym_tok_x,gym_tok_x,,Where to buy:),9-4-2021,0
88,Amandaa Lee,axv_18,,@flakko_210 we need this babe for the front door our room & studio door,7-4-2021,0
89,🏃🏾‍♂️🏃🏾‍♂️,comeagain27,,I can still kick that bih down 😂😂,5-4-2021,0
90,Fingerprint lock,elocksecurity20,,😁😁😁nice,3-4-2021,0
91,Boiiiiiii,boiiiiiii18,,All that to hide from mom. Ok bruh 😂😂😂,3-4-2021,0
92,𝒜𝓇𝓌𝒾𝓃,arwin_sh,,THAT THING COST 120$,3-4-2021,0
93,Jasmin,jas_griff,,Where do I get one exactly????,3-4-2021,0
94,Josh Osborne,josh2000osborne,,Where can you get it and can you get it in the uk? What is it called?,3-4-2021,0
95,Jonathan Byrö Nordgr,jonathan.bn0,,mine has a lever! beat that!,3-4-2021,0
96,Jonathan Byrö Nordgr,jonathan.bn0,,mine has a lever,3-4-2021,0
97,Fejle.Kobiet,fejle.kobiet,,One kick pass,2-4-2021,0
98,Leon,slightly_aggressive_lamp,,It’s a door that you can literally jump through,2-4-2021,0
99,Jeidoz,jeidoz,,Avarage 🔨 do knock knock...,2-4-2021,0
100,Skello,skello.j,,Just use Alt + Tab lmao,2-4-2021,0
101,Bbygirl🧸🍯,kawaiii._.chann,,Until it don’t work no more 😂 (I’m sorry don’t hate me😅),2-4-2021,0
102,Realboxingufc97,realboxingufc97,,Just kick down the WOODEN DOOR LOL 😂 😂,2-4-2021,0
103,Karolis Kvasas,nnnnnnnnnnnnnnnnn041,,a click out 1.. 2 seems to be binding...,1-4-2021,0
104,Sebastián,redbastian,,If you are American it doesn't matter because your doors are probably trash,1-4-2021,0
105,Lukas Binder,lukvasova.kavicka_sro,,Name od product?,30-3-2021,0
106,TalktoMista,talktomista,,no door can stop me,30-3-2021,0
107,nobby3,user472848463747483836,,Tell me you have insecure and unnecessary tech without telling me 😂,30-3-2021,0
108,Ramon Boeve,ramon.b.power,,@teunmarcelis dat is wel Nice 😏,29-3-2021,0
109,renn,iluvaniqah,,Say you have trust issues without saying you have trust issues,27-3-2021,0
110,Leone,l3o4e,,wher i buy that,26-3-2021,0
111,Kaenon Hardy,kaenondh,,Where can I get one,26-3-2021,0
112,nise,hoynise,,how to do that,20-3-2021,0
113,Juan :),howzersupremacy,,Does it have DNA recognition as well? my god,20-3-2021,0
114,Liz,inluvwitmyself2,,@no u n,17-3-2021,0
115,Tudor,.tudor5,,One hamer and ia done 5k$.,17-3-2021,0
116,うちわ,xosxd,,where do you buy it??,16-3-2021,0
117,(⌐■-■),idnnnw,,where did you buy if,16-3-2021,0
118,....,24houruntildeath,,you have a door 😳,14-3-2021,0
119,𝐕12.leo,v.ghost.leo,,and what if i need to pooo,12-3-2021,0
120,😎🤠,bechclap,,what if electricity turns off in your house?,9-3-2021,0
121,Berkan,berkan260,,and your cardbord houses can just hit the wall next to it and open from the inside,5-3-2021,0
122,Tik Toker,taquitosdbeserro,,detalles y precio 😎,5-3-2021,0
123,Elias Alva,alvamaca,,hello this is the Lock Picking Lawyer...,5-3-2021,0
124,Viktor Adrian,viktor_a_c_t,,@alondra_0709 me compras una,5-3-2021,0
125,Marki,motardxd,,i have a handle 😱,4-3-2021,0
126,ur mom<3,jiminsslefttoe,,Ima need that,4-3-2021,0
127,I’m Abcd,am_justnobody,,And thats water 💦,4-3-2021,0
128,Samgoo,_samgoo_,,Just kick out the door,4-3-2021,0
129,Doge,doge820,,pov: he is being chased by a murderer and tries to open this door,4-3-2021,0
130,Demonic Kitten,satan1c_g1rl,,where do you get it?!!!,4-3-2021,0
131,Dakota,_dkota_,,That’s a lot of work for a kickable door,4-3-2021,0
132,Chase CB Olen,chasecbolen,,Just......why😧??,4-3-2021,0
133,Zombiechow,zombiechow,,I can still take it down 😁,4-3-2021,0
134,🕴,adownbadking,,so many ways to break in😏😬,4-3-2021,0
135,The Dark Knight,the_gaming_weeb9429,,bro what are you hiding in there for that kind of lock,4-3-2021,0
136,Cory Allmon,painsetter1977,,One foot bypasses all that. Locks are for the innocent,4-3-2021,0
137,Michelle Weiss,michellemweiss,,Tell me you’re rich with saying you’re rich,4-3-2021,0
138,Lakelife1279,lakelife_1279,,I could have that open in one swift kick 😂,4-3-2021,0
139,SimplyTonyyy,simplytonyyy,,price?,4-3-2021,0
140,austin_michael_90,austin_michael_90,,The old credit card like oh I got this one fam we going in! 🚪💳🏃🏻,4-3-2021,0
141,Jesse Monko,jessemonko8,,trash opens in 2 sec,4-3-2021,0
142,Mac,3booksofoccultphilosophy,,😅,4-3-2021,0
143,Ybc DeRose,ybcderose1,,That to much Wah if you get in arguments and you hit to type a passcode to get in yo room 😂😂,4-3-2021,0
144,user900434,kh_first,,What do you have to hide? 😳,4-3-2021,0
145,elijr3,elijr3,,Can it stop a well placed kick too?🤔,4-3-2021,0
146,Crystal Rie,crystalrie,,His obviously in there making a bomb,4-3-2021,0
147,Zay Williams,real_zay9,,All that for what? When my momma try to open it that mf better be open😂,4-3-2021,0
148,jeremiahgant1011,jeremiahg22346,,when you loose the key and the card,4-3-2021,0
149,Miguel Solano,miguelsolano51,,so wouldn't it freeze if it got to cold? what's it rated for,4-3-2021,0
150,Shadowclaw,shadowclaw85,,"If I can kick a 2x4 in half, that door doesn't stand a chance. Why not do this with a metal door?",4-3-2021,0
151,agentfrost,agentfr0st,,when you have something to hide with out telling me you have a secret. 😬,4-3-2021,0
152,Dubish,dubishh,,It all games till power goes out😳,4-3-2021,0
153,Andreyblair10,andreyblair10,,tell me how you know your boyfriend cheating on you without telling me hahaha,4-3-2021,0
154,rabserves,rabserves,,I could still probably get in that room with an old credit card 😂 (that is a cool doorknob tho ngl),4-3-2021,0
155,Jacob,jacob.amberg,,I need that,4-3-2021,0
156,Matthew Mceachern,mattdm16,,Bruh,4-3-2021,0
157,preston.merklin,prestonmerklin1,,I have the key guys. its called my boot,4-3-2021,0
158,Efrain Hernandez,efrainhernandez6413,,We’re did u get that,4-3-2021,0
159,user1612694875806,wellyouwantedattention,,...meet mom's foot....,4-3-2021,0
160,Douglas Swanson,pretty_pretty_prettygood,,MINES,4-3-2021,0
161,Xavier Masotti,xaviermasotti,,"If someone wanted to break in, they’re going to break in 😅😂",4-3-2021,0
162,Kaleb,_kaleb_24,,Exactly how much did this cost you? I truly wanna know,4-3-2021,0
163,PotBot,replisol,,Nope. have the same one. Next!,4-3-2021,0
164,Onikage.961,onikage.961,,But all you need is your foot to open the door😂,4-3-2021,0
165,heartless merv💔,pvomerv,,ayoo where u got that from😳😳,4-3-2021,0
166,user3930130975456,tony_sanchez36,,I bet your siblings still kick in the door,4-3-2021,0
167,nathanwsmith,nathanwsmith1,,where can I by this,4-3-2021,0
168,David Hofmann,sharkcookie,,My foot knocks your door open in 0.5 seconds 😂,4-3-2021,0
169,Alpha_Entertainment_Chicago,alpha_chicago,,im coming over with scotch tape,4-3-2021,0
170,Fernando Salazar,fernandosalazar159,,the door still made of wood,4-3-2021,0
171,Tanja Kricfalusi,tanjakricfalusi,,I want one,4-3-2021,0
172,Quan Griffin,quangriffin3,,😑,4-3-2021,0
173,minnow._.0,minnow._.0,,You have a lock 😳,4-3-2021,0
174,Tre,mybootystank17,,My foot also works,4-3-2021,0
175,Keri,lacrosse_monster77,,What happens if the power goes out?,4-3-2021,0
176,Purple_Wolf,purple_wolf_25,,"Tell me you have trust issues, without saying you have trust issues lol",4-3-2021,0
177,shyne,raccthazine,,kick below the handle n promise its gonna open,4-3-2021,0
178,isaac lozano,2losersgaming,,wow so cool,4-3-2021,0
179,I̶N̶F̶I̶N̶I̶T̶Y̶ Z̶e̶r̶0̶,1nf1n1tyz3r0,,Battering ram:”GIVE ME YOUR PHONE!”(note: battering rams have karen speak as their language),4-3-2021,0
180,Michael Cox,mikeyc585,,We’re can I get this?,4-3-2021,0
181,SINDANIMAL,sindanimal,,yeah and where can you get one???,4-3-2021,0
182,Jorzn,jorzn,,Where did you get this,3-3-2021,0
183,Nicholas Davis,mr.rotti,,annnnnnnd still unlockable with an old fashioned drop kick too,3-3-2021,0
184,jjpinksus,jjpinksus,,were can I get it 😂😂😂,3-3-2021,0
185,Zach Ayers,zachayers,,Way more ways for people to get into your house. Nice,3-3-2021,0
186,Rogue Cross,roguecross,,A single sparta kick,3-3-2021,0
187,Facemelt5000,facemelt5000,,And a credit card will bypass all of that unless it's reinforced.,3-3-2021,0
188,🕴,_vxclusive,,Its until ur high or drunk😳😳😳😂😂😂😂,3-3-2021,0
189,jonjonluilui,_flipflops,,Kicks door down,3-3-2021,0
190,Not telling,hot_cheese_bacon,,What are you hiding in your room?😂 Still cool do you have a link for it?,3-3-2021,0
191,YOUMISSEDTHEJOKE,lookatthisfoolo,,its all fun and games until your late for scholl,2-3-2021,0
192,poatatoms,poatatoms,,now my parents have to get in with the secret password hahhhhahaha,2-3-2021,0
193,Nicholas Rogers,jerrydagoat_1,,Where you get it from ??????,2-3-2021,0
194,Z-Plesem,zplesem,,Or I can use my foot as yo key,2-3-2021,0
195,bigboymilk,bigmilkb0y,,bruh how many times did you get caught,2-3-2021,0
196,Rango,homiefren,,Well what the hell happened there,2-3-2021,0
197,Gio,gi03_,,Swing that😂,2-3-2021,0
198,TJ underwood,937.tj,,How does it get power,2-3-2021,0
199,Giobeam,joebeamo,,Kachow Kachow,2-3-2021,0
200,coloredbacon,baconweekend,,apple watching this: we should make one called iDoor,2-3-2021,0
201,treyvughon,yo_i_am_malik,,bro why😂💀,2-3-2021,0
202,MP360,dookiebutter05,,Sir...SIR,2-3-2021,0
203,Inktoad 240,the_henchbros2,,You living in 3031 bro,2-3-2021,0
204,…,s1ut4mechiee,,Where u live at the White House,2-3-2021,0
205,zereth,zereth_3969,,one cup of water and that door knob is done 😂😂,2-3-2021,0
206,Ethan Loss,ethanloss1,,Damn that’s crazy.... *puts on boots and mask*,2-3-2021,0
207,Greg,logansmic85,,Yo where do I get that,2-3-2021,0
208,💰,kashchase,,...,2-3-2021,0
209,Ray ig,kurasolos,,I can't tell if this is a flex 💀💀,2-3-2021,0
210,𝓐,cptl_a,,Jokes on you I don’t have one,2-3-2021,0
211,karo,karolina.365,,it’s a paper door,2-3-2021,0
212,Jus benny 💯,jus_benny,,till sum1 breaks the wood😂,1-3-2021,0
213,Big thirty,tybe30__,,haha I have a foot 😳,1-3-2021,0
214,TheRacc,gangsterraccoon,,Un needed tbh it’s like “what’s the coolest thing in your house?” “My doorknob”,1-3-2021,0
215,morb,morbidumbra,,kinda of useless on a wooden door lol,1-3-2021,0
216,von,yta_vonn,,So extra,1-3-2021,0
217,,urwack._,,What happens if I put 10 strong magnets on it,1-3-2021,0
218,On the road to being famous,kermit016,,Good thing I can shoot down the door,1-3-2021,0
219,Hamburger,ham.on.hamburger,,black mom,1-3-2021,0
220,Jose A. Rosas,panda.turntable119,,Why would you put that type of doorknob on a door that’s probably doesn’t even have a solid core. 😂,1-3-2021,0
221,Loki,defnotviet,,POV: Your white,1-3-2021,0
222,Hachi,hachi.val,,But your door is still made out of wood so they can just break the door itself 😂,1-3-2021,0
223,Osxar,o.osxar,,Mines has an aux cord 😏,1-3-2021,0
224,Olivia Thomas,_yummypickles_,,cool,1-3-2021,0
225,Gigi,babyssense,,"Wow such great security! ""FBI OPEN UP""",1-3-2021,0
226,Jaek Aljbreen,jaekaljbreen,,What the hell are you hiding in there😳,1-3-2021,0
227,Dementor958,dementor958,,why do I have the same one,1-3-2021,0
228,•«¿snorlax?»•,.snor1ax,,The infinity beater that will never be caught,1-3-2021,0
229,oliver_person,oliver_1750,,Sorry that I’m not rich,1-3-2021,0
230,Alexis,stop_thehate6666777,,when you have a younger siblings 😂😂,1-3-2021,0
231,TreVisualss🥱,trevisualss,,I bet my mom would still find a way in,1-3-2021,0
232,Haha,soypoptarts,,That’s cool but don’t mean I can’t break the door down,1-3-2021,0
233,David,828.david,,What if im getting chased hell nah im dead,1-3-2021,0
234,Tik Toker,pinotic,,price and name?,1-3-2021,0
235,Mossy655,elleirbagg,,Whatchu hiding?? 😂,1-3-2021,0
236,𝓙𝓪𝔂 𝓡 💕✌🏼,jaydenr.2647,,I'm about to order one so my siblings can stay out my room,1-3-2021,0
237,アブラハム,a.c.u.m.e.n,,tell me ur rich without telling me ur rich,1-3-2021,0
238,im just a black troll,your_mad_cuh,,"I can show you a magic trick to unlocking it
*runs through the door*",1-3-2021,0
239,😪,kizzym05,,Who asked ?,1-3-2021,0
240,Talha Khan,mtalhakhxn,,extra,1-3-2021,0
241,It’s pronounced juh-neigh 🐴,lack.hoes.intolerant,,What are you hiding in that room though,1-3-2021,0
242,Z$,zdollerz2628,,I definitely know why u got that 😏,1-3-2021,0
243,Kook,soleuffs,,Who are you? Cody banks?,1-3-2021,0
244,Javier Rodriuez,grim5972_,,Wait what if power went out dose the key still work??,1-3-2021,0
245,Jar Jar Binks,monsieursilky,,Lmao def copping this nd getting a wood door w steel reinforcing 😌,1-3-2021,0
246,X O,ilovemariah420,,Thats sick,1-3-2021,0
247,Jeremy Tevillo,jeremytevillo02,,Hold the phone y’all have doors ? 💀,1-3-2021,0
248,Erik,3rik2358,,All that just to take a 💩?,1-3-2021,0
249,Dababy,the..real_dababy,,I got my took of😏😏,1-3-2021,0
250,Dababy,the..real_dababy,,I don’t have one😏😏,1-3-2021,0
251,jay,j6ylol,,good thing its wood,1-3-2021,0
252,Watch John Q it’s on Netflix,caleb_mcginty143,,That’s my exact doorknob 😳,1-3-2021,0
253,Follow_me-or_your-MEGA_gay,1.dumb,,All fun in games until your house start burning down,1-3-2021,0
254,Thomas,person6658,,😅 all fun and games till the electricity goes out,1-3-2021,0
255,Nj_clappers,njp66,,My door is like pushing paper,1-3-2021,0
256,Victor Posada,victorposada5,,all this to go into your room nah im good,1-3-2021,0
257,Haniel,jhopesrightb00b,,"guys this is purely for people who infilitrate your room without knocking or permission, its not like a sibling is gonna knock down a door.😭",1-3-2021,0
258,ANGEL G,your_mexicanraincoat,,It’s a wood door so ima just kick it down,1-3-2021,0
259,Agony,lilagony,,Kicks the door down 😂😂,1-3-2021,0
260,Nathan🎒,nthn.mynrd,,@makaylagatzke “what’s a lock”,1-3-2021,0
261,sheluvharry,harrisoniskewl,,where can I get one,1-3-2021,0
262,pau,ihatenebulas,,why didnt u just make the door flexable too ;-; they could just break the door,1-3-2021,0
263,jacob,jacobcremeens,,for only $150,1-3-2021,0
264,Wyatt,wyatt_5211,,We’re do I get they,1-3-2021,0
265,Jordi,_jordi_10,,One kick and it’s knocked down,1-3-2021,0
266,Joyals,joyxlz,,You and your parents must have a strong relationship,1-3-2021,0
267,(:,someones__s0n,,"ur know ur door is like cardboard, that lock ain’t doing anything",1-3-2021,0
268,Justin Kaehler,jrooster69,,I’ll just kick the door in 😂😭,1-3-2021,0
269,Dark Kratos,darkkratos0,,what's it called?,28-2-2021,0
270,PrettyGirlV,valbaexoxo,,@kendallkdmorrison omg you need this ! Hahah,28-2-2021,0
271,Jonah Clark507,jonahclark28,,How much did that cost,28-2-2021,0
272,~Srta. Kimi~,srta.kimi,,Necesito una. ;-;,2-3-2021,0
273,Steph L,chachi1183,,and yet with something as simple as a screwdriver I can make the door pretty much fall down by itself😂😂😂,3-1-2022,0
274,Quin McKinnie,futuredocquin23,,Can i do this for my apartment door,8-8-2021,0
275,Lysandra Carthans,lysandracarthans,,cool,12-7-2021,0
276,andyt850,czechtommo,,And I just have my right foot 👍👍,27-4-2021,0
277,Cookie,pinkcookie0634,,What u hiding,23-4-2021,0
278,Ethan pate,e.t_.alien,,I need that,16-4-2021,0
279,C_0348,c_0348,,Still don’t get why y’all have those type of door knobs,13-4-2021,0
280,Spy Smoking,bababoey7274,,Lockpickinglawyer opened it in a few seconds 😐,12-4-2021,0
281,Yui,calous,,"Just in case you lose the key, passcode, thumb, and NFC, you can still use your phone! 😂",29-3-2021,0
282,Pain394,herking394,,one kick and your door is open sir 😂,28-3-2021,0
283,🥂,m.00988,,how much?,27-3-2021,0
284,Mr niffles,acorporalcat,,Theres another one you forgot...... HAMMER 😎,20-3-2021,0
285,Lover,foxer171,,Ya me imagino a alguien con un acha abriendo la puerta cuando deje de funcuonar😂😂😂,6-3-2021,0
286,Edoardo Garcia,edoardogarcia0,,where you can buy it???,5-3-2021,0
287,Yordan Tsinzarov,alpha_resistance,,One kick and everything is over 🤭🤭😏😏,4-3-2021,0
288,yacqubkhalif,yacqubkhalif,,Okay big time I need me that😂,4-3-2021,0
289,| Blossom |,maddwyd_,,Where do you buy it from😳,4-3-2021,0
290,Jake Webb,dieseldummy99,,intruder kicks door in,4-3-2021,0
291,Psycho,psychotheropy,,I have a boot!,4-3-2021,0
292,Cory Littlejohn,corylittlejohn0,,works great till the doors kicked down,4-3-2021,0
293,HeyFritoFeet,fritofeetlife,,But my credit card could pop that door...?,4-3-2021,0
294,Aaron Neal560,eastcoastcoins,,sorry used my foot as the key,4-3-2021,0
295,Archons Eulogy,arch0ns_eul0gy,,The key part makes it easier to break into cause lock picks,4-3-2021,0
296,Marco Samora,marcosamora6,,I'll kick the door in,4-3-2021,0
297,HIPPYmadenewacount,hippynewacount,,thats cool but i dought the door itself is secure😂😂,4-3-2021,0
298,Emir Senju,emirsenju,,where can I get it?,4-3-2021,0
299,EvanTheBot,d3r9y3,,No one ask that’s the funny part,3-3-2021,0
300,Kiandra Chillington,lyricaldragonkiki,,my parents would just take the door off the hinges,3-3-2021,0
301,Phage567,orange_knight5676,,cant i just break the door nob or the door?,3-3-2021,0
302,lol,cafecitoiloveyou,,Y’all have doors..?,2-3-2021,0
303,Gio,mr_kobayashi_dragonballs,,Tell me you have trust issues without telling me you have trust issues,2-3-2021,0
304,Galaxis,galaxisbeast,,can i use an amibo to open it. after all it is nfc,1-3-2021,0
305,Jonathan😈🔥,itz.jonathan01,,This what I need,1-3-2021,0
306,Jared Ochoa Hernande,jared_ochoa_,,I can imagine someone in my family breaking it💀💀💀💀💀,1-3-2021,0
307,Ryan Zeng,itsnotme123450,,It probably cost more than ur whole house,1-3-2021,0
308,😩😩,thinkingofme_,,Anyone see the video where he picks this door lock with a magnet 😂,1-3-2021,0
309,Dayofficial🐍,daysavage_,,Not doing all that just to get in my room,1-3-2021,0
310,Eddieswrld999,_eddie91,,139$,1-3-2021,0
311,Deshawnqueque,deshawnqueque,,Beaaaaaaaaannnnnnnzzzzzz wat da vuck,1-3-2021,0
312,Backlot💂🏾‍♂️💥,kyzepera,,i can literally just kick the door down☠️,1-3-2021,0
313,a guy,moui__,,what happens if someone breaks the hinges,1-3-2021,0
314,Gay Fish,elwifebeater,,Still one kick and it’s open,1-3-2021,0
315,Kyle Coe,kylecoe0,,I need that to keep out my brother,1-3-2021,0
316,🫧NCdavonkiller🫧,davonkiller,,Yo whats your battery percentage? 🔋,1-3-2021,0
317,Skyler😬,the_doritoking,,When you have trust issues with but parents😂,1-3-2021,0
318,🗿,jr_688,,Dad just kicks it open every morning,1-3-2021,0
319,Lex,stupidlexxi,,Damn he’s hiding Victoria’s Secret in that room,30-12-2021,0
320,P Ø P S S A N T O S,thapops,,name name i need it,7-3-2021,0
321,Bia Bastos,biavallias,,Eu bêbada trancada pra fora do quarto: 🤡,4-3-2021,7
322,user9011626405932,alitaqwa3,,"Watch ,,.,THE LADY OF HEAVEN Movie trailer 🎬👌,,, and thank you",2-3-2021,1
323,Ильмира,ilmira415,,"The future is only possible in a Creative Society! Why? See the conference ""The Global Crisis. Time for Truth""🔥🔥
creativesociety.com",2-1-2022,0
324,doneyou56,donevehicle322,,Didn’t ask don care ratio l,26-3-2022,0
325,Dequavis Johnson,lil_luay,,Give me 2 minutes. I’ll break in😏,2-3-2021,1
326,swu1,swu007,,kick the door down,29-4-2021,0
327,Blake Herzner,___blake,,how much,29-4-2021,0
328,lilboyrezzy,perezsmith8,,So when you have to run from that demon that’s behind yo when you turn off the light and run to your room 😑😑😑😑😑 that bitch ain’t gon open fast,2-4-2021,0
329,Luis Hernández,alejandro09202,,"Him in a fire:
👁️👄👁️shit",27-3-2021,0
330,Sunsetshaman,sunsetshaman,,are you sell dr*GS or something?😳,4-3-2021,0
331,El Sosa,sosaahh,,bum. easy hack,4-3-2021,0
332,user8049581193783,torresblast713,,I'll mule kick the shit out that mf and probably make a hole in that door,4-3-2021,0
333,Liv3F0rL0ve,liv3f0rl0ve,,You could sneeze a hole in that door :D,4-3-2021,0
334,gabereigel,royal_reigel,,Is this your nut room tho,4-3-2021,0
335,Shacarree Moore,shacarreemoore,,so what I'll kick it in,4-3-2021,0
336,TrEeNoN TrEe,treenontree,,Link?,3-3-2021,0
337,No❤️,www.hush.com,,*Breaks down wood door*,1-3-2021,0
338,Michael Jimenez,melapelaputo666,,All That fancy ass shit to get shot down by a shotgun or even a pistol💀,1-3-2021,0
339,Big Lu,_lms_02,,I can just break door down ass easy as 123,1-3-2021,0
340,Devion McCoy,dev7kind,,imagine running from a killes,2-6-2021,0
341,12345678,amnamsiiarasiam,,GET THE FUCK OUT OF MY ROOM I AM PLAYING MINECRAFT,2-4-2021,0
342,Albina Bell,albinabell,,"if its a fire, you will be dead 😳",1-4-2021,0
343,SgtLincolnOsiris,sgtlincoln0siris1,,THE I AM JACKING IT IN HERE 3000 DOORKNOB!!! 🤣🤣🤣🤣,4-3-2021,0
344,GongChicken,pastramisalami_18,,Nothing makes you just a bit more of a narcissistic asshole than financially shaming people on what they do and don’t have,2-3-2021,0
345,Brittany_1018,jilltheripper_1018,,Do they have these in brass,24-9-2021,0
346,Billionaire Bound,lordmerk,,I would beat my meet for days,12-4-2021,1
347,HOME PRODUCTS & SMART GADGETS,tech._.idea,,https://vm.tiktok.com/ZMNR9LJTE/,8-6-2022,0
348,mouse321,mou53ey,,can you send me the link for these,22-4-2021,0
349,user4977671357390,xandergoth,,Door pls meet my nice foot 🦶,2-3-2021,0
350,Swanchild,swanchild14,,Weird flex but ok,16-12-2021,1
351,banned.rat,banned.rat,,tf a wood door gonna do? might as well make it it iron,8-11-2021,0
352,Yg_Adz,yg_adz15,,damn my foot dont care tho,13-4-2021,0
353,Monty.Andrei,montyandrei,,wtf happend there?,13-4-2021,0
354,dark leopard750,darkleopard750,,dude I don't care what you do or can do I just want to open and lock the door I keep it simple it's cheaper and more reliable,4-3-2021,0
355,Ashley Smith,ashleyismarie,,Tf behind that door?😂😂,4-3-2021,0
356,Abe,superabe23,,Wtf is he hiding in there,3-3-2021,0
357,Jah plays,jah_play,,You know what stop flexing,3-3-2021,0
358,BLM,yeah_thatcurly,,my door nob is one of those fake diamond ones that are rly glass so basically it's better than his,2-3-2021,0
359,simple_skating,simplicity_skates,,Wtf,1-3-2021,0
360,Gabe,gaberau66,,No one cares!👌🏾,1-3-2021,0
361,đamiañ,damian_vasquezz,,WTFFF 😳😳😳😳😳😳😳 WHERE DID U GET THAT,1-3-2021,0
362,NukG,dedrick134,,Yours can be hack.,13-4-2021,0
363,AlphaXiro,alphaxiro,,easy to hack tech 😅😅😅😅😅,4-3-2021,0
364,Thomas guajardo,gass18st,,he dont want to get caught in 4k🦹‍♂️,4-3-2021,0
365,gino,ginor88,,tf you got in there?? 😳,4-3-2021,0
366,Alan,alan007__,,he's hiding something big in there,4-3-2021,0
367,Tarig Eldosougi,tarigeldo,,Cool knob bro,2-3-2021,0
368,Johnny🤩,tyb._.johnny,,Nobody asked 😂👎🏽,1-3-2021,0
369,Rinkatekataketo,rinkatekushiari,,Don’t ever say knob🤣🤣🤣🤣,11-4-2021,0
370,user9991399828519,username864393753862,,Yo wtf you keeping in your room?,1-3-2021,1
371,🧘‍♀️Yourfavcurrantroll🧿,yourfavcurrantroll,,when you’re coming home and you really have to pee 😳👀😂,12-4-2021,1
372,Divine Uge,divineuge,,Trust me if ur black that shit is coming off no matter what 😅,2-4-2021,1
373,Teddy Rozay,teddy305_,,Never have to worry about getting caught rubbing one out,4-3-2021,1
374,Chicken gang,mynameisskyliterally,,Jokes on you I already have the ✨lit✨ knob 😎,3-3-2021,1
375,Blank,blank0105,,BRO what you hiding Aliens 👽 😂,1-3-2021,1
376,...𝕮𝖍𝖎𝖓𝖔...,chino.1013,,I need your doorknob my mom almost walked in on me😅😅,1-3-2021,1
377,Liam,liam_spill,,He has a Tesla door knob,1-3-2021,1
378,Lol,charlestheprinceofwales,,You got a safe full of gold in that room? wtf hella extra😂😂,1-3-2021,1
379,L,monkeyyyy37,,Give your doorknob to the capital they need it more,1-3-2021,1
380,Edwin Quinonez,edwinn_q,,He really payed 140 for a door knob💀,1-3-2021,1
381,RabbitMario,rabbitmario,,The nfc touchpad means you can program it to use a luigi amiibo as a key and that makes it worth all the money,1-3-2021,1
382,bohead,zvxd3,,What is that door knob called I need to get one,1-3-2021,1
383,Despotic_,despotic_,,@aj1234567890101 and I can get in with a butter knife😎🤝,1-3-2021,1
384,king of the skeletons,helli752,,my door knob has a security camera face system key double card scan double triple password a double door know and double click.its worth a $999,25-7-2021,0
385,Reveluv Cult Leader,rv_supremacy,,What kind of door knob is this? 😳,25-7-2021,0
386,Raven,raven694200,,U know that the door is one kick away from flying out ur window right ? So that knob aint shit its cool as fuck tho,22-4-2021,0
387,Joseph Collado,josephcd12,,Omfg i want it,19-4-2021,0
388,S3PH✨😌,seph.m_17,,I want my kids to have something like your door knob when they come in existence,18-4-2021,0
389,Cammy🦍💔,cammy.242,,Tell me u hide bodies in your room without telling me,16-4-2021,0
390,.,ardaaydemir010,,"""Hey guys this is Lock pi-""",13-4-2021,0
391,Perpetual sarcasm,perpetualsarcasm,,On a door that you'd kick in with one try. Cool tech though if it were a security door.,13-4-2021,0
392,Izzy,brxken_izzyy,,i want that doorknob,13-4-2021,0
393,Lauritz Herpold,lauritzherpold,,Hack that shit in seconds,12-4-2021,0
394,Nicolas Gomez,nicolasgomez563,,"low security, I only need to cut off your finger to get in...",12-4-2021,0
395,Quandale Dingle,slipperybqlls,,my friends gonna think im a drug dealer if i install this,12-4-2021,0
396,Will94,grimskull94,,imagine having to do that while you're running away from a killer 😅 that's so stupid just have normal door with a lock 🔐 😂,5-4-2021,0
397,Thomas Hoekstra707,thomashoekstra2,,it would be annoing if youre door knob would break,4-4-2021,0
398,JamJo,therealjamjo,,Nice knob bro,3-4-2021,0
399,PINKM4G82,m4g82,,why would i need a fingerprint in the middle of the night when IM coming from the bathroom,2-4-2021,0
400,Mr.Frog,..2005_a,,guys who give a shit,20-3-2021,0
401,Cameron,logitech_gemini20,,that door knob more expensive then my house and cars,19-3-2021,0
402,jenfunhan,jenfun34,,I don't even have a door knob. I can get one but i just can live without it ha ha ha,9-3-2021,0
403,samurai dode,mrsamuraix0,,why you jas use a normal door knob,6-3-2021,0
404,John-Ellis Cruickshank,shumba_stolt,,I don't even have a door knob 🤷‍♂️,4-3-2021,0
405,user4614699690456,a1577747,,I'm kickin ur door,4-3-2021,0
406,e6ezu,e6ezu,,So you're saying it has 4 ways to get hacked unlike a regular door knob,4-3-2021,0
407,Gyon Niens,gyonniens2,,powerfull enough magnet can open that lock,4-3-2021,0
408,James Suttreth,jamessuttreth,,I don’t even have a door knob,4-3-2021,0
409,user3662586182153,danny_mvp17,,damn bro if you don't trust who your living with leave..or go to a safer neighborhood.,4-3-2021,0
410,Mr. Petty,james.saucee,,Pointless expensive door knob when anyone can kick down the door lol,4-3-2021,0
411,G A,letsgetbetteratlife,,"😅😅same opening methods, butcher knife and butter knife no difference😂😂😂😂",4-3-2021,0
412,Paul Cugini,nooglethenoble,,My momma would stick kick down the door to whoop my ass,4-3-2021,0
413,Abaddon,abaddontherevanant,,I gotta key too. It’s called my steel toe boot.,4-3-2021,0
414,DarkClown_999,_..darkclown.._,,$140 for that hell nah! 😅,4-3-2021,0
415,NABORskiz,passed.out.in.the.desert,,😂😂😂 That shit can still be kicked in,4-3-2021,0
416,dixie_chicken423,dixie_chicken423,,That’s the doorknob to my gun room.,4-3-2021,0
417,Rico Wetter,ricowetter,,I'll just kick the wood in lol or is it made of metal,4-3-2021,0
418,John Overbey10,johngotcash,,My door doesn’t have a door knob,4-3-2021,0
419,mc44,waistdeep44,,Or we can kick it in!,4-3-2021,0
420,Nicole,tiffanysmith753,,I need that door knob!,4-3-2021,0
421,Greg Hebebrand,greghebebrand0,,son...you need a girl...way too much attention on your knob alone..,4-3-2021,0
422,JoeSmoothZ,grizzly_joe,,My door knob was made by apple 😁,4-3-2021,0
423,user6071370769076,mikeymazzy2021,,Imagine last night wanted to go into your room and you gotcha to do all that shit first🤦‍♂️🤦‍♂️,4-3-2021,0
424,fernando Robledo,fernandorobledo14,,boi i kick that shit in so hard,4-3-2021,0
425,Nathan Smith,nathansmith62,,still one kick to freedom.,4-3-2021,0
426,Josiahboy,josiah_marcelle,,Sorry but my door looks like a bank valt and it has most protection knob on it. Also has face scan to see who owns it which is me.,4-3-2021,0
427,Abe,itsnotabraham0,,I think every single doorknob has a key😏,4-3-2021,0
428,<3,_ho3sluvme,,@lol...cat when ur Mexican…,4-3-2021,0
429,Perez,nperez_007,,nice knob😁,4-3-2021,0
430,August Blaze Red,steeltechassassin,,Haha dance knob but still a wood door we hack down😂,4-3-2021,0
431,we them boys_roro&duke,jerome_juarez,,don't no one give a damn about a door knob,3-3-2021,0
432,king,a_humbl_king,,my door knob is a flesh light 👀 fuck it to open it,3-3-2021,0
433,Terrance Graves,graveyboats,,"bruh all that for me to kick yo shit in 😂😂😂, get a real door first, plus who you think that interested in what you got in there 🤔😂 dope knob tho",3-3-2021,0
434,Joeyy,disappointedmuch,,Its a damn door knob. Tf..?,3-3-2021,0
435,ItsOnlyKd,kddaking93,,boooii we kickin shit down😂😂,3-3-2021,0
436,chicken nugget,chess_peice,,all i need is a chucky cheese cwre,3-3-2021,0
437,🆑️dagoat...,chumbucket_papi,,"honestly that's the worst flex ever,he prob went to Amazon and searched ""security for nob"" and found that😂😂",3-3-2021,0
438,Official AJ,xofficialajx,,I’d hate to be playing hide and seek with you,3-3-2021,0
439,Shawty surprised,c00lish,,Imagine having a door knob 🤡,2-3-2021,0
440,Fortnite balls,rockstarjj05,,But that was like 200 bucks just for a door knob,2-3-2021,0
441,Mst,f_this_part,,This shit is way too extra,2-3-2021,0
442,Slimchickens,notalfonsoarteaga,,"Tell me you got your tax return, without telling me you got your tax return",2-3-2021,0
443,⠀ ⠀ ⠀ ⠀ ⠀ ⠀,l_honestly_dont_care,,this guy really just showed us how to get in,2-3-2021,0
444,ryansmusicalphotos,ryansmusicalphoto,,"I mean... I don't have a random 50s doorknob without a lock but my door ain't high tech, there's no point XD. Just get a regular locking door nob man.",2-3-2021,0
445,Ye,anotha.brownboy,,At that point just put up a fucking cement wall,2-3-2021,0
446,kingsleyyang06,kingsleyyang06,,Hi I am not going back down there to get a call from the bank and why you don’t want me back to the office and you have no one else I will be able I,2-3-2021,0
447,bigchubbles,bigchubbles,,"wait,let me get the straight,you wasted,ALL that money,just to get a doorknob?",2-3-2021,0
448,ArchVenus,archvenus,,"if a door knob has 4 different ways to unlock it, isn't it ass?",2-3-2021,0
449,ℚ𝕦𝕚𝕟𝕥𝕠𝕟,yo_its_q.223,,resl extra that room better be made of netherite.,1-3-2021,0
450,Gem,surgeanomics,,Bro im kicking your shit down its a wood door tf. That shit is getting knocked of its hinges,1-3-2021,0
451,Abelrrant,abelrrant,,protip from fire fighters stomp the door near the door knob to kick down the door.,1-3-2021,0
452,John Wright,onecrazydude14,,Imagine having a door knob 😂 I haven’t had one in months it definitely isn’t terrible,1-3-2021,0
453,Jared Cooper,thejaredcooper,,You could most likely still kick it down.,1-3-2021,0
454,Grim Reaper,cash.moneyjd,,Damn you got kids in their,1-3-2021,0
455,Bebotowavy,xprettyboywill,,ypu have a exotic door nob but you using “ are doors “,1-3-2021,0
456,Uno Reverse Card,officiai.uno.reversecard,,POV: you don’t give a shit about this guys door knob,1-3-2021,0
457,Joe,_.joemama.___,,I wanted this until I saw 200$ for a fucking doorknob,1-3-2021,0
458,F.N.O_Lucid,lucidmadeit,,Dat door knob look like it’s gone rob me,1-3-2021,0
459,Boss,rabbit_nuts01,,“Your guyses door knob”??? The fuck,1-3-2021,0
460,Sebasdakidd,sebas1of1,,Wow so cool it’s just a door knob,1-3-2021,0
461,Dad,dolinesrailnines,,This is the dumbest shit I’ve ever seen,1-3-2021,0
462,Jett,thatoneguyjett,,That wooden door looking real thin next to my ram,1-3-2021,0
463,ㅤ,gc_w0w1,,One kick and your doorknob is rendered useless.,1-3-2021,0
464,La Flame,la.flame.cm,,Fuck he protecting? The nuclear codes?,28-2-2021,0
465,Jourdon Hinds,leo_blzen,,where can I get this door knob 😳,19-4-2021,0
466,LUCKY LUCIANO,mikethegunner7,,what tf you got in zer nukes,18-4-2021,0
467,Neshy Weshy,neshyweshy00,,So if your dying in your room we should stay out ? Okay gotchu,14-4-2021,0
468,jamesdance1130,jamesmc0603,,I don’t even have a door knob,13-4-2021,0
469,Parlay Slatt,parlayslatt,,"Man, I’ll kick that door open. 🙂🤣",12-4-2021,0
470,deatherater_08,deatheater_08,,"Jokes on you, I don’t have a doorknob",11-4-2021,0
471,Smegul14,smegul14,,I'd push that door open,10-4-2021,0
472,Umzi,um_zi4l,,where do you get a door knob like that I need one,4-3-2021,0
473,Norman Grab,hillbillybro05,,Bruh tht better be some top quality wood for tht door,4-3-2021,0
474,Daelyn Neely,daelynneely4,,What door knob is it,4-3-2021,0
475,Angel Barraza,_1angel1,,have you heard of a axe?,4-3-2021,0
476,😈,mutha_trucka,,😂 U must be on some freaky ass shit wit yo self behind that door,4-3-2021,0
477,user6969,tyler_colt.a,,And yet one swing of a hammer I could still get in.👍😁😊,4-3-2021,0
478,Logan Miller,logangm86,,when your door knob cost more than anything in the room.,4-3-2021,0
479,mehonesty,prettybabyy.mehonesty,,where'd you buy the door knob,3-3-2021,0
480,ASAP.X,r.i.p.xxx999,,unnecessary tech..a key works fine for me.,3-3-2021,0
481,The Executioner,the.handy.hangman,,Y’all fucking with RFID tags? Can’t you also fry that lock with a taser and wiring? And can’t you also-,2-3-2021,0
482,smokey,_smok3yy_,,My doorknob fell of today,2-3-2021,0
483,Edwin,_itstheron,,lets get the lockpicking lawyer to see how secure it really is 🤔,2-3-2021,0
484,Dalton Fisher,maddoxxx14,,that door knob not gonna work when your flimsy ass door get kicked down,1-3-2021,0
485,👹,wayne10kk,,All that for a door knob,1-3-2021,0
486,Willma Dicfit,trappingissalifestyle,,And I got a size 14 shoe 👈🏼👎,1-3-2021,0
487,Nyzay,shadowdripzay,,I didn’t know door knobs where so cool,1-3-2021,0
488,Brooklyn NY,butterballs1531,,Can I get the link to buy that doorknob,1-3-2021,0
489,Christian Woods,sahoya_13,,All this just to not get caught on the hub🤫,1-3-2021,0
490,Alexander Ramos,alexanderramosss,,@lil.lucy.vert6,2-3-2021,1
491,Colton Barrett,coltonbarrett3,,@mackenzie.rg,3-3-2021,1
492,Landon.Collver,landon.collver,,@avacbrown,1-3-2021,1
493,Sophie,itz.sophie.bitchez,,@r420r_874d32014,20-4-2021,0
494,Taliyah🛹💫🪐,xtaliyah12,,@maddds.lx,13-4-2021,0
495,Giorgia Calder,giorgiacalder,,@artae9,13-4-2021,0
496,🧑🏽‍🌾,norberto.hernandez_,,Just break the door😂😂,3-2-2021,1
497,Eperegrino22,eperegrino22,,@chantelp3,21-2-2021,1
498,𝚋𝚊𝚊𝚕'𝚜 ▬▬ι═══════ﺤ,icyh03,,name something that's more secure than the capital,7-2-2021,1
499,Tik Toker,bigdaddyjay163,,I'm to black for all that my momma would kick the door down,2-2-2021,1
500,Adelina💸,aa.adelina,,@babeyyym,5-2-2021,1
501,Mxreli,marelimartinez22003,,@huevos91,23-2-2021,1
502,Pro Boogie Play’s Fo,proboogieplaysfortnite,,I have that door knob to bum they’re only 200 bucks quit thinking you’re rich,10-2-2021,1
503,06,jj_spook,,jus lock it lol,10-2-2021,1
504,𝕯𝖊𝖚𝖈𝖊,xodeuce,,@heavenjacobs,21-2-2021,1
505,SGC,lifeobtainsvastenvy,,If I really wanted to get into your room a damn door knob not stoping me 😂😂,3-2-2021,1
506,cat noir,overdrank,,"your door knob was litterally everyone else's before this vid lol, u barely installed it so NOW it's your doorknob",2-2-2021,1
507,Jacob,levylevylevylevy,,One kick and it’s over,2-2-2021,1
508,👀,vongence,,I’m tryna see the other nob😳,3-2-2021,1
509,엘리,ellie_heso_jun,,Nope my it has a key and fingerprint and a pass code and the security and laser and facescaner who can beat me haha,11-2-2021,1
510,One piece>,usobin,,The doorknob more secure that the actual door😂 just ram through,3-2-2021,1
511,MONSTER OVERDOSE,the_architect_of_fear,,Who do u work for??? What are u hiding!!! Hmmm🤨🤔🧐,12-2-2021,1
512,Ana Hub,analise_pretty,,B#### I need that because every time my door is lock my brother always come in my room and hardly harass me,5-2-2021,1
513,Benjamin Milkman,gotmilkman1993,,what if you have to pee really bad,3-2-2021,1
514,Mini fridge,tko_mini_fridge,,Your guyses,7-2-2021,1
515,𝐂𝐡𝐫𝐨𝐧𝐢𝐜,chronichaze,,Ima buss yo door down,2-2-2021,1
516,Alex Acosta,alexacosta1027,,I thought I was the only one with one 😂 best investment ever,3-2-2021,1
517,wya.jayne,wya.jayne,,@dis.thy.kimmy @nyc._.adam,23-2-2021,1
518,henry,henryxhua,,"Everyone in the comments gotta calm down, my man is tryna protect his lunch money 💰",2-2-2021,1
519,IGotCuteAnkles6699,andr3w355,,"key,NFC,KFC he got everything",3-2-2021,1
520,rose,edro.se,,@vanessahemm WHEN WE WERE 9 WE WOULD PRETEND TO HAVE THERE DOOR KNOBS FOR OUR GAME😭😭,20-2-2021,1
521,Sonja,sonja2step,,One kick and your whole door is gone,2-2-2021,1
522,m,usamf0,,doing to much,4-2-2021,1
523,DJ Doc Darkside,docsteven,,#overkill,2-2-2021,1
524,Moises Baldanza 🇻🇪,moisesbaldanza,,@joanna.peroso,7-2-2021,1
525,Smoky,smokyfromfriday8,,Shit 😂😂😂,11-2-2021,1
526,Rubizzzle,socalpyt,,@victorizsa get me this,2-2-2021,1
527,yfn.denym,yfn.denym,,U flexing a little to hard😂,12-2-2021,1
528,Key,gkey706,,Where do I buy this,20-2-2021,1
529,yasmeen:),.yasmeen01,,@kiana.jaramillo,7-2-2021,1
530,Aurora 💅,aberchem26,,At least we have a door😅,21-2-2021,1
531,McKenna Caldwell,fw._mckenna,,@www.laney.com,21-2-2021,1
532,Tik Toker,alex_spam_acct,,I need that rn,2-2-2021,1
533,tutyy,tuty246,,@krystalyn__ @jeferlyyy now what if he was getting chased and had to run to him room-🧍🏽‍♀️,21-2-2021,1
534,Lil_goggles,bryan.taboada,,@misunicos3 Karen be like,21-2-2021,1
535,ATuaz,atuaz,,Lol just kick the door down,4-2-2021,1
536,Sour Grape,crazyturtle4u,,I'll take your entire stock sir😂😂😂,7-2-2021,1
537,Hi,ivozoh,,Umbro that s*** is not going to save your ass when there's a robbery they could just literally kick your door down,7-2-2021,1
538,Kevin Switzer,hemisph3rical,,Or a foot to open it 🤣,2-2-2021,1
539,Yb0723,yb072312080,,@fidel567498,21-2-2021,1
540,imagine still being single😩😩,fineass_noah,,omg like we can all afored that dime 😑😑🙄😶,12-2-2021,1
541,Alexis Murphy,_itss.lex,,Lol,6-2-2021,1
542,vivian👸🏻,vivian.angeline,,@xxxxiiirrroooo,21-2-2021,1
543,Chris,chris.r53,,How is it your door knob is more expensive than your house? 😂Jk bro nice,12-2-2021,1
544,Victor Martinez,victor_martinez1225,,But can it stop a 12 gauge shotgun 😏,2-2-2021,1
545,✨Niya✨,its.laniyaaaa,,@theoneandonly_kayla15 can i get one😂,21-2-2021,1
546,Bish I’m poppin,lovey_mia,,Ion need all that... when I get home I wanna fling the door open and jump in bed,7-2-2021,1
547,Da_king44,hi_iam_not_kogi,,Where do I buy this?,2-2-2021,1
548,mullkisse,moonvoice994,,boy your door is still wood the light kind too I could have just kicked that s*** down😏,7-2-2021,1
549,YaBoi,suplexor,,what a waste man all you need is a lock and key lmao,2-2-2021,1
550,salma,salmaiddrissu,,But when the power go’s out....,11-2-2021,1
551,DJT,reddddds3,,Nah fam lemme flex my 37 and a half Bitcoin 😏,20-2-2021,1
552,Hunter Hollis,smokedeadopps420,,how much,22-2-2021,1
553,Eve.pretzels,ilove_pretzels.27,,@taylor_boro we need,21-2-2021,1
554,👑🏀ℝ𝕠𝕕𝕣𝕚𝕘𝕦𝕖𝕫🏀👑,theyluh._.andrew,,Ok mr undercover,2-2-2021,1
555,disney,diissneyyy,,@izaxyuh you want this,20-2-2021,1
556,user4450562232046,napbaby317,,@prncsuz,2-2-2021,1
557,Harley Harris,harleyharris077,,all that an one kick an its still gonna open right up,7-2-2021,1
558,your mom,.__._.ghostface._.__,,@pyt.maleahhh,20-2-2021,1
559,kyeanah,kyeanah8,,Weird flex but 👌,7-2-2021,1
560,Big Grizzly 🐻,biggrizzly254,,I mean is it reinforced? It can still be kicked in 😂,3-2-2021,1
561,Aydin Lemke,aydinlemke0,,Imagine buying an electronica door knob but you still have a wooden door that people can easily get through that doesn’t make sense my guy,21-2-2021,1
562,Branton Davis,branton.davis,,Way to be original,12-2-2021,1
563,TNT,tnt2005,,Why,11-2-2021,1
564,MONIA,monia_020,,@theoneandonlyok @aaayyyiiaa_,11-2-2021,1
565,zurc,.zurc_,,Brand ?,20-2-2021,1
566,Mc Kevin daly,mckevindaly,,Bro why do you actually need a passcode for your bedroom,3-2-2021,1
567,Kaitlynne meyer,kmeyer13,,@paytongracemeyer u need this,21-2-2021,1
568,Briana13,briana_8999,,My daughter is better I can open it with my hands and kick it😌,21-2-2021,1
569,Landz,landdzz,,Bro that thing is 45 dollars on Amazon 😂😂,11-2-2021,1
570,Inasia Ward,inasiaward0,,But its still wood i can understand if it was metal 😂😂😂😂,11-2-2021,1
571,Tik Toker,mrjohncrawford206,,"Oh yeah, your a serial killer ain’t ya",4-2-2021,1
572,Terah Neblett,systemofasalem,,@jayyrickay,21-2-2021,1
573,T,joxr.6,,@chingchong058,20-2-2021,1
574,🆗,carter.koumi,,@farren.clark,12-2-2021,1
575,Cpt Anthrax,surgemcmuffin,,a single hard kick to that door or a fireaxe swing an its donzso😬,6-2-2021,1
576,shaylynn,jheneisthegoat,,@duhhitzshayy unt -,12-2-2021,1
577,🤷‍♂️,buzzed_monkey,,Biggest doorknob flex of 2021😂,12-2-2021,1
578,💕👩🏽‍❤️‍💋‍👩🏽 .,uheart.kenzy,,dinkleberg,11-2-2021,1
579,MonkeyJahir,theycallmehjay,,"NOW INTRODUCING... THE APPLE SMART KNOB. *knob, door, and batteries sold separately*",12-2-2021,1
580,Kayo,kayo3k,,Well Damn Tony stark jr.,20-2-2021,1
581,Donna,donnaferrer1,,Yooo tf,4-2-2021,1
582,WEzNY,wezny,,The door would of been opened if u just turned it,2-2-2021,1
583,Jey bf☺️❤️,ljockeypr,,My door knob I have a lock on its tbh,11-2-2021,1
584,Cam,not_your_babysitter,,@rylanslayton,21-2-2021,1
585,Princess,onlyknown_princess,,It’s all good until he “accidentally” get knocked out and i—I mean sb use his finger print to get in 🌚,7-2-2021,1
586,osmeiriniklauswife,heluvssosmeirii,,@juniorrh21 you need this,4-2-2021,1
587,Modern Warships streamer,.the_silent_guy,,I mean they bolth share one thing in common I could just nock the door off it’s hinges 😁,7-2-2021,1
588,Landis,landis63,,I need da,11-2-2021,1
589,Kara Ann,karaann69,,@boroftaps226,21-2-2021,1
590,Morg,m0rgagain,,Thanks for the ad,11-2-2021,1
591,Jeremiah,jxrry_ke,,Me looking at this without a door: 👁👄👁,11-2-2021,1
592,Idk,hercules_x,,Lol imagine paying for a doorknob then someone just bashing in the wood ass door 😂,20-2-2021,1
593,Austin Busbee,buzzsawjimduggen,,"quick tip for extra security, so they can't just kick the wood door in, replace screws on the face plate. Use 6in screws. Sweet door knob!",12-2-2021,1
594,Teej,itsxxxtj,,where can I buy this knob,7-2-2021,1
595,Tally Reed,tallyreed5,,@aneilabethel you need this😭😭,21-2-2021,1
596,Sherrilyn,sherritime3,,I need this ASAP,2-2-2021,1
597,Luke Kennedy,lukekennedy17,,Mine turns #suckitlosers 😂,11-2-2021,1
598,GᖇᗩYᑕE,__hot_mess_express,,My door knob is cooler than your door knob. I got a bigger buck n bass on ma wall,11-2-2021,1
599,jayflocking,jayflocking,,Bro is hiding the crabby patty secret formula in that room,20-2-2021,1
600,kb🦅,blztic,,You could kick the door down so easy😭,2-2-2021,1
601,Q⚡️🖤,qloadin,,If this door was in scary movie 😂! You would be dead,11-2-2021,1
602,Joefrank Rocha,user292232059,,@kimv1989 dope!,12-2-2021,1
603,Landen’s SuPeR kOOl,landen315,,150$ door knob for a 10$ door lol,2-2-2021,1
604,R. KingX64,r.kingx64,,Pour water on that shit easy access,2-2-2021,1
605,Davis Rodriguez,d_rod_50,,@borntomom4,12-2-2021,1
606,𝐕𝐥𝗼𝐧𝐞🧛🏿(ง'̀,_nycdonn,,that's lit idk why all yall hating for,11-2-2021,1
607,Q,qpolic,,Who care bout dat cuh at da end of da day sum one will still kick yo shii down 🤣🤣,11-2-2021,1
608,Uriel Valadez,panterita_420,,Imagine trying to open it stoned asf💀,11-2-2021,1
609,mistycal wolf,mistycalwolf16,,Damn bro you don’t want your mom is your room or nothin,11-2-2021,1
610,Juan Valdivia,sealyv12,,@teddythgr,2-2-2021,1
611,Plant Lover:3,dxnniboi,,It’s called the Dato smart door lock and it’s on Amazon,11-2-2021,1
612,Tavo Lote,tavolote,,Lockpicking lawyer doesn’t approve,2-2-2021,1
613,🤍Barbara Cifuentes🤍,itsmebarbara184,,Ok and,12-2-2021,1
614,Evan,itz.evan.bxtch,,I don’t have a door,20-2-2021,1
615,Jimmay,jimmyguzman19,,Damn what you heading in there lmao (aliens)??🤔,7-2-2021,1
616,CJ,cjhustle18,,Or i can just kick the mf open,2-2-2021,1
617,jr🦁,getmoneyjr405,,@michelle.rz14,11-2-2021,1
618,Janne,juneeightt,,@chris_6878,2-2-2021,1
619,I want a boing😕,spikeygonewild,,if a intruder came in he would be struggling 😂,11-2-2021,1
620,Big worm 🪱,professionalproctologist,,It don’t take nun but a kick to that wooden door and it’s open sesami 🥱🤦🏽‍♂️,4-2-2021,1
621,bow hivenger,kirby_with_a_knife83,,bruh i ain't got no doorknob i got one of those sliding Japanese doors,7-2-2021,1
622,Valerie Mae,valemae420,,@xxbdubs21,20-2-2021,1
623,Johnny A,johnnybeazo130st,,What's the whole point of having that doorknob if you have a normal door you can just kick it through,6-2-2021,1
624,Zay,isaiahfr_,,I’m sorry but my door knob does not have bite marks,11-2-2021,1
625,𝖘𝖍𝖆𝖜𝖙𝖞𝖜𝖗𝖑𝖉,shawtyvswrld,,Wish i was that rich,11-2-2021,1
626,• ZOEY •,z03y.xo,,Thai is what you want @planet.racer,7-2-2021,1
627,Alex UniquelyDesigned Pruitt,alexuniquelydesig,,Ooooooo I want 🥰😁,21-2-2021,1
628,mario.herreraa,mario.herreraa,,Bro for my door knob I need 2 ppl to open it just to get into my room that’s how messed up it is😭,2-2-2021,1
629,Ms.single🤷🏽‍♀️,fw_.joy,,BRUH give me that,11-2-2021,1
630,Rah,rah1kk,,This guy is going places,2-2-2021,1
631,ヽ(`⌒´メ)ノ,.__.oh,,Bet u don’t got Face ID 😏😎,12-2-2021,1
632,𝐃𝐄𝐀𝐓𝐇 𝐍𖣠𝐓𝐄 ☦︎📓 ݈݇⎼,hikoshina,,Where,11-2-2021,1
633,Shotime_M3l💕🍼,shotime_melll,,Ayo we got the same dornobb,11-2-2021,1
634,Zonto,zontoquanz,,it would be much easier to ram the door down,2-2-2021,1
635,Evan,evantraphize_,,Yo guess what...we never asked,3-2-2021,1
636,mannyfresh_18,mannyfresh_18,,@hekkaandshit,2-2-2021,1
637,Wayne Cornett,a.wyte_boy_90,,Not in my house son maybe when you get your own house 😅,3-2-2021,1
638,Augustine Perez,augustineperez5,,What the hell is in your room that important behind a break away door 😂 😂,3-2-2021,1
639,ssantiii,santiii.martinez,,@k.mondragon3,2-2-2021,1
640,patience,patiencewilsonn,,@jaelynn_mott_04,22-2-2021,1
641,𝑇𝑖🤍,therealmenti,,@bitchits.nevaeh girllll ion give a fuckkk😭😭 I WANT THIS SHITTTT,7-2-2021,1
642,naisha,itsnaisha_,,@millavalencia @chantellblair,11-2-2021,1
643,DiVe,dive_wolph,,Bro we have the same door knob 😳,3-2-2021,1
644,Denise Freeman,denisefreeman85,,Man I would pay to see you try to go pee and you trying to open the door 😅,3-2-2021,1
645,Vxcrackk✨,vxcrackk,,"OMG you the best,richest person in the world like we give a fuck🤡💯👌",2-2-2021,1
646,Rachel,rachel_tx_,,What do you have in that room lmao,2-2-2021,1
647,Hi,honestlyimjustbored0,,@vanessas.19,11-2-2021,1
648,Joseluis GonzalezTaf,joseluisgonzaleztafoya,,waaaaaaauuu 😳😳😳😳😳,2-2-2021,1
649,si.minivan,si.minivan,,Does he not now the first door knob can do the same thing,2-2-2021,1
650,user205030339034,sizzlemcnasty,,You’re safe until big bird comes buy 😲,3-2-2021,1
651,Dood,dood_unbothered,,@damnn_stephh,21-2-2021,1
652,SIKE,1hmsm,,Name something with tighter security then the capital: my doorknob😏,2-2-2021,1
653,Kelsey13❤️,kelseyhill111,,Cap 🧢,20-2-2021,1
654,Slap it ✋🏼🥵,kirstwann27,,@thebartlett12 @rylynn_ann06 can I have this,11-2-2021,1
655,Tiktokulus,tiktokulus,,Bro that can be kicked in and credit card picked relax,3-2-2021,1
656,Josh Daves,josh_doesit,,I don’t have a door. I just phase through the wall,3-2-2021,1
657,chimi,chimiking04,,Bro. Imagine calling 911😂,7-2-2021,1
658,tehya,tehya.morris,,@yourlocal_badb,20-2-2021,1
659,Janie Serrata,jnatalyyy,,@jackyserrata y yo ni door knob tengo🤣,20-2-2021,1
660,Mario Moreno,el_negro562,,im hopping to amazon to check it out,2-2-2021,1
661,Ivy Ocasio,bossy2001,,What if your running from a killer tho 🤔,22-2-2021,1
662,Tik Toker,17offaperc30,,Damn wat u hiding,7-2-2021,1
663,user1300204686608,714phage,,"High class door knob, but cheap as hollow door😅😅😅",22-2-2021,1
664,🦋𝙹𝚊𝚢🦋,yourstruly_jaydaa,,@siierraa.t we need this,22-2-2021,1
665,jonnyboii,jonnwalu,,guy don’t wanna get caught doing the dirty,3-2-2021,1
666,kenzz😻.,.kenzzbenzz,,ok did i ask 🤷🏾‍♀️😭,2-2-2021,1
667,Sydney hall,sydneyhall53,,Fyp,22-2-2021,1
668,celine,celph,,@willy_shaheen you need this,20-2-2021,1
669,KJ,tfyoulookin_at,,"robber ""get sludge hammer and break the door down because it's wooden""😂",3-2-2021,1
670,MuddyJo,muddyjo,,Exactly like bro don't need all that for a door,3-2-2021,1
671,𝒜𝖚𝖉𝖗𝖊𝖞 𝖘𝖔𝖋𝖎𝖆,audrey.soff,,I knew the invention was gonna come true,11-2-2021,1
672,Kylee Barr,kbarr930,,Name something more secure then the capital building:,6-2-2021,1
673,<3,1_purifiedwater_1,,I fucking wish @u.spelled.desire.wrong,11-2-2021,1
674,Kamiya Moore,riverdale_dancing_girl,,Who else looked at there doughnut😅😅😂,11-2-2021,1
675,Vintage_HipHop,vintage_hiphop,,That door so old it sat next to Jesus in school.,3-2-2021,1
676,Lana😩💍,theylovelanaa2,,@ave_neal01 that's what your ass needa,22-2-2021,1
677,I will post once in a while,4k_hdporn,,at least a metal door right?,12-2-2021,1
678,Anonymous,yko.jay,,Just get a normal lock 😂 you did all that and someone could just kick your in,2-2-2021,1
679,Vinnystella,vinnystella_,,Wasted money for a door my little sister could kick in smh,2-2-2021,1
680,Rex Pochatko,rexpochatko,,pov YOU TRUST NO ONE,2-2-2021,1
681,Ry,ry11n1,,does your door knob even lift?,11-2-2021,1
682,Laci Ann ♡,jakeswife.com,,@liz.self that’s dope,20-2-2021,1
683,Christopher Rivera,christopherrivera820,,So you don't need to put a chip inside your hand 🤔 smart,3-2-2021,1
684,💜🖤Jolene♎️,crushgirljojo1,,Jokes on you I don’t even have a door 😐,22-2-2021,1
685,Big mike,bigmike_cool,,Damn,2-2-2021,1
686,[REDACTED],theurgetobruh101,,My parents got 2 but didn’t use them,3-2-2021,1
687,Chris🤎🥀,1voodomf,,Thank you for notifying me that I’m once again broke,3-2-2021,1
688,logan,loganwasup,,lol my dad would get the chain saw 😂,2-2-2021,1
689,YungPapi314,3verybodyhatesm3,,Till i call the kool-aid man,2-2-2021,1
690,malachi,mpiierre__,,are you jimmy neutron my guy 😂,2-2-2021,1
691,🍿,jdoubleback,,a timb and a Bruce lee kick would do the trick,2-2-2021,1
692,P,_urnotdownfoo,,Bro is hiding the recipe of the crabby patty 😬😬,3-2-2021,1
693,Andrew,azxoy,,150 for a doorknob,2-2-2021,1
694,Ricxrdoooo💧,ricxrdooo,,ik he be on the hub 24/7 😭😭,7-2-2021,1
695,Austin Laws,austinlaws2,,My boot print will get me in aswell,3-2-2021,1
696,mariely:),fijimariely,,@marienunez05,22-2-2021,1
697,1zza44k,1zz4k_,,Where did you buy that i want one too,2-2-2021,1
698,yaryna,yxryna,,@j0s3av i need that,22-2-2021,1
699,Robert Dorsey,gnf__rob,,So in that case I’ll js kick dwn the door 😂,7-2-2021,1
700,keke,essenceoflife05,,@_its.not.sarela_ this is how the lock for the basement is going to have to be we don't want any accidents,4-2-2021,1
701,...,that_bitch53106,,mine don't look like a flower??,7-2-2021,1
702,乂𝒦𝓎𝓊𝓉𝓉𝓎乂,sharkhas3iq,,@ttv.qurshi we need this for uhh times,2-2-2021,1
703,Jack Malinowski,commotiocordis,,*Proceeds to kick in door*,20-2-2021,1
704,.,user1573728378373683836,,Cashapp~Officialleetrendyme,2-2-2021,1
705,<3me1y,fairye.666,,Where’d you get it tho ? 😌,11-2-2021,1
706,Jerilyn 🌚 .,j.erilynn,,Damn what u go in yo room,20-2-2021,1
707,Jocelyn,jocyyy.romero,,@18.kimberlyy I want one,22-2-2021,1
708,Jose Barajas193,josebarajas193,,Is this a flex,7-2-2021,1
709,user3041995286547,outlawimmortal1971,,Look like it was your door knob first 😂😂😂,3-2-2021,1
710,Rick,yourdeadrelative,,To bad i have legs,2-2-2021,1
711,Princess bubbles💀,shelbybutts27,,@blakebutts19,2-2-2021,1
712,sofia,sofiaaalejo,,@stripperjuice,11-2-2021,1
713,Ysl.ako,3dkako,,My dads 12 gauge will blow that shit off if I really need to get in there,2-2-2021,1
714,otsivan,otsivan,,@nataliee._.m we might need this,20-2-2021,1
715,4o8.dixnee,henrybussin,,Ayo i got a hammer easy way in,11-2-2021,1
716,idk,unknowntoes666,,My door was automatic 😏,7-2-2021,1
717,Minesh Rama,masterclass51,,bruh what’s in ur room?,3-2-2021,1
718,.,789xp,,my dore you just pull out a spoon to open,2-2-2021,1
719,DmS dOnT woRk,16kd4nii,,@♡Justine bujo♡,11-2-2021,1
720,ur mom,honk_kar1,,I don’t even have a door💀,6-2-2021,1
721,Allie Sledge,allie9669,,@bdipper26,22-2-2021,1
722,RondaeXp,rondaexp,,@lil_palm06 @breanna_1420 wtf is this technology,7-2-2021,1
723,nikylaa 💕.,thee0nly_kyky,,@theylove_libby,22-2-2021,1
724,Hi there,ryandoodlebob_22,,Imagine having that as the bathroom door knob and you forgot the password and the card was in your room and the fingerprint was not working,21-2-2021,1
725,Bugz bunny,.bugzbunny,,Tell me where to get it,11-2-2021,1
726,alexishtx,lnxmorones,,@adrianna_300 fuck we need this,21-2-2021,1
727,Priscilla Bruton,priscillashley5,,"I hate when young kids say, “mineS”. It’s not mines it’s MINE!",21-2-2021,1
728,gwen,gggwweenn,,@ice_linares,2-2-2021,1
729,Lynn🕷,kyaa.888,,@daavviionn,6-2-2021,1
730,Monet,15monet,,Buying all expensive stuff but now let's see the wallet,11-2-2021,1
731,Savannah Williams,savannahwilliams88,,@halleymarcelle I’m getting it lol,2-2-2021,1
732,Kari🥂,karivrgs992,,@jessypalomares 😳,20-2-2021,1
733,Key,keyto_keke,,me wantin in imma kick it down😭,2-2-2021,1
734,nisha <3,thiccbixtch10000,,You want a cookie 🍪,6-2-2021,1
735,Bitch<3,suck.a.wang,,@leavemealone813,7-2-2021,1
736,Selena<3,selena.d429,,@sumbuddycomegither,22-2-2021,1
737,mark holt,marl.15.holt,,@brittp2377,2-2-2021,1
738,Josh Dawson 📈,creditjoshy,,Door knobs are cool but so is financial literacy. Peep my content for some dope info 👿,7-2-2021,1
739,llllllllllllllllllll,the_fam_92,,where can I get one,2-2-2021,1
740,Allie,tankandmarleyfanpage,,I’m look for who tf cares😂,11-2-2021,1
741,Brian,user4055510569,,$140 for a doornob🤡🤡 still really cool tho,11-2-2021,1
742,Caison Hataway,falloffdawall,,Doesn’t help very much if you have the key and the card on the same keychain,10-2-2021,1
743,イタチ,theofficialitachi_,,my door knob has a lock in it😑😑🤦‍♂️🤦‍♂️,14-2-2021,1
744,🍗Hot Biscuits🍗,ur_life_support,,how is this single door knob more securr than the capital😬,8-2-2021,1
745,Nicholas Mackenzie,dj_bgk,,You are a doorknob,9-2-2021,1
746,Tyreezy,tyreezysenpai,,Door got more security than the capital,3-2-2021,1
747,DC,doncorleone312,,all that for a hollow core door? bruh,3-2-2021,1
748,Seaheart,seaheartcon,,My new room update if I ever get a room🥺,3-2-2021,1
749,😾,xkxly,,Trust Issues,10-2-2021,1
750,.,icecold.005,,a good strong hamer will open your dor faster doo 😂😅😂😅,9-2-2021,1
751,Nini ♎︎,niboogiewitdahoodie,,just get a lock,2-2-2021,1
752,Ryan,reaper_c_s,,Get in samurai I need fingerprint on my wood door 😎,3-2-2021,1
753,Kimoni Byrd,yo_girl_kimoni,,😳 @angelove598,9-2-2021,1
754,Lakota Maza Peta Sep,lakotamazapetasep,,@quinceyderby,3-2-2021,1
755,kevs.atss,kevs.atss,,@aaliy.uh I need this sadly,14-2-2021,1
756,Caught On Dashcam,wanted.in.ohio,,What happens if the battery dies,10-2-2021,1
757,Tik Toker,h3luv.m3,,so what you be doing that you need that much security 😐,8-2-2021,1
758,I Wuz Here 👋,lg_wuz_here,,"You should've got a special door to go with it bruh.. Making it look ""cooler"" and more sturdy too.. 😏",13-2-2021,1
759,Jack Mehoff,the_devils_favorite,,"Knob Price: $350
Door Price: 6 Lbs Of Walmart Cardbord",10-2-2021,1
760,User,lizzie82205,,@kyleerolerson2 you,3-2-2021,1
761,Omegajim,omegajim,,still opens with a kick,3-2-2021,1
762,💕.,tiinnkk._,,name something that is more sercure than the capital😂,2-2-2021,1
763,Dinora Romero,dino1322,,@jquintana23rd we need this for Lincoln,8-2-2021,1
764,andrewm7203,andrewm7203,,That 🔨 over there is looking really useful,9-2-2021,1
765,Child,worm_envelops,,Y’all have doors knobs oh wait I would need a door first ;-;,3-2-2021,1
766,Follow me plz,yxugndrip,,@aidebianeyavalos,3-2-2021,1
767,Swztss,ihyswztss,,Danm I wonder what loud ass noise it gonna make if I get a key and unlock yeah yeah and then a passcode yeah yeah and A FINGERPRINT,2-2-2021,1
768,isabelle,isabellekathleen,,@russianbaddie what u need,8-2-2021,1
769,Babymexico00,.babymexico00,,What if you got a run into your room fast while try to scan your finger?,2-2-2021,1
770,user211098364765,animestoner420,,It also accepts feet,10-2-2021,1
771,Cassie Jones,cassiejones48,,@daniellegrogan,3-2-2021,1
772,That Boi,_._.._..._...._..._.._._,,i could open it with a magnet,10-2-2021,1
773,Luna Moon,moonandstars32,,"So do you use one of those to get in, whichever you choose, or all of them?!",3-2-2021,1
774,Obama care,tyrone.marquice,,What if I cut the power 😳,2-2-2021,1
775,Nate,lostspaceadventurer,,"yeah....thats not gonna stop a foot to the door, my guy 😂",3-2-2021,1
776,Strange Brew,strange__brew,,Totally hackable 🤓,2-2-2021,1
777,user1599818769899,leslo.jm,,@denisetingzz need dis😭,2-2-2021,1
778,Theegoat49,theegoat49,,My door knob has a handle😎,8-2-2021,1
779,Get out,nobye_2876hhjjvkkv,,What he hiding in there😳😅😅😅,12-2-2021,1
780,Sam Lefebvre,samlefebvre0,,Just a simple kick and its open 😅 but its nice if its for the look 👌🏻,3-2-2021,1
781,ellis uhl,imethodman555,,@jades.martinezz,10-2-2021,1
782,auilsjs,auilsjs2,,wowww so cool🙄,10-2-2021,1
783,Joelle gadoua,joellessohotandfunny,,ur doors wooden babe trust me it’s not hard to get in,15-2-2021,1
784,Luis Merida Jr.,luismeridaprado,,Link to buy?,2-2-2021,1
785,voluntary jack,voluntary_jack,,"lol, my grocery store rewards card will open that shit up in 2 seconds.",8-2-2021,1
786,Brandon Porter,brandonporter49,,this man got all type of contraband behind that door. 😂😂😂,3-2-2021,1
787,AAHMI ANDERSON,aahmianderson,,That’s so EXTRA I go I and out of my room way to much for that,3-2-2021,1
788,Eduardo Reyes,eduardoreyes489,,@alondramtz30,10-2-2021,1
789,AverageDoor,averagedoor,,Put this on the bathroom door while your family is gone to never have to share the toilet again,8-2-2021,1
790,Jonathan,jonolivencia,,Ok Dexter’s laboratory 😂 😂,8-2-2021,1
791,Beeghevey4,beeghevey4,,One day he come home with dementia a wet finger and he forgot his key he’s not coming in his room,2-2-2021,1
792,Lalo.,obs.lalo,,"Hella of a door knob, but your door and walls ain nun 😐😂",2-2-2021,1
793,~SavageQueenLillith~,savagequeenlillith,,@kotabeardavis,28-2-2021,1
794,Amanda <3,amandafayeeee_,,@briannakayviars_ I NEED ONE,3-2-2021,1
795,Smart Home Malaysia,smarthomemalaysia,,Haha,5-3-2022,1
796,theonlypresley_,theonlypresley_,,The boy that made this video 👁👄👁,8-2-2021,1
797,Da Vena,bumbumthechuhuahua,,on a door you can shimmy with a butter knife.😂😂😂😂,2-2-2021,1
798,nicholasnarvaiz,nicholasnarvaiz,,That dude when the fbi finds out and breaks down his door 👁💧👄💧👁,8-2-2021,1
799,Mars,_madskillz_,,"WHY DID I LIKE MY OWN COMMENT
ا ?!AGO",14-2-2021,1
800,Roberto Cano,robertocano31,,Bro you got more security the USA capitol,14-2-2021,1
801,Devon.S,devonsoehnge,,Perfect to keep them out until I say come in,9-2-2021,1
802,Trent Kassuelke,trent_kassuelke,,Me trynin to find who gives a fuck 📡📡,3-2-2021,1
803,Marcus,marcus_kng.x.sup_,,Just take my money man where can I get this 😳,2-2-2021,1
804,Naw_YouGood,naw_yougood,,That’s crazy because I could just kick that flimsy door down 😂,2-2-2021,1
805,Summer N,xoshingo,,for a wooden door,10-2-2021,1
806,.,ayoungjr16,,@niyahcity,8-2-2021,1
807,Logan Cary,logancary5,,Still the same amount of cheap particle board holding it in😂,2-2-2021,1
808,👾.,itsmalachiiiii,,@makailasgirlfriend my mom would neva,9-2-2021,1
809,RayRay,user52877345,,I got the masterkey. cough cough my foot,3-2-2021,1
810,callmemrputitin,ryry3x,,you can’t sneak out tho😂,10-2-2021,1
811,Kaydon Mckenzie,wsg.kay.l,,Just break the door down simple,8-2-2021,1
812,brown,ch0ppabrown,,@.kxyys,2-2-2021,1
813,Papitito,adolfdripppler,,Bro anyone can kick that weak ah door 😂,2-2-2021,1
814,Ots_Kris,ots_kris,,Guess what we don’t care😑that’s not cool look at ya door bro,3-2-2021,1
815,Darkangel0997,darkangel0997,,@claudiavelasquez54,3-2-2021,1
816,Bernardo Aguirre,bernardoaguirre06,,not even the swat could break in,3-2-2021,1
817,Idek,kylies.backupp,,@user380713807 dang,2-2-2021,1
818,Jay,jay1000000000000,,lmao. that door stop pops of easy,3-2-2021,1
819,RASPBERRY FAYGO,watermelon_faygo,,All fun and games till the power goes out,15-2-2021,1
820,Joe,bigguy4809643126,,More secure then my google account,8-2-2021,1
821,Rashad,uh.rashad,,Still can get kicked down 🙄✋🏾,3-2-2021,1
822,dragon king,ixsarmay,,what about when the killer chasing you,10-2-2021,1
823,😈 ℝ𝕖𝔹𝕖ℂ𝕔𝔸 😇,rebecca_357,,if someone is chasing you...your SOL..😏,3-2-2021,1
824,Halle Jade,hallevantunen,,@namjooniepie,3-2-2021,1
825,Sup,moonlight05255,,Tell me u have trust issues without telling me you have trust issues 😏,8-2-2021,1
826,Apple User855969,goldengoat34,,Bro u know whoever breaks in they can just break the door LOL,10-2-2021,1
827,Idk,gdean__,,I don’t have a door knob beat that,15-2-2021,1
828,Antoine DR,toinedr,,Does it prevent kick-door?,8-2-2021,1
829,Franky,faded96_,,Does it prevent getting kicked tf down 😂,3-2-2021,1
830,Biggie51,biggie51,,Is it kick down proof,2-2-2021,1
831,💟 奥利维亚 💟,lmaosksksss,,Wtf aye could you get me one ☝🏾 🥺🥺🥺,8-2-2021,1
832,Karlie,karr.418,,@ally.asd @jaidyn204,3-2-2021,1
833,rossikid46,rossikid46,,Weird flex but ok,2-2-2021,1
834,Mally D,mallydd,,"Lmao imagine bringing a girl home and showing her this lock, no cap if I where a girl and I saw that door knob I’d let you hit🤷‍♂️",2-2-2021,1
835,Yolanda💕,yofav.yoyo,,all fun nd games till u can't get in💀,8-2-2021,1
836,Garrett Johnson,garrettjohnson908,,I didn’t know I could feel poor by a door knob,3-2-2021,1
837,adore.tayyyy🧩,theyyluvv_tayyy,,Ayo rich checkkk!!! Your gonna wanna-,3-2-2021,1
838,SO DAK TJ,so_dak_tj,,what's the product name,10-2-2021,1
839,YuhHur,killerturtle2193,,"tbh it just give more ways to hack into ur room, or just kick it",8-2-2021,1
840,Jose Sanchez,jjcar1104,,Bro that gets you so much 🐱 huh,10-2-2021,1
841,REDBULL-IL-SHOCKER,redbull_il,,order information,10-2-2021,1
842,altina,altinaxxx,,better security than the capital,3-2-2021,1
843,2kyoungn_,cobydabarber_,,Allat for it to be jus kicked down,10-2-2021,1
844,I.J.R,__the.one.n.only__,,Dam I need that,3-2-2021,1
845,Aidan.m.ring,aidan_the_blueberry,,Where. Just where,8-2-2021,1
846,user662792763320,agnesg137,,What are you building in there...😳,10-2-2021,1
847,brandon,0vobrandon,,i could buss down ur hollow door in one kick😂,3-2-2021,1
848,bryan.alextriana,bryan.alextriana02,,I just think you went to a hotel,10-2-2021,1
849,Drew,cornqted,,The price for it hit me hella hard,10-2-2021,1
850,Angel Elias,angelelias12,,@pyt._madelinee get this,2-2-2021,1
851,RV,.vv.10,,Its a wooden door... all it takes 5 steps back and a shove to get it.,3-2-2021,1
852,Fuck the Lakers,mikeok234,,it... it's a doorknob my guy,8-2-2021,1
853,JAYY🥀💯💫,dareal_deiago,,That’s smartknob,3-2-2021,1
854,GTA MEMES,hdkimogaming,,This dude be hiding Area 51 documents in there 😂,2-2-2021,1
855,josh east,josheast95,,Probably takes you 15 minutes just to get into your own room,3-2-2021,1
856,Mike Alswager,mikealswager,,Someone got a $50 Amazon gift card and it shows,3-2-2021,1
857,Iratze Duran,iratze.1506,,It’s harder to open the door than to cross the border,8-2-2021,1
858,AOUN,aounnnn,,Wtf u got in ur room,2-2-2021,1
859,Baby Panda🐼,lilbaby_girl20,,@juanabymaelantona85 babe you said u want to lock the door here I go lol,3-2-2021,1
860,Kois Holik,koisone361,,And I'll still get in with a auto zone card 😂😳😬😬,13-2-2021,1
861,𝖉𝖎𝖊𝖌𝖔,hpdiegoo,,@xojanelyy I want this now,8-2-2021,1
862,0000,user906223671,,I need that for my phone lol,10-2-2021,1
863,lاl,_iii1iii_,,Kick it down 😳,8-2-2021,1
864,Misael,misael_621,,Looks like Ima cop that door knob now,2-2-2021,1
865,Dominik,dom_nik4,,*Or just put your stuff in a safe. I just want to go to bed.,3-2-2021,1
866,Oh,cantsee.dragneel,,That mamma be real scrict😂😂😂,8-2-2021,1
867,Coffee,yamacoffee,,I actually don't have a door.,15-2-2021,1
868,user4004539217718,jefffrankie2,,You are a door knob,2-2-2021,1
869,justin horn,justinhorn51,,@xocourt30xo,13-2-2021,1
870,angelo1327,angelo1327,,i could probably still we able to kick it down 😂😂😂,9-2-2021,1
871,heman.ar,hemantron,,Wat you got in there lol 😂,10-2-2021,1
872,heidi 🪐,heidim08,,@alyssaad3la,8-2-2021,1
873,racoon,raccoonexus,,"how many time you need to change the battery, bro?",3-2-2021,1
874,Angel M,ang3l_melchor,,One of the weirdest flex of 2021 😂,3-2-2021,1
875,CodyFreeberg,codyfreeberg,,I need this for my room. Where do I get it?,2-2-2021,1
876,sonnie,ikisunn,,i don’t even got a door..,8-2-2021,1
877,Jarik Mueller,jmueller30,,@audswartzz,2-2-2021,1
878,Shaq’s Only 3 Pointer,shaquille.oatmeal.34,,It $140 on Amazon for y’all who were wonderin🚨🦫,2-2-2021,1
879,Jamaree,itsmaree4x,,ok i want this but ima have to get a new door,12-2-2021,1
880,Jennifer Matthews,babyyy.jennyyy,,"went to the link, seen the price for a door knob, nvm eff that",8-2-2021,1
881,Ryan,ryanjarvis1234,,Definitely a pc guy,14-2-2021,1
882,snizzz,kingsnizzz,,What are you doin hidin from the Feds 😂 😳,8-2-2021,1
883,Malisk,userwhocareslawl,,If this man ever gets robbed they’re coming for just the doorknob 💀💀,12-2-2021,1
884,Annette Mendoza,annettemendoza00,,damn what u hiding 😅😅😂😂😂,10-2-2021,1
885,Shunny,ayossb,,I’d hate to have to do all that to get in my room,2-2-2021,1
886,silly,whatttttt.you.like.what,,@smilingwithfaye,17-2-2021,1
887,aiden🦕😁 .,kornbread.69,,well lucky you 😅,8-2-2021,1
888,celine,celineebriii,,Ppl rlly making things more complicated more than what they need to be TFF😂,17-2-2021,1
889,OWA OWA 🥶🥶🥵🥵🥵🥶🥵🥵🥶🥵🥶,fe.4rless,,"Oh no I’m being chased by a murderer, hold on I gotta put my credit card info on my doorknob to open it",2-2-2021,1
890,John Pineda,johnpineda27,,Might want to upgrade the actual door some one can easily kick that in 😏,3-2-2021,1
891,Trent,trent641,,thats a cool knob,13-2-2021,1
892,Maria Yacely Esquivel,mariayacelyesquiv,,@bbylolaa19,9-2-2021,1
893,Harry Her,harryhawj2,,and I dont care,3-2-2021,1
894,Ethan Hoffman,12ethanhoffman12,,I’d kicked that shit down like Sasuke and laugh at your ass,13-2-2021,1
895,Ye,tiftwiki,,So we flexin door knobs now?,2-2-2021,1
896,Syce,1syce,,Ahh back up *mom kicks door* ahh there ya go,3-2-2021,1
897,BackwoodsJ,backwoodsj6,,My brother after one time I go in his room to do all his coke🤦🏽‍♂️like share fam,10-2-2021,1
898,reggie roccet,itsdididuhh,,my mother would laugh,8-2-2021,1
899,︎,ava_cardenas,,@u.ghhhhh,8-2-2021,1
900,Partygetsmewetter,colorme.nay,,you just got the secret formula in there ?,3-2-2021,1
901,Jennie,ayitsjennie,,what are you hiding in there 😳,9-2-2021,1
902,Daniela 🎀,divinee_rcf,,@ruiined_q50 I kinda want that,10-2-2021,1
903,Pimp_nation5,christian_haygan_,,@addy_____ you wish that was you huh,12-2-2021,1
904,einna_jav,x3innax,,@kieran__white,9-2-2021,1
905,Tow Mayhem,towmayhem,,and I can open it with a credit card,27-2-2021,1
906,Tik Toker,issa18yearold,,"Me laughing at this video so hard because us “Mexicans” don’t have door knobs, we can easily see the whole room to see what others are doing 🤣🤣🤣",27-2-2021,1
907,amora !,ilovemooskiooo,,boy u need a metal door 🙄 i outta buss that door in,8-2-2021,1
908,Jordan,1kjjordan,,You didn’t need to flex that hard my G,10-2-2021,1
909,RapStar🌟,wehate.jay,,cool 😐,3-2-2021,1
910,JD,jd_dallas,,"Girl chill. My knobs are made of brushed titanium, can’t be hacked or glitched, and the doors are galvenized steel. You’re just keeping a cat out.😂",2-2-2021,1
911,t_smoove_,t_smoove_,,so what if the power goes out,8-2-2021,1
912,Bryan🥵,official.bryan03,,@official_rubiii,27-2-2021,1
913,Ricky,i3ird,,After he got his first blowup doll 😅,2-2-2021,1
914,BDCSMILEY,bdcsmiley,,or use a hammer,10-2-2021,1
915,This guy,luhmarrr1k,,I found It online jit really paid 140 for a doornob what re you hidin 😂😂😂,10-2-2021,1
916,Joshua Ross,joshuaross2,,@thejokerssmile,13-2-2021,1
917,Timeless Crusader,timelesscrusader,,Just the average door knob nothing special,3-2-2021,1
918,shanan,shananlight,,@elyssa.toennis umm get a better door then you can brag about your doorknob,8-2-2021,1
919,Dino_,dino_,,"U live at home w/parents and can afford this, I can hear them in the background 😂",2-2-2021,1
920,Katie Ott,katie.ott_,,but lowkey i kinda want your old one😂,17-2-2021,1
921,A guy,whysoserioussociety,,Sorry u wouldn’t last one minute in a horror movie with a doorknob like that😂,17-2-2021,1
922,Patrickv,pat121ckv,,You got time to do all that to get in if you getting robbed ? Lol,2-2-2021,1
923,Bryan,xnayrbk,,Shit more security than the capitol,2-2-2021,1
924,K,kkimmtz,,@blcms how 3031 gonna be like,9-2-2021,1
925,SANS FAN,just_a_bi_guy,,@momento_mori_2020,8-2-2021,1
926,🔭𖨆♡︎𖨆,omwtfyb._.des,,@honestly.done0 I need that in my stalking,2-2-2021,1
927,ｋａｌｙｎ,iits_kalyn,,Ummm wait why is my door knob in your house 🙄,8-2-2021,1
928,<3,wh0reechataa,,@bev587,8-2-2021,1
929,Stephanie Mckenzie,stephanielem0,,my mom getting through that and taking the door off the hinges in the process😂,8-2-2021,1
930,Cristhian,ace_fr,,😂,13-2-2021,1
931,noah,noah.goat.4,,Damn Bri what u got in there 😳😳😳,3-2-2021,1
932,Flores879,adrianflores904,,Bro it’s not my it’s mine with 2 I have I’m done i gonna put unlike,10-2-2021,1
933,Iiymani💕,thelocalbarbie_,,“Your guyse’s”,8-2-2021,1
934,Why you stocking me 🤨📸,bigmem_2021,,Did you made it or bought it and where did you bought it,3-2-2021,1
935,Jewelry Cinema,jewelrycinema,,Smarter then most people 😳,10-2-2021,1
936,Lil Fly,lilfly2,,So what yyou do when tha batteries die,3-2-2021,1
937,i forgot my name,k9_a40,,well somebody has cp,8-2-2021,1
938,Anthony Yap,anthonyyap22,,That’s cool door handle!!!,10-2-2021,1
939,user2546778830044,5starduce,,We most def robbing dat... he got money 😏,8-2-2021,1
940,dxrxngxd,dxrxngxd,,hardest flex i have ever seen,10-2-2021,1
941,don't mind the name,i.sell.kids2,,guys if y eve feel useless remember this guy has a secured doorknob with a wood door its like a charger without a phone 😂,3-2-2021,1
942,Erion Berisha,berishaerion,,That is a ✨fire hazard✨,3-2-2021,1
943,jashane11,pablo11012,,Do I give a f,10-2-2021,1
944,Gracie💕,grace.o2,,it's all fun and games till a robber chases you like what he gon do wait for you to go in the room,8-2-2021,1
945,Katie,kmarie004,,@keisha.moloney if I had a normal door I would do this,8-2-2021,1
946,elias_E= _1400,2exclusive_for.you,,@too.cute.foryou,12-2-2021,1
947,Stella,x.missstella.x,,All it takes is a well nice kick and then I'm in or a card butter knife really stupid sorry but true 🥺,26-2-2021,1
948,A100,a1003milli,,What are y’all the cartel,26-2-2021,1
949,Nunya,goodtrucking77,,All that to keep your parents out? 😂😂,3-2-2021,1
950,_𝕙𝕖𝕝𝕖𝕟𝕒.𝕫_,itz_hz1,,Tell me something more secure than the capital:,8-2-2021,1
951,Renonds5,askuznrflight555,,where can you get that? it is amazing!😁,10-2-2021,1
952,Gavin da pony,gavin_the_pony,,﷽﷽﷽﷽﷽﷽﷽﷽﷽﷽﷽﷽﷽﷽﷽﷽﷽﷽﷽﷽﷽﷽﷽﷽﷽﷽﷽﷽﷽﷽﷽﷽﷽﷽﷽﷽﷽﷽﷽﷽﷽﷽﷽﷽﷽﷽﷽﷽﷽﷽﷽﷽﷽﷽﷽﷽﷽﷽﷽﷽﷽﷽﷽﷽﷽﷽﷽﷽﷽﷽﷽﷽﷽﷽﷽﷽﷽﷽﷽﷽﷽﷽﷽﷽﷽﷽﷽﷽﷽﷽﷽﷽﷽﷽﷽﷽﷽ you are cursed if you don't like,2-2-2021,1
953,Joseph Edwards,josephedwards03,,all that just for me to card it,10-2-2021,1
954,Sierra Wright,sierrawright27,,Where do you find this,8-2-2021,1
955,Blacc Capone,capone7600000,,One simple kick and im in 😂,2-2-2021,1
956,𝓃𝒾𝓃𝒶🦋,ninam.13,,@jennifergarcia.171 i need!,8-2-2021,1
957,Mason,mason.lookhart,,Tell me you don’t trust your siblings without telling me you don’t trust your siblings,10-2-2021,1
958,Mike Graf,mikegraf5,,will the door knob on my house not my bedroom because I own my house I don't live with my mommy and daddy,3-2-2021,1
959,brinna_3 🖤,brinna_3,,@guzman4524,2-2-2021,1
960,xJfo,xjfo__,,Did U just get flexed on with a door knob 🥺,2-2-2021,1
961,Bri,bri_mengelkoch,,@totter.nonna u need,8-2-2021,1
962,einna_jav,x3innax,,@vang_love,9-2-2021,1
963,Khadajza,kay.fxl,,@kageyamas_milk_straw,8-2-2021,1
964,🤘🏿🤘🏿ⰜĬᏟᕦ🤙🏿🤙🏿,vice_ent,,"""Heres Johnny"" has something for you",2-2-2021,1
965,stop the cap,made_u_l00k2,,I wish I have a door knob😥,8-2-2021,1
966,🇺🇲Hernandez🇲🇽,yamikagutsuchi,,it easy to break into those,8-2-2021,1
967,user5727883130450,troyah32475,,I can kick either one open np. But the second one I might just because,2-2-2021,1
968,Bitch,i_got_a_shrimp,,Wait wait I got something ..... a foot 🦶 🚪the nob don’t matter no more does it😂😂,8-2-2021,1
969,Kyle,tupacshakur626,,Better security than the capital,12-2-2021,1
970,gabriella.💕,gabriellaaa.10x,,@averyhinojos32,18-2-2021,1
971,Thatguy,thatguy_061,,When you can kick the door down😂😂😂,3-2-2021,1
972,Yo mama,followmyinstagram22,,Yeah we care😐,8-2-2021,1
973,Leonel Jaime's Junior,constructionlife5,,link bro 😳,13-2-2021,1
974,Gemini.,keannthatsme,,@desmarcoleman1 we gotta have!!,27-2-2021,1
975,Kayla Carroll,kaylacarroll0,,Just saw it was like $170.00 nah I’m good,3-2-2021,1
976,Chloe,chloe.dandjinou,,@jada.grace_,2-2-2021,1
977,Aliza <3,aliza._555,,i could just grab a hammer and break in tho LMFKAKANSJSKSNSN,8-2-2021,1
978,seth,se6yenz,,@gayiplier,8-2-2021,1
979,Monkey,jonhidan08,,Has the most advanced like ever but the door is made out of wood,2-2-2021,1
980,L's wife,brixmxs,,"tell me your rich, without telling me your rich",8-2-2021,1
981,Night Night,nightnight11,,@chosen075 @israellydia441,3-2-2021,1
982,Adri<3,adriheart_,,imagine someone breaking in and u trying to get in your room😭😭,12-2-2021,1
983,angel mora,angelmora6737,,Wow were can I found that 😅😏,9-2-2021,1
984,peter,petercoolboy1,,Imagine flexing your smart knob,10-2-2021,1
985,Jonathan Nolasco,joni_boii53,,My foot can still get through it dawg,3-2-2021,1
986,jess,j4ngynn,,@derxk_wp3,8-2-2021,1
987,Ymb_castro,ymb_castro,,I would do this but when my mom cant get in shed break down the door😭,8-2-2021,1
988,Tik Toker,.jadennnnnnnnnnnnnnnnnnn,,i wonder whats hes hiding behind that door,3-2-2021,1
989,Hank Mccoy716,hankmccoy716,,@snax4every1,2-2-2021,1
990,Alonzo Goldsborough,alonzo_ag,,Damn what you hiding 💀,3-2-2021,1
991,Flower Child,flowerchild870,,That door can still get kicked in purrr,28-2-2021,1
992,Yocelin Perez,yo.celin_xo,,@krizvancastle,2-2-2021,1
993,deez nutz,jenn17er,,@ejtooexotic,8-2-2021,1
994,Ernie,ernie469,,You’re sooooo cool(that’s actually so cool(,8-2-2021,1
995,Jonathan Ruiz🥶,jonathan.ruiz15,,is it just me or did the door made the closing sound from minecraft 😅,2-2-2021,1
996,Sochoeun Siilent Cho,silent_broo,,@jackyy_113,3-2-2021,1
997,NRG,nrg.888,,Lol I though guy was gonna show his gf as his door knob 😂😂😂 fr tho what’s this called??,13-2-2021,1
998,I hate it here😐,thegirl_thatlikes_u,,see now what was situation for you to get it tho,10-2-2021,1
999,user9655007624446,madeyoumad_,,Oh yea my axe says it’s likes that wooden door😂,3-2-2021,1
1000,𝐾ℎ𝑖𝑦𝑎ℎఌ,yourfavmilf.1,,My door don’t even close fully or have a lock on it,8-2-2021,1
1001,h0m1ess,h0m1ess,,with a cardboard door lmao. if you’re gonna go so big n beyond at least get a metal door or something,2-2-2021,1
1002,velma Jackson,ding.aling,,I can literally kick your door in... it's wood and it sounds like it's hollow in the middle.. so you ain't keeping me out😁,3-2-2021,1
1003,🪓Hunter🪓,the_mach1ne,,$600 door knob on a $30 door. SmArT tHiNkInG,9-2-2021,1
1004,Nova Bejaran,nova_bejaran,,Yeah you’re alone,8-2-2021,1
1005,Emir,emir.bruh,,Ill kick that junk down in 0.000064 seconds,10-2-2021,1
1006,JanellePerez,2raw.janelle,,No I really like opening my door quick so the monster in the dark don’t catch me,8-2-2021,1
