,Comment Number (ID),Nickname,User @,Comment Text,Time,Likes
1,Michael Garcia,hulk120914,,or just kick the door in if your robbing the place 😅,16-5-2021,351
2,William Virtanen,williamvirtanen,,"""This is, the LockPickingLawyer and today...""",16-5-2021,208
3,mr_Aussie_firefighter,mr_aussie_firefighter,,a door is only as strong as the frame and material it's me from given the right tools that door won't be standing,16-5-2021,15
4,Andrew Stroup,godslayer333,,"Wait, your door doesn't automatically recognize you, unlock, open, Close behind you, and relock? Sad.",16-5-2021,7
5,HTK4,htk.4,,😂 6 Factor authentication what do you have in your room that needs a High Security DoorKnob 🚪 😳🤔,16-5-2021,3
6,Jon Pallagi,jonpersonguy,,Every parent needs this !,30-5-2021,3
7,Dildoshwagens,dildoshwagens,,He sounds like Tom from parks and rec.,1-6-2021,4
8,Weeb?¿,narutodgaf,,U know he Mexican when he says mines😭,18-5-2021,17
9,Whixkey,whixkey.official,,Code axe the door,16-5-2021,5
10,user9496026615793,user9496026615793,,"Ya, a thin card can easily fit between the door and slide it open very easy. It’s not just the lock, you need a better door",16-5-2021,6
11,Atrophy666,atrophy666,,Gotta lock up the messy room nice and secure.,23-5-2021,4
12,Yaboy_AD,_yaboy.a.d,,I can honestly kick that door down lol get a better door 😂,16-5-2021,6
13,ALBY LAD,alby_lad,,What about my foot,16-5-2021,12
14,ALPHA.WOLF,alpha.lion01,,where can I get that please thats awesome definitely subbing 😁😁,4-6-2021,4
15,TS WIKKED,tswikked,,was a good vid till the sheesh at the end,3-6-2021,4
16,Kaleb Notto,kalebnotto,,what's the point of the code if it has a key slot to just pick it open,16-5-2021,9
17,user3724102033912,jo0686,,All that and no fingerprint? I mean the door is pretty thin. But can’t lie the lock is pretty sweet.,18-5-2021,1
18,user1794409459361,jimlaheysunnyvale,,“mines”,16-5-2021,2
19,game storm,tormenta_008,,"déjame tres segundos y te abro la puerta sin llave, ahora sí despues no está la puerta no es culpa mia",4-7-2021,8
20,Crea World,rustamos,,Этот замок для такой двери как шлагбаум посреди поля 😅,18-6-2021,4
21,gory¿,hi.gory,,puerta de madera🤡,29-6-2021,100
22,Darío Nirino,alsaurio,,"Jajaja una puerta de madera con seguro jajaja, deperdido que fuera de metal 😂😂😂",2-7-2021,7
23,Nyko Lopez,nykolopez0,,todos sabemos que las puertas de EEUU las soplas y se rompen,24-6-2021,66
24,Jhrel Gava,jhifs,,dañas la puerta y listo,25-6-2021,5
25,Paul,monkeypuppet29,,They look nice and all but they have a huge floor a thing bit of steel down the edge makes the handle work normally,16-5-2021,1
26,LoadedToad,loadedtoad,,that lock would be good on a steel door and frame,16-5-2021,1
27,Ktua24684278,ktua24684278,,Is it bulletproof tho?,16-5-2021,1
28,user9496026615793,user9496026615793,,You mean key,16-5-2021,1
29,mandog69,mandog6996,,keys are so easily to be picked come on now,16-5-2021,1
30,ow ma bak,45redball,,with it sticking 6 inches out of the door it makes it too easy to break off and access the inter controls,16-5-2021,1
31,mike,aussie_dad_life,,What the hell kinda secrets are you hiding in your room bro? Lol,16-5-2021,1
32,Jamie Hay,13kuni13,,lol I can get in your room with a plastic card😂😂😂,16-5-2021,1
33,Max,maxlanter,,I got crowbar and hammer sheeeeesh😁,16-5-2021,1
34,Si,wherewasamir,,All I gotta do is kick,16-5-2021,1
35,user7898771174253,ripples141,,"really like the door knob. that's bomb as. just one question, what if they were just to break the wooden door?",19-5-2021,1
36,hulks,hulksmashgreen,,my foot will always work😂😂,16-5-2021,1
37,Mike.2056,mike.2056,,I have a steel door I threw together & it’s like a pocket door but it goes up into the ceiling with a motion sensor. Cost several hundred bucks but,5-6-2021,1
38,Dimonya Fort,kingfort23,,@anna.mcphearson we need it 😂,18-5-2021,1
39,Premium Minecraft578,premium_minecraft,,sir there is a dang bartering ram for a reason 😅,16-5-2021,1
40,Bvrvhonv Pvul,scrvwler,,y si pateas esa cosa y luego la puerta? esa cosa no duraría nada en latam,4-7-2021,1
41,đamiañ,damian_vasquezz,,pls tell me where you got that plsssss,17-5-2021,1
42,Matt,pulpfreeorange,,Bru it’s a plastic door…. I’m just going to break it down like the police!,5-6-2021,1
43,adam,adambohn12,,i... i just don’t see the point,16-5-2021,1
44,Kaleb Welch,kaleb_welch,,Naw bro my lock good,5-6-2021,1
45,tallboy,tallboy1995,,how much do there cost?,11-6-2021,1
46,@ Phantom Spider Studio,phantomspiderstudio,,Love you man,8-6-2021,1
47,smirnov_psy,smirnov_psy,,Now open it with hot tea and snacks in arms.,2-8-2021,0
48,𝓒𝓪𝓶𝓮𝓻𝓸𝓷,cam3r0n_17,,Cutting through the door-,29-7-2021,0
49,cosanagy,cosanagy,,"взломаю за 15 сек, пинком.",11-7-2021,0
50,Роман Ромащенко,rorodude24,,"выглядит хлипко, отломать и отверткой замок крутануть",11-7-2021,0
51,꧁Alfredo Benitez꧂,joseavb,,Nada que una buena tarjeta no pueda hacer 😌,6-7-2021,0
52,Fito jenkins,liosjenk,,vale más eso que todas las puertas de la casa.,5-7-2021,0
53,𝓒𝓪𝓻𝓸𝓵𝓲𝓷𝓪 🐝✨,lina03_29,,Rompo la puerta con un machete,5-7-2021,0
54,Emmanuel Ibarra Torr,emitle9521,,tan fácil que sería romper la puerta,4-7-2021,0
55,Ganzo sama,ganzosama,,solo diré es una puerta de madera *martillo*,4-7-2021,0
56,Hector Armando,hector1503xd,,aqui te roban la puerta,3-7-2021,0
57,doodlebobbob,doodlebobbob_,,That door would be a paste if I wanted to get in,27-6-2021,0
58,Diego Diaz Vega,diegodiazvega0,,en México no sirve por algo llamado temblor,25-6-2021,0
59,togu,tokugan77,,latinoamericano promedio: *dispara al picaporte* LLAVE MAESTRA,24-6-2021,0
60,Matias Ema,matiasemma0,,Yo solo le doy un hachazo a la puerta y entro xdd,24-6-2021,0
61,x_Fists,x_fists,,I'll first break down the door,22-6-2021,0
62,ads,roronoa_zoro_766,,У меня на двери даже механизма нет,18-6-2021,0
63,Masyn,jusmasyn,,Got a almost cardboard door guy,14-6-2021,0
64,user786508794991,the_formula,,But what if someone kicked in the door,13-6-2021,0
65,Jeremy Hunt,jeremyhunt95,,So there’s 7 ways to hack it or break in is what your saying,13-6-2021,0
66,Kevin Willoughby,kevinwilloughby37,,where can I find this,13-6-2021,0
67,Jay Tanaka,a.silent.potato,,bahaha one swift kick bye door,13-6-2021,0
68,William H Bonney,williamhbonney2,,I would love to purchase this go over to my friend's house install it on their bathroom door not tell them anything about it what fun,13-6-2021,0
69,Some dickhead,yall_crazy_not_me,,That moment when you realise it is the same door.,13-6-2021,0
70,delzric,delzric,,that's a great idea for a share house 🥰,13-6-2021,0
71,steven,blonde_aus,,It looks like it could be snapped off the door 😂,12-6-2021,0
72,Snowyuu Kin's,chris_snow_1,,*takes sledgehammer and just uses it*,9-6-2021,0
73,drarigoat,dratigoat,,smart to have on a door I can break with a toy hammer,8-6-2021,0
74,Spooky Scarry,spookyscarrry,,it seems a lil excessive but go off 😂,8-6-2021,0
75,Matt B,mattblaze13,,Tell me you trust issues without telling me😂😂😂,8-6-2021,0
76,Tik Toker,fucktiktokthesehoes,,"It's all fun and games until the battery dies and there's a fire 💀 that, or the door meets my shoulder",8-6-2021,0
77,Jesus Camarillo,jesuscamarillo8,,When you got trust issues with your siblings (that’s his messy room),8-6-2021,0
78,PA_of_AZ,pa_of_az,,This would be nice if I didn't already have a moat around the crib 😂,8-6-2021,0
79,juan alvarez,juanito__pablito,,where you get them so my cousin stops sleeping with me,8-6-2021,0
80,Jazzer092320,jazzer092320,,Just makin life harder for myself 😂,8-6-2021,0
81,Dylan Bateman,dylanbateman4,,what if you you're drunk,8-6-2021,0
82,Jayce,itsasinine,,Safety violation 101,7-6-2021,0
83,nope,j.h.alistair,,I'm putting this on the bathroom door,6-6-2021,0
84,user2416902229134,sunsetninja13,,My husband said challenge accepted,6-6-2021,0
85,...,dontmndmeimjusthere,,that thing is going to break quick,5-6-2021,0
86,ImJustJake,imjstjake,,no cap I thought it was a New Bop It ! door lock 😂😂😂,5-6-2021,0
87,Chrisr444,chrisr444,,What you be doing in your room to need all that ? 😳,5-6-2021,0
88,Samuel Ruiz,samuelruiz961,,joke's on you i do not have a door,5-6-2021,0
89,XiaoWagyu,xiaowagyu,,Tell me you’re extra without telling me you’re extra,5-6-2021,0
90,Ernest Hughes Jr.,fatboy_ina_5.0,,I can just kick the door 😂,4-6-2021,0
91,Timothy White-Robiso,tt13tw66,,I can see myself getting drunk and sleeping in my car for the next 5 years😂,4-6-2021,0
92,Chrometastic,chrometastic,,hi this is the lock picking lawyer and here we have a lock that's where we're going to pick,4-6-2021,0
93,Joe,truckdriver1454,,Enter big ol'sledgehammer,4-6-2021,0
94,user9312697811919,user12988709,,Why put an expensive lock on a hollow core door with plywood jamb?,4-6-2021,0
95,Golden playboy,goldenplayboy,,Ima just hack into it to get in just to say I got in,4-6-2021,0
96,Kevin Aldino,kevinaldino11,,If someone breaks into your room it’s going to take you a while to get out,4-6-2021,0
97,B_Randon24,b_random2428,,Just use a strong magnet and it’ll open right up,4-6-2021,0
98,DaxHyena_TTV,daxhyena_ttv,,Hello and this is the lock picking lawyer,4-6-2021,0
99,PM Lor,pmlor,,now now..we all need to know what you got hiding in your room.,4-6-2021,0
100,Dylan,xtremedude87,,What do you do in a fire,3-6-2021,0
101,datbq,datbq,,Lol that ain’t keeping the fbi out,3-6-2021,0
102,"Jackson,Ms",hoodtmz,,How is it not easy to break sticking off the door like that,3-6-2021,0
103,user6207138871264,snookeroo1972,,"Pretty it’s not water proof, splash a bit of water and voila",3-6-2021,0
104,Alvin Parker875,alvinparker03,,A lock only keeps an honest person out😂,3-6-2021,0
105,Warlegs33,warlegs33,,What would happen if I rocked a sledgehammer right on that thing?,3-6-2021,0
106,Miriam Martinez Marz,miriammartinezmarzan,,What you got a million dollars in there 😂,3-6-2021,0
107,linerror,linerror,,and you can literally push the door open,3-6-2021,0
108,Australia all the way,australia.all.the.way1,,bro just kick the damn door down,3-6-2021,0
109,Omen,riotousomen,,Imagine getting robbed and you can’t get in to hide 😂,3-6-2021,0
110,Nick Howry,rufftufftriangle,,What are you hiding for u to need that 😅😅,3-6-2021,0
111,user2975442957106,mike_hawk74,,That’s to much ngl,3-6-2021,0
112,Nathan Royal,nathanroyal35,,I can still kick the door in.,3-6-2021,0
113,user8525104261160,usafreedomisntfree,,The most secure mark but the most unprotective door,3-6-2021,0
114,SKUUNTV,skuuntv,,sorry boys I can't get into my room my doors charging,3-6-2021,0
115,mrROBOTROIDE,mrrobotroide,,Me and my sledgehammer: looks like it’s “the expensive” room.,3-6-2021,0
116,user8483622444746,katja_doma,,hear me out...what if they just simply kick the door down ?,3-6-2021,0
117,user080995443124,manuelitolinoo,,bro got a tube of alien blood in there he’s keeping safe,3-6-2021,0
118,user4748900832173,marccurcio1,,JUST WHAT DO YOU KEEP IN THERE?,3-6-2021,0
119,Vincent Jaramillo,yourboyvinnny,,What if I break off your handle then get in,2-6-2021,0
120,cylasdoty146,cylasdoty146,,Sounds like a lot of work just to get into a room😂,2-6-2021,0
121,MikkiSixxx,mikkisixxx,,does not help if your doors are build like cardboard 😅😅😅,2-6-2021,0
122,riley plantz,rileyplantz,,Yeah the door would be so easy to break,30-5-2021,0
123,Jeremy Myhre,jaysspex,,I can get in quietly 45 seconds tops,30-5-2021,0
124,James C,jamesc104,,sledge hammer will take that right off. 😂😂,29-5-2021,0
125,Garret Hook,ghost63092,,what's the door made of?,19-5-2021,0
126,Mike Hess,mikehess73,,I bet $100 I could get in within 2 minutes,19-5-2021,0
127,Fu Guofu,babaphu,,easy picking. just rake it n break it 😂,19-5-2021,0
128,Kris,cyko253,,"Tell me your single with out telling me your single, lol ..still cool tho do you boo",19-5-2021,0
129,chill_phill_gp,chill_phill_gp,,someone dropping your house and you're trying to get away from them the only way you can get away is through your door priceless😂,19-5-2021,0
130,Bradley Drisko,naughtyninja189,,Bet if I put all my weight on it I could just turn it 😂😂😂,18-5-2021,0
131,michaelrandall3381,michaelrandall3381,,umm cerdit card less than 1sec🤔,18-5-2021,0
132,Jayson Keith,jaysonkeith7,,on a wooden door this means nothing,18-5-2021,0
133,I7O7,tripste,,Godlevel protection for ur urges and privacy 😂😂😂,18-5-2021,0
134,One piece,lookinggoodforaskeleton,,Yeah you could just cut it off and open the door,18-5-2021,0
135,Lumanet,lse_llc,,Till you use a door opener because the cylinder is still the same pos like everyone else uses 😂😂,18-5-2021,0
136,Decondo,decondo,,I prefer my skeleton key.,18-5-2021,0
137,me,justxxandrew,,thats a lot of security on a hollow wooden door 😅,18-5-2021,0
138,josh gasca,gascajosh,,What if they just kick down the door😂😂😂,18-5-2021,0
139,Vincent Sanchez,vincentsanchez63,,hah my door has a padlock on it all you need is a key or bolt cutters,18-5-2021,0
140,Kyle Lor,kylelor9305,,U can just pick it open,18-5-2021,0
141,Martin Elliot,patrickdrawski4,,Or I could just use a credit card and swipe it right threw the latch,16-5-2021,0
142,Yousef Magdoul,yoboy_.jamal,,The lock 🥋 the door 📎 what is the point tell m,16-5-2021,0
143,lost,lost6445,,а дверь то картонная,18-6-2021,0
144,Anthony,thousandsunny619,,cool *runs thru door*,18-5-2021,0
145,gonzalo vera,hardy5685,,Una patada y era la puerta xd,25-6-2021,0
146,I AM COZY,iamc0zy,,all it takes is 1 foot,13-6-2021,0
147,????,thblacky707,,were can I get two,13-6-2021,0
148,Jo Kassis,jokassis,,it does not look solid haha,11-6-2021,0
149,Tyler Jacob Miller,chicken_nugget0893,,door nob cost more then the whole door,8-6-2021,0
150,John Fiddler,johnfiddler777,,lol still easy to open,8-6-2021,0
151,Marshall,kingmnm14,,bro I don't even have a door😅,8-6-2021,0
152,Justin Holtz,justinholtz5,,its a wooden door why??,8-6-2021,0
153,Clayton,nightshader45,,can I get this on Amazon,8-6-2021,0
154,help_itman765,help_itman567,,where did you get it,8-6-2021,0
155,Jacoby,jacoko_o,,Sweet hollow core door,5-6-2021,0
156,misaki,gowkaizer1,,house fire.... sleeping and go😏,5-6-2021,0
157,Martin Samocha,martagnan86,,Sheesh is the fetch of today,4-6-2021,0
158,Sam_gen22,stvmlknn1986,,Really it doesn’t connect to Siri... wow so not worth it then 😂😂😂,3-6-2021,0
159,Louie999,lusifer._,,All that to keep your mom out 😂,3-6-2021,0
160,SumBlwnUp86,silversubaru,,Is it water resistant,3-6-2021,0
161,Gymtalk,thatgymguy54,,where did you get it?,3-6-2021,0
162,GwhizzThaHomieG,gwhizzthahomieg,,that door nob don't suit that door 😂,28-5-2021,0
163,Angel Gonzalez,beast9565,,it's cool but y just y,19-5-2021,0
164,Buddy,bjornvikingdude,,What ya hidin bruh? 😏,19-5-2021,0
165,Deign,deign808,,Heat up hot pockets with it too 😂,18-5-2021,0
166,Sebastian Sinclair L,sebastianbtg,,how deep is the lock?,18-5-2021,0
167,Fred Perkins402,fredperkins2,,I can still get in there,18-5-2021,0
168,Carl Thomas,zombielifer,,Whats it caused.,18-5-2021,0
169,𝕾𝖒𝖔𝖐𝖞𝖞,_smokyy2,,I think he forgot the door is wood,18-5-2021,0
170,Austin Henry,synitiate,,Here’s Johnny.,16-5-2021,0
171,Slenderman_sleepover,smolderer,,Mine? 5 dollars. Yours? 150 dolllars.,19-5-2021,0
172,Buddha Bankei,ascendedbuddah,,The sound it made when it closed,19-5-2021,0
173,Zal660,zal6608,,Where u buy that at,16-5-2021,0
174,Christian Mora,christianmora007,,KGADA,6-7-2021,0
175,moki_2016,doom2034,,foot😅,18-6-2021,0
176,Andy Andersen,andyandersen22,,where can I get it?,9-6-2021,0
177,Vicnoto,vicnoto1,,Ok,8-6-2021,0
178,thebeast6733,im_a_user4,,I want one,8-6-2021,0
179,Tearsofason,tearsofason,,One kick... 😅😂,6-6-2021,0
180,user1622451444052,bungalow345,,dude seriously,3-6-2021,0
181,Greg Funderburg925,cintervan,,Crowbar anyone?,3-6-2021,0
182,THE.ROCKERS EDGE,the.rocker.tiktoker,,where and how much,3-6-2021,0
183,mizzlady66,mizzlady66,,Were can I get one,3-6-2021,0
184,Steve Harrington,martinez_629,,A bat ?,3-6-2021,0
185,Joe Books,nova.ember,,🤣 For a bedroom,3-6-2021,0
186,Matthew Bleu Luciano,matthewbleulucian01,,Where do you get it,28-5-2021,0
187,CherryWrist,cherrywristt,,I could get in,22-5-2021,0
188,devonreed288,everything..horror,,Spartansssssss 😂😂😂,19-5-2021,0
189,Richard M Lamb Jr.,richardmlambjr,,where u get that,19-5-2021,0
190,Jeremy Lara,jeremylara120,,where did u get it,18-5-2021,0
191,J Rock,blackdynamite08,,link?,18-5-2021,0
192,Juan M,oklas7,,What if there a 🔥,18-5-2021,0
193,Childofthesun33,childofthesun33,,"Why,😂😅😂",18-5-2021,0
194,Rezz,rezz635,,I like twains🥱,18-5-2021,0
195,skeetbeet217,jamkin12,,picks lock,17-5-2021,0
196,Jayden Vasquez,jaydenvasquez260,,Or at,16-5-2021,0
197,Jayden Vasquez,jaydenvasquez260,,What I get that on,16-5-2021,0
198,Daniel McCulloch,danielmcculloch8,,where can I get one,4-6-2021,0
199,Roger Bradley Pruitt,toby19322,,where can I get one,4-6-2021,0
200,MohrPokemon,mohrfamcrafts,,@pokene_pokemon I know you guys use alot of security stuff. not sure if you've ever seen this,4-6-2021,0
201,Zzyax,c.h.jones,,Least I don’t have to change out batteries in my door handle.,3-6-2021,0
202,Yeetzus,killjoyz7,,This is the most high school kid thing I’ve seen in a while,3-6-2021,0
203,ChaoTheBucc32,chaothebucc32,,And then watch it run out of battery,3-6-2021,0
204,Dakota Lewter,ceoofcosmicmilk,,But like your door made of wood,3-6-2021,0
205,James,chiefxbeef,,that's a lot of work,3-6-2021,0
206,Neukoln05,neukoln05,,Kick in the door ???,3-6-2021,0
207,BigKdawg.diesel.mcniesel,bigkdawg.diesel.mcniesel,,what r u so scared about,31-5-2021,0
208,Wallburt,wallburt,,Yes but mine need giant skeleton keys so good luck picking mine 😁,19-5-2021,0
209,CaliforniaPhantomImaging,californiaphantomimaging,,Tell me your extra without telling me your extra:,19-5-2021,0
210,Jdm_Buddha,jdm_buddha,,My parents would still make me keep it unlocked,19-5-2021,0
211,W1CK3DV1K1NG,w1ck3dv1k1ng,,where did you get it and what's it called,18-5-2021,0
212,Alexander,alextheanderson,,initial secure work orders have an allowable to board one window.....,18-5-2021,0
213,Kyle Eller,swiftbreezie,,Cool and all.... until someone runs full force into it,18-5-2021,0
214,KJV.Acts2.38,kjv.acts2.38,,What is their website?,18-5-2021,0
215,Thomas Cunningham,thomascunningham25,,I can see many issues when you are ... under pressure 😂,18-5-2021,0
216,Hans Leonard,hansleonard0,,Bet a hammer or ghost will still defeat it!,18-5-2021,0
217,Daltonleewright,daltonleewright,,Where can I get one,18-5-2021,0
218,Ando__resu,cool_dawwg,,Imagine being chased by a murder and you took him to wait so you can unlock the door,18-5-2021,0
219,Alex,florida.backyard.birds,,ok Tom Haverford,18-5-2021,0
220,deleted account,accountdeactivatedqpqpqp,,lol it would be so easy to break that off and get in,18-5-2021,0
221,El Cervecero,caguamero_de_texas,,The door is still wood,18-5-2021,0
222,rb2117,rb2117,,"Wood door, wood frame, easily kicked open. Expensive lock for cheap door and frame.",18-5-2021,0
223,Carlos Leonardo Lima 7,carlosleonardolim,,But I don’t think that the wood door will resist a hit 😂😂😂,18-5-2021,0
224,Ginger,gingerofalltrades,,I don’t see a kick plate brohamski.,18-5-2021,0
225,Gary Silvers,glshonda450,,I have a lock pick in size 11 😏😏😏😏😏😏😏,18-5-2021,0
226,uh! what are you doing stepbro,_leftylucy,,yikes,18-5-2021,0
227,RangerGuyxx87,rangerguyxx87,,Lol fancy says my foot 🦶,18-5-2021,0
228,Steve the Greek,stevethegreeks,,I could fart on that and it would be open 😂,18-5-2021,0
229,Carp9211,carp9211,,Literally just card the door. It’s so easy to get in 😂,18-5-2021,0
230,Timothy Trout,expohl,,credit card and three seconds,18-5-2021,0
231,Brad Torres,dominicantiger16,,emp bro is all you need,17-5-2021,0
232,Kad Mech,mekad711,,where did you get it,16-5-2021,0
233,Alexander Flores8939,alexanderflores867,,One hit with a Sledgehammer and it’s open,16-5-2021,0
234,🤞🏿,natesodje,,It’s all fun and games until the battery runs out and the stuff is inside,16-5-2021,0
235,GabeIsFoundϟ,bigdgabey,,This felt like a ad💀,16-5-2021,0
236,Micah Grose809,____shambles____,,Well now I’m curious what happens if someone pulls up with a legit EMP?,3-6-2021,0
237,Mike LeBouef,mikelebouef,,What if I’m drunk?,30-5-2021,0
238,Vincent Hill,vincenthill90,,Where can I get this ?,19-5-2021,0
239,Reaper8655,wsavage8655,,where can I get that,18-5-2021,0
240,Robert G,rebel_rob91,,but that takes so much longer just to get in lol,18-5-2021,0
241,Chris Dorman,chrisdorman5,,I want one,18-5-2021,0
242,wearelivingart,wearelivingart_69,,All fun and games till the door closes and the key is inside the room with his phone,18-5-2021,0
243,user5974956438374,minutiae21,,Mom has your combo,18-5-2021,0
244,Tyrique Nelson,tnlucrada,,What the... what are you doing in your room🤨🤨🤨,18-5-2021,0
245,Andrew,andrew_needs_some_dew,,Foot,18-5-2021,0
246,SgtLincolnOsiris,sgtlincoln0siris1,,WHEN YOU TELL OTHER PEOPLE YOU HAVE ROOMMATES BUT THEY ARE ACTUALLY YOUR PARENTS!!!!🤣🤣🤣🤣🤣,16-5-2021,7
247,The Tea Drinker,the.tea.drinker,,can u just kick the door down it is made of wood right?,16-5-2021,1
248,gamer games fun,gamergamesfun,,then I get bored and kick your door in,13-6-2021,0
249,user4636034407193,liqm2002,,What are you hiding on that room,13-6-2021,0
250,shy,shymexican,,Mans almost pushed the door open,6-6-2021,0
251,user9417534183765,codelazerin0,,What is stoping someone from Breaking the door down,5-6-2021,0
252,Jaykaing323,jaykaing323,,Anyone else thinking. Imma kick the door down,3-6-2021,0
253,user5623501926034,notyou1974,,my foot will get rite in both of them,3-6-2021,0
254,NeUtRoNek. iks de,azulscroll,,U know that dificulty of robbin u hasnt changed 😏😂,31-5-2021,0
255,SRT1212,srt1212,,like someone couldn't break that,30-5-2021,0
256,user1278321473771,drewxmogli,,When you really don’t want your mom to walk in on you,19-5-2021,0
257,Maxfun3,maxfun321,,Why this reminds me of Monsters vs Aliens,19-5-2021,0
258,Miguel Jimenez6245,migueljimenez836,,Tell me you didn’t have Hispanic parents,18-5-2021,0
259,ㅤ ㅤ ㅤ ㅤ ㅤ ㅤ ㅤ ㅤ,user483307785,,yk how easy it is to unlock it,18-5-2021,0
260,knun yeah bizz,pewpewlife777,,I'll kick that door in,18-5-2021,0
261,Whyizzy-₩,luhizzy_,,What u gone do if I break it so u can’t get In your room,16-5-2021,0
262,user8500716157897,jaihes,,Na you gotta he the biometric version.,16-5-2021,0
263,Alejandro Cabanil885,alejo_cabanillasv,,y la puerta de madera 😬,28-6-2021,0
264,Kasey Duff,kase_the_real_one,,Or or kick the door,14-6-2021,0
265,Sain-14 San Sivar,sain14sansivar,,Let kick the door 😂,5-6-2021,0
266,user2599049375169,m.ramirez987,,kick the door in,5-6-2021,0
267,Paul Grish,mustardkrak,,or just use a credit card,4-6-2021,0
268,Poncho Saldivar478,ponchos316,,or hit it with a hammer and its gone!!😏,3-6-2021,0
269,Bam,kcast47,,It can be hacked a lock cant,18-5-2021,0
270,Christian,gingery3k,,cardboard door 😂,23-6-2021,0
271,eight7alex,alxb7s,,Congratulations,3-6-2021,0
272,Buchanan Wmz,buchananwmz,,just kick it in😂😂😂,31-5-2021,0
273,Dizzy-Dez,dezirose117,,where and how much,18-5-2021,0
274,user8871973781658,weedieezz,,Or just live alone and lock your front door,3-6-2021,0
275,pure mad mental Jude,tudejobin,,*me a person with siblings* 💳💥💥💥💳💥💥💥,16-5-2021,0
276,Jadein Thepphanorinh,jadeinthepphanor,,Your browser history has to be on lockdown,16-5-2021,7
277,Sad weeb,just.a.sad.weeb,,Your door knob vs the guy she tells you not to worry about,16-5-2021,2
278,Minecrafster,micahthecoolguy,,And this is the person who asked —-) No one,6-6-2021,0
279,motorcitymusc,motorcitymusc,,Your mom will still find a way into your room,3-6-2021,0
280,9hunit hitsum,9hunithitsum,,wonder would I b able to get in wit a shotgun 😌,16-5-2021,1
281,steviebutternips,irn_lng,,you kno I can kick that door in pretty easy right,18-5-2021,0
282,María,maria008384,,just kick it down boi 😂😂😂🤡🤡🤡,3-7-2021,0
283,user1805282415785,marlonmbr4,,What are you hiding a E.T.,11-6-2021,0
284,Gabe,sidewayscanoe,,Where did you get it,8-6-2021,0
285,Colin-shelton26,colin_shelton25,,Mines learn English dude!!!,16-5-2021,0
286,greg wilson,gregwilson__,,U must have dildos in ur room or sum,8-6-2021,0
287,OSVALDO,whoevenisthisguy0,,That man beatin his willy with security,2-6-2021,0
288,Admin,admin5219,,Kick it in,4-6-2021,0
289,Johan Alvarez,johanalvarez559,,y si le meto una patada voladora 🤔,30-6-2021,0
290,Coochienecter,coochienecter,,Mmmmmmm looks expensive and extra,4-6-2021,0
291,Felipe Valdez,mr.morfes,,wey literal le metes una patada y entras no jodas😐,6-7-2021,0
292,Mean Daddy Mad,imverymean,,Waste of money. Nobody trying to get into your room that bad,8-6-2021,0
293,Ladders,kingladders,,I'm a big fan of spending on dumb things but I wouldn't even get that lmao,6-6-2021,0
294,Redemption Products,redemptionproducts,,Wait you still have a door noob lol lame,5-6-2021,0
295,Nathan p,nathanpendleton1,,dude that lock is a piece of garbage I'll pick that s*** in 20 seconds,18-5-2021,0
296,Martin Joseph,martinjoseph666,,Lying😂😂😂😂😂😂,4-6-2021,0
297,pluto001 pluto,pluto9992,,wtf,18-5-2021,0
298,Вадим Т.,doorsinstall,,с ноги выбить 2 сееунды😅,1-7-2021,0
299,Luie897,luie897,,put a screw through it and it will open,4-6-2021,0
300,Mike,emogai9,,but what if you have to take a poop real bad?,3-6-2021,0
301,l3lack Enix,l3lackenix,,shitty idea tbh....it also takes longer to get in to....what if someone chasing you?,18-5-2021,0
302,👻SoS_Leader👻,f1endofficial,,All for a wooden door😂,16-5-2021,1
303,Carlitos J,redsourdiesel,,where can I get one? asking for a friend 😂,16-5-2021,2
304,…..E,trxsh.media,,That’s about the worthless thing you’ve ever bought 😂😂😂,8-6-2021,0
305,JK,smedleyjk,,bruh lmao I have a crow bar,8-6-2021,0
306,countrymullet,kojokersnips,,I just kicked that f****** door down,3-6-2021,0
307,joseph galvan,josephgalvan1985,,I would just cut a big opening in the door,31-5-2021,0
308,user1510439644089,zanadeechi3,,Isn’t that door made a particleboard wouldn’t be easier just to break the door down than to play with the code🤦🏻‍♀️🤷🏻‍♀️😏 I’m just saying,23-5-2021,0
309,Matthew Hayes,matthewhayes25,,butter knife would open that right away 😏,19-5-2021,0
310,Mike,michaeloxendine5,,just kick a hole in the wall beside the door😂,18-5-2021,0
311,Robert Gray,nathen_dayspring,,What are you hiding in your room that you so desperately don’t want your parents to see?,18-5-2021,0
312,jacob inman,azrealomega1,,or i just go through the drywall. 🤷‍♂️,18-5-2021,0
313,Squall Leonhart,xxsquall_leonhartxx,,lol just break the door knob 😏 no1 will go in,18-5-2021,0
314,thedaysareyours,thedaysareyours,,Code: 0123,17-5-2021,0
315,user5243297016069,3rich518,,hackable,19-5-2021,0
316,logan,loganwasup,,o were are u butter 🔪 😏,18-5-2021,0
317,Johntran43,jungkook.bts014,,At least I don’t spend cash on a security door knob,16-5-2021,1
318,user6972892095590,xjigxxsawx,,I bet you money i can open that door with a sludge hammer 😏,16-5-2021,1
319,Jack Ryan,jackryan20014,,"Good man, give the guy smashing your woman all the time in the world to duck out before you get in 👍",16-5-2021,1
320,Damian Naude,onepecpolarbear,,So much shit yet I can kick the door down in a second 😂,16-5-2021,1
321,Harry Pastafaryan,pastapanyan,,Bet your parents are mad,16-5-2021,1
322,Danny Sorg,i.just.shit.post.cod,,first i get called poor by a microwave and no a door knob,6-6-2021,1
323,Matthew1402,matthew14021,,Yo the lockpickinglawyer video is gonna be less than 2 mins.,18-5-2021,1
324,user4363188219230,reppinthegame,,buys fancy doorknob but refuses to lubricate the hinges 😂,5-6-2021,1
325,David,ls.mayo,,Is that agent Cody’s look goddamn,16-5-2021,1
326,Luckio3,luckio3,,or hear me out here me out I can just unscrew your door hinges and walk in,19-5-2021,1
327,UMightKnowMe? :),yoursoundtrapproducer__,,Are You Hiding Dead Bodies In there? 😳,18-5-2021,1
328,Gminus,g_minus,,800$ knob on a 20$ door,4-6-2021,1
329,poo,phillycheesesteack1,,there is something called an axe.not sure you've heard of it,23-8-2021,0
330,Chris Enright,chrisenright5,,looks like an easy target for a sledge hammer,14-6-2021,0
331,Jon,fashionable_beard,,"lmfao it's a door knob on an interior door, you can go right through those doors",13-6-2021,0
332,Jordan Garrett,jordangarrett7,,If I did that to my door my mom would just smash it off with a hammer if she needed to tell dinner was ready,13-6-2021,0
333,Huey,yourmotherisanicelady,,Shit roomate? Kids? Resentful girl?,13-6-2021,0
334,Harry Mate,harrywhitecrosss,,That ain’t gone stop a mf from kicking it in,12-6-2021,0
335,kk,v..4508,,and so what happened when someone just fucking kicks the door down,11-6-2021,0
336,Ich,warnichtmehrfrei,,"That key override is so easy to pick, it renders the whole unit useless 😂😂",11-6-2021,0
337,Robert Maropai,robertmaropai,,Can just kick door down Lol Ezzz,11-6-2021,0
338,Justin Prather,a.b.customs,,bold of you to assume I have a door or a doorknob but yes I do,9-6-2021,0
339,shane youngs,worldofwowcraft2008,,I feel like normal locks are safer because you need a skill to pick them not just leaching a exploit from someone else,8-6-2021,0
340,Jonathan,jxsimonx,,When your still a kid at heart but have access to adult money 😂😂,8-6-2021,0
341,Brandyn Fraijo,brandynfraijo,,Ok ok but hear me out what if there’s a fire and that shit dies and they try getting you out,8-6-2021,0
342,Mclovin,theegabelackman,,Wait until your parents come by an take a bat to the handle to just to leave you stuck in there to clean yo messy room lol,8-6-2021,0
343,Hong Yuan Xiu ✌️😜,anxiety_space,,just get a saw and go around the knob the break in 😂,8-6-2021,0
344,Bill,will._.ay,,Has an expensive ass door knob for a door I could headbut and gain entry into,8-6-2021,0
345,Juan Serratos,socalrave,,soo stupid. waste of money,8-6-2021,0
346,Jewish Person,jewishone7,,I could bypass it with a butter knife,8-6-2021,0
347,Antwan Barton,ldiotman31,,That when you don’t want someone seeing you bet you meat,8-6-2021,0
348,Alejandro,alejandro626251,,imagine paying 200 plus dollars for a fuckin door nob,6-6-2021,0
349,TikTokdevsarepedos,roon_plan005,,Yeah I don’t think anybody’s gonna be wasting their time doing all that if they’re robbing your shit I think they’ll just kick the fucking door down,6-6-2021,0
350,Daemeun,daemeunmarlowe,,Just imagine someone took a sledgehammer to your door knob,5-6-2021,0
351,Chris,chrisgmn,,My friend could get into this room probably in like 5 mins with severe damage to the knob,5-6-2021,0
352,Zero null,loading________________0,,all I hear is a entry point for a hacker,4-6-2021,0
353,Y. Stepan.,brazenhavoc,,"the lock picking lawyer would eat this lock in, it's to late, he's already past position 3. run",4-6-2021,0
354,sebas95cruz,sebas95cruz,,"he just showed yall what not to get, door frame is weak as fuck and the actual knob helps create more pressure to kick it in",4-6-2021,0
355,user8745130745798,daddyman4994,,someone stitches swat kicking your shit in,4-6-2021,0
356,Benjamin Castillo,benjamincastillo5150,,when you want to keep your fleshlight conveniently next to your night stand,4-6-2021,0
357,Maximiliano,maximilliano111,,"door knob more expensive than the door, I'll just kick it down",3-6-2021,0
358,jake the gamer 446 m,jakethegamer446m,,or you know just put a regular deadbolt on it and a regular doreknob and be more secure than that fancy techno babble bullshit,3-6-2021,0
359,Republic Guerrilla,republicguerrilla,,12 gage hollow point slugs pop hinges and im in.,3-6-2021,0
360,user1609343404196,socalbeast310,,That knob costs more than the hollow door,3-6-2021,0
361,Richard Trevino,richardtrevino0,,Over engineered plus you’ll love it when you bump into it as far as it’s sticking out.,3-6-2021,0
362,Roulettez_inc,roulettez_inc,,"believe me if they really want to get ... they'll get in by any means , #thuglife",3-6-2021,0
363,tre,treday_5,,That’s to damn much I just wanna go to my room,3-6-2021,0
364,Phill,kilteddice,,Are you aware that door cam be hacked in less than a minute using an android phone and 15 cent RFID tag?,3-6-2021,0
365,user2263635717428,whatthe8889,,"That can be pryed straight open. It needs to be a deadbolt, a metal door and strike plate attached to frame of structure.",3-6-2021,0
366,Riku Funtom,rikufuntom,,Wtf are you hiding in there,3-6-2021,0
367,SuperDuperSub,superdupersub,,I look forward the the LockPickingLawyer to show you just how fickle your nob is haha,3-6-2021,0
368,xo,trip6xo,,My mom would just tackle the shit out of my door,3-6-2021,0
369,Alex R.,realdealsteven,,🤣😭🤦‍♂️Expressive door knob For an EASY break in lmfao. Can someone teach their kids common sense PLEASE??,3-6-2021,0
370,Vee57,saloonatik,,"C'mon, snap that shit right off...",3-6-2021,0
371,lolo c,lalo6710,,Dude a solid kick can easily get the job done 😂,3-6-2021,0
372,Its_Gerry,itz_gerry432,,"Agent Cody Banks, wtf😂😂",2-6-2021,0
373,TNTFACE100,tntface100,,Welll you don’t have to kick the door in those handles are so garbage you can kick them off,2-6-2021,0
374,Brian Thompson,brianthompson569,,Or…I could just kick the plywood looking door in and make that $200.00 looking knob obsolete,31-5-2021,0
375,Whitesage88,whitesage88,,wtf are you hiding in there?,31-5-2021,0
376,darkangelcc16,darkangelcc16,,with it being free spinning I bet you can slide a shim inbtwn the hand and base plate and open it,31-5-2021,0
377,Phil,xxtotallxx,,kick the door and your ass is out like a grand lol,30-5-2021,0
378,Mac Nugget,hisnameisntmynametoo,,so that's where you keep your sock with $20 in it?,30-5-2021,0
379,john,john_1182,,"shim the striker nice and easy on that boy.
dosnt even look security rated at all",28-5-2021,0
380,nunya,wolf5stdby,,"hack it off, break the door knob or door
hack it.
no thanks, I prefer a shotgun",24-5-2021,0
381,Ryan Masse,alltht96,,"100 dollar lock, 5 dollar wooden door, my foot will open that faster than your rfid chip",19-5-2021,0
382,Juan Solo,juan_solo19,,All fun until someone runs into the door at full speed,19-5-2021,0
383,voluntary jack,voluntary_jack,,my plastic grocery store rewards card works just fine on your door.,19-5-2021,0
384,Phong Nguyen,phongnguyen208,,My guy got no trust in nobody this is stupid,19-5-2021,0
385,Diego C.,delta_atled,,"😂 expensive for what a cheaper lock can do, in reality its a weak point because a good kick can open the door, even bigger target with sledgehammer",18-5-2021,0
386,JackBurtonPorkChop82,jackburton80s,,Yours for only 9 payments of $149.99,18-5-2021,0
387,Julian Dominic Haene,juliandominichaenen,,Most definitely a must have . . .,18-5-2021,0
388,Rainb0wdashie,rainb0wdashie,,looks like gen Z will buy just about any garbage product if it'll get them Tik-Tok views,18-5-2021,0
389,Phoneend plus,phoneend,,So an usd plug and pc and the door unlocks or just break it off and your in,18-5-2021,0
390,Eric Lasalle,ericlasalle1,,nice doorknob then punches through wall to open the door,18-5-2021,0
391,Mindful GP YT,mindful_gp_yt,,I could break it off or just hack or just magic my ass inside trust I can get in,18-5-2021,0
392,Eli Douglas,psychosmart,,It’s a hollow door... you have half inch screws in your strike plate. This isn’t stopping shit.,18-5-2021,0
393,Milo Flores,xmf3x,,Oh those drunked nights are gonna be fun to remember their pass codes. 😂😂😂😂,18-5-2021,0
394,user3073408008234,leftrighthook82,,I would just Kick your door down or Shoot the lock,18-5-2021,0
395,user6210828793736,cobyrico,,You can kick open the door it’s fucking stupid that luck,18-5-2021,0
396,Vash,vashthestampede80,,waste of money you highsiding for nothing my guy,18-5-2021,0
397,dhvuitton,dhvuitton,,Watchu tryna hide behind that flimsy ass door 🤔,18-5-2021,0
398,shreklove69,shreklove69,,watch my sledge hammer knock it off like a scab,18-5-2021,0
399,mike garcia,contra_ctrl,,This doorknob IS NOT cooler than a regular door knob by miles lmao,18-5-2021,0
400,Ppking,thetrollinmotion69,,All that just to get into a shitty ass room..lock probably cost more than whatever u got in that pig sty,18-5-2021,0
401,user854596435392,eazyemc80,,why don't you just move out your mother's house,18-5-2021,0
402,john dove,johndove35,,got a solid oak door just need that lock,18-5-2021,0
403,Jason G,audioslave91,,if someone wants to break into your shit they will. its called a boot,18-5-2021,0
404,Pablo Ramirez,pabloramirez249,,high security doorknob on a thin door,18-5-2021,0
405,thehiddenassasin,the_hidden_assasin,,ill just drop kick the doot,18-5-2021,0
406,Back2DaOldMe,legitsun,,Big stupid copy other lames 🤣🤣🤣🤣🤡,18-5-2021,0
407,kaidengoddard123,callsign_ghost6,,Or just breach with a 12 gauge,18-5-2021,0
408,Javier Villagomez308,javiervillagomez1,,I install doors and windows for a living and if your door is not install properly that lock don't mean shit,17-5-2021,0
409,Matt Smith,mattsmith578,,Lmfao first why I can easily just kick down your door,16-5-2021,0
410,Megan Lee Killeen,meganleekilleen,,smash it with a hammer it looks flimsy,16-5-2021,0
411,Unfortunately Right,unfortunatelyright,,"It's a simple wooden door in wood frame, a child can kick it open",16-5-2021,0
412,Watyu Lookinat,ratavant,,my door protected by my reputation haha nobody tryna fuk with my door.,16-5-2021,0
413,Aj,the_scottish_aussie,,Where does one get this doorknob,16-5-2021,0
414,user488946501818,pitt31786,,That biblical door is made out of paper. We all have it. Makes no sense to put a knob on it when you can punch a hole in it lol I hate it so much,16-5-2021,0
415,Json DEZ,jsondez,,I bet I can punch my way through that door😂 bro get a metal door for such tech.,16-5-2021,0
416,19chucktaylor83,19jigga_boo83,,I'm just trying to get the fuck in And shit.. dont need all that bullshit,16-5-2021,0
417,.,_tmr_4,,I’ll just kick it,8-6-2021,0
418,cheese,lowqualitypurpleguy,,hes a menace to society,17-7-2021,0
419,Drstone,c137stagnantwater,,Just boot that paper door,13-6-2021,0
420,user5311530307397,carnequemadala454,,"You got a $50 door knob, on a $10 door.",6-6-2021,0
421,Jorge Grijalva,jorgegrijalva2,,2 dollar door 500 dollar door knob,3-6-2021,0
422,Christopher Michael,.jimbeam,,great place to hack... easy accesss.... dumbass.,18-5-2021,0
423,J_me,fusioniron,,hammers knob,18-5-2021,0
424,ak47nut762x39,ak47nut762x39,,Lol that door so think I can boot that shit,18-5-2021,0
425,Monkey Business,monkeybusiness90,,"😂😂😂 its a hollow door, punt that bitch in",18-5-2021,0
426,Cire,cire_666,,vice grips... squeeze...,18-5-2021,0
427,Henare Kimura,henarekimura,,Just kick it open,16-5-2021,0
428,Arthur tyrade,arthurtyrade26,,ten to one i can kick the fucker in.,16-5-2021,0
429,_lil_shy,lilxikito,,the same shit,3-7-2021,0
430,David Turnbull,davidturnbull0,,fuck that shit,13-6-2021,0
431,Ya Boi Uhh,zestacrackerz,,Easily hacked,3-6-2021,0
432,Mark Pitcher,outbakdragon,,dude with that kinda security I was expecting a kink dungeon.,24-5-2021,0
433,user863759,bootz061,,…..stupid……,18-5-2021,0
434,Jason King,jasonking806,,overkill,16-5-2021,0
435,she/him her/he who got me?,jumpoverme,,Hollow core door? nice security,16-5-2021,0
436,Gordito,yourmomsfavoritegordito,,just one good kick.,16-5-2021,0
437,Tabag,tabag.exe,,Keep telling us more ways to hack this doorlock lulz,16-5-2021,0
438,LilRaheese,lilraheese40,,Bruh that’s a pretty bulky door knob and Installed off level. I’ve been doing home automation for years and the Apple level touch is way better,16-5-2021,0
439,Tik Toker,teezy_601,,"thats cool as hell, but what if you was getting chased and had to get in the room.....😳😂😂",16-5-2021,0
440,...,iiiielliot,,Bro all that for a door i can literally use a butter knife to open i swear this the dumbest thing yall doing now,16-5-2021,0
441,StupidKid,_stupidkid_10,,The dumbest doorknob,16-5-2021,0
442,Eric,eric_gnzlz,,una patada a la puerta y el sistema de seguridad te queda de adorno 🤡,6-7-2021,0
443,‍,ghosts131,,@weirdest.weird0 @barbie.romie8,16-5-2021,2
444,loser Adrian,itzmixnuts,,@daniel0_0l,3-6-2021,1
445,deathnote9115,deathnote9115,,@xxchrrycosxx,18-5-2021,1
446,justinnn 🤘🏼 .,justin.r.moore,,@destiny.bevis,18-5-2021,1
447,Daniel Coley,danielcoley3,,@khrystynaann96,18-5-2021,1
448,Valn-black,valn.black,,@evi_mb,6-7-2021,0
449,Tea,teagourmett_,,@xrpampupa,25-6-2021,0
450,Camden Adams,camdenadams,,@abby_wezzeyy,8-6-2021,0
451,a,hibyee52,,@azaelsgf,8-6-2021,0
452,AlexplaysVR,alexplaysvr,,@reallockpickinglawyer,3-6-2021,0
453,Tyler L,tyler_l4598,,@weewoo_jerry,18-5-2021,0
454,Darundi Farcry,darundifarcry,,@reallockpickinglawyer,18-5-2021,0
455,J Smith,mjgsmith,,https://youtu.be/0SEHUqkbIjU,18-5-2021,0
456,David Guajardo,davidgdo00,,🤣🤣🤣🤣🤣🤣🤣,23-6-2021,0
457,Israel Garcia5590,mst__negates,,🤡,3-6-2021,0
