,Comment Number (ID),Nickname,User @,Comment Text,Time,Likes
1,Cesar,humbleone16,,Need this for the flies and mosquitoes,28-5-2021,9
2,Drea Sunshine,dreasunshine2,,You didn’t say where these can be purchased at just said sold out,28-5-2021,8
3,Joe Stalkerr,joestalkerr,,Clearly you never owned a real super soaker like the 2600 series 😂😂,28-5-2021,4
4,G,user_rfgl,,Just like an 18 year old 😂,30-5-2021,1
5,Jose Esparza652,joseesparza216,,Where can I get one or 5,28-5-2021,4
6,Andrew K,beastofbourbon1776,,when you buy a AR15 on wish,29-5-2021,1
7,Covi.OuttaFlawda,covi_da_1,,Questions- 1. Does it have recoil? 2.does it have bullet drop 3.What is the bullet velocity,29-5-2021,1
8,m3tal_Ed,m3tal_ed,,@orbitthecatto needs for the neighbors chihuahuas,28-5-2021,3
9,say word,saywordudid,,when you try double apple for the first time,28-5-2021,2
10,Esther609,609esther,,You should of seen the water cannons they had in the 60's,28-5-2021,1
11,Menno Hubregtse,whoeii,,I Netherlands both €315,28-5-2021,1
12,slink,slinkapp,,"I have 4 on order, can't wait for summer!",28-5-2021,1
13,Ceezy TooReal,ceezytooreal,,$159 😳😳😳😳,28-5-2021,1
14,prestochangeohgon,prestochangeohgon,,where can you find these,28-5-2021,1
15,user545612039145,lamont5252,,whats the name of them or price,28-5-2021,1
16,user7428448606647,00real00,,sold out,28-5-2021,1
17,rcarrillo,rcarrill0,,@interestingsoup where can I buy it or what's the name????,28-5-2021,1
18,KingTous,kingtous,,where i need one,28-5-2021,1
19,user5622829355205,pacmanoriginal,,I need 3,28-5-2021,1
20,MLP,mjco5,,Where do you buy them?,16-6-2021,1
21,Chris Levins,chrislevins0,,Get me one please @niamhwarnett_,30-5-2021,1
22,Rob Steier,robstarr13,,@wildviolet7 gonna need a few of these,29-5-2021,1
23,Lol,the.green_goblin,,Where to find,18-6-2022,0
24,toys bossman,bossman.wanter.gun,,Cool,21-5-2022,0
25,dane,dane_aua,,they should make pistol versions😁,2-10-2021,0
26,TangoBravo,tango_bravo1,,Tried to buy online and they took my money with no product delivery.,1-8-2021,0
27,Footballfan,f_edits.1,,Where do i buy these,23-7-2021,0
28,Pepsi,habibti_guy,,Where do you gat the water gun,17-7-2021,0
29,kenyahulsey,kenyahulsey,,Does it hurt hitting skin ? Lol,25-6-2021,0
30,ott,oddott_,,this is a WEAPON /j /lh,14-6-2021,0
31,wanna be moots??,jeonginstoothpaste,,hi I'm Goku!,14-6-2021,0
32,Micah,vibeswith.micah,,Did u really play 388 dollars on a watergun?,8-6-2021,0
33,cavedogjr9,kndsnorlax,,do you have to register It in CA?,3-6-2021,0
34,Marekus Fluellen,marekusfluellen92,,super soaker cps would drown a small animal.,3-6-2021,0
35,Tik Toker,urbabiezdaddy,,reminds me of the water guns from the game zombies ate my neighbors 😁any of you remember that classic?,3-6-2021,0
36,Juan Antonio Treviño,jatc22,,@pongamoslo_a_prueba puedes probar que tan fuerte es esta pistola de agua?,2-6-2021,0
37,Travis,tazzman1215,,where can I buy one,2-6-2021,0
38,Dan Booth,danbooth3,,Where u buy them,30-5-2021,0
39,Smithy,snowking711,,"£179 each or 2 for £279, not that great now",30-5-2021,0
40,Voodon_Dahexx,voodon_dahexxxs,,Need one,30-5-2021,0
41,user7191588149396,antonio842016,,Where did you buy these?,29-5-2021,0
42,Full_Throttle1,full_throttle1,,Yea not paying 160$ for a water gun lmao,29-5-2021,0
43,SaFe,derschnelle69,,@user_134908 kena mi ble😂,29-5-2021,0
44,zo,alonzogtr,,I still have my Super soaker 2000 you don’t want the smoke 😏,29-5-2021,0
45,Kenny Dellinger,madkat704,,"Instead of saying they sold out, post the site regardless.",29-5-2021,0
46,David Sampson,davidsampson40,,wow it shoots 8 feet?!,28-5-2021,0
47,auycg,auycg,,@Beary imma buy this and rap yu in pool,28-5-2021,0
48,seakingnormalldy,mdb_19,,Not to sure on this one. Website says not available shipping in June. Kinda sketchy,28-5-2021,0
49,AV Masterminds,avmasterminds,,Contact me when it’s not sold out I’ll buy,28-5-2021,1
50,user616832491870,abby10205,,Yawn 😏,28-5-2021,2
51,Donmega_1,donmega_1,,150 bucks for a water gun tho 🤦‍♂️😢,26-6-2021,0
52,Mr B,mrb275,,were can you buy it,2-6-2021,0
53,John Holmes,john.m.holmes,,That is the lamest thing.,28-5-2021,0
54,Jerry Costanza,stomachache1,,cute water gun,28-5-2021,0
55,Vibestry,vibestry,,Your selling for 299$ for both while on a different website it was 215$ with tax,28-5-2021,2
56,user7860448220870,flightboy725,,New Assault weapon that the government will take.,29-5-2021,1
57,user4539550786981,user56012115,,500 buck Canadian. Crazy. People are going to yell at the kids when they drop them.,28-5-2021,1
58,bsmoothy,bsmoothy,,"@justsscrolling17 bruh, they need to shut up and take my money",28-5-2021,1
59,Ash,ashz101,,what the hell did the shisha do to you,28-5-2021,1
60,Steve Bello,stevebello0,,I heard they’re recalling them because one of em killed a bull,28-5-2021,1
61,Rigo Huerta,rigojr701,,Actual footage of me 🥜ing,28-5-2021,1
62,Sam,charlie_gachaplays,,if you want to shoot targets use real toy not fun on the toy not fun,19-6-2021,0
63,Chris Britton0,britton1985,,good thing it's not Full Semi Automatic,3-6-2021,0
64,RedFlag1980,redflag1980,,$300 for 2 water guns 😂,3-6-2021,0
65,user4341685477846,user4341685477846,,"$160 water gun, too rich for my blood.",30-5-2021,0
66,You got it? O No guey!,chinoman93,,"What are these guns called??? Been trying to find out, wanna buy some! Please help???",30-5-2021,0
67,A.Ruiz,luckylucian0303,,350$ on eBay wtf,28-5-2021,0
68,Luis Martinez,elzazaza420,,splatrball gun is way better,28-5-2021,0
69,𝓶𝓪𝓻𝓲𝓪🐚🌪 old account,.whoismariiaa,,@andradabudisan20,21-6-2021,1
70,mark holt,marl.15.holt,,@brittp2377 @yungwidereciever23 @alyssapooledance,3-6-2021,1
71,shauncleasby2017,shauncleasby2017,,@samcleasbybowes,15-10-2021,0
72,darrenphiliphizon,darrenphiliphizon,,😃,2-7-2021,0
73,Eric Burr,trademark40,,@aliciakrock_,3-6-2021,0
74,Arturo Corona973,acorons967,,@maritzagcorona,28-5-2021,0
75,Brezat,hertq,,Pricey,8-6-2022,0
