,Comment Number (ID),Nickname,User @,Comment Text,Time,Likes
1,Strictly Ballers HQ,strictlyballers,,You got rid of the key ring after orbit key?😂,11-6-2021,2
2,Tiikkkkkkkkkkkkkkkk,tttiiiiikkkkkkkkkkkk,,Going to be the first time tiktok made me buy something,10-6-2021,2
3,Danny and Aly ,dannyandaly,,Ok this is good stuff,10-6-2021,2
4,arthurpearce,arthupearce,,What if you have 2 cars,10-6-2021,1
5,Sero,sero_58,,Bist du Pakistan nein ich bin zaza.,10-6-2021,2
6,InterestingSoup.com · Ersteller,interestingsoup,,#newtechnology #techblogger #techies #techgadgets #artificialintelligence #technologythesedays #technews #techlover #technologyrocks #techtrends,10-6-2021,0
7,Waqaas,waqaasakram,,€39.99 😥,10-6-2021,0
8,InterestingSoup.com · Ersteller,interestingsoup,,"Cop yours, link in bio!",10-6-2021,0
9,info,bosch_professional,,bosch_professional,10-6-2021,0
10,Usman Ali,uali001,,🇵🇰,10-6-2021,1
11,Sony,sonyapachova,,@endikachen,10-6-2021,1
