,Comment Number (ID),Nickname,User @,Comment Text,Time,Likes
1,brendan,gary_lees_bea,,Best battery it looks dead,13-12-2021,102
2,eddiegonzalez1990,eddiegonzalez1990,,that is just a prop,12-12-2021,212
3,urbrotherfromanothermother,theyarewatching4,,Turn on the screen,13-12-2021,60
4,Kk btc,kkbtc,,What’s the settings like bro,13-2-2022,0
5,smile,smlgraffiti,,"""best battery life"" - yeah, Cos it's never on",7-1-2022,1
6,Maraya Guillen,marayaguillen,,That bonus from iCarly and victorious episode,15-12-2021,1
7,liamrussell947,officialcarelwheezer,,I have seen that from Sam and cat,15-12-2021,1
8,Ethan Smith,yespappa55,,Then show it working instead of leading everyone fam,14-12-2021,28
9,eberardo5769,eberardo5769,,that is from Sam and cat,24-12-2021,1
10,61s.jay,61s.jaywood2.0,,Trun it on,14-12-2021,2
11,Oliver Leal,oliverleal_,,"""best battery life"" because he never turns it on or uses it",14-12-2021,0
12,Wow so funny🫥😑,dambro.______,,Prop,13-12-2021,7
13,riftergaming,riftergaming,,I have one,14-12-2021,0
14,Maddox,9maddox9,,Hello,12-12-2021,1
15,Amber Godwin,ambergodwin05,,Props,13-12-2021,0
16,Tom,mintberrykrunk,,Best battery life but won't turn on lol,9-1-2022,0
17,Mariano Lopez,marianolopez515,,"best battery life, cause it doesnt have one",20-12-2021,0
18,MarissaK,o_ggingasnap,,Bro it’s the no charging port for me😳,20-12-2021,0
19,Rev,revbombrr,,im curious how much you paid for a paperweight,15-12-2021,0
20,nhìn làm chó ☑️,oongtrumtoptop,,ai lê,18-12-2021,3
21,"""นายหมาลูกบักเขี้ยบ""",kondaam,,ชอบซาวร์อะ,18-12-2021,1
22,SmurFEtkA,smurfettohka,,Куча видео с ним и не где он не работает 😂😂😂😂,9-1-2022,0
23,Vì mình quá thích cậu rồi...,03_neeht,,sắm chiếc pearphone liền,27-12-2021,0
24,Trần Ngọc Cảnh,tranngoccanh_,,Điện thoại quả lê trong Sam and Cat hâhha😂,26-12-2021,0
25,Nurul Huda,cahaya089102,,menganjing je haa...x nmpak pn dia on😂 aku bkk semua TT dia😅,25-12-2021,0
26,💜💜Kim Jone Min💜💜,heinhet77,,@heinhtetlop0 အဲ့ဖုန္းဝယ္လိုက္ရမလားဟင္😂😂,25-12-2021,0
27,ℓυ¢αѕ,iamlylee,,always see that phone but never see it on or to see the features,15-12-2021,0
28,___Clotaire___,___clotaire___,,Fam can y’all not see it doesn’t even look like it has a charger port,14-12-2021,0
29,Luke Burton,lootie666,,how about you turn the screen on,14-12-2021,0
30,Guardian of the galaxy,rocket_288,,It doesn't work😂😂😂,9-1-2022,0
31,Aiden,aiden._.morris,,TURN ITON,17-12-2021,0
32,JesseCUH ⚽️🦾,jesse_cuh_7,,Glass,16-12-2021,0
33,Da_gamer_bois,da_gamer_noob,,POV it doesn’t turn on,7-1-2022,0
34,Stuart’s tech,windowstechstuartuk,,Do you live in aussie,6-1-2022,0
35,BadWolfLegend4,magento_edits494,,Does it even work,6-1-2022,0
36,keiran,k_swole_4200,,wait they mad this a thing,6-1-2022,0
37,Rashad Brown540,jabron3,,I sot the move,31-12-2021,0
38,อนิสา นูร์ เฟบรีอานา,glowupsunset,,@nofitaaptr ummm galaxy aman?,29-12-2021,0
39,ngc,ngc.2_1,,ủa t nghe lê phôn đúng hong 😂,26-12-2021,0
40,Hoàng Nam🏳️‍🌈🏳️‍🌈,nambuedue,,sam vs cat🥰🥰🥰,25-12-2021,0
41,noob,takis_with_cheese,,Turn it on if it works,23-12-2021,0
42,NONAME,eldomino_2,,that an ifruit phone,15-12-2021,0
43,erns🚶🏽‍♂️,leaveyouwithnopulse,,Best battery life 💀💀💀💀💀,15-12-2021,0
44,Zvonimir,zvoonimivatreni3,,ba,16-3-2022,0
45,Akhilomhe Allen,akhilomheallen,,just a prop,10-1-2022,0
46,Space_Stoleyobxtch,space_stoleyobxtch,,It’s off,9-1-2022,0
47,Victor Philip,dfk_voltage,,Does not work,7-1-2022,0
48,Nica Meyer,nicameyer1,,then put it on...,7-1-2022,0
49,captainiboy,captainiboy,,on the phone,6-1-2022,0
50,K pop roblox studio,im_a_real_fairy352,,from victorios,28-12-2021,0
51,@kaidSavage,kaidsavage,,..i. Ok,26-12-2021,0
52,T.Ennh👑,to_anh11._,,hi,26-12-2021,0
53,Kendall Levesque,kendalllevesque,,Where can i get,20-12-2021,0
54,julianalvear,jaycool78,,Water test,20-12-2021,0
55,travis_.tanner,travis_.tanner,,How I get it,19-12-2021,0
56,shesheiii,sheiiiilllll,,buset,19-12-2021,0
57,Nghinè✌,peepee804,,lêphone,19-12-2021,0
58,lucifer.com24,lucifer.com24,,bơ phone😂😂,18-12-2021,0
59,Enrique Uribe,kikoman53,,ICarly,15-12-2021,0
60,Sebastian 🔥👿,random_ninja115,,PROP,15-12-2021,0
61,Wesley Elliott,wesley_716,,It doesn’t have the best battery life because it doesn’t even turn on,13-12-2021,1
62,XBLACKx,xblackwishx,,Why does he do not work 🤷‍♂️😂😂😂😂,23-1-2022,0
63,🐬Dolphin,prem8626,,How much,9-1-2022,0
64,@totoyJOLEN,totoyjolen04,,ahole,15-12-2021,0
65,Euro phumiphat,otf_thai,,That shit don’t even work,10-1-2022,1
66,Gregy™,gregygames,,the day he turns the screen on I'll cash app him $20,13-12-2021,1
67,Cynthia_Q,cynthia_qqq,,😂😂what's this ? ipear😆😆😆,19-12-2021,1
68,Morgan K,mor.gan_236,,I DON’T CARE IF IT WORKS OR NOT PLEASE TELL ME WHERE YOU GOT THIS EXACT ONE!!! ANYBODY!? @InterestingSoup.com,10-1-2022,0
69,LAZBANDO,lazbando.music,,Best life but still using your phone bro? Not tryna hate but don’t do this to yourself lol,13-12-2021,1
70,༒Astarothtraim༒,astarothraim,,enciende la pantalla viejo,11-1-2022,0
71,RobloxianKeith,kyteam5,,Can I see inside or you will be bankrupt,16-12-2021,0
72,Uncle_Junk,uncle_junk,,holding my breath until it turns on in one of these videos,13-12-2021,0
73,Xperenz199,xprenzexxghost334,,Cap,6-1-2022,0
74,TARQOOS,tarqoos,,Bull shit phone is more like it 😂,9-1-2022,0
75,AJ Rivera,jrivera_88,,Bruh fucking turn it on y’all tik tokers be 🧢🧢 way to damn much,7-1-2022,0
76,vegeta,emperor.vegeta,,"turn it on to prove it's real lol bet
u wont",22-12-2021,0
77,cindynguyen6123,cindynguyen6123,,It doesn't even look like there is a button to turn it on😬😬😬,21-12-2021,0
78,hello,ayoaka_angel,,turn it on and i will belive you,16-12-2021,0
79,Anthony ward,armyjkr,,ya... indefinitely off,13-12-2021,0
80,bentley,the_country_one,,turn it on,13-12-2021,0
81,Sebastian Brook,spastic_doop,,ok so you wanna turn it on for us?,7-1-2022,0
82,Luca,triosofts,,Bro turn it on,15-12-2021,0
83,ابو جانتي,abu_jantii,,it is fake like doll,9-1-2022,0
84,Jason Nehme,jasonnehmee,,Doesn’t even turn on,8-1-2022,0
85,Louie_golf,louie_golf,,I bet it’s fake,6-1-2022,0
86,potatoqueen228,potatoqueen228,,can you turn it on?,3-1-2022,0
87,Justin Sutherland,justinsutherland3,,turn it on then,20-12-2021,0
88,Who did it💥🤍,joslyntooblunt._,,Don’t be shy turn it on 😅,20-12-2021,0
89,coltenanderson302,coltenanderson302,,If its so real turn it on,20-12-2021,0
90,Jared Gerke,jaredgerke,,Turn it on you won’t,19-12-2021,0
91,Tik Toker,spicy_pineapl,,So it’s fake,19-12-2021,0
92,K banzz,k_banzz21,,Turn it tf on,14-12-2021,0
93,Desmond Mcelroy,ascending_blazed,,Turn it on or we don’t care,13-12-2021,0
94,Brandon Poindexter,brandonpoindexter1,,Turn it on then,13-12-2021,0
95,🤍𝐻𝑎𝑑𝑖𝑠 𝐷𝑖𝑙🤍,hadis_dil,,Pear 🍐 phone,25-12-2021,0
96,got_banned_at_861_follow,0_to_1000follower,,Turn it on,20-12-2021,0
97,.,ewits._.pri,,Can u turn it on,19-12-2021,0
98,Aldo Manzanares,aldomanzanares,,ni prende 😂😂,15-12-2021,0
99,Noob,da_noobb12,,Turn it on,14-12-2021,0
100,That one vr guy,vrdogo,,Turn it on i dare you,14-12-2021,0
101,marinuccisimone2007,marinuccisimone,,Dose it turn on I think is fake,14-12-2021,0
102,CloudSalesMan,cloudsalesman,,No one cares. If it’s works then I’ll care,14-12-2021,0
103,jasielmaldonado79,jasielmaldonado_0712,,Turn it tf on already,14-12-2021,0
104,Joe,itsjustjoey__,,The shit don’t even turn on bro cut the crap,14-12-2021,0
105,Edwin Tabarez,edwintabarez,,so when are you gonna turn it on?,14-12-2021,0
106,joseff west,deadp00l1991,,not a real phone,14-12-2021,0
107,D,dareal765,,Capppp,15-12-2021,0
108,Angel Vazquez,family_of_7_,,like I Carly lol,13-12-2021,0
109,💗🔪gut🔪💗,th3._.gut._.k1ng,,"Icarly,Henry danger, victorious, and Sam and cat creators: WTF HOW DID HE FIND THEM",29-12-2021,0
110,Abdiel😹😹,soaztagin,,Henry danger type of shi,24-12-2021,0
111,Aan Andriansyah,achix23,,Fake,15-12-2021,0
112,MrMyat Thu,mrmyatthu,,fake,15-12-2021,0
113,Hellfrog,hellfrog3,,fake phone,15-12-2021,0
114,riftergaming,riftergaming,,Fake not real it’s a prop,14-12-2021,0
115,knoxli gaming,knoxli_,,it's actually a dud and doesn't work and will never work,14-12-2021,0
116,Dr. Dank,dr.dankerine,,Y’all know it doesn’t work because there’s nothing in it right?,13-12-2021,0
117,old videos,marta.vnlo077,,dosent even work,8-3-2022,0
118,Adut,111_11..11,,@huy_dayyy_,22-12-2021,1
119,lam vỏ cam,uughhh.xc,,@ptt04054,26-12-2021,0
120,:)),user64585848,,@khlam.05,25-12-2021,0
121,Logan,anotheraveragegay,,🧢 🧢 🧢,13-12-2021,0
