,Comment Number (ID),Nickname,User @,Comment Text,Time,Likes
1,MaKayla,thelookplug,,Tik tok want me to be in tech so bad lmao,19-8-2021,
2,user6149336389958,user6149336389958,,There’s literally nothing else to do. It was dentistry or tech,17-8-2021,
3,Maybe me,notmereally4,,Lol I want to move to tech because the ✨money😍,17-8-2021,
4,Jaz,jazzyjamzz,,Basically why I’m trying to get *in* to tech 🙊,17-8-2021,
5,Mbali M,mbalenhle_m94,,Currently learning to code and I’ll be doing a bootcamp. Can’t wait 😬😬,17-8-2021,
6,antipremed,antipremed,,How do I get in tech?? Overwhelmed by the postings I’ve seen cuz I haven’t seen any for entry level,17-8-2021,
7,HerRoots,herrootshaircare,,Is it hard to go in tech with public health background?,17-8-2021,
8,jung hoseokat,thelyfeofkat,,Literally me 💀 I need that tech check,18-8-2021,
9,DRIA,blahsoreal,,I’m looking into Cybersecurity! Can’t wait to learn more!,17-8-2021,
10,Tamara Amara,tamara__amara,,What advice do you have on something looking to go into tech with no experience?,17-8-2021,
11,Zeneca,_zeneca_,,Are there any other routes to take if you didn’t get a degree ?,18-8-2021,
12,DespiteADHD,despiteadhd,,What is this free food you keep talking about?,29-11-2021,
13,Sharouxoxo,sharouxoxo,,Going into tech sales 😅 not sure if that counts but hey…,19-8-2021,
14,Ellie,baby_ellieo.o,,I magically somehow made it into tech as an entry level and it is so chill! Highly recommend it to anyone who wants money and freedom,23-8-2021,
15,Tahylor P,tahylorp,,I want a career in tech but I didn’t finish college,17-8-2021,
16,Nalmujel,nkm12351,,Are you gonna work remotely permanently ?,17-8-2021,
17,Adetola Olajide,tola_e,,Do u have to know maths to study computer science??,17-8-2021,
18,Heidi🥀,ahidishejofksjsj,,the first one is such cap and taurus energy😭😭 @kiyananaomi,17-8-2021,
19,Glorious,_glo.rious,,🧍🏾‍♀️me about to add a cis degree cause of the money,17-8-2021,
20,Shay McNair,shaydabrattttt,,okay but how long college take and what i gotta change my major too,19-8-2021,
21,Layla,layla9545,,currently trying to get into tech. just learning at the moment.,17-8-2021,
22,Maria,mariaa_mango,,Do all tech jobs let you work from home? If not which ones do let you work from home?,17-8-2021,
23,Omallythegreycat,omallythegreycat,,Lol my be- office space is very comfy 😂,17-8-2021,
24,Sidney,i_am_sidneym,,Do you know anyone in tech who has moved over from public health to tech?,17-8-2021,
25,Kedz,kedzwithkarma,,Same sis 😅,17-8-2021,
26,Khadija Shakure,khdz_1,,😂😂😂 True,17-8-2021,
27,Blank,somethingsfruit,,This is the most accurate thing😗,18-8-2021,
28,Incognito502,incognito5020,,I wanna work in tech 🥺,17-8-2021,
29,Margarita C.,girlbosswithme_,,✨you speaking facts✨,11-2-2022,
30,Taylor,peaceloveadonis,,"Is anyone on here a tech recruiter? Currently in corporate real estate, looking to make a change!",30-1-2022,
31,Likha Digital Academy,likha.in,,True that! 😂,30-1-2022,
32,Gradguide ,gradguide,,Tech’s where it’s at 💯,9-12-2021,
33,Techpeta,techpeta,,Yessss I love working in tech,28-11-2021,
34,aaronalvaradome,aaronalvaradome,,I almost chose dentistry. SO GLAD I DIDNT,24-11-2021,
35,corywaite1130,corywaite1990,,How do you do it? I wanna stay home!,17-11-2021,
36,That_Nessa,that_nessa,,💕💕💕 still trying to figure out what going to work for in Tech but I love helping customers and etc 🥰 and have a as in i.t,17-11-2021,
37,Courtney,courtneyfaithee,,Yessss ❤️I’m in tech is this is 10000% the life.,10-11-2021,
38,Generation Hired,generationhired,,We love this!,9-11-2021,
39,Techy Jefe,techyjefe,,The Tech Industry is just fun to be in tho in general but there are times when it can get stressful😂,4-11-2021,
40,ikaavo,ikaavo,,I have no experience in tech. I only have a law degree. Can I still enter roles in tech without any experience,25-10-2021,
41,s,disneyfreak1991,,did you take any courses?,28-9-2021,
42,Jenifer gonzalez,glez119,,What degree do you recommend to get into tech better computer science or a degree in management information system?,27-9-2021,
43,haydenvienne,haydenvienne,,Interesting.,18-9-2021,
44,tori,probablyytori,,I’m thinking about going back to school and switching to CS instead of premed. What degree would you suggest I get to go into the teach world?,27-8-2021,
45,Ty 🖤,tybaby111,,Teach meee tiktok is this a sign lol,26-8-2021,
46,tori,heytori_,,FROM MY BED. I felt that,26-8-2021,
47,Kass,kassitilee,,What is the best degree to have to get into tech?,25-8-2021,
48,LOLA,skilledsag,,I want to get into tech so badly 😅,24-8-2021,
49,_samz_,_alpha75,,Hahaha legend 😂😂,23-8-2021,
50,Unknown user,kugum8,,"I like tech bc always new and changing, a lot to learn, challenging, culture, respect co workers ! Wfh also ideal",22-8-2021,
51,Maria Jose,tisimari,,"I'm 25, I'm I too old to start a career I'm tech?",21-8-2021,
52,d_abbing,d_abbing,,I'm on my way! 😁,20-8-2021,
53,God of Voids,sol_tanksley,,preach!,20-8-2021,
54,nkemmaria,nkemmmaria,,😂😂😂😂 girrlll get your money up,20-8-2021,
55,Khrys,khrys.svg,,100% this,19-8-2021,
56,Roselyn,rrroselynnn,,Thank you,19-8-2021,
57,Travel Snob⭐️Bish,travelsnob_bish,,These are all facts!😂😂🥴,19-8-2021,
58,Jenny Parker968,pennyjarker,,100%,19-8-2021,
59,Isabella Anahi Garcia-Mendez,bellaanahigm,,Hahahahah same 😅,19-8-2021,
60,Natalie Bravo,natalie_bravo,,haha totally,18-8-2021,
61,Angely Mercado,elsupermarket,,tutorial pls,18-8-2021,
62,JT,sagi777arius,,How do you find tech companies?,18-8-2021,
63,Kelp,desa1210,,I graduate in December and have been thinking about getting a job in Tech. Idk where to start. What do you suggest?,18-8-2021,
64,whatjesssaid,whatjesssaid,,Making this switch now can’t wait until I secure my first role,18-8-2021,
65,.,bad_nemo,,Facts,18-8-2021,
66,Рида,adiro_4,,Okay so is this my sign,18-8-2021,
67,.,catchmesippin,,What uni did u go?,18-8-2021,
68,Life and tales,lifeandtales94,,Initially it was passion. Now it’s just the bank account lol (okay I still want to make a difference. But give me money first),18-8-2021,
69,Blank,somethingsfruit,,I’m trying to put people on!,18-8-2021,
70,Liz,liz4462,,Can I go into this with a journalism degree? I also have project management experience,17-8-2021,
71,Fil,fil_woj,,Can you work at Microsoft with a biomedical sconces degree?,27-9-2021,
72,Some girl,webbscool,,Do you need a computer science degree to pursue this track,17-8-2021,
73,daisy🍒,bydaisyhannah,,I haaaaate getting asked what drives you to want to work in tech - makes me feel like an imposter :(,18-8-2021,
74,Bersabeh,itsbersabehbish,,Do you have any tips for someone that wants to get into tech but has no experience? I graduated with a degree in Human and Social Development & Psych,17-8-2021,
75,Reetthekid,reetthekid,,Got my first job as a software Engineer recently I can’t wait to start 🥺 I’m tired of working in hr,23-8-2021,
76,Deewith3es,deewith3es,,Omg how did you get into tech ? Asking as someone with 0 experience in tech who would love to start ! 🥺🤍,17-8-2021,
77,Tia,dogpigdogpigloafofbread,,In a cyber security program right now!,17-8-2021,
78,Hosanna · Ersteller,thetechcornr,,Why did you guys choose a career in tech? Let me know in the comments 😌 I’m on IG too @thetechcornr 🙌🏾,17-8-2021,
79,planty aryn ✨,arynlynn_,,omg I work at Microsoft too!! We should connect!,18-8-2021,
80,🥰Kira,fanaticalkira,,I want a career in tech.,17-8-2021,
81,user8263009672753,eimearl98,,Are there many tech jobs you can get without a tech specific degree?,27-9-2021,
82,Lauren Rebecca,laurenrebeccaw,,Here to follow more amazing women in tech!!,4-9-2021,
83,naIt,gue5t,,can u get a non coding tech job w a law degree?,25-8-2021,
84,kenzie199812,kenzie199812,,I just graduated in advertising and really want to get into tech how can I brand myself for tech and try and find jobs?,24-8-2021,
85,wael_saad10,wael_saad10,,"what about people who change careers to tech?
i am in mid 20's looking to study CS
do i have a chance being hired at my early 30s being a fresh grad ?",20-8-2021,
86,Hugo the Shark,hugotheshark,,Commenting while working remotely from my bed,20-8-2021,
87,Amy6528,amy6528,,Has anyone tried data analytics or have done the data analytics certification by google?,19-8-2021,
88,Claims DJ display nylon,.....................x.x,,Were you the girl that was bullied on Twitter for your salary?,17-8-2021,
89,Pais.,paisleyy.b,,@nellyslickk,11-11-2021,
90,TheElizabethanEra,theelizabethanera,,😂😂😂😂,11-10-2021,
91,Maggie O'Keefe,msokeefe,,🙌🙌,29-9-2021,
92,Kat,katcodes_,,😂😂😂,12-9-2021,
93,Bianca ✨,blwvm,,😂😂😂,27-8-2021,
94,gogo | home & decor,gogosuave,,🤣🤣🤣,24-8-2021,
95,Julie,dlatnwls7,,@alimster120,23-8-2021,
96,TiffSoRandom,tiffsorandom,,✨✨✨,23-8-2021,
97,d_abbing,d_abbing,,😂😂😂,20-8-2021,
98,Maknuna,maknunaaa,,@sarah4life4,19-8-2021,
99,maroodi,marooditwerk,,@somali_shaahcadeys,18-8-2021,
100,villa.cesar06,the_jiveturkey,,@janestone_,18-8-2021,
101,Samantha,becomingsamantha,,😂😂,17-8-2021,
102,L K,leeleemeee,,😂😂😂😂😂😂🥰🥰🥰,23-8-2021,
103,lex,mywaveyworld,,frfr,18-8-2021,
