,Comment Number (ID),Nickname,User @,Comment Text,Time,Likes
1,user307780,stevesworld365,,Which one doesn’t require coding,19-9-2021,
2,user4902770390136,_dantrell_,,Tech leadership here. My initial salary 9 years ago was 82k. Not I'm at 173k. Job Title: Sr. QA Automation Specialist.,19-9-2021,
3,J🌪,jayy.2081,,If ur creative I recommend ux design 💯,18-9-2021,
4,Mosti,elmosti04,,thx this is very valuable information,18-9-2021,
5,zoeynextdoor,zoeynextdoor,,Do you have to be a genius in math to go into this type of career ?,24-9-2021,
6,Crush The Wealth Gap,amanbansil,,"With all due respect, it’s way more complex than that this. I’m in IT, making 218k I know people making 300+ and there are ways to make more. AMA",3-10-2021,
7,Kenne,wherekennego,,Can you do this for non technical roles?,18-9-2021,
8,Nickieee,nicky_kh,,What about tech sales?,18-9-2021,
9,Wood,hinche7,,I choose the wrong major,20-9-2021,
10,Alti,aquariusbaby2001,,What’s your position at Microsoft?,19-9-2021,
11,𝐒𝐨𝐮𝐬ïá,iam_sousia,,What about software engineer 🧐,19-9-2021,
12,miss lawyer charlie,legallycharlie,,Neeed the fit details cause whewww,19-9-2021,
13,SAM🪐,sammie.gb,,Data science takes like 10 years to learn though and only 15% get employed,19-9-2021,
14,Rai,zenantsy,,Is front-end development still a good idea?,18-9-2021,
15,Savannah,savannah.jolenee,,This entirely depends on location 😬,18-9-2021,
16,Pedro Rivera,liessmh,,Cybersecurity?,19-9-2021,
17,Lena Santiago,lenasantiagoo,,what degree do you need to work in tech?,8-5-2022,
18,Baily,baily0000,,apart from that.. you are just Gorgeous 😍,18-9-2021,
19,Fizza Shamim,fizzshamim,,that dress 😍😍,18-9-2021,
20,Pamela Durand,pamyyy198,,Where do I start,24-9-2021,
21,Toya,afrorckprincess,,I love your outfit 😍😍where is it from?? 💕,18-9-2021,
22,fadil,fdilka,,What is this app?,18-9-2021,
23,REZ TENG,rezteng,,What’s the website ?,18-9-2021,
24,Mia J. Hartlee,preppyhippy,,"What about if we’re really good at writing, communicating, but HATE sales?",11-2-2022,
25,data drip,datadrip,,"I just started my IT career as a data center technician, I’ve got ways to go but feeling grateful!😭",4-2-2022,
26,Taylor,peaceloveadonis,,"Is anyone on here a tech recruiter? Currently in corporate real estate, looking to make a change!",30-1-2022,
27,blazayblazay,liyahserendipty,,I wanna learn coding,25-1-2022,
28,julie,julieboollee,,"what did you do in uni, if you don’t mind?",4-1-2022,
29,JayIsLit,lifebouyf.boyzz,,My Dad is an Enterprise architect that works in solutions architecture🥺🥺,19-11-2021,
30,Elizabeth,foreverlizzy21,,what's the name of that website?,22-10-2021,
31,Tutu,tu2.waavy,,but what should you study for these jobs.,19-10-2021,
32,haydenvienne,haydenvienne,,How to become a data scientist without a degree?,15-10-2021,
33,chiefsosa,bigshiestyy9,,Finance people be averaging 350k€,11-10-2021,
34,amnaiqbal27,airrriiiib,,We need U.K. salaried,27-9-2021,
35,goofysbestfriend,goofysbestfriend,,"but big data isn't scalable, atleast in Germany",26-9-2021,
36,Ryan,happyryanday,,Missed sales 😂,25-9-2021,
37,Blue Jae,bluemingsow,,what i hate is the fact that the same job in France does not get closer to 100k 😅,23-9-2021,
38,S,s_marax,,do most tech companies have in house lawyers?,22-9-2021,
39,bm,bophelomphel0,,how about someone studying Informatics 🥺,20-9-2021,
40,user368732,user36873288,,I am a stay home mum if 8 yr with previous experience of it help desk If I wana start again how should I start again in different line like cloud .,20-9-2021,
41,🎃,user678953256,,What degree do u need for cloud solution architect,19-9-2021,
42,user1787904006690,sgh007,,Source?,19-9-2021,
43,pancakesgaming ❤️🥞🔥,pancakes.gaming,,thanks for this now I know what to do,18-9-2021,
44,🐴,kidneycleanser,,Which one of these are non tech degree friendly?,18-9-2021,
45,Diana_Aguiii,diana_whooo,,What certificates do I need to become a cloud solution architect ?I don’t want to get a degree 😅,19-9-2021,
46,Thumb,r_dicko,,"Wait a damn minute, I'm a data scientist on £45k 😭 something ain't adding up",18-9-2021,
47,Hosanna · Ersteller,thetechcornr,,Who’s trying to make money in tech?😌 I’m on insta too @thetechcornr 💸,18-9-2021,
48,arabian princess pool of toads,enigmaxkills,,So drones comparing their incentive gain…sad.,14-2-2022,
49,J,successjourneywithj,,🔥,5-4-2022,
50,Josh,thedaddyjosh,,Sr Fullstack developer. No degree. 24 yrs exp. 225k.,2-4-2022,
51,nadiaaa 💰,4knadiaa,,can you show tech jobs that doesn’t require math,4-1-2022,
52,Siri talk,siricommunity,,These are low.,23-9-2021,
53,John Lee2898,jaysaihay,,Meanwhile I message you on insta and you never answer 🙄.,18-9-2021,
54,Barbara 🤍,barbaritavip,,Those salaries work for WA and TX but not CA 🤷🏽‍♀️,19-9-2021,
55,Daniel Lorence,danflyinghigh,,"You should check out the website levels.fyi , salaries much higher there",19-9-2021,
56,user5423933597593,banchodpreet,,This all requires education in the field lol you can’t just apply and get these kinda jobs,19-9-2021,
57,Sherany,.piplupi,,would you consider software engineering or data science to be more profitable ?,19-9-2021,
58,Mikal,mr.toxic078,,me trying to become a self-taught software engineer,19-9-2021,
59,nlb276,mango_13.2,,"As a solution architect in training, this makes me very happy",18-9-2021,
60,stevenash845,stevenash845,,👍🏿,5-6-2022,
61,Yo,thisisnot_me24,,@usmizy @aleena_hak,23-9-2021,
62,g money,gracmoney,,@i.luv.grapes,20-9-2021,
63,roda_02,roda_024,,@m3ryaam,18-9-2021,
64,Wacha want,wachalookingfor,,😳,30-9-2021,
