,Comment Number (ID),Nickname,User @,Comment Text,Time,Likes
1,E.,finallyliz_,,I’ve a business degree. Definitely doing my masters in stem. Something related to data science and machine learning,22-9-2021,
2,kayls,kaylsthepixie,,y’all comp sci makes money yes but it’s super hard if you don’t have a passion for it 😭,24-9-2021,
3,Ethan H,sexyguy_69,,Just find a major u love y’all trust,24-9-2021,
4,🤍,jongins1,,wow is it possible to do a compsci masters with no prior knowledge on it? im interested in studying it but im majoring in smth completely different 😩,23-9-2021,
5,Hensknwnaj,hdksosb4,,Did you study for 6 years? Cos idk how student finance works for that?,22-9-2021,
6,ohnoana,ohnonahi,,I want to do masters in data science but I'm scared lolllll,22-9-2021,
7,conor,conorrichard,,Perfect combo for product management!,24-9-2021,
8,nut,mnnut.com,,finance and management information systems good?,23-9-2021,
9,ciao_merci,ciao_merci,,My motivation everyday 😭,22-9-2021,
10,BlessedBrownman416,blessedbrownman416,,Im in MIS with a minor in Cs and wanna do a masters in Cs is it possible?,24-9-2021,
11,Fenan,fenan.78890,,Would you advice one to major in Computer Science?,22-9-2021,
12,Myra,_myraag,,Periodt😌 me with a degree in technology management💀💀💀,22-9-2021,
13,Veronica,yoyoyo123ganggang,,Do you regret your business degree?,24-9-2021,
14,GG,honestlysmd68,,Health sciences is where it’s at honestly,10-10-2021,
15,Lina🤍,linakhanxo,,Do you still recommend majoring in business ? I’m still not sure about it .,24-9-2021,
16,a b1891,hhhhhiiiiiuu3,,"wow so many people interested in data science! I'm doing my masters in it
😁",22-9-2021,
17,Code,blackcode45,,Comp science vs soft engineering PLEASE. Can’t decide which one,23-9-2021,
18,Alex Dien,lilrexyvert,,what are your thoughts on MIS degree,22-9-2021,
19,yeah,ttheeweekendd,,I want a stem degree but I don’t really like math :(,25-9-2021,
20,Samira,ssamiraaaa,,OMG IM DOING THIS DO U HAVE ANY TIPS,23-9-2021,
21,koparafujara,koparafujara,,no girl not christian walker 😭😭,22-9-2021,
22,(-3-)/,minivy234,,What type of business degree and was it worth it ?,24-9-2021,
23,Kamil,kamilkhxn,,double degree in BBA and cs here😏,22-9-2021,
24,Kintoo💧🧞‍♂️,markaysthename,,I'm switching from CompSci to Engineering Technology mananagment? Thoughts and advice??,23-9-2021,
25,GOUSTO 360,gousto360,,Information systems 🔥,22-9-2021,
26,Queen,debbiepinkpowerranger,,What degrees do you have?,22-9-2021,
27,Reece,devanreece,,does this really get you through school.,28-9-2021,
28,Hussain Khaled,hussainkhaleddd,,Guys what’s the difference between computer engineering and CS???,25-9-2021,
29,Mariam,mvrriam,,Lol my degree is in finance & I’m also getting an econ degree. There’s so many skill based programs for compsci I feel like that’d be more helpful,25-9-2021,
30,Master Po,masterpothedragonwarrior,,Why do ppl say cs is in demand but then I hear ppl saying how hard it is to get a cs job,24-9-2021,
31,"ya ndak tau, kok tanya saya?",tarairl,,i did bachelors in compsci and now is a backend dev but i hope it’s not too late to pursue a masters in data science 🥺,4-10-2021,
32,Littlet1017🧿,littlet1017,,"I did my undergrad in Business Management & Marketing. MSc in Global Logistics, Operations and SCM. I enjoyed digitalisation and want to learn more",28-9-2021,
33,chuubs 🤪,chuubah,,I’m about to finish my degree in business mgmt but wanna do fashion marketing for my masters. Do I have to have a degree in compsci to go into tech😭?,24-9-2021,
34,winter 💿,wintergth,,me with my cs in undergrad and planning to pursue a grad degree it in cs too,23-9-2021,
35,Let’s go,whoq.lol,,NOW ITS EMERGENCY IS IT TRUE THAT MICROSOFT EXPERENCING ISSUES WITH WINDOWS TEN AND SOME PEOPLE ARE SAYING THAT WE HAVE TO DELETE ALL OF OURPASSWORDS-,23-9-2021,
36,Chosen One,theylovekelll,,So which one did you do first?,24-9-2021,
37,Yo,thisisnot_me24,,Do you have any advice for cs students?,23-9-2021,
38,Nadra🤍,nadraaa.x,,@ayoostar love to see it,24-9-2021,
39,Irma,coffeeirma,,lmao me,22-9-2021,
40,LoJo,lojo868,,Urgggg I so relate,22-9-2021,
41,AbiBash,a.b.i.b.a.t,,Was it a comp sci conversion masters? If so are there any skills/experience one should get before applying? What should one showcase in the p.statemen,12-2-2022,
42,🤍,suppgaby,,period,22-11-2021,
43,Allyson Bennett,abenn_,,Me considering a Business/CS double major or major/minor combo,15-11-2021,
44,Ibrahim,ibr4him_5,,These are my exact gcse picks,28-10-2021,
45,🌖,ryeonhai,,gawin ko nga @soulight_xxx,19-10-2021,
46,Joe,joe_the_patriot,,"I'm so glad I have a passion for computers, it's a lucky trait I have come to appreciate.",18-10-2021,
47,hamburge2000,hamburge2000,,pls could you respond which has more math and it's difficult CS or software engineer,17-10-2021,
48,Neko ™,nekotrine,,"Double degree in compsci + business with most people interested in data science?
Damn, my FYP got it down.",14-10-2021,
49,dripavelli,dripavelli,,Can I get into the tech field with an economics degree?,9-10-2021,
50,Leke,notquitelikeleke,,@Hosanna can you make a video on Management Information Systems. I switched from Comp sci so I feel like I relate to this,9-10-2021,
51,😮‍💨,adoptedbybr3nt,,@dreamybbarbie 😭😭 the caption,4-10-2021,
52,m🧣,prcbth,,"i have a bachelor in mathematics, can i do compsci for my master?is it gonna be too hard?",1-10-2021,
53,g,tlgasnbi,,me but accounting and math,1-10-2021,
54,mondaymoon,ninjayai,,same switching to machine learning🥺feel unapreciated and will be the first fire when the industry is bad,1-10-2021,
55,🌟,jwlxkcjjs,,aviation is the key 😭,30-9-2021,
56,13 weeks #1 BB100 stan,tisolc_k,,comp sci econ double major i feel u,30-9-2021,
57,Uncle Iroh🍃☕️,commonsenseyanis,,fax,29-9-2021,
58,🂽,aeirez,,wait because i’ve been thinking of doing this 👀,29-9-2021,
59,Roh,rohhq,,I graduated high school with the plan to nursing and here I am. A first year computer science major😅,29-9-2021,
60,Bajeriandiaries,bajeriandiaries1,,Me atm 🤣,29-9-2021,
61,Jasmine,jasmoneyy,,about to finish my bachelors in Marketing and then starting my application for a masters in Business Analytics to become a data scientist 😌,28-9-2021,
62,Sharese Benjamin,sharshar_b,,I dont get why someone would question that lool. all the best sis,28-9-2021,
63,farida,faridaismailll,,business informatics is a major which literally combined both girl…,28-9-2021,
64,hater to the core,plzshutupffs,,LMAO LITERALLY 😭,28-9-2021,
65,rachel,mariahcareylovrr,,@arleebn @heyyitsjp Arleen,27-9-2021,
66,!,derlis1,,@emi2780 dios mío emily esta es definitivamente una señal,27-9-2021,
67,yeagermilf,_s1ater_,,Me who is doing to do both at the same time 🤠,26-9-2021,
68,Ty,tydotnet,,You’re protected protected 😭,26-9-2021,
69,Eeeeeuuurrr,eeeuurrr,,Im planning for an econ x comp sci combo but is it smarter to go for business?,25-9-2021,
70,tam,tamzz004,,@sboods see,25-9-2021,
71,GGMauno,ggmauno,,Same plan❤,25-9-2021,
72,Precious,xo._preciiious,,would u advice someone to do computer engineering,25-9-2021,
73,z.,zoeaneni,,My only aim in life is to be rich. There I said it,25-9-2021,
74,A_15,abel._07,,Where did you study business?,24-9-2021,
75,Pretty Boys Like Bernie,esoheaa,,@yonosaa pls,24-9-2021,
76,brooke,sadscorpiobae,,"this is exactly what i plan on doing!!! i’m gonna do two years of cc, then transfer to a uni and major in comp sci & minor in business or neuroscience",24-9-2021,
77,Aleisha,aleishadorinville,,It’s a business degree is best? I can’t decide😅,24-9-2021,
78,manisha⚡️,manishasoli,,I love your hair color,24-9-2021,
79,sarah,sarrahzzzz,,period,24-9-2021,
80,user,user829287517,,what do we think about biotechnology?,24-9-2021,
81,.,_.ii44,,@karann.xs that's why I picked computing 😏,24-9-2021,
82,(๑˃̵ᴗ˂̵),aaliyah.bilal,,"I wanna purse it to too, but I’m an international student 😩",24-9-2021,
83,Periwinkle,perxwinkle,,Wow! Thinking of doing this,24-9-2021,
84,m.carmz,m.carmz,,"Doing MBA and biotechnology but want to switch it to MBA & CS, thoughts????",24-9-2021,
85,Alexandria,saturnmommyy,,Sis! What’s your thoughts on health tech?,24-9-2021,
86,RS,packsinovernight,,Is engineering good?,24-9-2021,
87,Arya_tiwari,ryaa_tiwari,,I should do my masters in business,24-9-2021,
88,freedadboy97,freedadboy97,,sad,24-9-2021,
89,Ketobae,ketobae,,Yaszz,23-9-2021,
90,sb,____._____..._____.____,,what do you actually do in the computer science degree,23-9-2021,
91,Bitch,l0rd_farquadpapi,,Can u guys tell me Degrees that makes good money ??,23-9-2021,
92,PoTatoJamFam,potatojamfam,,Me rn ☹️,23-9-2021,
93,shizuha,shizuhar,,hmm I’ll do the same then but in the opposite order 🤪,23-9-2021,
94,Segaxxe,segaxxe,,"Lowkey, pretty smart",23-9-2021,
95,S,supertalentedsuperhot,,Okayy,23-9-2021,
96,yessirrr2333,yessirrr2333,,how many years does it take to double major?,22-9-2021,
97,^,littynajaaaa2x,,"Can I styl do it with sociology, business, IT a levels?",22-9-2021,
98,Penelope GA,gittzell21,,omg me 😳,22-9-2021,
99,Andy,localacct,,Me Lol,22-9-2021,
100,Mrs Chifuyu😌,potatoes.gon.potate,,Lookinh at this every day every morning,2-11-2021,
101,r a y a,rw4506,,girl cuz same. econ and comp sci. ‼️,28-9-2021,
102,Nosduo,genmilzalpha,,Issa sign to get off tiktok and do my he,28-9-2021,
103,yougin,youginwow,,r u Nigerian? cus if so it makes sense,23-9-2021,
104,Hosanna · Ersteller,thetechcornr,,Who else doesn’t want to be poor 😭 follow me on insta too @thetechcornr 🙌🏾,22-9-2021,
105,enxo,hentaihottie,,Maybe I should go for MIS🧍,24-9-2021,
106,L,xoxogsspgrl0,,Same girl I’m currently doing a bachelor in business administration and a minor in data science. And after a master in data science wish me luck ❤️,22-9-2021,
107,hana,laddyladslads,,whenever i start to regret my major i google the salary to feel something,23-9-2021,
108,maggie💜,maggieslogic,,Me majoring in marketing analytics (combination of marketing and business analytics),24-9-2021,
109,u67867,u67867,,i’m in grade 12 rn - seriously am so lost on what i wanna do. what jobs does a cs degree lead into?? What’s the salary coming out?,25-9-2021,
110,Hazel Eroy,hazeleroy,,Everyone asks me if I’m gonna graduate on time 😩 girl IDK,22-9-2021,
111,Pitbull,itspitbull,,"Lmao I used to think like this and then I got depression and almost lost my hair. Choose a major you like not one that'll ""make you money"".",4-10-2021,
112,Jessie,gboyjetski,,IM JUST STUPID,24-9-2021,
113,4PF,dillondetroll,,U are a bot for life there’s multiple other ways to become successful… u rather look a screen for 8 hrs a day jus so ur not “poor” but ur still a bot,23-9-2021,
114,™️,yeez3rs,,"in the past 3 years 40% of people quit there job, and now are doing something they like. Life is not meant to be stressful",24-9-2021,
115,chuubs 🤪,chuubah,,Faving this vid for the comments 😂,24-9-2021,
116,Priscilla V,priscillavillarruel,,MIS major here 😅🙋🏻‍♀️,28-9-2021,
117,Penelope GA,gittzell21,,drop them hacks 🙈,22-9-2021,
118,Boogerfunk,boogerfunk,,Yesss 😹😮‍💨,22-9-2021,
119,Brooookeee,b_y2k,,I’m doing a business degree I’m in my 4th year and I HARE IT. I have no passion for this shit. I wish I did a compsci degree instead,23-9-2021,
120,!,ushygushykoo,,I’m doing business & marketing should I minor in some CS or data science,22-9-2021,
121,Green,chenbroe,,Fr wtf u supposed to do to get money besides software,25-9-2021,
122,Boat,______boat______,,Would you recommend a BBA + BA in CS in 4.5 years or BBA + MS in CS in 6 years?,24-9-2021,
123,gdhnbffkng,gdhnbffkng,,have no idea wtf to do,28-9-2021,
124,Florenced12,fflorenced12,,I’m going to get my bachelors for business marketing. I want to go back for my master for cyber security. How can I do that,27-9-2021,
125,Permanentlybanned,permantelybanned,,Why does christian walker not understand that leftists dont want ANYONE to be poor,27-9-2021,
126,user1168796417495,itsvgracewhaaat,,Did you get your masters before your tech job,27-9-2021,
127,Gigi Santini,santinigigi,,"OMG IM A FRESHMAN, GIVE ME ADVICE! Should I double major with CompSci and Business or should I get a Business degree, minor CompSci and then master-",25-9-2021,
128,「♚」,http.luvz,,"CS is too technical for me, so I choice CIS 😀 might minor In mis or health mis",25-9-2021,
129,mitochondria,ispowerhouseofthecell,,"i can't decide whether to go into engineering or some sort of finance, what do you think?",24-9-2021,
130,Ru,laratoncita.ru,,Literally a double major with both of these 😅 can’t wait to reap the benefits lol,24-9-2021,
131,megz,megan37956,,damn girl. do you have time for yourself,24-9-2021,
132,capitani89,capitani89,,Is information systems a good degree? Will finding a good paying job be difficult with it?,23-9-2021,
133,Luvnish G,luvnikz,,LITERALLY ME RN DOUBLE MAJORING 😭😭😭,23-9-2021,
134,sesu,reversesunset,,im majoring in economics and want to minor in comp sci or data science idk,22-9-2021,
135,Clickbait,dosesofcoughdrops,,We’re both of those degrees bachelors degrees? Did you do them at the same time (like a double major )?,22-9-2021,
136,user6069151155780,kanter82,,I’m doing a global mangement Major should I minor in cs,22-9-2021,
137,npexep,npexep,,would you recommend a master's in business after doing compsci degree?,22-9-2021,
138,Manny-fluorescent,manny_lo_flourescent,,Does business analytic masters open doors on tech?,22-9-2021,
139,Chi,heartz_adafemme,,how much code do you need to know before doing a computer science degree,22-9-2021,
140,rayan.h123no,r.mcmeow,,How the living hell you in college but can’t structure a damn sentence,29-9-2021,
141,kat,kthl_n,,whys this exactly me w business + datasci and for my besties too LMFOAKDJSK,28-9-2021,
142,Manuuu,manuhomsy123,,Are u rich??,16-5-2022,
143,kend1,kendzino,,@sapanarearranged,21-12-2021,
144,SunshineandRainbows5,sunshineandrainbows5,,@ny579,17-12-2021,
145,fxttma,fxttma,,@H🥀,10-10-2021,
146,brendan,brendanqoli,,@Jennifer,10-10-2021,
147,bert,elizablah,,@jenniiokk,28-9-2021,
148,Lero,aleroxo_,,‼️‼️‼️‼️,25-9-2021,
149,an,vvuannie,,@contestshipping,24-9-2021,
150,Jenny Chiu,jenny_c34,,@speacie,24-9-2021,
151,user4096165155038,naprojects101,,📠😂☠️👍,22-9-2021,
152,oooo,oooooooooook5,,@charli.dnegro,26-11-2021,
153,hanna,hannaaaxt,,@t2trappy3,27-10-2021,
154,zain,zainfaisal,,@elios_cream_peaches,25-10-2021,
155,vivngynn,vivngynn,,@cherry.phamm,17-10-2021,
156,☄️,itsnicolese_,,@kenji_531,6-10-2021,
157,britney son,deepreshun,,@jibooty0_o,6-10-2021,
158,ashley,ashley3340,,😭,27-9-2021,
159,nasu,spicynasu,,@sampppaa22227777,27-9-2021,
160,Ty,tydotnet,,@saopmonster,26-9-2021,
161,tina.liah,tinathedinosaur0,,@staymobbindory @alyssasirem,24-9-2021,
162,Mi'Queen Mattox,miqueenmattox,,😭😭,23-9-2021,
163,laurianne,peguy_thecoolkid,,@lawry.08,22-9-2021,
164,Samantha,becomingsamantha,,😂😂,22-9-2021,
165,Lou,jazzlouisiana,,😂😂😂@ilovecake101 @iamlost578,8-10-2021,
166,Maitri,babybailey164,,I,24-9-2021,
