,Comment Number (ID),Nickname,User @,Comment Text,Time,Likes
1,karolla907,projectgetdaddyhome,,Whhyyy??? How???,4-12-2021,
2,Albert Lim,limalbertt,,I swear. I tried and msft is not even looking at me,23-11-2021,
3,BlossomingChrysie,blossomingchrysie,,Winning 🙌🏽,22-11-2021,
4,no,yourshinybaldspot,,GOD IVE SEEN WHAT YOU DO FOR OTHERS 🧎🏽‍♂️,23-11-2021,
5,Peppermintmuffin,peppermint_muffin56,,Congratulations 🎊 🎉 🥳🥳🥳🥳 what role was it for?,22-11-2021,
6,Fatima,fatinna_k,,How!? Was your resume great or were you referred by someone? I wish to achieve this 🥺,23-11-2021,
7,Nina,roccosmum,,Congrats and welcome to Microsoft! 🍾🥳,4-12-2021,
8,saladman,saladman_,,nooo all that leetcode prep wasted must feel awful but congrats on the job !!,22-11-2021,
9,deadika9,deadikaa,,"Congratulations, but why didn’t you have a technical interview?",23-11-2021,
10,Thanks Avocado | JoJo,thanksavocado,,"I watched your other videos. You’re too humble. You put in months of work before the interview, and MS saw that. 😉",4-12-2021,
11,riya emmanuel,riii.ya,,Pleaseee howww 😭😭😭 I’m still waiting to hear back from them,23-11-2021,
12,Zulai Serrano,zulaiserrano,,Welcome to the company 😊😊😊 you’ll do great things here,23-11-2021,
13,Travel Tips + Ideas ✈️,yourtravelbff,,Not just lucky 🥰 other factors def played into this like previous interviews and skills u bring to the table,4-12-2021,
14,Ozzymitsu,ozzymitsu,,It could mean you impressed them that much with your soft skills. Technical skills can always be taught/learnt. Congrats! ☺️,23-11-2021,
15,Misguided D,mgduchess,,Same. Lol. Language data analyst with them. Spend the night brushing up on my languages. Microsoft didn’t even ask lol,5-12-2021,
16,Jamie Cropley,jamiecropley,,I have never had this happen if anything they send me additional tests 😂,23-11-2021,
17,vectormg,nmsknvcn,,so what do you actually do? like title wise?,24-11-2021,
18,q78611,q78611,,Congrats!!! Did u do a degree in tech?,23-11-2021,
19,Tee Rox 💜,roxieewil,,This made me hop on LinkedIn IMMEDIATELY. Congratulations to you love!,4-12-2021,
20,kiran,kiransaziz,,Oooo so what did you study that wasn’t in the interview? 🥰,22-11-2021,
21,Ulusese Tio,ulusese,,Nice. What do you think is the main cause of that?,22-11-2021,
22,Holly | HerHelloWorld,herhelloworld,,Lol how????,23-11-2021,
23,Kia,trendbry,,Congrats girl! I recently had an interview from them too 😅,22-11-2021,
24,Sarah Smock,smockaflockaflame,,"Congrats!! 🥰🥰🥰 The market is SOOOO HOT right now, glad to see they saw that and moved quick 👏🏼👏🏼👏🏼👏🏼",22-11-2021,
25,kecoding,kecoding,,favour ain't fair..,22-11-2021,
26,Gab,gabfully,,@chilemami reminded me of you,7-12-2021,
27,Nia Taylor,tayloredinpurpose,,Congratulations !! 😍🙌🏾,23-11-2021,
28,V,velvetescobar,,You deserve ✨🥳 congratulations to you,22-11-2021,
29,Grisquirrel,grisquirrel,,Eyyyyy congratulations!!! 🎉,22-11-2021,
30,Erica,ericamichellle,,"Congrats, this is inspiring 🥰",22-11-2021,
31,❤️,npcey,,Look at God,22-11-2021,
32,ankh20211,ankh20211,,well done!!,22-11-2021,
33,Rameshmuthusamy,ramesh_muthusamy,,Happy for you!,23-11-2021,
34,Aesteria,fknnord,,How!?,23-11-2021,
35,Elle Boulangère🧿,elleboulangere,,a girl named pretty too. congrats 🥰 go girl!,23-11-2021,
36,Sandrine Fomo,sandrinefomo,,Congratulations,22-11-2021,
37,A Hercules,a_hercules_,,Congrats,23-11-2021,
38,user4759287184579,demondoguk,,"Not necessarily applicable to you but its very niave to hire without a tech interview, so many chancers out there.",2-2-2022,
39,nadz,dumbledores,,"I would be offended, but if its early on in your career take the chance",2-2-2022,
40,A W,grapetoseeyou,,they KNEW you were the one,23-11-2021,
41,sailorchibicore,sailorcloudeyes,,As they should 😌 congrats!!!,23-11-2021,
42,Unknown2233,unknown_user2233,,"Awwwwww I literally did the same thing for a different company, behavioral interview and got rejected 😭",23-11-2021,
43,Anne Smalls,anne.thevegan,,Struggling with entering the recruiting realm!! Any tips?,23-11-2021,
44,Soledad,soledad_637,,Congrats sweetie!! 🥰🎉,22-11-2021,
45,Geoff,geoffzhou,,Queen,22-11-2021,
46,amnooz90,amnoodles,,yesss!!! congratulations,22-11-2021,
47,AJGRANDIOSE,ajgrandiose,,Congratulations lovely !!!!,22-11-2021,
48,overthecounterpillies,overthecounterpillies,,God I see what you’re doing for others 😂,23-11-2021,
49,😀,ay0wh0t,,whst role bestie😁,23-11-2021,
50,Monica Barnes Lateef,thick36,,fantastic,23-11-2021,
51,divenire,tidyguy,,Omg congrats!!,23-11-2021,
52,rhadufe,rhadufe,,HOW,23-11-2021,
53,trink3tz,trink3tz,,Lityy,23-11-2021,
54,georgemaddux,georgemaddux,,congratulations!!,22-11-2021,
55,LiciaLand,licialand05,,I’m next!!,22-11-2021,
56,user473586937004,hellosunny24,,Congrats !!,7-12-2021,
57,Tannia Suárez,asktannia,,That’s amazing! Congrats! 👏🏽👏🏽👏🏽,18-12-2021,
58,sidarthvader_,sidarthvader_,,Must be nice 😂😂😂😂,4-12-2021,
59,✨💚🤎VirGoddess🤎💚✨,virgoddesss,,I claim this energy! Congratulations Sis! 😍,4-12-2021,
60,Nimu,starseed_sojourner,,Congratulations! 🎉🍾,4-12-2021,
61,holla2kiki,classylaidi88,,this encouraged me 💕💕💕💕,4-12-2021,
62,khalalw,khalalw,,Look at God! I thought I got lucky when a company skipped my technical screen lol,4-12-2021,
63,user10861,user10861l4l,,GOALS,25-11-2021,
64,j c,novembersp,,Congrats 🎉,25-11-2021,
65,whalesmack,whalesmack,,congrats!!,24-11-2021,
66,Jenn,jxnpark,,I would also like to claim this energy 😳,23-11-2021,
67,🤍,traderjoeussy,,I claim this energy,23-11-2021,
68,wynterwalker,aiiioooow0,,For SWE?,23-11-2021,
69,Princess,princesscat1392,,The catch is that it’s a remote job lmao,23-11-2021,
70,zipporah the vegan ✨,zipporahthevegan,,I love that for you!!,4-12-2021,
71,user8684340049447,obamachuckled,,WHAT?,6-12-2021,
72,Vel,velushomaz,,Good on you 👌👌 congrats!,6-12-2021,
73,Gee,bestofgeenyc,,The sound is so perfect 🤣,6-12-2021,
74,Ashton Pierce,ashyboy92,,happy for you girl,5-12-2021,
75,GreenAppleBite888,greenapplebite8888,,mean while mktg jobs wanting 5 yrs exp and exp in mktg software that most dont use until 7 yrs in,5-12-2021,
76,Debbie,thetemptressofwaikiki,,lord i have seen what you've done for others,4-12-2021,
77,kayzanthia,kayzanthia,,job title,4-12-2021,
78,MohyCS,mohycs,,"this some bs cuz i have azure certs, passed the on-site rounds, and stuck at team matching fam. this a story about a boi named unlucky.",4-12-2021,
79,Laura Lee,icedcoff33,,omg lucky!!,30-11-2021,
80,Chisombili,biliamah,,Amen!!!!,24-11-2021,
81,a_noelle6,a_noelle_s,,Congratulations!!!,23-11-2021,
82,Be Inspired Always 🖤,bnicoleinspiringsouls,,Yes ma’am!!!!! 👏🏾,21-12-2021,
83,Adore_chels19,adore_chels19,,Congratulations 🎉🍾🎊🎈,21-12-2021,
84,Lexi B,lexy_bexy86,,congrats,13-12-2021,
85,Ama Ofosuhemaa,ofosuhemaaturkson,,Go girl 👸🏾,28-11-2021,
86,Fernando Aviv Lapusc,fernandoaviv,,This is a story about a girl named LUCKY 👍,8-1-2022,
87,Career Coach Leah,dream.career,,That’s hilarious and also - good job!! 🌟🌟🥳,2-1-2022,
88,Meenoo Rami,meenoo.rami,,Congratulations!!,21-12-2021,
89,user3285916502762,eevatoktok,,Congrats! I was hoping the company i applied at would do this instead of dragging the process over the holidays but nooo 😬,21-12-2021,
90,Just a Dad 2011,nightlead74,,it's a numbers thing,21-12-2021,
91,Dee,phillynavy2,,Congratulations 🥰🥰🥰🥰,21-12-2021,
92,jata1account2,jata1account2,,Congratulations!,18-12-2021,
93,Mary Ball,maryball2,,What is ur skin routine,3-12-2021,
94,Memma,memma.eng,,"Omg lol this happened to me, super luckyy 😂😂",11-12-2021,
95,@reeewindit🎤🎧💾💿🖊,reeewindit,,The accent 😏,7-12-2021,
96,Kenya,archivesofkenya,,"God favors you , lol",7-12-2021,
97,Leslie,lesliemeridaa,,Wow congratulations!,7-12-2021,
98,nunya,ihavenoasshole,,When the Google recruiter let me bypass the technical phone screen and go straight into the 5-day virtual technicals 😌,6-12-2021,
99,Deanne,abundancestudent,,congrats!,6-12-2021,
100,Bbbb,versace999_,,Where is the fee too from?,6-12-2021,
101,J Jayne,jayne0214,,Congratulations! I'm manifesting this right now. 🥰🥰🥺,5-12-2021,
102,user1426103151734,unicornpisces,,Congratulations 🥰,5-12-2021,
103,Bad Bánh Mì,badbanhmipr,,And that’s on CONGRATS!!!!! ❤️,4-12-2021,
104,ChantellM,chantel88882,,Congratulations!!!,4-12-2021,
105,Nae,naelyx,,Sometimes I messed up some interviews cause I’m so stressed 😭,7-12-2021,
106,Carmen Conway408,carmenconway0,,Awesome,7-12-2021,
107,Charmaine | IG:@lovee_charms,thetechbae,,This is how I felt scoring 0 on my coding section and still get offered the job 😭😭,23-11-2021,
108,Ty,tyd0lluhh,,"God said “I got you. For your diligence & preparation, it’s yours.” 😂",23-11-2021,
109,lolacjackson,lolacjackson,,Girl lemme see that resume,23-11-2021,
110,😮‍💨,codewithty,,Manifesting 🤞🏾,23-11-2021,
111,·ᴗ·,nan.nugu,,congrats!!! gonna pray hard so this can happen to me too 😂,23-11-2021,
112,Hosanna · Ersteller,thetechcornr,,This has been the case for both of my jobs at MS! I really thought I had to do tech interviews but each time I got away with it 😌 YT: Hosanna Hali 💕,22-11-2021,
113,Denise Darden,denisedarden9,,Blessings and Best Wishes👏🏾👏🏾👏🏾💯💯💯,22-11-2021,
114,Blonduos,_blonduos,,I’m just preparing to talk about my coding project for a job application 😂the only problem is i didn’t understand every piece of code i have in there,22-11-2021,
115,Shar,wisherbystarlight,,Manifesting this energy for myself 🔥🔥🔥,22-11-2021,
116,Ali,breadliver37,,Is this for an SDE position?,23-11-2021,
117,Sanest,augustbleu,,Teach me 🥰 PLEASE,21-12-2021,
118,Luis Pozo,luispozometz,,Congrats on this WIN the community is clapping for you. 🤩,23-11-2021,
119,mariaaaaaa,kosherinstantnoodles,,can anyone reccomend a good beginner programmer laptop,23-11-2021,
120,Alex,alex.ramos314,,I got an email rejection from Microsoft 😂,23-11-2021,
121,Hermance Eunice,hermanceeunice,,Claiming it,21-12-2021,
122,Hk,hannahkatee_,,manifesting,21-12-2021,
123,user021497,user021497000,,U deserved it then,5-12-2021,
124,Devin.tempest,devintempestg,,can you land your first internship at Microsoft as senior in college. Please reply,21-12-2021,
125,Livingabundantlyandblack,boujieandblack,,Praying for this luck,4-12-2021,
126,LNGU1203,lngu1203,,"More minorities need to be tech. No, I meant women",5-12-2021,
127,ace,ace83444,,wix that weave bro... yikes....,22-11-2021,
128,Kevin Durant burner,silentassasin_,,"Now that you got the job, you need a husband?",21-12-2021,
129,user8923527204463,chapatucodigo,,Stop the Cap 🧢. This never happens. There is Always a coding challenge for technical interview.,14-12-2021,
130,D'Nauzscha Nichols,modestinspiration,,Can you show what your resume looks like please,29-11-2021,
131,Miss S,sabakahmed,,@irsa.9,6-1-2022,
132,Lauren A,laurengrace013,,🙌,22-11-2021,
133,noway6661,noway6661,,🥰🥰🥰,7-12-2021,
134,And_says_,and_says_,,👏👏👏💛,23-11-2021,
135,AndriiCo,andriico,,🥇👍,22-11-2021,
136,🚀 🚀🚀 Coding Paths 🚀🚀🚀,onesirian,,😳,6-12-2021,
137,J,stronger.wiser,,🙌🏻,7-12-2021,
138,Bhishma,bhishib,,👏🏼👏🏼👏🏼👏🏼👏🏼,23-11-2021,
139,Samxfilms,samxfilms,,@rikuye8 😳😳,23-11-2021,
140,funestar,funestar,,"oooOoooh my god, CoOOOngratuLatiooons 😭😭😭😭😭",22-11-2021,
141,Vivian x,biggalvivi,,.,9-1-2022,
