,Comment Number (ID),Nickname,User @,Comment Text,Time,Likes
1,Louis.Msnr,louis.msnr,,"Lass mich raten, das Spiel von früher hieß Scratch... das nutzen heutzutage viele Lehrer im Informatik Unterricht",21-9-2021,62
2,Mikey-kun,xfozex,,Er erstellt ein Spiel um ein Spiel zu erstellen womit man ein Spiel programmieren kann womit man Spiele programmiert XD,29-8-2021,435
3,Mathias,rgb_mathias,,geil unser Lehrer gibt uns immer nur word aufgaben,29-8-2021,276
4,Henry,._.aishitemasu,,hat euer Lehrer euch Karel gezeigt?😂,29-8-2021,26
5,oli,olli205,,wir haben Scratch genutzt aber unsere Schule konnte sich keinen Informatik Lehrer leisten also musste ein ahnungsloser Mathe Lehrer den Job machen 😅,29-8-2021,42
6,Nosode1441,nosode1441,,Coole Idee kostet es Geld?,29-8-2021,49
7,facts,www.facts.tv,,"Minecraft Education edition?
Code.org?",29-8-2021,10
8,Rayan,rayan0._.0,,Robot karol war mies geil,29-8-2021,15
9,𝓢𝓱𝓮𝓻𝓸,itz.shero404,,Kann man es auf dem Handy spielen 😂,29-8-2021,5
10,Michael,michiiiiii69420,,Alle 10level durch. Lvl. 8 war das schwierigste.,29-8-2021,16
11,Just a piece of 💩,christian191010001,,Für Leute die noch Anfänger sind sucht mal nach https/tinyurl kara aber hab kein Plan wie es noch heißt ich kann mich nur noch daran errinern sorry,29-8-2021,7
12,kartoffel_brot,kartoffel_brot,,schlage ich in Informatik Unterricht vor,29-8-2021,12
13,AfoxDesignz,afoxdesignz,,Ist einfach eine Abwandlung von MyKara oder nicht?,29-8-2021,4
14,Acce,acce.in.the.hood,,Werde es mal austesten,29-8-2021,2
15,Ich bin Cool 😎,gamerboy_2007x,,Ist das kostenlos,29-8-2021,6
16,geosteps,geosteps,,Coole Idee 😁,29-8-2021,3
17,Keine Plan,__import__,,Welche Programmiersprache lernt man da,29-8-2021,2
18,Snykes 61,snykes61,,Unser spiel hieß scatch und scatch 2 und so Tinkercad,29-8-2021,6
19,femenjo,femenoj,,Gibt es doch schon mit diesen turtles,29-8-2021,4
20,MIXMUXMIX,mixmuxmix3,,Was hältst du von Karel.jar das ist auch so ein Spiel (kann man sich auf github herunterladen),29-8-2021,5
21,TheTrueD0n,thetrued0n,,ich lasse meine Schüler Raumschiffe durch das Weltall fliegen upgraden und Planeten besiedeln für rohstoffe,30-8-2021,0
22,Nick_luck,nick_luck2009,,Gute Idee,29-8-2021,4
23,Michael Meisinger,minimik71,,Find Scratch/2/3 netter um die Möglichkeiten zu zeigen. Blockly ist ähnlich.Hab auch Scratch mit Arduino Mal gesehen... wenn ich mich richtig erinnere,29-8-2021,1
24,SquidXT V,squidxtv,,Wir haben das mit Hamster gemacht aber ich fand’s nicht so gut,29-8-2021,2
25,ju_dev,dev.ju,,Geile Idee,29-8-2021,2
26,mf,max_foerster,,"Gibt auch ""Karel""",23-9-2021,0
27,IDANILIVE,idanilive119,,Richtig geiles game thx,1-9-2021,0
28,.,nix..xy,,Ist hal einfach karel mit einen neuen Design😂,30-8-2021,0
29,big-tasty-ohne-bacon,ee844,,er lacht und redet gleichzeitig,29-8-2021,0
30,No Ghost Club,xpymrfoxy,,Ich finde es Gut !,29-8-2021,0
31,cikplays25,cikplays25,,Meinst du Karel?,29-8-2021,0
32,rikkikono,rikkikoni,,geiles game habe es gerade durchgezockt hat mega bock gemacht,29-8-2021,0
33,Anthony,anthonyschley,,"Ist halt wie damals Karel, nur neuer😜",29-8-2021,0
34,AGE of EVIL,qualitativ_hochwertig,,Sowas ähnliches gibt es doch auch auf der Nintendo switch oder? So ein spiel wo man games erstellt,29-8-2021,0
35,Kuno,kunotaku25,,Das ist echt sehr cool :) Schaue es mir mal an wenn ich meinen PC fertig gebaut habe,29-8-2021,0
36,user207647036135,gewelltschelle,,Ist das nicht die Kopie von Karel,29-8-2021,0
37,winward,winwardbehrend357,,Gibt es dieses Spiel auch für iPhone und Android?!,29-8-2021,0
38,Tested,dicorb,,imagine jemand coded ein script wo das game zerstört wird [surprised]😂,29-8-2021,0
39,PlayGeek,playgeek25,,meinst du eos das erste programm,29-8-2021,0
40,Senpai,your3.senpa1,,Mies geil,29-8-2021,0
41,☠️,7bw53a4isr,,"nichts neues, gibt's schon lange mit dem selben Prinzip",29-8-2021,0
42,Imnotgerman,beeflot,,Meine schule benutzt scratch,29-8-2021,0
43,Lama,lamamaurus14,,nochjemand robot carol? ._.,29-8-2021,0
44,Manuel,lieberleo,,Das ist aber ne hammer Idee,29-8-2021,0
45,Moritz,moritz.knp,,Welche Sprache ?,29-8-2021,0
46,Maximilian,maxitmetallica,,"Kennst du Robot Karol? Ham wir in der 5ten immer ""gespielt"" 😂 Man muss halt ""coden"" dass der roboter z.b ein gewisses muster legt, sobald man los drü",29-8-2021,0
47,Gudrun,gudrun005,,I wünsche dia 🦋 an schönen Abend und für später a guads Nächtle mit süßen Träumen 💐💐💖💐💐💯💯💙,29-8-2021,0
48,Linus Schweighardt,linus_sgh,,Wie heißt das spiel,29-8-2021,0
49,CT to the Qne,jack_99_9,,welche Programmiersprachen werden den Schülern an der Schule beigebracht,29-8-2021,0
50,BNY17,bny17mex,,Erinnert mich an dieses Hamster (keine Ahnung mehr wie es hieß) Coden aus meiner Schulzeit 😅,29-8-2021,0
51,nkruenils,nkruenils,,Robot Karol einfach beste 😂,29-8-2021,0
52,maher15jklx,maher15jklx,,Gibt es schon das Spiel heißt karel,29-8-2021,0
53,Hakanthefake,hakan.exe.404,,Waruk öffnest du deinen Mund soweit wenn du redest 😂,29-8-2021,0
54,quit,airplanemode.max,,"hatte 2 einsen in so einem Baukasten, weil ich immer ein Mainmenu und die anderen nicht wussten wie das geht",29-8-2021,0
55,Klex,im.klex,,oha coole idee,29-8-2021,0
56,pom_and_chi,pomeranian_and_chihuahua,,"Na Mensch, nicht schlecht 👍🏻",29-8-2021,0
57,jxstLxcas,jxstlxcas,,erster,29-8-2021,0
58,YEET,gleltgel,,einfach mit if oder input Abfrage und dann dat olle Teil mit wasd steuern lol,29-8-2021,0
59,user7167421348017,user7167421348017,,"hast du weitere gute empfehlungen von spielen, um programmieren zu lernen bzw, wie man durch kleine übungen gut vorankommt",29-1-2022,0
60,KEKS,endergamer_46,,Wie heißt die Webseite ?,22-9-2021,0
61,DuHuan,duhuan.de,,"kennt jemand kara, den Marienkäfer 🐞? Zum Programmieren lernen?",21-9-2021,0
62,Emad,iced070,,Meinst du labby?,21-9-2021,0
63,NRW,yusuf.aus.adana,,lernen Grade Tigerpython,21-9-2021,0
64,Inosuke_,qunyitac,,Das spiel ist mega👍,21-9-2021,0
65,statemc_pd,statemc_pd,,Das Spiel hätte ich in der ersten Stunde meines Informatik Unterricht,19-9-2021,0
66,DawKun_,dawkun_,,ich habe ne frage wenn ich dss alles lernen würde was im dem spiel vorkommt dan könnte ich auch spiele erstellen können oder breuchte ich eine ..,11-9-2021,0
67,daRealTimJongUn,darealtimjongun,,"es gibt sowas ähnliches schon, heißt codingame",10-9-2021,0
68,user1465976013636,g0stwyvrex,,Geht es auch mit C#?,8-9-2021,0
69,justskey,justskey,,bist du Wannabe?,31-8-2021,0
70,FreakyBeatz,sebastianschultz47,,bild mich aus !!!,31-8-2021,0
71,Derdaneben,derdanebeneben,,"Gerüchten zu Folge hat jemand mit Excel Dame, Tetris und Pacman gespielt ^^",31-8-2021,0
72,Dejan,dejan_s_,,Oh wow das ist eine wirklich sehr gute Idee,31-8-2021,0
73,HappyRettich,happyrettich,,Welche Programmiersprache lernt man da?,31-8-2021,0
74,sille,sille_170506,,da kommen meine lehrer mit scratch😂,31-8-2021,0
75,wieudbejdb,738dhdjshdhd,,Junge Robot Karol beste 😂😂😂,31-8-2021,0
76,manu,manu112114,,wie heißt das spiel,30-8-2021,0
77,Lemon Shock,lemons911,,Kara (Marienkäfer Spiel für endliche Automaten) und SQL Island waren schon ganz cool in der Schule.,30-8-2021,0
78,simei07,0simei7,,wer kennts noch robot karol vorwärts rückwärts naja des bringt einem des logische denken bei,30-8-2021,0
79,Tim_2903_,tim_2903_,,Ich kann Karel von Fredoverflow empfehlen.,30-8-2021,0
80,rikkikono,rikkikoni,,hey danke für das game also website klappen die befehle bei jedem programm wofür man coden muss?,30-8-2021,0
81,laurens.nev,laurens.nev,,"Hab alle level ohne probleme gemeistert, aber bei level 8 hatte ich so probleme dass ich es übersprungen habe",30-8-2021,0
82,Captain,live_story0,,In der Schule tuen wir Grafisch programmieren,30-8-2021,0
83,Kevin Seidel,kevinseidel1997,,Danke da im September mein technisches Fachabitur anfängt,30-8-2021,0
84,syanbuu,syanbuu,,mach mal bitte ein survival game online bitttteeeee,30-8-2021,0
85,nico.dior,nico.dior,,hey ich bin derzeit in der 9 Klasse und möchte bei Amazon als it Manager arbeiten hast du Tipps für mich,30-8-2021,0
86,IfCondition,nfifcondition,,eine Pseudoprogrammier sprache ist mega gut fur die logik hatte ich selber nicht aber denke mal ist ei mega anfang um in die materie zu kommen,30-8-2021,0
87,Jasir,jdelihasani_7,,Es gibt doch von apple für ipads die app swift damit hab ich programieren gelernt,30-8-2021,0
88,M.,rlymtll,,✨scratch✨ früher,30-8-2021,0
89,TheSenatic,thesenatic,,"Super, danke für die Infos und Tipps, habe mit python angefangen und durch dich komme ich gut zurecht soweit 😁",30-8-2021,0
90,Fynocx,fynocx,,Karel 2,30-8-2021,0
91,ByFreesly,by.freesly,,dachte Scratch 😂😂😂😂,29-8-2021,0
92,Dr. Mauldasch,drmauldasch,,kennt wer noch scretch?,29-8-2021,0
93,Waldii,waldii__,,Hab sowas ähnliches mal in minecraft gespielt (minecraft bedrock) nur das man stat befele Blöcke platzierte die verschiedenen Symbole haben,29-8-2021,0
94,Noah,noah.zl,,Danke ich versuch schon die ganze zeit programmieren zu lernen hab such damals dein Video mit den Karal Bot oder wie das heißt geseheb,29-8-2021,0
95,SUUKAAN,suukaan,,coole Idee,29-8-2021,0
96,iMorphiuM.Original,imorphium.original,,Wie viel kostet eure Schule ?,29-8-2021,0
97,Mailllork,mailllork,,ich werde das auf jeden Fall spielen da ich Mal auch gerne programmieren will,29-8-2021,0
98,Marvin,snd.marvin,,oder Karel,29-8-2021,0
99,🇽🇰🇧🇦,diamant_isn,,der hört sich bisschen am Anfang an wie @keinpart2,29-8-2021,0
100,chris 🥷,.nyqu,,Erinnert mich an karel,29-8-2021,0
101,107fanboy,107fanboy,,Kostet das? 😂,29-8-2021,0
102,Der zocker,der_zocker_11_,,Ehrenmann,29-8-2021,0
103,David,d0dge_demon,,"Niki, das haben wir verwendet",29-8-2021,0
104,Chargeporn,chargeporn,,Move? Move - wohin? 😳,29-8-2021,0
105,sempais.welt,sempai224,,Die idee dahinter ist ja voll geil,29-8-2021,0
106,bot 766,spotty016,,es ist einfach das gleiche wie java Hamster,29-8-2021,0
107,Avocado1506,avocado1506,,Wie heißt das spiel,29-8-2021,0
108,Jonas,wallnussjonas,,Für welche Programmiersprache ist das,29-8-2021,0
109,galaxyroh,galaxyroh_an,,hast du auch die sharkoon skiller sgk 30?,29-8-2021,0
110,.,sun.rises__,,Hab das Spiel getestet und bei lvl 8 kein Bock mehr gehabt 😂,29-8-2021,0
111,Yusuf,invisible_phantom,,Welche programmier sprache lernt man,29-8-2021,0
112,|__|__|,__reaper_,,Cool das teste ich aus 👍👍💪,29-8-2021,0
113,Mxrc_703,mxrc_703,,Wie habt ihr euch das programmieren beigebracht ? Bücher ? YouTube ?,29-8-2021,0
114,Luis,luis_nbg,,Glaube du meinst Karel oder weil es is gleich aufgebaut,29-8-2021,0
115,meth enjoyer,meth_enjoyer_69,,hahaha wir hatten robot karol,29-8-2021,0
116,DasDirt,dasdirt,,roboter carlo xd,2-9-2021,0
117,Eric,fotzeneckart129,,okay let's go,31-8-2021,0
118,diamking75,diamking69,,phyton kara for ever 😂😂,29-8-2021,0
119,🥶🥶🥶,zoorted1,,cooles game,29-8-2021,0
120,Petsim x hugecat,petsimx_hugecatx,,fy,21-9-2021,0
121,Kreativername,kreativername14,,Minecraft Education 🤝,31-8-2021,0
122,Flo_tur,flo_tur,,Hatte scratch 😂,30-8-2021,0
123,Eric Griesel,eric_van_de_griesel,,Hamstersimulator (Java),29-8-2021,0
124,Fazeakir,akir75,,scratch try it,29-8-2021,0
125,📽Lucas📸🎞,photographer.forever,,Name?,29-8-2021,0
126,sorata,sorato._._,,hamstersimulator remake😂,29-8-2021,0
127,kami,kamiyadori0,,codingame gibt's schon paar sehr gute Jahre und deren Plattform ist genial. Da braucht es keine weiteren,30-8-2021,0
128,Dennis,jello.schaaf,,Genau so geil wie eine Blockflöte wenn man ein Instrument lernen will diese Spiele.,30-8-2021,0
129,Freakycrayne,mattze1993,,bin absoluter laie habe davon garkeine Ahnung aber das schau ich mir an,29-8-2021,0
130,lukass,timelesslukas,,"Ach Bruder, ich kann nichtmal ein Word Dokument in ein PDF umwandeln😂",29-8-2021,0
131,Herr Programmierer · Ersteller,herr_programmierer,,Tutorial zum Spiel auf meinem YT Kanal! ;),29-8-2021,17
132,krypto5,hen_nin_go,,per Handy zu zocken?,29-8-2021,0
133,Aschere13,aschere13,,Wo ist der Unterschied zum Hamster? Oo Warum das Rad neuerfinden?,29-8-2021,0
134,Christian,da_grisee,,hat wer hier den Link?,31-8-2021,0
135,...,_j_b_206,,😏 ⃢Wenn dir dieser Kommentar gefallen hat verschiebt sich das Emoji,29-8-2021,0
136,Oliver ( Olli),olli0101,,Habe Anfang der 90er immer die Leben im Maschinencode gesucht und auf FF gesetzt^^ (auf KC85 DDR Heimcomputer),30-8-2021,0
137,30Leafs,30leafs,,„Karel The Robot“ is a simple teaching environment for imperative programming basics.,30-8-2021,0
138,0_anime.__.edits_0,0_anime.__.edits_0,,Kara lul😂,29-8-2021,0
139,X9_MaTtIZ,x9_mattiz,,@dampfiz @lukischneidi,22-9-2021,0
140,Milan,milan__20073,,@tio9821,8-9-2021,0
141,Murgtal-Mädchen👧🏼1996,murgtalmaedchen1996,,😁😁😁,30-8-2021,0
142,Efehan3634,_efehan3634,,@wildin.mete @ebudragon,30-8-2021,1
143,Was machst du hier?,n0theree,,@pelingaming,29-8-2021,1
144,BLACK,ray.time,,@clappy_297,23-9-2021,0
145,vvsensor,vvsensor,,@imsenox,22-9-2021,0
146,Shasta Sadryon,gekochtes_ei,,@hoschi2705,21-9-2021,0
147,ALP_Kyn,alp_kyn,,@addi2901,29-8-2021,0
148,LordVictor_HD,lordvictor_hd,,@shiloxx,29-8-2021,0
149,Shasta Sadryon,gekochtes_ei,,@hoschi2705,23-10-2021,0
150,Daniel,daniel2104.18,,@tirito__,31-8-2021,0
151,Nihad Mustafa 19,moustafa.n,,@rex_gmz22,30-8-2021,0
152,Chaos Holiday,chaosholiday,,@hardware_benny0,29-8-2021,0
153,playz,playzrl1,,@Jaron ϟ,29-8-2021,1
