,Comment Number (ID),Nickname,User @,Comment Text,Time,Likes
1,SquidXT V,squidxtv,,HTML ✨PrOgrAmMieReN✨,19-9-2021,6170
2,Adrian,adrianplayin,,Nach wie viel Wochen bin ich in der Lage GTA 6 mit zu programmieren,14-11-2021,1468
3,thelionsleeptonightt,thelionsleeptonightt,,dikka ich hatte 3 jahre informatik und kann nichtmal eine website programmieren und dann soll man des nach einem tag können ayo,7-10-2021,774
4,user1720369301960,wernerhaff,,HTML ist keine Programmiersprache.,19-9-2021,2588
5,ToastBoy,_toastboy_,,"Nope, sorry aber da bekommt man eine komplett falschen eindruck. Beginnt mit Python oder Java und lernt die wichtigen grundkonzepte vom OOP und FP.",19-9-2021,220
6,Spieleentwickler,coding.ceo,,durch HTML lernt man nicht programmieren. Das ist ein ganz anderes Prinzip und hat keine Logik....,19-9-2021,241
7,kushtrim.mjk,kushtrim.mjk,,"Man sollte erstmal mit C anfangen, um überhaupt die verschiedenen Dinge zu verstehen. Danach kann man zu höheren Programmiersprachen wechseln.",19-9-2021,176
8,MrOverload,mr.overloadedd,,"Ich so, warte ich muss damit anfangen? Oh shit nach 9 jahren coden einfach vergessen🥴",19-9-2021,325
9,⛓️🥀Ryu Horror🥀 ⛓️,ryu_horror,,"""Seite programmieren""... Junge junge junge.",9-10-2021,7
10,Ardy_BBM,ardy_bbm,,Habe mit C# angefangen und finde es einfacher als Javascript. (ja ich programmiere Spiele auf unity),19-9-2021,12
11,Daniel,daniel.gr83,,Wer mein HTML hat was mit Programmierung zu tun der hat sein Leben nicht mehr im Griff,19-9-2021,690
12,Anosk,anosk.hamburg,,kannst du mein Drucker reparieren?,10-10-2021,14
13,M,deineehrewurdegenimmt,,"ahhhhhhhhhhhh HTML und ""programmieren"" ahhhhhhhh",19-9-2021,17
14,Nik Rohde,nikrohde,,Squarespace und fertig ist die Seite.,19-9-2021,78
15,Erwin Raupach,erwin.raupach,,ich empfehle python,19-9-2021,72
16,unusedaccount4134234,unusedaccount4134234,,"ich finde man kann mit Java sehr gut anfangen ^^
wird viel verwendet, denke nicht das die sprache mal so richtig abfällt, ist simpel (1)",8-10-2021,9
17,Nawal Heart,nawaldesign,,"Wie keiner das Video zu Ende gesehen hat und direkt die ""hTmL iSt kEiN pRoGrAmMiErEn"" Keule auspackt 😂😂😂",19-9-2021,57
18,Micha,kuechenpapst,,Mit Python kann man auch recht gut anfangen finde ich. fange grade mit Python an und man hat auch schnell Erfolgs Erlebnisse 💪🤣.,19-9-2021,100
19,Brotprofi Ricardo Fischer,brotprofi,,Hab vor 10 Jahren mal ne Website gebaut mit html. Kurz vor Fertigstellung ist mir nen Fehler passiert wo’s mir die ganz Seite nicht mehr angezeigt hat,10-10-2021,31
20,Jan,jan7172_,,"Ich empfehle Java, C# und Python. Anfangen sollte man mit Java oder C#. Ich persönlich finde C# einfacher.",19-9-2021,16
21,AmrikanSussyBkaLPHD91142088Boy,hartzerflex,,Ich lerne css auf der Berufsschule,25-9-2021,9
22,💚 𝚁𝚊𝚏𝚊𝚎𝚕 💚,rafaeloxmc,,HAT ER PROGRAMMIEREN GESAGT? 😡,25-9-2021,11
23,ThiasJ,thiasj,,"Auch wenn sich viele lustig machen ist HTML der beste Einstieg. Du brauchst nur einen Browser und Notepad. Bei Python, Java, C# etc brauchst du ...",19-9-2021,11
24,Tom Kreissl,tomkreissl,,Das geht mit WordPress und Co deutlich schneller 😅,19-9-2021,29
25,nicht.anutsch,nicht.anutsch,,Aber wie soll man sich das selbst bei bringen 😂,19-9-2021,33
26,162,user01838938162,,Als ich habe mit Java angefangen und dan mit c++,19-9-2021,12
27,₸₤₳₥Ɽ¤₥₳₦™,roman19040,,das stimmt nicht ganz😂,19-9-2021,8
28,Sven,sven_trk,,Und nach 5 jahren biste Game Dev und schreibst eigene Apis und Neural Network from scratch,19-9-2021,9
29,Fabi,fabi_2734,,Ich der auf entspannt mit C# angefangen hat lel,19-9-2021,7
30,just my tiktok acc,justmytiktokacc,,"Hey, es gibt ja viele coding „academys“. Codecadamy, udemy, edX, Udacity, etc. Hast du da vielleicht Empfehlungen oder hat die Community da Erfahrung?",19-9-2021,6
31,Jana Müller,nani.bananix,,Du hast in dem ganzen Video nur 2 mal geblinzelt 😳,14-10-2021,4
32,been sra,been_sra,,Wie und wo kann man am besten programmieren lernen,19-9-2021,5
33,Qsengseinemum14,qsengseinemum14,,ich bringe mir das Programmieren selber bei in dem ich einfach YouTube Videos angucke und Google,9-10-2021,4
34,Marlon,benutzername629,,wir haben seit ungefähr 4 Monaten HTML als Thema im Informatik Unterricht und wir können nur das erste 😂,19-9-2021,5
35,Arando Mone,crackoma.hildegardt,,HTML IST NICHT PROGRAMMIEREN,22-9-2021,3
36,Jojo,chaotenjo,,Übertreib. Nach 1er Woche noch nicht ganz meine erste seite fertig!,20-9-2021,2
37,Daniel Zaiser,sweetonionsi,,"Kommentare einfach nur L 😒 es geht hier darum zu lernen Webseiten zu entwickeln und der bre hat einfach nur Recht, so ist es 😌",20-9-2021,3
38,Mario Mario,smario91,,Da hast du dich mit dem letzten Satz aber noch so gerade gerettet.,19-9-2021,3
39,JP,jp_brezel,,Früher oder später brauch man eh fast immer html wenn man nicht grade consolen Anwendung schreiben will 😁,19-9-2021,2
40,Flash,flash3291,,"No Shit das ist auch das was du in der Berufsschule machen würdest, wenn man das als job macht",21-10-2021,1
41,Kiki Pehar,kixxp,,"Habe erst 2-3 Jahre Erfahrung, aber die beste Erfahrung ist einfach Ideen/Konzepte praktisch umzusetzen. Aus Fehlern lernt man am Meisten. Just do it!",14-10-2021,3
42,⚡️,akazuki_obito,,@seseeeeeeeeeee html könn wir ja schon,4-10-2021,3
43,Alina,al.iina,,@liya.exe 1 Jahr Informatik und kann nur das erste,19-9-2021,1
44,Dinervc,dinervc,,"Kannst du bitte noch ein Java Tutorial machen? (YouTube) Eventuell Part 2? Wäre echt sehr schön, danke im Voraus (Auch wenn du‘s nicht machst)👍",19-9-2021,1
45,qubo,qubozoa,,Ich geh jetzt erstmal meine Kaffeemaschine programmieren...😂,18-11-2021,2
46,Domi,gockljockl17,,Ich weiß ja noch nichtamtliches wie man dieses proamakolieren schreibt 😂,25-11-2021,1
47,Goosie404,goosie404,,Ich finde man sollte am anfang auch wenn es folter ist die grundlagen wie c lernen,22-11-2021,1
48,Daniel,dan.sat,,"Die Tatsache, dass Webdesigner mit Programmierer verwechselt werden….",25-11-2021,2
49,Hehe,hundekackemitsauce,,@anna_xx34 @Sophie wir haben für das erste hah Jahr gebraucht,19-10-2021,3
50,Azra 🫶,4zrae,,@_tuba_1611_ junge das können wir dank sowi hahah,14-11-2021,1
51,.,langdalf,,sieht eher nach Design- als nach Programmierskills aus,19-9-2021,1
52,Benard Bakija,justbenzen_,,"Niemand:
Ich: Scratch",25-11-2021,1
53,_faek,_faek,,python ist wirklich gut für den anfang,19-9-2021,3
54,Efe,efecz05,,@florian_a_b kannst du sowas,19-9-2021,1
55,999,6a6yyyy,,Bro hatte 4 Jahre Informatik und kann immer noch nichts,19-9-2021,1
56,Pat,singingman,,Webseiten ist die unterste Schublade des Programmierens...verschwendet eure Zeit nicht 😅,15-12-2021,1
57,👑🔥💎 ResGG 💎🔥👑,twtv_resgg,,Nice oder man nutzt Wordpress und klickt es sich zusammen 😅,14-12-2021,1
58,👁️👄👁️,mxchelle.kl,,hab das seid 1 1/2 Jahren...warum kann ich nichts?👁️👄👁️,6-12-2021,1
59,ilayda,ilayda.tc,,Okay ich fange jetzt an!😂,1-12-2021,1
60,Tik Toker,imsimplyarian,,Kann mir wer erklären wie man das programmieren lernen kann also Webseiten zum lernen etc. da ich mal anfangen wollte 😁,30-11-2021,1
61,ArchmageXO,benitohnx,,Ich kann mir keine Sprachen Wörter merken ...Aber Mathe gut. Sollte ichs versuchen ? Nein oder ?,13-10-2021,1
62,Lea Grobel,letslemone,,"✨Um schnell Autofahren zu können joggt Mal Ewigkeiten bis ihr Ausdauer habt, ist zwar kein Autofahren aber als Fahranfänger sollte dir das egal sein✨",7-10-2021,1
63,🐨,verspeisekinder,,Oder ich mach’s einfach mit WordPress und ein- zwei guten Plugins,7-10-2021,1
64,Davides,brateee7,,@sfrankyy3 so kannst du para machen nebenbei 70-100€ pro Website,4-10-2021,1
65,Dbz Fan,anotheranimedrawerxd,,Man programmiert html net man schreibt es! (Das erste was wir gelernt haben wo uns der Lehrer eine 5 gibt wenn wir es anders sagen,28-9-2021,1
66,Ja,blaablaaabfi,,Kennt sich jemand aus mit der vba Sprache für excel?,19-9-2021,1
67,Strohhalm_Katze,strohhalm_katze,,Ich der mit Java angefangen hat 😐,19-9-2021,1
68,Armas,lemas03_twitch,,Wenn suarez dir erklärt wie man programiert,25-9-2021,1
69,denis____777,denis_20074,,Wie fange ich am besten an ?,29-11-2021,1
70,A.H,user66600395,,Und wo lernt man das ?,16-11-2021,1
71,positive vibes ✨,amazemeno,,@hayvanburako warum kommt das bek mir😂😂😂😂,21-10-2021,1
72,S,souha11l,,Und wo kann man anfangen ?,19-9-2021,1
73,Derya,derya.ckm,,@t.ugcekx ok ok auf jeden Fall,30-11-2021,1
74,TheDoor_de,svens82,,Ich nicht 😂,14-10-2021,1
75,Tobias,tobias_ott,,@__luisee._ kann ich,7-10-2021,1
76,Max,omgmehmetpro,,@achselbehaarung welche lernst du,5-10-2021,1
77,Alex,alex_.abi,,Ich kann aber nicht Jetzt anfangen damit 🥲,19-9-2021,2
78,The Baus,thebauz,,was braucht man eigentlich zum programmieren? reicht ein einfacher Laptop?,19-9-2021,1
79,crydex000,crydex000,,ist python nicht einfacher? @Herr Programmierer,19-9-2021,1
80,Gandalf DeGrey,gandalfdegrey1,,"Ist das denn nicht von Intelligenz und Talent abhängig, wie schnell man gewisse Dinge beherscht?",19-9-2021,1
81,Maxim,maxim_dirtyfree,,danke für dein Video auf YouTube über html ohne dich nicht mal html gelernt und das ist so leicht und macht sehr spaß danke😌,18-4-2022,0
82,justin,jxstin361_2,,Fange grade mit LUA an,31-12-2021,0
83,Groboulp,mikaschmitz2,,Ich hab dein 58 min Video auf YouTube gesehen aber bei mir ist anstatt das Bild nur das Bild Symbol woran kann das liegen ?,26-12-2021,0
84,Piccopacco Redi,piccopaccoredi,,kann ich dann genauso gut gucken wie du,18-12-2021,0
85,Nuni,nuni_uwu,,"und ich mach das seit nem halben Jahr an der Schule, und bin soweit, wie manche dort wohl nach einer Woche sein sollen :)",17-12-2021,0
86,theRock der allerchte,therockderallerechte,,Python ist soo geil zum programmieren,16-12-2021,0
87,Dome OJ,domeoj,,"wieviele Wochen brauchst du zum bügeln von Hemden ?? frag für nen Freund.
@realstenz",16-12-2021,0
88,Lionheard,lionh3ard,,oder man ist wie ich und rafft nach 1 jahr immernoch nix,16-12-2021,0
89,Searnewa,ruuaaaaaa,,Das ist einfach der bruder von diesem anime typen,16-12-2021,0
90,Silberglanz,silberglanz___,,haben in der Schule programmieren bekommen nix auf die Reihe 😑,15-12-2021,0
91,grd_serd,grd_serd,,Ich kann paskal,15-12-2021,0
92,du Hurensohn,userns04avi3gg,,Und wie hostet man die dann,15-12-2021,0
93,user6586807022387,mustermann_xyz,,Hatte das 1 jahr in der schule und konnte nicht mal den Titel einer Seite festlegen. Also soviel zu nach einer Woche…,15-12-2021,0
94,gigi,gigsbricks,,Wann kann man Bankkonten programmieren?,15-12-2021,0
95,Yugi,yugi_gaming_yt,,Und dann kommt js,14-12-2021,0
96,Cinemafan,doc_who13,,"Ja Ja, jeder zweite Student entwickelt seine eigene Speisekartensoftware 🥱🥱🥱🥱✌",14-12-2021,0
97,Oguz,oguz.on,,Hab vor paar tagen mit c# angefangen c# ist einer der besten sprachen für Anfänger,14-12-2021,0
98,Snowflake,snowflake0110,,Hatten das letztes Jahr in der schule und mussten dann auch selber eine Seite erstellen und da haben wir einiges gelernt,14-12-2021,0
99,Thomas Wöllner,thomas19710,,Und wann kann ich Satelliten zu übernehmen 😏😏,14-12-2021,0
100,Klaus Bärbel,nielsiop,,Kragenstäbchen vergessen? So würde ich nicht mal Brötchen holen gehen,13-12-2021,0
101,Sebastian Drath,sebxxtian.dxh,,"also für das HTML grundgerüst habe ich ganze 10 Minuten gebrauch, dass dauert keinen Tag",13-12-2021,0
102,Johannes,fkjh14,,c++ ist das beste genau wie c,13-12-2021,0
103,user793810,user793810241,,HTML und CSS nennt man nicht programmieren.,13-12-2021,0
104,FΛBIΛП,fabianmeetsworld,,Und nach wie vielen Wochen bin ich in Java und C# dann wieder positiv?,13-12-2021,0
105,Daj ba,dajba7,,"Leute, es ist wie im Fußball… nur die allerbesten können davon leben. Die anderen hören irgendwann einfach still auf. Traurig aber wahr",13-12-2021,0
106,ತ_ʖತ,vamoz_,,Java Skript ist für mich die einfachste,13-12-2021,0
107,Dr.Alcubierre,rainbowrecruit,,Mach grade Java 😅,13-12-2021,0
108,Road to Stream Key,boculum,,Was ist mit Python find ich besser für anfänger,13-12-2021,0
109,Love edits,.yuki.edits,,Finde Python besser,12-12-2021,0
110,ok,rnrdom_,,Was ist mit Java?,12-12-2021,0
111,Boots,boots.anime,,Und wo lern ich das,12-12-2021,0
112,Lufarius_,lufarius_,,"Also ich persönlich nicht, denn ich bin übelst inkompetent",12-12-2021,0
113,NilsS,beerdrum_antifake,,Eine Woche durchgestartet und dann monatelang an einer echten Programmiersprache zerschellen.🥺,10-12-2021,0
114,SiTu,situ_music,,"Anleitung zu ungenau, hab ausversehen meinen Desktop gelöscht",10-12-2021,0
115,user2802811073627,alfawolf835,,Ja aber wo gibt man die programmierschrift ein? Ich finds einfach nicht raus,10-12-2021,0
116,00xx00xx0010011011001,000111lll,,Hab In Editor schon expirimentiert auch schon mit java,9-12-2021,0
117,Nico,nico_n06,,was ist mit python,9-12-2021,0
118,im dumb,julian_the_dumbass,,Was für nach 3 Wochen hatte das Thema 3 Monate und kann das nicht,8-12-2021,0
119,M7 SAMRA,m7samra,,sie ist got,7-12-2021,0
120,helmut dunkelmut,ch1ngch0ng_,,auf einmal alle wieder programmier genies,7-12-2021,0
121,Paul,pauldersticher,,Meinung zu Javascript ?,6-12-2021,0
122,Laurin,giorno.giovanna____,,Wir haben in höchstens 18 schul Stunden ein Videospiel programmiert ( Pong ),6-12-2021,0
123,Push my fans,fortnitememesdeu,,"Sorry du pro, brauche n Monat für die erste Seite da",5-12-2021,0
124,Leon_wbrrng,leon_wbrrng,,Schule sagt Java,3-12-2021,0
125,mxresa,maresa.kl,,und wir arbeiten in der Schule mit BlueJ,2-12-2021,0
126,Onkel Schneebesen,onkel_schneebesen,,HTML haben wir in der Schule gelernt,1-12-2021,0
127,pumper_pumba,pumper_pumba,,kennt hier jemand sich aus um spiele zu erstellen und zu programmieren?bräuchte einen Partner dazu,1-12-2021,0
128,Z,jeffekrelet,,1000 ter kommi hahaha,1-12-2021,0
129,Twickers_,twickers_,,"anscheinend hat da wer nicht so wirklich viel Ahnung vom ""Programmieren"" sage ich als systemintegrator 😂 ich sage nur c+++ oder Java etc",1-12-2021,0
130,Simon Heck,simmerll,,Aber nur wenn man html und css lernt und nicht wenn man c# etc lernt,30-11-2021,0
131,Dead_.BOT,dead_.bot,,Also ich empfehle 1. Phyton 2. Js 3. ✨HTML✨ 4. CSS usw was meinst du oder ihr?,30-11-2021,0
132,einfach.da2,einfach.da2,,C# mit Abstand die beste Programmier Sprache vor allem in Anwendungsentwicklung oder auch Modding,30-11-2021,0
133,Gïñesツ,gines912,,Digga ich hab gestern spontan damit angefangen aber hab mich dann gelangweilt. Und ich hab mir genau dein jdk tutorial ausgesucht und heute sehe ich 1,30-11-2021,0
134,f24,f42f42,,Er sagt doch sogar dass es keine Programmiersprache ist. schaut euch doch einfach das video von vorne bis hinten an,30-11-2021,0
135,Tobias Wahl,taurinkoffein,,phyton oder R + fit in Statistik und du bist ready.,30-11-2021,0
136,Unolinay,unolinay2020,,ah ich glaub auch,30-11-2021,0
137,Vivi,vvxnnx,,Warum schreibe ich dann immer Unterkurse 😭,30-11-2021,0
138,Cedi,cediisgaming,,Gut das du erwähnt hast das html kein programmieren ist,30-11-2021,0
139,waldybabsy,waldybabsy,,3 Wochen. Super Typ. Glückwunsch.,30-11-2021,0
140,AD_Beatz,ad_beatz,,"Mein Lieber, bist du dir wirklich sicher das HTML und CSS Programmiersprachen sind???😅",30-11-2021,0
141,Scharre✅,scharre89,,"Wie lange dauert es, bis ich mich in die kassensysteme von Supermärkten hacken kann ?",30-11-2021,0
142,Panagiotis Komitis,pk2000.21,,Nach 1 Jahr bist du mark zuckerberg 😂😂,29-11-2021,0
143,Akame,chinoakaime,,ich die 2 Jahre IT Gymnasium macht und nichts kann,29-11-2021,0
144,iamKeno,iamkeno,,Anleitung zu ungenau,29-11-2021,0
145,L.A,laffm1,,oder shopify👍,29-11-2021,0
146,Danny,dan.bo94,,Ich würde mit einer Programmiersprache anfangen. HTML vermittelt nicht die Logik und Eigenschaften von Programmiersprachen.,29-11-2021,0
147,diychannel,diychannel783,,Die Zeit Angaben würde ich mit 8std pro Tag anrechnen,29-11-2021,0
148,Kerim Dinc,kerim.68_,,@ismail.yz06 ich gucke mir grade software engineering an und dsnn wird mir sowas angezeigt,28-11-2021,0
149,dailydoselove,dailydoselove,,Ich fang morgen an. Brauch es sowieso für Mediengestalter Ausbildung also Website-Gestaltung,28-11-2021,0
150,Max Hainz,ma.x.h,,ich finde je übersichtlicher die Seite ist um so besser also 2 am besten meiner Meinung,28-11-2021,0
151,Br0kx,br0kx,,Und C#?,27-11-2021,0
152,kizxro,kizxro,,Und easy oder nicht ?,27-11-2021,0
153,MAKIZ,makiz59,,"html, css & js reicht für websites in einer Woche",27-11-2021,0
154,Weisheiten mit Männer,weisheiten.mit.mmoneyboy,,Nö fang an mit Python und c++,27-11-2021,0
155,PhonixWatch,phonixwatch,,Würde ich niemandem empfehlen,26-11-2021,0
156,Mohamad AL-Hakim,seo_pictures_de,,java/php rest ist für Anfänger 😁😁,20-11-2021,0
157,planlos3,planlos3,,Swift ist auch recht gut für den einstig und man hat auch recht gute Erfolge,18-11-2021,0
158,Gutmensch007,gutmensch007,,der Ali kennt sich aus😳😳,17-11-2021,0
159,Tire42,tishuv,,Kann euch Python empfehlen,17-11-2021,0
160,ahmed123gshaj,cangshaj,,Ich brauche für Java 😭 ich komme damit nicht klar wie soll ich machen,16-11-2021,0
161,blubblub,cino2322,,sorry aber so einfach ist das nicht mit Website programmiere . Es entstehen SEHR VIELE Sicherheitslücken angefangen mit crosssitescripting attacks.,16-11-2021,0
162,!.Morten,.morten0,,Digga ich will Java skripts schreiben können und nicht irgendwelche Websites designen,16-11-2021,0
163,user207483957284,ichbinmanuelsen,,Wieso lachst du ständig ?,15-11-2021,0
164,Loading...,loadingassets,,ich kann schon lua Css und java ist easy zu lernen man braucht nur ein bisschen zeit,15-11-2021,0
165,irgendeintyp(nothamim),aufgarkeinenfallriham,,lern grad java,15-11-2021,0
166,Robby,imperatorien,,C++ wäre eine gute Programmiersprache wenn man mit Programmierung anfangen möchte,14-11-2021,0
167,Angobard,angobard,,Ja aber wie fängt man an?,14-11-2021,0
168,Deine mum,jj_kkk.07,,Bitte lernt aber auch user interface und experience design dazu damit die Seiten wenigstens auch gut aussehen 😂,14-11-2021,0
169,user3543470283290,xxxannanoemixxx,,Kein Bock bin zu faul,14-11-2021,0
170,Holger,holger164,,"Was hat html mit programmieren zu tun, oder meinst du JavaScript?",14-11-2021,0
171,ⵚⵄⵕⵄⵃ,sarahcdli,,@Ghazal Sh HAHAHAHA LIES MAL DIE KOMMENTARE,14-11-2021,0
172,guru stu,patrickstuckenber,,warum spricht er es wie koden aus 😏,14-11-2021,0
173,Waldemar Metel,waldemarmetel,,"Was ist mit Scratch, wird jetzt sogar in den Schulen benutzt um programmieren zu lernen?",14-11-2021,0
174,cowwles,cowwles,,Gut dann fang ich in so 7 Jahren an,14-11-2021,0
175,Malik Günes,malikgns313,,"Faustformel: du brauchst 3 Jahre für eine Programmiersprache, danach brauchst du nur noch 3 Monate für eine andere programmiersprache",14-11-2021,0
176,Jonathan Stern,jonathanstern3,,Habe ich so gemacht,14-11-2021,0
177,IonVectora,ionvectora,,Und dann beginnt das Kapitel JavaScript libraries und du gibst dir die Kugel...,14-11-2021,0
178,Dëshira,zaimi_d,,Hab das alles in ~20h auf 3 tage verteilt am wochenende vor abgabe meines Informatikprojekts gelernt und angewendet. Nur bissel nervenzusammenbruch😂,21-10-2021,0
179,soobin,yeonbinskid,,Ich konnte mal LEDs programmieren falls das zählt 😂😎,21-10-2021,0
180,inside.ur.head,deep.inside.ur.head,,Java Skript kommt dann danach,20-10-2021,0
181,🥦 CannaChris 🥦,cann4chris,,Ich weis auch nicht warum er bei HTML immer von einer Sprache redet - dennoch finde ich die Aktion klasse 😏,19-10-2021,0
182,TB,umbrellacorp6,,Kann man wenn man nur Java kann einen Job finden? Wollte mir eine Alternative zu meinen jetzigen Job suchen,17-10-2021,0
183,Ragodan,ragodan,,hab mit c und c++ angefangen😅,17-10-2021,0
184,hizl5,hizl5,,Das ist doch kein Progeammieren😂,17-10-2021,0
185,dennis.bnk,denni.bnk,,Man wird Depressiv weil man sich im Kabelsalat verfangen hat,17-10-2021,0
186,1,yobamamamasnutz,,mit den kostenlosen Harvard Kursen kann man das nach einem Tag,16-10-2021,0
187,Luca,bismarckisback,,Pro ich habe seit 2 Jahren Programmierung in Informatik und krieg nichtmal ein Viereck hin,16-10-2021,0
188,Katzen TVNOW,katzentvnow,,The cat war hier,16-10-2021,0
189,some.guy,mc.baguette,,Du bist krass sympathisch. Weiter so bre 👍🏻,16-10-2021,0
190,viridian,vi_ridian,,@m1r.exe wat meinste 😂,16-10-2021,0
191,caro_line_hntsl,caro_line_hntsl,,Alles was man jeden tag 15min macht macht einen zum profi 🥇,16-10-2021,0
192,Nerv nd,bryyrr_fanpage,,Ich Programmiere seit 3 Tagen,15-10-2021,0
193,ericslapstick,ericslapstick,,"""HTML und CSS sind Sprachen"" .... und tschüss",15-10-2021,0
194,Denkste,dirtyunclejoe,,"ich bin ehrlich, ich suche nen programmierer für nh app, habe jedoch nicht die zeit mir das selbst beizubringen",15-10-2021,0
195,Qu0nt3m,qu0nt3m,,"Und nach einer Woche realisierst du, dass du eine Woche mit html verschwendet hast!",14-10-2021,0
196,Naweed,naweed.3,,Zum Glück kann ich PHP java und Python 😁,14-10-2021,0
197,John Doe,icekoenig,,"Ich bin Softwareentwickler, arbeite schon 24 Jahre, Internetseite kann jeden Editor ausspucken und die wird besser als deine..fäng an mit C# oder Java",14-10-2021,0
198,Red(she/they),redcat4020,,Hab gerade angefangen zu lernen. Und in der Schule in i go lernen wir Nummer 3 zu erstellen (ist aber ehr kein programmieren),14-10-2021,0
199,katze_kira,t0psycret5,,Davon ist gar nichts programmieren.😅,14-10-2021,0
200,Hugo666,.hugo666,,ich finde Python gut,14-10-2021,0
201,Kinderfänger,aggressive_seegurke69,,"Statt Französisch oder Latein, sollte mann Java oder andere PROGRAMMIERSPRACHEN lernen",14-10-2021,0
202,𝙈𝙤𝙤𝙣,siioy,,bro hab in 3 tqge ein web gebaute aber dem duel macht Auge,14-10-2021,0
203,ReaperMDx,reapermdx,,Gibt's Programme oder Bücher wo man sich das selbst beibringen kann? 🤔,14-10-2021,0
204,fntx,fntx,,Und schon versaut man sich die chance ein guter Programmierer zu werden,14-10-2021,0
205,whaitschnoik,whaitschnoik,,Für PHP war ich damals schon zu blöd 😂,12-10-2021,0
206,-_-,dumdumwillgumgum,,Braucht man dafür n PC oder schlepptop 😳😂,12-10-2021,0
207,Sami_der_Beste,sami_der_beste,,kann man auch mit dem win 10 s mode coden,11-10-2021,0
208,Bennet Frieborg,bennetfrieborg,,"HTML und CSS hatte ich drauf, aber JavaScript hat mich gekillt haha, liegt mir auf jeden Fall nicht so 😁",10-10-2021,0
209,melmond,melmond_zitate,,Ich Programmiere seit paar Wochen in der Schule mit Python ist eigentlich einfach und übersichtlich.,10-10-2021,0
210,vinc.crxme,vinc.crxme,,Ja man bitte startet alle mit HTML 🧢,10-10-2021,0
211,sc6out,codeinist,,Wie lange brauch ich um zu ddosen,10-10-2021,0
212,Naci Aslandogan,basseq,,eine richtige Domain musst du trotzdem kaufen,10-10-2021,0
213,Ch1113rJo3,bigdckbees,,PHP MySQL Datenbank😳,10-10-2021,0
214,maria.g112,maria.g112,,Ich möchte mit dem Programmieren anfangen. Mit welcher Sprache sollte ich anfangen?,10-10-2021,0
215,MaskedMan,masked1man,,3 Semester Informatik Studium j d ich kann gar nichts 😳,10-10-2021,0
216,Sulieman Rashidy,raschidi008,,Wie kann Mann anfangen und wo ? Danke,9-10-2021,0
217,Michse82,purzelbaum1982,,"Ich hab mit Pascal und Comal angefangen 😏.
Jetzt beherrsche ich 20 Sprachen und deutsch und Englisch 😂",9-10-2021,0
218,mantinaut,mantinaut,,Nach 20 Jahren kann ich immer noch kein ansprechendes Design umsetzen. Das eine ist Kunst und das andere Logik.,9-10-2021,0
219,/dev/null,de.null,,"Nein. Ich hab mit genug Anfänger gesprochen, es ist nicht so. In keinem der Fälle war es so straightforward.",9-10-2021,0
220,DerSerox_TTV,derserox_ttv,,sowas kann ich schon am ersten Tag,9-10-2021,0
221,Andrew,cheeseburger_0703,,und lua?,9-10-2021,0
222,@wedonotforgive,du_knicklicht,,"Kommt aber drauf an ob man,
FI für Systemintegration
FI für Anwendungsentwicklung oder
FI für Digitalisierung wirst",9-10-2021,0
223,Christof,wasserflasche__1,,wer bringt mir das denn bei?,9-10-2021,0
224,The_True_Silas,thetruesilas,,html ist besser als python 🥵🥵🥵🤡,9-10-2021,0
225,Nutzername vergeben,hansfranz63,,HTML ist keine Programmiersprache!!,9-10-2021,0
226,Epicmax11,epicmax11,,kenn einen der macht webseiten hauptberuflich und benutzt nur elementor der kennt net mal den code lol,9-10-2021,0
227,tropaion,tropaion,,Wenn man dann zu Typo3 kommt wird es spannend und frustrierend 😅,9-10-2021,0
228,Aminator,aminator2,,Ich hab mir counter strike source gekauft aber weiß immernoch ned wie man coded,9-10-2021,0
229,Mimi,pferdeelsegirlfohlen,,Und wie lernt man das (außer Schule z.b,8-10-2021,0
230,Stephan,inselbobby,,Sehe ich auch so 👍,8-10-2021,0
231,Seiphert,seiphert,,Erklärung zum video: nach 3 wochen lernst du templates kennen und vergisst alles was du in den vorherigen tagen gelernt hast.,8-10-2021,0
232,David Nachti,azowon,,"HTML ist eine Programmiersprache. man kann nämlich JS in HTML einbinden (native, nicht als Extension) und damit ist HTML Turing vollständig😁",8-10-2021,0
233,Johannes,johannes0_tw,,Mir lernen grad Python,8-10-2021,0
234,Okan,okan777,,wie kann der den buchstaben M sagen ohne die Lippen zusammen zu drücken??,8-10-2021,0
235,Eico,eicoyt,,Nö fangt mit minecraft plugin/mods an,8-10-2021,0
236,xXH4DESXx,xx.h4des.xx,,Hab mit Phyton angefangen um den raspberry pi zu programmieren. Ist das okay?,8-10-2021,0
237,awkn.1337,awkn.1337,,html und css sind keine sprachen😡,8-10-2021,0
238,Matrim,rand_al.thor,,"erstmal ""Herr Programmierer"" nennen und dann nichtmal wissen was eine Programmiersprache ist und was nicht. Pfeife 😂",8-10-2021,0
239,Paul Richter,paulrichter86,,Wo kann ich mich anmelden?,8-10-2021,0
240,FinessePhilippé,finessephilipp3,,Danke ich will aber kein Roboter werden,8-10-2021,0
241,...,usera4zb8gw0dt,,weiß ich jetzt nicht ob man das will,8-10-2021,0
242,💻vxmfxv🎮,vxmfxv,,HTML ist keine Programmiersprache,8-10-2021,0
243,lui_gurke,lui_gurke,,Kann mir jemand sagen wie man in HTML die URL ändert?,8-10-2021,0
244,.,davidm.76,,Ich der gerade das lernt in der Schule:😂,7-10-2021,0
245,𝗝𝗼𝗷𝗼,sani._.tv,,"He? Was für das easy Programmieren is was ganz anderes, ich krieg da immer Nervenzusammenbrüche in Informatik mit Java",7-10-2021,0
246,K.S.,johnplayer96,,schon nach dem anschauen des Videos habe ich meinen lernfortschritt gemerkt und bewerbe mich jetzt bei anonymus,7-10-2021,0
247,Ruthless 47,ma47_ma,,Ich sehe den und dachte im ersten Moment „ krass seit wann kann Suarez deutsch“ 😳😅,7-10-2021,0
248,Tech Chain Club,techchainclub,,ich habe mir Wordpress selber beigebracht und verdiene dadurch mehrere tausend Euro im Monat Nebenberuflich,7-10-2021,0
249,Dave💯😩,auloxira,,Eyyy mach bitte gta 6 tockstar is nich fähig deswegen,7-10-2021,0
250,PARADOXON_,paradoxon_4,,Html ist einfach meine lieblings programmiersprache 🥰🥰🥰🥰🥰🥰🥰🥰🥰,7-10-2021,0
251,EdoSenpai_,edosenpai_,,mache HTML und CSS seit fast 2 Monate und kann das fast 0 😅,7-10-2021,0
252,Dennis Cromberg,d.cromberg_fotografie,,Mich reizt mehr Python 😅,7-10-2021,0
253,Rafadantayfa,yxf49,,Deine zähne zeigst du wohl auch gern,7-10-2021,0
254,Doggymcdog,fr.crxzy,,Wenn er wüsste wie dumm ich bin 😂😂😂,7-10-2021,0
255,🖤,nathaniel_431,,Probier ich wie kann ich dass lernen ?😁🤔,7-10-2021,0
256,Alex K,alexk257,,einfach mit python anfangen🤷‍♂️,7-10-2021,0
257,Lenn_auchPinguinmeistergenannt,lennnn7,,Ja und wie soll ich das lernen,7-10-2021,0
258,marvin.fmr,marvin.fmr,,"Dazu musst du noch PHP oder Java lernen ansonsten sieht deine Seite hübsch aus, hat aber 0 Funktion 😅",7-10-2021,0
259,PxlJonas,pxljonas,,Und wie oder wo lernt man das,7-10-2021,0
260,po6id,po6id,,HTML ist ScriptType und nicht Coden,7-10-2021,0
261,ᅠᅠᅠᅠᅠᅠ,i_h_a_t_e_l_g_b_t_q,,Ich will Lua lernen kennt jemand irgendwelche vids oder so,7-10-2021,0
262,Buschi,derbuschmensch,,C# beste,7-10-2021,0
263,Gon Freeks,gonprofihunter,,"Ja, jeder hat mit der gleichen Geschwindigkeit die gleichen Erfolge. Vollkommen unabhängig von Vorwissen oder Affinität.",7-10-2021,0
264,WorldOfCardcraft,worldofcardcraft,,Wenn ich anfange zu coden braucht es mindestens ne Stunde bis ich von Klo aufstehen kann.,7-10-2021,0
265,Jonny Johnson,jonny.j69,,Html...,7-10-2021,0
266,Ian07,ianunger,,Und nach 10 Jahren kann ich auch nicht mehr blinzeln,7-10-2021,0
267,xXHuelle,xxhuelle,,Ich kenn nur css von Counterstrike 😅,7-10-2021,0
268,WieDuHeisst,wieduheisst333,,Wo kann man das ganze lernen ohne in eine Schule gehen zu müssen sondern von zu Hause aus?????,7-10-2021,0
269,verschrottung,5phinxx,,"Rly?HTML,um programmieren zu lernen?Ach ja.Stimmt.Hab ganz vergessen,dass ich meinen ersten Algorithmus in HTML erstellt hab.Und die Design pattern.😂",7-10-2021,0
270,Edvin Crnovrsanin,.kono_dio_da,,Das beste um mit Programmieren an zu fangen ist C# vertraut mir,7-10-2021,0
271,Lukas,lukas.6373,,ich schaffs nicht dranzubleiben😭,6-10-2021,0
272,S k,rabiator_2.0,,Php macht auch Spaß,6-10-2021,0
273,timsi356,timsi356,,und wie soll ich anfangen?😌,6-10-2021,0
274,Relax,lb_relax,,hätte ich nur die Motivation,6-10-2021,0
275,only. Me.,numark_,,Aber wir lerne ich denn richtig also wo kommen sowas machen 😅,6-10-2021,0
276,Creniax,creniax,,"Digga. Ich habe dich vor 30 Minuten auf YouTube angeschaut. Wie kann es sein, dass ich dich jetzt Random finde?",5-10-2021,0
277,andi,andi_e__,,So und wo kann ich diese Programmiersprachen erlernen? Gibt's eine Internetseite dafür? hab mir selbst mal im suff 10-Fingerschreiben beigebracht...,5-10-2021,0
278,luka.s,luka_1806_,,was ist mit python,4-10-2021,0
279,John,johnwick_068,,Hilft es mir auch dabei Programmierer zu werden?,4-10-2021,0
280,felix.ff1104,ff.felix1104,,ich wollte mit Java anfangen um in die Programmierung einzusteigen kann mir einer sagen ob das eine gute Idee ist?,4-10-2021,0
281,Jip_Gamer,jip_gamer,,"Erstmal mit was einfachem Anfange, Delphie XD",4-10-2021,0
282,Sycro,sycr0,,Python für Anfänger absolut empfehlenswert. Danach jenach dem was du machen willst zb C oder Java,4-10-2021,0
283,ildan_07,ildan_07,,hatte das letztes in informatik arbeit😅,3-10-2021,0
284,Jacob,jacobnottheplayer,,Fangt lieber mit sprachen wie java oder C++/C# an,3-10-2021,0
285,Jacob,jacobnottheplayer,,CSS ist auch keine Programmiersprache…,3-10-2021,0
286,Baal,baal_tv,,wie wurde die erste Programmiersprache programmiert?,3-10-2021,0
287,El turco,elturco1988,,Ich bin mit HTML aufgewachsen aber mittlerweile tot,3-10-2021,0
288,Saxilus,saxilus,,Allein nur mit HTML und CSS wird nix brauchbares werden. Wirklich sinnvolle Seiten sind nur über PHP und Javascript möglich.,2-10-2021,0
289,Kirito,backarrow3,,was ist mit Java?,2-10-2021,0
290,Daniel,danin.yt,,und wo soll ich das lernen?,1-10-2021,0
291,Dennis Schmidt,dennisschmidt1,,Eigentor,1-10-2021,0
292,FoggyHD,foggyhd,,Ich Programmiere jetzt schon 6jahre hauptsächlich mit Units also c++,30-9-2021,0
293,Hendrik Ent,hendrikent2,,"Danke für die Info, interessant 👍🏽",30-9-2021,0
294,Shoto Melone,shoto_melone,,HTML is scripten also wirklich,29-9-2021,0
295,NeroClaudiusII,neroclaudiusii,,Karel ist das beste Programm zum lernen Change my Mind 🤷🏻‍♂️,29-9-2021,0
296,Marco Alster,marcoalster,,"Und nach all den Tagen konsequenten codens ist man verhungert, verdunsten und vereinsamt.",29-9-2021,0
297,user1402760365602,kurosakura20,,Das sieht voll so aus als wenn du diesen lächeln Filter drauf hast😂,27-9-2021,0
298,Lord Vader,lordvaderisyourdaddy,,Ich persönlich würde mit C# oder JavaScript anfangen,27-9-2021,0
299,Delomiliar,delomiliar,,"HTML ist eine Auszeichnungssprache und keine Programmiersprache. CSS auch nicht, aber naja was weiß ich schon. 😅",27-9-2021,0
300,Namenlos,namenl0s_,,ich hab mal html gelernt aber hatte keinen der mir das beigebracht hat,27-9-2021,0
301,Kai,spider__kai,,oder ich bin nach einer stunde vor Langeweile gestorben 😂,27-9-2021,0
302,Usir,usir1317,,Ich der ✨Elektroniker für automatisierungstechnik ✨ ist 😂,26-9-2021,0
303,Femboys.sind.mies.geil,femboys.sind.mies.geil4,,Ich will spiele programmieren,26-9-2021,0
304,Lösch Zwerg,moto_florian,,und in der Schule fangen wir mit Python an😭,26-9-2021,0
305,erdmeanchen 05,nerd35557598580855,,Ich habe mit Scratch angefangen,26-9-2021,0
306,Alessio,logantv51,,mach mal etwas über php,26-9-2021,0
307,Lord Revos,lord_revos,,Lua is auch nt schwer,26-9-2021,0
308,MᎾИᎾҠƐĿ,dermonokel,,ich hab mit batch angefangen und mit python,26-9-2021,0
309,lostboom,lostboom,,Hey du bist doch dieser eine Typ aus brocklin99,26-9-2021,0
310,M,panadanokoji,,War 3 Jahre in der ausbildung und von unserer gesamten stufe kann keiner solche seiten alleine mal so hinzaubern,26-9-2021,0
311,M,panadanokoji,,Css und Erfolgserlebnisse ja moin xD,26-9-2021,0
312,David,david._knstn,,Er kann selber nicht programmieren und will uns was erklären haha,26-9-2021,0
313,DakeLP - KingPlays,xypanda,,"hey, was hältst du von c#? Ich habe das in der schule gemacht aber es war super schwer den Anschluss zu kriegen wenn man mal gefehlt hat",26-9-2021,0
314,pixonebuyt,pixonebuyt,,Warum sieht er aber wie ein Millionär aus🤔,26-9-2021,0
315,Islem Khemiri,islemkhemiri0,,Vertrau mir,25-9-2021,0
316,deto993,deto993,,"Lügen, mein Kollege hat css nach 2 Monaten immer noch nicht richtig verstanden😂😂😂 und html und CSS ist kein Programmierer 😅",25-9-2021,0
317,Mirko Schmidtgen,minimiboiii,,Spätestens beim Positioning bin ich raus 😅,25-9-2021,0
318,TheSerbianWoody,theserbianwoody,,"Nach 4 Wochen heißt du plötzlich Neo, bist der auserwählte und kannst durch dein Festnetzanschluss Reisen !",25-9-2021,0
319,conrad.lueder,condadel,,"Aber, wie anfangen",25-9-2021,0
320,Lemon Shock,lemons911,,"* werbung für Qt *
- QML syntax sehr einfach (für UI)
- anfänger können theoretisch die gesamte logik in JS programmieren
- ansonsten C++ oder Python",25-9-2021,0
321,Orhan,orhan_atsx,,Ist Photon nicht einfacher?,25-9-2021,0
322,noob 33,noob0090088,,Was heiß konsequent genau also wieviel am Tag meine ich,25-9-2021,0
323,`,gsxrwolf,,Ich der mit Unity und C# anfängt😅,23-9-2021,0
324,Godless,abogodless,,HTML!?!?!?!?,22-9-2021,0
325,.,trazyar,,ich lerne das in der schule,22-9-2021,0
326,Kontosicherheit,leanl0ver1,,Wo kann man programmieren lernen ?,22-9-2021,0
327,miketictok,der_loewe.1,,"Super, wie lange brauch ich den um ein Betriebssystem zu Programmieren z.B. Windows 12 ??",22-9-2021,0
328,Bassam Jumaah,bass_muditv,,Wo kann ich Praktikum machen in Programmierung,22-9-2021,0
329,oliver,oliver75705,,Wo kann man eigentlich online Seiten machen,22-9-2021,0
330,CcCCihanCcC,cihankurtwulf,,wie wo fange ich an,22-9-2021,0
331,Dennis Özel,dennisspecial,,"habe probetag als FAE mit C++ angefangen, hab o verstanden, ausbildungsvertrag wieder gekündigt",22-9-2021,0
332,kkk,n0_c0ntent,,kann ich mit c++ anfangen,21-9-2021,0
333,Pative,_pative,,Fangt mit Python an 👍,21-9-2021,0
334,Ich Ich,daissajaderissa,,lol ich folge dir auf YT und bist zufällig auf meiner fy,21-9-2021,0
335,𝐥𝐮𝐤𝐚𝐬,lksyt_yt,,Habt ihr das Video zu Ende geguckt?,21-9-2021,0
336,realSyralan,realsyralan,,er hat aber Recht das HTML ein ganz ganz bisschen ähnlich ist und man super schnell Erfolge hat...,21-9-2021,0
337,Abby ✌🏼,nele_abby,,Ich die mit c und Python anfängt,21-9-2021,0
338,Hugo Carlof,julioelescobar,,"Kannst du mir zeigen, wie das geht?",21-9-2021,0
339,Florian Klöpfer,sietfos,,HTML css programmieren. Ist klar. Morgen werde ich Fehrnseher backen.,20-9-2021,0
340,julius,julius.exe1,,Ich bleibe bei Python,20-9-2021,0
341,Asznee,xasznee,,"HTML ist zwar keine Programmiersprache, aber das gesamte Backend einer Website liegt in der Programmierung. JS, Vue, whatever. :)",20-9-2021,0
342,Jonas,pins3lrost,,Eine Textauszeichnungssprache 😂,20-9-2021,0
343,__Tim__o__,joujomo1,,"Ich kann html, ist jetzt auch nichts großes",20-9-2021,0
344,L💙I🇬🇷N⚡️U🥶S,l1nus_1,,Habe mit 9 jahren angefangen zu pogrammieren ich konnte es nicht direkt aber ich kann es halt einf so keine ahnung wie aber es macht mir spaß😃,20-9-2021,0
345,Philipp Haimerl,philipphaimerl,,I lerns in der schule mit java 😁,20-9-2021,0
346,Rafael Cee,rafaelcee,,Der gute alte HTML Programmierer. Also meine Lieblingsprogrammiersprache ist ja JSON 😏,20-9-2021,0
347,︎ ︎ ︎ ︎ ︎ ︎ ︎ ︎ ︎ ︎ ︎ ︎ ︎ ︎ ︎,_einfach_nur_tim_,,hast du gute Videos wo ich das lernen kann?,20-9-2021,0
348,ᶠYͧoͨᵏu,h.u.06,,Und dann kommt die Apple Homepage…,20-9-2021,0
349,Nothing to see,isg_3332,,HTML ist so ez lol,20-9-2021,0
350,Sebastian Esser,yell_ace,,"Hast du Tipps um mit c++ anzufangen, die YouTube tutorials helfen nicht wirklich",20-9-2021,0
351,ckay156,ckay156,,Kannst auch WordPress Template kaufen 😂,20-9-2021,0
352,K,kryzuu,,Ja okay du hast mich überzeugt,20-9-2021,0
353,ozan.od,ozan.od,,"Gibt es ein kostenloses Programm, womit man html css und am Esten andere Programmiersprachen benutzen kann?",20-9-2021,0
354,Patrick,patrick___1208,,"Die ganzen Großkotze hier haben irgendwo mal gelesen, dass HTML keine Programmiersprache ist und machen jetzt einen auf Programmierer 😌",20-9-2021,0
355,Leo Adem,leoadem0,,und was wen ich eher auf designer will aber keine inspiration habe 😂 es ist so alsob man malen will aber nicht weis wass,20-9-2021,0
356,Mark_private68,mark_private68,,Hatte damals mit Python angefangen 😂,20-9-2021,0
357,Wolfixzyklop,wolfixzyklop,,Bin in htl also passt dad,20-9-2021,0
358,Der Tød,darkiyus,,"Programmieren lernen mit HTML xD
was kommt als nächstes? die if Schleife? xD",20-9-2021,0
359,HalloMrGaming,hallomrgaming,,@shayyo__ sag was,26-9-2021,1
360,Damian Toczek,damiantoczek,,"Dann kommen Sysops, Linux, Nginx, NodeJS, webapckets, Express, fastify, React, Angular, Vue, PWA, SPA, SQL, NoSQL, caching, load balancing etc",4-10-2021,1
361,Bilalewaka,bilalawaka,,Java beste,19-10-2021,1
362,Neda,ned.004,,@nehanany is dat so?,7-10-2021,1
363,Paul787,just.paul14,,(Hellaliali on youtube),20-9-2021,0
364,user6262544454291,haccicool,,Humbug,14-12-2021,0
365,2018Joeishot,2018joeishot,,bruh,10-12-2021,0
366,Nicolas,nnncls,,LOL.,7-12-2021,0
367,user9410223379809,indiansingermany,,phyton,14-11-2021,0
368,Arni,erdberchen14,,firebro?,10-10-2021,0
369,Jahven Hellfire,jahvenhellfire,,Done...,8-10-2021,0
370,Dominik Müller,domooooooo,,Luis Suarez,7-10-2021,0
371,Kilian,k1lian0,,Bro?,5-10-2021,0
372,AnnikenYT 🎄,annikenyt,,"Ah yes, Html, my FAVOURITE PROGRAMMING LANGUAGE",4-10-2021,0
373,Dift,driftscooter,,Und spiele programmieren wie siehst da aus 1 Tag 1 woche und 3 Wochen,29-9-2021,1
374,fxbixnsxhmitt,fxbixnsxhmitt,,Digga ich kann nicht mal richtig ne email schreiben !😂,18-12-2021,0
375,Tom himself,prnzngr,,@Herr Informatik bitte übernehmen sie 😅,16-12-2021,0
376,Games of Fun Pikachu,g.o.f.pikachu,,Kann trozdem nicht jeder Mann brauch gewisse program Erfahrungen,14-12-2021,0
377,Marcel SCHLICKE,marcelschlicke,,"komisch... all meine iT Freunde sprechen immer ""Fang mit c++"" an, dann lernst was gescheits",10-12-2021,0
378,Aachener2021,aachener2021,,"Danke, Du kannst echt einen motivieren.",30-11-2021,0
379,.,jojo20140410,,Boar ich hätte so bock das einfach zu lernen... Aber ich hab kein bock,30-11-2021,0
380,Meine Eier,balkan_eier,,Seh ich so aus als ob ich sowas kann😂?,29-11-2021,0
381,weißt du nicht,weisstdunicht2,,nach 1er Woche drugstore im darknet Programmieren geil,28-11-2021,0
382,immarcandrewick,immarcandrewick,,Kann jemand einen kostenpflichtigen Telegram Kanal programmieren? Suche jemanden der das kann,28-11-2021,0
383,Jon,jon33333,,Vor 20 Jahren konnte ich HTML aber wie lernt man das also wo und wie,14-11-2021,0
384,Lorenz,lorenz4783,,@tammnam kannst du das,19-10-2021,0
385,Leo🥶ᡕᠵ᠊ᡃ່࡚ࠢ࠘ ⸝່ࠡࠣ᠊߯᠆ࠣ࠘ᡁࠣ࠘᠊᠊,mayo_sriracha,,OHHHH AM ENDE HAT ER EUCH SOWAS VON HOPS GENOMMEN,15-10-2021,0
386,jan,jan_mb,,warum mache ich dann in der Schule als erstes Java?,13-10-2021,0
387,user064646,mitch_0815_ok,,Du bist die deutsche Antwort auf Seinfeld ... 😳,9-10-2021,0
388,leonkrrr,leonkrrr,,ey des video über python hat mir echt geholfen :),9-10-2021,0
389,Lightning,._.v._.v._,,kann ich,8-10-2021,0
390,Steph,stephka01,,Macht ja auch kaum jemand. 😂,8-10-2021,0
391,user4247825810152,sawyer.98,,😭😭😭 Bitte mach was anders,7-10-2021,0
392,ᴳᵒᵈ彡『ＭＣ』•Ｃｒａｚｚｙ Ｂｏｙ✰𝔸𝕜✰,stupidboy949,,Brauch ich Abitur für Programmierern 😳,7-10-2021,0
393,Frederik Wohlfahrt,frederikwohlfahrt,,Lern Javascript,5-10-2021,0
394,planetgin,planetgin,,nach wieviel wochen lerne ich so die zähne zu zeigen?,1-10-2021,0
395,Maris.Vth,maris.vth,,Ich habe mit Lua angefangen,26-9-2021,0
396,Honkschredder,honkschredder,,Wer heute noch programmieren lernen will kann auch gleich den Beruf des Schmieds erlernen. In wenigen Jahren wird dies komplett durch KI‘s ersetzt.,22-9-2021,0
397,MiAutsch - MiezeTatze,miautschh,,Ich machs mit BBCode 😏,21-9-2021,0
398,🧌,bekiffter.pilot,,Wie viel verdient ein Programmierer,20-9-2021,0
399,der_andy,andy77official,,😏 HTML ist keine Programmiersprache…,20-9-2021,0
400,user4173155845492,theoneandonlydave76,,Seit wann ist HTML eine Programmiersprache? 😂😂😂 Never,8-10-2021,42
401,Norio,officialnorio,,"Wenn Leute bei einer Markup Language von Programmieren reden, lauft einfach weg. Die Person hat keine Ahnung!",7-10-2021,42
402,Gurken Zocker,gurkenzocker,,⚠️Warnung⚠️vllt sind deine mobilen Daten noch an?,16-11-2021,0
403,MF,mfunk07,,"Joa ne danke, hab ich nicht so bock drauf",1-12-2021,0
404,Jonas jnd,jonasjnd,,@ufut15 guck kommis,1-12-2021,1
405,Utopiece,utopiece87,,wer will meine Seite machen ?,1-12-2021,0
406,Br1sus,br1sus_,,"Ich der dauerhaft neuen shit bei python lernen muss: ""Internet Seite.... Achso ja... Ne danke""",14-11-2021,0
407,PhonedLand,phonedland,,"Oh man es ist echt lächerlich wie niemand zuhört. Er hat doch am Ende gesagt, dass html keine Programmiersprache ist",19-10-2021,0
408,birhak01,birhak01,,Fehlt nur noch dein saber 😂😂,14-11-2021,0
409,Gelernter ITSystemelektroniker,hardware_neuland,,er hat gesagt wer Programmieren lernen will soll mit HTML anfangen. nicht dass HTML eine Programmiersprache ist. dient einfach als Verständnisgrundlag,24-9-2021,2
410,dein geheimer lover,integriertershabab,,"der eine sagt C, der andere Html, der andere Squarespace.. ich mach gleich nen Spaghetti draus 😂",5-10-2021,2
411,Tik Toker,reallifebre,,Ich programmiere seit 2 Jahren eine Website und sie sieht so aus wie dieses Beispiel nach einem Tag 😂,17-12-2021,1
412,Rafa,rafa_dimitriou,,"digga ich finde den typen auch hilfreich und sympathisch, aber seine gesichsmimik ist einfach so trocken als ob er keine emotionen besitzt. Komisch",14-1-2022,0
413,Truespiritbln,truespiritbln,,Nach einem Tag wirst du die ersten Depressionen spüren. Nach einer Woche werden sie stärker und nach einem Jahr lassen sie langsam nach,16-12-2021,0
414,user4302841952542,user4302841952542,,3 Jahre Ausbildung 😳 was für ein harsch 😂😂😂,15-12-2021,0
415,kamerasch,kamerasch,,Seife in die Socke und los geht's!!! HTML ist kein PROGRAMMIEREN!!,14-12-2021,0
416,user4363631589766,authalex,,Richtiger Bauer 😂,14-12-2021,0
417,Hanch_Starleaper,hanch_starleaper,,"Zum Glück sagt er am Schluss, dass HTML keine Programmiersprache ist. :-)",14-12-2021,0
418,waetohigh,deepinrest_,,hat er gerade gesagt html ist eine sprache...😨,12-12-2021,0
419,Kashi_offiziell,kashi_offiziell,,Wo kann man anfangen html zu üben,12-12-2021,0
420,Dalika UwU baka,dalika.back,,HTML ist einfach zur lernen,12-12-2021,0
421,diaryalt,diaryalt,,HTL sagt nein.,10-12-2021,0
422,mecks x,mecksx,,Alle programmierer so wenn man HTML nennt 👁👄👁💧,9-12-2021,0
423,Hallo,hallo5731,,"HTML ist XMS, also keine Programmiersprache, wer programmieren lernen will nimm Python oder PHP",7-12-2021,0
424,Stupid Money,stupidmoneyoffical,,progamieren so : 0101000100101000001010001011001111,1-12-2021,0
425,Knusprig,knusprig7,,geil. aber der eine Zahn triggert mich etwas😅,30-11-2021,0
426,Cedi,cediisgaming,,Für alle Java homies hier lernt kotlin much safer,30-11-2021,0
427,blocklabtv,blocklabtv,,unangenehm 😬,29-11-2021,0
428,antonowski,antowskki,,"lernt kein reines HTML, heutzutage geht eh keine Page ohne Javascript. lernt ein ordentliches framework wie vue, react oder angular.",25-11-2021,0
429,J | Z,hannix2,,Leute zieht euch ein Bootstrap Template und baut euch das so zurecht wie ihr es braucht. Kein Mensch coded alles von vorne …,17-11-2021,0
430,Nils Kirsten,thilo_k1,,Das passiert wenn du 20 Jahre lang Zahnspange trägst 😂,17-11-2021,0
431,_programmingDad,_programmingdad,,"""mit HTML anfangen"" Web Entwicklung ist die Hölle. alles unnötig kompliziert und erfordert viel Hintergrund wissen. Anfänger eher Java oder c# oder so",16-11-2021,0
432,Dennis B.,cfire23,,Wie er mir sofort den Wind aus den Segeln genommen hat…. Ich war schon am Schreiben: „HTML ist keine…..“ 😅,16-11-2021,0
433,gazikun,gazikun,,Ich finde es leicht gruselig und unautentisch wenn man die ganze Zeit in die Kamera Kukt... 😯,15-11-2021,0
434,Jan,mrxofficial1997,,HTML ist keine Programmiersprache11111111111,14-11-2021,0
435,.,wasserananas,,Ja 3 Jahre lang selbst beigebracht und meine Webseiten sehen aus wie popo,14-11-2021,0
436,Sebastian Wald,hausofwald,,😂 HTML progamiersprache... 😂,14-11-2021,0
437,RIP,araneobbx,,HTML ist keine Programmiersprache,17-10-2021,0
438,Johannes.Tsalikis,johannes_tsalikis,,Lüge,10-10-2021,0
439,xSIDx,sid_who,,"in der Schule damals nur weil man ein bisschen CSS konnte, und dazu ein paar Shortclicks in Windows kannte.. 😳 wow du bist voll der Hacker 🤣🤣🙈1/2",9-10-2021,0
440,Tobi Malige,tobimalige,,Wie kann man sich bitte nur soooo übel disqualifizieren??? @herr_programmierer,9-10-2021,0
441,.,zyron.1508,,Alter du hast keine Ahnung,7-10-2021,0
442,Flop,flop.x,,html ist tot und schrott benutzt python,7-10-2021,0
443,WickedXacon,wickedxacon,,"Schön zu sehen, dass die ganzen Schwachsinnigen wieder Ausgang haben. Video nur zum Teil gesehen und gehört. Noch weniger verstanden und haten ✊🏻😂",7-10-2021,0
444,Felix Kriechbaum,felixkriechbaum0,,"Hört auf das was er sagt, habe mit html css php angefangen jetzt bin ich bei Kotlin Swift und C++",7-10-2021,0
445,AlexD1708,alexd1708,,@shqiptari.zi Wer hat ihn denn verarscht digga,4-10-2021,0
446,𓆩Torres𓆪,torres_visuals,,Was so schlecht hab das nach einem tag hinbekommen weiß font ist glitcht,26-9-2021,0
447,Fiverr_Aktien_Business,fiverr_aktien_business,,so ein quatsch nach einem Tag ist man nicht ansatzweise in der lage eine website zu programmieren.,26-9-2021,0
448,thomas.tnt2334,thomas.tnt2334,,Nach 3 Wochen komplexe Designs… ok mr. fransition flex…,25-9-2021,0
449,ds ify,user3316909103804,,Der Typ will nur seine Coachings verkaufen. Bevor ihr was sinnvolles programmieren könnt müsst ihr min. 1 Jahr Büffeln.,24-9-2021,0
450,S!mon,simondunkel,,1 Jahr Informatik und kann das von der erste Woche weil unser Lehrer so sh*t war…,21-9-2021,0
451,Enax,enex4984,,du hast keine Ahnung man Programiert nicht in html,21-9-2021,0
452,Anonym,anonymtt45982,,"Sag mir, dass du keine Ahnung vom Programmieren hast ohne mir zu sagen, dass du keine Ahnung vom Programmieren hast.",20-9-2021,0
453,JIM KNOPF,jimknopf05,,Seid ihr besoffen er sagt doch am Ende das html keine Programmier Sprache ist,20-9-2021,0
454,Termiplaygames,termiplaygames,,"also html find ich nen guten einstieg wenn man null ahnung hat und sich langsam ins coding reintasten möchte, du hast relativ schnell erdte erfolge un",20-9-2021,0
455,Zambezi,realzambezi,,"Sorry, aber solche Aussagen sind wie ""Auf diesem Konto ist kein Geld..."". So miese Seiten kann ich auch in 4h mit 'nem Pagebuilder ""coden"".^^",15-10-2021,0
456,Okö,savagecartii,,Jungs ladet euch AttaPoll runter und gibt bei referenzcode:“bfprv“ ein bekommt dann 10 Euro. Die 10 euro könnt ihr dann auszahlen. Dankt mir später 😁,10-10-2021,0
457,StillesWasser,armenischlehrer,,Warum sowas auf meiner FY kp. Habe nicht slut Technik am Hut,6-10-2021,0
458,🇧🇷,sananemrkisinebak,,Was verdient man so,16-11-2021,0
459,Oliver Kler,formatc,,Dein Ernst?? 😳 HTML ist eine Auszeichnungssprache und keine Programmiersprache! 🙄,26-9-2021,0
460,Santiago Scheffler,santiagooo_99,,ich dachte schon er will uns weiß machen es sei eine Programmiersprache,26-9-2021,0
461,4xx,cyberr573,,Html != Logik,20-9-2021,0
462,N. Moore,elizabethn.moore,,"There is no greater joy than, having financial freedom and a life free of debts,that's why I keep posting a comment about, @official.annaclaudia",20-9-2021,0
463,Kartoffel,couch_kartoffel,,PHP8 🥰,24-9-2021,0
464,jlnxii,jlnxii,,dam,22-9-2021,0
465,Fatima,fatima_.ela,,@_mahelett @yumna_ffm2006,15-11-2021,1
466,ਹੈਰੀ,punjabiking50,,@Ali @Ali,7-10-2021,1
467,sinem999,sinem999,,@guldev,30-11-2021,0
468,Mimi,fitthao,,@babfel,28-11-2021,0
469,alenaa,alena151105,,@lisa.zu,15-11-2021,0
470,alen.hussein0,alen.hussein0,,@Kurdi✌️😘,14-10-2021,0
471,Linus,appel_05,,@Herr Informatik,14-10-2021,0
472,Shiva,shiva.kiwi,,🥝,9-10-2021,0
473,🐊,jovan._srb,,@holattila,7-10-2021,0
474,Amin,aminosm004,,@flaqmz,7-10-2021,0
475,Uknown,manhwa_ghostfiles,,@lloyd_og,7-10-2021,0
476,k,ohrmendall11,,🧢🧢🧢🧢🧢🧢🧢🧢🧢🧢🧢🧢🧢🧢🧢,19-10-2021,0
477,Zeeco,zeeco_change,,Ab wieviel Monaten lern ich das Pentagon zu Haken,22-9-2021,0
478,.,krkdkfdndkdk,,@Bens_hardware,20-9-2021,0
479,Eray :3,eray0704,,@user622131137,20-9-2021,0
480,mano96982,mano96982,,Ich hatte immer eine 5 in Informatik. Jetzt arbeite ich als Programmierer,20-9-2021,0
481,allmaechd.na,allmaechd.na,,Der Typ ist einfach LOST,20-9-2021,0
482,♢,you.wasted,,Ich lern grad mit C#,19-9-2021,0
483,JosunLP,josunlp,,"Nur solange, bis mann sich mit Media Querys und Fluid Grids außeinander setzt. 😂",19-9-2021,0
484,Black Schleiereule,black_schleiereule,,was hältst du von der Sprache Rubi ?,19-9-2021,0
485,E.L.B.O.Z.Z.A,elbozza,,Digga dein Wissen hatte ich mit 12..,19-9-2021,0
486,Spielt jmd killing floor?,derschattenmacher,,Habe in der Schule nur Java gelernt. (Wirtschaftsinformatik) :),19-9-2021,0
487,Mahrl,mahrl,,"Und wieder einmal gehe ich durch die Kommentare und merke, dass kaum die Hälfte das Video zu Ende geschaut hat. 🙄🤔",19-9-2021,0
488,user9662428630782,stefan.la85,,am schlimmsten sind die Kommentare hier... jeder ist immer besser als der andere.... es ist einfach traurig und in der IT Branche echt schlimm.,19-9-2021,0
489,Jul,stepsisjulius,,Hab in der Schule Informatik gewählt. Wir machen jetzt auch Websites und ich kann es echt empfehlen,19-9-2021,0
490,ThebossIstanbul,thebossistanbul,,Es gibt viele Website Ersteller Baukasten Webseiten wo man ohne programmieren viele Webseiten designen kann. Man muss nicht programmieren können dafu,19-9-2021,0
491,__.ab.__,__.ab.__2,,Kannst du es uns beibringen ?,19-9-2021,0
492,Diego,schizodr,,bro blinzel mal,19-9-2021,0
493,Ghost sniper,lost_th0m4s,,habe in der Schule Informatik und wir fangen gerade an zu programieren aber es ist relativ schwer😅,19-9-2021,0
494,I am German 🇩🇪,kabayangermany,,Und nach 1 Jahr bin ich in der Lage Seiten zu hacken😂,19-9-2021,0
495,Lynax,lynax_yt,,Wie würde eigentlich das erste Programm zum programmieren programmiert?,19-9-2021,0
496,Lanojdjd8282,lano737373,,will lernen zu programmieren kenne mich aber 0 aus wie kann ich mir das selbst beibringen ?,19-9-2021,0
497,Txmxkii,txmxkii,,1 Tag html css java c c++ ruby python atom geht doch easy fix,19-9-2021,0
498,Ikuran,ikuranowo,,"Ich verstehe wie ich nh ki schreibe, aber wie ich nh website Programmiere.. Das ist mir zu hoch 😂",19-9-2021,0
499,𓂺,caelvin777,,ich lehne jetzt erstmals java,19-9-2021,0
500,BigChopper,big_chopper__,,Wo sind meine Java Script leute ÷_÷,19-9-2021,0
501,Cihan,cihan9728,,Der kann M aussprechen ohne seine lippen tu berühren,19-9-2021,0
502,.,rxzz00,,hab mit javascript angefangen,19-9-2021,0
503,RndmGuy,rndmguys,,"hab ne Seite gemacht, Php. xain.tk bitte Feedback. Es gibt kein SSL deshalb wird es als böse markiert",19-9-2021,0
504,Muhammet,mo.mrt66,,@mryarrovic420,19-9-2021,0
505,beytu ygt,beytuygt,,Hast du einige Tipps nach html weiter zu machen?,19-9-2021,0
506,Tim,timhunter69,,Kara regelt,19-9-2021,0
507,Blackswirl,blackswirl,,Bestes Gefühl erst getriggert werden und dann die wohltuende Erlösung 👌👌,19-9-2021,0
508,47267,enrique_salvador_,,digga html und css hat man in 2 Tagen drauf,19-9-2021,0
509,Bali Bali,bali.1989,,Einfach ein Homepage Baukasten benutzen 😂,19-9-2021,0
510,Mondscheinkobold,juvariel,,"HTML, CSS, programmieren... Ok",19-9-2021,0
511,Nwa958,nwa958,,was ist mir c++,19-9-2021,0
512,---------,unknownuser661312c18,,"Moin, ich bin in der 10ten klasse und in der Technikprüfung der Realschule ist auch Programmieren gefragt doch ich weiß nicht wo ich anfangen soll",19-9-2021,0
513,asterix.96,asterix.96,,Wäre es nicht besser mit Java oder c anzufangen? 🤔,19-9-2021,0
514,𝖕𝖆𝖎𝖓𝖐𝖑𝖑𝖟,painkllz,,step one: bekomm wieder ein pc👍🏼,19-9-2021,0
515,drehdichumguy,drehdichumguy,,Mit WordPress kann das doch jeder Otto in 3 Minuten oder nicht,19-9-2021,0
516,Efendim's,efendim093,,@blockster2k1,19-9-2021,0
517,IsDaLP,isdalp,,Welche Sprachen sind denn am besten für games? Und kennt vlt wer nen gutes tutorial wo man die lernen kann?,19-9-2021,0
518,Doctor,doctorwho1980,,Programmieren in HTML😂😂😂😂😂😂😂😂😂😂😂😂😂😂😂😂😂😂😂😂😂😂😂😂😂😂😂😂😂😂😂😂😂😂😂😂😂😂😂😂😂😂😂😂😂😂😂😂😂😂😂😂😂😂😂😂😂😂😂😂😂😂😂😂,19-9-2021,0
519,Tobias Dittel,nachtschatte,,Nee neeee lass mal. Ich möchte nichts programmieren,19-9-2021,0
520,ToadX3,lolshimtex,,cries in Linux,19-9-2021,0
521,nhjiug,fuififjdxuufufvfucrrdsr,,wir haben in der schule mit c# angefang,19-9-2021,0
522,Kaspry,kaspry,,es geht ja auch erstmal darum Zusammenhänge und Struktur zu verstehen,19-9-2021,0
523,Ratchet,ratchetttv,,HTML ist keine Programmiersprache. heißt dennoch Hypertext Markup LANGUAGE. also irgendeine Form von Sprache muss es sein :3,19-9-2021,0
524,Jxckxx,jxckxx_leagueoflegends,,Welche Compiler sind empfehlenswert?,19-9-2021,0
525,erpelm,erpelm,,"Ok, du hast mich. Plus ist weg. 😉. Nur so interssehalberx wie schaut die Zeitachse bei C++ aus?",19-9-2021,0
526,Bruno Schwuel,brunoschwuel,,Delphi ist die einzig wahre art zu programmieren,19-9-2021,0
527,Seeeeeeeeebi,seeeeeeeeebi,,"Aber wo lerne ich das, welche App/Websites gibt's dafür ?",19-9-2021,0
528,slaiiN,nicos.2001,,Also ich programmiere eine CnC Fräsmaschine,19-9-2021,0
529,Mike,firefly_nrw,,😂🤦‍♂️,19-9-2021,0
530,Fass_Bender,fassbender2708,,"Ich fange gerade mit C# an und ist anfangs auch ziemlich einfach. Es wird nur leider schnell ziemlich komplex, aber es macht enorm Spaß",19-9-2021,0
531,Rachoo9x,rachoo9x,,Hast du eine Programm zum üben oder bestimmte Bücher die man sich holen sollte ?,19-9-2021,0
532,expluze,expluze,,lüge,19-9-2021,0
533,Alex,lifoy,,"Designs Krieg ich bis heute nicht hin VB, C# ging nach 2 Wochen richtig gut... 5 Jahre später fehlt die Herausforderung",19-9-2021,0
534,albin,alminung,,👌,19-9-2021,0
535,timi__10,timi__10,,Äm Goku ist stärker,19-9-2021,0
536,Just a Bavarian user,jafix,,"""Programmieren""... 😅😅😅",19-9-2021,0
537,vofed70272,cobrano49,,Ok 😬,19-9-2021,0
538,Der.weber,meyungme,,Hab 3 Wochen lang versucht mir HTML und CSS bei zu bringen hab nur Bahnhof verstanden 😬,19-9-2021,0
539,Th3Ph4nt0m,th3ph4nt0m_dev,,"HTML bringt genau gar nichts, wenn man wirkliche Applikationen programmieren möchte....",19-9-2021,0
540,pepper,pepper__ger,,Er ist Gilbert Gottfried in jung 😂😅😳,19-9-2021,0
541,.,dersovjetdude,,@dertypderhinterdirsteht stimmt das?,19-9-2021,0
542,Salvatore,salvatore_214,,"ich will damit anfangen, was ist der erste Schritt ?",19-9-2021,0
543,Jenzki,turtlejenzki,,werde mal anfangen,19-9-2021,0
544,Adrian Selmanaj,adrianselmanaj,,@scottyghg,19-9-2021,0
545,John Smith,smitty586,,leute die denken das html keine Programmiersprache ist ☠️☠️,19-9-2021,0
546,alpxllx,alpxllx,,ich mach mein fachabi zum ITA und wir benutzten c++😂,19-9-2021,0
547,jomo,jomo.hfm,,ich werd bei Java nur zernommen😂,19-9-2021,0
548,SeeYellow,seeyxllxw,,"Ich habe mit Java angefangen, war halt vor 7 Jahren. Inzwischen ist Python love",19-9-2021,0
549,Maurice,maurice5755,,Gut das ich schon Coden kann und für meine Gemeinde eine Seite gecoded habe 😂,19-9-2021,0
550,gulvar.gulp,gulvar.gulp,,🧢,19-9-2021,0
551,ኤርትራዊ 🇪🇷,user090029002,,Kann man mit Fach Abitur für Gesundheit und soziales Wissen Informatik studieren?,19-9-2021,0
552,ZXMYFAA,mertmcmv66,,Ich weiß nicht mal wo ich anfangen soll,19-9-2021,0
553,Keno Voss,musicanx,,Websites zu programmieren ist absolut sinnlos.,19-9-2021,0
554,Backfischesser Party,backfischesserpartymach0,,2 Jahre in der Schule gehabt und kann nicht mal einen IF Befehl erstellen 😂😂😂,19-9-2021,0
555,yooglle,yooglle,,Einfach Wordpress und Gutenberg😂,19-9-2021,0
556,Luis,commentaryluis,,Wo & Wie fange ich am besten an.,19-9-2021,0
557,꧁༺J꙰O꙰K꙰E꙰R꙰༻꧂,xx_kingkimo_xx,,Für sowas misst du nicht Programmierer sein😂😂,19-9-2021,0
558,DaBlue,da.bluue,,Ne einfach ne man,19-9-2021,0
559,Minz Pracus,snekaypete304,,Ist das ein Witz oder ernst gemeint ?,19-9-2021,0
560,Tmm_brd,tmm_brd,,Wo kann man Programmiren also über welche Seite???,19-9-2021,0
561,Mike Morgul,mikemorgul,,@adrian_dev,19-9-2021,0
562,Mohanad,mojax2,,Ist den css eine Programmier Sprache?,19-9-2021,0
563,Drachengott,drachengott1,,ich will aber ein Game programmieren,19-9-2021,0
564,metehan.e50,metehan.e50,,Ich möchte eine social media app entwickeln. Wie kann ich am besten anfangen?,19-9-2021,0
565,The.Real.Zonk,the.real.zonk,,Du bist einfach so sympathisch,19-9-2021,0
566,.,b.b.f.b,,@auslander_g._2,19-9-2021,0
567,Maik Oldehinkel,maikoldehinkel,,Thomas Hermanns in jung?...Du könntest n Bruder von ihm sein😂,19-9-2021,0
568,Sebastian,sebbe910,,Meine Agressionen 📈📈 Weil er erst meinte HTML wäre ne Programmiersprache,19-9-2021,0
569,random.mfkr,random.mfkr,,"lol erstmal mit irgendwas anfangen, ist aber kein programmieren. Sinnloses Video. sorry bro",19-9-2021,0
570,Sebastian Sierp,se_leddo,,POV: Du musst einfach nie wieder blinzeln,19-9-2021,0
571,Marvin,zmarvinz,,Er sagt doch das html keine Programmiersprache ist. Aber wenn man html kann wird es viel einfacher mir an anderen Programmiersprachen anzufangen,19-9-2021,0
572,NickIsWeeb,nikkuisweeb,,Ich fange einfach mit Schule an wo ich Mechatronik habe,19-9-2021,0
573,jonasheftmann,jonasheftmann,,*Scripten,19-9-2021,0
574,Andrija Sljivic,sljivan,,Ja täglich 12 stunden,19-9-2021,0
575,Maru,maruthanspapierkorb,,"Fangt nicht sprachen wie Java oder C an, python,HTML und vlt Javascript sind gut zum anfangen",19-9-2021,0
576,Atomzwieback,atomzwieback,,Soon verkauft er seinen Kurs für 500€ 😂,19-9-2021,0
577,Philipp,philipp_829,,Was ist mit deinem Mund falsch,19-9-2021,0
578,louis134.420,enix420,,Ist das nicht überflüssig weil es da kostenlose Tools gibt wo man nicht mehr “coden” muss,19-9-2021,0
579,anime.suchti,anime.suchti24,,BRO ICH HAB NICHT MAL EIN PC ODER SO 🥲😂,19-9-2021,0
580,Max,yeunlxcky,,Zurzeit gehen wir das thema website programmieren und ist echt nervig aber spannend,19-9-2021,0
581,Philip,waldlaeufer,,"oder man macht es über jimdo, oder wie der rotz heißt",19-9-2021,0
582,T.,tronlocke,,wer schreibt heute ne Webseite bitte noch von Hand? wir haben nicht mehr 2005 😅,19-9-2021,0
583,LI3Bui1d,li3bui1d,,@herrinformatik meinung?😂,19-9-2021,0
584,《SKIREN》 Z,skirenzx,,@jeromeschneider77,19-9-2021,0
585,Chester Roussos,mrxxbeastmode,,big cap...,19-9-2021,0
586,Anil Güven,anilquattro,,Ich lerne seit nem Monat Programmieren und hänge extrem bei JavaScript…Motivation verloren was kann ich tun?,19-9-2021,1
587,big-tasty-ohne-bacon,ee844,,hemd bügel als erstes,19-9-2021,0
588,lars schmidt,larsschmidt26,,da ich es selber schreibe ist es ja progn aber ab wann spricht man den von progn?,19-9-2021,0
589,lars schmidt,larsschmidt26,,nun ja wenn ich im editor eine leere Datei mit der Endung html speichere passiert nichts also muss ich den Inhalt der html Seite selber bauen.,19-9-2021,0
590,user3349428100471,user3349428100471,,WIESO DENKEN DIE LEUTE DAS HTML EINE PROGRAMMIER SPRACHE IST 😭😭😭 LERNT PYTHON WENN IHR PROGRAMMIEN WOLLT,19-9-2021,0
591,KevinistJesus,derprdudevonschalke,,Html und css ist kein programmieren,19-9-2021,0
592,Iven | LvckyAPI,lvckyapi,,rechne mal in purem HTML oder CSS 2+2 ahahahahahhaa,19-9-2021,0
593,Max,maxpv9,,Ich galube nicht,19-9-2021,0
594,Black Cat,real_blackcat,,hab mit java script angefangen und jetzt lerne ich c#,19-9-2021,0
595,alessandrofische4,alessandrofische4,,woher willst du das genau wissen das kommt doch auf die Person an,19-9-2021,0
596,Krytes,krytes003,,Wie fängt man mit dem programmieren an also gibt es dazu irgendwie tutorials?,19-9-2021,0
597,Dominik,dominikkrh,,@aerosuppe hätte schon bock,19-9-2021,0
598,okon639,okon69420,,ich der mit Java begonnen hat,19-9-2021,0
599,_x_432,_x_432,,An alle die es werden wollen. Ich bin jetzt seit 6 Jahren Programmierer und habe mich mit Selbstständigkeit gemacht. Ist ein toller job!,19-9-2021,0
600,Frank Albrecht,biokinese_albrecht.de,,...gähn.....,19-9-2021,0
601,torsten.boms,airbelum,,Elementor,19-9-2021,0
602,gg,lg__256,,Habe dein Video gesehen und kann ich dein Projekt nachmachen(Berlin Bewerbungen),19-9-2021,0
603,Der Hauptabteilungsleiter,hauptabteilungsleiter,,"Wenn HTML/css keine plg ist weil es interpretiert wird, wieso ist php / JS dann eine? 😏",19-9-2021,0
604,Itry,eitrei,,kann nur abap reicht für mich und meinen job,19-9-2021,0
605,Teriff,teriff.28,,"muss bis anfang oktober java für ne klausur lernen aber bei meinen kack lehrer check ich nichts, kann mir wer was gutes empfehlen für bluej?",19-9-2021,0
606,Striker25,darrian95,,Hat halt nur so ziemlich nichts mit Programmieren zu tun ne schönere Website zu bauen,19-9-2021,0
607,?,cloud.d.the.patriot.2934,,Ich habe seit einem Jahr Informatik und kann das nicht wir haben das garniescht gelernt,19-9-2021,0
608,Benomat,_benomat_,,"Über ein Jahr dabei, kann nichtmal das Zweite",19-9-2021,0
609,We4kness,we4kness,,HTML IST EINE AUSZEICHNUNGSSPRACHE!!!!!,19-9-2021,0
610,⠀,.wewewewewewewewewewew,,Vertraut mir macht es ihr könnt nach einer Zeit extrem viel verdienen,19-9-2021,0
611,Pech,naniso32kalp,,@naruto.._.._..uchiha hast du den bre abonniert,19-9-2021,0
612,Speedy,speedrider6,,Könntest du zu html Programmier Tutorials auf YouTube machen?,19-9-2021,0
613,Gohan The goh,joh_grie,,Was ist das beste Programm fürs prrgammieren,19-9-2021,0
614,Daniel Yakovlev,daoriginaldaniel,,Kannst du empfehlen mit Swift als Anfänger zu starten?,19-9-2021,0
615,lassmarudern,lassmarudern,,was ist mit Java ?,19-9-2021,0
616,Noname,nonsme12345,,Zum starten macht es immer noch am meisten Sinn mit C/C++ zu starten - heute genau so wie vor 30 Jahren.,19-9-2021,1
617,connor,preqsmemes,,C#,19-9-2021,1
618,Arclight,_.arclight._,,3,19-9-2021,0
