,Comment Number (ID),Nickname,User @,Comment Text,Time,Likes
1,MyFitCoach,myfitcoach.affiliate,,✨Hacker Modus✨,25-11-2021,652
2,Stefan Nafcz,stefannafcz,,Ganz normale Textumleitung in Datei. Gab's schon bei DOS. Wozu ein Hackermodus? 😏😅,25-11-2021,34
3,🏴󠁧󠁢󠁮󠁿,._.rewind,,@lordrepha_ der hackermodus😂,18-2-2022,1
4,itspatrik,ptrikz1,,"Was bringt dir das ganze jetzt. Ich, der einen Use-Case sucht: Nix! 😂",25-11-2021,126
5,Hab ich vergessen.,__noobmaster_69__,,@viola_rgz das ist deutlich unnötiger als Mathe,25-11-2021,5
6,Crimeeeeeeee,crime_jan,,Bei cd desktop steht da Das System kann den angegebenen Pfad nicht finden.,25-11-2021,1
7,Irgendeine Gruppe,wasdalosgewesen,,EiR sChReIbEn CoLoR A fÜr DeN ✨Hacker-Modus✨,24-12-2021,2
8,Dinervc,dinervc,,Das mit der grünen Farbe hat er von mir gelernt😎,25-11-2021,1
9,DerwyldeJim,derwyldejim,,du kannst auch einfach rechts Klick drücken und dann auf neue Datei gehen😅,4-12-2021,12
10,Armin,arm1n.v,,@vfx.ienis eif TG auf anderen Desktops machen 😂,25-11-2021,1
11,F_Dyo,f_dyoo,,Mein PC ist gehäckt worden 🥺hast du Tips,11-5-2022,0
12,h0tic3Lippe (Daniel),h0tic3lippe,,Ui. Und schon meldet sich mein Darm.,25-11-2021,1
13,Quentin Wetjen,quentinwetjen,,@its.lia_marie so waren deine Farben,21-12-2021,4
14,Flowidan,flowidan,,geht das mit Java auch kann leider nur Java haha,25-11-2021,5
15,ᴹᴬᴰ|ɴᴇss,kaizernixx,,ist das kripke?,25-11-2021,1
16,_its.dxniel_,_its.dxniel_,,Wie macht mann diesen pfeil,24-12-2021,1
17,Tik Toker,thedarkerknight,,could I maybe get some help if anyone knows cmd well?,23-3-2022,0
18,FN_Acount_Trade,fn_acount_trade,,immer wenn ich den Befehl cd Desktop eingebe kommt: Das System kann den angegebenen Pfad nicht finden.,27-2-2022,0
19,demonslayerboy,likedemonslayer,,bei mir geht es nicht warum?,30-12-2021,0
20,XBOX,xbox_auto6694,,Ich in der schule,25-12-2021,0
21,Macmissionar,macmissionar,,"Sag doch direkt, daß Windoof Spielzeug ist.",25-12-2021,0
22,SalemSaberhagen,________salem______,,Warum ist mein laptop sooo langsam? Benutze ihn fast gar nicht! Chrome braucht 2 min bis er aufgeht.,25-12-2021,0
23,gehtdichnixan,ibimsnixnormal,,"Oder du machst ""color a"" und dann ""tree C:"" dann verwirrst du unwissende freunde",25-12-2021,0
24,ET,et_funspace,,Krass so ein gutes Tutorial habe ich lange nicht mehr gesehen *ironie* 😂😂😂😂,24-12-2021,0
25,sebfo999,sebfo999,,wie oft hat man sich bei windows über ssh angemeldet 🤔,24-12-2021,0
26,her boyfriend.,kroatischerboban,,Dere hackermodus is wild 😂😂😂😂,24-12-2021,0
27,Banane🍌,onkel.banane,,"für den Hacker modus, ja nee ist klar 😂😂😂",24-12-2021,0
28,TEXploder,texploder_,,color 2 für den hacker modus*,24-12-2021,0
29,Carlos,ghost_suchti,,oder einfach windows und R,24-12-2021,0
30,Splasher YT,splasheryt1,,Hacker Modus achsooo,24-12-2021,0
31,.,memes.for.you.okay,,Was für hacker Modus es ist dann einfach nur grün😂😂,24-12-2021,0
32,Pietza,piet.za,,"Bin ich der einzige der dachte, das er da SSHEEEEEESH hin schreibt? 😂😳",24-12-2021,0
33,FlubbedCape,flubbedcape,,Mehr davon bitte 🥰🥰,24-12-2021,0
34,Eren.usta,sebiistdumm,,"""Das system kann den angegebenen Pfad nicht finden""",24-12-2021,0
35,Fiewo,fiewo,,Fahr meine linux rechner runter und lache 😂,24-12-2021,0
36,Justin,3.jstin,,Auf Linux cmd Desktop oder so und dann mkdir hello.sh,24-12-2021,0
37,Michael Meisinger,minimik71,,SSH aber doch nur zu Linux/Unix Systemen. Win hat doch keinen SSH Dämon um dorthin eine Verb. aufzubauen?,24-12-2021,0
38,19yxnnxk06,19yxnnxk,,"weißt du wie man einen kopier bitton in css und html erstellt also bei clicken des buttons wird der text im input ko
piert",24-12-2021,0
39,Just a normal dude...maybeee,lmorilla06,,Wie könnte man mit z.b. cmd andmin Rechte auf dem schul pc bekommen am besten ohne eine bat datai weil die sind bei uns gesperrt,24-12-2021,0
40,toasti,schimmeltoast08,,"Endlich jemand, der nicht immer so ist:
ErSt DrÜcKeN WiR WiNdOwS uNd R
Das bringt halt nix😂",24-12-2021,0
41,Aleks Gramm,_agramm_,,schreibt mal shutdown -s -t 5,24-12-2021,0
42,L_M_VR,l_m_vr,,imagine man startet cmd immer noch über die Windows suche und nicht über win+r,24-12-2021,0
43,Clara🖤😇,claralaralaralara,,"Ich wusste nicht, dass die Farbe „grün“, nicht „grün“ heißt, sondern „Hackermodus“ heißt…",24-12-2021,0
44,Romeo Guzsvany,romeo.g,,"Ich habe Windows 11.
Funktioniert das dort auch?",24-12-2021,0
45,Thomas Wojtowicz607,thomaswojtowicz2,,nö windows 😏,23-12-2021,0
46,Crypto_Dino,crypto_dino,,nutze windows nicht nur wenn ich dort ein programm oder game spielen/nutzen will,23-12-2021,0
47,IchBinsTim,simp_kid88,,"Ich bin ganz neu im Programmieren, hast du Anfängen Tipps für mich bitte ?",23-12-2021,0
48,imagoat89,imagoat89,,du areners mech un den herr biwers😂,23-12-2021,0
49,alexweb1306,alexweb1306,,Was war nochmal Windows? Die hackersuite der Mariobros ?,23-12-2021,0
50,Plitti96,plitti96,,SSH auf Windows?🤔,18-12-2021,0
51,Phil,.theskz,,imagine nicht win + r,11-12-2021,0
52,abdu,20.abdu,,lernen wir grad in IT 🥰,1-12-2021,0
53,Richtig gut! 👍,richtig_gut,,"Maus rechtsklick auf Desktop, Neu, TXT. diese öffnen und Hallo reinschreiben.",26-11-2021,0
54,purplesaft,purplesaft_,,was ist SSH,26-11-2021,0
55,Bluffle,bluffle,,Und warum sollte man nicht einfach das GUI benutzen??,26-11-2021,0
56,NoxitMC,noxitmc,,Anleitung zu ungenau bin jetzt im Gefängnis,26-11-2021,0
57,Hack Lab,hacklab2,,ne mit reverse shell,25-11-2021,0
58,F1.is.a.Family,formula1.is.family,,wenn man das in der Schule machen will die es aber gesperrt haben 😑,25-11-2021,0
59,Martin,catdestroyer_69,,ey pls part 2 und so weiter haha liebe es bat files zu Scripten wirklich gute tipps!,25-11-2021,0
60,jonny.sins″,yo.oli__,,damit können Viren gemacht werden. ist eig ziemlich cool,25-11-2021,0
61,Luis,luis.mjn2704,,"Was bringt mir das, dass ich an anderen PCS Dateien erstellen kann?",25-11-2021,0
62,Tyler Schuh,tylerschuh,,wie kann ich andere Schüler Pcs herunterfahren die aber ans lan angeschlossen sind?,25-11-2021,0
63,Steven,joe_6868,,Anleitung zu ungenau habe das FBI gehackt,25-11-2021,0
64,2002Spiele,spielespielen2002,,Wie kann man mit mehrere Zeilen in der Datei schreiben?,25-11-2021,0
65,⚡𝕸𝖔𝖓𝖘𝖙𝖊𝖗𝕸𝖆𝖘𝖙𝖊𝖗⚡,monstermaster_orign,,pov in der Schule ist und deaktiviert 😂😂😂,25-11-2021,0
66,.,ig_little_x5,,ich hab durch dich auf yt python gelernt xD,25-11-2021,0
67,user2677878441082,peja_15,,Kann mir wer helfen? Ich muss meine Grafikkarten treiben aktualisieren aber das geht nicht,25-11-2021,0
68,Dawid,dawid.mg,,was sagst du zur Ausbildung als Fachinformatiker für Anwendungsentwicklung?,25-11-2021,0
69,Paul Hempel700,paulhempel4,,kann man villeicht Windows mit ssh verwenden ???,25-11-2021,0
70,III,aymennn.3,,Mehr solche videos,25-11-2021,0
71,Freddi,freddi_xyz,,Wer verwendet bitte SSH um auf eine Windows Maschine zuzugreifen?😅,25-11-2021,0
72,Ich bin’s,ichbineinnormaleruser,,"Da nehm ich lieber copycon, macht sich besser, da was rein zu schreiben",25-11-2021,0
73,™ツẞªŘªË𝐛Ïĸツ™,tt_saraebik,,что,10-1-2022,2
74,🎭Ġłįŧçĥ🤡,____.____.____.._____,,бригаду..,27-4-2022,0
75,Умоляю,_botik_228_,,"Показал это видео деду, он умер от инсульта",13-2-2022,0
76,❤️‍🔥༒❤️‍🔥,pl.nicki,,windows+r / cmd,24-12-2021,0
77,Finn,finndichkacke,,Scriptkid,24-12-2021,0
78,Dieser Fabi,stevencolistan,,Ssio,24-12-2021,0
79,ampossibleamv,ampossibleamv,,comment on fait pour avoir le le droit d'admin sur le PC de lycée,13-12-2021,0
80,Benjamin,sinnyben,,Oldschool 🤣😄,25-11-2021,0
81,Yowhatup,yowhatup999,,Color a und dann tree damit man so aussieht als ob man krass ist,24-12-2021,0
82,Go to Gym,3xupdark,,Joa so nen Typ hat auf eine txt nen Trojaner geladen frag mich bis jz wie das geht mache ja selber sowas aber das ist mir unklar kann jmd. Helfen ?,25-11-2021,0
83,Herr Programmierer · Ersteller,herr_programmierer,,IG: junus.ergin,25-11-2021,8
84,💚🖤Gon🖤💚,oritosensei,,geht sein Video auf YouTube schauen 😉,25-11-2021,1
85,past,past0950,,Mein Gott wie lächerlich kann man sein 😂 „Hackermodus“ im CMD 🤣 und sowas nennt sich „Herr Programmierer“ 🤦🏼‍♂️,25-11-2021,1
86,Trollo_Troll,trollo_troll,,"@bens_hardware stimmt das wirklich oder wieder ein faker
ich finde das es kein fake ist",26-11-2021,1
87,xam xam,yarrackindeingoet,,häckermodus,25-11-2021,1
88,maaliexe,maaliexe,,"""hacker modus""",24-12-2021,0
89,MrSteve72,mrsteve72,,Hackermodus? Eher aus dem Blutiger-Anfängerkurs Linux ...,23-12-2021,0
90,Andreas Rau,andreasrau0,,hacker kurs für sehr arme,17-2-2022,0
91,kompatibel,kompatibel,,"Wäre mir peinlich so etwas als ""herr_programierer"" hochzuladen",25-11-2021,0
92,👻Ghost Face Cult👻,darol.gg,,Ich kann auch eine datei so erstellen ohne cmd auf einem anderen computer,24-12-2021,0
93,Hi,..dorfhub,,Du kannst das ich direkt im Editor machen mit einem Body heat und html,26-12-2021,0
94,user2991159535325,korlik_one,,Psexec,25-12-2021,0
95,Hubyfan,hubyfan,,"livehack. Rechte Maustaste- Textdatei erstellen.
verrate Es niemanden 😅",24-12-2021,0
96,𝕐𝕠𝕦𝕋𝕦𝕓𝕖: 𝕩𝔽𝕒𝕓𝕚𝔻𝔼,fabi.hax,,klappt das auch mit .bat Dateien? für n Schulprojekt natürlich xd,24-12-2021,0
97,Kl,bljatomatiko,,programmierst du mit 10 fingern ?,25-11-2021,0
98,lukas.465,lukas.0134,,color a= grün du profi des bodens,25-11-2021,0
99,Kitscher 1408,kitscher1408,,Hacker Modus... Außerdem unterstützt Windows kein SSH😅. Bitte zuerst informieren bevor du irgendwas hochladest,25-12-2021,0
100,jxsh,nutwassup,,hacker modus hahaha ich hab lf,24-12-2021,0
101,Mark_Rumpel112,mark_rumpel112,,Wie er seinen Mund bewegt nervt mich irgendwie,23-12-2021,0
102,McWuragu,mcwuragu,,"Wenn einer schon kommt mit Hacker Modus sag ich nur „gesehen, gelacht, F8“….und wer das jetzt versteht ist echt zu alt LOL",25-11-2021,0
103,FunkyFlakez,funkyflakez,,"kleine spielerei.
kleine datei die nichts macht außer den pc neu zu starten und ab damit in den autostart.",25-11-2021,0
104,Alwin Mark,alwinmark,,CMD? WtF?!?! Wenn dann Powershell. Windows CMD ist ja völlig funktionsbehindert.,25-11-2021,0
105,mr.zitat,mr.zitate1412,,"shutdown /s /t 6000
In 100 min geht dein Laptop aus",19-12-2021,0
106,NichtDanny,nichtdanny,,Normale Leute: Rechts Klick -> Neue Textdatei 😂,24-12-2021,0
107,Chicken Mc Bärbel,hahnrald,,[hehe] lol,24-12-2021,0
108,Jamie Helmke,jamiehelmke,,"igitt, Windows",25-12-2021,0
109,⚠,n0thing_347,,"color a
dir/s",25-12-2021,0
110,:),little_energy,,Nice,25-11-2021,0
111,Lia,its.lia_marie,,😌😌😌,21-12-2021,1
112,Jesus,hallogfq7,,"Immer lustig wie viele Leute es in den Komentaren ""besser"" wissen",21-4-2022,0
113,Tim,timmyskill187,,@timmyskill187：Hackermodus😂😂😂😂😂 mit farbwechsel😂😂😂😂😂😂😂,14-12-2021,0
114,Fabse,f4bs3,,🤦‍♂️,25-11-2021,0
115,Eybrouw13,eybrouw13official,,@bens_hardware,25-11-2021,1
116,perfect freeks,lapi_02,,@110janis110,25-11-2021,1
117,M.Yaman,m.31king31,,@anonymer.trk58,24-12-2021,1
118,Vali512,vali512.asmodeush,,@dddddjdjsjsj,5-3-2022,1
119,Ruven,ruven.khn,,@abby.hcr,25-12-2021,0
120,Kitscher 1408,kitscher1408,,@bens_hardware 😅😅😅,25-12-2021,0
121,Maveric,hangoutwithmaveric,,@bens_hardware,24-12-2021,0
122,Fabi_.mtb,fabi_.mtb,,@bub.1337,25-11-2021,0
123,user7738767050787,felix33513,,@bens_hardware,25-11-2021,0
124,Samjan,samjan162,,@Linux__Kid,25-11-2021,0
125,Tobi,tobibaguette,,@mounir.on.crunchyroll,25-11-2021,1
126,user2708425344523,dereluk9997,,omg l33t h4xx0r,25-11-2021,0
127,vPrxlerツ,wxpe66,,@dustin.blmn 🤦🏻‍♂️,25-12-2021,0
128,Julian,juli081015,,@queen_22_xd,24-12-2021,0
129,Ich.tomate,du.tomatenschaeler,,wie erstelle ich ein 2 desktop mit 1 monitor,25-11-2021,0
