,Comment Number (ID),Nickname,User @,Comment Text,Time,Likes
1,schnerbse,schnerbse0,,Hey du hast deine IP address geleakt,23-12-2021,748
2,neihein,neihein,,kannst du meinen Kühlschrank reparieren,23-12-2021,201
3,fabiyau,fabiyau,,"weiter: PortScan und etwas google,https und vllt Anmeldung der Box sperren DynDns Namen heraus finden .... :) 0 wissen nur rumprobieren",23-12-2021,4
4,🥦 CannaChris 🥦,cann4chris,,Die IP ändert sich i.d.R. in DE alle 5 Tage 😏,23-12-2021,2136
5,Kev,kev._929,,VPN regelt,23-12-2021,138
6,chomeles,chomeles,,ich hätte gern noch sowas wie ddos im selben Video gehabt ansonsten top 😁!,23-12-2021,452
7,synrow • Pascal,synrow,,"Warum so umständlich? Einfach dort suchen woher die IP kommt. zb RIPE, ARIN APNIC oder was auch immer…",23-12-2021,4
8,Dudeeee,daily._._.memes._,,"Die Tutorials auf Youtube haben mir immer sehr geholfen.
Dankeschön",24-12-2021,4
9,ole10_05,ole10_05,,Hey du hast deine Ip geleakt,23-12-2021,5
10,cheese_pizza_lover,isapar2,,"wird der suchverlauf etc. auch gespeichert (also im router für anbieter und so), wenn man nh vpn drin hat",23-12-2021,2
11,neversleep,neversleepinnight,,"Wie kann es sein,dass ein fremder der in der selben gta Lobby war mein Internet für 10 Minuten ungefähr ausschalten konnte & mir vorherSchrieb ""ddos""?",23-12-2021,2
12,…….,xzuap,,Ipv4 kann man nichts anfangen außer ddos Attacke starten aber da kann man einfach eine neue ip zuweisen oder router neustarten.,23-12-2021,2
13,Sinando,sinando,,Wieso nur 38 views??,23-12-2021,130
14,zusel.zusel,zusel.zusel,,man sollte vllt. dazu sagen das man nicht immer eine ipv6 hat...,23-12-2021,7
15,~,keinbockaufnennamenxd,,"Man muss nichtmal auf ne website, windows+r —> CMD eingeben —> ipconfig in das command fenster eingeben, so geht auch wenn du offline bist",23-12-2021,4
16,ɢᴇᴏʀɢɪᴠᴀʟᴋᴏᴠɴᴏᴛᴇ,lustige.memes931,,Alle Linux User : ip a,23-12-2021,7
17,Chrinx,reezeyx_,,Static ip lässt grüßen,23-12-2021,18
18,🥨,guckyouall,,Danke für deine Videos ich will gerne später was in Bereich it machen und ich lerne immer neue Sachen von deine Videos thx,23-12-2021,79
19,Not my Name,not_my_name.07,,"Mal ne Frage, mein PC ändert jeden Tag meine IP ist das normal?",23-12-2021,2
20,casual,casual__22,,also was kann man denm nun alles rausfinden ? nur die stadt ?,23-12-2021,15
21,RFY,takexans,,Naja man kann Leute auch offline hauen wenn man deren IP hat,23-12-2021,1
22,水 | 𝙌𝙪𝙫𝙙𝙤𝙤,quvdoo,,erster,22-12-2021,3
23,E3XRON,e3xron,,schon lange ändert sich die ip nicht mehr lol,23-12-2021,1
24,Anime4you,deinanime4you,,"Eine ipv4 ist nur Zahlen
Und eine ipv6 ist Zahlen und Buchstaben",23-12-2021,2
25,lennynotkravitz,lennynotkravitz,,Bei manchen Anbietern wird schon die private Adresse angezeigt,23-12-2021,2
26,BadSport__Official,badsport__official,,Hä du hast deine Ip gezeigt,23-12-2021,2
27,Tik Toker,userhq15reghob,,"öhm, du hast deine ip geleakt",23-12-2021,2
28,𝕃𝕖𝕩𝕚,lexi889lexi889,,ohaa du wohnst in München ich auch xD,23-12-2021,2
29,𝔾𝕀𝔹𝕋𝕊 𝕎𝔸𝕊?,angela.mehrkill,,Yesss endlich eine Aufklärung für unwissende,23-12-2021,2
30,Zeyrox,._zeyrox_,,Hey du hast deine Ip geleakt,23-12-2021,2
31,-_-,c4vxl.me,,HEy Du HaSt dEinE Ip AdDrEsSe geLeAcT😂😂,23-12-2021,2
32,LoL,deadbotv2,,oder mit ipconfig bei der commandline,23-12-2021,2
33,Sinando,sinando,,Zweiter,23-12-2021,1
34,thyron,thyroooon,,omg einfach ip geleaked,23-12-2021,2
35,melonbenji -_-,melonbenji_,,warum ist es ihm egal das er seine ip geleakt hat kenne mich nicht aus,23-12-2021,1
36,whatdefish,whatdefish_hd,,Wie sicher ist eine Port Freigabe für z.B. einen Minecraft server,23-12-2021,1
37,JeanReaper,_jeanreaper_,,"Is ja ne tolle sache, aber wenn du zb keine internet seite oder so hast, wie kommst du dann an meine IP?",23-12-2021,1
38,Jan,jan.bat,,Höööeeeeeyyy du hast deine ip addresse gelesked,23-12-2021,1
39,Philipp5563,philipp5563,,Man kann dich noch ddosen aber das war’s,23-12-2021,1
40,eintrachtundrylix,eintrachtmitrylix,,"Das ist glaub ich eindeutig, dass eine IP-Adresse nichts anrichten kann! Bin selbst ein Hacker und hatte nie diese situation gehabt 😂",23-12-2021,4
41,Minecodes,minecodes,,"IP geleakt, aber ändert sich eh, wenn man keine statische hat innerhalb von 24h",23-12-2021,1
42,⠀,hba.abh,,Also bis jetzt jeder der irgendwie was mit meiner up gemacht hat meinte ich wohnt in Freising sind zwar nur 30 km aber Joa,23-12-2021,1
43,🖤,suspicious_human.exe,,ip geleaked,23-12-2021,2
44,Name,nameistvergeben1,,kannst du mal ein Video machen zum Internet Provider?,23-12-2021,1
45,lol,_hahahahahahaha____,,mann kann in cmd ipconfig benutzen,23-12-2021,1
46,Holger,holger164,,Ich hab keine ip 😊,23-12-2021,1
47,𝗇𝗂𝖼𝗅𝖺𝗌,niclas.lbk,,"@hinsmacyeah jaaa, so wichtig ist das Video",23-12-2021,1
48,.,mecuevy,,Mehr davon,23-12-2021,1
49,Vincent,vinxent13,,@crocofnr mohamed macht das jetzt bei mir…,24-12-2021,1
50,maghrebino_official,maghrebino_offici,,"Ich muss dir ganze Zeit auf seinen Mund gucken, wieso 😂😅",23-12-2021,1
51,RuZzixv,ruzzixv,,Du hast deine IP geleakr,23-12-2021,1
52,newsdw,dustin7811,,Meine ist 127.0.0.1 kannst mich angreifen!,23-12-2021,0
53,;,itami.19,,Vpn regelt 😌,23-12-2021,0
54,Florian Oconner,florian_oconner,,oder utrace,23-12-2021,0
55,Der Nick :D,der.nick.1337,,Nichts XD,23-12-2021,0
56,InstinctRow,instinctrow,,warum das nächste video....,23-12-2021,0
57,unleqiticetea,unleqiticetea,,@speider_92 D:,23-12-2021,0
58,Moritz A.,moritza8,,Viel,23-12-2021,0
59,Bert One,bertonace,,es sind öffentliche IP mit denen kein Zusammenhang zu deinem PC gemacht werden können. ebenso nicht möglich über diese IP jemanden zu hacken.,24-12-2021,0
60,max lol,max.ruppert,,Wo ist das Video mit dem Unterschied zwischen ipV4 und ipV6,23-12-2021,0
61,Matthias Fildebrandt,matze886,,geil,23-12-2021,0
62,Dragan N.,draganmovie,,hey cooles video kannst du noch die Vorteile eines VPN erklären ?,24-12-2021,0
63,Kaan,kaane93,,Wie kriegt man die ip von jmd raus. Frage für unterricht,24-12-2021,0
64,saggarnichts,saggarnichts,,"Hatte mal einen Kollegen der sich darüber aufgeregt hat, dass seine IP im Internet auf dieser „wie ist meine IP Seite“ steht. 😂😂😂",24-12-2021,0
65,Daniel,d4g0b3rt,,Bruder von Thomas Hermanns?,24-12-2021,0
66,Filip,ig.26filip,,Wie sammelt man eigentlich die ganzen Informationen über die ganzen die sicherheitslücken,23-12-2021,0
67,hey wie gehts,braicking,,Aber ich wohnen wo anders und eee Zeigt mir nur den server oder was an weil ich ohne auf dem Dorf und nicht City 😂,23-12-2021,0
68,user8107332003856,neutickitocki,,Ich kenne nur ipconfig im DOS Fenster…,23-12-2021,0
69,Piotr Vorwerk,piotrvorwerk,,wie ist mein Internetverlauf 😳,23-12-2021,0
70,vxrwirrt,sphox.kun,,kann man mit der ip nicht jemanden ddosen?,23-12-2021,0
71,Danilo _xd,danilo_xd1,,Oder einfach cmd gehen und ipconfig eingeben,23-12-2021,0
72,Simon,autist_mit_menschl_zuege,,hÖh Du HaSt DeInE iP GeLeAkT😂,23-12-2021,0
73,Größter yaro,ichbinsebu,,Könntest du auch mit Hilfe ein ip Eine Anzeige machen ?,23-12-2021,0
74,...,szilard_001,,aber die IP adresse verändert sich doch eh innerhalb von 24 stundne oder?,23-12-2021,0
75,Olaf Over,olafover,,Ich hab die 127.0.0.1,23-12-2021,0
76,user9807377589127,am_chloe,,ich lebe in Braunschweig aber da steht Hannover 😂. noch nie habe ich die richtige stadt da raus gekriegt von meinne freunden,23-12-2021,0
77,Mino,mino._.drip,,Pov morgen sind 20 Leute vor seiner Tür,23-12-2021,0
78,Floby ✓,elfloby,,Und wann beantwortest du die frage?,23-12-2021,0
79,liridon.f1,liridon.f1,,Safecall Internetseite bearbeitet und ip leicht verändert,21-2-2022,0
80,tayler.gaming.tv,tayler.gaming.tv,,bin der 💯 0 komentar😳,31-12-2021,0
81,,skyronix_,,wie bekommt man überhaupt deren IP?,30-12-2021,0
82,zui,zui20007,,Du hast die Frage nicht beantwortet,30-12-2021,0
83,Fatale_Bierkiste,seby0906,,"Ip ändert sich jeden Tag bringt nix die zu haben
Ipv4 zu haben is das problem",29-12-2021,0
84,KeinBaum,vanda_lismus69,,Warum nicht yt machen anstatt von TikTok,29-12-2021,0
85,tomschorn55,tomschorn55,,Hey du hast deine Ip geleakt😂😂😂😂 wenn Mans ankündigt Sinn die Kommentare um so lustiger,29-12-2021,0
86,Ligma10987654321,ligma10987654321,,No front aber warum guckst du am Anfang des Videos als hättest du gerade recht schmerzhaften Stuhlgang?,29-12-2021,0
87,Leon,leonlechon,,München 🥸,29-12-2021,0
88,pro gamer,animelover4you1,,Kannst gerne meine Ip habe Nord VPN,28-12-2021,0
89,Basti HD,bastihd2,,Hey du hast deine IP geleakt,28-12-2021,0
90,Stolenediz,stolenediz,,nichts nach 1stunde ändert sich es😂,28-12-2021,0
91,noor,deepbeats600,,Bei mir stimmt das nicht also die Stadt,27-12-2021,0
92,klk1989,klk1368,,es wird witzig mit ein vpn,27-12-2021,0
93,klk1989,klk1368,,mich orten,27-12-2021,0
94,Julian,julian06ion,,Das Dings die Firma bekommt es mit wenn du versuchst jemanden den IP zu hacken SUUUUIIIIII,27-12-2021,0
95,Bashar Alkhatib,bashar.alkh,,DHCP würde den ersten Kommentar feiern😉,26-12-2021,0
96,AnimeEdits,animerxney,,"Wenn man vpn aktiviert hat und illegal z.b Filme schaut, kann die Polizei oder sonst wer herausfinden, dass ich das war? (Kenne mich nicht aus)",26-12-2021,0
97,Octane_EXE,octane_exe,,also du kannst mit meiner IP garnichts anfangen weil von,26-12-2021,0
98,Wellenmelone,wellenmelone,,Wieso braucht man zum Nachsehen eine Website?,25-12-2021,0
99,~,sad_1379_sad,,ich weiß welche stadt fu wohnst 😌 ( Eurasburg ),25-12-2021,0
100,slavapowa,slavapower,,bei browserleaks kann man sogar viel mehr dadurch herausfinden,25-12-2021,0
101,Niemand,keine.idee_08,,Kannst dubmeine mikrowelle reperarieren,25-12-2021,0
102,PLASCHWA,plaschwa,,erkläre mal das mit dem provider,25-12-2021,0
103,David Kraus,david_k_official,,Lol er leakt einfach seine IP,25-12-2021,0
104,mika_brr,mika_brr,,Ddosen,25-12-2021,0
105,Crew,simsoncrewsaxen,,Schonmal was von VPN gehört,25-12-2021,0
106,🥷🏻,xmzull,,"was passirt wenn ich mein handy verliere, und da mein gmail drien ist kann ich durch mein gnail mein handy finden?",25-12-2021,0
107,мᷟаᷧрͬсᷤиͥмот߯оCBN,marsimoto3212,,bringt ja nichts die IP Adresse wird alle 24stunden reseted.,25-12-2021,0
108,AndyBring,andybring,,"nix? Weil alle Anbieter ds-lite verwenden, dort die ipv6 nicht standardisiert verwenden weil sie immer noch über die gateserver des Anbieters laufen?",25-12-2021,0
109,NETiX,netixvq,,"Naja, wenn’s ne dynamische ist, hat man „Glück“, falls man sie aus verstehen leakt 😂",24-12-2021,0
110,Road to Stream Key,boculum,,Einfach Windows+R dann cmd eingeben dann könnt ihr im neuen Fenster einfach ipconfig eingeben,24-12-2021,0
111,The Video Artist,elgrandeboss,,Nix,24-12-2021,0
112,RubbleTheKing,rubbletheking,,geht nicht auch im cmd ip config?,24-12-2021,0
113,noname,lllllllllllllll504,,Du kannst meine ip nicht finden (bin obdachlos),24-12-2021,0
114,Ali Afghane,ali_46x1,,Uber cmd kannst auch heraus finden deine ip also,24-12-2021,0
115,Sniperman ff,sniperman.ff,,die ändert sich eh alle 24 Stunden,24-12-2021,0
116,Fireburn Roleplay🔥,fireburnroleplay,,ich liebes bei meiner IP kommt meine Stadt und die Koordinaten stimme fast lol,24-12-2021,0
117,Anononymus,cartion7op,,kann man auch dedosen oder?,24-12-2021,0
118,😈 ɪᴍ ʙɪɢ ᴅ.😈,999.draake,,kannst du mal erklären wie Mann das zuhause von jemanden finden kann 😈,24-12-2021,0
119,WąŤŤšóň,wattsupapek,,wie findet man die von anderen raus,24-12-2021,0
120,Tobias Dittel,nachtschatte,,Kein Problem,24-12-2021,0
121,Mr. Nobady,mrxnobady,,@mrxnobady:wie bekomme ich die IP von anderen machen,24-12-2021,0
122,jojo,.captain_crack_sparrow,,man kann die IP ändern und das weißt du auch und nur deswegen hast du sie geleakt,24-12-2021,0
123,Uk Drill💯,x24kcloudzz,,Ey du hast deine IP geleakt,24-12-2021,0
124,Javier A Rivera,javierarivera24,,zumbeispiel 😏,24-12-2021,0
125,…,u.ser143637,,Neuer hardware luca…,24-12-2021,0
126,Hugo Carlof,julioelescobar,,Was hast du studiert?,24-12-2021,0
127,AstralJaeger,astraljaeger,,"Es gibt übrigends bessere ipchecker ohne das ganze html herum, die geben nur eine IP als plain/text",23-12-2021,0
128,DonaldDuck,donaldduuck,,Die ip resetet sich doch nach ner bestimmten Zeit,23-12-2021,0
129,plapi,plapitt,,fun fact: bei 22sek geht Google assistant an 😂,23-12-2021,0
130,Die_Gamer_Melone,satesatesatesateeee,,Die IP Adresse wird doch alle 24 geändert oder?,23-12-2021,0
131,Sebastian .f,seppel_71,,"ich benutze sogut wie nie Wlan, da ich Nur über mobiledaten online bin, und ich meine Ip Adresse (Teile) ist es unmöglich mich zurück zu verfolgen 😁",23-12-2021,0
132,Simon,thesimoms02,,oha einfach Ddos vergessen,23-12-2021,0
133,folgt,exyinq_,,Der arme 😂,23-12-2021,0
134,E.L.B.O.Z.Z.A,elbozza,,Dinge die ich schon mit 11 Jahren gewusst habe:,23-12-2021,0
135,tibi,el_ias16j,,pov: morgen ist Weihnachten 🎄,23-12-2021,0
136,Wang Dang Doodle,play4minds,,"meine ist 127.0.0.1 , viel Spaß allen pösen hackern. 😂😂",23-12-2021,0
137,🃏,lil_bone666,,Hehe der hat seine IP geleakt lol,23-12-2021,0
138,8,b3nxsf,,falls Leute nicht checken IP Adressen ändern sich jede 24stunden,23-12-2021,0
139,ɷεɾŧ,mert58.38,,Und wie finde ich die IP von jemand anderem?,23-12-2021,0
140,BUMMBAUM,bummbaum,,Nicht jeder hat schon ne IPv6 zur IPv4 - zum Glück.....,23-12-2021,0
141,quZH,nein_zu_c0r0na,,Ich glaub du hattest ein vpn benutzt,23-12-2021,0
142,robin jaa,hntaisyxrobin,,Ich ddos immer meine Gegner in cwbw auf gomme,23-12-2021,0
143,PitiRocker,pitirocker,,"garnichts, weil ich 2 Firewalls im einsatz habe..",23-12-2021,0
144,999,9neun9,,HeY dU hAsT dEiNe Ip GeLeAkEd,23-12-2021,0
145,RedzētPrātu20Boy,edwinscamansofficial,,Wenn ich Yandex Browser z.B nutze und mich wo anmelde Steht ich habe mich mit ein Anderen Gerät angemeldet und die IP ist auch anders Woran liegt das?,23-12-2021,0
146,Henesy,mxi830,,ich wohn auch in münchen,23-12-2021,0
147,Jacob,jacobdeznuz,,Es gibt ips die sich jede 24h wechseln,23-12-2021,0
148,xD,withmunky,,Wir finden es on der schule iergendwie raus die haben ne vpn nach dablin,23-12-2021,0
149,萊昂,rayzen0410,,Danke Google hat sich geöffnet,23-12-2021,0
150,F4bio,f4bio03,,wie kann man DDOSEN,23-12-2021,0
151,lofya.net,lofya.net,,du hast aber auch deine ip v6 geleakt,23-12-2021,0
152,Elias,actuallyelias,,Wie kann ich die von jmd anderem herausfinden,23-12-2021,0
153,Pingu,pinguts,,"Naja, bei (dynamischen) IPv4 kann man schon relativ gut den Standort ermitteln. Die werden von den ISP sehr kleinteilig zugeteilt.",23-12-2021,0
154,Cntzer,timoffermann,,Kann man mit der IP nicht noch DDoS attacke machen?,23-12-2021,0
155,My_MCU_love,my_mcu_love,,valla Bevor du etwas sagst nh ich komm auf Frankfurt jaa valla da raucht jeder ja bevor du etwas sagst frag mal warum valla ja,23-12-2021,0
156,ZombiCrankz,zombicrankz,,Kannst ja gerne benutzen. Es ändert sich bei jedem pc und router neustart 😂,23-12-2021,0
157,General Crazy,generalcrazy5,,Wird dich eh alle 24stunden geschweige nach einem Router Neustart eine neue IP vergeben,23-12-2021,0
158,꧁𝚜𝚎𝚟꧂,sev.best_moments,,Was bruda,23-12-2021,0
159,Pxqude_is_gone,pxqude_is_gone,,Nord vpn oder ?,23-12-2021,0
160,Dominic385_I,dominic385_i,,IP Adresse die für extren ist ändert sich in der Regel alle 24 Stunden oder wenn DSL wegbricht,23-12-2021,0
161,Jo,the.capalot,,Danke das das mal wer sagt. Alle denken immer sie finden jetzt den exacten Standort raus wo sich jemand befindet,23-12-2021,0
162,RegenbogenKeks,regenbogenkeks_fu,,Wieso ist mein Standort angeblich Rheinland Pfalz?,23-12-2021,0
163,7Pummel,7pummel,,du wohnst in münchen,23-12-2021,0
164,Shrek Gang,sexy_shrek32,,mir wurde mal mein ip adresse genommen mit iptracker also so mit link dann wurde bei mir das internet ausgemacht,23-12-2021,0
165,Admiral Graf Spee,original_ghost_lp,,"ich freu mich eher auf den ersten kommentar der mein ""IcH KaNn dIcH OfFlInE ScHiCkEn""",23-12-2021,0
166,Fabxan.bln,fabxan.bln,,Hab deine ip😏,23-12-2021,0
167,Katze,katze___,,Wie finde ich dandere ip heraus?,23-12-2021,0
168,Judas,judas_der_echte,,Ddos angriff wurde vergessen,23-12-2021,0
169,turok,turokels,,Nix,23-12-2021,0
170,MC3D,macdonalds.3dreal,,dann komm ich bei mir sind die geocoords direkt am haus mit einer static ip,23-12-2021,0
171,🖤💚John Deere💚🖤,debauersjung,,Ändert die IP sich nicht alle 24H,23-12-2021,0
172,Alwin Mark,alwinmark,,Ich habe nur eine IPv4 Adresse. Nicht jeder ist auf Dualstack da dieser bei vielen Anbietern Probleme bereitet.,23-12-2021,0
173,Apple User382824326,ichmagkaktus,,Mann kann mit der ip ddos machen oder,23-12-2021,0
174,•_•,werdaslieststinkt7,,Hab ne VPN😂,23-12-2021,0
175,Tufan,tufan1998,,Ich habe nur eine ipv4,23-12-2021,0
176,elias,elias.2601,,@fabrice_gm der sieht aus wie Erwin,23-12-2021,0
177,muhammedali_cgn,muhammedali_cgn,,erklär Mal das mit dem Provider,23-12-2021,0
178,🤝🏼,ole.rst,,POV du guckst das Video zu Ende gehst in die Kommentare und siehst den ersten Kommentar😂😂,23-12-2021,0
179,Rimbert,rimbertka,,kann man nur mit java Script Websites hacken,23-12-2021,0
180,Louis,louisgaming14a,,Die IP ändert sich glaub ich ale 24std,23-12-2021,0
181,L4on,.l4on03,,seit wann fangen Deutsche ips mit 88 an😂,23-12-2021,0
182,S T U T T G A R T,kilian.yn,,Was ist ein IP Pinger? @Herr Programmierer,23-12-2021,0
183,Official_Jesus,.jesoos,,Ich war der 3090 like😎. Gamer kennen sich aus:),23-12-2021,0
184,︎ ︎ ︎ ︎ ︎ ︎ ︎ ︎ ︎ ︎ ︎ ︎ ︎ ︎ ︎,_einfach_nur_tim_,,hey Challenge finde heraus wo ich wohne schaffst du nicht Safe 😂,23-12-2021,0
185,Ghost_Gammer3,ghost_gammer3,,Hi,23-12-2021,0
186,Its_Baldina_Majka,baldina_majka,,"win + r, cmd, ipconfig /all",23-12-2021,1
187,Triple Chaos picture,triple_chaos_pictures_tt,,ipconfig 😉,23-12-2021,1
188,xInJoNicex,xinjonicex,,Nice.,23-12-2021,0
189,Las,dev_las,,Easy vpn,23-12-2021,0
190,Escanor,escanor.03x,,Woah,9-1-2022,0
191,online ID : Onlineritter,gg__bruder,,cool,23-12-2021,0
192,veggito,official.veggito,,cool,1-1-2022,0
193,ShadowCrafter_01,shadowcrafter01,,VPN rocks,24-12-2021,0
194,Dani,yhwach0815,,@eisenfist3 a,23-12-2021,0
195,Kaybruu,kaybruu,,Hey du hast deine Ip geleakt,23-12-2021,12.2K
196,Perry,7perry,,ddosen,23-12-2021,5
197,Moe,moedae7,,Bist du muslim Bruder,23-12-2021,31
198,Mr.Sainox,mr.sainox,,Jemand hat Mal meinen echten Namen durch ein spiel herausgefunden wie geht das ?,24-12-2021,1
199,eXplOit88,exploit88,,Kurz geantwortet: gar nix 😂😂😂,23-12-2021,1
200,Hiㄓㄥㄣˊ,silas.1h3,,Kannst du ein tut machen wie man dedost,27-12-2021,0
201,user6368869570881,svonny84,,Nix ich bin arm 😂,24-12-2021,0
202,fffgh66uvxdrtcvbui,fffgh66uvxdrtcvbui,,nix hab VPN 😅😅,23-12-2021,0
203,Bartholomeo,d_bartholomeo,,ipv6 ist so viel einfach als ipv4 . 🤩 sehr geile Themen 👍,23-12-2021,0
204,MinecraftTV_,minecrafttv_,,Er hat nur die ip des vpn anbiters gezeigt,23-12-2021,0
205,Marcel,olaf.guenter,,"@herr_programmierer schau dir mal mein neustes Video an und guck mal wie viele Leute schreiben ""ip leak"".",23-12-2021,14
206,Developer,koma.die.oma,,Hey du hast deine IP Adresse geleakt...,23-12-2021,196
207,flo story,flostory,,"alternativ geht
auch myip.is",23-12-2021,3
208,FDP_Inoffiziell,fdp_inoffiziell,,Dieser Moment wenn 15 Jährige kiddys denken sie könnten dich mit der IP deines Rechners im Heimnetz angreifen.,23-12-2021,40
209,"Ford - By Fans, for Fans",ford.at,,Wie sich hier jeder mit seinem DDos Cool fühlt bis Sie mal eine Strafanzeige am Hals haben 😂,29-12-2021,0
210,memes.you.like,memes.you.like,,Die ip Adresse sagt wie hoch der wasserschutz und staubschutz ist,24-12-2021,0
211,user6674155481101,user4o4olfqpum,,Was kann die Polizei mit der Ip-Adresse machen?,24-12-2021,0
212,machdichmalgerade,arnonuehm88,,Kannst du auch Fliesen verlegen?,24-12-2021,0
213,Chris,chris.adl,,Eine IP Adresse nutzt dir nichts wenn du keine subnetzmaske hast,24-12-2021,0
214,SK2KR,sk42kr,,dich brauchen die beim Türkischen innendienst bist echt gut 👍,23-12-2021,0
215,twitch: JoJuPlays_,imperfectloljghvy,,wenn jemand der dich nich mag deine ip findet kann der dich auch einfach dedosen,23-12-2021,0
216,ElPoco,elpocito,,ich weiß wo dein Haus wohnt,23-12-2021,0
217,Dominic,antisimp5,,127.0.0.1 Hackt mich!,23-12-2021,0
218,C0MB4T4NT,c0mb4t4nt,,ich ddos dich,23-12-2021,0
219,Hi,tim097,,Du siehst nicht so intelligent aus,23-12-2021,1
220,.,.quittvenx,,man kann mit ip adressen viel mehr anfangen 💀,23-12-2021,2
221,ultimate trolling guy,ultimatetrollingguy,,du kannst das den router zum Absturz bringen,31-12-2021,0
222,KiddoSpieltGames,kiddospieltgames,,"an alle die ändert sich alle 24 stunden und es ist strafbar damit was zumachen, es ist sehr aufwendig und unnötig",24-12-2021,0
223,Xisto,klabauteradi,,Die Adresse einer IP(internet Protocol) finden…hast hier die richtigen dummen Leute für diesen Quatsch,24-12-2021,0
224,Carsten aka Dr. WinDart,dr_windart,,"Nicht unbedingt. Ich hab nur IPv4 Und du bekommst nur die ungefähren Koordinaten, nämlich die, wo der Provider sitzt. also Schwachsinn, was du erzähl",24-12-2021,0
225,🙃,se_809er,,"Bin der einzige kommentar
︎︎
Antworten anzeigen (6279) ︎ᨆ
︎
︎
︎
︎
︎
︎
︎
︎
︎
︎
︎
︎
︎
︎
︎
︎
︎
︎
︎
︎
︎
︎
︎
︎
︎
︎
︎
︎
︎
pin this",23-12-2021,0
226,Didi HabIch,didihabich11,,oh man wie lächerlich. Nicht mal an der Oberfläche gekratzt was mit IP alles möglich ist.,23-12-2021,0
227,tm.bstn,tm.bstn,,Was nh Grinsebacke,23-12-2021,0
228,dirk1nsta,dirk1nsta,,Viel zuviel Werbung. Nehmt lieber myip.eu,23-12-2021,0
229,Ben,benre080,,"Ich mag bäume
︎︎
Antworten anzeigen (6279) ︎ᨆ
︎
︎
︎
︎
︎
︎
︎
︎
︎
︎
︎
︎
︎
︎
︎
︎
︎
︎
︎
︎
︎
︎
︎
︎
︎
︎
︎
︎
︎
pin this",23-12-2021,0
230,TheRealKugel,therealkugel,,"Mit der IP kann man dich hacken wen man den ""Holzhammer""(armitag)benutzt in unser 2stunden also fehratet sie nimanden",23-12-2021,1
231,Gianni,vypezz06,,Könntest du zeigen wie man von anderen die ip rausfindet und damit dann die adresse,23-12-2021,1
232,.,ich.mag.mk,,Und was ist mit der Email?,23-12-2021,1
233,User1,lt7631,,HeY dU hAsT dEiNe Ip AdReSsE gElEaKt,23-12-2021,1
234,Приветик 🥶,hxnrick28,,hey du hast deine IP Adresse geleakt,23-12-2021,1
235,🪐,off.been,,wieso leakst du deine ip Adresse?,23-12-2021,1
236,😅,idk.man.haha,,Du HaSt dEiNe Ip AdReSsE GeLeAkT,23-12-2021,1
237,L,noggerchoc0,,Du hast dein ip Adresse geleakt 😳,23-12-2021,1
238,Justinss,justniss_,,Ehhhhy du hast deine IP Adresse geleakt.,23-12-2021,2
239,Pixel,pixelyt,,Ööhhhh du hast deine Adresse geleakt!!!,23-12-2021,1
240,🪐,hxx.ax,,heyy du hast deine ip Adresse geleakt!!,23-12-2021,1
241,Artur Papoyan,artur15f6,,können eigentlich Hacker auch die genauere Adresse anhand der IP Adresse rausfinden?,23-12-2021,0
242,Dakry akry,arkraiy,,OMG er hat seine Ip Adresse geleakt ich wurde dich aufsuchen um deine Katze zu streicheln denn Ich liebe katzen die sind Flauschig und ehrenhaft,23-12-2021,0
243,Forti,forti.0,,Huähh dU hAst DEine IP aDreSSe gElEakt 😅,23-12-2021,0
244,Bubatz,arztpraxis_telefon,,Die ip Adresse ändert sich nach 24 Stunden oder beim neustart des Reuters,23-12-2021,1
245,Kev🦋,_kxvin_hn,,Ich glaub du hast deine IP-Adresse Geleaked 🤫🤫🤫,23-12-2021,0
246,Avatar niemand,marcopolo234231,,Dan kommen Leute Ddos ist da 😆,15-3-2022,0
247,YJ,yjosch,,Er hat VPN 😂😂😂😂,15-2-2022,0
248,Ergusto Armani,ergustoarmani,,Du bist killer einfach,19-1-2022,0
249,unbelustigter,unbelustigter,,du hast deine ipadresse geleakt,16-1-2022,0
250,P4ND4,nivelllll,,HÖÖÖÖÖYYY DU HAST DEINE IPIII ATRESSE GELIIIIIIIKTTTT,10-1-2022,0
251,.,der_bxy,,Er hat n VPN drinne,6-1-2022,0
252,Anonym Mario 🤙,anonym_mario,,Hey duhast ein OP Adresse geleakt,31-12-2021,0
253,shocker_1888,shocker_1888,,IP Adresse gleich personenbezogenen Daten 😉 könnte sehr teuer werden!,31-12-2021,0
254,vincent,vincenx07,,Schnapp! Macht das Krokodil Krokodil Schnapp! Egal was du hast Digger gib ihm was ab,29-12-2021,0
255,gucciluis292,gucciluis292,,wir kann man die ip Adresse von anderen herausfinden,28-12-2021,0
256,🤕,pornelius..hubert,,Wie geht das mit Adresse über provider?,28-12-2021,0
257,#Nepo Man#,nepo_man,,hey du hast deine IP Adresse geleakt,27-12-2021,0
258,Basti Koppe,bastikoppe,,Bitte hack mal die 127.0.0.1,27-12-2021,0
259,👑46👑,ytzifmr,,Öh du hast deine Ip Adresse geleakt,27-12-2021,0
260,ÐΛVłÐ,l.dxviid,,Diese Leute die meinen nur weil sie deine Ip kennen das sie wissen wo du wohnst,27-12-2021,0
261,og_streamer,a_fat_psycho_cat_,,hey du hast deine ip adresse geleaked,27-12-2021,0
262,Elgringo71108,elgringo71108,,Gibt es eine gratis VPN Möglichkeit?,26-12-2021,0
263,Philipp,funachra,,geiles VPN 🤣👍,25-12-2021,0
264,JaJxstin,jajxstin,,Hö du hast deine IP Adresse geleaked👀👀👀 Spass😂,25-12-2021,0
265,ልክሁጌጎነዘልርጕቿነሃዐሁክጎኗኗቿዪ,ryze_1870,,Ey du bist so lost du hast deine ip geleakt,25-12-2021,0
266,joel,joel3022,,Was das eine IP-Adresse fon einer VM?,25-12-2021,0
267,Tate Lacho,tatelacho,,kann man ip adressen tracken in einem darknet chat?,25-12-2021,0
268,Ich trage H&M,monasifir,,hööö du hast deine IP Adresse geleakt 😱,25-12-2021,0
269,Thomas Müller,3dcubic,,Ddos lässt grüßen 😂,25-12-2021,0
270,Tik Toker,user1353759658667,,Hä du hast deine ip Adresse Gelenkes,24-12-2021,0
271,NB_voll_normal,nb_voll_normal,,Nichts kannst du rausfinden hochlebe VPN 😂😂😂😂,24-12-2021,0
272,The Video Artist,elgrandeboss,,Immer mit VPN wegen so Leuten wie du.,24-12-2021,0
273,rezzy,rezzybtw,,@truthgamingsyt kann von jemandem die Adresse herausfinden,24-12-2021,0
274,....,yunoohioko,,Bro er hat safe Vpn😂,24-12-2021,0
275,💥,tuerkischerpole,,hööö du hast deine IP Adresse geleakt,24-12-2021,0
276,LadyKatrin,katrin_lady97,,O2 läßt grüßen,24-12-2021,0
277,sheluvskayra,sheluvskayra,,Hey du hast deine IP adresse geleakt,24-12-2021,0
278,Jasxn_fks,jasxn_fks,,Wie kann man von jemand anderen die ip Adresse rausfinden,24-12-2021,0
279,paulschlacter963,paulschlacter963,,Man kann eigentlich noch viel mehr machen mit der IP Adresse,24-12-2021,0
280,Hhh Hhh,tarhan_755,,hey du hast deine ip Adresse geleakt,24-12-2021,0
281,Dominik,dominik.wdt,,Eeehhhhh du hast deine IP Adresse geleakt,23-12-2021,0
282,bi_tuxvin,bi_tuxvin,,"Legions: exists
er: wAsWiLlStDuMiTmEiNeRiPmAcHeN",23-12-2021,0
283,Klajo,klajo_,,HaY dU HaSt DeInE Ip AdReSsE gElEaKt 😂,23-12-2021,0
284,Geist122,geist122,,Wie bekomme ich Die IP Adresse von anderen,23-12-2021,0
285,🦋Hey🦋,hoefliches_omen,,Hööööeeeyyyyyy du hat’s deine 🥚 π Adresse geleakt! 😂,23-12-2021,0
286,ncstra91,ncstra,,Bestimmt catched er jetzt alle die seine ip in ihrem Browser einfügen 🥴😂. Einfach Trojaner,23-12-2021,0
287,Flip,who_is_flip,,Hauptschüler staunen.,23-12-2021,0
288,user3689408432726,_gewitter_d,,wichtige Frage: ist es illegal Leute ihren Standort herauszufinden,23-12-2021,0
289,aminlami007,amin_ion,,"möchte eine werbeemail verfolgen. über hotmail.
kommt man da weit oder hoffnungsloser Fall??",23-12-2021,0
290,Faton,faton_ha,,Heisst das es haben alle die gleiche IP Adresse in der nähe?,23-12-2021,0
291,Semir,genjilino,,der macht mir angst,23-12-2021,0
292,amenio,amenio,,"Also kannst du also nichts mit der IP Adresse anfangen, danke für das Video...",23-12-2021,0
293,Philipp,philippkuhl01,,Ist es schlimm wenn jemand meine IP Adresse kennt?,23-12-2021,0
294,Ryuu🐲,ryuuxo,,könntest du mal genauer auf einen DDoS eingehen,23-12-2021,0
295,user821162158664,ens_meier,,Er sieht einfach aus wie shelden cooper,23-12-2021,0
296,EisigerHarmlos07,harmlos07,,Und wie kann man die IP Adresse von anderen herausfinden also z.B wenn ich jetzt mit nem Kumpel im DC chille,23-12-2021,0
297,darko,daarkooo,,Höö du hast deine IP-Adresse geleakt🤣,23-12-2021,0
298,Bergwolke,bergwolke_gaming,,Hey du hast deine IP Adresse geleakt,23-12-2021,0
299,b_echoflyer,b_echoflyer,,hEy du hast deine ip Adresse geleaked,23-12-2021,0
300,Sandro,sandro_aint_no_simp,,Kannst du mir bitte Erklären was eine V4 Adresse und eine V6 unterscheidet?,23-12-2021,0
301,🤔Marc🤔,dont_get_mad_brooo,,Hey du hast dein Ip Adresse Geleakt,23-12-2021,0
302,z Avaay,rolifyy,,Erstmal mit mein 500 gigs pannel drauf hitten,23-12-2021,0
303,KarimsPlace0815,karimsplace0815,,oder cmd und dann /ipconfig,23-12-2021,0
304,Furi,furii089,,Starte dein Router neu und Somit hast du eine neue ip Adresse,23-12-2021,0
305,Hirom,xhirom,,Haha du hast deine Ip Adresse geleakt 🤫,23-12-2021,0
306,Papckit,papckit,,Hey du hast deine ip Adresse geleakt,23-12-2021,0
307,Shiro Yatogami,peanutkr,,Ich hab deine IP jetzt Hack ich dich,23-12-2021,0
308,🌲,sexyaxolotl,,𝘏𝘦𝘺 𝘥𝘶 𝘩𝘢𝘴𝘵 𝘥𝘦𝘪𝘯𝘦 𝘐𝘗 𝘢𝘥𝘳𝘦𝘴𝘴𝘦 𝘨𝘦𝘭𝘦𝘢𝘬𝘦𝘥,23-12-2021,0
309,Wordlwidefarming,worldwidefarming3,,Hat jemand einen guten PHP Compiler für MacOS ?,23-12-2021,0
310,Virus,_virusloading_,,"""komm mir nicht flach ich habe deine IP!!!!!!!!""😂😂😂😂",23-12-2021,0
311,Jonas,joonnneey,,Hey du hast deine Ip adresse geleakt,23-12-2021,0
312,127.0.0.1,it_gustl,,kannst ja n nmap drauf drüber laufen lassen.,23-12-2021,0
313,💞☞ 𝔪όĤαмΜⒶ∂ 𝔞Ⓛเ ♨♗,mutenroshisschwaneck,,heeeey du hast deine IP Adresse geleakt,23-12-2021,0
314,Milan,elcrasher,,kann man die irgendwie verbergen oder so,23-12-2021,0
315,flitzpiepe0815,fiitzpiepe0815,,"wenn der router schlecht konfiguriert ist, kann man da schon spaß haben",23-12-2021,0
316,Danilo Spina,dn.xxa,,du kannst nichts mit einer IP Adresse anfangen. du brauchst die reine IP um besipielsweise jemanden zu d-dosen,23-12-2021,0
317,Pot8oAiM187,pot8oaim,,Huäää du hast deine op Adresse geleaked,23-12-2021,0
318,Schühler des Sensei Ball,schuhlerdessenseiball,,Wenn ich dir golge wird mir sie afd angezeigt! Ich bin enttäuscht!,23-12-2021,0
319,nini,n._i._n._i,,Ich als allererstes D -DOS,23-12-2021,0
320,N.Gamerrr,nxtgamerrr,,wie kann ich jemand dedossen ?,23-12-2021,0
321,MEMOxxx,memoxtyp,,mach doch in cmd neinfach ipconfig /all fur ip adresse.,23-12-2021,0
322,Kyriakos,kyriswelt,,Du hast deine IP Adresse geleakt 😳😂,23-12-2021,0
323,Maxim,maximgr_777,,He du hast deine IP Adresse geleaked,23-12-2021,0
324,Fabio,.f.x.j.o,,Kann man jemanden damit offline booten,23-12-2021,0
325,name,helper_ardia,,dise typ hat mir pogramieren beigebracht,23-12-2021,0
326,Denis,denisvfb,,Wie kann man ddossen? (will nicht ihn ddossen),23-12-2021,0
327,Pasgolf,pasgolf,,Du hast deine IP Adresse geleakt 😂😂😂,23-12-2021,0
328,planetgin,planetgin,,wieso flätscht er immer so die zähne???,23-12-2021,0
329,Anonymous,biackberryy,,imagine keinen VPN haben,23-12-2021,0
330,Phil,phil.477,,hööyyy du hast deine IP Adresse geleakt,23-12-2021,0
331,Mr. Gold,grogogold,,Hast du deine IP gerade geleakt? 😂😂,23-12-2021,0
332,Hope,hope_ist_lost,,heeeey du hast deine ip Adresse geleaked!,23-12-2021,0
333,UniqueAl,uniquaal,,Also jede Nacht ändert mein Router die IP,23-12-2021,0
334,Alexander,generixdns,,Mann kann auch super leicht ein SSL DOS Angriff starten oder Angriff mit einem BotNet,23-12-2021,0
335,masterchiefyt,masterchief.yt,,Er hat wahrscheinlich einen VPN benutzt oder?,23-12-2021,0
336,⚽️,easybettipps,,Kanst du ein Video dazu machen wie man die genau Adresse herausfinden kamm,23-12-2021,0
337,Waffel,is.that.gjannis,,Ändert die IP Adresse sich nicht alle 24h?,23-12-2021,0
338,Daniel,daniel.dmdv,,haha der hat seine IP Adresse gezeigt,23-12-2021,0
339,onlyanime010,onlyanime010,,Okay wenn jemand jetzt meine IP Adresse hat was soll’s bringen,23-12-2021,0
340,MyPonyIsLit,myponyislit,,oder den Tln. auf Schwachstellen testen 😏,23-12-2021,0
341,Edits,mlcrosoftwlndows,,Er hat Safe VPN,23-12-2021,0
342,Hassmesser,hassmesser,,@red_wrld1 @dein_0nkel @lightningshadowx guckt deswegen sage ich das eine ip adresse wichtig ist,23-12-2021,0
343,lukas.trp,lukas.trp_,,Hey du hast deine IP-Adresse geleakt,23-12-2021,0
344,ッAcE_T3MeZz ッ,xxet3nxl_xgodxx,,Wie ddos man ? woll Meine Freunde Trollen,23-12-2021,0
345,Luca Aufderheide,lucaaufderheide,,ÖEYYYY du hast deine IP Adresse geleaked!!,23-12-2021,0
346,User_16383826388996551,ecieiebfkd,,„Mannn junger du hast deine IP-Adresse geleaked. Ich hacke dich jetzt“😂😂,23-12-2021,0
347,Rizky OG,vrxzky_og,,du hast deine IP adresse geleakt,23-12-2021,0
348,linus,linus_3573,,du hast deine IP Adresse geleakt,23-12-2021,0
349,! → ♪ 𝓗 ✘ ←,2hadod,,HEY DU HAST DEINE IP ADRESSE GELEAKT 😳,23-12-2021,0
350,erdmeanchen 05,nerd35557598580855,,Die Ip Adresse ändert sich eh also...,23-12-2021,0
351,The.Thinker,the.thinker45,,Hey du hast deine IP Adresse Geleakt,23-12-2021,0
352,🌫,jdm_de,,Höyy du hast deine IP Adresse geleakt,23-12-2021,0
353,Patrick Vegas,patrickvegas80,,Mit einer IP Adresse kannst du Personen D-DOS Attacke durchführen,23-12-2021,0
354,❤️Owner: K̫ɴɢͥ͜ ͣ ͫ❤️,igger.alxn,,ich ddose dich😂😁,23-12-2021,0
355,Therealeggplant!,real.eggplant,,Wie kann man seine IP Adresse ändern?,23-12-2021,0
356,Bester Discord-Server,best_dc.server,,"ey, du hast deine IP-Adresse geleaket😂",23-12-2021,0
357,Okan,okannsaglam,,Hey du hast deine IP Adresse geleakt😳,23-12-2021,0
358,user6180218331794,dannyh_d,,Bitte nochmal zum abspeichern,24-12-2021,1
359,Jan Pain,r6_jan17,,Öh du hast deine IP Adresse geleakt😳😂,23-12-2021,1
360,DuckSllivki,usermaapygk4h4,,Oder snapchat,24-12-2021,0
361,... --- --- -. -.-.-- :),xitusia,,Du kannst nix machen lmao,23-12-2021,2
362,‍ ♰,mariam.bdn,,@haltdiefresseeok die Lügner,26-12-2021,1
363,user7542262644118,user75422626441183,,Ich hab Angst von dir,23-12-2021,0
364,Nick,ehrenbudde,,Wie er nach Klicks betellt😂,23-12-2021,0
365,uK Kyuubiii,kinn.crimson,,Leute aus dem CoD Szene hassen diesen Trick..,23-12-2021,0
366,❤️,youksz,,ip juckt eh keinen,23-12-2021,0
367,t9kt8k,t9kt8k,,Wie kann man zm Beispiel auf ometv von den Leuten die IP kriegen und die dann verarschen das man die kennt? 😂,23-12-2021,0
368,ᴀɴɪᴍᴇツ,gegessen,,Heey du hast deine IP Addresse geleakt,23-12-2021,1
369,Serpents Hand 🤝,red.curacao,,@coco..nuss 😱 ein hacker hat meine IP Adresse herausgefunden,25-12-2021,0
370,Maximilian,nostagenameyet,,Nicht von deinem!! Es heißt deines,24-12-2021,0
371,salimmademan,salimmademan,,Ist mir egal! Hab Depression und kack auf meine IP,24-12-2021,0
372,Roy T.,roytest,,sehr wenig bis gar nichts...,24-12-2021,0
373,ff,lumpilumpeer,,hey du hast meine IP geleakt,23-12-2021,0
374,user3712016919292,damn.daniel_,,Also meine IP ist 127.0.0.1 - hack me 😏,23-12-2021,0
375,.,irgendwo_im_nirgendw0,,und jetzt?,23-12-2021,0
376,Firesteven🔥,fire_steven,,"""ey du hast deine IP geleakt"" 😂(nur spaß)",23-12-2021,0
377,spacebilly,jaybee_808,,trotzdem hast du meine IP nicht.,23-12-2021,0
378,TheMister,_.themister._,,Man kann so viel mehr mit einer IP machen…,23-12-2021,0
379,MrSteve72,mrsteve72,,Da findest Du höchstens die IP von meinem Gateway.,23-12-2021,0
380,Honkschredder,honkschredder,,"Du kannst mit meiner IP gar nichts anfangen. Proxy, VPN und Tor. Aber Danke für Deine Tipps.",23-12-2021,0
381,Bottleflip is Life,bottleflip_is_life,,"Cool, but can you do a Bottleflip?🤓🔥",23-12-2021,5
382,Goku,xx.therealgoku.xx,,@le0nard_24 Get Rekt Gozo😹🙏🏻,13-3-2022,0
383,Max‘🌪,zmax.181,,Nice VPN,24-12-2021,0
384,Am!go,1337amigo1337,,Google Snitch,24-12-2021,0
385,Erenmann,ardagee,,Ping localhost,23-12-2021,0
386,Wolfcult,wolfcultcommando,,I hacked 127.0.0.1 😉 #thegoodoldstuff,23-12-2021,0
387,RealPriton,realpriton,,ddos coming,23-12-2021,0
388,ToXicV1P3R,toxicv1p3r,,cmd --> ipconfig /all 😏,23-12-2021,0
389,FxckSociety🛸,lamentedicipolla,,You can do with a IP everything!,31-12-2021,0
390,👤,rasantes.kamel93,,@dieser_eine_aus_kayseri3,23-12-2021,1
391,GayLord,gaylord8707,,@l2_ionchamp19 @eftom @einfachalles12341,23-12-2021,1
392,nojusstepon'_',nojusstepon,,😳,23-12-2021,1
393,zyrox_090,zyrox_090,,😁,10-1-2022,0
394,Ole Struck,unbekannt5673,,@spielsuchtiiii,23-12-2021,0
395,ᷧᷧᷡᷚᷪᷞ,MS4wLjABAAAA1bje_AcVIARHF9sPqFujF0aKrlnGKc80U2SOMS6Oqwp6aFRhimLpws_eRxNxLA1e,,@vsp.azxraiii,23-12-2021,0
396,Sonic01,sonic01010001,,127.0.0.1,23-12-2021,0
397,Adblocker__,adblocker__,,127.0.0.1,23-12-2021,0
398,ｈｅｎ r y,henry.stck,,@ahmad_8542 📝📝📝📝,23-12-2021,3
399,.exquizio,quitt.shinjuku,,@y4.eq @ofc.onichan,23-12-2021,1
400,Ferrox,ferroxylot,,@gigaez,23-12-2021,1
401,Kilian Wieckberg,_doctorwho13_,,😅😅,27-12-2021,0
402,SiljoCro,siljocro,,@gesto1919,26-12-2021,0
403,~Ugur 🚬~,x.bln_u,,@unkn0wn_146,25-12-2021,0
404,Ninis Gabriel,itz.nini.gbl,,@mina.dlbt @elsi.iii,24-12-2021,0
405,DeinVater,siuu123456789,,@lil_godkayvii_lil,24-12-2021,0
406,🦋Hey🦋,hoefliches_omen,,😂,23-12-2021,0
407,Nico.lpz,nico.17.lpz,,@somiter,23-12-2021,0
408,🐈,21twenty_one21,,@000099xxx,23-12-2021,0
409,ItzzPaul💎👑,itzzpaul15,,@bens_hardware,23-12-2021,0
410,Husko,r.i.p_that_bozo,,@joebideninyourmama,23-12-2021,0
411,☔️☔️☔️,_qtcx,,@qyo.079 😂,23-12-2021,0
412,Ole,____ole____,,@tjark_lemmermann,23-12-2021,0
413,sami sus,sami._.bl,,@its_just_the_crock,26-12-2021,0
414,fuckisyoutalkingabout0,fuckisyoutalkingabout0,,"I brought a cc from *Babydwag01* on telegram best vendor I know and very trustworthy✅. He sell cc,fullz,Bank,Drops,and Dumps💯✅✅✅",15-5-2022,0
415,aiMIBlackfox,aimiblackfox,,Ipv6 immer aus geschaltet 😅,28-12-2021,0
416,Jac Nowa,jacnowa4,,VPN Regelt,24-12-2021,0
417,Quin,official._.quin,,Ich kenn dich von yt :0,23-12-2021,0
418,hallo,userh78y0sck6i,,du hast deine ip geleakt du wohnst in deutschland,23-12-2021,1
419,G Ü R K A N,gxrxaxn,,"Hey, du hast deine IP Adresse geleaked",26-12-2021,1
420,beat,qbeatp,,eyyy du hast deine ip adresse geleakt,23-12-2021,0
