,Comment Number (ID),Nickname,User @,Comment Text,Time,Likes
1,saschakirchner21,sascha89k,,"Ich als Programmierer finde es schon fast ne Beleidigung ne Batch-File, Programm zu nennen 😅",12-1-2022,2790
2,¶,ossskyr,,Schul pcs werden unsicher gemacht,12-1-2022,1330
3,Zitate.xyz,zitate.xyz0,,Ich Ärger jtz Lehrer damit😂,12-1-2022,2902
4,HyperQute,der_weinachtsmann2022,,Naja kein Hack vielleicht ein LifeHack und wer random bat datein von randoms ausführt dem ist nicht zu helfen,12-1-2022,724
5,Casselfornian1,casselfornian1,,"Haha, als ob man jetzt damit keine Kollegen ärgert 😉",12-1-2022,7032
6,DeepHacking,deephacking,,mach shutdown -s -t 0 als Autostart rein 🤌,14-1-2022,602
7,Andi_500,brain_afk_typ,,✍Nur fürs gute ✍Mitschüler nerven ✍Bei jedem PC eingeben ✍Lehrer pc auch machen✍,7-3-2022,10
8,Arne,arne..voss,,Mein Schnittprogramm hat eine Einstellung das es mein pc automatisch runterfährt nachdem das Video fertig gerendert ist 🤡,12-1-2022,34
9,better_als,better_als,,besser nicht in autostart😂,12-1-2022,122
10,Imiak,imiakwolf,,"""hack"" 😂😂😂 der war gut, diesen ""code"" oder Befehl wie ich ihn gerne nenne, nutze ich in meiner Schlafengehen routine",21-2-2022,7
11,____escanor____,_____escanor_____,,"Er sagt Hack, meint aber LifeHack",13-1-2022,183
12,Kiasto,k1asto,,"Ihr, die das 2022 immer noch den jüngeren Generationen erklären, seid die wahren Helden.",12-1-2022,14
13,Michael Schmidt,michaelschmidt37,,Das ist jetzt nichts besonderes. Das haben wir damals bei den Schulrechnern in die Autostart Ordner gepackt😂,12-1-2022,115
14,Der_Mensch,der_menschi,,„Zu Favoriten hinzufügen“,12-1-2022,9
15,Gaming-to-Pain,gaming_to_pain,,beim Schule PC des Lehrers das in den Autostart 😏😂,12-1-2022,17
16,sebastianmanz,sebastianmanz6,,Also nicht in den Autostart Ordner kopieren? 🤔,12-1-2022,32
17,ZeroTasteGuy,zerotasteguy,,"ah danke, ich konnte deinen Code ja sooo gut sehen 😬",12-1-2022,75
18,Inkubus90,inkubus90,,gemein wäre es auf 10 Sekunden zu setzen und dann in den autostartordner 🤘,13-1-2022,234
19,Pätty,taschentoster,,kollege hat das in autostart gepackt mit auslog befehl.... geiler loop am ende....,12-1-2022,29
20,Richtig gut! 👍,richtig_gut,,Wann kommt denn der Hack?,12-1-2022,38
21,🎥DER HACKER🎞,der_hacker_007,,"Daraus bestand auch mal mein aller erstes Programm, war eigentlich nur ein Ordner mit verschiedensten Batch Anwendungen😅😂",12-1-2022,51
22,🇧🇦🇨🇭,zuerich.st,,Kannst du mal was zu python sagen? Will damit anfangen,12-1-2022,12
23,Newgengvnner,newgengvnner,,Erst mal in die Schule bockt doch,12-1-2022,5
24,Marcus Dunst,md1212de,,Das ist lediglich eine Batchdatei und nicht wirklich ein Programm,15-1-2022,4
25,British English is Superior,n4me_n0t_imp0rt4n,,"ICH ZEIGE DIR WIE DU DIE WELT ZERSTÖREN KANNST, ABER DU MUSST MIR VERSPRECHEN, DASS DUS NUR FÜRS GUTE EINSETZT!",12-2-2022,4
26,Geh farmen,holzplanke,,Wo kann ich one piece schauen?,13-3-2022,3
27,Drellot,zeromcdrello,,"oha bester man , jetzt erstmal spiele übernacht runterladen und damit weniger Stromverbrauchen 🥰",15-1-2022,3
28,magier0,magier00,,@kma1707 @daily._._.memes._ ihr macht das,23-3-2022,3
29,Hubi,kinghubi27,,Das so Uhr alt,15-1-2022,3
30,Maxi,maxi.ls19,,geht net,15-1-2022,2
31,Jan,jxn24de,,"Hab mal ne batch datei gemacht die den explorer löscht, hab das „Bilder 19-02-2008“ genannt… meine mum is verzweifelt 😂",12-3-2022,2
32,Mensch,folgeinfach001,,Windows L müsst ihr mal drücken,17-3-2022,2
33,Pain,painforpainguys,,geht das einmal oder immer dann,11-3-2022,2
34,mia larissa,m1ab4be,,@n.o.r.a.a.a.a schule wird unsicher gemacht,10-3-2022,2
35,♨️,082knip,,wie soll ich den jmd nerven also ernste frage?,14-2-2022,2
36,bumsahr,bumsahr,,Der Thomas Hermanns von Microsoft 😂😂😂😂,15-1-2022,2
37,Finlay,swins92,,Jo hab mal eine Frage mein PC bleibt oft stehen und in Games wie Frotnite Valo hab ich auch weniger FPS was kann ich da machen ?,22-3-2022,1
38,Ted,teddance,,Wer jemand richtig ärgern will legt das bat script in then startup ordner von windows. Windows führt alle dort aus. Shutdown alle 30 min,16-3-2022,1
39,VrbAlxssandro,vrbalxssandro,,"auf meinen schul PCs haben wir alle eigene acc, aber 1 PCword von min 10 verschiedenen Leuten benutzt, würde das trotzdem starten wenn ich es in (1)",12-3-2022,1
40,7dcbe37b-894e-4b0c-a519-ba571e,user20737450644878,,Dafür gibt's auch ne intelligentere Lösung: econap.de fährt den PC einfach automatisch runter wenn er mit rendern fertig ist,11-3-2022,1
41,König Dima,konig_dima,,Früher auf den XP Computern in der 6 gemacht 10-15 Jahre her 😅 Hr. Lehrer was ist das da Lehrer mit Admin zu dir klickt an weg 😂,10-3-2022,1
42,DR.SKILLZ77 [MG] PL,dr.skillz77mgpl,,"Cool, gibt es auch noch krassere Sachen, um einen Pc z. B. aufzuhängen (Stichwort:Dauerschleife)",1-3-2022,1
43,Erfan,eshdii,,Kannst du zeigen wie man den namen von einem usb stick ändern kann? Also hardware name,1-3-2022,1
44,user4338058358228,user543251019,,ich hab Kopfschmerzen,12-3-2022,1
45,user2922229849379,timboy1306,,Auf aus Knopf drücken ist leichter,16-3-2022,1
46,RaPz,only_anime_memes187,,Würde das theoretisch auch mit einer anderen Zahl gehen ?,11-3-2022,1
47,𝓛𝓾𝓲𝓼 🐊🇪🇸,luisdeespanol,,Der Typ nennt das „Hack“ ich kann nicht mehr 😂😂💀,11-3-2022,1
48,Lulatsch_H4,lulatsch_h4,,Ich glaube ich nutze es für schlechtes,8-3-2022,1
49,kali.linux.crack,kali.linux.crack,,Ähh also wenn die Leute das hack nennen...,21-2-2022,1
50,glubb_eggn,glubb_eggn,,Mache ich immer in der Schule,13-2-2022,1
51,corsair2009,xyza2006,,Ich hab noch nichts versprochen 😁,31-1-2022,2
52,OrangeAnton,orangeanton1407,,Das muss man mal bei einem Lehrer machen,17-1-2022,2
53,Adamknaxx 🇲🇦,adamknaxx,,@sensei.shifu7 ich gehe jetz schlafen morgen schule digga ich heulee :(😭😭 du kennst nicht denn schmerz 😭😭😭😭,2-2-2022,2
54,Pat,just.plowy,,"Datei ist denn Auto Start von meinem Vater hinzugefügt.
Check✔️",20-1-2022,2
55,Arminion👽,kuglatec,,man kann das mit shutdown/a stoppen für jeden den das interresiert,15-1-2022,2
56,WER DAS LIEST IST DOOF!'🧢,yusufboss17,,geht es auch bei Schul pc😏,16-6-2022,1
57,G4BR1EL,g4br1elz,,@itskingchris er sieht aus wie du,3-3-2022,1
58,NoNam,noname2648217,,@Bens_hardware stimmt das?,22-3-2022,1
59,Jo 🏳️‍🌈,einfachjo_lol,,@tillo_boy lass in Schule machen 😂,21-3-2022,1
60,user2551848857076,mightydaniel13,,@bens_hardware stimmt das?,11-3-2022,1
61,Crispy_Nugget,crispy___nugget,,Kannst du das Video nochmal hochladen damit man es herunterladen kann?😅,12-3-2022,0
62,Glinschi,glxnschx_2008,,@real_hxnnxs kann man mal machen,16-3-2022,0
63,Fozzy Bear,fozzy6105,,Hab mit dos 4.2 angefangen und .bat Dateien waren Standard wie die autoexec.bat,13-3-2022,0
64,FollowerOJ,follower_oj,,Ich mit 12 😂😂 ja genau. Heute (25) schreibe ich tatsächlich Programme batch wurde irgendwann langweilig,12-3-2022,0
65,Dave,daveman.7182,,Hilfe ich werde gehackt,10-5-2022,0
66,Metehan Baş,20xaver.22,,Eine Frage wenn ich jetzt ein Spiel programmiere will das er manchmal das gleiche code macht wie geht es,25-4-2022,0
67,SkycubeBW,skycube.bw,,die mit Minecraft Servern gearbeitet haben wissen dass,12-4-2022,0
68,.,aprilsuper639,,Ich mache das wenn mein Vater CSGO Spielt Auf meinen Pc natürlich,3-4-2022,0
69,Jo.Sunflower.13,sunflower_13_eb,,bin ich die einzige die findet das er irgendwie Ähnlichkeit mit Neo aus Matrix hat? 😂😅,24-3-2022,0
70,amir,amirsh.06,,Wie sieht der code ganz aus weil man den nicht ganz erkennt,24-3-2022,0
71,couchkartoffeln,minyak.urut94,,eher ein script als ein programm,24-3-2022,0
72,ZUERICH1896S,zuerich1896s,,Luis Suarez von ebay bestellt,23-3-2022,0
73,Bread 🍞,__sea_men__,,wenn es wer macht Windows +R dann cmd eingeben dann shutdown -a dann wird das herunterfahren abgebrochen,23-3-2022,0
74,Jannnes03,jannario3,,Denkste ich Ärger damit keinen ? Niemals 😂,23-3-2022,0
75,Julian Henning,julian07.08,,haha du hast es doch safe gezeigt damit wir andere Nerven können😂 Wusste das aber schon 😌,23-3-2022,0
76,MasterMax,mastermax544,,"Also... das muss man doch schon kennen, nichtmal grundwissen...",23-3-2022,0
77,MrCaptain,the_muslimgigachad,,den benutze ich jzt in der schule,23-3-2022,0
78,Yann,_ybm20,,"Ganz kurz, ich mache das via cmd, also das finde ich einfacher",22-3-2022,0
79,.,shftntr,,Versprochen ^^,22-3-2022,0
80,nopertus,nopertus,,"ich mach das immer windoof taste + R, wenn ich filme zum einschlafen gucke",22-3-2022,0
81,Nachtaktiver69,_nachtaktiver69_,,@bens_hardware stimmt das?,22-3-2022,0
82,saucyboy69,sauciboy69,,Warum einfach wenns umständlich auch geht,21-3-2022,0
83,gxjony14,gxjony144,,Wie startet man das,20-3-2022,0
84,Daniel Wagner,_akadawa,,heißt aus Scripting,20-3-2022,0
85,AnnuiT,annuit__,,"Das habe ich vor 8 Jahren im Informatik Unterricht immer gemacht bei meinem Nachbarn. Oder „start“ Spam, auch ganz lustig.",20-3-2022,0
86,DrSilebaer,drsilebaer,,Mach ich bei meinem bruder😂,19-3-2022,0
87,Stefan,asdf12034xfre,,"beim speichern ""Alle Dateien"" auswählen ist irrelevant
es genügt den namen zu schreiben mit der endung .bat",19-3-2022,0
88,atzetylen,atzetylen,,Du erinnerst mich sehr an Thomas Herrmanns. 😅,19-3-2022,0
89,Vivica,twitch.vivica666,,immer wenn mich ein Kollege richtig geärgert hatte... ich mag meinen Job in der IT deswegen schon 😂,18-3-2022,0
90,Für fortnite,999forever49,,Ich: gehe freunde damit nerven,18-3-2022,0
91,Hauke,hauke0211,,"ich mache immer: Windows Taste + R, cmd und gebe da shutdown -s -t 1800 ein",18-3-2022,0
92,ray-kyr kollmorgen,schokohengst,,damit hatte ich schon in der Schule mein Spass,17-3-2022,0
93,MambaRazer93,mambarazer,,@bens_hardware wieviel Wahrheit steckt da drin 🤔,17-3-2022,0
94,1,krasser_typ20,,kann mir einer den Code sagen bei mir ist da nichts,17-3-2022,0
95,lelo05,lelo__05,,"Kannst du bitte mal zeigen wie man im BIOS, die Funktion Wake on per Key aktiviert? Ich habe das Problem, das ivh meinen Laptop an einem Monitor mit",17-3-2022,0
96,izzolie,izzoly9,,"also ernst jetzt Leute, tut das nicht in den autostart eurer Freunde 😂",17-3-2022,0
97,Link,cola124816,,"Vllt noch auf shutdown -a hinweisen falls man sich innerhalb der 30 Minuten entscheidet, doch nicht herunterzufahren 😅",17-3-2022,0
98,ToT Niels,totniels,,Leider sehe ich nicht was du geschrieben hast... zu weit oben.....,17-3-2022,0
99,metalslug667,metalslug667,,Uff,17-3-2022,0
100,Andreas Bevier,r1se.club,,natürlich werd ich das nicht bei mein freundin machn 😁,17-3-2022,0
101,ᗩᑎ𝗜𝗠𝗘,anime._.girl._.edits2,,Die Lehrer jz so -.-,17-3-2022,0
102,Gorgo.o,gorgo.o,,Na klar👀🤝🏼,17-3-2022,0
103,user8519432062567,domdomprom,,definitiv Synchron,17-3-2022,0
104,999Smasher999,smasher313,,als ob die Menschen das für das gute einsetzen 😅😂 merkt man ja bei GTA 😅,17-3-2022,0
105,yukain,yukain_,,wenn das deine programmierskills sind bin selbst ich besser und ich habe insgesamt max 30 nützliche Zeilen Javascript geschrieben.,17-3-2022,0
106,sero🖕🏻💔€,abu_manjek,,Abwarten und çay trinken.,16-3-2022,0
107,𝕵𝖔𝖓𝖆𝖘,jonas.v2007,,@lenn.solbach mach das in info,16-3-2022,0
108,Jonny Grabo,jonnygrabo,,✍✍✍Andere nerven 😅,16-3-2022,0
109,monkey D Ruffy,onepiece_edits33,,geht das auch bei Windows 11?,16-3-2022,0
110,benjii,unshavenbarry100,,ich hab nichts fersprochen 😂😂,16-3-2022,0
111,⃢bro,sasgeeee,,@instarobert.susnjr das werde ich in omai machen und sagen das mein pc nicht geht,16-3-2022,0
112,Harry,affemitwaffe150,,Versprochen 😏,16-3-2022,0
113,Lukas,lukas.r,,"""Programm""",16-3-2022,0
114,D,xdenizxyx,,Kann mir wer sagen wie ich auf dem PC TPM 2.0 auf Windows 11 aktivieren kann,16-3-2022,0
115,Nico Teschner,dernicolo,,danke 😏,16-3-2022,0
116,lelilolgaming,lelilolgaming,,kann man einstellen das Programme beim anschalten vom PC an gehen? frag wegen nem Schul projekt😂😂,16-3-2022,0
117,das_allwissende_Schaf,das_allwissende_schaf,,"einfach ""Firefox"" nennen, Zeit auf 5min stellen und auf den Lehrer PC tun",16-3-2022,0
118,MAX._.XAM,max_xam.mc,,kannst du zeigen wie man das seinen Freunden schicken und sie das nicht wiessen und der oc sich dan nach 30min herunterfährt,16-3-2022,0
119,PiXarY,.pixary,,oder .exe das Leute den Code nicht bearbeiten können,16-3-2022,0
120,Jolan,prinzesser,,lad ds batch file in den startup folder. göttlich,16-3-2022,0
121,𝑟𝑦𝑎𝑛ᵗᵐ,cakez.valo,,versprochen,15-3-2022,0
122,Movie.co.pilot,movie.series.scenes,,Danke für die Idee,15-3-2022,0
123,🧊,ynstmx,,Dieser Moment wenn der pc früher runterfährt und das Video nicht fertig gerendert war 🥲 die edit Programme müssen doch sowas integriert haben oder?,15-3-2022,0
124,Vali,vali234dh,,"wenn man noch -f hinzufügt dann wird Windows gezwungen alles zu beenden sonst kanns passieren, dass der PC nicht runterfährt",15-3-2022,0
125,Timo,firebirdtimo,,"vergiss das -f
nicht😅",14-3-2022,0
126,Wow,play_world_of_warships,,Ich mach das mit Windows+R dann cmd und dann /shutdown /s /t 1800,14-3-2022,0
127,Mikey Monke,monkekingmikey,,"Batch Commands sind eigentlich schon Grundwissen.
Jeder hat früher Leute damit genervt 😂",14-3-2022,0
128,♧,gschisseguet,,ich traue niemanden 😂,14-3-2022,1
129,Xibernetix 1399,xibernetix1399,,Ich hab das bis jetzt immer per cmd gemacht😅,13-3-2022,0
130,Mathias,niveasonnencreme,,"""Zu Favoriten hinzugefügt"" 🙂",13-3-2022,0
131,Ghostface King,studlihudli,,Mann kann den timer auch auf 1 sekunde setzen. Man kann dann bei einem enstperten pc diese datei erstellen und eine verknüpfung mit Autostart machen.,13-3-2022,0
132,jimmypetermann902,jimmy_junior1,,Alle in der schule 😅,13-3-2022,0
133,Keqing,keqing_main06,,"Ich mach das nicht mit 30 min, sondern mit 3 min😏",13-3-2022,0
134,user8000559398810,user8000559398810,,Geht das auch mit Android?,13-3-2022,0
135,Dominique Wyniger,netquick,,"netter Tip, aber mit Hack oder Programm hat das wenig zu tun",13-3-2022,0
136,𝕱𝖆𝖇𝖎 ☔,.icongotdrip,,Man kann das auch schneller machen mit anderer wariante,13-3-2022,0
137,Samus Aran,samusaran2,,"An sich extrem praktisch, aber wenn mein Schnittprogramm nicht geschlossen ist, fährt mein PC nicht herunter.",13-3-2022,0
138,Deluxe23,deluxe23one,,Windows Programm geschrieben? Lol... Die batch nutzen. Cmd geht übrigens auch. Bat ist veraltet,13-3-2022,0
139,paramax09,firegamer_09hd,,@bens_hardware stimmt das?,13-3-2022,0
140,Luca,lucacombosch,,Weh,13-3-2022,0
141,Tobias Freiberg,tobiasfreiberg,,digger es gibt halt einfach sleep timer sry bro,13-3-2022,0
142,Riccardo,riccardo.berger,,„Programm“,13-3-2022,0
143,niksek,niksekkk,,Hab’s damals immer beim Lehrer gemacht im pc raum 😅,13-3-2022,0
144,naiforti4,naiforti4,,Ooo brudii ich sehe schon meine Arbeitskollegen am verzweifeln,13-3-2022,0
145,༒︎𝓟𝓐𝓢𝓒𝓐𝓛༒︎,_0_pascal_0_,,es geht schneller,13-3-2022,0
146,e r r o r,aladdin76er,,Bei mir klappt es irgendwie nicht 😅,13-3-2022,0
147,Leon,leon282004,,Das ist einf den Editor usen,13-3-2022,0
148,Leon,leon282004,,Das ist kein hack lol,13-3-2022,0
149,. .,got___f.cked,,habe das vor nem halben Jahr in der Schule gemacht,13-3-2022,0
150,Benny,bmw.e30.m30b35,,Einfach beim Kollegen im Autostart rein basteln und auf 180 statt 1800 setzen... 😂,13-3-2022,0
151,marc_hoellinger,marc_hoellinger,,Ist das jetzt sein ernst ???? Ein hack ???,13-3-2022,0
152,GamerFreak34,jiiyru,,kann man die Zeit beliebig anpassen?,12-3-2022,0
153,Mikail Gül,mikapicasa,,legit gemerkt für die nächste Info Stunde😂,12-3-2022,0
154,Marexor,_marexor_,,und das ganze jetzt noch in den autostart mit ner kürzen Zeit 😅,12-3-2022,0
155,D,bakanilo,,"Dachte kurz, Kylo Ren erklärt mir jetzt windows tricks",12-3-2022,0
156,🐉,wussmo,,Und wie kann ich es abbrechen während die Zeit abläuft?,12-3-2022,0
157,saskia_ist_back,saskia_ist_back,,@bens_hardware stimmt das?🤔🤔🤔🤔,12-3-2022,0
158,IdeinesKs Psn,ideineskspsn,,Aber wirklich cool... 😏 bis alle Mails raus sind oder alles gedruckt ist...,12-3-2022,0
159,LoceYouT2,loveyout0o_,,wie kann ich dass wieder weg machen?,12-3-2022,0
160,eL33Te,el33te,,f für force fehlt - shutdown /s /f /t 0 😏😅,12-3-2022,0
161,LEO,iamleoberisha,,kinder,12-3-2022,0
162,Killua.kun00,fischceo,,bei mir gibt es aber keine app die editor heißt bin auf windows 11,12-3-2022,0
163,Raffael Abranchel Cu,raffaelabranchelc,,das ist wie wenn man html und css programmieren nennt 🤭 aber ja.. es funktioniert natürlich.,12-3-2022,0
164,Silvers Rayleigh,silversrayleigh1.0,,"Zum Schluss noch der ganz dezente Hinweis, was man damit noch machen könnte...😂",12-3-2022,0
165,Teddy,teddy_1_8_,,Hehehehe sicher sicher 😂,12-3-2022,0
166,Demir Kaya,demirkaya3,,Du bist echt echt der beste !,12-3-2022,0
167,Sven,swen_of_berlin,,Einfach mal bei Autostart mit rein legen 🤪🤣🤣🤣,12-3-2022,0
168,muarcl,muarcl,,Ich hab gar nichts versprochen,12-3-2022,0
169,Leandro,lele_skempic,,Einfach Roberto Firmino 😂,12-3-2022,0
170,Bo,_shodan_,,gute rendersoftware kann das selbst 😏,12-3-2022,0
171,KajuRoast,kajuroast,,"das mit dem "" Nur für das Gute einsetzen und Leute nerven"" gefällt mir 😁😂",12-3-2022,0
172,Jake,yomamagae666,,ich der das seit jahren in der schule macht,12-3-2022,0
173,Sakura stomps itachi,.kakizu,,Wenn man die ip von einem anderen pc hat kann man den mit shutdown ausschalten,12-3-2022,0
174,Th3 Psycho,th3_psycho,,Theoretisch kann man das sogar an eine Tastenkombination binden Jesus,12-3-2022,0
175,Tolga,tolga_mtb,,Geht auch über cmd,12-3-2022,0
176,乂ﻞαƴ|ᴷⁱˡˡᵧₒᵤツ,arrival.memes,,𝒄𝒉𝒆𝒄𝒌 𝒏𝒊𝒄𝒉𝒕 𝒘𝒂𝒓𝒖𝒎 𝒎𝒂𝒏 𝒅𝒂𝒔 𝒎𝒂𝒄𝒉𝒆𝒏 𝒔𝒐𝒍𝒍𝒕𝒆😂,12-3-2022,0
177,Nam K.,cubia.nam,,"Damals im IT Unterricht gelernt, immer wieder lustig.",12-3-2022,0
178,Rico,satsang081,,Eine Batchdatei als Programm zu betiteln ist sehr gewagt,12-3-2022,0
179,Wijo,m1sterj0nes,,Einfach Clay Jennsen aus tøte Mädchen lügen nicht 😅,12-3-2022,0
180,seiberter,wcd_fanpage,,und wie erkennt der PC das er mit dem Rendern fertig ist und starter das dann automatisch ?,12-3-2022,0
181,😱,7ds_tard,,Hey hätte eine Frage also wenn ich da was suchen will kann ich nix schreiben also da ist es halt nicht mal nur das Windows Zeichen aber kein 1/2,12-3-2022,0
182,Marcel Puxbaumer,staatsgeheimnis,,"Womit renderst du, dass das Programm die Funktion nicht von Haus aus hat? 😅",12-3-2022,0
183,xyTim,xytim_yt,,Jetzt weiß ich was ich im Informatikunzericht mache 😂😂,12-3-2022,0
184,DieZeitMitOlaf,diezeitmitolaf,,Ja klar versprochen....hehe😁,12-3-2022,0
185,Sebastian W83,coldraker,,Wir haben den Befehl immer in der Verknüpfung vom Browser hinterlegt. Dann natürlich ohne Verzögerung 😂,12-3-2022,0
186,.,dubistcringeaf,,Das war ein Fehler freundchen,12-3-2022,0
187,HEK.TIK,hek.tik,,Benutz das immer um einzuschlafen während noch was läuft,12-3-2022,0
188,Elyas A.,ely.awr,,versprochen gebrochen bro sorry,12-3-2022,0
189,robinash,robheart76,,mein held😅😅,12-3-2022,0
190,Lucas,minionpowerer,,Warum siehst du immer so glücklich aus? Du bist einfach am Dauer lächeln,12-3-2022,0
191,bester Anmachspruch,username993384,,oderrrr du gibt's Windows+r und dann auch den Befehl ist einfacher..,11-3-2022,0
192,magicone9,magicone9,,einfach in der schule😅,11-3-2022,0
193,Julian,krasserwiedu,,"also, update, mein Kollege hat nen Monitor kaputt gemacht weil seid 4 Stunden jede halbe Stunde sein PC ausgeht😂😂😂",11-3-2022,0
194,Damian,damian_joseph_bruce,,"mit shutdown -i kann man auch andere Computer herunterfahren, an denen man nicht gerade sitzt, man muss aber über gewisse informationen Verfügen",11-3-2022,0
195,sp.noah,sp.noah,,wo ist der PC meines bre's?,11-3-2022,0
196,hmmmh27,hmmmh27,,Kann ich dir nicht versprechen bruder 😳,11-3-2022,0
197,sharkyinitmc,sharkyinitmc,,Schul pc,11-3-2022,0
198,Griefer MCS,griefermcs,,*NATÜRLICH*,11-3-2022,0
199,MAR VIN,marvin_.mz,,Wie stellt man die Zeit auf z.B 3 Minuten?,11-3-2022,0
200,Apfelmoft,apfelmoft,,"Das ist, als würde der 3-jährige Sandburgbauer dem Maurermeister erzählen, wie man … ach egal 🙄",11-3-2022,0
201,mohamed,momo_ali,,Könntest du das genauer erklären wie das geht,11-3-2022,0
202,Reezonical 64,reezonical64,,"in der Schule haben wir eine antishutdown.bat, die stoppt den Shutdownbefehl wenn der Lehrer den runterfahren will",11-3-2022,0
203,Rᴇᴀᴘᴇʀ死神,http.reaper_,,er sieht aus wie Kylo Ren Actor,11-3-2022,0
204,Ronaldo and Messi are goats,ronaldo.r09,,Das war ein Fehler 😈,11-3-2022,0
205,raider on a 690,raider_on_690,,du sagst menschen braucht es nur für gutes?! auf welchen planeten wird das den versprochen??,11-3-2022,0
206,Tobiii,clutches._.king,,eine frage ich habe Windows 11 aber das gibt es net bei mir,11-3-2022,0
207,Albaner.der.anime.mag,and_tripple_d,,Also das ganze Video wusste ich nicht was du meinst mit schlimme Dinge tuhen aber jetzt weiß ich es 😂,11-3-2022,0
208,AE Soaps,esatbecco,,adam driver spricht deutsch?😳,11-3-2022,0
209,ericluna der beste,ericschokolade1,,unt was ist 3200,11-3-2022,0
210,A,xvali6,,Ab jz immer im computerraum,11-3-2022,0
211,esma,es_ma088,,Mein Klassenkamerad hat das vor den Ferien gemacht 😂,11-3-2022,0
212,Living535,living1981,,Batch Datei ist ned ganz n Programm... aber zu DOS Zeiten ham die viel Arbeit abgenommen,11-3-2022,0
213,𝘾𝙚𝙙𝙧𝙞𝙘,cxdrxc.hxm,,Also am Montag wenn ich Informatik habe mache ich das mal bei meinem Banknachbar😂,11-3-2022,0
214,Offiziell.Kilua,your.fav.zigo.1312,,@jdm_s_14 ich will das in Schule machen 😂,11-3-2022,0
215,user7541348296806,bukubukubukubukukuku,,„Programm“,11-3-2022,0
216,Minato_is_a_beast,minato_is_a_best,,das mach ich Bei meinem Sohn,11-3-2022,0
217,user2845397914922,al0121,,Eher ein Script als ein Programm. Aber ok.,11-3-2022,0
218,Hopp,abmarsch,,mach ein -f mit rein damit der pc auch herunter fährt falls ihn etwas versucht zu hindern wie nicht gespeicherte datein,11-3-2022,0
219,AlexEden,alexeden86,,Jetzt nennt man normale Kommandozeilenbefehle schon Hacks. 🤦,11-3-2022,0
220,Benjamin Koch,ben_md,,Wer das nicht kennt sollte PCs nicht verwenden….,11-3-2022,0
221,Cyber219,cyber1912,,"Definiere ""gut""",11-3-2022,0
222,Steven Beh,stevenbeh0,,Älter als Windows selbst 😅,11-3-2022,0
223,leandro lange,leandro.1211475,,Hö bei mir funktioniert das nicht,11-3-2022,0
224,我他媽的 a 和 z,nicoschelle13,,Haha geil 😂,11-3-2022,0
225,maczeug,maczeug,,"Was heute alles ""Hack"" oder ""Programm"" heisst....😂",11-3-2022,0
226,MTB Fahrer willkommen:D,milan_mtb2022,,mach das eif in cmd geht besser,11-3-2022,0
227,Oskar,oskar_dhl,,@peswah21 lass machen in schuke,11-3-2022,0
228,ok,averagejojobaenjoyer,,zeig das keinen eltern 💀,11-3-2022,0
229,Lucas Postweiler,maximilian_lucas,,Und nix wird gespeichert,11-3-2022,0
230,Emirhan cakar,emirhan._57,,Gibt es ein Programm was zb bischen länger isy zb 1-2 Stunden ?,11-3-2022,0
231,Alexander Leonhar105,loranadaga,,Der Klassiker damals in der Schule,11-3-2022,0
232,Jonas,jonas_nessuno,,"Nachfolgend Strg-C, Rechtsklick, Verknüpfung einfügen. Bei der Verknüpfung Eigenschaften: Icon ändern, Icon von Firefox/Chrome benutzen und die",11-3-2022,0
233,Ezio Auditore,ezioauditore1992,,"Hallo bitte was soll ich tun wenn sich mein laptop nach Windows 10 nicht mehr zurück setzt?
Er hängt brutal. Was kann ich tun? Danke",11-3-2022,0
234,user5009400021713,tuggseven,,kannse auch direkt in den CMD schreiben kommt viel cooler rüber 🤔,11-3-2022,0
235,LEC x Energy,lec_x_energy,,180s = 30 min hä?,11-3-2022,0
236,(⌐■-■),laloses,,Kann man das mit jeder Zahl machen???,11-3-2022,0
237,bugeyesubi69,bugeyesubi69,,hä das haben wir schon vor 10jahren in der Schule gemacht und haben den Lehrern gesagt der Pc sei kaputt und die waren alle schon am verzweifeln😂😂😂,10-3-2022,0
238,Aaron Anderson,helium.mtb,,Ist es möglich das mit einer Sekunde in den autostart zu packen? So dass der PC sich nach dem Starten sofort wieder herrunterfährt?,10-3-2022,0
239,Marlon,merlonxd,,"Nützlicher Tipp für manche, aber bitte nenne das nicht „Hack“",10-3-2022,0
240,Philithid,philithid,,vor 10 Jahren auf den Schulrechnern gebaut. hat sich selbst in Autostart geschoben wenn's geöffnet wurde xD,10-3-2022,0
241,ihadnofriends,ihadnofriends,,Kannst du ein Video dazu machen wie man das ganze wieder rückgängig macht z.B wenn man versehentlich draufklickt?,10-3-2022,0
242,Elias_UX,elias_ux1,,"Ich hab ne frage, mein Monitor ist auf 640x480 gesprungen und lässt sich in den Einstellungen nicht ändern. Weißt vlt warum und gibts ne Lösung?",10-3-2022,0
243,yes,garstigermolch,,Nicht fürs böse verwenden😂😂,10-3-2022,0
244,Max,max_n1604,,Powertoys sind für sowas auch mega,10-3-2022,0
245,Zorro,andrij_zborivski,,"kenn ich schon, jz redet mein Bruder nicht mehr mit mir",9-3-2022,0
246,S1RF4ULT13R,s4n1t03t3rf4ult13r0,,kannte ich schon aber trotzdem gutes Video ✌️👍,9-3-2022,0
247,Hannes Tee,hannes612,,Schade dass ich nicht mehr in die Schule gehe,9-3-2022,0
248,Erwin Schelbert,trucker_buabali_sz,,Ich muss mal eben an mein Chef sein Rechner 😂😂😂😂,9-3-2022,0
249,Lennard,len_ny367,,Bisl Fortnaight dies das🧑🏿‍🦼,8-3-2022,0
250,Witty der aller echte,wenjucktsduloser,,@bens_hardware stimmt das?,8-3-2022,0
251,Moritz,moritz_zn,,du schaust eiskalt aus wie keanu reeves,7-3-2022,0
252,DDogg911,ddogg911,,Anleitung zu ungenau habe die NSA gehacked 😅,7-3-2022,0
253,John xina fan,omar_on_fire32,,Erstmal über discord rum schicken,7-3-2022,0
254,:Skull:,zetzyo,,Was ist das für eine Programmiersprache?,7-3-2022,0
255,Bernh@rd,maccxxster,,Beim Mac gehst du einfach in die Systemeinstellungen „Energie sparen“; da einfach die gewünschte Schlaf- oder Ausschaltzeit eingeben…fertig!👍🏼,7-3-2022,0
256,Eron,iameron,,Kann ich das auch irgendwie canceln?,7-3-2022,0
257,user6851521504148,jay.cee2000,,"Informatik im der 10. Klasse. Bei ins haben wir das immer in den Verteiler als ""Aufgaben"" reingepackt und uns über die verwirrten Gesichter im Raum g",7-3-2022,0
258,KuroPlayz_YT,kuroplayzz,,Geil jz weiß ich wie man die bat bomben von meinem Schulpc macht😂,6-3-2022,0
259,Hanswurst516,hanswurst516,,Da fehlt das f 😁😏,6-3-2022,0
260,akumu_zitate__,akumu_zitate__,,ich mach das bei meinem bruder wenn er mir sagt das er bald cod spielen will😂😂😂😂😂,6-3-2022,0
261,volker2000,volker2000,,geht aber mit dem 11er nicht 😁😁,6-3-2022,0
262,Hatschi444,hatschi444,,oder man lädt sich einfach ein Gratis-App dafür runter😇,6-3-2022,0
263,Ich1ich2ich3,ich1ich2ich3,,-f am ende dazu und alles is aus. Erzwingt,6-3-2022,0
264,andreas-du,anomalie2020,,versprochen,6-3-2022,0
265,A,afxszfw,,Shutdown -a regelt😂,6-3-2022,0
266,karlhallo4,karlhallo4,,funktioniert dieses programm ohne dass ich den prozess noch bestätigen muss?,5-3-2022,0
267,tomioka,tsdw.tomioka,,erstmal als free vbucks speichern lol,4-3-2022,0
268,Lukas,karkas.92,,"Also bei mir öffnet der PC nur das cmd und schreibt ständig den Code hinein, kannst du vl mal erklären was passieren sollte?",4-3-2022,0
269,Para Gon8877,giandongg,,wer nutzt denn heutzutage noch windows? 😏,3-3-2022,0
270,Sasuke,sasuke_uchiha03212,,Das ist gut für jungs😏,3-3-2022,0
271,Ademi33,ademiart,,irgendwie traurig ne Batch oder VBS Programm zu nennen 😏,3-3-2022,0
272,Norman Schulze,newnorman_97,,und shutdown /a kann man den Vorgang abbrechen,3-3-2022,0
273,Erfolgsabi,erfolgs.abi,,Das haben wir 2009 in der Schule beim Informatiklehrer gemacht,2-3-2022,0
274,lastangel23m,lastangel23m,,falsch es ist kein Programm. bat ist die Abkürzung für batch und war damals in der Dose Umgebung,1-3-2022,0
275,Cara,caraphi,,Das haben wir früher auch in der 4 klasse gemacht,1-3-2022,0
276,Silent Chapter,silentchapter,,Shutdown -i ist besser,28-2-2022,0
277,Flyh4ck3r,flyh4ck3r.exe,,digga den kenne ich seit der 3. Klasse hab die bat datei umgenannt zu Minecraft Launcher und das Symbol von dem Erdblock dazu gepackt,28-2-2022,0
278,evwin23,evwin23,,"kannst es auch einfach in der Konsole machen, wenn man es nicht so oft braucht. Praktisch wenn man etwas über die Nacht runterlädt.",28-2-2022,0
279,AsimoUchiha,asimouchiha,,kann ich nach den shutdown wieder öffnen?,26-2-2022,0
280,pinocchiozzy,pinocchiozzy,,kann man das innerhalb der 30 min rückgängig machen?,24-2-2022,0
281,Robin,black_fre4k,,und dann Bau ein loop zusätzlich ein,22-2-2022,0
282,Bob der Bongmeister🍃🍃,derpoleaushanau,,nachts ist der wind blauer als im sommerlichen herbst um 25 uhr,22-2-2022,0
283,Quirin,quirinyyy,,"haben das mal auf allen Schulpc's gemacht, das Programm in den Startup folder reingetan (-t 1) - Chaos",22-2-2022,0
284,bubatz69,bubatz69,,Krasser code Bruder,22-2-2022,0
285,Better Tester,bettertester,,"Rechner runterfahren, wieso?",21-2-2022,0
286,dertiktooooooooker,dertiktooooooooker,,"Das ist doch kein Programm sondern ein Script, ohh man 😏",21-2-2022,0
287,Philip Auditore,biglife5_,,Das ist ein Script und kein Programm,21-2-2022,0
288,❤️🩸Stranger Things🩸❤️,axdrex_rgb,,Danke du bist echt ein Ehrenmann 😁,21-2-2022,0
289,Flori_Pera,einfach_ich56,,Hab das an sparkasse geschickt,21-2-2022,0
290,moin,anthony_3172,,Hehe lererin wird nacj den ferien genervt,21-2-2022,0
291,☆☆☆,blowmybrainaway,,kannst du zeigen wie thc hydra funkioniert?,21-2-2022,0
292,Biver,biver09,,Ich glaube es geht genauso gut mit .cmd,21-2-2022,0
293,꧁₴₮ⱤØ₦₲ⱠɄɆ₴꧂,theluvvly.lues,,Kann man auch mit ner Textzeile /Dokument es gab auch mal eine Website wo man das verschicken kann aber die wurde gesperrt aber andere Browser regeln,20-2-2022,0
294,leca_xd,leca_xd,,@julzle1 lass des mal bei zzz machen,20-2-2022,0
295,Makii Martin Vasic,martinvasic99,,"„Chef, mein Computer stürzt dauernd ab ich kann nicht ordnungsgemäß arbeiten!!“",20-2-2022,0
296,Leon,fattiktokfrog,,Hab mal ein Programm entwickelt das automatisch den PC ausshaltet wenn die Laufwerkauflastung für eine bestimmte Zeit unter 20 kb/s liegt,20-2-2022,0
297,"Luis,11",lqsari187,,winfreund schickt das in discord herum mit einer sekunde,20-2-2022,0
298,NickIsWeeb,nikkuisweeb,,"""nicht um irgendwelche Leute zu nerven""
*öffnet die Datei auf dem PC des Lehrers",19-2-2022,0
299,Invisible,invisible_memes,,Kann man Viren entfernen,17-2-2022,0
300,Jeff t,robot_blut,,Render Programm macht das selber..😅,16-2-2022,0
301,Konto base,kontobase,,ich arbeite gerne mit der Aufgabenplanung von Windows zusammen dort habe ich festgelegt das die bat Datei maximal um 23:00 gestartet werden soll jeden,16-2-2022,0
302,Bo Richards,your_daddy_o.o,,Bist du mit Thomas Herrmanns verwandt? Grüße gehen raus 😁,16-2-2022,0
303,Markus Landener,markuslandener,,Schalte aus wann ich will was soll das mal echt,16-2-2022,0
304,Nico-LITE,nico_lite,,ja ich verspreche es hmmm stimmt wirklich,16-2-2022,0
305,Illaim91,illaim91,,"Kann man nicht einfach die Energieeinstellungen anpassen, sodass sich der Rechner und Bildschirm nach 30 Minuten ausschalten? Total unnötig",16-2-2022,0
306,John Doe,.john..doe,,jeder Linux-Benutzer lacht gerade. 😅😅😅,16-2-2022,0
307,CoyoChris,coyochris,,Achja… die gute alte Batch… was habe ich in DOS Menüs geschrieben um meine Spieler bequem starten zu können 🥺,16-2-2022,0
308,Hrimthurse,hrimthurse,,Wie mach ich einen Neustart Loop?,16-2-2022,0
309,Niclas Neumann,niclas3112,,"ich habs bei meinem Lehrer immer gemacht. Schön, wenn das EctiveBoard ausgehet und man weiß nicht warum😂",16-2-2022,0
310,YTDarkFighter,ytdarkfighter,,@Tizian na du informatik student das wusstest du doch oder😂,15-2-2022,0
311,LM,blinkylm,,Junge morgen in it 😅😂,15-2-2022,0
312,Team Hund31,teamhund628,,😂😂😂 Fürs gute einsetzen der war gut,15-2-2022,0
313,moritz.ly,moritz_._h,,Mach ich sonst immer über cmd ist unkomplizierter,15-2-2022,0
314,Xiao <3,a.xiao.simp.uwu,,digga meine agressionen wegen seinem blick: 📈📈📈📈📈,15-2-2022,0
315,Bendeguz Iroczki,benthegoose12,,Ich werde der file Auto-start geben,15-2-2022,0
316,Justin Fuchs,tgf.420,,get nicht,15-2-2022,0
317,Okööö,i99er,,Und der Monitor ?,14-2-2022,0
318,Chi.Hld,c.h.18.1,,Hat jemand mal bei dem schul pc gemacht,14-2-2022,0
319,user7201581809958,hellotrippi,,Diggah er weiß doch schon für was das verwendet wird 😂,14-2-2022,0
320,.,MS4wLjABAAAAD8vsCiBhuHhOIxMMCgbE7b2eQ0dUQc6bS3beubyAxvfAjrf5Trlxxq6NrIEYAS2v,,Eyy was muss ich machen wen mein pc immer in einem Screen hängt und zwar in dem amercian Trends 😭,13-2-2022,0
321,Aminaliebe,abdiiiderechte2,,Versprochen!😏,13-2-2022,0
322,papi,pippipapi,,"auch noch erklären , wofür man es verwenden soll, ähm sorry ... nicht verwenden soll natürlich😂😂hatte mich schon gefragt, wofür man das braucht 😂",13-2-2022,0
323,Simi_says -,simi_says,,"Python Skript, wenn die Gegner turtle dich erwischt fährt der PC heimlich runter 😅",13-2-2022,0
324,Mamasliebling69,muttisliebl1ng,,kann man das auch mit cmd.exe ?,14-3-2022,1
325,♡♥︎,m_e_y_i_z,,@Sebastian Nguyen wusstest du das???,15-3-2022,1
326,Milan,totallybadstuff,,Imagine er sagt Windows Hack für einen prompt command lmao,13-3-2022,2
327,Pataxto,pataxto,,Cool,23-2-2022,3
328,Daniel,d_a_n_i_me1,,@noel_071303 hm?,16-3-2022,1
329,peter.weilant,chewiebakka,,Windows ‚Programm‘ 😂,16-3-2022,0
330,hoamoclansl617,hoamoclansl617,,kylo ren?,25-4-2022,0
331,ILTAA,1ltaa,,why can't i search anything on google or any other search app,27-3-2022,0
332,Kisuke Urahara,baddrags,,Urahara Kisuke,17-3-2022,0
333,Alex-AlbBot,albbot33,,Code 😂😂😂,13-3-2022,0
334,user6222276707417,sucuk2020,,oha,12-3-2022,0
335,nscde88,nscde88,,shutdown -a 😏,12-3-2022,0
336,Jonny,lojonny,,Luis Suarez?,12-3-2022,0
337,Highfidelity_goat,highfidelity_goat,,windows programm 😂😂😂😂,12-3-2022,0
338,Enric Albi,enricsson,,"""windows programm"" ""extrem cooler - hack""",11-3-2022,0
339,Dion,diononline,,Flashback early Windows XP torrenting Zeit,11-3-2022,0
340,1nicerOli,1niceroli,,*script,11-3-2022,0
341,real_sishi,real_sushi,,Twerk,11-3-2022,0
342,Maxim Ort,maxim_bullsht,,kylo ren?,9-3-2022,0
343,The World,theworld.valo,,@tronicslovesyoubae how to legen Schule pcs down,21-2-2022,0
344,Macmissionar,macmissionar,,Herr Programmierer sollte sich wirklich langsam in Windows-DAU-Scriptkiddie umbenennen.,12-1-2022,187
345,h0tic3Lippe (Daniel),h0tic3lippe,,"Wo ist jetzt der Hack? Das ist ne Stapelverarbeitung, nix Programm oder Hack. 😂",12-1-2022,87
346,Samuel,samuel.scherrer,,Leider funktioniert es kicht auch wenn ich das Programm starte klappt es nicht (logisch habe es als .bat gespeichert…),15-1-2022,2
347,Maik,maiki_molto,,"Jaaa sichi, nach dem du Videos gerendert hast nutze du sowas. Als ob die Render-Software keine eigene Shutdownoption hätte..😅😅😅",24-3-2022,0
348,mnmnmnlol,mnmnmnlol,,Ich verspreche nichts was ich nicht halten kann! Danke für den Tipp!!,24-3-2022,0
349,S Dope,sdopeisses,,Das ist doch kein Programm sondern nur ein Befehl oder?,17-3-2022,0
350,magicmerlin92,lslohner92,,Würde ich doch niiiiiiiie machen 😂,16-3-2022,0
351,DerMarc,marcaber73,,Ja oder man tippt das einfach in die Eingabeaufforderung.,16-3-2022,0
352,Internetwache,internetwache,,DAS.IST.KEIN.PROGRAMM!,16-3-2022,0
353,Variable Harfe77,variableharfe77,,erst Mal bei Arbeitskollegen ausprobieren😂😂,11-3-2022,0
354,Chris,oob3nder,,Und als nächstes erklärt er das man die Tasten der Maus frei belegen kann ... IT Gott,11-3-2022,0
355,Zempect,zempect,,Nerven? neiiin ich doch nicht 😂,21-2-2022,0
356,Shmn,newfetz,,Vielleicht noch erwähnen wie man den Befehl wieder abbricht :),21-2-2022,0
357,11011,onlymilfs_,,Fällt das nur mir auf oder passen seine lippen bewegungen manchmal nur zur aussprache bzw die wörter/buchstaben die er sagt 😅😅,20-2-2022,0
358,Oli Rall,xbow68,,Programm? 😂😂😂😂😂 Das ist eine Batchdatei,20-2-2022,0
359,Zeta 1,__8ball__,,Sohn von little britain star guckt ihn euch an 😂😂😂😂,16-2-2022,0
360,CptKoelsch,cptkoelsch,,Alter......,16-2-2022,0
361,Hanch_Starleaper,hanch_starleaper,,"Programm? 😂😂 Das ist auch kein Hack, das ist windows für fortgeschrittene. Trigger ne Aufgabe die erkennt wenn das rendern abgeschlossen ist….",15-2-2022,0
362,Rene Graf,renegraf1,,wauuuuu der ist ja cool 😅 p.s. gibt es schon sehrrrrrr lange 😂,15-1-2022,2
363,🎥DER HACKER🎞,der_hacker_007,,Ab in den Autostart damit und auf 1 Sekunde runter gestellt🤣,12-1-2022,151
364,springflake,springflake,,Programmieren? Batch-Datei für Anfänger. Dank diesem Kanal denken alle Kiddies sie wären professionelle Hacker und Coder.,12-1-2022,6
365,Herr Programmierer · Ersteller,herr_programmierer,,IG: junus.ergin,12-1-2022,106
366,Lukas ,ger_deadpool,,Andere Leute nerven ☑️,10-3-2022,40
367,Julian,it_juli1337,,shutdown.exe -s -t 10 als .bat speichern und in den Autostart Ordner des/der Ex legen 😬,13-1-2022,22
368,Loreyyy,loris.lnz,,"An alle, ihr könnt es dann abbrechen wenn ihr WIN + R drückt und CMD eingibt. Nachdem gibst du „shutdown -a“ ein und das wird abgebrochen.",13-1-2022,17
369,VK,jack_russell_v,,"Am 14 März in Deutschland ist Protest wegen Kraftstoffpreisen !!! Bitte am Montag den 14 März, nicht tanken !!!",12-3-2022,1
370,Nails_official0 Expose,heteorking,,"✨STRAHLEND✨
✨SORGLOS✨
✨VERTRÄUMT✨
✨ADRIEN ✨
✨DAS PARFÜM✨",24-3-2022,0
371,horst3752,horst3752,,"Wow..
Grandios
Marvellous
Phantastic
Du bist der Held der Woche..
Echt jetzt.
Wirklich..
🥰🥰",21-2-2022,0
372,Random Content,itsbekirtard,,Ein gewaltiger Fehler dieses Video zu machen,12-3-2022,1
373,boarisch_original,boarisch_original,,das ist kein Hack das ist cmd.,16-2-2022,2
374,Irgendeine Gruppe,wasdalosgewesen,,Krasser Hack Bruder,11-3-2022,1
375,naruto_ meliodas,danierusama,,ahhh was werde ich morgen wieder in der Schule anstellen das denke ich jeden Tag Bein schauen von seine Videos [rage]👹😈,5-2-2022,2
376,Kisaki,kisaki_crescent,,😏 Mitschüler hassen diesen Trick,17-3-2022,0
377,jamw_,donjuandemarcolino,,"Das ist kein Hack, das ist intended. Mein Gott. Enttäuschte Grüsse von einem ITler. Unfollow.",16-3-2022,0
378,Der Kommentator,derechtekommentator,,Wie man mit einfachen Dingen und falschen Betitelungen Narren fängt: dieses Video.,16-3-2022,0
379,kritische_masse,kritische_masse69,,Der krasseste Hack des Jahrhunderts. Kappa,16-3-2022,0
380,vCranKv,vcrankv,,"Lass es.. letztens CMD Befehle als ""hacken"" bezeichnen und heute Batch Files als Programm.... lass es einfach!",14-3-2022,0
381,𝓣𝓸𝓶,telekomtom,,"""...coolen Hack..."" ein Trick den ich schon sehr lange nutze wenn ich abends was Downloade und kein Hack",13-3-2022,0
382,AndyKM999,andymadison999,,"Das ist weder ein Life Hack noch Hack. Das ist nicht neu, oh man! 🤡",12-3-2022,0
383,GIGA FLOOF,gigafloof,,"was für ein krasser ""hack""... das weiß jeder fünftklässler",12-3-2022,0
384,Abrakablabla,abrakablabla81,,"Das war so ziemlich der langweiligste Tip, welchen ich in 30 Jahren PC gehört habe. Das noch hack zu nennen😂 lächerlich",12-3-2022,0
385,phutschi,phutschi,,Richtiger Hacker,12-3-2022,0
386,Florian Nolting,floriannolting,,Voll der „Hack“ 😂,12-3-2022,0
387,Hecker#0000,heckintosh,,"O mein Gott, so ein krasser Hack 😑",12-3-2022,0
388,Coolgamer.io,gameplayer30003,,Hey habe dich auf YouTube gesehen und habe deinen gegrinst nachprogrammiert habe aber ein Fehler kannst du mir vielleicht helfen?,11-3-2022,0
389,Carsten Müller,athanis_lu,,Nen Script ist also ein Windows Programm ? Wird immer lächerlicher bei dir leider … schäme mich als Entwickler,11-3-2022,0
390,Rambrow,rambrow,,Block dich selber,8-3-2022,0
391,GOTT.auf.TikTok,gott.auf.tiktok,,"Warum ohne ""@echo off""? Und dann nichtmal einen klassischen Syf*cker geschrieben. Schwach. Aber die Kids sind fasziniert...",7-3-2022,0
392,Unlimit3d92,unlimit3d92,,warum bist du so komisch?,6-3-2022,0
393,moreguns,gunsgunsgunsgunsguns,,oh batch files.... die vergessene Wissenschaft.... 🤦‍♂️,16-2-2022,0
394,kushyy839,kushyy839,,Deine krampfhaft gestellte Mimik macht extrem aggressiv,14-2-2022,0
395,F!<h D!<k,ilbytt,,"In der Schule auf's Netzlaufwerk, Zeit auf 0, dem Ding ein Ordnersymbol geben und es ""Nacktbilder von [NAME]"" nennen — sehr witzig😁😂😂",13-1-2022,2
396,Florian Kurth,floku98,,@lieschen_ha sein Mund macht mich irgendwie nervös 🤣,16-3-2022,1
397,手機軟件,69_fish,,Guck ma sein Mund an wenn er redet 🧨,10-3-2022,1
398,Börek,berghand,,Junge du türke?? Weil junus ergin,15-1-2022,2
399,I ㄥㄩᐯ Ⱥղìʍҽ,zoro_d._chopper,,shutdown -a zum abbrechen,30-3-2022,1
400,emperorsascharoni,emperorsascharoni,,Nehme ich oft her. Falls ihr euch unentschieden shutdown -a,11-4-2022,0
401,pero hrvatski,ihr_vater182728,,der zyp sieht irgendwie aus wie der typ von brooklyn 99,30-3-2022,0
402,Marco Deeg,marcodeeg_t.s,,Adam Sandler auf Wish bestellt! 😂😂,23-3-2022,0
403,Talemann,talemann1982,,Ist das hier ein witz? Gruß aus der IT,23-3-2022,0
404,Aescurd,aescurd,,"ziemlich alter Kniff, damit haben wir uns schon vor Jahren gegenseitig auf Lan-Partys genatzt...",23-3-2022,0
405,ÖPNV Mönchengladbach,mgbusspotter,,Sehr nutzbar für Eltern,20-3-2022,0
406,Pack,pack579,,"Ich, liebster und bester Mensch. *Händereib*",20-3-2022,0
407,Dr. Fresh,foryainformation,,Adam Sandler macht jetzt auch TikTok?,17-3-2022,0
408,JosunLP,josunlp,,"@bens_hardware 😂 er hat einen ""Hack"" gefunden",17-3-2022,0
409,PlayboiNuki.207,playboinuki.207,,"mach @echo off
:a
goto a
start
und dann speichern .bat",16-3-2022,0
410,ich.finde.dich.hübsch.antwote,axademoshdhdj,,ist das ein Minus oder Bindestrich ?,16-3-2022,0
411,Insta:Lxca460,lxca460,,Is der dicht?,16-3-2022,0
412,Benjamin Lohrbach240,eddyfatze,,"Hör bitte auf, Systemfunktionen als Hack zu verkaufen. Warum machst Du nicht einfach Werbung für Zahncreme?",15-3-2022,0
413,german_kartoffelsarlat,german_kartoffelsarlat,,neuen Streich freigeschaltet,15-3-2022,0
414,Mats ⚡️,mxs172,,der eine klassenclown so: 😈😈,14-3-2022,0
415,ERIOLGAM,eriolgam,,"Hey, ich zeig dir jetzt einen Trick alle ausser dir einen Stromschlag bekommen. Versprich aber, dass du ihn nie verwendest...
Würde ich nie tun",13-3-2022,0
416,de Saersch,desaersch,,Stapelverarbeitungsdatei... Is nu nicht wirklich was neues 😏,13-3-2022,0
417,♥︎LIAM♥︎,mxybe_liam0,,Der bre bringt uns bei wie man Putin zackt,12-3-2022,0
418,Benedikt,radio_ben,,kann man auch in run reinschreiben,12-3-2022,0
419,🙊🙉🙈,majorjellyblub,,„Extrem“ „cooler“ „Hack“ 😂,12-3-2022,0
420,InstantPyro,instantpyro,,danke quagmire,12-3-2022,0
421,zitronenjoe,zitronenjoe,,"Hack, ja genau 😅",12-3-2022,0
422,edwin_______,edwin_______,,Ich werde unaussprechliche Dinge damit anrichten 👹,12-3-2022,0
423,Die alten Knacker YT,diealtenknackeryt,,hä jetzt ma for Real der hat doch fake Zähne oben oder denke nur ich das😅,11-3-2022,0
424,puemmelMusch,puemmelmusch,,Hääck,11-3-2022,0
425,Heritage,why_do_i_use_this_app_,,Auf ein stick laden und anstatt 1800 1 reinschreiben,11-3-2022,0
426,Katastrophenalarm,enj4p.22,,Finger gekreuzt 😏,11-3-2022,0
427,toensie,toensie1,,bist du dir sicher das es nicht ms sind ?,11-3-2022,0
428,user2447749805325,user2447749805325,,Kann doch niemanden damit verarschen du ja dein eigenes runter,11-3-2022,0
429,klausandroSenpai,klausandrosenpai,,Am besten dann beim Freund auch noch in den Autostart machen,11-3-2022,0
430,Martin Leo,martinleo4,,macht das per cmd is einfacher,11-3-2022,0
431,nicestufftv,nicestufftv,,und dazu den -f vergessen,11-3-2022,0
432,ElektrisierenderVogel,elektrisierendervogel,,"Was hat denn ne Batch Datei mit ""Hack oder Programmieren"" zutun?",11-3-2022,0
433,Arne,candlelightkiller,,"""shutdown -f -s -t 0"" ... und wir haben 2022, da darf die Extension ruhig CMD statt BAT sein",11-3-2022,0
434,asuslp,asuslp,,Script für arme,11-3-2022,0
435,Kuni D. Dragon,qni_d,,"hmm toll... erinnert mich an den alten Lovesun-Virus damals, der den PC ein paar Sekunden nach dem Hochfahren wieder runtergefahren hat. 🙄",9-3-2022,0
436,BetterLifeForDogs,betterlifefordogs,,Oder man used sleeptimer,9-3-2022,0
437,Shyguy,shyguy5916,,Kann man auch im Cmd machen😂😂,8-3-2022,0
438,Nick77,iamnck,,machs doch in der cmd,8-3-2022,0
439,David Köhler,s1l3ntd4rk,,wieso nebst du eine Batch-Datei mit einem Cmd command als Hack? @bens_hardware,7-3-2022,0
440,FireRock_GHG,firerock_ghg,,"Kenn ich schon aber gut... ZUR INFO: wenn ihr es gestartet habt, aber wieder aufhalten wollt gebt im CMD das ein: shutdown -a",7-3-2022,0
441,heythere0113,heythere0113,,Warum sieht das so unreal aus wenn er redet?,6-3-2022,0
442,A.ZiZO0,a.zizo0,,hat jemand dir geschoren??🤦🏻‍♂️,5-3-2022,0
443,Hans Peter,hanspeter0053,,Oder direkt ins cmd xD,3-3-2022,0
444,Pius Wilke,piuswilke,,bruh das geht auch eif im cmd,1-3-2022,0
445,R6,ricksmaps,,ich werde diese Macht nicht missbrauchen,26-2-2022,0
446,mk7_st,mk7_st,,in der Schule shutdown -i eingeben und dann die pc nummer vom einem Klassenkollegen. Zack fährt der Pc runter😂,21-2-2022,0
447,Maik,velazc0zz,,wäre es nicht das gleiche den befehl in der PowerShell auszuführen?,21-2-2022,0
448,Mauki Origin,maukiorigin,,Den dann schön im Autostart lassen 😂😂😂,21-2-2022,0
449,So‘n random Huen,so_ein_random_huen,,@𝖀𝖒𝖚𝖙ᵂᴬ Ärger damit deine Schwester 😂,14-2-2022,0
450,Auras,xdomsi,,Das isr doch Grundwissen WTF,12-3-2022,1
451,💤,not_flouhl,,"warum, wo ist der sinn? drückt win-taste und tippt cmd und da dann direkt den Befehl spart zeit und man hat kein programm",23-3-2022,0
452,Meiki XXX,bananenbrot74,,Für mich ist das eine direkte Aufforderung jemanden damit zu nerven.,17-3-2022,0
453,xxkaj,xxkaj0,,Digga das solltest du keinem schüler zeigen,15-3-2022,0
454,Marcel,mikelmeyer3,,Also wer seine Kollegen ärgern will nutzt die Konsole und verschickt solche Befehle darüber. 😂,13-3-2022,0
455,Daniel Kosfeld,e24_635csi,,"Programmieren nennt das auch nur jemand, der nicht programmieren kann 😂",11-3-2022,0
456,tumnq,tumnamk,,aber du deutest schon an das man leute nervt,6-3-2022,0
457,xHaza42,xhaza42,,jaaaaaaa dir wird alles versprochen 😂😂😂 wie kann man nur so was veröffentlichen 😏,21-2-2022,0
458,_carpageofficial_,fulomanit,,aber 1mal nerven geht doch haha,21-2-2022,0
459,ferdifuchs2021,ferdifuchs2021,,"ohhhhh Gott!!! wie aufregend!
wenn Kinder entdecken wie ein PC funktioniert...",16-2-2022,0
460,Kaos Basti,kaosbasti,,😂😂😂 meine Fresse warst im Informatik Unterricht der hellste ... mit deinem selbst geschriebenen Windows-Programm 😂😂,11-3-2022,0
461,xaero1982,matze_aus_berlin,,"Du solltest echt anderen Content machen. Das ist kein „Windowsprogramm“, sondern eine simple Batch und das ist ein commandline tool. Kannst übrigens(1",20-2-2022,0
462,Was bruder,jsjsbdbyk,,Kannst du mir helfen kann ich dich privat schreiben 🥰,11-3-2022,0
463,JakobWeber_3,jakobweber_3,,meine Frage wäre ob man die nervige Windows Warnnachricht die bei so befehlen immer kommen irgendwie deaktivieren kann für die Datei,11-3-2022,0
464,Norman Schulze,newnorman_97,,oder man drückt start->cmd>shutdown /s /t 1800 und hat das selbe,3-3-2022,0
465,Jens Wildner,jenswildner,,Hack 😁,13-3-2022,0
466,.,nevio087,,shutdown ‐s ‐t 1800,12-3-2022,0
467,⌁⌁,999cholo,,Demon time😈,12-3-2022,0
468,nicestufftv,nicestufftv,,ui wasn hack :D,11-3-2022,0
469,Lost Places in Deutschland,lostplaces.germany,,script kiddy,14-2-2022,0
470,13Reyce37,13reyce37,,hackgod😳😳😳😳,16-3-2022,0
471,harihegen,harihegen,,Häck? 😂😂😂,14-3-2022,0
472,Ali jalal656,alijalal394,,shutdown -s -t 1000,13-3-2022,0
473,alukath,alukath,,Hackerboy.bat,12-3-2022,0
474,Der kleine Haufe,derkleinehaufe,,i hacked 127.0.0.1... 😂😂😂,11-3-2022,0
475,:),heyitsluisq,,@_.leinoel._ dings mochma in da schui😏,13-3-2022,0
476,DanytheL,danythel04,,Pov: du gibst nem Kleinkind ein Bonbon und sagst *Das darfst du aber nicht essen*,2-3-2022,0
477,Timo,timo_.567,,Kann man auch eine niedrigere Zahl wählen so dass er früher herunterfährt?,15-2-2022,0
478,Mateus Sousa,mat_90us,,@yannick.n8,19-3-2022,1
479,Marvin Wilsing961,marvin.wue123,,@gurkenchef0801,12-3-2022,1
480,Flo,flo_8370,,@brotbier,12-3-2022,1
481,꧁♛𝐅𝐢𝐧𝐨♛꧂,fino_the_cappuccino,,@edx_ardx,11-3-2022,1
482,ꪑꪖꪻꫀꪜ🪄,mateomd06,,@katalin.derechte,21-2-2022,1
483,Windows 11,windows11,,😳,4-5-2022,0
484,Schmirfet,argar_moritz07,,alle jungs: ich pranke alle freunde 😂,21-3-2022,0
485,lemo lemo871,lemolemo55,,Anleitung zu ungenau ich kann meinen PC nicht mehr hoch fahren,20-3-2022,0
486,victoria,w16victoria,,gell,19-3-2022,0
487,huhuhumus,huhuhumus,,"Wenn das schon hacks sind, dann habe ich keine Hoffnung in die EDV Kentnisse der Jugend",19-3-2022,0
488,Anna H.,annah619,,🥺,16-3-2022,0
489,LifeInvader.Official,life.invader,,😂😂😂,16-3-2022,0
490,Unknown,why_dont_you_just_jump,,🐰,16-3-2022,0
491,flo,jemand.mit.blauen.h4ken,,@.veylor,16-3-2022,0
492,Luca,handofblood_army,,@splittergranaten,15-3-2022,0
493,Murri,._.mxrxtz,,@._.jxhxnnxs,13-3-2022,0
494,Ozzy,cozyozi,,@mr.shqipole,11-3-2022,0
495,survival_body,survival_body,,@joni_21.03,11-3-2022,0
496,skyer,skyer746,,@lea07sophie_,10-3-2022,0
497,~Liam~,spychi29,,😏,7-3-2022,0
498,iNation,gti38ks,,🐰,21-2-2022,0
499,Renguko🔥♥️,official_james11,,︎,13-3-2022,0
500,Du kaka,anton_berger918,,1000110 1101001 1100011 1101011 100000 1100100 1101001 1100011 1101000 100000 1101000 1100001 1101000 1100001,11-3-2022,0
501,ABCDEFG,arpatosaurus,,@_methyou_,14-3-2022,1
502,M.Yaman,m.31king31,,@anonymer.trk58,13-3-2022,1
503,Lenny,elbaronemeier,,ich werde diesem Trick für das Böse verwenden.,11-3-2022,1
504,Simon.R,simon.r2002,,1800sec sind 15min und nicht 30😅,22-2-2022,1
505,Heike,lol_heike.s,,@bjonas24 @drawing_anime_marvel,21-2-2022,1
506,Steffen Pitto,steffenpitto,,Der Hacker-Hase hat gesprochen 😂😅🥰,13-2-2022,1
507,British English is Superior,n4me_n0t_imp0rt4n,,"oder einfach Windows+R drücken, cmd in die suchleiste eingeben und dann den Code aus dem Video eingeben",12-2-2022,1
508,British English is Superior,n4me_n0t_imp0rt4n,,einfach in der Konsole hä,12-2-2022,1
509,Luca,archivvonluca,,@laila.mhmm,6-2-2022,1
510,Markus,markus_______,,"Video editing Programm: ""Ein Problem beim rendern ihres Videos trat auf"" ................................. Shutdown.bat so: ""Nicht mein Problem"" 😬",6-2-2022,1
511,89,gnlca.a,,"Diese 5 Minuten während.m der Lehrer kopieren geht, werden zur challange",5-2-2022,1
512,Lukas,lskcsh__,,Wie hackt man?,5-2-2022,1
513,kann_etm,kaan_biggest_fan,,@dortz_gamer: ｉｃｈ ｈａｂｅ ｍｅｉｎｅｎ ｋｏｍｍｅｎｔａｒ ｓｅｌｂｓｔ ｇｅｌｉｋｅｄ☻ 😂,5-2-2022,1
514,the original fake,dasoriginalefake,,Und was soll das bringen?,4-2-2022,1
515,kennt keiner 🌚,dp.pound,,jetzt freu ich mich auf die nächste Informatik stunde :),2-2-2022,1
516,der_realle_kek_kappa,pafi_703,,@flocarsy try it out,2-2-2022,1
517,✨🔥Your favorite Waifu🔥✨,zoro.wastaken,,Und wie kriegt man das wieder weg,2-2-2022,1
518,ludwig,cakelss,,Kann man auch statt 1800 zum Beispiel 2400 benutzen?,1-2-2022,1
519,onlyfanserik,onlyfanserik,,Ihr könnt das auch in Cmd eingeben soweit ich weiß,1-2-2022,1
520,URMOM,manshuturfckinbitchass,,@bananenbrot__ @sh1c0n,30-1-2022,1
521,rudolf.alexander.eggler,master_memes2,,Geht nicht,29-1-2022,1
522,rudolf.alexander.eggler,master_memes2,,Das geht doch auch im CMD oder?,29-1-2022,1
523,Meinungsmacher_official,meinungsmacher_official,,"Klassischer QoL, Syskey wäre witziger 😂😅",21-1-2022,1
524,LG007,lg007k,,"Find ich praktisch. Habs gleich in den Autostart Ordner gepackt, damit ich die Datei schneller finde👍",20-1-2022,1
525,Mehmet Akcay,blackijones,,direkt bei jedem der nicht Windows + L drückt wenn er sein Arbeitsplatz verlässt,20-1-2022,1
526,Alpha pro,alphapro10,,Hab ich direkt bei meinem Freund gemacht,19-1-2022,1
527,Jean51,just_jean_s51,,Hab auch einen tollen Hack: ₩€€D,19-1-2022,1
528,Sheldon Cooper,sheldon_95,,Wenn ich bei der Arbeit bin mache ich das mit 28800 und habe garantiert rechtzeitig Feierabend 😂,18-1-2022,1
529,ꨄ 𝙖𝙡𝙖𝙖.𝙨𝙝𝙖𝙢𝙞 ꨄ,offizial.souei,,@diyar_215 😂,16-1-2022,1
530,Kray 3D Druckservice,kray_3d_druckservice,,ich mach das schon seit Windows 8 😂,16-1-2022,1
531,SyraOne,syraone,,"Wollen wir ihm sagen das man nichtmal ""alle Dateien"" auswählen muss, sondern einfach direkt name.bat schreiben kann und enter drückt?",15-1-2022,2
532,Pete,pete718x,,Batches sind keine Programme …stöhn….,14-1-2022,1
533,nova no,novano41,,"Man man, erstaunlich was heute alles als hack bezeichnet wird 🥺",14-1-2022,1
534,EinfachAlex,alexanderverspohl,,"man kann auch eine Zahl hinten dran hängen um die Zeit des runter Fahrens selbst zu bestimmen
weiß nur nicht mehr genau an welche Stelle die Zahl muss",14-1-2022,1
535,24a,24a55,,welchen code???,14-1-2022,1
536,TimLuddewig,timluddewig,,energiesparmodus bei Windows kann das auch 😬,14-1-2022,1
537,BobStar,boby_black,,Omg das ist kein Programm sondern ein „Batch File“ aka ausführbare Textdatei… 🤦🏻‍♂️,14-1-2022,1
538,JaKlar,dnatsnat,,"Das ist kein Hack, sondern eine einfacher Task! Kannst genauso in Console eintippen oder über Aufgabenplanung lösen 🤦‍♂️",13-1-2022,1
539,👹 𝔐𝔞𝔯𝔠𝔬 𝔏𝔢𝔪𝔨𝔢 👹,marcolemkebln,,"Batch Datei ein Windows Programm? Und noch ein hack? Ähm ok, ich bleib dann mal bei meinem Linux 😅",13-1-2022,1
540,Alex,ftpinguin,,Beim kollegen Statt 30min 5 sekunden einstellen und als autostart anwendung aktivieren 😂,13-1-2022,1
541,MINATY_Redhead,redded._brain,,"Ich kann das nicht speichern, bei strg s kommt bei mir nur du ein ""dach"" und ein großes s, wie kann ich das speichern?",13-1-2022,1
542,USER191919,corumlu1988,,Wie kriege ich das den Laptop an also im online Modus ohne das ich im Abwesenheit gehe bei teams?,13-1-2022,1
543,Dakushiguna,dakushiguna,,Das ganze zur exe convertieren und in den Autostart Ordner packen,13-1-2022,1
544,user953396297016,inkognito711,,"Gab sogar mal nen Virus mit dem Script , war glaub zwischen 2000-2005 😂😂",13-1-2022,1
545,fu.k_feelings,fu.k_feelings,,"Hi, Ich finde das mega nice würde aber gerne wissen ob man dass auch länger machen kann",13-1-2022,1
546,Matthew,matthew.cgn,,@doenermitlamm litranger.bat 😂😂😂😂,13-1-2022,1
547,✝️,laura.ebf,,@photographybyspocky jetzt was i ah amoi wie mei .bat datei erstöt woan is 👍🏽,13-1-2022,1
548,IceNet,x0re.net,,"Der angebliche Programmierer nennt es Programm, jeder der sich auskennt weiß, dass das KEIN Programm ist 😂",13-1-2022,1
549,IceNet,x0re.net,,Trick für 11 jährige vielleicht 😂,13-1-2022,1
550,ZXMYFAA,mertmcmv66,,Ich der morgen im Büro sitzt:,13-1-2022,1
551,The world is yours,theworldisyours40,,Gibt es Tool um die IP Adresse zu ändern,12-1-2022,1
552,pakoen_aha,pakoen_aha,,Das macht man eig mit cmd,12-1-2022,1
553,LynXx,kng_lynxx,,Macht shutdown /i dann öffnet sich ein Fenster in das ihr die local IP von nem Freund eingeben und dadurch deren PC runterfahren könnt.,12-1-2022,1
554,xXxPatrik_HDxXx,xxxpatrik_hdxxx,,Mit .bat kann mann noch ganz andere sachen machen 😏 aber leute seit nicht ehrenlos und macht es nicht,12-1-2022,1
555,minebannditt,kirito_kun4d,,oder das selbe in die Eingabeaufforderung eingeben geht auch,12-1-2022,1
556,lucky_frey,lukas48483,,„Nur für das Gute einsetzen“,12-1-2022,1
557,der.niki33,der.niki33,,kann man auch mehr eingeben?,12-1-2022,1
558,Stefan,crackh4ed,,was ein hack 🤯🤯,12-1-2022,1
559,Metallkatze,metallkatze,,"ITS ABOUT DRIVE ITS ABOUT POWER WE STAY HUNGRY WE D-
wait no ich bin ja deutsch 👁️👄👁️HANS GEZ DE FLAMMENWERFER",12-1-2022,2
560,Moses Ellermann,mosesellermann,,"oder man klickt halt auf ""nach Abschluss des Rendervorgangs herunterfahren"" 😂",12-1-2022,1
561,Meredith Rodney Mckay,meredith.rodney.mckay,,Auf 300 ändern und in die Autostart😬,12-1-2022,1
562,l.l.l.lml.l.l.l,leon_16kloejk,,habe sowas ähnliches über cmd gemacht meine Lehrerin war sehr traurig und ich hatte dan ein tadel 😅,12-1-2022,1
563,❃❃❃❃ 𝕋𝕠𝕓𝕚 ❃❃❃❃,tbsmnr,,"""Windows Programm"" *hust*",12-1-2022,1
564,BoogieruGER,boogieruger,,@bens_hardware,12-1-2022,1
565,Steve Ruiz,aklrs_,,.bat Dateien sind Hack😁😁😁,12-1-2022,1
566,Rundlicht,rundlicht,,Versprochen…! 😁,12-1-2022,1
567,⃢⃢,shellc0de.0x90,,😂😂😂 na was fürn Trick.,12-1-2022,1
568,prime.11,mr.prime777,,"Was muss man schreiben, wenn jede Minute die Maus bewegt werden soll damit der Sperrbildschirm nicht aktiviert wird?",12-1-2022,1
569,Forty.,notforty,,"Boah, hahah, danke dafür",12-1-2022,1
570,oilfoot,oilfoot0,,Was soll ich machen? Hab das gemacht aber die Zeit auf 5 sek gestellt. Wenn ich mein Pc starte fährt er gleich wieder runter???,12-1-2022,1
571,knusperfrosch,knusperfrosch,,Ernsthaft… Programm? Ne simple Batch-File… 😏,4-4-2022,0
572,GoldenVenom,goldenven0m,,Das ganze ging im Verbund mit den schul pcs und deren IP. War schon lustig den pc des lehrers einfach mit nem shutdown remote runter zu fahren…,1-4-2022,0
573,Julien Charles,juliencharles21,,??? Hack ???,25-3-2022,0
574,<3,anni_not_found,,@watchingkarljacobs,19-3-2022,0
575,ec_bad_nauheim_fan_kanal,ecbadmauheimfankanal,,@ec_bad_nauheim_fan_kanal @ecbadmauheimfankanal,17-3-2022,0
576,gohsthd12,sergent013,,[cool],16-3-2022,0
577,乚卂丂丂乇,lasse361_,,@ferrari_488_islove 😏,16-3-2022,0
578,NipToc,niptoc,,damit kannste noch nicht mal ein Script-Kiddie beeindrucken,14-3-2022,0
579,Bandit🤍,bandit.needs.quitt,,@y.a.g2.0,13-3-2022,0
580,Ahmethan,ahmethaaaan,,@aka_saskee,13-3-2022,0
581,M.Yaman,m.31king31,,@yooloking,13-3-2022,0
582,@ich.goku,ich.goku2,,-f 🥺,12-3-2022,0
583,jxstin7k,jxstin7k,,@tjxrk.wesh,12-3-2022,0
584,Julian,ichmag_einbaum,,@cap.nobody,11-3-2022,0
585,That‘s fu******tobi wan kenobi,sw_legotoby,,@scherziiiiii,11-3-2022,0
586,UnverhofftKommtOft,lattemitmilsch,,"Wie kann man sowas hier hochladen 🤦🏻‍♂️das erklärt sich doch von selbst, was jetzt passiert 😂",6-3-2022,0
587,Digga wallah Film heute. Saß,mit_kartell_am_tisch,,@duckhead.o.o,17-2-2022,0
588,Mystic_Vegetto,mystic_vegetto,,@bens_hardware,16-2-2022,0
589,YOUMARVTV,official_youmarvtv,,🦷🦷🦷🦷,16-2-2022,0
590,ㅤ,icr0n1k,,".,>%<",15-2-2022,0
591,Jesus.bent,jesus.bent,,oha,13-2-2022,0
592,Marvinzock34,marvinzockt34,,imagine man benutzt windows oder macos haha,13-2-2022,0
593,besseralsjederanderename,besseralsjederanderename,,oder einfach in die CMD eintippen,13-2-2022,0
594,NGxD TV,ngxdtv,,Oder du gibst es einfach in cmd ein...,13-2-2022,0
595,Faol4n,faol4n,,Oder man holt sich n Programm wie SleepTimer und fertig ^^,12-2-2022,0
596,Hundesohn,_duhundesohn,,Der wird sowas von für nichts gutes angewandt,12-2-2022,0
597,Julian Barthelmess,barthelju,,"lässt sich auch als Verknüpfung tarnen, z.b chrome oder andere Programme. wenn man dann noch den Timer weglässt ist es ziemlich witzig.😂",12-2-2022,0
598,RudolfVonStroheim,rudolfvonstr0heim,,auf 5 min stellen und nem FN Kiddies senden als Freelancer v Nicks datei,12-2-2022,0
599,Dawid0407,dawid0407,,bitte ich brauch deine hilfe ich hab ausversehn windows 11 gemacht aber ich will wider windows 10 habn wie geht das?🥺,12-2-2022,0
600,Leandro,ogphinuu,,@bens_hardware denkst du das ist real?,12-2-2022,0
601,Darry,darrycorn,,hab ich mal heimlich auf den PC meines Bruders in den Autostart Ordner gepackt. Er ist ausgerastet und ich hab mich gekugelt😅,12-2-2022,0
602,Jampa,jomplon_ist_geil,,"Naja hack? Is ja ne windows ausführungs datei...
Nerviger ist
@echo off
:A
Start Notepad
Goto A
....
NICHT AUSPROBIEREN!!!",12-2-2022,0
603,LeoReutlingen,leoreutlingen,,"@Herr Programmierer alter, bist du Lary Page?",12-2-2022,0
604,Lost_Soenke 09,lost_soenke,,der unter mir hat Recht,10-2-2022,0
605,Graf Pelle,grafpelle,,nichts neues. Genau genommen ist es kein Programm sondern eine simple .bat,9-2-2022,0
606,SMBK,made_by_smbk,,"Niiiceee!! Danke Dir! kenne das mit der Rendergeschichte, deshalb ist das Gold Wert🙏🏼",9-2-2022,0
607,KlausCarlos1992,klauscarlos1992,,"cool, nur noch als verknüpfung einfügen ins autorun des Arbeitsprogrammes. und 30 min nach arbeitsbeginn... Chef Pc spinnt ich geh heim😂",8-2-2022,0
608,Willi_fxnk1,willi_fxnk1,,@bens_hardware stimmt das?,8-2-2022,0
609,Train Lars,trainlars,,Du weißt nicht was du da tust 😂…Ich seh schon meinen PC Random runterfahren weil einer wieder sein will 😂,8-2-2022,0
610,Ray moe,ray__moe,,ohha was für ein HACK 😅,7-2-2022,0
611,fritsch-arne,blin_force_one,,mit /t 1 in Autostart ist bestimmt lustig😂,7-2-2022,0
612,Marco Hoffmann,sandmans.dark,,"Ich, damals im Informatik Unterricht, wo das automatisch beim Hochfahren gestartet ist und 3 Minuten später einfach aus ging 😁",7-2-2022,0
613,Samuel,agrar_samuel,,Kann man das mit allen Zeiten machen,6-2-2022,0
614,TearOfGaia,tear0fgaia,,Wasn hack😳😳😳 hieße er Peter wurde ich sagen es ist ein hackepeter😏,6-2-2022,0
615,•_•,werdaslieststinkt7,,Das ist doch ein Befehl und kein cod. Und man kann das doch auch unter .cmd speichern 😅,6-2-2022,0
616,Silas,sillo0o,,Kann man auch einfach bei Windows+R eingeben. Geht 10 mal schneller,6-2-2022,0
617,Cebix4k,cebix4k,,😂,6-2-2022,0
618,DerSerox_TTV,derserox_ttv,,benutze ich auch schon 💪,6-2-2022,0
619,DiWa,diwa_66,,Wenn das Videorendern 1min. länger bräuchte und Du am nächsten Tag von vorne beginnen mußt... 😂,6-2-2022,0
620,Caneishappy,caneishappy,,"ist ""shutdown -f -s -t 1800"" mich besser?",6-2-2022,0
621,Nico,dedektiv_voidyt,,kann man die Datei nicht verschicken und wenn man sie öffnet fährt der PC runter?,5-2-2022,0
622,Wert Zuz,zugfisch,,btw mit shutdown -a bricht man das ab,5-2-2022,0
623,Wert Zuz,zugfisch,,shutdown - do ist besser,5-2-2022,0
624,user143985065713,user143985065713,,der moment wenn der laptop der ganzeb klasse aussert meiner runterfährt😂,5-2-2022,0
625,Gisela Palmieri,riccardos3,,danke Schule lässt grüßen,4-2-2022,0
626,@Omiral1,maxy.fly1,,Habs bei nem kumpel gemacht der dachte sein pc ist kaputt 😂,4-2-2022,0
627,organ30,mjinvincible21,,super,4-2-2022,0
628,Mikus,mikus7777777,,"Danke für den Tipp am Ende, andere Leute zu nerven. Daran habe ich gar nicht gedacht.",4-2-2022,0
629,john,johnbojobi,,das ist schon länger bekannt,4-2-2022,0
630,Yunus Kavas,ice_spongebob187,,Der heißt einfach Junus und ich heiße Yunus😂😂,4-2-2022,0
631,Connor93787,cow_e_511,,What's the point of living,4-2-2022,0
632,69milfhunter,tos.p3,,mehr davon!,4-2-2022,0
633,Josh,roehrichtengel108,,Oha ich werde die Nasa und das FBI damit hacken 😈,4-2-2022,0
634,Valentin Pazachev,valentinpazachev,,"bre, das hat man min 7 Jahre gemacht 😂",4-2-2022,0
635,WoGaSMus,wogasmus,,Nicht so gut,4-2-2022,0
636,General Crazy,generalcrazy5,,Und was ist wenn noch nicht fertig geändert ist,4-2-2022,0
637,Seraphine,skyfallennerolin,,"Mama, darf ich kurz an deinen PC
Ich muss da wirklich nur kurz was machen",4-2-2022,0
638,Erich.tt.g,erich.tt.g,,Schul PC ich komme,3-2-2022,0
639,bill_cherno,bill_cherno,,Kennt das Jemand noch nicht?,3-2-2022,0
640,David: ),_da86vid_,,danke für den trick,3-2-2022,0
641,J4nnik818,4204ev4,,"heftiger programmierer, batchskripte schreiben kann schließlich nicht jeder",3-2-2022,0
642,loftur1908,anachronistisch,,Das ganze nannte man in den frühen 2000ern den Blasterwurm... der hat den PC in 1 Minuten runtergefahren. Demnach uralt xD,3-2-2022,0
643,Gibt es nicht,urvater2009,,Muss sagen dass für jeden IT Ler ne Batch Datei Programm zu nennen schon Bad is 😂,3-2-2022,0
644,Arabecke,arabecke,,Fun fact: batch dateien können nicht über gmail versendet werden,3-2-2022,0
645,Daniel Zaiser,sweetonionsi,,"wenn man im bett was guckt aber kb hat aufzustehen um auszumachen, ist nützlich",3-2-2022,0
646,MächtallicaA,maechtallica,,Muss ich den nicht in die aufgabenplqnung stecken mit einer Zeiteinstelkung z. B. Alle halbe Stunde.,3-2-2022,0
647,Pablo Escobar,pabloescobar094,,find ich gut danke! manchmal lade ich spiele runter und gehe arbeiten um die später zu zocken dann bleibt der rechner immer den rest komplett an ...,3-2-2022,0
648,Gamestarter 06,gamestarter06,,@bens_hardware stimmt das?,2-2-2022,0
649,martinm167,martinm167,,versprochen 😅,2-2-2022,0
650,EddoStinktUnU,holyaven__,,Das gibt es schon in den Windows Einstellungen,2-2-2022,0
651,Sven Brueckner,sv514,,"Dann am Besten in den Autostart Ordner des Kollegen packen, den Tag genießen 😏",2-2-2022,0
652,Ŵ͛ͦ̽͑͂̎lͥ͌̾̅̽͋ͮa̋̅ͤ̈̉d̿͂ͯ̐_<>,wladblank,,"Kleiner Tipp, das nennt man Kommandozeile, das ist nichtmal programmieren.
Früher hat man genau so Computer überhaupt benutzt",2-2-2022,0
653,Ian,kleinerkind0,,kann man den dann auch wider anschalten,2-2-2022,0
654,★,jxsef67,,alter trick haha,2-2-2022,0
655,Maxi,maximelian_arturo,,Das muss Microsoft machen nicht ich 😂,2-2-2022,0
656,Phillip Gastrock876,phillipgastrock87,,Und für Apple?😅,2-2-2022,0
657,Anon Anubis,annon_anubis,,ha ha das ist so kidilike omg,2-2-2022,0
658,Agent von einsichtiger,einsichtigersagent,,"Der Code:
shutdown -s -t 1800",2-2-2022,0
659,Agent von einsichtiger,einsichtigersagent,,Meine Kollegen werden mich hassen :),2-2-2022,0
660,Dom,woodyrowes,,Schönen Gruß an Deinen Bruder Thomas Hermanns 😅,2-2-2022,0
661,Shinotashi98,shinotashi98.v2,,xD einfach ohne die 1800 sek machen spiele symbol rein machen das .bat verstecken und sehen wie mein kumpel sich abfucked😂,2-2-2022,0
662,Yokano_o,yokano_o,,Damals mit 12 Leute getrollt dass das free Minecraft sein soll und dazu noch ein Icon drauf gemacht 🤣,2-2-2022,0
663,Mr.E,mr.e_1985,,"Eigenes Windows Programm?😂
Es ist ein Befehl der ein vorhandenes ""Programm"" verwendet...🤦",2-2-2022,0
664,Taz Maccy,tazmaccy06,,Wer ?,2-2-2022,0
665,Baumo__o,baumo__o,,Gehts dir gut 😂,1-2-2022,0
666,Leon HDX,onetankleft,,jaja die guten alten Batch Trolls😂,1-2-2022,0
667,Maxim,m.w.l.k.r,,Nices programm,1-2-2022,0
668,Amir Shah,amir7i88,,Geht das auch bei apple,1-2-2022,0
669,Erixen,erixendixen7,,@lucixen_dixen ehehhehehehe,1-2-2022,0
670,Iman,revenehm,,eyyo was hast du gemacht bring doch sowas nicht bei😳😂,1-2-2022,0
671,lutka.hobbie2000,mr.sneeens,,"Ich werde es verwenden, um andere Leute zu nerven",1-2-2022,0
672,🇩🇪Fernmelder🇩🇪,funker_bunker,,Aber der bre weiß das man das vorhandene Programm nutzen kann und eine zeiteingeben kann wann der PC runterfahren soll 😂😂😂😂😂😂😂,1-2-2022,0
673,Germannextdoor,germannextdoor_,,"So ziemlich jedes gute render program hat eine Funktion, die den PC herunter fährt, wenn man es auswählt",1-2-2022,0
674,Akame,chinoakaime,,ich hab das immer beim online Unterricht gemacht damit ich früher gehen konnte weil ich gleich darauf arbeiten musste😂,1-2-2022,0
675,Nico,nico7161777,,Das habe ich mit 14 in der Schule gemacht. Alle haben gezockt und ich habe jeden PC der Schule runtergefahren. Selbst den Lehrer pc.🤣,1-2-2022,0
676,Bluffle,bluffle,,„Programm“,1-2-2022,0
677,Paul Inparadise,paulinparadise,,Hä mach doch gleich in Windows+R Tasten,1-2-2022,0
678,Schwabenjunge_1997,schwabenjunge_1997,,Noch viel viel cooler ist es einen Shutdown Befehl als Word Dokument speichern hehe 😉,1-2-2022,0
679,Alex,alexk.1986,,we ist der Hack? das ist grundschulwiesen in der IT😅,1-2-2022,0
680,Gillian P.,gillianp4,,Mit shutdown - i kannst noch ein Kommentar schreiben usw 😅,31-1-2022,0
681,bababallls,bababallls,,Nerf miner,31-1-2022,0
682,timotimotheus,timotimotheus,,Kann ich nicht versprechen😏😏😏,31-1-2022,0
683,Emilia,emiliaheyyy,,@iliana.ukm HAHAHAH ICH ÄRGERE JZ LEHRER SAMIT PIGAHLCLHFA,31-1-2022,0
684,ölstulle,beerstool,,Das ist kein Programm....,31-1-2022,0
685,Pappkopf,pappknoppie,,du klingst wie manu thiele,30-1-2022,0
686,Consti,consti_rhx,,Funktioniert bei mir nicht🥺,30-1-2022,0
687,Tschonzi,tschonzi,,Mach ich schon seit Jahren 😂,30-1-2022,0
688,Steven,sohnkarlsruhe,,LOL… das ist kein Programm sondern ein Script,30-1-2022,0
689,XDXKITTYARLUCAXBX,xdxkittyarlucaxbx,,Das ist für Updates voll praktisch.,30-1-2022,0
690,elalaben,elalaben,,Guter Tipp für Eltern,30-1-2022,0
691,A.N,aryadx09,,Nicht versprochen,30-1-2022,0
692,Eddie Grande,eddie.grande,,Hier ein “Hack“ (lol 😂) um den Vorgang abzubrechen: Windows Taste + R > shutdown -a,30-1-2022,0
693,i,2i83838,,ich kann bei der Schule cmd nicht öffnen die haben das gesperrt,30-1-2022,0
694,Matsch,matsch_009,,@matschreal,30-1-2022,0
695,Hiro,hiro_hd,,Kylo Ren??,29-1-2022,0
696,Gurken Zocker,gurkenzocker,,⚠️Warnung⚠️vllt sind deine mobilen Daten noch an?,29-1-2022,0
697,Florian Ever498,3ver.one,,Für dich ist auch ne word Datei code und Office 365 (Microsoft 365) ne IDE Suite oder?,29-1-2022,0
698,Erik,pyrorider,,"Resolve lässt grüssen, ps das ist ein skript und kein programm",29-1-2022,0
699,much love dud,malle_alla,,@mallehat1890erschuhe hehehe siuu,28-1-2022,0
700,msnotyourbusiness,msnotyourbusiness,,Gibt es sowas auch für die playstation 4? Frage für eine Freundin.,27-1-2022,0
701,Vinc,vinc.smh,,In der Schule einfach bei mir gemacht und ka wie man das wieder weg bekommt,27-1-2022,0
702,user1785878989102,mreichhorn,,was heutzutage alles ein hack ist. 😂😂 ich kann mich an assembler code in meiner Jugend erinnern.,26-1-2022,0
703,The.Fister.Of.your.Sister,the.fisterof.your.sister,,😂😂😂,26-1-2022,0
704,Lennox,i_need_trial,,@lezzox_,26-1-2022,0
705,Reddiye Merkezi,imam_huseyin571,,"@game_valley_of_ataput
@game__station
@cakiroglu.official
@mannheim.hacamat.saglik
@hainlere.alerjim.var",26-1-2022,0
706,Tik Toker,user4up2z15dp5,,Kann auch .cmd,26-1-2022,0
707,Heisenberg,myc0ckislong,,Packt mal shutdown -r 1 in den Autostart😅,25-1-2022,0
708,Painhub,painhub.lovee,,Es ist wie eine waffe es ist dann gefährlich wenn es in den falschen Händen geriet und ich bin die falsche hand muhahaha mein Freund wird mich hassen,25-1-2022,0
709,Jan,shadow_jan,,"Kannst du mal bitte zeigen wie man, wenn jmd anderes von einem anderen Pc Zugriff auf meinen hat ihn sperren kann oder so",24-1-2022,0
710,MaSKo,masko1975,,"Als fauler Admin, würde ich das als Reg Srcipt machen, so mit Rechtsclick Menü: Mein Script: https://pastebin.com/ztSz96Dq",24-1-2022,0
711,ok,jxs3n_,,ich hab das einmal bei meinem Lehrer gemacht und schon war ich beim direktor,24-1-2022,0
712,Cid,marki948,,Dave der Lagerhonk ist morgen dranne...👍,24-1-2022,0
713,Abdullah Askif,a.askif,,to restart: shutdown.exe -r -t 1800,24-1-2022,0
714,Rafael Cee,rafaelcee,,Alter das ist kein Windowsprogramm sondern einfach ein Shutdownbefehl mit Parametern in einer Batchfile.,24-1-2022,0
715,Basti ☔️,basti.ehz,,Imagen es wäre Code,23-1-2022,0
716,Noah Kiesling,noahkiesling,,"Man kann auch:
windows+r
shutdown /s /t
*beliebige Zahl in sekunden*
/c Schönen_Feierabend",23-1-2022,0
717,anonym,blackninja_hd152,,was passiert wenn ich 1 eingebe,22-1-2022,0
718,luffymonkeyd208,monkeydyasin,,@haktandart,22-1-2022,0
719,fabio,fabio.2809,,bugs bunny zeigt uns jz auch noch windows lifehacks weyoo,22-1-2022,0
720,XcrafteR,xcrafter0,,oder Anstatt Editor einfach Eingabeaufforderung nehmen und dasselbe eingeben?!,22-1-2022,0
721,Bus Fotografie Oberberg,busfotografieoberberg,,@revedclips,22-1-2022,1
722,Flamestorm HD,flamestormhd,,Hab das während 5 min pause bei nem lehrer pc gemacht🤭,21-1-2022,0
723,Joel,elo_at_tiktok.de7348,,hab ne Datei mit nem fiesen kommi nem Freund geschickt,21-1-2022,0
724,Imagin_games,imagin_games,,ist das dann jeden Tag oder nur Heute,21-1-2022,0
725,Juri,juri.m7,,@jzshi28537 Herr magatas bruder,21-1-2022,0
726,Some Random Guy,yasin_bahar05,,@bens_hardware stimmt dass,21-1-2022,0
727,Chris ByDaylight,chrisbydaylight,,Voll programmiert und so.,20-1-2022,0
728,Mimamau,mimamau_official,,voll der Hack... 😂,20-1-2022,0
729,V. Miller,oberstmiller,,und ab in den Autostart damit,20-1-2022,0
730,HolzkopfRusse,holzkopfrusse,,Tilted Towers ist zurück!,20-1-2022,0
731,Lottila Smile,lottilasmile,,"Bist du Single? Wenn ja von mir aus google wo mein Haus steht und komm mit Blumen vorbei, ich koch 😂",19-1-2022,0
732,UrFavoriteGermanDictator,kingananas2.0,,"@echo off
:a
start
goto a
das ist gutt",19-1-2022,0
733,DiieserDelay,diieserdelay,,"Einfach den Befehl in Verknüpfung verwenden, doppelklick, fertig.",18-1-2022,0
734,vbhunter183,vbhunter183,,"Ich finde das fast schon traurig, dass man einen Programmaufruf in einem Skript als Programm bezeichnet",18-1-2022,0
735,lolhuntrr,lolhuntrr,,Bei mir gehts nicht,18-1-2022,0
736,Julian,juli081015,,@queen_22_xd,18-1-2022,0
737,xXx,shittymasippy,,junge so öde zeig mal was sinn volles anstatt sachen die jeder von x youtube videos kennt,18-1-2022,0
738,Twitch_ Blank_,twitch_blank_,,Man kann auch einfach einen sleep timer herunterladen 😂😂😂,17-1-2022,0
739,Lonestar,lonestar75,,Wat? PCs kann man runterfahren??? 😳,17-1-2022,0
740,Janni,janni012345,,dafür brauch man aber Adminrechte,17-1-2022,0
741,™,kyou0_0_0,,wenn man die datei ausgeführt hat kann man das dan auch wieder rückgängig machen?,17-1-2022,0
742,S,titok20211,,"das ist kein programm, dass ist ein konsolenbefehl…. so schreibt man keine programme",17-1-2022,0
743,PhoenixYT 124,phoenixyt124,,Gibt es dafür nicht die Herunterfahren bei nichtbenutzung funktion? Also wenn man weder maus noch tastatur berührt?,17-1-2022,0
744,Stanislaus Hoppe,staaaaaaaaaaan,,"mach bei deinem hack noch -f dazu, dann passt es.",17-1-2022,0
745,Thomas Kieß,streifie95,,Oder einfach in Einstellungen nach 30 min ohne Bewegung automatisch herunterfahren 🤣🤣🤣🤣,17-1-2022,0
746,Julian Ritzinger,wed0ntfeelthesame,,"Ich, der es sicherlich nicht nur für sich verwendet. 🚬",17-1-2022,0
747,richard.aut,ricardomaganime,,@redwuy,16-1-2022,0
748,Didi HabIch,didihabich11,,Voll der Hack. NSA ist schon hellhörig geworden 😅,16-1-2022,0
749,pnevermorr,pnevermore,,"Frag mich wo der Windows Hack ist. Jeder der sich nur ein bisschen mit PCs auskennt, kennt den shutdown Befehl.",16-1-2022,0
750,nö44,nico.dirt149,,kenn ich schon 😂😂,16-1-2022,0
751,david,dav2404,,"das ist ein einfaches Script, bist du überhaupt Programmierer, oder googelst du deine Tipps jedesmal vorher",16-1-2022,0
752,Armin Arnecke,1o11oo1o,,Du hast kein Program geschrieben… du hast ein Program via Script ausgeführt!,16-1-2022,0
753,Merlin,milfhunter9111,,Es gibt wirklich noch Menschen die mit Windoofs arbeiten? 🤷🏻‍♂️,16-1-2022,0
754,wise_owl,henchi_member,,Anleitung zu ungenau mein PC brennt,15-1-2022,0
755,Sami/Kocha,dakochaa,,der moment wenn man das als krassen hack sieht😂,15-1-2022,0
756,xleonfelix,xleelix,,"Dann verstecken, ein Verknüpfung erstellen und Name/Icon ändern. Zu nem Spiel z.B. 🤭",15-1-2022,0
757,Michael Michael,just_2_let_u_know,,Man kann das auch nicht über msconfig als autostart einfügen,15-1-2022,0
758,Thore,tmh20022,,"alles gut.
ist aufm bash bunny gespeichert nur falls ich keine zeit hab den einzutippen ( auf meinem rechner ) 🙃🙃🙃",15-1-2022,0
759,Dieters Hobby PA Kanal,dietershobby_pakanal,,🤣🤣🤣,15-1-2022,0
760,Dennis K,dennisk32,,Was hat das mit nem Hack zu tun? Das ne verkacke batch,15-1-2022,0
761,user6521575188528,user6521575188528,,Funktioniert NICHT 😆 Win 7,15-1-2022,0
762,Gabriel Radmüller,gabriel_20146,,hi,15-1-2022,0
763,Lord Legend Dome,lordlegenddome,,Damals für kleine minecraft kinder genutzt den hab ich das als hackclient ausgegeben😂😂😂😂,15-1-2022,0
764,psikick01,psikick01,,@macmissionar：Herr Programmierer sollte sich wirklich langsam in Windows-DAU-Scriptkiddie umbenennen. Juup 🤣🤣🤣,15-1-2022,0
765,super-christian,thesuprasa,,Das gibt es praktisch als Programm und heißt POWEROFF!,15-1-2022,0
766,Teilzeit.Muslim,teilzeit.muslim,,Damals mit 13 glaube noch über Skype an alle verschickt. Hab mich gefühlt wie ein Hacker 🤓,15-1-2022,0
767,leonabi,bunteflavours,,"wenn ihr in die datei 20.000 mal „start“ schreibt, dann öffnet sich 20.000mal cmd und der pc stürzt ab. damals immer in informatik gemacht ahah",15-1-2022,0
768,Tuba,tubazypresse372,,Habe es aus versehen gestartet Un in einer Stunde ist Mein PC aus😅,14-1-2022,0
769,said987de,said987de,,Batch script! 😏,14-1-2022,0
770,Robloxsuchti,002_for_live,,es gibt auch ein Programm dafür,14-1-2022,0
771,Mr.X.289,mr.x.289,,geht das auch mit weniger Sekunden?,14-1-2022,1
772,Danial,monkeyd_danial,,Einsäääätzt 🥴,13-1-2022,0
773,moritzkuuuhl,moritzkuuuhl,,bei mir geht das nicht :(,13-1-2022,0
774,Sami Cakmak II,isamisu,,Du bist echt krass!!,13-1-2022,0
775,Can G.,cang617,,🥸 Aber natürlich,13-1-2022,0
776,Kasamiko,xkasamiko,,diese Funktion gibt's doch auch so in den Einstellungen nach 3min 1std usw. nachdem man nix mehr macht fährt es runter macht Energie spar Modus,13-1-2022,0
777,Christian Walker,christianwalker312,,"Shutdown4u, super Freeware mit unzähligen Einstellmöglichkeiten",13-1-2022,0
778,evgeny,evgeny.u.19,,erstmal bei auto start beim Kollegen rein machen,13-1-2022,0
779,KevNar Music,kevnarmusic,,"Ich nutze immer Shutdown.exe -s -t 600 -c ""UwU"" -f",13-1-2022,0
780,SpawnerDealer,ronon1234,,Gleich testen danke,13-1-2022,0
781,pepepopo,proud.simp,,"gibt es auch für ""schulserver-shutdown"" oder so? frage für schulische zwecke",13-1-2022,0
782,Tornike Demetrashvil,tornikedemetrashv,,Das ist eher ein Funktion und nicht huck 😅,13-1-2022,0
783,Tobias Speidel,tobiasspeidel,,Wie in der Schule damals den Desktop verdrehen😂,13-1-2022,0
784,Mr.Anonymus,fy_0310,,Also wenn ich zb 3 Programme offen habe werden diese geschlossen und der PC fährt herunter oder? Weil bei mir steht manchmal da das diese Programme,13-1-2022,0
785,Leon,leon_24_,,@bens_hardware,13-1-2022,0
786,Niklas,sticker0,,Windows Taste + R und dann shotdown -s -t (Zeit in Sekunden) - Erspart die .bat Datei 😏,13-1-2022,0
787,Pina Colada,pin_a_colada,,"Ich hätte gerne einen shutdown auf eine Tastenkombination. Früher hatte ich auf WinXP eine Tastatur mit einer Sleeptaste,war praktisch.",13-1-2022,0
788,Acheron,acheron08,,kann ich den Code in ne Word Datei verstecken für meine Lehrer?,13-1-2022,0
789,OUT_OF_THE_COMFORT,out_of_the_comfort,,...gebt dazu einen externen computer im Netzwerk ein und lässt Ihn runterfahren...,13-1-2022,0
790,Timothy,timothy.mo,,kann man das abbrechen?,13-1-2022,0
791,AytchKay,aytchkay,,Shutdown -a Falls man es sich anders überlegt,12-1-2022,0
792,andreashirsch360,andreashirsch360,,😂😂😂😂😂😂😂😂😂😂😂😂😂😂😂😂,12-1-2022,0
793,salimyildirim91,salimyildirim91,,Und dann in den windows autostart ordner 😏,12-1-2022,0
794,manshadow,manshadow74,,Was genau ist daran jetzt ein Hack?,12-1-2022,0
795,f.rink,f.rink,,moin kannst du mal das problem kernel power 41 erklären mein pc schmiert deswegen nämlich alle 5 ab,12-1-2022,0
796,bi_tuxvin,bi_tuxvin,,ich be like: where sudo?,12-1-2022,0
797,Carporn,carporn61,,xD,12-1-2022,0
798,Julian,fn_xrx,,Erst mal bevor der Lehrer kommt machen😂😂😂😂😂,12-1-2022,0
799,The_Real_L7,the_real_l7,,was für ein Code?,12-1-2022,0
800,Ich bin ich du bist du,lil_w_for_wayne,,Was hast du für ein mikro?,12-1-2022,0
801,OnlyABuagette,onlyabuagette,,"das macht man in cmd, Shell oder in die Eingabeleiste ein und ein f sollte auch dabei sein(force)",12-1-2022,0
802,Jan,derjungblut,,"Oder man gibt das einfach im Windows + R (Ausführen) Menü ein. Dann muss man nicht jedes Mal den Code bearbeiten, wenn die Zeit varriert",12-1-2022,0
803,Adam Weckowski,adam....we,,zeig mal wie man insta hackt 😏😁,12-1-2022,0
804,saftmanYT,saftmanyt,,einfach cmd öffnen und eingeben,12-1-2022,0
805,Springfield,jebedayah,,Kann man dem PC auch denn Befehl geben um eine gewisse Uhrzeit zu starten?,12-1-2022,0
806,Weisheipel,weisheipel,,@erik1870,12-1-2022,0
807,Markus F,banjookazooie,,das in Autostart und die Zeit auf 30 Sekunden einstellen und gucke wie der Bruder Ausraster sorry Bruder Herz 😂,12-1-2022,0
808,🤝,lxcxs_05,,Das ist mega geil,12-1-2022,0
809,SenpaiSasori Suna,senpaisasorisuna,,Geht nicht.,12-1-2022,0
810,Internet Troll,justus_70,,Batch Scripting ist so 80'er 😁,12-1-2022,0
811,Pat Bak,patbak2,,Das is a Batch-Datei die ich vor 20 Jahren in der Berufschule benutzt habe zum Lehrer ärgern.,12-1-2022,0
812,Jonas Lenz,srxgnt_j0nxs27,,Nur blöd wenn die Firma bat blockiert hat,12-1-2022,0
813,Daniel,bastelkramm,,"Vor allem ""Windows Programm geschrieben"" 😂😂😂 das ist nur eine Batch",12-1-2022,0
814,Alex,alexanderkunz_,,Das hab ich vor 17 Jahr in der 6 Klasse gemacht..,12-1-2022,0
815,nypax,nypax7,,eher eine automatisierung,12-1-2022,0
816,Leon,leon_xrx,,** wahre,12-1-2022,0
817,Leon,leon_xrx,,*whre,12-1-2022,0
818,Leon,leon_xrx,,Einzig Ehre hier,12-1-2022,0
819,Trauerpfützler,trauerpfuetzler,,Was ist wenn man shutdown 2 Stunden eingibt und sich vertippt hat und nur 1 Stunde wollte?😂 Kann man das irgendwie auch wieder aufheben?,12-1-2022,0
820,XenoKeks,xenokeks,,"Einfach Win+R und ""shutdown - a"" eingeben dann wird der aktuelle Befehl abgebrochen 😅",12-1-2022,0
821,Gabriel,gabrielroc99,,"Geht einfacher! CMD öffnen, shutdown - s - t 130s dann fährt er z.b in 130 sekunden runter",12-1-2022,0
822,Morgan Carter,cartermorgan23,,"toll, 1. würd ich -f zunehmen und 2. hat normal jede Rendersoftware ne checkbox zum runterfahren wenn fertig...",12-1-2022,0
823,richard.aut,ricardomaganime,,@redwuy,12-1-2022,0
824,Squid,squid_203,,"Was ist, wenn man das im Autostart hat, mit um z. B. 10sek, muss man dann nen Hard reset machen? @Herr Programmierer",12-1-2022,0
825,Instagram Business Account,businessmindest1,,Vor der Mathe Stunde.,12-1-2022,0
826,jojo enjoyer,jojo_..tard,,geht des auch bei cmd?,12-1-2022,0
827,Gülay,gzorn08,,Einfach unter cmd eintippen. Fertig,12-1-2022,0
828,SkillerboyHD,skillerboyhd,,ich der es immer als sleep Timer benutzen wirt 😂,12-1-2022,0
829,Jurij Kulikov,jurijkulikov,,.cmd am Ende geht auch 😁,12-1-2022,0
830,mark,mcnos,,da gibt es noch die viel besseren tricks,12-1-2022,0
831,Raphael Thönie,raphi.it,,kann man das wiederholen also alle 30 min zb?,12-1-2022,0
832,Nikolas Milito,nicholasmilito,,Hi! Ich habe es mit abmelden gemacht. Und nur Vielleicht jemanden das in den Autostart gelet😏,12-1-2022,0
833,Lewe,_ki11uaaa,,abbrechen geht's mit shutdown -a,12-1-2022,0
834,Tik Toker,feinstes.heineken,,Kann man im Editor auch programmieren ?,12-1-2022,0
835,Welcome,sixaxe,,Dies ist aber kein Hack 😅,12-1-2022,0
836,cey_o,cey_o_nills,,Geil 😁,12-1-2022,0
837,Emely mag Kontraststufen🤨,emelymagkontraststufen,,@iskzy ich habe irgendwie das gefühl das philips computer demnächst runterfärt😂.. oder er spielt animal crossing auf der switch,12-1-2022,0
838,Bjoern Dennis Hinkel,bjoerndennishinkel,,einfach in den Autostart einfügen 😂,12-1-2022,0
839,Anabell,anna_belle_1111,,😂😂😂Und was soll das🤣🤣🤣,12-1-2022,0
840,⬛🟥🟩,afghani._.gucci,,Mein pc geht nd mehr an,12-1-2022,0
841,i binbs a toaschts ?,tostbrot_legga,,ich konnte mal eine Fehlermeldung schreiben 😂,12-1-2022,0
842,🖤🐺,einsamerwolf22,,@gurkenmitnutella @ytredhaze1337,12-1-2022,0
843,yourmom12454,yourmom12454,,Kann man das vlt. auch so Programmieren wenn ein Download z.b. bei steam fertig ist?,12-1-2022,0
844,SERVUS,rix.77,,Ich weiß jetzt was ich in nächsten Informatik Stunde machen werde mit mein Freunde😉,12-1-2022,0
845,Tarik Selimovic,tarikselimovic0,,@shawtynamedjan,12-1-2022,0
846,Adler,adler2502,,Danke,12-1-2022,0
847,Andrejas Svetaljski,andi_1809,,Kann ich den Code auch in der Eingabeaufforderung eingeben? Was passiert bei einem Benutzerwechsel?,12-1-2022,0
848,🙏 Danke für_ 5k _👋🎉🥳,afghan1_gucc1,,😏,12-1-2022,0
849,༝ pain☠︎︎⁹₉⁹ ❤︎,headshotbitch,,wenn ich den meinem Freund schicken zbs auf discord muss er es dann runterladen oder wie,12-1-2022,0
