,Comment Number (ID),Nickname,User @,Comment Text,Time,Likes
1,Ann_⁷,anntordecilla00,,Samsung here😁,21-2-2021,10
2,Jay Lim,jaylim9987,,samsung is the winner samsung must bit 2 time to broke huawei only 1 time to bloke,24-2-2021,7
3,"𝐋𝐢𝒂𝒏""𝑺𝒊𝒌ᵉᵉ✔︎",kokongek,,more then that if u just gave me😂,20-2-2021,4
4,알 미라,almerah031,,why did you broke the phone🥺🥺🥺,21-2-2021,4
5,yinchuan cheng,yinchuancheng0,,iphone is best,24-2-2021,4
6,Optimum Pride,jyjycstllo17,,Proud Samsung User Here,20-2-2021,2
7,Nečum🤨📸,swag._.nugetka._.69,,Proooooooooooooooč!!,17-2-2021,2
8,✨DC✨,__arrowerso__,,xiaomi vs Samsung pls,15-2-2021,3
9,.,ch4rlizqx,,huawei,15-2-2021,1
10,Lisa_20100,lisa_20100,,wieso ausgerechnet mein altes Samsung Handy ich hatte auch so ein Samsung😂,9-1-2022,1
11,carrotforlife,mimi_tpps,,nokia be like: can you break me 😏,25-2-2021,1
12,malaluan,malaluan53,,please xiomi and Huawei,24-2-2021,1
13,𝚜𝚑𝚒𝚛𝚕𝚎𝚢 𝙳𝚒𝚜𝚕𝚊 ✔️,_shirley_disla,,Zte,15-2-2021,1
14,Verad,verad75,,huawei P7?,20-2-2021,0
15,Sander Scholten,visoloog2010,,i smell dutch,21-2-2022,0
16,Follow to follow back<<<<3,blueberriesbellaaa,,that huawei was my old phone😂,19-12-2021,0
17,Uchiha Itachi,yareyare214,,huawei user,15-12-2021,0
18,Teruki_tv,teruki_tv,,iphone 6 ONE SHOT 90° 😂,3-12-2021,0
19,CAT,micheal_aftonl983,,iPhone in background says I’m out,5-11-2021,0
20,jamstersckepers,jamstersckepers,,Huawei,17-7-2021,0
21,꧁ꨄ︎MISAEL/JAIMEꨄ︎☀︎︎シ︎꧂,rc_misha,,HAYY NO QUIERO UNO🙂,15-2-2021,7
22,.,rblx_dianx._,,samsung es mas recisitente,14-2-2021,6
23,a,alexito_memes,,man si no lo quieres dámelo,8-2-2021,84
24,누구셰요,jopfd376r,,삼성은 오지게 쌔게치고 저 뭔지 모를 폰은 좀 약하게 친거같은 기분이....,26-2-2021,20
25,XD,.._badkam246_,,Hay gente que le daría un buen uso a esos celulares y tú los rompes >:v?,15-2-2021,9
26,🇪🇦Holi🇪🇦,espana._.oficial,,"yo pensando pa que los rompe, que me los de a mi😂😂😂",7-2-2021,12
27,✨🍞fleta✨,panfleta.loaiza,,Esooooo quebrenlos,14-2-2021,6
28,mefui,nohay_nadieaqui,,Depende el huawei por que traigo uno que no lo rompes ni con martillo,13-2-2021,34
29,Lu<3,luuspn,,wey NooOooOOoooOoo,15-2-2021,6
30,francisco chavez,franciscochavez63,,fake... los celulares tienen bateria y al doblarlos de esa manera... deberian de incendiarse...,12-2-2021,6
31,👍,1.12.70,,igual es lo está provando ( por parte de Huawei ) con uno más grueso,15-2-2021,8
32,Lulú,mundolulu3,,"yo tengo el samsung hace tiempo todo roto y funciona a golpes
👁👄👁👌",15-2-2021,22
33,Ronal,ronal_53,,Si rompes el nokia eres admin 😳,6-2-2021,7
34,💜domelipa💜,domeluchis.xxxx,,aguante samsung,14-2-2021,8
35,sapos_hptas,sapos_hptas00,,uno nesecitando celular y el dañandolos 😬😬😬,6-2-2021,8
36,Toni RG RG,byakuei,,yo tengo un asus zenfone 2 guardado q me ha caido hasta de un primer piso repetidas veces y sigue vivi. Todas las esquinas mordidas/rayado etc,8-2-2021,11
37,Holiiiii,cosasramdons10,,Huawei ?? lo tenía mi madre en el bolsillo se sentó y el teléfono se rompió 😂😂,7-2-2021,17
38,AgarratePqLaMejorMuichironista,x_y.n.g.s,,me regalas uno ;-;,15-2-2021,10
39,🇰🇷그냥시골사람🇰🇷,brawlaccount08,,그냥 이렇게 인터넷에 깔거면 차라리 삼성회사가서 욕을하지,17-2-2021,5
40,Mmmmmm,isswtnr,,Intenta romper el iphone 5 jajaja,15-2-2021,8
41,unknown,007_xx,,AHORA HAZ LO MISMO CON EL TUYO,7-2-2021,20
42,大旗daqi,daqidaqi,,华为10年以前的手机,27-2-2021,4
43,안녕,nnsnsj11,,Z플림재작과정,4-3-2021,4
44,"yo best jiminista, tú no.",jiminrosadito,,SAMSUNG Y HUAWEI LOS MEJORES😎,15-2-2021,3
45,UwU,blackpinkbestgglloren0w0,,samsung y ademas el huawei lo aplastaste menos,15-2-2021,3
46,Владимир пукович 123 :;()₽,liviktor,,Мне больно 😣 на это смотреть,17-2-2021,2
47,Isi mi mundito<3,g0rre4ada,,Oye sé que es un reto Pero hay gente que no tiene ni para comer y vos compra celulares para después romperlos,16-2-2021,2
48,soy @delfimss JWKKDJSJS,harry.te_re._doy,,"conclusión:cámbiate a Movistar
ahre no",15-2-2021,3
49,💌Kamila💌,kamila_aesthetic20,,"𝘃𝗼𝗹𝘁𝗲𝗮 𝗲𝗹 𝘁𝗲𝗹𝗲𝗳𝗼𝗻𝗼
oʎodɐ opuǝᴉpɹǝd ʎoʇsǝ ɹᴉnƃǝs ʎ ǝʞᴉl ɹɐp sǝpǝnd ǝɯ ᴉnbɐ sɐʇsǝ ǝnb ɐʎ ɐloɥ",15-2-2021,3
50,—ヴァネッサ,_vlmaz_,,Me dieron ganas de hacerlo... Umm aaa,23-2-2021,3
51,🌻🍂🌻,noa_.xd,,yo queriendo un celular nuevo 👁💧👄💧👁,15-2-2021,2
52,Laura Galvan,lauragalvan096,,se cayó el celular rojo,15-2-2021,2
53,𝑵𝒂𝒚 - 𝑴𝒂𝒙 ♡︎,missanixfer,,Traigan a Missasinfonia el desmadra cualquier celular sin importar la marca AJAJJAA,27-2-2021,2
54,Rochi🧐,rochiiblx,,yo viendo los celulares que se caen😳,16-2-2021,1
55,🌠🔶TeamGusano🔶🌠🐛,csasramdom,,Yo viendo como atras se cae otro celu😵,15-2-2021,1
56,ᴄ ᴀ ᴛ ᴀ ✞,cxtaaa10,,metelo en arroz,15-2-2021,1
57,.,olasrchu,,"para los que disen que se los pasen a ellos acaso quieren un celu malo, por eso los destruye además es su dinero es su problema",15-2-2021,1
58,Mile,milanes4._,,yo viendo esto teniendo Xiaomi 👁👄👁,27-2-2021,1
59,kkkjsjsjq,kkkjjjjssss,,"El huawei le dio mas despacio XDD
Y al samsung le dio de alma jaja",15-2-2021,1
60,𝖉𝖊𝖓𝖎𝖘𝖘𝖊,denissehernandez_128,,mi HUAWEI 🥺 cuando es el funeral,15-2-2021,1
61,삼성A50,kjhpiolh3,,그냥나주라!!!,14-3-2021,1
62,유튜브[꿀병맛],ggoolbyungmat,,이거 보고 폰 부서지는 꿈꿨음,13-3-2021,1
63,브로콜리,broccoli0601,,z하나또완성,13-3-2021,1
64,Tik Toker,skevjsbk08,,아 폴더도 만들어주셈ㅡㅡ,2-3-2021,1
65,나임,jimnymimnisonik,,"삼성꺼:너무 쌔깨 침
화웨이 꺼:살짝 침",2-3-2021,1
66,ESTJ,jiu.2008,,그래서.. 이 사람은 뭐하는 사람인데?,28-2-2021,1
67,Yit Chuan,yitchuan3,,手机的用途是这样扳的吗？三星👎,28-2-2021,1
68,ＬＩZＩ VＥLA,liiziivela,,a pero el de Barbie 😼🤙,27-2-2021,1
69,😍,fansdedomi21,,nadie yo viendo que se cae el iphone cuando golpea el samsung😢,27-2-2021,1
70,𝚉𝚊𝚑𝚒𝚛𝚊𝚊,zahiraaa_0814,,Yo después de ver el vídeo 👁️👄👁️,27-2-2021,1
71,멍청이,mongchonge_,,Z플립 생산과정.,26-2-2021,1
72,bombon de algodon,bombondealgodon,,aqui los que apoyan samsung 🥰✋,26-2-2021,1
73,chrisza_mhaye,chrixx01,,@mlvncubilla17 ohh samsung mo HAHAHAH,21-2-2021,1
74,eclipse,asus471,,휴대폰은 사과지,19-2-2021,1
75,Cecilia,chechuz345,,esa mesa vale mas que mi casa,16-2-2021,1
76,viole,violee.riccia_,,que tiene las manos de hulk para romper eso xd,16-2-2021,1
77,이쁘님,yoowftrfhtdhdty5u5eutr,,삼성삼성,16-2-2021,1
78,Tofii,tofi_.tofi,,"Mi Samsung se cae de frente todos los dias y sigue igual, el de mi papa que es motorola se le cayo una vez y se rayo😳😅",15-2-2021,1
79,♡ʟᴀsᴀᴍɪɢᴀs_ᴅᴇᴛᴏᴅᴏ♡ ⚠SPAM=BLOQ⚠,sofi_rblxoff,,porque rompe los celulares si puede venderlos,15-2-2021,1
80,‽,user17638391937,,"Yo queriendo tener un celular para grabar más vídeos de dibujos 🥺
Este wey rompiendo😳😖:",15-2-2021,1
81,maxi,maximofuscaldo,,es mejor el nokia 😎😎😎,15-2-2021,1
82,Dilianny Marte,diliannymarte4,,👁👄👁 mi cara ta potente 😅,15-2-2021,1
83,Anto 😋💐,antoo_030,,samsung yo lo tengo asi que samsung,15-2-2021,1
84,💐,aguuu_lva,,F por el iphone qe se cayo,15-2-2021,1
85,✋🏻zOi BiChOtA✋🏻,pili80000,,hasta Ami me dolio,15-2-2021,1
86,Elo<3,elo.pss,,Samsung bateu mais😁,27-2-2021,1
87,_Nelson_,neltz_,,@flo_con54.fc_metz bah alors c qui les plus solide,16-3-2021,0
88,ok,notrlyjairo,,MANO SÓ EU Q VI UM CELULAR LARANJA AVERMELHADO CAINDO NO FUNDO?,22-2-2021,0
89,☻𝖙𝖚 𝖕𝖆𝖕𝖎𝖙𝖔 ☺︎,portgasd.1ace,,yo tengo mi Huawei y le eh tiraron el suelo y no se me rompió,7-6-2021,0
90,Cabactulan Itachi,cabactulanitachi,,"ang dami naman g cp
sana mabigyan ako kahit isa lang sayang kasi kapag sinira lang",26-4-2021,0
91,klara,klarq444,,as a huawei user samsung is better,3-4-2021,0
92,Alisha Gayle,alishagayle1,,I like your work,31-3-2021,0
93,𝔰𝔨𝔶 is €oo£076,skytheboss12,,do a Nokia😁😂,21-3-2021,0
94,cool,fell067,,苹果还不是一个样,18-3-2021,0
95,user2333067652006,user2333067652006,,华为手机就是结实,17-3-2021,0
96,Guts丶越,yy421694316,,p7 vs boom7,16-3-2021,0
97,Huy,huy24591,,Quet khu. Thua Vsmart het😂,16-3-2021,0
98,.,skyangel0621,,ㅇㄴ 야 까고 싶나??,16-3-2021,0
99,NewOneX,newonexz,,obviously lighter when he hit huawei,16-3-2021,0
100,아,user37456922541053,,"아깝다,,",16-3-2021,0
101,TrangNguyen Korea,taeheefamilyyoutube89,,제트 플립,14-3-2021,0
102,Alex Mayer493,funfondue,,"비교할걸 해야지
어떻게 화웨이를 삼성하고 비교하나",14-3-2021,0
103,ISFP,eun_e0916,,아까워,14-3-2021,0
104,구독하면 소원 이루어짐372,gogo9090oogog0909,,왜 내가 마음 아프냐,12-3-2021,0
105,주성준833,mebanana123,,누가봐도 샘성꺼 도 쎄게 치는데,12-3-2021,0
106,enya,enyaya_,,Van I say that inane is always and forever the best😂,12-3-2021,0
107,Lalû-i Stalker,user7688188788164,,i use iPhone but im Samsung lovers,12-3-2021,0
108,치킨,chicken_oooooooooooo,,랜드폰은저에게주세요,12-3-2021,0
109,진디,jinwoochoi74,,지맴대로 비교하누..,11-3-2021,0
110,앗젤리다 조져 5세,1216.8,,나 집에서 저거해봤다 안뿌셔짐 삼성인뎈,11-3-2021,0
111,고양이를 사랑 하는 고냠이♡(바닐라 라떼♡),soma0047,,z플립이 만들어지는 과정?,8-3-2021,0
112,:),jominse,,우와 Z플립이당!😬,8-3-2021,0
113,헤으응,ruixwaza,,아이폰은 비싸서 안뿌시노 ㅋ,8-3-2021,0
114,kamay ni Noel,curiaepascual,,Nokia,8-3-2021,0
115,슈슈×비당 공동계,qaws13233343,,회웨이 껀데 잘 안깨지던데,7-3-2021,0
116,kboss,kb_kkk,,어차피 휘던 부러지던 못쓰는건 똑같은거 아냐???😂,7-3-2021,0
117,用户5844353616978,09171017d,,一個是手機的厚度，一個是他敲的力度，而且要比就直接丟地上或用車碾過還比較實際,7-3-2021,0
118,소녠,zepeto_0617,,어뭐 우리 삼성이 얇고 가벼운걸 알려줘서 고마워욜😏,7-3-2021,0
119,ㅇㄴ,parkyoungin02,,와 제트플림 (?),7-3-2021,0
120,Túnn Ănnh,tuananh4061,,chắc chắn thì sẽ nặng hơn khi cầm. có ưu nhược điểm của nó. giá thành cao hơn,6-3-2021,0
121,윤형,yun_hyeong,,저주세요,6-3-2021,0
122,孙笑川dnm,lz0705,,拿同一時期的手機來比較啊,6-3-2021,0
123,J,hye1116_,,Z플립 만드는 법,6-3-2021,0
124,주원3738,juwon064,,Z폴립을 만드는 과정을 보고계십니다,6-3-2021,0
125,다잡아내,thefuturethatiyear,,삼성 완전 끊어지네😁,6-3-2021,0
126,유나,dgruyustfjxbcgi,,이제 저 폰은 Z플립이 되는건가?,5-3-2021,0
127,Nosistem,level_nosistem,,Победил идиот,5-3-2021,0
128,기철이,029idie,,뒤에 핸드폰...떨어졌어요!,5-3-2021,0
129,울보다아❤,lovejiwo04,,저거 삼성...노트 4인데,5-3-2021,0
130,유빈,08._.hb,,와.. 지금뜸..,5-3-2021,0
131,"애니,옴걸(ISFP)",isd41,,손 대단,4-3-2021,0
132,갱,rkddjsdl,,LG랑 뜨라해,4-3-2021,0
133,.,hh11mst,,z플립 얻는법,4-3-2021,0
134,주영,jungjooyoung21,,뭐가 다른거얌?><,3-3-2021,0
135,성요한,tiktok_jjanggoo,,그럴거면 나줘ㅠㅠ,3-3-2021,0
136,user4878798698403,gsycjsdbitdgjhs,,와...,3-3-2021,0
137,user5802051324311,minhaye0n,,헐 지플립 제작과정,3-3-2021,0
138,@KW(korean),kimwoorin,,저기충전패드위치인데,3-3-2021,0
139,스틱파이터하는마신,stickfighterdrinking,,z플립 2개 만드셨네 부럽,3-3-2021,0
140,려원자까,rywon12,,아저씨? 거기아녜요.. 반대로하셔야 z플립이되죠,3-3-2021,0
141,000,dbdjve,,"z플립 만드는 ㅋㅋㅋㅋ
다들 같은 생각하심 ㅋㅋㅋ",3-3-2021,0
142,。,cmfp_,,여러분들은 지금 갤럭시 z플립을 만드는 과정을 보고계십니다,2-3-2021,0
143,•《lemon 》•,kimjih8,,니주라 진짜,2-3-2021,0
144,user6079458151237,user6079458151237,,"으돈아,까워",2-3-2021,0
145,a이엘,aiel66,,삼성거 초반에 아래 살짝 만지듯 누르고 4번치고 마지막에 왜 꺽냐 다른건 안누르고 4번치고 마지막에 걍 보여주고,2-3-2021,0
146,亗GH͜͡OST๛JK亗,sonjekwan,,저것들 중에 폰 하나만 주셈,2-3-2021,0
147,수빈,parksoobin050,,둘다 옛날 폰인데?,2-3-2021,0
148,편집하는 국내산상추,leesungjoo42,,"아~ 나 저거 써서알지~~어디서 생그라ㄴ..ㅏ
아니(뒷광고아님)생구리까고 있어 저거 용량도 모자를판에 아이폰보다 약해!
심지어 용량이 앱최대5개 깔수있음아호 빡친다 저거 아직도 있는데 방수도 인돼서 이미 익사한 시체가됌ㅋㅋ",1-3-2021,0
149,누구보다 빠르게 남들과는 다르게 달리는 거북이,ttu0525,,아 z플립이 이거구나😁,1-3-2021,0
150,닉네임을 입력하세요,no_limit_wegohigher,,"삼성은 한번 버티는데 화웨이는 바로 금가는게 보이는데?
ㅋㅋㅋㅋㅋㅋ",1-3-2021,0
151,.,yk_1baningf,,Z플립은 안쪽으로 접어지니까 이건 S플립이겠네,1-3-2021,0
152,...,yellow_smile_09,,순수 z플립,28-2-2021,0
153,守城聯機真好玩,kebocheng1,,有沒有人跟我一樣比較好奇蘋果🥺,28-2-2021,0
154,말린푸딩,ding_maer,,짜잔~! 제트 플립이 되었습니다~~!,28-2-2021,0
155,Fiorella _es,estacue_ntafueeliminada,,El hawei es más resistente porq mi papa tiene uno le paso arriba de la maquina de ponele una tonelada y se rompió la pantalla y nada mas,28-2-2021,0
156,.,kangmingun0,,Z플립 제작하는 장면을 보고계십니다,28-2-2021,0
157,지렁이,003098765812435korea,,왜 음원 언급안해?? 완죤 오랫만인데,28-2-2021,0
158,Rと申します,user2007091120,,まず自分のスマホにそんなことしないでしょ！普通に使えば壊れない,28-2-2021,0
159,은우,pepe_.08,,삼성은 지진수준인데 허웨이는 다리떨때 흔들림인데?ㅋㅋ,28-2-2021,0
160,욕 안하는 사람,shusha364,,하.... 삼성좀 그만 까라고,28-2-2021,0
161,Sulk,sulk33,,두께 차이가 많이 나네여,28-2-2021,0
162,.,user7gsttpgh2d,,Nokia best,28-2-2021,0
163,Lucia Huaccha,luciahuaccha,,mi Samsung viendo esto: 👁💧👄💧👁,28-2-2021,0
164,어게인,ramenland0,,z프립만드는법 간단하죠?,28-2-2021,0
165,danieth,sharlottecorrales,,cual gani,27-2-2021,0
166,Jun Jun Calo,junjuncalo0,,😅😅,27-2-2021,0
167,박근형743,qkrqkr529,,어쨋든 둘다 뽀가지는데,27-2-2021,0
168,존나 바람과 함께 사라짐,12._.08k,,삼성에만 힘주냐;,27-2-2021,0
169,판다시키,panda_siggi,,Z플립 만드는과정인가?,27-2-2021,0
170,gagagaga,ddddjjjkph,,단단한건 역시 엘지지 아무리 떨어뜨려도 나를 걱정 안하게 만듬,27-2-2021,0
171,_____02,wet_____66,,他老，二放在桌子上就斷了。,27-2-2021,0
172,ESFP-A,mmaann.0287,,강제 z플립 만들어 버리누,27-2-2021,0
173,.,treatpeoplewithkidness4,,Se le cayó al suelo un telefono,27-2-2021,0
174,✨Alejita_loaiza✨,alejita_loaiza,,Nokia es el mejor de todos mi celu es Nokia 🙄👌🏻😎,27-2-2021,0
175,Blanca Arias,blancaarias3,,Yo viedo que el huawei es mi cel 😬,27-2-2021,0
176,.,edits_.clara,,yo tengo un Samsung y es indestructible no se rompe ni a martillazos 👁👄👁👌,27-2-2021,0
177,__,ejwjehebve,,bro...you push that samsung 4 times with a superpower...😏but you push your huwawei like you push your kitten 😌 😬,27-2-2021,0
178,Angelina,danielaleon293,,yo tengo sansung,26-2-2021,0
179,공주병,minseopark44,,솔직히 난 디자인은 애플이고 안에 내용물은(?)삼성,26-2-2021,0
180,나는 연주니의 턱쨜,whatever_0408,,아니 나주지,26-2-2021,0
181,🙂Pusa Ni Chifuyu 🙂,nothingonthispfp,,vivo vs oppo??? please,26-2-2021,0
182,user5291115553042,mariana_uiii,,no ous ya se porque me compraron un Huawei XD,26-2-2021,0
183,simbo jimbo,letmeseemyfamily,,lmaoooo i have a dora phone,25-2-2021,0
184,예네벨,jxkskxncnsks,,bat Kayo ganyan😭😭😭😭😭,25-2-2021,0
185,james2323,angelantonetteburdeos,,samsung sakalam,25-2-2021,0
186,Magbanua Daphnie😘,daphken17,,proud samsung user here🥰,25-2-2021,0
187,Rovie Dem,bajhie54,,Naku walang binatbat yan sa 3315 ko 😅😅😅 SAWEI yan tingnan mo😅😅😅,25-2-2021,0
188,ramknuj ❌,ramknuj96,,"it depends if it is made of corning gorilla glass or just plastic on front or back and the frame either stainless, plastic or aluminum",24-2-2021,0
189,angela,maryangelaaaaaaa,,Huawei I have both but I prefer Huawei but your wasting phones dude,24-2-2021,0
190,로블 옌✨{맞팔},dumdl,,영상보니까 내 폰 구부려 보고 싶네,24-2-2021,0
191,kiel,jahdvier,,Samsung is the strongest one😁,22-2-2021,0
192,user1749470244853,martisalomon0,,amigo vos como pensas que a mi se me cae el celular? ;-;,21-2-2021,0
193,태무현,taemoohyun,,고장난건 어차피 똑같은데,21-2-2021,0
194,ano ka gold,...unknown.user...lol,,oy akin nalang yan,21-2-2021,0
195,..,hnhzekelypingmz,,samsung,21-2-2021,0
196,JhoramBauzon,yamete12355,,akin nalang lods kaylangan ko Ng I Ang cp eh nasisira na tong gamer Kung cp,21-2-2021,0
197,JhoramBauzon,yamete12355,,"akin nalang sayang eh
h",21-2-2021,0
198,DMS DON'T WORK,fakestorysrblxph,,proid Samsung,21-2-2021,0
199,142682,_ideas....0_0,,No los rompas hay personas que los necesitan porque no les alcanza la plata,20-2-2021,0
200,카롱,shbdvuc3537,,"저렇게 치면 내 맨탈도 부숴진다는게 현실.
너무 아까워",20-2-2021,0
201,John Dhel Tariao,johndhel02,,penge iphone 12😳,20-2-2021,0
202,Kunzuki Sai,kunzukisai,,Samsung 🥰🥰,20-2-2021,0
203,08,handoyeon0,,모든 폰이 Z 플립으로 되는 과정,20-2-2021,0
204,한스,hans_coolsexy,,당신네들은 폰쓸때 테이블에 내리꽂고 쓰시는군요 😁,20-2-2021,0
205,한국 여행,jinzeen,,Made in China 광고,20-2-2021,0
206,피자새,pizza_bird,,나 주지...,19-2-2021,0
207,원두집사,wondoo200222,,오늘 화웨이라는것을 알게됬어요!!😁,19-2-2021,0
208,리오릉,minjoonseok3,,어차피 부서질건데 왜 비교함,17-2-2021,0
209,…,jsb_08,,미친 저거 모형이잖누,17-2-2021,0
210,De todo un poco✌,de_todo.un_poco2010,,"Samsung j2 es ese no??, es el que yo tenía antes 😅",17-2-2021,0
211,표직원465,hhsiwhjwiw,,고물상에게 팔면 얼마 받아주지?,16-2-2021,0
212,Marcy kinnie,sqshzamityy,,Para mi siempre ganara huawei,16-2-2021,0
213,gonxcool,gonxcool,,yo no entiendo porque hay gente que rompe celular como sin nada,16-2-2021,0
214,luna moon,luna_moon2407,,✨Nokia ✨,16-2-2021,0
215,user876757473,ltd_008,,give me iPhone please,16-2-2021,0
216,도화누나,popouu_00,,"폰이ㅅㅂ 저렇게되야 정상이지
하웨인가 저건 벽돌이지 그냥",16-2-2021,0
217,Lynnetjuhh🐎⚽️💃,lynn.xx20,,Samsung the best,16-2-2021,0
218,章魚哥的海灘椅,userm53ujbmryu,,幹你到底把Nokia放哪,16-2-2021,0
219,@Mina585,_mina585,,Gracias ya se que hacer con mi celu y el de mi mamá😁,16-2-2021,0
220,Sofi011,sofi0114,,Yo teniendo mi huawei ace un año y con dos rayones:👁️👄👁️?,16-2-2021,0
221,Giova Gamesho,tuviejaentanga201,,Nokia le gana 😈 🤙🏽,16-2-2021,0
222,.,pato0o000,,el huewey es el mismo cel que tengo yoooo,16-2-2021,0
223,.,nose.nose.nose7,,Vieron el iphone rojo q se cayo F,16-2-2021,0
224,KimidayokiminandayoHoshyete,connie_rara,,"si, osea todos doblamos celulares porque tenemos dinero de sobra 🙄✌🏻",16-2-2021,0
225,Franco Argomedo,el_pankeiks20,,nadie el tipo menos fuerte a Huawei y con la fuerza de goku fase 4 le pega,16-2-2021,0
226,ARMA🖤🖕,ailyntalasoglu2,,Samsung es mejor que otros 😎,15-2-2021,0
227,abril,._abril7_7,,yo estoy ahorrando para comprarme uno,15-2-2021,0
228,donitaw,wkdonit,,para éso dámelo a mi ._.,15-2-2021,0
229,🤦🤦❤️❤️,plantillas.y_mas16,,es evidente que al sansung le pego mas fuerte y al huawei no😳,15-2-2021,0
230,:D,_caballos2,,los Samsung se te cae y se te mejora 😳,15-2-2021,0
231,bexs omg,bexs_omg,,man el de Samsung le pegaste 4 y Huawei 2,15-2-2021,0
232,Roosevelt Stanley,rumpelstynsky,,Huawei es super malo a mi mamá no le duró ni tres añitos,15-2-2021,0
233,lvdest_nrf,messi_fachero1,,mí CEL es huawei,15-2-2021,0
234,Λ R ⁃ 亗,cesaria_dbv,,Y eso q mi huawey p30 ahuanya turbopvtasos mordidas de perro virus,15-2-2021,0
235,♡︎,.bpstann,,"𝘃𝗼𝗹𝘁𝗲𝗮 𝗲𝗹 𝘁𝗲𝗹𝗲𝗳𝗼𝗻𝗼
☹︎☹︎doʎodɐ opuǝᴉpɹǝd ʎoʇsǝ ǝɯɹᴉnƃǝs ʎ oǝpᴉʌ oɯᴉʇln ᴉɯ ɐ ǝʞᴉl ɹɐp sǝpǝnd ǝɯ ᴉnbɐ sɐʇsǝ ǝnb ɐʎ|",15-2-2021,0
236,SELIN TE AMOO,chqr.x.soft.x,,Menos mal tengo un huawei p8 ahora mismo 👨🏻‍🦲🤙🏻,15-2-2021,0
237,sae-byeok ✨Mi religion✨,..bl0od.xx,,Primero de todo : PARA QUE LO ROMPESSS SALE CARO,15-2-2021,0
238,paula valentina bel1,pancekes1306,,me dolió,15-2-2021,0
239,user3922110575735,mi.vida.equisde,,Yo tengo Huawei xd,15-2-2021,0
240,ENTP,djehs0728,,핸드폰 뿌시지 말고 저주면않도ㅑ요?,15-2-2021,0
241,ㅇㅇ,gimoteing,,s 20으로 하지 돈 없나..,15-2-2021,0
242,Dr Octopus,dr_octopus_octavio,,yo mirando el video con mi J2 😑😑,15-2-2021,0
243,bye,hyydem,,"NOOOOO AMIGO ME LO HUBIESES DADO
TENGO UN NOKIA",15-2-2021,0
244,Latam es bonito 🌮,antony.no.context,,Es mi idea o golpeo más fuerte >:v,15-2-2021,0
245,llube1102,llube1102,,"Mí huawei el viejo que paso por mí mama,hermano yo jugaba a tirarlo por la escalera😂
ni un rasguño sksbis claro mil templados tenía",15-2-2021,0
246,Joaquin Cortes,joacortess,,aaaaaaa,15-2-2021,0
247,uwu,ponkyn_,,Huawei es la marca mas mala que eh visto me compraron un celu huawei ni se podia descargar aps😔👊,15-2-2021,0
248,yo,springfieldp,,razón por la que tengo Samsung porque tengo manos de manteca literal casa 2x3 se me cae,15-2-2021,0
249,Axozer,ashosher,,el Nokia vs el samsung,15-2-2021,0
250,Hola:),alonso_6267,,Huawei es calidad china,15-2-2021,0
251,᯾᯾,_.edits_.de_.todo._,,lo q es tener plata 👁👄💦👁,15-2-2021,0
252,.,yobesthyunjinistapor,,si lo haces con un nokia te pego una cachetada :),15-2-2021,0
253,Ambar Sabbadin,ambarsabbadin,,😳,15-2-2021,0
254,No,teamofloppa,,Waaa tengo huaweii,15-2-2021,0
255,nia,lolaflopxd,,FLACO LPM COMO NI ME REGAOAS ESOS CELULARES?! ENVEZ DE ROMPERLOS LPM,15-2-2021,0
256,soy vpm..tomixs,avi.arbillaga,,los de huawei😎,15-2-2021,0
257,Ani,soy_any.can,,Missa:que veo un rival? 👩‍🦲🔪,15-2-2021,0
258,Fernando Ortega,fernandoortega308,,y yo con un j5🤡🤡,15-2-2021,0
259,???,una_cuenta112,,almenos si pongo a cargar un samsumg y lo pongo arriba de otro se carga al mismo tiempo xddddddd,15-2-2021,0
260,los hermanos arbillaga🛐,arbillaga_edits,,me duele,15-2-2021,0
261,Galleta🍪,lylu_rbx,,Samsung y al ver este video yo inmediata mente 👁👄👁,15-2-2021,0
262,DANYK,danykxd,,el dueño viendo este video 😬,15-2-2021,0
263,AILIN,.ailin__jk,,si no los queres dámelos ami,15-2-2021,0
264,edits,teficlips,,no señor demelo a mi el celular!!!!,15-2-2021,0
265,tinog0d🤑😎,tinog0d,,gastado de guita 3.000🤑,15-2-2021,0
266,oshshdvhstshdhdhgdyey es,hail_grasa.son_goku_,,intenta romper un nokia,15-2-2021,0
267,🦋Cass🦋,limey_wowey,,Yo conmi teléfono de barbie 💅,15-2-2021,0
268,Tik toker,user18373672819911,,Desperdicio de celulares 😞👊,15-2-2021,0
269,..,agg_.28_4mb4r,,Aguante mi hermoso samsung 😍🤙,15-2-2021,0
270,Ot6 forever,jisoositox,,Aquí Los Que Se Trava Todo el Tiempo el Cel y El Rompiendolos 👁️👄👁️,15-2-2021,0
271,ADRIEL,adriel_roldan,,cómo te gusta gastar plata,15-2-2021,0
272,Valentina Cruz5980,valentinacruz523,,igual para mi samsung es mejor🥰,15-2-2021,0
273,Kaito mi varón 👍😠,.__axxlu_xd,,no weee me duele,15-2-2021,0
274,Nadie?XD,maruqewwa,,un nokia con iphone,15-2-2021,0
275,<3,mia_jazmin_7,,samsumg,15-2-2021,0
276,Fake char,fake.charliex,,resiste mas el oteo no samsun,15-2-2021,0
277,Colorbars,userer6elnerq7,,Yo me quedo con huawei 🦶,15-2-2021,0
278,대한건축필름,usernyut70ezc0,,오~ 삼성은 휘어진것도 이뻐 저 곡선봐라 🥰,18-3-2021,0
279,전과10범수녀,cenix05050,,뭐하자는겨!?!??,16-3-2021,0
280,梓慶為鐻,cey_w,,看得好爽,15-3-2021,0
281,???(나는 요정 사냥꾼일까 요정일까 인간일까???),parkmion3,,아 아까워,14-3-2021,0
282,hellohhhhj,bombomforwhwn,,삼성 저거 강화유리라 금간거 아님?,13-3-2021,0
283,긴말좌,pioohaeo,,인조 Z플립,13-3-2021,0
284,이ㅣㅣ히힣힉힉,user9412939276005,,화웨이라는 건 들어본적도 엊음,12-3-2021,0
285,외 않 되?,wjjjjjjtttttttyyiiiii,,그럼 미니폰부시면 폴더폰이고 노트북 부시면 아이패드냐,11-3-2021,0
286,김태완,kimtw1282,,쇼를하려거든 제대로 하던가 화웨이는 삼성꺼만큼 힘도안주고 치다가 그마져도 구부러지자마자 안쳐버리네 ㅋㅋㅋㅋ😂😂😂,11-3-2021,0
287,소리샘,iionghong,,그래서 뭐? 둘다 사용불가인데? 하고싶은말이 먼데?,11-3-2021,0
288,user2397631330334,user2397631330334,,well nokia will broke the table😂,7-3-2021,0
289,Jangs@🇹🇼🇵🇭,johnpinaasa,,iPhone vs Samsung,7-3-2021,0
290,다시한번32,otnsi9114,,그래서 화웨이는 살살쳐도 구부러진다는거야?,6-3-2021,0
291,시즈🏃🏻‍♂️,besiz_03,,아니 휴대폰이 저렇게 충격받을일이 언젠데 대체... 문에 끼워진채로 달려나가야하는거야...?,5-3-2021,0
292,ㅇㅅㅇ,akunang,,스으읍.. 힘조절 빼라ㅡㅡ,5-3-2021,0
293,serendipity,hyo.ryeong,,ㅇㄴ 일상에서 저렇게 될 일은 없잖아..,1-3-2021,0
294,인기스타 깜돌😎,hankyu77,,삼성폰에 감정있는듯,1-3-2021,0
295,나는야 존박이,kkurumulberry,,노트 4를 저러고 있냐.?,1-3-2021,0
296,시리우스,sirius323,,화웨이는 살살쳐도 구부러지네,1-3-2021,0
297,neowj,neo6824,,강도 테스트는 기계로 해야지 아그야..,1-3-2021,0
298,🔰🗝⚔🍊🏐👍🏻,itsadeadend3,,와다z플립만들고잏다😁😁😁,1-3-2021,0
299,규범,bjbj0217,,덕치고 s2 가져와유,28-2-2021,0
300,=͟͟͞͞개=͟͟͞͞웃=͟͟͞͞겨,songjoo95,,국뽕이 차오른다 ㅋㅋㅋㅋㅋ,28-2-2021,0
301,아_림,arim.tiktok,,나주지..,28-2-2021,0
302,Le Juns,MS4wLjABAAAAyYc1V-83RGFfCpvcHYpbTgaOYjhlWD4iKsOLso7_ByDRzymwTpKyvO0uLY6136MJ,,욕먹는 방법 가르쳐주는건가?,28-2-2021,0
303,???,hansungyun0,,저검 아이폰이 성능은 좋은데 내구도가 너무......벽돌폰이 짱임(?),28-2-2021,0
304,✨HOLA✨,pilar_pcl,,A eso te dedicas?,27-2-2021,0
305,Dani Herdz,daniherdz_248,,el vato que dejo reparando su teléfono 😠,27-2-2021,0
306,Nick Drake,nickdrake84,,jajaja satisfactorio y divertido :D,27-2-2021,0
307,Soy re lindo basta auuuuu,lukkyrelindo.stoppp098,,de aqui saca los telefonos el missa😂😂,27-2-2021,0
308,Anni,annipmvh,,La gente con dinero es rara,27-2-2021,0
309,🍪 Johanna 🍪❌DON'T LIKE SPAM❌,johannaani,,"CON RAZÓN EN QUE TENGO UNA TABLET HUAWEI SOLO SE CALLÓ LA PUNTA, SE ROMPIÓ
Y CASI ME QUITA LA PANTALLA!! 👺",27-2-2021,0
310,.....,kr_fiter,,내가 치려한거 다 빼앗겼네,27-2-2021,0
311,conversaciones de wpp👁,wpp379,,"am..
y cual es la gracia de romperlos",27-2-2021,0
312,ibglwbf,ofj27sbkwibsnnfk,,haawei solo lo golpeaste pocas veces samsign es mejorr,26-2-2021,0
313,Hyung,hyung_0x0,,음성 자꾸 핸드폰이라 들리는데 ...,26-2-2021,0
314,ERROR,uniq_akesora,,접히는 폰 만드는 과정,26-2-2021,0
315,stranger things💕,val_strangr,,yo viendo que se le cayó un AiFoN😂,26-2-2021,0
316,Miri edits,miriedits_0,,You are crazi,26-2-2021,0
317,reviví,ipwoisd,,Tan fuerte te crees hazlo con un Nokia 🙄🤚,26-2-2021,0
318,cai...,00__008513,,oppo,25-2-2021,0
319,armies,armiess37,,I need samsung,25-2-2021,0
320,Blackpink,blackpinkinyourarea711,,"Samsung because you hit the Samsung stronger because it's not easy to broke
in the Huawei is easy to broke you hit that slowly and easy",25-2-2021,0
321,Mina mi noviecita😋😘😊,pofecitoooo,,los teléfonos se valoran se respetan 😥,25-2-2021,0
322,🤚🏻🤚🏼🤚🏽🤚🏾🤚🏿,aileen_v_ev,,El mio es wiawei😏pero se ve mas resistente sansug 😂,25-2-2021,0
323,Demongel,dem0ngel,,"todos peleando por qué marca es más fuerte:🤬🌛👹😎🔪😈
yo con Xiaomi: 👌🍿",25-2-2021,0
324,무개념을 보면 침 뱉는 알파카,iivho,,"삼성폰은 아주 세게쳐아 망가지는대
화웨이폰은 살살쳐도 망가진다는 것 인가요??",24-2-2021,0
325,♡︎ 𝖺𝗅𝗂𝗌 ♡︎,ali_belike07,,"Al huawei le dura 1 semana la pila, literal no he cargado mi celular en una semana y tiene 38%",24-2-2021,0
326,Orihgner Zenitram,jiro3030,,pwede PO Ng pahinge😳😳,24-2-2021,0
327,💙💚👌,lumine..kodyg,,"Mi HUAWEI que se cae al agua, se cae al suelo y tiene como 50 golpes y funciona normal 🐱👌",24-2-2021,0
328,Hola apareamiento 😘🖐,el_piojo_de_snape,,alguien me dice como no romper el celular? es que cuando pierdo la paciencia y tengo mi celu en las manos tengo ganas de romperlo,24-2-2021,0
329,jukilop mi casita 🏠,pantojax.xloaiza,,se rompió más el sansung,23-2-2021,0
330,lolwdp,lolwdp,,nose por qué pero me dolió xd,22-2-2021,0
331,야,sushhshsb,,ㅋㅋㅋㅋㅋㅋㅋㅋㅋㅋㅋㅋㅋㅋㅋㅋㅋㅋ 삼성은 여러번치고 다른건 몇번 안치넼ㅋㅋㅋㅋㅋㅋㅋ,22-2-2021,0
332,Yo,holaasjshdjsnwh,,No el Nokia es indestructible 😁,22-2-2021,0
333,? ? ?,4lee_____,,wey solo te dije que me arreglarás la pantalla,21-2-2021,0
334,Wyndell Domingo,wyndell123,,wag muna sirain sakin nalang,21-2-2021,0
335,eres tan feo que a nadie,xd.jazxd,,se nota que tiene plata y rompe celulares solo por likes,21-2-2021,0
336,||𝚂𝚗𝚊𝚙𝚌𝚑𝚊𝚝 𝚔𝚒𝚍𝚜✨💦,._sxidatulpxnk_,,Hive me only...Dont wasting the phone😂😂😂,20-2-2021,0
337,antonialicitra2009,antonia.licitra,,decime que los celulares no funcionaban,20-2-2021,0
338,jugando FREE FIRE 😈🤟,ff_botsitasss,,"🌍ESTAMOS MATANDO EL PLANETA 🌏
🌎TENEMOS QUE DEJARLO DESCANSAR
🌍MI META PONER ESTO
🌏EN TODOS LOS TIKTOKS🌍⚠️⚠️DIFUNDAN⚠️⚠️",20-2-2021,0
339,Sasuke good,carrecasateconmigomivida,,probá con un Nokia 😈😈😈😈😈,19-2-2021,0
340,정혁 박867,junghyukpark1,,삼성부슬라고 겁나 빡시게 치네,19-2-2021,0
341,.,hhhuuutttyyyqqqhsbdhehh,,삼성꺼 개 옛날인디,19-2-2021,0
342,녹차소년,nokcha_so_nyeon,,삼성은 곳 5성이 된다,19-2-2021,0
343,악펭,ak_peng,,삼성짱!!!,19-2-2021,0
344,몽실이 맘,jinhyorindjdkd,,핸드폰이 아깝다고 생각하는 당신은 한국인,19-2-2021,0
345,..,_qsy___,,ese huawei lo tiene mí papá 😳,19-2-2021,0
346,A'll just give you a fuck😀,tailsandkapibros,,Nokia,17-2-2021,0
347,🇰🇷KOREA🇰🇷,limhg,,삼성 겁나 튼튼하던대 이사람은 채중으로 누른거고 우리 아빠가 해봤눈데 엑정만 깨짐 힘으로 때렸눈데,17-2-2021,0
348,나는 잭임,yop061,,나삼성폰쓰고있는대선넘내,17-2-2021,0
349,민준,minjun143,,이젠 반대로 접어요 z플립,17-2-2021,0
350,RikkyMaru,the_devil_lee,,후아위아이,17-2-2021,0
351,ლH.B ლ,usertlodn1ngq6,,딱봐도 차이 나지 않나? 삼성은 힘 빡 주고 하고 하웨이 한테는 툭튝 치고 그리고 하웨이 써봤는데 별로임 2년동안 씀 아빠도 나는 3개월동안 썼는데 핸드폰 깨짐 인정할건 해 삼성이 더 좋잖어.. 블루투스 연결도 잘 안되 하웨이..,17-2-2021,0
352,연애가 마려워요...ㅅㅂ,lilly.bts130613,,Z플립이 만들어지는과정중한개를보고개십니다,17-2-2021,0
353,La ardilla q edita <3,ardilla_editora,,Cómo desperdiciar celular en tres segundos 😂,17-2-2021,0
354,👾,valentina26_4,,Yo con mi j2,17-2-2021,0
355,karlita 😀,_karlitaj,,No lo rompas mejor se los das a missasinfonia,17-2-2021,0
356,ㅇㅇ,kx_yu,,왜 삼성은 Z플립 만들수 있어서 좋구만,17-2-2021,0
357,🍒🍒,cherry_kidd,,tengo Huawei😏😏,16-2-2021,0
358,moree dettler,user1113052113,,la viendo la pila de iPhones que tiene❤️👄❤️,16-2-2021,0
359,vOtS eDits,mcdmqn,,el rompiendo celulares y yo nesecito uno mi hermana tambien y mi mamá tambien,16-2-2021,0
360,재인,dls0326,,해보고싶게 만드네,16-2-2021,0
361,꽁기깅공낑공강강꽁기깅공낑강,userp0kgviz490,,공짜로 z플립만드는법,16-2-2021,0
362,학생,yesung0623,,목업용이쥬,16-2-2021,0
363,user4882611476581,awdtig213454367,,이게 무슨차이임? 차라리 총을쏴보는게 더 흥미있다,16-2-2021,0
364,more,gonzalezmore_,,ahora con un nokia😎,16-2-2021,0
365,:),xx.....xxx2,,compras el cel pa usarlo no para romper😑,16-2-2021,0
366,gracias por los 300,edits_lyna_vallejos_arg,,ʟᴏs ᴄᴇʟᴜʟᴀʀᴇs sᴇ ᴠᴀʟᴏʀᴀɴ sᴇ ʀᴇsᴘᴇᴛᴀɴ😭😭,16-2-2021,0
367,𝓒𝓸𝓷𝓼𝓽𝓪𝓷𝔃𝓪🦔,user.891890000,,igual sigo con mi samsung,16-2-2021,0
368,venticidio ඩ,papafritaemo,,el nokia le gana,16-2-2021,0
369,ʜʜ,gordodown3000,,Nokia no se rompe🖐🏿😭,16-2-2021,0
370,Nery Almiron,nery_almiron,,"ya, los teléfonos ahora son fabricados para romper... 👍🏻",16-2-2021,0
371,.,recya_empire,,con el nokia se rompe la mesa,16-2-2021,0
372,Jaltex,unwnaweonao,,떼ㅑ채,15-2-2021,0
373,🤍Chawztx🤍,chawztx,,que nesecidad para hacer eso dió 😳,15-2-2021,0
374,:>,mugre_del_dedo_de_hanako,,por eso amigos mejor es Nokia 😈🤙,15-2-2021,0
375,Lulu :),lulu.k09,,🥺 F por ellos,15-2-2021,0
376,⭐PANA NO TÓXICO⭐,joacooo_edits,,iphone lo tocas y ya se rompe asi que no lo hagas,15-2-2021,0
377,Clouds and ghosts,radion088,,똑같네 ㅋㅋㅋ,15-2-2021,0
378,german pou,pou_german,,y el apple la bateria se fues a la hora,15-2-2021,0
379,chris_y_ya,chris_y_ya,,me encantan los modelos de los Sony Xperia.,15-2-2021,0
380,펭학,penghak4,,lg 들고온나,15-2-2021,0
381,"BANGTAN PAVED THE WAY, lloren.",peach._.bloss,,el rompiedo celulares y uno con un nokia🧎‍♀️,15-2-2021,0
382,🔒❤🔒,_ari..aesthetic_,,pero porque lo rompes al Huawei yo quiero uno pero soy pobre :<,15-2-2021,0
383,.,1010101olll,,aaghh me duele ver como los rompe,15-2-2021,0
384,𝓥𝓪𝓵𝓮 𝓻𝓸𝓫𝓵𝓸𝔁 🥺🤍🧸,__vale..rbl0xxxx__,,mi gfe tiene Huawei y ya ni un año le duro y tengo Samsung y ya voy a hacer 4 años •-•,15-2-2021,0
385,Sumanquito38,el_______patron,,vos k4g4s celulares? >:v,15-2-2021,0
386,☣︎,_yxzt.luk4s_,,Eso es por que la marca Huawei es China>:v,15-2-2021,0
387,camideku,_.camideku._,,El HUAWEI ya se me a caído 18k veses y no se iso nada,15-2-2021,0
388,Guigui,..iamguiguii,,Prefiero los teléfonos barbie✋🏽👍🏻,15-2-2021,0
389,hola,ddepe._,,wen intentan dejar mal a samsung pq es la mejor marca,15-2-2021,0
390,Fedeeeee,fedee_debo,,yo tengo huawei hace 4 años y me anda bieb,15-2-2021,0
391,(Victoria🔴⬜🔴),_xvictoriaxx_,,el teléfono Barbie es más resistente :v,15-2-2021,0
392,☝️😼💕 hola,_.j4zm1n._,,elllos rompiendo yo queriendo porque el mio no tiene espacio,15-2-2021,0
393,…,k31r4a,,Nokia por siempre,15-2-2021,0
394,respeten gustos,vicky_edits.de.charli4,,proba con nokia,15-2-2021,0
395,001,s7m9a2,,"𝘃𝗼𝗹𝘁𝗲𝗮 𝗲𝗹 𝘁𝗲𝗹𝗲𝗳𝗼𝗻𝗼
oʎodɐ opuǝᴉpɹǝd ʎoʇsǝ ɹᴉnƃǝs ʎ ǝʞᴉl ɹɐp sǝpǝnd ǝɯ ᴉnbɐ sɐʇsǝ ǝnb ɐʎ ɐloɥ",15-2-2021,0
396,zahira juliana1,_charli_x_motlipa_,,un xiaomi plis,15-2-2021,0
397,JACK TE GANA NUB,lacylialoverquierellorar,,"aver, ahora comparalo con un Nokia XD",15-2-2021,0
398,Santiago López Peña,eslp2008,,Al samsung le dio con mas fuerza se nota,15-2-2021,0
399,Menta granizadalover,kdctvd,,"mi samsung aunque alla salido de tik tok se escucha la musica y se acaba la bateria, lo prendes y tiene 10 😂",15-2-2021,0
400,<3,tsuki.xz,,"*le tapo la camara a mi celu* Celu, no mires esto, es contenido muy fuerte 😔👊",15-2-2021,0
401,me gusta el Roquefort,adolfus.0,,el tipo que le llevo su celular para arreglar: 😐,15-2-2021,0
402,ᴍɪʟᴇs ᴍᴏʀᴀʟᴇs,josue.jascaldo.jisguilin,,yo riendome por k se le cayo uno atras jsjsjsjja,15-2-2021,0
403,Uwu alo >:),chinobus_nica_uwu19,,El celular 🥺,15-2-2021,0
404,almii,_alma_ca,,damelos a mi antes de ronperlo,15-2-2021,0
405,paulipardo5,pauu311,,eso es un Nokia no un Huawei,15-2-2021,0
406,isi_lopez_robles,isi_lopez_robles,,"samsung, pero porquee los rompen, los pueden arreglar y regalas a los niños que no tienen para las clases virtuales🥺🥺😳😳",15-2-2021,0
407,✨edits_Dome_x Rod✨,ily..dom,,Tengo iPhone 🥰🥰,15-2-2021,0
408,Edits pros,editsmuypros,,El mio es huawei,15-2-2021,0
409,_t.toixatamamitaa,_t.toixatamamitaa,,que se re nota que le pego más al Samsung,15-2-2021,0
410,el amor de thu vidha 737,misheru_san7,,ahora un nokia 😼👌🏻,15-2-2021,0
411,nadie,milagrosuwu99,,tenia samsumg 2 desde los 4 asta los 8 y luego me dieron el 10 creo roto😎🤙,15-2-2021,0
412,🍃,carlaantoc,,"dejen de decir "" me lo hubieses dado a mi""
esta claro q son celulares q no sirvem",15-2-2021,0
413,Thomas 🤨,thomas_ivxncarrex,,"Esto No Tiene Nada Que Ver Pero Hoy Pasó Un Carrito De Helados Y Es La Primera Vez Que Veo Uno :0
Mí Primo Me Compro Un Helado 😎👍",15-2-2021,0
414,Nicol mi flaca 🛐,.chat.mont.dixi.fer3m,,Samsung es mucho mejor yo tengo un Alcatel,15-2-2021,0
415,Amy Novoa Ortiz,amynovoaortiz,,el celular naranja: hay te voy san pedro 😂😂,15-2-2021,0
416,mi meta 🌸llegar a 783🌸,amapoliisandfaba,,mejor dame los teléfonos a mi que los anday desgastando,15-2-2021,0
417,빠퀴루🦗,aaaaaaaaraminji,,삼성 열정적으로 친다 그에 비해 다른폰은 살살? 인정?,15-2-2021,0
418,.,tumba_.la._casa,,el nokia te rompe la mesa :v,15-2-2021,0
419,100✨♥️,gab065,,yo con Motorola:👁️👄👁️✋📲,15-2-2021,0
420,ingrid꧂,libro_deh_..._puta,,Motorola vs iphone,15-2-2021,0
421,enhypen: mis chicos,heeseung.mi_rey,,los celulares:wEy PaRa Me DuElE 🤕,15-2-2021,0
422,Santii,santtl1_,,pero mira como le pegas al Samsung la diferencia con el Huawei,15-2-2021,0
423,☆•Thiago•☆,happy_thiago,,que desperdicio de celulares!🥺,15-2-2021,0
424,a,sopiaaxx,,el huawei lo isiste mas despasio,15-2-2021,0
425,N.M.C,la_numiii_2,,claramente es mentira😂😂,15-2-2021,0
426,"si,soy abejita",unatomocualquieraxd,,"a ti no te duele amiko :,v",15-2-2021,0
427,AJEI-Bby/Azura ❤️❤️🍒🍑,_alpaquin_o,,Uno quiere tener cel propio y otros destruyen,15-2-2021,0
428,paula 🤨,paula_xx13,,Son la misma wea,15-2-2021,0
429,Tu vieja,vztwic,,Yo tengo iPhone 6 xdd,15-2-2021,0
430,♡,fn.fcttt,,Pone Nokia😎,15-2-2021,0
431,💸,rtx_ghost_rtx,,por eso comprende Xiaomi UwU,15-2-2021,0
432,𓆏,chilensiii,,"Yo tengo un Huawei y la verdad parece que es antitanque, me saque la lotería XD",15-2-2021,0
433,me sigues🥺🙏,.b3nj4min_l4ra,,ahora con Nokia y aifon 😎,15-2-2021,0
434,Juanete mii,juanetemiiyt,,Nooo 😭,10-12-2021,0
435,Nobody asked,artisbrodec33,,Both best,3-10-2021,0
436,Biviana Vidales,biviana290,,Rip money,31-8-2021,0
437,💎☁️Aesthetic Tips☁️💎,theaesthtips,,Wow they both broke how surprising,8-8-2021,0
438,Allie.toca,abby.tocaworld,,Huawei cause it has a fast charger and I'm a Huawei,24-7-2021,0
439,tea.liptonnn,tea.liptonnn,,These are old phones.,28-5-2021,0
440,user2993660113881,chineselovechina1,,Are you sure it's fairer to use mobile phones in 2020 than in 2013😏,2-3-2021,0
441,Una Pendeja 🐱✨,maruchan_con_frijolez,,Igual prefiero Huawei😌,27-2-2021,0
442,Partly Dev,partlydev,,huawei won gg,8-1-2022,0
443,❥︎❥︎❥︎,fynn.teschers,,Samsung is gwn beter 😅😌,26-6-2021,0
444,Stan Molliby!,mollibby_supremacy,,thats an old samsung phone,15-3-2021,0
445,sssu,ffhugffrt,,so i use Nokia😏,15-3-2021,0
446,Leoasa.0,leoasahol2,,Does it make sense?😅,14-3-2021,0
447,DzTranslation xD,dztranslation,,comparing latest sam with oldest huawei hmmm very very fair lol,13-3-2021,0
448,tashni Fan,tashni26,,bro i want to learn phone repair,28-2-2021,0
449,🥔🥔,kartofel_337,,@clvud.i.i on mniej mocy do huaei uzył i mniej wykszywil,25-2-2021,0
450,i make random content,editormaster193,,"samsung:im the best phone
huawie:no me
iphone:nome me
nokia:pst ametures",25-2-2021,0
451,Ladylyn Robles,lady_robles,,realme vs apple plsss,24-2-2021,0
452,zaw. lin,hjxnxjxkxkxmxilxlxlxldl,,hi,8-3-2021,0
453,user4846543312829,adriano132012,,So eine Geld Verschwendung,5-6-2021,0
454,모배초고수,ddong00000000,,이거 옛날에 z플립을 어떻게만들까 고민하면서 찍은 영상이래요😅,28-2-2021,3
455,08보라(넷접),kim081011,,음원 ㅈ추억,6-3-2021,0
456,중2병,nyannyan472,,@제1격 늅:잠자다 부모님이 깨워서 억지로 핸드폰 구부렷더니 이상한소리가 나면서 안켜 지두라 지금은 새폰이라규😁😁,27-2-2021,0
457,Andrew,andrew_black.21,,ellos 1 rompen un xiaomi y yo q quiero uno 🥺🥺🥺,27-2-2021,0
458,Andrés,yin..000,,yo tenia ese huewei p7 l12,20-12-2021,0
459,HEHEHEHAW,taho.__,,@blade_entertainmentyt get back,19-3-2021,0
460,HEHEHEHAW,taho.__,,@blade_entertainmentyt get back bro,14-3-2021,0
461,HEHEHEHAW,taho.__,,@blade_entertainmentyt get back bro,14-3-2021,0
462,HEHEHEHAW,taho.__,,@blade_entertainmentyt get on,21-3-2021,0
463,HEHEHEHAW,taho.__,,@blade_entertainmentyt bro get back,20-3-2021,0
464,HEHEHEHAW,taho.__,,@blade_entertainmentyt get back,14-3-2021,0
465,.,maite.._privv,,"Si mi androir funcionó a mis puñetes, cuando se pone weon sobrevive",15-2-2021,1
466,HEHEHEHAW,taho.__,,@blade_entertainmentyt bro call me on snap,12-3-2021,0
467,:3,vale._.xd1221,,like por los qie tienen samsung->,15-2-2021,0
468,No,ryze_n3k,,Esos celulares valen 2 terrenos kño,15-2-2021,1
469,puñetas.,doctor_simi_ang,,"todos hablando de que fuerte es el teléfono
yo: dame uno no mames",15-2-2021,1
470,王多鱼,duoyu123,,想说明啥，人傻钱多？？,13-3-2021,0
471,吴俊辰,wujunchen3,,You are all models five or six years ago. Who are you cheating on,6-3-2021,0
472,City Night,dy99odm9ukcr,,还是先多吃点莱猪跟凤梨多为台湾的经济贡献吧！还有时间老是在那里消费中国！无聊,1-3-2021,0
473,HAMSTER,hamster_cult736,,😔😔😔😔😔😞😞😞😞😞😢😢😢😢😢😢😢😢😢😢😢😱😱😤😤😤😤😤😤😡😡😡😡😡😡😭😭😭😭😭😭😭😭,6-3-2021,0
474,emi^^,emiwhispers,,lpm,15-2-2021,0
475,🐢,https._.hex._0ficial,,depende de que Huawei tengas por qué el mío tiene rajado La pantalla se me callo 5 beses de mi cama de arriba tiene la pantalla rota y está bien xd👍✨,17-2-2021,1
476,🦉,rem_mireligion,,yo tengo un Nokia q se callo noventa veces y la batería le duró como un mes y sigue bien y el q estoy usando ahora se le va la batería cada 4 horas😭,15-2-2021,1
477,Azzedine,sweatyclan750,,SAMSUNG GAN👉👉👉,14-4-2021,1
478,REX,2legendrex3,,https://vt.tiktok.com/ZSJFFhjwv/,16-3-2021,0
479,Rocio Altamirano,jshshsjsjhsxdd,,Yo viendo como se calló el iphone de atrás 👁💧👄💧👁,27-2-2021,0
480,Snurtle,kagagogd,,kay o nga kay o gub on sus,25-2-2021,0
481,JhoramBauzon,yamete12355,,walang pera pang bili lods,21-2-2021,0
482,y,el_artorias,,alguien vio que se le callo un celular con funda roja atras?,16-2-2021,0
483,.,multixszxfandom,,we yo tengo Samsung y se me callo de la cama se cayó en una piedra en el agua se callo muchas beses y sigue vivo,15-2-2021,0
484,edtis,_charli_edits16,,haaa con razon una ves se calló el telefono de mi mama de las escaleras y no se rompio,15-2-2021,0
485,camilu,camispdd,,che atrás callo un celu:v,15-2-2021,0
486,.,wiwemn,,yo viendo que se le callo un iPhone atrás 😿,15-2-2021,0
487,손님♥️🐰♥️손토미🐰🐹💟수아가💙유애나💜,sonnim_sontomi_suaga,,이거 왜하시는지 아시는 분..?,19-12-2020,2
488,yvo,boiyvo0,,Samsung lover,25-1-2021,2
489,user9458148203809,elvinzurita,,y cual es el punto todos tienen diferente punto de recistencia,19-1-2021,2
490,Derekprrro,derekmasterpropro,,Regala uno man,19-1-2021,2
491,Ernest Paul,ernestpaul3,,samsung is better,12-1-2021,2
492,dayank kecek,mutiaraembun7,,lebih 10 tahun setia,25-1-2021,2
493,am irah,eliaslabastilla,,Can I have one please from the 🇵🇭,19-1-2021,2
494,Reyna_y_roblox xd,marlu19711,,Porque al samsung le dio como 5 golpea y al huawei le dio 2 nomas 👁👄👁,19-1-2021,2
495,Israel Alberto Reyes,beto1234567890beto,,por si te quedaste atorado en el metro,20-1-2021,2
496,🌚🌝,hahahshshhahshshah,,then why did you much fold the samasung😏😬,11-1-2021,2
497,Ethan Cross,ethancross76,,El Nokia viendolos desde el Olimpo,20-1-2021,2
498,Shin💛,shinshin_015,,Samsung is waving and also a amart sim😩✊....BTS natin is anywhere na..💜💜💜,18-1-2021,2
499,KAI_SUEGAY,kaisuegay,,this is useless and dumb like who's gonna do that to their phone😅,20-1-2021,2
500,댓핱 안누름 3대가 탈모,taehyeon48,,5초 만에 Z플립 만드는 방법,19-12-2020,2
501,Jeanne?,jeannepretty5,,can I have one of Samsung plss,20-1-2021,2
502,ley,leyantek,,cer try ip😂,13-1-2021,2
503,Jayved Cabatuan,suhpapapalicious,,iphone vs vivo please,13-1-2021,2
504,hola,usernzpg0py04l,,el wuawei c rompe mas rapido,13-1-2021,2
505,It's Elaine 🥰,elaine_260912,,still SIRA 😂,19-1-2021,2
506,Aypril Chiq,aypril_21,,mentira.. yo temia Huawei y tocaba el piso y se rompis en mil... mi mamá ha tenidp su samsum años. y yo con lg 4 años,19-1-2021,2
507,⚡🍓⭐VICKY⭐🍓⚡,vickyguajardo2,,yo teniendo un Samsung: no mires celular ni mires 👁👄👁,19-1-2021,2
508,Ana:)),lulu.sonchini,,Tem tanta gente querendo comer celular e vc faz isso 🥺,18-1-2021,2
509,carlos eduardo,carloseduardofirme,,o meu e galaxy 20 pro😁,18-1-2021,2
510,colombiano;),arepa_frita737,,nokia,19-1-2021,2
511,Joseelis2211❤️🥰,marthaeliza29,,si el mío vivió dos años y la pregunta es q no le pasó 😏,19-1-2021,2
512,joaopedro,joaopedrournau,,Jente antes de vim fala q ele está estragamdo celulares esses celulares não funcionam mas,19-1-2021,2
513,Manuel Gomez,manuelgozs,,"en conclusión:
los celulares si se rompen 😂😂😂😂",19-1-2021,2
514,Alexander Miss,alexandermiss,,Samsung wins,12-1-2021,2
515,Cami :),xw.plata.no,,Yo teniendo mi tablet huawei y mi cel samsumg 👁️👄👁️(no es para presumir no me tiren hate),19-1-2021,2
516,Jhon Anderson,jhonanderson8810,,"🤣🤣🤣🤣 Hazlo con unos de ahora último, no con esas reliquias 👌🏽👌🏽",19-1-2021,2
517,aleatória,uma._.fa._.aleatoria,,a pergunta q nn quer calar quem vai fazer isso com o celular?,19-1-2021,2
518,cabelin na relan,paulinho_p3roc3d3,,xiaomi vs iPhone,19-1-2021,2
519,Hi BESH 🇵🇭♥ 🏴󠁧󠁢󠁥󠁮󠁧󠁿,hibeshy,,Samsung ako dati matibay kaysa huawei kaso nag hang palagi..Huawei ako ngayon hindi matibay may crack na screen ko 4 month lang,25-1-2021,2
520,Jose Eduardo CB,joseeduardocb1,,y yo juntando la propina para un celular,12-1-2021,2
521,CHEF CURRY🔥💯,chefcurry.1110,,"samsung user, can heart this🥰",25-1-2021,2
522,ㅂㅇㅂㅇ 료수였음,...mlk,,폰 내려온다 z플립 내려온다~~,19-12-2020,2
523,januario.sanchez,januario0305,,Give thanks to huawei because they are the creator of 5g the fastest internet,27-1-2021,2
524,ㅇ,aalllalqq,,일단 영상 올린 사람이 돈이 줫나게 딸렸는지 요즘 폰 안들고 오고 개 꾸진거 사람들이 버린거 쓰레기장에서 들고 와서 화웨이는 존나 빨아주고 싶었는지 살살치고 삼성은 살 돈도 없어서 일부러 안좋다는 인식을 심어주려고 하는거같은데 애초에 저렇게 폰이 부서지면 둘다 못쓰는ㄱ,19-12-2020,2
525,Piero Rios,pierolechero,,con eso podía estudiar ya q no tengo cel usó la de mi mamá,19-1-2021,2
526,Cristene Amolo,cristeneamolo,,samsung user 😌,25-1-2021,2
527,gwen,schgwenn,,samsung,19-1-2021,2
528,Eren mi varón 🛐❤,_._micaa,,el 1ro lo rompe hasta que quede bien y el 2do le da 3 golpes locos ._.,19-1-2021,2
529,Guilherme,guildasilva95,,eu queria um cll mano e vc quebrando😳,19-1-2021,2
530,narancia S2,naranjjaq,,"eu querendo um celular novo:
alguèm nas EUA",25-1-2021,2
531,=),uma.qualquer.1230,,tanta gente querendo um cll bom e ele quebrando 😕,19-1-2021,2
532,.,ineedsomemoneygago2,,samsung,12-1-2021,2
533,Унц Унц♡,n.nino3,,есть тут казахи или руссие?,19-1-2021,2
534,Hi:),editsstil._,,"🎛️⬜⬜
⬜🍎⬜
⬜⬜⬜
⬜⬜⬜
Săracilor,eu am iphone
🚦⬜⬜
⬜⚫⬜
⬜⬜⬜
⬜⬜⬜
Și Huawei cu amprenta😏😏😏",19-1-2021,2
535,mo paz😎✌️ galera 😍💅,opps...my...saby,,agora faiz com um nokia tijolao 😬,19-1-2021,2
536,JLCMC,jlcmcgmail.com,,it depends kn its thickness!,21-1-2021,2
537,R Jay Rodarbal Brignas,assanediop2315,,samsung is the best👏,19-1-2021,2
538,vladimir vasco,vladimirvasco,,y con que fin hizo eso ?,12-1-2021,2
539,ˢʰᵃʷⁿ,pagtalotiktokmuna.1,,ako na nanghihiram lang ng cp (;´༎ຶٹ༎ຶ`),27-1-2021,2
540,응애나애기예림,yx.__.rxm,,@yugyong09 @ee_07030 z플립,25-1-2021,2
541,Naje ?🫠,louvp4ulax_,,Samsung,19-1-2021,2
542,flamengoo,fla_maiordorio,,gorila glass saiu do chat,19-1-2021,2
543,xTxfelipexTx,gold_pipe,,nokia vs nokia,18-1-2021,2
544,Johann Mutia,johanniemutia,,Huawie here 🥰🥰🥰,25-1-2021,2
545,칼맞팔 🐌 달팽이,divided7,,얘들아 나뛰워주삼 나 화웨이유저인데 바닥에한번떨구니까 개박살나고 수리센터에신청했는데1년넘게 물품이안오고 배터리겁나빨리달음 똥폰이니까 제발 사지마,15-1-2021,2
546,Kenneth • Following,kenn_510,,Give it to me plsss🥺,20-1-2021,2
547,elvis ochoa,elvisochoa08,,ahora prueba con uno de Nokia,18-1-2021,2
548,Jameson Inocencio,jamesoninocencio,,pa try ng Nokia 3310,21-1-2021,2
549,Aleah,iyaaa_1308,,what about Oppo and Vivo🥰,24-1-2021,2
550,Landwirt Tim,landwirt_tim,,Samsung beste,18-1-2021,2
551,Aries021,tagapatayngsadboi,,gigil n gigil sa samsung halata😂parehas q ngmit brand nyan😅,20-1-2021,2
552,namyuu._.mcfloatie,sukinamyuu,,did u just waste ur money😳,20-1-2021,2
553,izadora Santos,izadorasantos15,,moço eu quero,18-1-2021,2
554,Dondie R. Colle,dondzzzz,,"Still, You cant change my mind. SAMSUNG User here!!",26-1-2021,2
555,WORDCON SERVER,mc.wordcon.net,,hoy aprendi q hacer teléfonos flip,8-2-2021,2
556,simp4u,ms.secrettttt,,its better to buy a keypad~nokiaHAHAHA,20-1-2021,2
557,Honeygail Basiag Pac,honeygailbasiagpacas,,samsung user here 🥰,20-1-2021,2
558,IMAO😭,prxtty.yxnna,,I think sa tatak ng cp ung basihan🤔🤔,24-1-2021,2
559,Arjay Carinan,carinanarjay,,𝒂𝒏𝒈 𝒍𝒂𝒍𝒂𝒌𝒂𝒔 𝒏𝒈 𝒑𝒖𝒔𝒉 𝒎𝒐 𝒔𝒂 𝒔𝒂𝒎𝒔𝒖𝒏𝒈 𝒕𝒂𝒑𝒐𝒔 𝒔𝒂 𝒉𝒖𝒂𝒘𝒆𝒊 𝒆𝒂𝒔𝒚 𝒆𝒂𝒔𝒚 𝒑𝒊𝒏𝒂𝒑𝒂𝒕𝒘𝒂 𝒎𝒐 𝒃𝒂 𝒌𝒐,20-1-2021,2
560,찰스,chalsue_,,are you dumb,20-1-2021,2
561,Jerick D. Caminero K,jerickdcaminerokyut,,samgsung is strong,24-1-2021,2
562,亗_ϟ_𝐈 𝐍 𝐒 𝐀 𝐍 𝐎_ϟ_亗,mordecayserr,,AMIGO NO ROMPAS CELULARES YO ME ESTOY JUNTANDO REGALAME EN VES QUE LO ROMPAS😁😁,20-1-2021,2
563,Burn Gray Quindong,burn0929,,So proud here Samsung user since❤️,26-1-2021,2
564,Someone reading my name arefat,fuckoff_urfaceisugly,,"imagine iPhone
Just one hand",27-1-2021,2
565,fitrichhieese,seibacutes,,hey can u u just give me if there any phone u wan to crash next?,6-2-2021,2
566,☆ ANTONIO ☆,antoniio989,,mejor regalame uno 😂,21-1-2021,2
567,Jeeth.row🦋,jeeth.row,,Ayan naman tayo s apagalingan ng Cellphone ang importante merong cellphone🙄,18-1-2021,2
568,Mark Ambag,markambag,,I'm hauwie,18-1-2021,2
569,Chelzie B. 🌈,chelsfzagabucx,,samsung user here! 😁,21-1-2021,2
570,L💘,lilingnista,,No era necesario 💀💧,11-1-2021,2
571,KurtneyTrisha☑️,kurtney_aoum,,can you give me iphone xr 🥺🥺🥺🥺🥺🎉,11-1-2021,2
572,jml,jmleodones19,,nako. sayang cp.,20-1-2021,2
573,עזרה 🧚,eloize__,,resultado: os dois quebra,18-1-2021,2
574,★Marllon★777,int_marlon_772,,mano pq se não me deu em,18-1-2021,2
575,Kaxui,yunerllurvs,,Nokia 😏 but im realme,11-1-2021,2
576,<3,cosmocrazy,,No Pos no vAle PQ ES EL ANTIGUO SAMSUNG🏃‍♂️,20-1-2021,2
577,Jamilla♥️😍,bananaquenofficial,,samsung winner,20-1-2021,2
578,ASHLEY 🦋,jolianmay,,sana sakin nalang yan sayang 😣😣,13-1-2021,2
579,user6369903668380,riaalyn7,,go to Samsum,13-1-2021,2
580,🍑 Kreissän_ 2313 🇮🇳🔒🇵🇭,pauleenmarieannto,,Samsung parin ako,20-1-2021,2
581,J̶o̶s̶e̶p̶h̶,joseph_retes,,Asus Vs iPhone who is durable😁,20-1-2021,2
582,ᴛʜᴇ8,srrah_jne_,,samsung,18-1-2021,2
583,Tik Toker,fer_haruno1,,yo antes tenia un huawei y salio como 20 veces volando sin mica ni protector y nunca le paso nd,18-1-2021,2
584,Jhon,_____c_o_c_o_____,,Nooo amigo !! creo que ganarias mas likes si te grabas regalandolo a personas que los necesitan 👁️💧👄💧👁️,13-1-2021,2
585,💠matthewvillas 💠,matthewvillas,,much better samsung than Huawei,20-1-2021,2
586,.,iamrhealsy,,i need iphone12 plsss,21-1-2021,2
587,♥️Jecel Arcebuche❤️,jecelarcebuchebre,,samsung my favorite,20-1-2021,2
588,Kenjie James Calinog,kenjiejames09,,plss,13-1-2021,2
589,turu🐧,ryz.rinn,,hahaha you use old samsung can you try latest 😂,13-1-2021,2
590,박춘자,gyu_won_hi,,와... 옛날사람이시네 요즘 폰은 원래 다 구브러지는데 알려줘야겠군... 그건 Z플립이라는거에요,19-12-2020,2
591,Kim_Jennie_official_,jonelynily325,,Samsung po,25-1-2021,2
592,dhine 143,jcl135,,proud samsung user,20-1-2021,2
593,Iam_Zy0,zyrellemayuga,,SAMSUNG HERE,21-1-2021,2
594,Dimplesss20,charnielkaithm.gargoles,,😡,24-1-2021,2
595,Âlexandre,turism0,,La verdad yo crean o no solo tengo mi Nokia con teclitas y cuando quiero usar redes sociales 💻uso la laptop 👩‍💻,14-1-2021,2
596,Rolly🇵🇭,rolly_basog,,Huawei Nova 7 5g here 🥰😅,27-1-2021,1
597,Luurpascuual_,_.luuur._,,yo viendo como se cae el iPhone de atrás🤡,7-2-2021,1
598,m opey,mopey5,,베가 아이언 출동하면 다 개박살임,27-1-2021,1
599,lucas,iamlots24,,nokia,26-1-2021,1
600,Uncle Yu,about_electric_fanl01,,Huawei is good,27-1-2021,1
601,YhOunG🏳️‍🌈,leoner129,,samsung here😊😊,27-1-2021,1
602,JB Pascua,ch0up0n,,can you just give it to me instead of breaking it,27-1-2021,1
603,jeylaaa<3,justine_joined2018,,strongest is my mom,27-1-2021,1
604,Danish Fill,danishfill,,Nokia vs iPhone please🥺🥺,27-1-2021,1
605,KucingComel,catalwayswin,,better you give to someone who in need for online classess,27-1-2021,1
606,keith,desireekth,,Huawie,27-1-2021,1
607,Louis_gly,louis_gly,,De toute façon qui fait ça avec son téléphone 😅,10-1-2021,1
608,Dan Antaran Roga,andantaranroga,,Proud huawei user,27-1-2021,1
609,waray waray,louiemadeja,,samsung parin,27-1-2021,1
610,Фأ_رн나,nahara_f_an,,Nova 5T here🥰🥰🥰,27-1-2021,1
611,james jangalay,marinoianjj,,Huawei P10 user here.,27-1-2021,1
612,Bruhhh,bakayaroook,,how about nokia?🤔🤔🤔,27-1-2021,1
613,m_ac2,m_ac2,,"one word comes out on my mouth, ""regrettable"". everyone need a gadgets but this is just a waste? for what? to prove how strong the phone is?",27-1-2021,1
614,jsadad adsasd,peruanito285,,jajaja,26-1-2021,1
615,Billyyyyyy?,billyyyyy_ror,,give me that iPhone 8 plus instead,27-1-2021,1
616,https,yjwoncurry,,SAMSUNG USER HERE!,27-1-2021,1
617,✮ 𝒞 𝐻 𝐸 𝒵 𝒵 ✮,chezka_vicey,,Huawei lang malakas 😏 😏 😏,7-1-2021,1
618,로블록스 라임🎗,robloxlime383899651,,요즘 폰은 저렇게 안 휠꺼 같은데..,6-1-2021,1
619,Jhynniusz Krayfuss,jhynniuszkrayfuss,,Al fin un tutorial de como convertir tu celular en esos modernos plegable ahora mismo lo hago 😁,7-2-2021,1
620,dx_n1ghm3r,nighmare42,,f por el iPhone naranja de atras 😔,7-2-2021,1
621,carmentperez,caarmentejedaa_,,cuidado no te vallas a romper la muñeca con el Nokia 🤙😉,7-2-2021,1
622,Esteban,mkx_estebax,,felicidades ahora tienes u z flip,7-2-2021,1
623,soy yo,riande_08,,@.leiirex de fondo los iPhones 📱 😂😂,6-2-2021,1
624,.,evaeva01234,,나 초딩때 쓰던 폴더폰 진짜 볼 때마다 반으로 쪼개보고 싶었는데,6-1-2021,1
625,Juan José Mula Garci,juanjosemulagarcia,,vaya tontería romper movil . vamos yo me compro un Samsung para romperlo😂😂😂😂,6-2-2021,1
626,><,6.hdv6,,어머 z플립이됬네!! 부럽당^^,7-1-2021,1
627,짝 ♡ 꿍,dahee141,,닉값,6-2-2021,1
628,Yugene Alano,yugene71,,the best talaga kapag samsung🥰🥰🥰,6-2-2021,1
629,MANGO찡,jaejunlee1003,,"별짓을 다해요
2G폰 하나도 못만드는것들이",6-2-2021,1
630,겐지맨,ydzhjgdzhj,,뒤에 있는 애플폰 개귀엽네,6-2-2021,1
631,winiwniw,albedo.pancito,,Quien mas vio el celular anaranjado que se calló atras? ._.xD,6-2-2021,1
632,Thiago Perdomo206,thiagovc13,,@kdc1199 😳,6-2-2021,1
633,제뤼,carmel421,,수동 Z플립인가여?,6-1-2021,1
634,ᴇxᴏꜱᴛᴀʀ_-,baekslays,,Luh kung binagay nyo nalng sana sa akin yan kaysa sa sinira niyo! 🙂,8-1-2021,1
635,VALM 2018,cami___xd,,Cuando a uno le sobra la plata es tipo:,5-2-2021,1
636,Keym,k.m_br,,Huawei better cuz i dropped my huawei i bunch of times it still not broken vs this person i saw she dropped her samsung it cracked,8-1-2021,1
637,Sebastian Arias,sebastians656,,el mas duro es el nokia 1000 ese es carne de perro,5-2-2021,1
638,hshshs,jekaicalugas,,HUAWEI CAN HEART THIS 👉❤️,8-1-2021,1
639,牧パイナップル牧,maesukelove8,,Samsung🤮🤮🤮,5-2-2021,1
640,askyourdad__,urname___,,why dont u give that 😂,8-1-2021,1
641,strawberrygoreng,strawberrygoreng,,@gurvinderbajwa3,8-1-2021,1
642,".,/`👀`\¬¢",543..........2,,No. 😳,8-1-2021,1
643,I,_die_29,,HUAWEI 👉🏼👉🏼👉🏼👉🏼👉🏼👉🏼👉🏼,8-1-2021,1
644,QUEV -THOR,holabuenastardes58,,WEY YO AQUI CON UN CEL TRUCHISIMO Y VOS AHI NOMAS ROMPIENDOLOS COMO SI NADA NMMS,4-2-2021,1
645,snafii,_snafii_,,i will not do that if i were you,8-1-2021,1
646,悲しい :'),gato_elegante_lol,,aaa pero los nokia 😳😳😳😂,4-2-2021,1
647,🌌🌌🌌🌌,its.mestephany,,Samsung kasi cp ko Samsung matagal na to,8-1-2021,1
648,ChUrRoS 👽👍,esmeralda_989_.oficial,,Jajaajajajajaj no es tu video,4-2-2021,1
649,Paula❤️✌️,paulaa_317._,,"todos:wau 👁 👄 👁
yo:ale ya tiene un mobil plegable
😂😂",7-2-2021,1
650,Daniel_Vibes,youneszarou_daniel_1,,Can i have one 🥺 please,18-12-2020,1
651,Aimar Oyon,aimaroyon0,,"🤖El 20 de febrero denunciaremos la cuenta de charli a full. Pibes, caballero y panas este es nuestra ultima jugada. COPIAR Y PEGA",7-2-2021,1
652,nerea,nereikaa_03,,iPhone vs Xaomi,7-2-2021,1
653,Daniiii,daniehhhhhhhhh,,El cliente que dejó su móvil en esa tienda para arreglar viendo este vídeo: 👁️👄👁️,7-2-2021,1
654,SPACE GOLD,spacegold77,,화웨이 약하게 치네,31-12-2020,1
655,»»,envella02_,,Eh visto por ahí un iPhone 12 😏😏,7-2-2021,1
656,vickyvnt39,vicky_nunez07,,si no los quieres dame los 🥺😁🤚🏻,7-2-2021,1
657,☠︎︎,rebeecaa_.07,,SAMSUUUUNG ARIBAA 😌,7-2-2021,1
658,Chit Su Hlaing Tun(Lily A),3112007iceprince,,Samsung🥰🥰,7-2-2021,1
659,: ),oli.ozm,,la cancion 🎵👄🎵,7-2-2021,1
660,아기 후추먀,hayuljang,,"영상찍은놈아 그럼 너는 두껍고 무거운 회웨이꺼 써 우린 얇고 가볍고 편한 삼성폰 쓸테니까 삼성에 불만있냐 아님
부러운거냐",3-1-2021,1
661,신전2021,shoshoni111,,화웨이 아래 삼성.부서진 한국인의 자존심 ㅋㅋ,3-1-2021,1
662,만두,wooyoung0802,,휴대폰 Z 플릿으로 만드는법,3-1-2021,1
663,Sigueme ya!!💣👑,daastynn_08,,No os pasa que ven un coment famoso y dicen wey porque no escribí eso🙁,7-2-2021,1
664,Daniaaaaaa,its_dania12,,samsung sowieso,3-1-2021,1
665,venus,venuslai1,,Huawei is the best 🥰🥰👍☺️,8-1-2021,1
666,영원☺︎,duabua1,,폰이 아깝다면 당신은 한국인,4-1-2021,1
667,250420,jessica.gutieerreez,,@_adriiaanaa y lg tu queriendo un kovil,7-2-2021,1
668,carols,carols256,,me da igual no tengo ninguno de los dos 🤡,7-2-2021,1
669,한예리,uaena2010,,전 삼성폰,5-1-2021,1
670,0_0,y.seo.y,,삼성 광고임??ㅋㅋㅋㅋ,5-1-2021,1
671,Naiara<3,naiara_jukilop,,tengo 1 samsung ya casi cunple 2 años y no tiene la pantalla rota nada anda genial👌🏻,7-2-2021,1
672,CHILL,wh0areyo4,,huawei follows Samsung and apple huawei from:China😳,5-1-2021,1
673,jfsfusitdjx,jfsfusitdjx,,ㅁㅊ..그걸 왜 부숴..,5-1-2021,1
674,수연,sy09_8,,이뤈 풘(?) 애플풴 크쿸 풘이 지이트 제투 플립이 되고 있어요! ㅋㅋ 짝퉁 제에티 ㄴㄴ 제트 플립,5-1-2021,1
675,카도카와,shipduck_anipnida,,이상하다...미다스가 할때는 반으로 안부러졌는데...,5-1-2021,1
676,잼민,user770547491,,폰을z플립으로만드네.,6-1-2021,1
677,틱톡 정신이 부계,songjiyoon02,,z플립 만드는법,6-1-2021,1
678,ß 횬_`,cindy06252,,헐 아니 헐 잠만 아니 저거 HUAWET 인가 뭔가 저거 내 예전 폰이고 지금 폰은 SAMSUNG 인디..?,6-1-2021,1
679,틱톡스타 김춘배,ognenrus02,,저거 구하임 감성폰은 걍 아래로 ㅈㄴ 쌔게치고 저거 다른건 옆으로 침,6-1-2021,1
680,여자,sychopomp,,"팩트:현실에서 저렇게 깨지는게 차 바퀴 말고 가능할까
팩트2:차피 저래되면 둘 다 쓰지도 못하는데 쇼 하고 있노 ㅋㅋㅋ",6-1-2021,1
681,punya kamu,xull05_,,try redmi vs i phone,28-1-2021,1
682,Car/tech/success,i_am_the_boss_07,,Huawei - - - - - - - - 👉,10-1-2021,1
683,jeniiik,honza_hu,,Huawei 🥰🥰🥰🥰,10-1-2021,1
684,Nicole Kobayashi,nicolekobayashi,,And the point is? 😳 Maybe a useless test?😏,28-1-2021,1
685,구름이,jeongdoyoon5,,삼성최고,28-1-2021,1
686,lancelot,sioupa,,et le.samsung marche encore je pari😅,10-1-2021,1
687,CutenaPasaWay,07mayora,,still Huawei lover😍😍😜,28-1-2021,1
688,R.R.ELVIS SEYADORIS,elvisseyadoris_307,,iphone turn,28-1-2021,1
689,Sad Boy,sadboy2341,,"try samsung galaxy A6, 😁😬😂 please",28-1-2021,1
690,mehedihasankhalil🇧🇩❤️🇲🇾,mehedihasankhalil,,Huawei y9 prime,28-1-2021,1
691,yasseryessa,yasseryessa,,true,28-1-2021,1
692,InTp,regi123187,,why comparing huawei (2015) to samsung(2017) model,28-1-2021,1
693,伸びた,user517312738,,Galaxyってデカイのしかないから嫌い,28-1-2021,1
694,Ar M JE,ar_m_je,,huawie,28-1-2021,1
695,🍫🍬🍭,maria_f080,,Samsung forever,10-1-2021,1
696,~conannn,conann37,,bagus bagi aku,28-1-2021,1
697,Chris 562,biggchris562,,Huawei is more plasticky,10-1-2021,1
698,Rovmel Bertulfo,rovmelbertritulnidfoad,,stupid,28-1-2021,1
699,Adrian Chan,adrian_chh,,Try Nokia and see..,28-1-2021,1
700,xenpai✓,hayabusa_xiy0r,,test Nokia,28-1-2021,1
701,Jumende Manayon Traz,jumendemanayontra,,huawei bati kasagaran post dayons fb for sale sabotan ang price,28-1-2021,1
702,❦︎𝕓𝕦𝕟𝕘𝕒ꨄ︎𝕋𝕒𝕟𝕛𝕦𝕟𝕘❦︎,heybyebye4,,Huwawei the best batteries. No lag and smooth,28-1-2021,1
703,Sroan,sroan5,,កុំកាច់ចោលសុំមួយគ្រឿងមក😳😳😳,28-1-2021,1
704,Dofitas Janeth,dofitasjaneth,,You hit Huawei slightly unlike Samsung you hit it hardly,28-1-2021,1
705,JaneB,jmbaylon89,,Lol! As if we didn't notice you hit samsung harder than Huawei 🙄,28-1-2021,1
706,Abjad Hussain,abjad0112,,fack😏,28-1-2021,1
707,Joemar Emor,joemar18emor,,where is your place,28-1-2021,1
708,kolumingyi,kolumingyi,,no same pressure,28-1-2021,1
709,Peter Lynn,peterlynn13,,lol compare prices.,28-1-2021,1
710,4x4 TAKUT LUMPUR 😅,hamba_kereta,,that not what it build for,28-1-2021,1
711,Madara,animedia0002,,OPPO против apple,10-1-2021,1
712,...,cinni_1,,huawei y6p ??,10-1-2021,1
713,Kenneth Peralta,kennethperalta00,,nokia3210 please,8-1-2021,1
714,지현,orange0517,,5초만에 싸구려에서 z플립이 되는 masic,3-2-2021,1
715,Maria fuenmayor🌻,mariafuenmayor_,,los que se dieron cuenta que se calló un cell👉🏻👉🏻,3-2-2021,1
716,視聴者er,yuto1402,,今最新の閉じれるスマホ作ろうとしてる,3-2-2021,1
717,Marivic Aquino,nicole03638,,sayang ng cellphone😂,8-1-2021,1
718,제네비에르🔥,geneviecuizon,,Both,8-1-2021,1
719,?,mxrsc,,Noooooo,2-2-2021,1
720,Mf,keishbaebae,,@jeffreybayno,8-1-2021,1
721,v.200,micorazon2030,,ไม่ได้ซื้อมาหักเล่นครับ,2-2-2021,1
722,Whellan,winaandrewhosainwina,,I'm Huawei 😳😳,8-1-2021,1
723,🔯ᎡtFox…煽り運転1人で逝け📣➕,niji254rt2jfox,,"エクスペリアでもAQUOSでもアイフォンでも壊れる
なんのテストやら",2-2-2021,1
724,user5757784660434,jeanpierre13...0,,el rompiendo celulares y yo aqui necesitando uno,2-2-2021,1
725,Do Kyung Soo,porqteardes.neni,,Los Motorolas son malos y confirmo xd,2-2-2021,1
726,Moira Bejar,irrabejar,,Huawei cp ko😳,8-1-2021,1
727,😁,h910_,,tibay ng kamay mo pre ah😳,8-1-2021,1
728,ㅇㄱ,ykungjin90,,삼성 더 얇고 넓고 빠르게,2-2-2021,1
729,yedong,1300531976jt,,영상을 잘 보세요 ☹️한국 하고 중국산 다 안쓴고 버련다? 자기 미국산 애플만 쓴다는것😡,28-1-2021,1
730,Francis Biason Dinos,kiminotokerito,,HAHAHA dimo naman Pinush ng usto unlike sa samsung,9-1-2021,1
731,뭐요,disjwnqts5,,저거 아깝다면 당신은 한국인,2-2-2021,1
732,Ariane Oranza Taganas,wanghedididi,,Samsung Galaxy original,9-1-2021,1
733,부승관 진심녀,muyaho.10,,이게바로 제가 쓰고있는 제트 플립입니다.,1-2-2021,1
734,Raffi💕,raffi_beauty,,Can you do huawei p30 lite VS Samsung a40? 😁,9-1-2021,1
735,히히하하호호힣힣,s1a0l0l4y,,"근데 이런건 왜 하는거임? 지 나라 제품 자랑할려고?
글고 삼성 휜거 보여줄때 아이폰 하나 떨어짐",30-1-2021,1
736,리치,gjeoofbeufns,,일명:Z플립,30-1-2021,1
737,.,bcw0407240000,,짜피 폰을 사서 저러진 않잖아?ㅋㅋ,30-1-2021,1
738,Harry Do Viet Hoang,harrydoviethoang282,,🖕🖕🖕🖕🖕🖕,9-1-2021,1
739,ᴇʟʟᴀシ︎,_est.ela_,,samsung ang malakas✊✊,10-1-2021,1
740,.,wjddnjs.wnddl,,samsung is the best 😌,30-1-2021,1
741,Josh,controller_playercontent,,But why,10-1-2021,1
742,user2260328688855,kathe01120,,Huawei,30-1-2021,1
743,カヤック野郎,kayakkuyarou,,どちらも信用出来ない国……,29-1-2021,1
744,Leon,arteleonardomarcial,,pos si uno es coreano y otro chino,14-1-2021,1
745,😶,kliao.frases_iz,,yo rompi mi huawei con mi pierna y ahora esta quebrado por dentro pero igual funciona y es como que no le paso nada solo la pantalla quedo fea 😅,18-1-2021,1
746,rose,ry3nk,,Samsung 🥰,14-1-2021,1
747,Hola,.nafmitsuk1,,Yo viendo que se cayo un iphone atras 😳😶,18-1-2021,1
748,Karl Sam Benedict As,karlsambenedictas,,CHERRY MOBILE PADIN SA 2021🥰🥰🥰🥰,14-1-2021,1
749,angeles color,tutoriales_color16,,yo viendo como un aphone se cayó :0,18-1-2021,1
750,Cla,clarinnngggg,,bat mu sinisira sakin nalang😂,14-1-2021,1
751,Yuan,peep_poopxd,,Samsng,18-1-2021,1
752,Caua Miguel,cauamiguel7,,Nokia,18-1-2021,1
753,Faye salih,jemmyfayesalih,,Samsung lang po pwede,18-1-2021,1
754,save_1,sxve_21,,yo siempre hago eso😳,18-1-2021,1
755,user8404218553945,leaxy123,,Samsung,14-1-2021,1
756,Cabb's_19,redjoef,,give it to me🥺,14-1-2021,1
757,Radel Lanoza Ruiz,ptm2021,,Yo quiero saber cuál es mejor para videos juegos,14-1-2021,1
758,Kanao-san,hinatasan_animeweeb,,samsung lol😂,14-1-2021,1
759,Pax,pablexlopez,,no me sirven ninguno de los dos fail,14-1-2021,1
760,Skye / Sakura,sky_ee6,,SAMSUNG,18-1-2021,1
761,ht123,h_f_t_,,porque...los daña....mejor regalemelo...xd,13-1-2021,1
762,Guillen Valencia,sofi_c_v21,,prueba con un nokia porfa,13-1-2021,1
763,Crhea28💛🥺,clairedingal3,,Samsung po,13-1-2021,1
764,gacha moon light 🥰🥰🥰,gracianne_opancia,,dude don't break it just give it too me 😂😂😂😂😂,14-1-2021,1
765,boys👑👑,joaquin03250,,nokia 3310 vs samsung,15-1-2021,1
766,Freeprinky<3,tokyovie912,,samsung🥰,18-1-2021,1
767,Solo fútbol y más 👍😉,jero._football,,Aslo. Con el nokia Intenta no romperte el brazo 😅,18-1-2021,1
768,sibling,earon._.era,,no dont do that🥺😬,15-1-2021,1
769,;-;,edits__anime2007,,"el dueño: Porque mi Samsung está doblado a la mitad
Lo que hizo el señor:",18-1-2021,1
770,✧༺♡༻∞,stdercca,,proud to be samsung user,18-1-2021,1
771,STARLA😶💅,yachi_hitokaxx,,samsung,14-1-2021,1
772,Andrea Joelyn Provido Almoite,andreajoelynpalmoite,,samsung,14-1-2021,1
773,user4101326504101,st.peter_funeral_home,,can I have one?🥺,18-1-2021,1
774,Machi,dfaqq1wefxac16,,My phone is Huawei so my phone is 5 years old.,13-1-2021,1
775,user5330264195142,amo.bbw,,y,18-1-2021,1
776,KESAVA77,kesavamority77,,you think we ediat you do to Samsung hard for huawei softly,14-1-2021,1
777,Wolfy,daewang.mi.flaca,,A juzgar por la gran cantidad de celulares supongo que son celulares que no tenian reparación,18-1-2021,1
778,Moonton,moonton293,,samsung,14-1-2021,1
779,♥︎anime aesthetic♥︎,chloefrancine2,,Huawei,14-1-2021,1
780,꧁𝑧𝑒𝑟𝑜𝑡𝑤𝑜꧂,zerotwo12378,,sayang sana aken nalan yan😂,18-1-2021,1
781,🇵🇭❤,fritztorculas,,Both,14-1-2021,1
782,el tona,ruge.at17,,pero el Samsung no explota,18-1-2021,1
783,S,sofhia_sebatian,,vivo lang malakas,19-1-2021,1
784,👁️👄👁️flopada,edits._.soft___,,😎👺ᵉᵘ ᵉˢᵗᵒᵘ ᵉᵐ ᵗᵒᵒᵈᵒˢ ᵒˢ ˡᵘᵍᵃʳᵉˢ🔪🤡👌🔥,19-1-2021,1
785,Your pretty.,jajaabnk,,samsung🥰,12-1-2021,1
786,Odello Rubierro111,odellorubierro0,,buy phil product...,12-1-2021,1
787,9/5/21,heoo_.79,,someone see phone fall,12-1-2021,1
788,carrie,soyaaaaaaaas,,me dolió el celular,12-1-2021,1
789,P.A.R.B,paolorojasb,,"Tranqui bro, es el Samsung Z Flip, no problem😁",19-1-2021,1
790,𝚑𝚒 !,its.me.mika238814,,huawei🥰🥰🥰,12-1-2021,1
791,Miracel maganda,iloveyoumijoy,,samsung,12-1-2021,1
792,🅒ⓐ🄼🅸𝐥𝒂,camilaejhorleyedits,,Quien quedo mas en shok el teléfono o tu ༼ つ ◕◡◕ ༽つ🍿,19-1-2021,1
793,🚩🚩🚩,_drea.05,,Samsung better 😌❤️,12-1-2021,1
794,꧁🦋ꨄ🅨🅐🅝🅝🅐 ꨄ🦋꧂,besty186,,HUAWEI,12-1-2021,1
795,Chinita,because769,,samsung lang malakas,19-1-2021,1
796,WaLa KaNg JoWa😚💗,min_yn_007,,Samsung🥰,12-1-2021,1
797,Leamme21 21,larkleamme21,,Samung here,12-1-2021,1
798,unknown,yukimizuki2,,Samsung😍,12-1-2021,1
799,Johnrex polan ☺️,johnrex031207,,me not have a phone:👁️👄👁️,12-1-2021,1
800,✝️Albert✝️,0valenciaalbert0,,if you give it to me🥺🥺,12-1-2021,1
801,𝒦𝒶𝓇𝓎𝓎🧸🤍,karenn.cv07,,mamá iré a ver si el técnico me tiene arreglado mi celu...🙂,19-1-2021,1
802,Demian Dael,irenroj4,,mejor danos los celulares no?,12-1-2021,1
803,Bella 🍁,isabellabento41,,"pessoas q ficam mais se 1hr editando recebe 21 ❤️vídeo quebrando celular tem 184.0K
enfim...👍🏻",18-1-2021,1
804,Beatriz,biatriz5970,,pessoas normais: nossa queria tanto o cell novo tik tokers e youtubers: vamo tava esse iPhone 12 por max de uma ponte com 10m PA vê quanto ele quebra,18-1-2021,1
805,Un poco de Edit,unpocodeedit17,,un xiomi 😁,13-1-2021,1
806,𝕁𝕠𝕟𝕒𝕤,theoceantookme,,this dude from china,13-1-2021,1
807,LenOneD 🦋,birdsuam,,Samsung lover,13-1-2021,1
808,Miake Galindo,miakegalindo,,Nmms y yo develando uno 😂😂😂,13-1-2021,1
809,🌟,_mentalidad_damas_,,antes tenía Huawei y ahora tengo el Samsung A10😂,18-1-2021,1
810,la chica chica,la_chicachica,,"La diferencia es que los dos se rompen jajaja😅😅
nada que ver 😂",13-1-2021,1
811,Karla Janina Masaquiza Mora,karlajaninatiktok,,Los que pensamos que el huawei no se hiba a romper😂,13-1-2021,1
812,GERALDINE,arxmali,,y eso que tiene que ver con el cumpleaños de Hwang I yeop,18-1-2021,1
813,쇼백,showback,,화웨이에서 최고폰으로 인정받는 폰은 삼성액정 사용한 폰이예요...,15-1-2021,1
814,<3,queilamlx_,,@analuizaviana6 calma aí que eu vou comer vidro e chorar um pouco ali,18-1-2021,1
815,𖤍𒅒♏︎AZUMI𒅒♏︎𖤍,azumiii6854e,,Yes I'm Huawei user,12-1-2021,1
816,Dhonata Santos,dhon.s_,,morri😳,18-1-2021,1
817,YZARENCE ㅇㅅㅇ,yz00hiy,,Samsung,12-1-2021,1
818,Perfumeria DeluxVal,perfumeria_deluxval,,"tengo el galaxy s10+ un dia habia una moneda sobre mi cama, lo tire normalmente sin fuerza ni nada y cuando lo veo esta encima de la moneda y la parte",19-1-2021,1
819,Angela Mae Bautista,angelabautista026,,ako na naka samsung 👁👄👁,19-1-2021,1
820,Marluce,marluce_oliveira1337,,eu querendo um e ele tá fazendo isso pow mano🥺,19-1-2021,1
821,Neonツ | 🥀<3,this_acc_was_takenbyne0n,,samsung more cool,12-1-2021,1
822,źêŕôťwö,thristanjerzie1,,iPhone red what is down,16-1-2021,1
823,BLue SpikE555🌈🌈🏳️‍🌈,bluespike555,,Samsung lang malakas!😁,17-1-2021,1
824,Princess Rhiane,rhiane12345678910,,huawei is strong,16-1-2021,1
825,BLue SpikE555🌈🌈🏳️‍🌈,bluespike555,,samsung user here!,17-1-2021,1
826,ᅠᅠᅠᅠᅠᅠᅠ,whiteonly3,,nokia is super strong,16-1-2021,1
827,user7303978319428,aimy514,,12 pro max phone,17-1-2021,1
828,TBNR|!CarlGio!,carlgiogotidoc11,,samsung is the the best,16-1-2021,1
829,Almi,alm0___,,con que necesidad?,17-1-2021,1
830,Eliane,elianetueroarias,,y solo para presumir que tiene mesa:/,17-1-2021,1
831,Tw0 Nga Look,twongalook,,𝕊𝕒𝕞𝕤𝕦𝕟𝕘 𝕝𝕠𝕧𝕖𝕣😏,16-1-2021,1
832,Miraculer de corazón🐞🐱,miraculer_cospley,,Comprueba con un Apple,17-1-2021,1
833,Edison Sebastián,painn_z,,y yo feliz con mi j1 mini 🥺🥺,17-1-2021,1
834,bonak,hatdog_kxshin,,no Samsung the best,16-1-2021,1
835,racuyaaaaa👻❤,paulamae018,,Samsung lover heree😌,16-1-2021,1
836,user6642824998022,dagumancharlen2,,samsung,16-1-2021,1
837,hahazki,hjskaigrma,,HUAWEI MY HUAWEI CP DONT BROKE EVEN 1 CRAKE NOTHING IT FELL DOWN IN SECOND FLOOR TO 1ST FLOOR😏,16-1-2021,1
838,Chaicee Delos Reyes,edvibestv,,samsung z flip yarrn?,17-1-2021,1
839,CaptainMiyagi,princellorca_,,Samsung strong,16-1-2021,1
840,sag,ariannetagle,,samsung user👉,17-1-2021,1
841,👻,ayxiav,,"Huawei, Samsung and vivo is better for me",16-1-2021,1
842,heaven💕,soydan6868,,jaja solo que no le dio fuerza en el huawei,16-1-2021,1
843,bounprem,perthsaint138,,samsung is the best you no why you do this why,16-1-2021,1
844,UKRAINE,zyxl.o_,,Samsung I'm Realme but fan of Samsung,16-1-2021,1
845,heart,heartisrael2,,attendance check for huawie user😂😂😂👉👉👉👉👉👉👉❤❤❤❤,16-1-2021,1
846,박채빈,djwjfxlql_072,,단단하면 뭐해 기술이 딸리는데,16-1-2021,1
847,지연 07,shwldus1,,저렇게해서 폴더폰이 생긴건가?,16-1-2021,1
848,✧(｡•̀ᴗ-)✧,yaphascrushonyou,,HUAWEI USERS HERE 😎🥳👉,16-1-2021,1
849,🅟︎🅓︎ _🅑︎🅔︎🅐︎🅣︎🅩︎,pd_beatz,,samsung,16-1-2021,1
850,user4947456084254,rosepilaps,,"samsung 4
huawei 3
lata² hahahahhaahha",16-1-2021,1
851,lotion ni Asmo,sunawarasimp,,wait bakit mas malakas ung pagpupuk dun sa nauna kaysa dun sa isa,16-1-2021,1
852,CTMS•|•INGRID,itsmeingrid27,,all my phones are huawei😳😅,16-1-2021,1
853,Nezuko,____nezuko.kamado___,,kuya sayang akin nalang haha😂,16-1-2021,1
854,lumine main,genshintravelermain,,does no one talk about how strong he is I can hardly open a jar and here he is breaking a phone and yes I liked my own comment,16-1-2021,1
855,Omcimbarabida,wiggle_wiggleforsure,,I'm huawei user🥰,16-1-2021,1
856,အင်နိုးဆင့်,innocent2627,,@jeonjunghyungyuyamoe ဘာလို့ခွဲနေတာလဲ📱 ငါ့ကိုလာပေးလိုက်😂📱,16-1-2021,1
857,Luana De Faveri,awuitadeuwu43,,Se lo hubieran dado a alguien que lo necesite 😔,16-1-2021,1
858,Jerameel Alas Morales,rawranimeteam,,Samsung her 🖐️✌️,16-1-2021,1
859,달,marcneson,,𝗩𝗶𝘃𝗼😂,17-1-2021,1
860,Wilmerson Machaca,wilmersonmachaca,,ahora con un xiaomi,18-1-2021,1
861,Dreamm,smiledreamm,,Q exagerada prueba 🙄 tengo un huawei y la verdad a mi me parece buena se me cayo muchas verdad apenas y la pantalla y tdo sigue igual 🤷‍♀️,16-1-2021,1
862,angel,tasb21,,Eso es un huawei de la serie g verdad o me equivoco?,18-1-2021,1
863,♡santiagoeguez ♧,santiagoeguez8,,contexto del video por favor 🧐,18-1-2021,1
864,Ignacio Ponce,ignacioponce1515,,si quiere que soporte todo esos golpes le recomiendo comprar una piedra 😁,18-1-2021,1
865,userel tata,didier970,,Wawuey lo mejorcito,18-1-2021,1
866,Einer Veintemilla Ro,einer92,,los teléfonos móviles se inventaron para hacer llamadas bueno y demás no para romperlo a golpes,18-1-2021,1
867,Bryanjoel QuitioGuas,bryanjqg1,,"YO VIENDO COMO DAÑA LOS TELEFONOS
YO : 👁️💧👄💧👁️",18-1-2021,1
868,ashleyyy❣🦋,ashleyyy115,,😅samsung po ples,18-1-2021,1
869,@_Kakashi_Hatake,kakashi_hatake_011,,Nokia......,18-1-2021,1
870,H4ruML,y4h1c0,,Xq huawei es d batería interna y Samsung no? Obvio q en ese caso Samsung se rompería facil,18-1-2021,1
871,nadie,exe5952j,,En verda cuál marca de teléfono es mejor 🧐🤔,18-1-2021,1
872,Migrando a Usa,migrandoausa,,andate a l concha,18-1-2021,1
873,Hyper,thomas.bert,,haber un S20,18-1-2021,1
874,IvánDíaz,protohugo,,¿que pruebas con eso? si los SmartPhones no se hicieron para ver cuál resistía más.,18-1-2021,1
875,Patrick Murcia,leon_facherito_4.0,,pon el Nokia😏,18-1-2021,1
876,Damian Ramo,damian.ramos16,,ahi se van como 20 lukas 🥺,18-1-2021,1
877,J ☑️,jessabelracelis,,proud samsung user here🥰,18-1-2021,1
878,Macedo Richard,piemanzana,,Huawei se dobla menos 😅,18-1-2021,1
879,Adnan 🇵🇰,itx._pkadnan,,Plz give me Galaxy Z Fold 2 instead of bending it,17-1-2021,1
880,SHER-TRIS-THAN,sher_tris_than_codm_3rio,,samsung here👉,16-1-2021,1
881,gabgab,gabgabparayno3,,samsung original 😁😁😁😁🥰🥰🥰,16-1-2021,1
882,XxrobloxgamerxX39🔵,xxrobloxgamerxx35,,samsung,17-1-2021,1
883,ALEXA MA3,roscptals36,,Luma na kase yan na Huawei 😅 chaar,17-1-2021,1
884,RosannaSnow 💜,ms.crystalsnow02,,"HUAWEI USER HERE
AND MASASABI KO NASA GUMAGAMIT YAN 😂",17-1-2021,1
885,☬ jake ☬,jake_triax,,akin nalang yan..sayang naman,17-1-2021,1
886,☬ jake ☬,jake_triax,,can you give me that.......,17-1-2021,1
887,dex Gagarin,user70368dex77006,,samsung for me😁😁😁😁😁,16-1-2021,1
888,Alexis Jhoi,alexisjhoimorales,,imagine buying other brand just too try that😂😂😂,17-1-2021,1
889,sht.,hatdggg6,,Huawei user😁,12-1-2021,1
890,𝐏𝐍𝐗||•𝚂𝚡𝚒𝚊𝚗𝚝𝚊𝚕♡︎,parkchaeyoung12334,,sayang yung cellphon dapat bibigay mo nalang sakin pang online class,16-1-2021,1
891,Alguien,happy.girl.7777,,creo que le dio con mas fuerza al samsumg no se,18-1-2021,1
892,Franklin Castro67,franklincastro67,,alos dos se mira que no le echo la misma fuerza,18-1-2021,1
893,Soluciones deco,nuevedoceeterno,,Todo muy normal 😳,18-1-2021,1
894,eunice_1113,eunikilla13,,"La idea es que comparen su funcionamiento, no cual se destruye más rápido",16-1-2021,1
895,Jorge Montoya,jorgemontoyach,,Ya los 2 se rompieron te aplaudo😏😏,18-1-2021,1
896,sidkdhcjsk,mjingli,,if u dont want it u can give me😁,16-1-2021,1
897,BRANDON JARCKIN,brandonjarckin,,un xaomi,23-1-2021,1
898,mandu hits diff.,tiredmanduu,,samsung ah 3 years natong phone ko tipa sira😂😌,22-1-2021,1
899,Nicole Correa Jimene,nicolecorreajimen,,Huawie🥺,11-1-2021,1
900,Se Conectó Ferchu,seconectoferchu,,"Que sentido tiene el video, romper celulares 🤔🤔🤔",11-1-2021,1
901,Walter Quintana489,walterquintana26,,ah pero esos celulares son re antiguos. hazlo con celulares del 2020,23-1-2021,1
902,losdiamantitos1,losdiamantit0s,,f por los que quieren esos celulares 🥺,11-1-2021,1
903,Esneider,_esneider,,que necesidad v:,11-1-2021,1
904,Richard Reyes,richardreyesbo,,que quieres demostrar,11-1-2021,1
905,Benjamin,benjamin.ray,,xq hacer esas pruebas acaso voy hacer eso,11-1-2021,1
906,Yasmin RM,yasvetrm,,¿qué pruebas con eso? ¿a razón de qué el vídeo?,23-1-2021,1
907,kervin,kervin4960,,con Nokia se rompe de primero la mesa,11-1-2021,1
908,Jeralyn Ammadang Lar,lardizabaljeralyn,,proud Samsung user her❤❤❤❤,23-1-2021,1
909,Leanzzz,whois_leandro,,Prueba a un Nokia con una barra de hierro😏,11-1-2021,1
910,Mike mtz,miguelmtz16,,Y eso que?,10-1-2021,1
911,Alondra046,alon0460,,Yo juntando dinero para cambiarle el display a mi teléfono y aquí los rompen jaja,10-1-2021,1
912,Jhon Guillermo Herre,yguille0906,,Hay que ser bien brutos para hacer eso el celular. Huawei tiene la mejor cámara si no lo sabias. Si cuidas las cosas van a durar.,23-1-2021,1
913,....,b.e.n443,,al wuawei le pegó menos fuerte si ps,10-1-2021,1
914,prttyq,altheakyut77,,SAMSUNG,24-1-2021,1
915,niks,niiksss0,,Huawei 🥰,10-1-2021,1
916,Jenlisa is real,jenlisaisreal.bp,,samsung,24-1-2021,1
917,Mathi38,mathi38_9,,cual es la conclusión de el vs???? quien gano????,11-1-2021,1
918,Arima kousie,arima17kousie,,can you do smashing them,11-1-2021,1
919,Willy Marin Balcazar,bmwilly27,,"Entendi, no comprar ninguno....",11-1-2021,1
920,Syrelle,syrellepasion,,Bigla tuloy ako napa isip ng makita ko to😂🤔 Huawei user ako hahah😂😂😂,22-1-2021,1
921,𓍼 ⠀🍓 ⍚⠀k͟o͟o͟𝗸𝗶𝗲 . ⠀曜,seungminfresitarosa,,Yo queriendo un celular y el rope su celular,11-1-2021,1
922,Ancheta ng buhay mo,anchetabrittany,,samsung here👉,22-1-2021,1
923,Pauloruiiz,paulo.rxx,,as con un ZTE esos aguantan,11-1-2021,1
924,Roger Montero,rogermontero4,,y cuál es el objetivo de romper los celulares....creo que ya no saben que más hacer para subir videos,11-1-2021,1
925,JC Ornopia,jcornopia,,Team samsung here👉👉👉,22-1-2021,1
926,Alwin Jay Torres,alwinjaytorres,,Huawei User here👉,22-1-2021,1
927,Gt,telodigosinvaselina,,Ahora con iPhone 😏,10-1-2021,1
928,cristhian,crisht247,,y?? 😒,11-1-2021,1
929,Alexnader HE,alexnader09,,si no los querías me los hubieras regalado,11-1-2021,1
930,Joan Fronda,joan_madrid99,,can i have 1 phone from u ?plsss thanks🥰,22-1-2021,1
931,king Aldridge,aldridgemarongoymaranes,,huawei ano tap?,11-1-2021,1
932,king Aldridge,aldridgemarongoymaranes,,diba samsung top 1 😂😂😂,11-1-2021,1
933,ferrer family,jamesferrer01,,why?,22-1-2021,1
934,Paul Arellano,paularellano0,,ni que yo fuera a romper mi celular xd y además al Huawei le diste más despasio,11-1-2021,1
935,Jared Flores Severic,jaredfloresseveri,,eso que nos demuestra😂😂,11-1-2021,1
936,Weeb,nikkilaidaplatino,,Noooooooooooooooooooooooooooooooooooooooooooo,26-1-2021,1
937,Krull Pereira,krullpereira,,Não sabia que se usava assim 😂😂😂,10-1-2021,1
938,Cayla,cayla_f5,,Me who want a new samsung phone: 👁 👄 👁,26-1-2021,1
939,Ara Mae Ganaban,aramaeganaban,,not funny 😡😡,26-1-2021,1
940,_no_body_,_.only_me._0,,ja która upuściła 3 razy telefon (Samsung) ze schodów i służył mi dobre 5 lat,10-1-2021,1
941,"sooho-,-",hillarieeeeee0,,OMOO WHY DID YOU BROKE,26-1-2021,1
942,☕,shuw_03,,pwede pa ingi😁😁,26-1-2021,1
943,❤️Joyad Kutlusay🤗🥀,itsmejoyad......00,,samsung user here🥰🥰🥰,26-1-2021,1
944,private account,pr1v4tr_,,"Sansung, my phone A71",26-1-2021,1
945,Noel Liquiran,noeliquiran,,WTF? WHY CAN'T YOU SEND THOSE PHONES TO ME SO MY SISTER CAN AFFORD TO GO ONLINE SCHOOL,26-1-2021,1
946,Emi Riso,emiriso1,,Y asi contamina el medio ambiente.,10-1-2021,1
947,Rennie Bhoy Lozano,ryan_ren4,,give me iphone pls,26-1-2021,1
948,precious andanar,preciousandanar12,,me huewei it's may tablet,26-1-2021,1
949,itsme_iimy,justcallme_iimi,,Samsung user,26-1-2021,1
950,jayngi🦋,minjayngi,,Samsung 🙂,26-1-2021,1
951,"""bwakanangshit,",ivyjoy72,,oppo vs vivo pls,10-1-2021,1
952,Nagy Tamás,tomex87,,És most mit kell nézni?,10-1-2021,1
953,E K I M N A Y R B,ekimnayrb,,NOKIA IS BETTER THAN ALL! LOL! 😁😂,26-1-2021,1
954,ror,ashcole_ror,,Im an iPhone user but Samsung is soo much better,26-1-2021,1
955,Lopel Espinosa,lopeliaespinosa,,"Huawei user since 2017, and yet I'm using tiktok app and even can use Google too. wtf",26-1-2021,1
956,ナッテ,kunizushii,,el Huawei es más grueso que el Samsung ;-;,10-1-2021,1
957,Kris,capuccinosweet,,hit samsung harder. tssssss,10-1-2021,1
958,pot pot,atepot,,very hard push for the Samsung.but for the Huawei sligh only..,24-1-2021,1
959,Mary Grace Betaganso,marygrace_1608,,kasayang ba🥰🥰,24-1-2021,1
960,🐘,marti_valdivia_,,Nadie más se dio que ya que el iPhone naranja de atrás se cayó 😳,10-1-2021,1
961,thu maldito 🥷🖕👿,_v_off_,,esos teléfonos se lo pudieron aver comido los niños de África 😠,10-1-2021,1
962,Vaness@07,vanessapable,,Oppo at vivo naman po,24-1-2021,1
963,Kevin,kevin.2602,,Nokia vs Lenovo,10-1-2021,1
964,nsndnd,jjzbxndn,,já não ouvia está músicas a uns mil anos ksksksks,10-1-2021,1
965,🤎Ecpeps🤎,bangsss003,,mas strong po yun nag bend😁,10-1-2021,1
966,Cusy Azucena Rios,azucenacusy,,Ambos se doblaron... Cual es la diferencia???,11-1-2021,1
967,gnzl35q,gonza35q,,de reciclaje con nuevos no lo haría,24-1-2021,1
968,Kubson,kubsonik2911,,to dajcie takiej samej szerokości.i wielkości samsung i huawei a nie 😁,10-1-2021,1
969,ユニコーンピンキー350,rarys81,,ohhhh sheat,25-1-2021,1
970,na vajon ki?,beracskiva,,ő ezelet szét töri nekem meg majdnem 3 havi fizum hogy megvegyem,10-1-2021,1
971,Samir Danger 23,samirdanger23,,A perro un z flip,10-1-2021,1
972,keth,keth_ml2ndacc,,samsung,25-1-2021,1
973,𝙻𝙴𝚅𝙸 ♔♤,sofiea132,,oppo user 😂😂😂,26-1-2021,1
974,@sofiakarchova,sofia_karchova,,skús nokiu😂😂😂,10-1-2021,1
975,?,krzy_self._,,ガゴカポタ,19-1-2021,1
976,Cristian Suazo,cristiansuazo5,,no le hechaste ganas al Huawei,12-1-2021,1
977,Zulay Janett,zulayjanett,,Prefiero huawei,12-1-2021,1
978,leosar 33,notleo33,,apple shitters left the chat 😏,19-1-2021,1
979,vladi del carpio,vdelcr,,cómo puedo ver mi Huawei y Samsung no aguantaron la prueba lo que significa una cosa muy cierta esa prueba sólo sirve para romper celulares,12-1-2021,1
980,Ángela Pachon,fer_saku16,,aquí la pregunta cómo tiene tanta fuerza para romper eso,12-1-2021,1
981,■☆♢JOS€♢☆■,josemanuelvelez21,,"el Samsung adiós
el hawei ya vali😅",12-1-2021,1
982,Jhonicca Angus,_kakay_123,,wow pahingi nalang yan 😅😅 sana all,19-1-2021,1
983,?,krzy_self._,,Kと,19-1-2021,1
984,RoseZ,roseth7891,,No recibieron la misma fuerza de contacto,12-1-2021,1
985,MadeGonMi,madgo25,,prueba con un Motorola,12-1-2021,1
986,Aldair Guerrero (U),aldair_97_bikers_ica,,que significa esto bro porque lo hisistes,11-1-2021,1
987,🤗malakas🤗,miniebingayen,,"I've trusted samsung a lot
....",11-1-2021,1
988,Wyldeeee,czartsch0,,people in comment section talking about software of a smartphone 😌,19-1-2021,1
989,user6835257679220,will.118,,y quien día los hace eso con un celular 😂😂😂😂,11-1-2021,1
990,Geovanny Francisco,geovannyfrancisc2,,oye bro si no quieres esos seculares regalamelo😅😅😁,11-1-2021,1
991,Brad Marro,bradmarro23,,mejor regalame uno 😞 yo no lo voy a romper Haci,11-1-2021,1
992,𝕮𝖍𝖗𝖎𝖘𝖙𝖎𝖆𝖓,linksys777,,"Aun asi, el Samsung le costo. El Huawei se rompio altiro. Solo la pantalla fue mas flexible.",11-1-2021,1
993,Cayan Barbosa,cayanaugustobp,,tu tem fabrica de cll pq isso e caro mds o bixin e caro,11-1-2021,1
994,o_menz,mabel...o_menz,,conclicion si no cuidas se dañan los celulares o más claro si te roban no importa la marca,11-1-2021,1
995,mrtix,mrtix_tinin,,"si así se prueban los equipos tecnológicos, para la otra voy a llevar un martillo y ver cual no se rompe 🙄",19-1-2021,1
996,Elmataabuelas3000,fr4nx_god,,"yo sacandome lao ojos para no sufrir
🕳️👄🕳️",12-1-2021,1
997,user5402894787599,user5402894787599,,En el Samsung le das con más fuerza,12-1-2021,1
998,stephanie skok,memin_gamer_pro,,un Nokia resiste mas,12-1-2021,1
999,stephanie skok,memin_gamer_pro,,con razón mi teléfono nosé rompe,12-1-2021,1
1000,Richard Vidal Olaya,richardvidalolaya,,con razon me dura este huawei ase 8 años jaaa,19-1-2021,1
1001,Fernando,fernandowisum0,,no rompas mejor demelo ami xd jjj😁,19-1-2021,1
1002,$£k@¥,anthonysekairiver,,yo rompí así mi p9 en una borrachera jaja 😂😂,12-1-2021,1
1003,reyland,mr.pogiii0,,plssss can you give me 1 samsung galaxy,12-1-2021,1
1004,user3597111982625,gaslu15,,pero nokia xd,12-1-2021,1
1005,savannah ❤️❤️,piyang292,,Samsung,20-1-2021,1
1006,AIRA,nope.airaaa,,SANA ALL SINASAYANG NA KUNG AKO NIYA ITATAGO KO NA LANG 😪,19-1-2021,1
1007,Maribel Ramos Alvine,maribelramosalvines0,,sw pasan enserio,12-1-2021,1
1008,mauricio_11,mauricio_115,,samsung es el mejor,12-1-2021,1
1009,11,axelghost_0511,,Samsung va hawuiei pero P20 lite como 3l que tengo,19-1-2021,1
1010,Vhon mark,vhoncalangian,,samsung lng malakas,12-1-2021,1
1011,Orlando Aguirre,orlandoaguirre07,,igual los 2 celulares se jodieron,12-1-2021,1
1012,k.10.,kevin.10_.._,,menos un seguidor alguna s personas trabajamos mucho por conseguir un celular económico y tu los romper como si no costarian,12-1-2021,1
1013,Teran Callejas Dennis,brayamteran,,naaa Samsung es basura,12-1-2021,1
1014,mhel bernal,mhelzbernal26,,not the same effort,11-1-2021,1
1015,:v,606_uwu_707,,Eso es verdad 👀,11-1-2021,1
1016,@dkacrushngcrushmo💔,alvinfrancisco28,,𝕙𝕦𝕒𝕨𝕖𝕚 𝕚𝕤 𝕧𝕖𝕣𝕣𝕪 𝕤𝕥𝕣𝕠𝕟𝕘 𝕓𝕖𝕔𝕒𝕦𝕤𝕖 𝕞𝕪𝕡𝕙𝕠𝕟𝕖 𝕚𝕤 𝕓𝕣𝕠𝕜𝕖𝕟 𝕓𝕦𝕥 𝕚𝕞 𝕦𝕤𝕖 𝕚𝕥 𝕦𝕟𝕥𝕚𝕝 𝕟𝕠𝕨🥺,21-1-2021,1
1017,Magallanes,1920bukojuicerosessss,,I'm sorry I like Samsung than Huawei.,11-1-2021,1
1018,me ayudas a llegar a los 1M,mariana_suculenta_roblo,,Huawei,11-1-2021,1
1019,Daniel Tuscha,danieltuscha,,Ich frag mich warum hat es macht,11-1-2021,1
