,Comment Number (ID),Nickname,User @,Comment Text,Time,Likes
1,..... ---..,.....___..e,,lmao know this 1 year ago lmaoo,15-1-2021,229
2,Frossty,frosstythefish,,its not a hack,14-1-2021,71
3,👑King of Obito👑,king.of.obito,,wiso denkst du das das auch in der pack ist,15-1-2021,20
4,me,costelcegolea,,or just get a Bluetooth mouse,25-3-2021,6
5,Ya boy,mqnoah076,,Lmfao I knew this 3 years ago I did it on my Samsung Tab A6,15-1-2021,32
6,IgorK,igork1981,,Where can I order this !?,14-1-2021,33
7,Thatrandomtechguy_fun,technic_07,,On iPhone you can use a Bluetooth mouse. Could be that you can do that on Android too.,14-1-2021,7
8,Paul Bruquel,p0ly24,,I have a iPhone,14-1-2021,9
9,erik_s2,erik_s2,,Gibt es schon lange,16-1-2021,4
10,Marcel,user9191789alakyla,,fällt dir aber früh auf samsung macht seid über 4jahren die USB Adapter rein hat sogar mein altes s8 aus dem Jahr 2017,16-1-2021,4
11,callum mackie,subaru.is.best,,"you can get hdmi, 2x usb and type c. 1. connect dex to monitor (hdmi) 2. connect keyboard and mouse 3. charger. pc with your phone!",15-1-2021,3
12,Mr CHICKEN,most_memes_idk,,Wait what,15-1-2021,1
13,Tejo289,tejo289,,You can do the same whit a controler Just download a octopus app,23-1-2021,1
14,꧁𝙲𝙷𝚁𝙸𝚂꧂,chrisi_482,,"Jetz erst bemerkt, da steck ich immer Controller an",22-1-2021,2
15,GEJODEŠ FŔST,andro_debilko,,Is OTG support lmao,16-1-2021,1
16,@danihun0,danihun0,,no heck,23-3-2021,2
17,Herobrine17041-final,herobrine17041,,i have an bluetooth mouse and it work on my phone,19-1-2021,2
18,s̸w̸i̸p̸e̸ c̸l̸a̸p̸e̸d̸ u̸,notswipejr,,lmao i know that😂,16-1-2021,1
19,We dont want American fatsos,whatdoyoumeanbyuser,,apple?,15-1-2021,1
20,aguyinblackshirt,aguyinblackshirt,,really?,30-1-2021,1
21,chapandchap,chipandchap4,,Alswenn,28-1-2021,0
22,mert,jokerbeymen,,@_xxberkproxx_ 🙄 trqbva da probvam,22-1-2021,0
23,.,szes6dziewie9,,podlącz jeszcze klawiature,15-1-2021,170
24,⠀ ⠀ ⠀ ⠀ ⠀ ⠀,_.strimpakoss,,από πού το παίρνεις;,22-1-2021,22
25,BPAUL2908,bpaul2908,,"știați că dacă conectați controllerul de PS4 la un telefon Samsung, și dați cu degetul pe touch pad. va funcționa că un mouse",15-1-2021,33
26,cd plays,f1_clips133,,@petrospits56 @mixalisvitaaa ooo ωραιο,16-1-2021,18
27,:),roby.hvh,,"Ba io in momentu asta eram cu mouseul pe tel
Lol",16-1-2021,37
28,Cs,mdm8w,,Co je na tom hack?,15-1-2021,21
29,Grzegorskin,grzegorskin,,kiedy kolega mówi masz nie dotykać ekranu,16-1-2021,57
30,gta_my_life,_lure_,,istruzioni poco chiare il telefono subito dopo aver spostato l freccia si è spostato sulla finestra ed è caduto,21-3-2021,7
31,'O̷͖͈̞̩͎̻̫̫̜͉̠̫͕̭̭̫̫̹̗̹͈̼̠̖͍͚̥,treter.ur,,na és ezt ki nem tudta 2021-ben?,16-1-2021,39
32,"Advanced Developers, Inc",advanceddevelopers,,Déjà essayé depuis l'existence des dinausaures,15-1-2021,32
33,.,cok_ciddiyim_ad_yok,,aradığın türk yorumu benim,16-1-2021,6
34,Napewnoniezgadniesz,_napewnoniezgadniesz,,polska działa ?,17-1-2021,12
35,Minimum,minimum_7777,,xD kidos się dowiedział że można podłonczyc,16-1-2021,39
36,Karel,kareldragonn,,to ví snad každý...,16-1-2021,48
37,Nn mi ricordo il mio nome,pido104_stumble,,Sono il commento italiano che cercavi😌😌,16-1-2021,21
38,Patz Dil,patzdil,,το έχω κάνει,19-1-2021,12
39,Pongrác Ferenc,ferencpongrachunor1,,az a baj hogy ez nem igaz,15-1-2021,13
40,I Hate This,stellingvandedag,,bruh dat weet echt iedereen. 😐,17-1-2021,10
41,PETR_PAČAJ,pacaj_petr,,Kde to můžu koupit?,16-1-2021,7
42,cosimo2006,cosimo062006,,lo sapevo gia 😌,22-1-2021,6
43,EXE likes anime,exe_is_baka,,"lo compré y en realidad era un chip, ahora un mono morado aparece en mi pantalla y no quiere salir. reinicié el teléfono de fabrica como 10 veces pero",22-1-2021,10
44,🇪🇸🤝🇫🇷🤝🇮🇹🤝🇹🇩🤝🇵🇹,_alex__rs_,,d'accord mais pourquoi ?,15-1-2021,6
45,𝙩𝙞𝙝𝙚𝙧𝙤𝙩𝙞_gaming,tiheroti_tiktok,,widziałem już dawno,16-1-2021,6
46,Gabi fs,gabifs56,,wow nie wiedziałem wiesz odkryłeś Amerykę,18-1-2021,5
47,🗿,kolbaszkarszon,,Ilyen egér van a sulinkba xd,16-1-2021,5
48,Dawid Olejnik,dawiddawidolejnik1,,pov:gdzieś to zgubiłeś😂,18-1-2021,4
49,Ignore me,ak.s_2,,Δεν είναι καν χακ,22-1-2021,4
50,mfz,mmahfuzh04,,itu buat hp yg touch screen nya error,10-2-2021,4
51,Ionut Daniel,ionutdaniel561,,muzica trg,16-1-2021,3
52,🇹🇷,kyoukopcs,,dat hep ik al,15-1-2021,3
53,KajaHen,kajahen_minecraft,,"zkoušel jsem to a šlo to, ale je to k ničemu",16-1-2021,3
54,esat_0303,esatproturk03afyon,,dat wist ik ook 😏,15-1-2021,3
55,1+1=1,ardiantono09,,indo sendiri,27-1-2021,2
56,Joey Bouws,joeybouws,,Zijn er mensen die dit nog niet wisten? alle usb aangestuurde apparaten kunnen zo aangesloten worden,18-1-2021,3
57,RealErenOriginal,realerentr,,pov: 1 yil once bilinen şeyi bulup hack yaptim saniyorumdur.,16-1-2021,2
58,Mr. Zentorno,mr.zentorno,,Primitive 😂😂😂😂😂,30-1-2021,2
59,シREPULSEシ,repulse_1,,А к айфону можно гейпмад подключить,14-1-2021,1
60,Danilo,danilosktol,,Nederlands?,11-3-2021,1
61,"Russia,China vs Ukraine,Taiwan",help_ukraine_and_taiwan,,hej kdybych tam hrál Standoff nebo COD mobile stačilo by klikat na myš abych střílel?,21-3-2021,1
62,Stil ❤️‍🔥❗,real.stil7,,Nici ca nu știam 😳,16-1-2021,2
63,наушники,arsbuber,,що за хрень вже всі знають😵,15-1-2021,1
64,Im Gonna be a star💅🌟,rzzsyy,,@cvltera bang namanya apa bang,15-1-2021,1
65,spierdalaj,szymixx4,,bateria rip,16-1-2021,1
66,Mr CHICKEN,most_memes_idk,,What is the name,15-1-2021,2
67,Król Złoty,znasz_mnie777,,gdzie to można kupić?,16-1-2021,1
68,Mr. Zentorno,mr.zentorno,,Ismerem már rég,30-1-2021,1
69,Rick2000,rick2000115,,You can do this with any iPhone Bluetooth,14-1-2021,1
70,NassGeek 🥷,nassgeek.exe,,qui le savait déja lève la main ✋,27-3-2021,1
71,Mały miki,bartoxiosmm,,Ja już to wiedzialem,25-3-2021,1
72,Geometry Dash,the_m373,,ezt mindenki tudja de ez mióta hack???,22-3-2021,1
73,oi,reizinhodojogo2,,"adaptador otg não funciona no usb-c, o usb-c encaixa dos dois lados porque elenão tem o negocinho branco la dentro",30-1-2021,1
74,XatzTheTech,_michael.xatzthetech_,,@a.katri.___ @_karvelaas Είναι τέλειο το έχω κάνει και εγώ,23-1-2021,1
75,.,p.opa.nd,,am conectat odata o tastatura si un mouse la telefon,22-1-2021,1
76,KoHoZoNo,kohozono,,"to nie hack, telefony, przynajmniejsz większość mają to wbudowane, mój brat podlączał pada od ps4 i działało xD",19-1-2021,1
77,michalek,michalxxxxxxxxxxxxxxxxx,,"to vie každý ja to používam a tu redukciu dostanete k
mobilu
samsung",19-1-2021,1
78,baguette magique zbi,im.a.baguete.magique.wlh,,Les 2010 : eH mAiS jE vAiS pouvoir jouer à fortniteeee,17-1-2021,1
79,LUPO LUCIO,lupolucio6,,@xsaitamax0 aiutami a cercare un adattatore😂😂😂😂,21-3-2021,1
80,Hi,.mwahcr,,Hoi,2-2-2021,1
81,ꪖꪀꫀ𝘴ꪖ,anesqq,,hehe,22-1-2021,1
82,😇💪🏽Toma Ispas✌🏽🤩,toma_ispas,,Merge😳,15-1-2021,1
83,cocomilk,givemecocomilk,,yoi can also buy al bluetooth mouse,14-1-2021,1
84,Bartastoziomal,bartas_toziomal,,działa,27-1-2021,1
85,hovorkova145,hovorkova145,,OMG😏,22-1-2021,1
86,да йды ты,ha_netikiu,,@roblox_fan1327 omggg,18-1-2021,1
87,Matias Salas,robotin_valezka,,Nice,14-1-2021,1
88,tiktok.com/,karszo123_gtaiv,,sau cu cablu otg[]©,21-3-2021,2
89,yoramlimbourg,leeuwtjes2,,Hoe heet dat ene stukje,5-2-2021,1
90,user8271592764167,anhbequadia,,where i buy that?,30-1-2021,1
91,𝕙𝕚! 𝕨𝕖𝕝𝕔𝕠𝕞𝕖! シ︎,corine.cc,,Nederlander 😏,15-1-2021,1
92,@danihun0,danihun0,,magyar vagyok xd,23-3-2021,1
93,Mateja,mateja_jede_siptare,,I have this thing omg,22-3-2021,1
94,Im romanian btw😮‍💨🤌,duckzzz.__,,It worked tysm,21-3-2021,1
95,De todo un poco🤓,de.to.do.76,,dónde se compra eso??,18-1-2021,1
96,⚡ROHLÍK⚡,prosterohlikczxd,,jasně každej má random bezdrátovou nabýječku,16-1-2021,0
97,🕊️Vͥꪖsͣy̶ͫ🇷🇴,baby.sad._,,bă eu la 7 ani mi-a dat o tastatura fratele meu că avea altă și bă tastatura cu tabletă mă jucam Minecraft atunci 🥺,16-1-2021,0
98,sono un otaku check,giovisupergamer2000,,li sapevo,21-3-2021,0
99,jaimee_12,jaimeee1206,,Mencionemos todos a @peterdelag,21-3-2021,0
100,sabino.lorusso.2006,sabino.lorusso1,,lo sapevo già,31-1-2021,0
101,aggelosselimis,aggelos_selimis_07,,Αυτό το καλοδιο το έχω και αντί για να συνδέσω το ποντίκι συνδέω το τηλεχειριστιο του ps3 μ,24-1-2021,0
102,Jura Sebalj,automarket12345,,adapter,22-1-2021,0
103,ja_jsem_rick,ja_jsem_rick,,hej tu sviňu na USB do mobilu chci už dlouho kde to jde koupit ?,18-1-2021,0
104,deku.exe,deku.exe5,,eu já fiz,18-1-2021,0
105,Kacper <3,kkacperv,,To nie Hack,17-1-2021,0
106,𝗠𝗮𝗿𝗰𝗲𝗹𝗲𝗸,marcel.gg9e,,szybki jesteś 😳,17-1-2021,0
107,RAY FEX,rayfex2,,Co to je když jsem to věděl už tak před 4 rokama😂,16-1-2021,0
108,Ionut Daniel,ionutdaniel561,,plis muzica,16-1-2021,0
109,Kaj_-,kaj1.1,,bestaat die ook met 2 sloten voor toetsenbord en muis,17-2-2021,0
110,Mand Official,qbmendy,,bisa juga pake keyboard + mouse,3-3-2021,0
111,R.A,r.a_857,,beli nya di mana,10-2-2021,0
112,Izan,_izan_bg_,,ya lo sabia,21-3-2021,0
113,Álvaro Dash,alvarorab,,procesando...,21-3-2021,0
114,･ᴗ･ᵍ𝚘ᘜ☁︎𝕞ᵒⒹ︎𝕖(ツ),k_y_r_i_l_l_o_s,,ego otan ta ekana auta den eiparxatai,22-1-2021,0
115,pisze_sie_XD_a_nie_Xd,lubie_cie_21155,,xddd ja to wiem od kąd mam samsung s8 czyli już rok bo miałem to w pudełku,17-1-2021,0
116,koviubi,_kovi.ubi_,,ezt már ezer éve tudom,21-3-2021,0
117,🗿,deadlymate,,anche io ho quella stessa schermata del samsung galaxy a51,21-3-2021,0
118,dikkepaap gt,dikkepaap,,lol toetsenbord op he telefoon doen,11-2-2021,0
119,user907451331896,kaikbeneenmeeuw8,,ik heb de selfte telefoon,5-2-2021,0
120,I am Nutzu😏,nutzu_8,,la mine tot merge,22-1-2021,0
121,\8/,dripfabiann,,To jest oczywiste xdd,18-1-2021,0
122,Perry l'ornitorinco,perryofficiale,,e quando devo andare fuori?,21-3-2021,0
123,panter girl,the_dope_edits_official,,Kan ook via Bluetooth btw,21-3-2021,0
124,Чеко топ,300flashbacksperlap,,чего блин???,30-1-2021,0
125,Brak Nazwy,ksawwer,,ja przez bluetooth podłączam sobie pad od ps4 do telefonu 😏,27-1-2021,0
126,.,formula1._.racing,,eu care nu am mouse cu fir,23-1-2021,0
127,Matěj Horvath,user_idkwhattotype,,teď stačí jenom klávesnice,21-3-2021,0
128,Playstation Stream,playstationhome,,funguje to tak i playstationem? 😁,21-3-2021,0
129,no,teak_mad_on,,NEW PC GAMERS😂😂😂,21-3-2021,0
130,"black.ninja,77",black.ninja77,,i have this,21-3-2021,0
131,123klonek,konieczmoimbratem,,Boże serio on dopiero się o tym dowiedzial,21-3-2021,0
132,everything here,yeeted_cat1,,wow😳😳😳😳😳,21-3-2021,0
133,Valentino Blanchet,valentinoblanchet,,quién no sabe esoooo,21-3-2021,0
134,.,the.claudiu1,,iphone cf ???,21-3-2021,0
135,NCM,nocopyrightmemes,,u can also do this with a ps4 controller touchpad,21-3-2021,0
136,Васил,vasil123455,,apple 😐,21-3-2021,0
137,nissan.skyline.r34,kapitan_gier,,z padem od ps4 też można mieć kursor wystarczy na tą płytkę poruszać,21-3-2021,0
138,Fariiiiid!,alfattah_farid2010,,serasa windows,20-2-2021,0
139,☹•mengikuti,johor759,,Otg,7-2-2021,0
140,lolp86,lolp273,,everyone know this,7-2-2021,0
141,PVP clicker,pro_pvp_balkan,,dje da kupim?,3-2-2021,0
142,user937347173008,jsvm3576,,Hey nl,3-2-2021,0
143,pasca1010,pasca1010,,Ik already know i have that.,1-2-2021,0
144,Azøü,alou02sow,,So nice,1-2-2021,0
145,Brigita Mikalauskait,netavo.reikalas0,,It's work😁,30-1-2021,0
146,✨🇼🇫,hoangke39,,uk,30-1-2021,0
147,私は上司です,notreduz,,o stiu,29-1-2021,0
148,Mów mi Okka:)),okka_ja,,@_kazumi.san._ to działa😳,28-1-2021,0
149,︎,mupo_,,dont work on every phone,27-1-2021,0
150,Zeid.the.king,the.zeid.brain,,i do that with joistick,27-1-2021,0
151,carretero ☑️,carreteroserver,,For Infinix is not working😌,27-1-2021,0
152,POWER IS TRUTH,russia_uraaa.a,,best way to drain you battery,27-1-2021,0
153,VB,v.bashew,,OMGGG HOWW,26-1-2021,0
154,Do lobby,motocross_049,,To vím,25-1-2021,0
155,PG:master,kailulovak,,to mám taki,25-1-2021,0
156,user6937827434562,65johny_a_volvo,,Ještě klávesnice a setap na cesty na světě,24-1-2021,0
157,%UserModule%,l1acker,,really? you can do this whith a controller too :),24-1-2021,0
158,🙊💋,_brigitaa.f,,woww,24-1-2021,0
159,daneBOSS,daneboss8,,"I know for this 2y ago, because i shoot my tablet with hand and i go use my comp mouse on tablet too",24-1-2021,0
160,ölio,lkuniu5,,People who don't have OTG-support: 👁️💧👄💧👁️PS: I do btw,24-1-2021,0
161,XD_Games,xdgamesyt2548,,jakoby to nikdo nevěděl,23-1-2021,0
162,zach,zachossss,,Έλα δεν το ξέραμε,22-1-2021,0
163,romo 76,lolkolol123,,to vie kazdi debil,22-1-2021,0
164,𝙷𝚎𝚗𝚍𝚢𝚍𝚊𝚜,das2516,,Do honor,22-1-2021,0
165,\8/,dripfabiann,,Ja to mam,18-1-2021,0
166,Kuba198516,kuba198516,,ja tez mam,18-1-2021,0
167,benjamingesquiere@,zotttee,,i have one plus 5 t,17-1-2021,0
168,𝑮𝒂𝒗𝒐,gavo_tt,,This is otg cable,17-1-2021,0
169,.................,sto_posto_bosanac,,Omg its work,17-1-2021,0
170,Szponder,szponders,,where but?,17-1-2021,0
171,Lozo,lozo004,,I knew this when i was 10,17-1-2021,0
172,AN!TY 《T!NA》,anity_official_,,nice🥰🥰,17-1-2021,0
173,jeet dave,jeetdave34,,I have the same phone lile you it is Samsung galaxy note 10😏,17-1-2021,0
174,M!loTheK,myloka_.hun,,ezt már 1milliószór csináltam,17-1-2021,0
175,Toenail1111,0ypg,,or just get bluestacks...,16-1-2021,0
176,Toyotasprint,toyotasprint,,i already know it I use it at the samsung S5 too,16-1-2021,0
177,"I'm just a pentester, okay?",a_pentest3r_more,,Soong Name?????? Please,16-1-2021,0
178,Zxc,online_games_,,i know,16-1-2021,0
179,znxfyy,znxfyy,,huba usb trzba i przejsciówe na monitor i podłącz monitor klawe i myszke włącz gre i graj na nowym kompie,16-1-2021,0
180,𝓙𝓾𝓵𝓬𝓮<3,hehejulce,,i know this,16-1-2021,0
181,PAMKENAS,kimbiras,,but why do it?,16-1-2021,0
182,Valerio Longobardi,longobardo_08,,Function also on iPad,16-1-2021,0
183,TT!G3R -_-,rkio3,,ja wand je een muis mee die ook nog eens met kabel is terwijl er al muizen zijn zonder en daar bij ook nog onhandig mee nemen,3-4-2022,0
184,nigamon69,nigamon50,,is not hack,2-11-2021,0
185,user2435589661901,384_jon,,Y would I ever need this😂,22-6-2021,0
186,Mas A,rdhobarrr,,[tidak],29-5-2021,0
187,$$$,aymeric_lrd,,C'est quoi le truc que t'as utilisé stp,30-4-2021,0
188,filipwinter388,filipwinter388,,baszmi telefin,27-4-2021,0
189,sjshd,niceguy_12345,,cái kết nối đó tên gì vậy,12-4-2021,0
190,Bajic,anime_meme_bajic_333,,Lmao,11-4-2021,0
191,mwamba,mwamba231,,i forgot😳,11-4-2021,0
192,Nico_cristian,nico_cristian2,,eu stiam de mult si cu jeoistic de ps 3 merge eu lam facut calculator,10-4-2021,0
193,soba,s0baaaa,,สายOTG,7-4-2021,0
194,コーラル,coral.ini,,Hackでも何でもなくて草,7-4-2021,0
195,🅐︎🅝︎🅐︎<3,softy...girlsss,,@dance_dance97 😳😳 what,6-4-2021,0
196,Dulguun,kilersolo,,pubg,6-4-2021,0
197,Mr.senki,xvi_lajos,,én ezt már 2018-ban is tudtam,6-4-2021,0
198,Konstantine Koberidz,konstantinekoberidze,,[wow] [woow],6-4-2021,0
199,🖤Aniko🖤,__aniko_,,what is name??,5-4-2021,0
200,Windows insider: Simone 👨‍💻,orlandini_simoneeeee,,LO SCOPRE ORAAAAA 😂,5-4-2021,0
201,na_aa32,na_aa32,,plz tut for keyeboard,4-4-2021,0
202,ishow.speed,ishowspeed132572,,it's accutaly work,4-4-2021,0
203,عبودي,glxu63,,ما يحتاج فار تقدر من جوال,4-4-2021,0
204,nicollas_haiduk,nicollas_haiduk,,hack todo mundo faz isso lkk,3-4-2021,0
205,offical.romer,offical.romer,,i try😳,3-4-2021,0
206,Magali Von Schmeling,magalivonschmeling,,Ahora solo me falta el mouse,3-4-2021,0
207,AJ,aj_tiktoklah,,Woaa,1-4-2021,0
208,Car edit🤍,il._.tm_italiano_,,fallo con la tastiera si gioca meglio,1-4-2021,0
209,⠀⠀⠀,fire_ball039,,slow pls,1-4-2021,0
210,「 • _-𝙈 𝙐 𝘼 𝙕 𝙀 𝙈-_ • 」,m.u.a.z.e.m,,but on landscap the pointer not showing,1-4-2021,0
211,.,__siu_._,,i have it,1-4-2021,0
212,Alisha Gayle,alishagayle1,,Love your work,31-3-2021,0
213,hek,user00936013,,ok,31-3-2021,0
214,user6378877851070,kostas._7,,το έχω κάνει 🥰🥰😁😁,31-3-2021,0
215,Sara,yes.or.no.game18,,i have it too,30-3-2021,0
216,user148931975691,konjitmengestu76,,so old method😂😂,30-3-2021,0
217,A.S.M,tnals4682_love,,ㄹㅇ???,30-3-2021,0
218,woabit.exe,._zxccxz,,sorry i know that,29-3-2021,0
219,Gosia i Marek,choosinglily157,,gdzie kupic to cos zeby weszlo do telefonu,28-3-2021,0
220,NAGY_Toth,nagy_toth,,Ezt már nagyon régen ismertem,27-3-2021,0
221,Zazaremix,zazaremix,,i know this since a year ago,25-3-2021,0
222,martin kuca,martin_kuca,,Hledám. Myš mám hledám tu věc která měto povolí strčit do mobilu nemám do pp😂,25-3-2021,0
223,ArtFull,tiktok_fork,,Эта штука разрежает телефон и он виснит,25-3-2021,0
224,Mertyn_12,mertyn_12_,,True?? 😌,24-3-2021,0
225,💪PETIKE💪,peter_682,,ezt ismertem,24-3-2021,0
226,...,nodirbek25_,,я который давно знал и давно проверил,24-3-2021,0
227,Love._,..dsmp._fan._,,mam podobny telefon tylko Samsung Galaxy M11,24-3-2021,0
228,A,x_queyoo_xx,,pada jeszcze,24-3-2021,0
229,Planes29,loveplanes29,,i have to try that,24-3-2021,0
230,Jeseejesee 2,jeseejesee2,,I can go in a game... people think I'm actually playing on a computer,23-3-2021,0
231,Jeseejesee 2,jeseejesee2,,samsug,23-3-2021,0
232,🛴,csh_tms_999,,ez igaz,23-3-2021,0
233,------,kiemon880,,Łał jakbym niewiedział,23-3-2021,0
234,Kamil Michalik609,kamilo384,,gdzie to można kupić,23-3-2021,0
235,Bro?🤨📸,narut0r,,qual o nome desse negócio aí?,22-3-2021,0
236,George,geopisika2022,,Ba foarte tare!!,22-3-2021,0
237,Mariel,xxprepyaestheticxx,,"Look, I know that because I connected my Bluetooth keyboard there so the dum me tried that out and it did work (fells like I got copied JK JK)😂😂",22-3-2021,0
238,OPREA DAVID SEBASTIA,opreadavidsebastian,,BRUH,22-3-2021,0
239,wulvur,wulvur,,ja miejąca bezprzewodowa myszkę 🥺😳😳,22-3-2021,0
240,sono un giallo rosso❤💛😫♾,trash._.m7,,note 10,22-3-2021,0
241,nico2102forte,nikyz2111_youtube,,Lo conoscevo,22-3-2021,0
242,miao❤️😼,frawnq,,Già lo sapevo,22-3-2021,0
243,Sebastian Krausz,sebastiankrausz13,,ezt mindenki tudja,22-3-2021,0
244,Cesare_,cesarelanzano__,,Va per iphone,22-3-2021,0
245,nuzaro,_nuzaro_,,how i buy this ?,22-3-2021,0
246,luco2.0ko,luco2.0ko,,manca solo la televisione tach screen (nn so come si scrive),22-3-2021,0
247,Lost TV,gemsihopovidky,,Wow this is normal,22-3-2021,0
248,!,seguo.chi.mi.segue.06,,l'hai scoperto ora??,22-3-2021,0
249,Leonardo,leolibero.it,,Ma funziona su ogni telefono,22-3-2021,0
250,Urban Šaljaj,slo2009gamer150,,you can use a graphic tablet on a phone,22-3-2021,0
251,Frozen,_f_frozen_f_,,"Ja który ma klawe i myszke podłączoną do tableta
:",22-3-2021,0
252,Sono.Una.persona,checzguardi,,Io lo faccio sempre,21-3-2021,0
253,Luis,peluka34,,Ya lo sabía tengo unos 5,21-3-2021,0
254,No,your_........mom,,@partyshirt you know what to do,21-3-2021,0
255,Lindesj44,rachel._.roth._.is._mine,,Nice,21-3-2021,0
256,armstrinXD,armstrinxd,,Lo sapevo già....,21-3-2021,0
257,Marcela Solárová Bahj,qdfyt,,@sajmon_013 nice,21-3-2021,0
258,flórián,florilaki15,,van bilenytuzet atvalto is ??,21-3-2021,0
259,edity capcut,eluwaniiiiiiiii,,a do czego on to bodłącza? ten kabel od myszki to co w telefonie jest?,21-3-2021,0
260,Bishapubg Pubgbish,bossi33330,,i was 6 when i found this thing,21-3-2021,0
261,Tik Toker,utenteelimin4to,,OTTIMO!!,21-3-2021,0
262,nessuno,flexin.anto,,La scoperta dell'America,21-3-2021,0
263,★bluewhaleofficially★,bluewhaleofficially,,Wow,21-3-2021,0
264,Redsnake,tizioanonimo90,,lo sapevo lo ho provato a fare da piccolo,21-3-2021,0
265,賴以謙,fhdbdbnd2,,會爆炸,7-3-2021,0
266,Văn Khánh,vankhanh.2001,,otg,24-2-2021,0
267,༄᭄𝙰 𝚁 𝙴 𝙿シ,ardaus_,,samsung galaxy Note series memang mcm tu smua benda dia boleh support untuk jaringan kerja..Samsung dia ada keunikan dia tersendiri..,12-2-2021,0
268,Damian,slow_vw_up,,naahhh for real ?,7-2-2021,0
269,Mark Poiesz,markpoiesz,,Wist ik al,7-2-2021,0
270,Lukas🤜💢🤛,lukasvdheijden,,Sike,5-2-2021,0
271,user1616055470765,bruhigy,,ur screen isn't working xddd look in the desc xdd problm,4-2-2021,0
272,leonardus.lion4,leo123pro1,,Dit is geen hack daarvoor is het bedoelt,3-2-2021,0
273,Hii!! 🥵😩✋,mistystitch,,HOLD UP JE BENT NEDERLANDS!?,3-2-2021,0
274,Ruben filmpjes,ruben.parkour,,bro ik heb dat en dan nog usb splitter dus keyboard en mouse ik in minecraft pe go brrrrrrr😁,3-2-2021,0
275,Hesse_024,hesse_024,,wanneer je dit al 3 miljoen jaar wist😅,3-2-2021,0
276,Tobias,___tobyyy___,,waar koop je dat 😁😁,2-2-2021,0
277,sennevanderbrug,shadow_the_hedgehog_pro,,hoi,2-2-2021,0
278,.,hikarustan13,,why can't u use blue stack👁👄👁,2-2-2021,0
279,🫶🏼🫶🏼,lotteprivesssssttttt,,NEDERLANDS,31-1-2021,0
280,Narin🇹🇷,its_narin_01,,waaaaat i had to buy this,31-1-2021,0
281,Daan,zomaargame,,Samsung hack bedoel je,30-1-2021,0
282,Mít Tơ Sói,mrsoibmt47,,lấy chuột ko dây cũng kết nối dc ạ 😁😁,30-1-2021,0
283,Scooby doo,scoobi13,,I'll buy another one rather than keeping the mouse whole day 😅,30-1-2021,0
284,TikTok,xxwgf_fp100xx,,Con l’iPad attacco un semplice cavetto e non quel coso e lo metto,30-1-2021,0
285,私は上司です,notreduz,,am făcut sho,29-1-2021,0
286,♡︎ℍ𝕖𝕝𝕖𝕟♡︎,helen_queen_plays,,its in iphone?,29-1-2021,0
287,jake,jakepersonal_,,i know this since 4 years ago,27-1-2021,0
288,Sal,nighty_high_sal,,Da sie tak xd?,27-1-2021,0
289,Ioannis,gangstacat4660,,I have do that already,27-1-2021,0
290,Kacperox320,kacperotokoksu,,ja to mam,27-1-2021,0
291,saig-tuto&nmalka357_,nmalka357,,ça c cool continue,27-1-2021,0
292,Nikodem,mrcontroler_,,where can i get one of the like usb thing?,27-1-2021,0
293,Bobby,bobby_l54,,I already do this,26-1-2021,0
294,ztm,metropolia.ztm.pl.tychy,,gdzie to kupiłeś,26-1-2021,0
295,Sweetheart,shaneloo1,,what is that phone,26-1-2021,0
296,🐵,prdsmrd,,omgg,25-1-2021,0
297,that one kid🔰,founnty,,coool😌😌😌,24-1-2021,0
298,user6621117253100,samo2564354,,i now,24-1-2021,0
299,.,urloveoneee,,I know this😌,24-1-2021,0
300,Antonio Gergov,antoniogergov,,I want a keyboard too,23-1-2021,0
301,:),_maria.adp_,,πες μου έναν λόγο για να το κάνεις αυτό 😂😂😂,23-1-2021,0
302,Pisica pisica,alexandra_10000000k,,eu nu am nevoie 😌,23-1-2021,0
303,Frifruś🤙,frifrus_,,od miliona lat to wiem,23-1-2021,0
304,SosiFoxy,sosifoxy1,,I tried this before!,23-1-2021,0
305,Alex Nicolae,alex_nicolae58,,stiu asta deja,23-1-2021,0
306,Бранислав Стефановић,bitchwithbigass,,Samsung Galaxy Note 20 hack*,23-1-2021,0
307,Lina,lina_saf4,,Kan je Apple doen,22-1-2021,0
308,Karlo23p,karlo23p,,Thats not hack. I know it from like 3 or 4 years,22-1-2021,0
309,vasek,vasek201,,Jako k čemu,22-1-2021,0
310,David Vidović,davidekk.69,,Note 20 ultra?,22-1-2021,0
311,DIMITRIS_KARLEAS,dimitris_karleas,,οποιος θέλει τέτοιο καλώδιο λέγεται OTG CABLE,22-1-2021,0
312,Ananasik 456,user3356927109125,,Kto by tego nie wiedział,22-1-2021,0
313,Joe Mama,crazindian,,iPhone users watching this be like:👁️👄👁️,22-1-2021,0
314,luknaj1027,luknaj102746,,Work,22-1-2021,0
315,Muki,muki_a_,,Its called OTG if anyone wants to buy it,22-1-2021,0
316,♡,eishx.0,,Po co xD?,22-1-2021,0
317,Aviation,prague_spotter,,Kcemu,22-1-2021,0
318,Wojtek Ilczyszyn,ziut_klopsy,,ja to mam i da sie podloncyc klawiature XD,22-1-2021,0
319,Tom tar,tomzak3,,I Done this before,22-1-2021,0
320,Andrei😚,byandreiutzu,,stiam😑,22-1-2021,0
321,🕊,.doffo,,Weten mensen dit nu pas 😂😂😂 k doe dit al jaren,22-1-2021,0
322,Lol,adamvi55,,Na iphone to jde bez dratově přes bluetooth,22-1-2021,0
323,tasddem__15,tasddem__15,,i have three,22-1-2021,0
324,HellBoy,dead...write,,I now this 4 years ago,22-1-2021,0
325,Ranoluq,ranoluq,,to działa ja tak robiłem z tabletem bo ekran nie działał,22-1-2021,0
326,Big floppa,evanyyoung,,datkrijg je standard op samsung,22-1-2021,0
327,Marcel Lewandowski,lewy891,,Odkryłeś Amerykę ja takie coś mam 2 lata,22-1-2021,0
328,gregoriana,grigooo_sta,,λες και θα του πεσει ο κολος αμα το κάνει με το χέρι όπως όλος ο κόσμος,22-1-2021,0
329,Daily games,bruklin_peco3,,I need that but just for iphone,22-1-2021,0
330,M1ch4L:),micha________l,,Dejte flw mýmu bráchovi začal natáčet na tiktok a dělá to pro radost ma 20 flw prosím dělám to pro něj jmenuje se ._.jan15beny nebudu ho označovat🥰🥺,22-1-2021,0
331,eric_your_bby🤪❤️🥵,zitzu_yt,,E vechi,22-1-2021,0
332,eric_your_bby🤪❤️🥵,zitzu_yt,,I knowww😏,22-1-2021,0
333,KoStRaS,kostras,,hack?,22-1-2021,0
334,Vasilis,vasilis.panagiotou,,Where can I phone this adapter,22-1-2021,0
335,Dawidox,dawidoxp8,,Gdzie to kupić?,22-1-2021,0
336,（病毒家族）聖劍（舊版）,1134567anc,,無線的比較容易成功,22-1-2021,0
337,💀,bizon.wolny.wybieg,,@powiadomieniatiktokaa @roksi_karolina chyba wypróbuję,22-1-2021,0
338,Llama,coldllama1,,is that even useful?,22-1-2021,0
339,nu,ceva_ok08,,parca nu stia nimeni asta,22-1-2021,0
340,Diana_main,gsla_paurj1,,niewiedzailem o tym ale mam samsunga s9 wiec jest ta przejsciówka,22-1-2021,0
341,Zasadzbobra,materialgworlplantbeaver,,Kto by chciał używac telefonu za pomocą myszki,22-1-2021,0
342,xyz,karolina.aha,,wiem,22-1-2021,0
343,Cosmo,cosmo_neptun,,Je to na hovno a??,22-1-2021,0
344,T.T.BG,t.t.bg,,I do it furst not you and this is not hack,22-1-2021,0
345,gamer,kristers700,,cool😅,22-1-2021,0
346,Tony Maroun,marountony2009,,Its a pc mouse?,22-1-2021,0
347,$Pako7498 $:)_is_On,pako74966,,ce heck 😂😂😂😂,22-1-2021,0
348,:O,op2ca,,𝕚 𝕜𝕟𝕠𝕨 𝕚𝕥,22-1-2021,0
349,giqnnhs,giqnnhs,,i know it 5 years now,22-1-2021,0
350,org,adunasib2,,samsung memang kalau dikasih gitu dia langsung aktif,22-1-2021,0
351,Žvejka_officiall🤪😁,zvejka_officiall,,Twl to se dá koupit všude😂to zná každéj,22-1-2021,0
352,Στρατος Κατωγιας,stratos_katogias,,σιγά,21-1-2021,0
353,𝙀𝙣𝙙𝙚𝙧𝙢𝙖𝙣,mewinggeoduck,,i have this i m really and i playing game,21-1-2021,0
354,𝗔𝗿𝘁𝗵𝘂𝗿 𝗝𝗮𝗺𝗲𝘀𝗼𝗻,ajj_gslinger,,Works on iPad too I’ve done it,21-1-2021,0
355,Tomek,xxtxx12,,ktoś o tym nie wiedział???,21-1-2021,0
356,Doge,doge___________________,,i know bruh🙄,21-1-2021,0
357,user314368592957,boti7012,,A tesco ba kapsz ient meg a Auchan ba.Ès baker az mien heck hogy a tescos egeret be ragta a telefonjába.Èn mèg ase èrtem hogy ki lájkolnábe😌,21-1-2021,0
358,✨,01.ema,,"Am si eu😂😂
Am tableta pc si me-a dat pt ea, dar merge si la tel sa-l conectez",21-1-2021,0
359,FNAF,why.u.followimg.me,,niceee,21-1-2021,0
360,I love duck,cornexo2,,Wow,21-1-2021,0
361,GAMESFLIP_CZ,gamesflip_cz,,a co klávesnice:and what keyboard,21-1-2021,0
362,Aras Aksoy,aras__4756,,ben telefona klavye mause bağlayıp pubg oynamıştım😂,21-1-2021,0
363,Dattebayo!,gramarlycorrect,,Thats why samsung beter,21-1-2021,0
364,𝐀𝐫𝐢𝐚𝐧𝐚𝐭𝐨𝐫𝐬,i3aby_ari,,I have bluetooth mouse😎,21-1-2021,0
365,Neo,neochen2013,,Hoe naam is dit telefoon,21-1-2021,0
366,A,osxmilk,,@partyshirt try this,20-1-2021,0
367,hb840019,hb840019,,No way does it work on iPhone?,20-1-2021,0
368,꧁༆ղタみびモじ༆꧂,nahuelmaelpomagom,,"Compren su ""OTG"" yo lo tengo hace un 1 año",20-1-2021,0
369,tu znajdziesz ✨dystans✨,martynaa_prywatne_,,@anime_girlll__ ja chcę takie coś XD,20-1-2021,0
370,꧁✞*𝕸𝖆𝖙𝖍𝖊𝖚𝖘*✞꧂,mathsuko,,Onde compra adaptador??,20-1-2021,0
371,glitek69,glitek69,,to będzie dobre do mc😁,20-1-2021,0
372,MARSHMELLO,mar.sh.mello,,omg it's working tnxa soo,20-1-2021,0
373,Cosmin,the.cosminel,,stiu hack-ul ala de mult,19-1-2021,0
374,Yasmin Silva,yasminsilva_oficialmiih,,"eu já sabia disso, uma moça do tt me falou :3 a mtos meses",19-1-2021,0
375,i feel chickens,juliandoesmusic,,ik wist niet dat je Nederlands was..,19-1-2021,0
376,Isla,.1.s.l.a,,It is a problem coz u can’t use it when travelling,19-1-2021,0
377,Gregor Zorko421,gregorzorko,,kdo tega neve,19-1-2021,0
378,dominik_1123,dominik_1123,,ostatnio tak zrobiłem,19-1-2021,0
379,Stefan,__._stefan___,,Chi già lo sapeva,19-1-2021,0
380,C-am prost,prostesti,,Cine nu stia asta 🤡,19-1-2021,0
381,misiekk,misiekkkkkkkkk,,i tak w fortnite grac albo w lepsze gry .,19-1-2021,0
382,Nikinomo,_nikinomo_,,ooo i want it,19-1-2021,0
383,ma nevem,follow_or_u_are_megagay,,it works on ps4 controller tuch screen too,19-1-2021,0
384,walda,walousek,,to ví každý,19-1-2021,0
385,Marco Buccilli,fnaf_kid007,,io quel coso lo uso pure per lo Xiaomi,19-1-2021,0
386,Cayden Ramold,zestyxoctane,,I knew about this for so long I plugged in a keyboard and mouse for fortnite,19-1-2021,0
387,.,me10815,,I've known this for a long time,18-1-2021,0
388,Victor pamplona polo,torni1147,,ya listo se,18-1-2021,0
389,:D,fortnajt_batyl_pas,,😁 Me sad im not have Samsung,18-1-2021,0
390,user7725636749017,petargaljuf,,Gdje si kupio to,18-1-2021,0
391,Henrique Cesar Zeca,h_zeca,,o meu tbm é um note 10,18-1-2021,0
392,𝚒𝚍𝚔,elenexy,,ale jest op minecraft na tym,18-1-2021,0
393,ʕ•ᴥ•ʔ,iconic.dereglatiiiii,,și ce nu e ceva nou și clik dreapta e esc si ce e nou? stiu de la 7 ani,18-1-2021,0
394,name~,4_realperson_,,lol I have that phone😂,18-1-2021,0
395,Johennes_dev,johennes_official,,Ik,18-1-2021,0
396,ʕ´• ᴥ•̥`ʔ,._.ionut_xd._.lol,,chiar merge!!,18-1-2021,0
397,Sta gledas koji kurac,ilija...voli...dunju,,Wow😑,18-1-2021,0
398,котейкакотейки,koteykakoteyki,,دعونا توصيل الميكروفون والماوس لوحة المفاتيح والكاميرا,18-1-2021,0
399,STIVENS PRO,stivens177,,where i can bay this,18-1-2021,0
400,Redosit,among__us.house,,"я проверил,и всё работает!😳",18-1-2021,0
401,.,krips.yt,,i to samo z padem,18-1-2021,0
402,.,krips.yt,,ja tak mam klawiaturę i myszką od roku w niektóre gry tak gram,18-1-2021,0
403,Moglo,moglotictoc,,A jak chce i klawiature i myszkę dać do telefonu to jak to zrobić?,18-1-2021,0
404,Kordi Pelczar,kordi.pelczar,,no xd wiedziałem o tym od dawna,18-1-2021,0
405,😶‍🌫️,._.no_filip,,wow xddd znałem to 😅😂,17-1-2021,0
406,Tudor Georgeb,rifflefull,,Legenda spune ca ai intrat in comentarii numai ca sa vezi de unde se ia și cât costa lucrul asta😂😂,17-1-2021,0
407,Bartosz,bartosz966,,Ktoś nie wiedział? XD,17-1-2021,0
408,Idk,notbibikkh,,its easy to me,17-1-2021,0
409,muscledsugar,muscledsugar,,jj bluethoot je lepsi,17-1-2021,0
410,Ufonautas,oof_puponautas,,I know this 😎,17-1-2021,0
411,GEORGE,giorgospra_,,To xera prin apo esena,17-1-2021,0
412,Car guy,car.hub.332,,"Its for huawei to, its works",17-1-2021,0
413,...,samuel_dark.1,,como se llama esa cosita quiero una,16-1-2021,0
414,IG:@n1koss.k,n1koss.k,,Where i can find it,16-1-2021,0
415,KubusiaQ,_kubusiaq_,,Nie do każdego można tak połączyć bo dużo telefonów nie ma funkcji OTG tablety Maja na 100%,16-1-2021,0
416,OhmyDaru,ohmydaru,,It's not hack!This is Usb Otg and it's working since 3-4 years ago maybe more,16-1-2021,0
417,The Official Cheese TikTok,theofficialcheesetiktok,,Yeah I found out this trick before this video,16-1-2021,0
418,M A C I O S 1 2 3,macioskox,,gdzie można kupić takie coś😅,16-1-2021,0
419,car parking,miko.carparking_,,jaki to telefon,16-1-2021,0
420,Farcaș Sergiu Daniel,fp_kaufland,,bruh this is not hack,16-1-2021,0
421,TAK,smocul,,nic nowego,16-1-2021,0
422,Winq,winqdev,,This device is named OTG,16-1-2021,0
423,𝙎𝙝𝙞𝙧𝙤𝙢𝙞,star.emz,,I know this since the S8,16-1-2021,0
424,Gragon,moniukas_on_tiktok,,Where buy,16-1-2021,0
425,EDITOR,editiqncharl,,omg,16-1-2021,0
426,Punisher,impunisher_,,Lol,16-1-2021,0
427,samx_72,samx_72,,Wow,16-1-2021,0
428,Edga Ras,_ega_420,,wow nice,17-1-2021,0
429,FUCK DC,bordermonkey01,,How still has android in 2021,14-1-2021,1
430,FF DADU,ff.king.112,,800,22-3-2021,1
431,нз кво да има тук хд,_deni_on_drugs_,,Who think this is real🤡🤡🤡🤡🤡🤡🤡🤡🤡🤡🤡🤡🤡🤡🤡,16-1-2021,1
432,Lekmainasch,lekmainasch,,Mozna tez na padzie myszke mieć,27-1-2021,0
433,Vesemir,vesemir4,,serio to działa ?,17-1-2021,0
434,MuLaReZ,mularezz,,Lal ale hack omg 😳😳😳,22-3-2021,0
435,trendy,rotacnikulomet,,no android SAMSUNG hack,19-1-2021,0
436,comrade_geo,wraiapoutsabro,,meanwhile me with my broken screen scrolling down throw tiktok : i knew they are spying on me 😳,18-1-2021,0
437,shawn wojcik,shawnwojcik,,Bluetooth mouse works too,20-1-2021,0
438,valaki😁😁🖕🖕,levagjuk120kgxd,,Emberek akik ezt nem tudták 🤡,18-1-2021,1
439,Aaron Coll,coll148,,Like si ya lo sabías😎,16-1-2021,1
440,*.*.*.*.*.*.*.*.*.*.*.*.*.*.*,marksps13,,5 éve kitaláltam aztán te itt gizdulsz ?,21-3-2021,1
441,Ranec Muurmans,ranecmuurmans,,Wtf gast kan dit 😍 hahahaha ik ga ff een oude Samsung doosje zoeken ik moet dit echt checken thx 😅,29-1-2021,0
442,ᡕᠵ᠊ᡃ່࡚ࠢ࠘ ⸝່ࠡࠣ᠊߯᠆ࠣ࠘ᡁࠣ࠘᠊᠊ࠢ࠘𐡏,_erazem_,,nobody care,25-1-2021,0
443,Hot_Dogs:..),ii.rkocziferenc4,,Jaj az androiddot egy 3 éves is fel töri 😂,23-1-2021,0
444,SAJTOS RUDI,sajtosrudi,,ezt ki a faszom nem tudja? xd,22-1-2021,0
445,alexandra o,alexandra.o.031,,WTF,22-1-2021,0
446,Bence Májer,bence_official16,,fake,18-1-2021,0
447,Got_lost-D-Zoro,strawhat_zoro8,,Fake,16-1-2021,0
448,dont raed,manuel097191,,so fake,16-1-2021,0
449,Chris M.,mr_piaion,,Δεν είναι hack πάρε ένα ασύρματο ποντίκι και σύνδεσέ το. Γίνετε το ίδιο πράγμα.,21-3-2021,0
450,Gabiguner,gabiguner,,shut up we all know,15-1-2021,1
451,I FOLLOW EVERYONE BACK!!!,comedyhenkie,,Uh that’s not an hack that’s an feature,3-2-2021,1
452,carhub,car__________hub0,,no hack,23-3-2021,0
453,Asphalt9 Athishan,athishan20,,Not iPhone hack ?,22-3-2021,0
454,Lazy_Controller,lazy_controller_official,,its not hack 🤣🤣🤣,30-1-2021,0
455,user8174795281097,nubas222,,It's. Not hack,23-1-2021,0
456,Emalė,justemale,,I know This hack😂,22-1-2021,0
457,Lol,localproudcanadian,,like we didn't know 🤦🏼‍♂️,17-1-2021,0
458,Simkamarashka15,simkamarashka_32,,This not hack,16-1-2021,0
459,🅰️rmandas,arme_ir_man_px,,Old android hack bro,16-1-2021,0
460,Levoon Tavetian,levoontavetian,,What the fuckkkkk,14-1-2021,1
461,Ik ben de mwan,het_ene_mannetje,,wtf would u need this,14-1-2021,1
462,Moos,moos3413,,iets no hack dude,26-1-2021,0
463,Ok,st0l7c3aa,,Haha disease,23-1-2021,0
464,CHRIS KENTIS,chriskentis,,Guys u have in phone package that adaptor ffs use ur brain,19-1-2021,0
465,ralfs :),ralfs_15,,Its no hack its otg cable,18-1-2021,0
466,geotiktoka,geotechtok,,OTG cable is insane,18-1-2021,0
467,Koji kurac,ludekilahletijo,,bruh will u be seeing on the street with a fucking mouse on a damn phone,16-1-2021,0
468,𒐫𒐫𒐫𒐫𒐫𒐫𒐫𒐫𒐫𒐫𒐫𒐫𒐫𒐫𒐫,2002zafira,,this isn't a hack this feature got released like 4 years ago on all phones,16-1-2021,0
469,𝔰𝔱𝔢𝔣,blazwithmadfut,,@alexandarlm probaj ovo,18-1-2021,1
470,K3wekNEW,kaweknew,,Samsung Note 10 team samsung👉👉👉👉👉,16-1-2021,0
471,Xx_Naruto_xX,naruto_preme,,@xliamx17,28-1-2021,0
472,🧊,androuxas,,Bro where is the flip😳flap🤠flopodopa😃a😎flopodopa🤯a🌭flop🤕flip🥶flap🤑flopodopa🤬flipperdiberflab🧏‍♀️sound,14-1-2021,13
473,_. Sofia._,_s.p.o.r.t.s_w.o.m.a.n_,,@charli_is_.queen._ 😳😂,22-1-2021,2
474,user6654875307924,sultanxsheikh_89,,@tina.durrani 😳,18-1-2021,2
475,Piotrek Wlodarczyk,piotrekwlodarczyk,,@blowek,7-4-2021,1
476,❤️‍🩹🥺KÁRLOSZ❤️‍🩹🥲,karlosz8c,,😒😐😐🙃😒👎👎👎,22-3-2021,1
477,𝓷𝓽𝓮𝓻𝓻𝓻,nterdhmaaa,,@.__xazlarhhh.__,7-2-2021,1
478,Veronika<3,v.veronikaaaaaaaaaaaaaa,,@bllk.lv,29-1-2021,1
479,lili🐕🐶,lili....tnk,,@_fancsi__,22-1-2021,1
480,ʳᵒᵇⁱ☺︎︎,_robert21__,,@4_septembrieeee,17-1-2021,0
481,MAEGAN,mvent_06,,@Mark Anthony Ventura,7-1-2022,0
482,fp.miraculos,fp.miraculos1550,,@shaggyantigacha_.siatat,9-4-2021,0
483,Lennard Gaming Tv,lennard_gaming_tv,,kann mann auch mit wirles bouzooth Mäusen machen,22-1-2021,0
484,_G1ntarea_,_g1ntarea_,,@sumergang,22-1-2021,0
485,Ioanna,i.taousani,,@taousanii,22-1-2021,0
486,.,kacper_jdp,,@blowek 🤔,22-1-2021,0
487,owenday,owenday122,,@partyshirt,20-1-2021,0
488,Mitsuki,mitsuki.krr,,😂😂😂,19-1-2021,0
489,argiroula,psyhogiouu_,,@_m.leivadia_,22-1-2021,0
490,lil_bitch_boy 👾🖤🏈,gaving814_yt,,🧢,22-1-2021,0
491,🖤🤍FromBalkan🤍🖤,zonexajdin,,@refikhadzic,24-1-2021,0
492,Sean,bradysean10,,@partyshirt,21-1-2021,0
