,Comment Number (ID),Nickname,User @,Comment Text,Time,Likes
1,Kabs016,caabs4,,Unboxing in pro level,7-4-2021,102
2,Eunice Gumela,_eunjieee_,,"I really love samsung
especially this😳
my phone is broken
I wish I i have a new phone like this😔",6-4-2021,38
3,Høur BēnZz99,hourbenzz99,,how much bro went to buy it?,16-4-2021,20
4,MALIKABONU MUHAMMAD ALI,malikabonumuhammadali,,vaw l love sumsung😁,15-4-2021,21
5,JackEyePhone · Ersteller,jackeyephone,,"Sure, do you have a idea?",20-4-2021,7
6,Fayo_01.uz.,fayozbeko1,,it very good phone @umidchik_8505,9-4-2021,5
7,sardorbek.2005,sardorbek.2005,,zo'r,7-4-2021,5
8,Steff,steff_cpe,,always been wanting a new phone 😅,7-4-2021,5
9,Janna B,lullaby_j,,no no I beg you not just that ..... we don't even see him in our dreams 😭😭🤦,7-4-2021,5
10,Ali,azart..pubg,,I want to play Pubg on it😂,7-4-2021,12
11,Angel Centino,angelcentino123,,can I have that even no money please😅,27-4-2021,2
12,DAWG,dawg_main,,samsung one of the best phones 😏,6-4-2021,2
13,user329045763557,mansoorazizi92727,,WoW😳😳😳😳😳,8-4-2021,3
14,✡Bambi✡✔,hakkenlove154,,can you give me😁😁😁,7-4-2021,3
15,Naruto,yourlocallordfarquaad,,Is it just me or am I trippin,6-4-2021,2
16,ISLOM_N1,userislom555,,Bu Telefonni Narxi Qancha,9-4-2021,3
17,NJI,nazirtiktok6,,please brother i have no phone i use my mom's phone please offer me a phone please,2-10-2021,1
18,skrrt.,traviesmorent3,,samsung user bu't my samsung right now was broken,6-4-2021,2
19,Dan_Dan0793,dan_dan0793,,i love sumsung,21-4-2021,2
20,shahzodbekqudratb,shahzodbek580,,Come get it,18-4-2021,2
21,user8250057553608,aarondebarre,,Je veux ce truc on commande sur quoi,29-4-2021,2
22,Kamama,kanzenaa,,зато у меня есть 2 почек😎,7-4-2021,8
23,nazeka,nazeka042003,,я типо того в дораме видела😂(легенда о кумихо),7-4-2021,4
24,Ihsan Nur Fadilah237,ihsannurfadilah1,,kata siapa samsung hp nya jelek,7-4-2021,40
25,Joseph Vasquez Palom,jozethvp,,"muy bonito y todo pero la camara no es tan buena, prefiero el note 😅",3-4-2021,9
26,EsseA,sem.ant,,Domani🕯io🕯e🕯I🕯prenderemo🕯30🕯e🕯Lode🕯nell’🕯esame🕯di🕯neurofisiologia🕯,17-6-2021,3
27,SEFORA,sefora474,,"RAFAEL LÓPEZ ALIAGA PRESIDENTE DEL PERÚ💙🇵🇪AFUERA LOS CORRUPTOS!CON RAFITA POR MAS TABLETS SAMSUNG,HUAWEI O APPLE PARA LOS NIÑOS QUE VAN AL COLEGIO",6-4-2021,5
28,dram5,issiad5,,Donne moi sultoplais,28-11-2021,5
29,Jhoncryneando,maivill_27,,TMRE NO SE CUAL ELEGIR IPHONE O SANSUNG! O MIS DEUDAS 😂😂😂😂😂,4-4-2021,13
30,Gaby,moreirabazurtomg,,Humillación al extremo 😂😂😂😂😂😂,3-4-2021,5
31,Axel Gutierrez Aguir,axiogt,,Martillo y espatula 😂 mejor usabas una motosierra no?,2-4-2021,10
32,泌尿科主治醫師,aclung,,正方形銀幕是要播什麼正方形影片,6-4-2021,3
33,Trần Ngọc Chung,tranngocchung2,,"Thế mới nói người có tiền thì dùng iphone 12pro max, người thừa tiền thì dùng samsung z fold 2😂😂",6-4-2021,10
34,KHOJIMURODOV.X.A,khojimurodov.x.a,,2.100$,8-4-2021,2
35,y,rfa_47,,Kalau rebutan tinggal belah aja😂,7-4-2021,2
36,ig/433.alpoeditss,433.alpoeditss,,fenerrrr,13-9-2021,2
37,roaw,johnsonmichaelpolempe,,halo gais David disini😁😁,27-4-2021,1
38,fq.47.ff....,feqan_47,,ZOR ZAMANEDI 😂😂😂😂😂,8-4-2021,1
39,Nursel💚,sofiyevaa_,,@nanimm_ bende bundan istiyıoom😁,7-4-2021,1
40,Aassd,arrrr5555,,เอาเป็นว่าชอบที่ตัด5555,6-4-2021,1
41,.,ilsehartsuiker,,@nienkebuijs dit is echt iets raars want dat scherm in het midden voelt echt raar aan,9-10-2021,1
42,acanaleso59,hc_059,,@gissellalvarado30 😳,6-4-2021,1
43,『ND』๛JOXA,ndjoxa,,pubg fps?,7-4-2021,1
44,Нұржанат Оскекбаева,nurzhanatoskekbayeva,,сколько стоит,7-4-2021,1
45,Mr. Ax,onlyboyyyyyyy,,@e1s0n1503 na son ni la😂,6-4-2021,1
46,Selvin Azahra,seldaselvindalan3,,hadiah lebaran kak ditunggu yh,29-4-2021,1
47,Abcd,mr.kamina07,,qancha bular,8-4-2021,1
48,Болатбек Дауылбай,bolatbek2005,,Осы телефон қанша алайын деген едім,7-4-2021,1
49,Кумуш,user710227855799,,Зоркуу,7-4-2021,1
50,tlyhwqslr,talya587,,@michaldaniels בלה בלה,30-6-2021,1
51,Freaky,freaky1173,,@btsarmyboy32 ဝယ်ပေး🥺,21-4-2021,1
52,user5009532619377,aungphyohein066,,Sound Nane😌,15-4-2021,1
53,Tiến Anh,tienanh1999a,,máy này chơi pubg với xem *** mượt ko ta,9-4-2021,1
54,✌👈,f.f.corol,,😳😳😳😳😳😳,8-4-2021,1
55,Zufarbek Jumanazarov,zufarbek14,,Нархи канча экан,8-4-2021,1
56,NanoList,sonminjun1,,국뽕아 차올라라,7-4-2021,1
57,Hannyyy25,hannyloayza,,@a_j.pin vesamovida,6-4-2021,1
58,하하하,kim.bio07,,z폴드 ㅈㄴ 부럽다,6-4-2021,1
59,Fraek Perrys,fraekperrys,,@daph_sc lo quieroooo,6-4-2021,1
60,Valentina,hanjiwon2510,,@idonotloveyou35 ငါဝယ်ပေး😂,6-4-2021,1
61,$$$,loered,,Ds moderno,6-4-2021,1
62,Zəhra🧸💜,.wh0isw,,abi kaç para o telefon alıcam da öylesini arıyodum ben de,7-4-2021,1
63,Mirshod_7747,mirshod_7747,,Mandeli nima ekan zor ekan,9-4-2021,1
64,Fayzulla07,_fayz_707,,tel nomi nima,7-4-2021,1
65,Justquenin,itsniikiii,,@linda_yo_39 mire,6-4-2021,1
66,SKHAWAT MUGHAL 😎,funway01,,ooooooo wah***,16-6-2021,1
67,Sodiq7898,sodiq_7898,,"Shunaqa telefonim boʻsa bormi...exeee
diganlar like",8-4-2021,1
68,<3,hilixspam,,@ani._.maddy @zoe.the.noob בסדר השיר-,18-10-2021,1
69,✨tweeling met yzze✨,.britt.x,,@y.zze ik wil deze,7-10-2021,1
70,Ерасыл Амангелдие419,eroxan1,,@raysoull @anellians @doctor_zuka 😳😳,7-4-2021,1
71,Dülce Karölïna,dulcekarol1na,,@ginzab1 😳,6-4-2021,1
72,Chapina09,chapina009,,@bacano_ff4 para el free jajajja😂 lastima q no somos millonarios,6-4-2021,1
73,Brigit Waidhofer Cár,bri.wafer,,@paneztrigosoluis 😳 esta lindo no crees?,6-4-2021,1
74,Bin & Leah,binleah,,magkano po or how much?,23-4-2021,1
75,user8911293018298,edinaldorecopelacion,,ganda a mn ng cell phone mo ako my phone lang basag pa,18-4-2021,1
76,callateelosico,nosoynadie4028,,es aprueba de agua ???,17-4-2021,1
77,ALISHER_QIZI🥰,alisherqiziiiiiiiii,,ma shaa allax zorku🥰,7-4-2021,1
78,ur' chrstinefrr,chrstlnefrfr,,@jackeyephone I hope that's how I receive it on my birthday 04-30-21😳,7-4-2021,1
79,Fabián Alejandro Hernández Are,fantasia_gamer2021,,Hoy es noche de FREE FIRE,6-4-2021,1
80,他奶奶的熊🐻,ab123c4520,,很貴嗎,6-4-2021,1
81,Muhammadali,user4975731,,zo‘rkuuu,10-4-2021,0
82,🤞ســــــــــرتــــــــاوي🤞,dyaahuqgt97x,,@itz_haytham87 شن اسمه,11-10-2021,0
83,Abdulhamit Armanazi,abdulhamitarmanaz,,"@sam.iletisim1
@sam.iletisim
بدي من هاد الجهاز
موجود؟",23-4-2021,0
84,Riri pacar Suno,dn.rrr,,언어,19-4-2021,0
85,user4020770731858,user4020770731858,,"สมัครงาน
ชื่อ นามสกุล อายุ
ร้าน ทดลอง ขับ เคลื่อน
บริษัท
วัตถุ ประสงค์
ศูนย์ ปฏิบัติ หน้าที่ การงาน เหตุการณ์",14-4-2021,0
86,✨,n0t.ur.bae.boy,,I need this!,6-11-2021,1
87,Thắng,thang_ba,,Đây là ai Tôi là đâu🥺🥺🥺🥺🥺,9-4-2021,1
88,Hadi Habibi Siregar,hadihabibi24,,lebih mahal Xiaomi alpha harga pasaran tinggi banget canggih kameranya aja 105 megapiksel😂😂,29-4-2021,0
89,พ'พลอย¥14~😊🤗,ploy255014,,เห็นแล้วกูอยากได้ขึ้นมาเลย,16-4-2021,0
90,UNITEAM BBM AND SARAH 2022,uniteambbm2022,,plss give me samsung double flip😳😳😳😅😅,8-4-2021,0
91,imkazandra,ggglare130,,"can i have one pleaseee for good heart
also it helps for my study❤️❤️❤️",29-4-2021,0
92,Heaven smile 🌈🙏🙏🙏,heavensmilefonacier,,Give me one ☝️please I need new celphone 🥺🥺🥺🥺🥺🥺🥺thank you 🙏,28-4-2021,0
93,Majd Ali Alrshdawi,majdalialrshdawi,,Ik heb die,27-10-2021,0
94,fares mohamed,faresali015,,😳,14-4-2021,0
95,Triệu Đức Phong,trieuducphong1,,máy này chịu đc 1tr cái TNT ko nhủ mn😅😅😅,16-4-2021,0
96,SaifMegde,saifmegde,,سمسنج اية,6-4-2021,0
97,Anime.lover5660,anime.lover5660,,Ben jij Nederlands,16-11-2021,1
98,$% LOL %$,campfore_7,,iphone lewat hp kok 25 jt sultan 30jt ni boss,29-4-2021,0
99,Fnafec,fnaf_fan31242,,Я из будущего😳,vor 5 T.,0
100,Aurora,kaki5361753,,how much is it,9-6-2022,0
101,Saffara💥┊นายู🤲🏻 ฟีดที😖😫,dyo19c5jz08o,,Kiba,5-6-2022,0
102,DivineGokuBlack,divinegokublack,,i want it now,5-5-2022,0
103,Justin0119122,justin0119122,,that my phone,2-5-2022,0
104,João Victor,joao_34fg,,give me an iPhone,30-4-2022,0
105,jdeen,jdeen6,,county,13-4-2022,0
106,y,._.yella,,ma allora è reale,10-4-2022,0
107,save Ukraine!,ssilverl,,I heard this song at gumbya,26-1-2022,0
108,mustafakaanozturk09,_3.141592653589793_,,abi telefon çok iyi insan dokunmaya kıyamaz lan 😳,17-12-2021,0
109,lulu boyyss and girllss,lulu_is_here_girll,,is My phone Dad😅,27-11-2021,0
110,chicken sandwich 🍔🍔🍔,cool_belgian_ball._,,I am Samsung but a normal phone,20-11-2021,0
111,carlos.lol1,carlos.lol1,,wow,19-11-2021,0
112,Vincetrooper,vincetrooper,,This sound is from (Armin van Buuren) I’m dutch😂,17-11-2021,0
113,CAT,micheal_aftonl983,,Me watching this is cool but why samung,5-11-2021,0
114,Mischa@,mischa119,,Gimme,25-10-2021,0
115,.,ecx.urmom,,@https..se mijn tante heeft deze,22-10-2021,0
116,Friggen_Chiggen,friggen_chiggen,,Imagine you fold it the wrong way,21-10-2021,0
117,ONE NIGHT STAND,1onenightstand,,mine mine give it away,7-10-2021,0
118,。「威」。,p_1112_p,,求歌名,5-7-2021,0
119,uhdani,uhd_100,,Mennyibe kerül egy ilyen ?,24-6-2021,0
120,Elaine,eleanorawho,,Can you pls give me this jk,26-5-2021,0
121,emmanthepro15,emmanthepro15,,How much is this actually,30-4-2021,0
122,Salsabela Nadhifah,siskaalexamariam,,Samsung tetap dihati...,29-4-2021,0
123,need gf 😆,guntheroenriquez,,how much😅,29-4-2021,0
124,user9216093396784,eternityjace,,customize your own casing hahaha😅,29-4-2021,0
125,ĐŘê,user0jq5e32xib,,mending Buat Saya,29-4-2021,0
126,Mhyco james,princessaltheakate,,wow😳,29-4-2021,0
127,"jowa ni mingyu,juyeon,uno,tae",alexanderbullecervarona,,OMGGG HOW MUCH IS THAT?,29-4-2021,0
128,mathematics think,lornacomiaalcanta,,me,29-4-2021,0
129,Min Lay,minlay378,,how much🥺🥺,29-4-2021,0
130,⠀⠀⠀⠀⠀⠀⠀⠀⠀⠀⠀⠀⠀⠀⠀⠀⠀⠀⠀⠀⠀⠀⠀⠀⠀⠀⠀⠀⠀⠀,alia_sht,,i dont really have budget to get that😅,29-4-2021,0
131,Æ:SEVENFOLD TRIO,sevenfoldtrio,,can I get one😌,29-4-2021,0
132,Dyna,dynaxycloxe,,magkano naman yan,29-4-2021,0
133,BEE BEE BECHAYDA😃,beebeebechayda,,🙀🙀🙀🙀🙀🙀🙀,29-4-2021,0
134,Balqish ShafaMarwa K,shafa_marwa09,,"ya Allah...
pengen satu!",29-4-2021,0
135,(●’◡’●)ﾉ𝗠𝗼𝗼𝗻𝗟𝗜𝗚𝗛𝗧𖠌,richardbaldago0,,qow,29-4-2021,0
136,Nur Yasin9575,nuryasin94,,😡😠,29-4-2021,0
137,FL | Doc • Alex,alexvasquez0615,,Samsung and Apple Are Bought Premium Smartphones and Also when you Unbox It..So Satisfying,28-4-2021,0
138,@min yonngi bts🔥,nur.mira5,,itu hp nya harga nya berapa,28-4-2021,0
139,Earl Pañas Abing,earl161616,,wow 😳 what a nice gadgets.,28-4-2021,0
140,user6952518923920,haikal_reyhan,,mantap banget 🤭🤭,28-4-2021,0
141,aisyah,aisyah885.7,,ya allah bagus banget jadi mau tapi halu,28-4-2021,0
142,Sisu Kentit,navaadhlia,,kak aku kak mau buat lebaran 🥰🥰,28-4-2021,0
143,masadepanmu8213,masadepanmu8213,,kira kira harganya berapa yah,27-4-2021,0
144,_Din다,adndlatte,,🥰🥰🥰,27-4-2021,0
145,Khafy fatha,khafyfatha,,hanya bisa melihat tidak bisa merasakan😌😌😌,27-4-2021,0
146,🏳️‍🌈_ROQUE EBON_🏳️‍🌈,roquee2127,,I love the phone how much to philipines,27-4-2021,0
147,RADAR EMOT BATU🗿,misteri012,,prosesor nya apa?,27-4-2021,0
148,thunay821,thunay821,,how much,27-4-2021,0
149,Brenna Calonia,brennaganda,,kuya ako po kahit isa lng po pplllsssss:kuya copy link naki kaagad ha kuya,27-4-2021,0
150,farrasJati,farrasjati,,王師傅:不喜歡三星作的手機 saya dari ina guys 😂😂,27-4-2021,0
151,keri.edz,edz082,,woah... impressive...love it,27-4-2021,0
152,WHAT'S YOUR AGE?,otinsairo,,how much??,27-4-2021,0
153,°ᵃⁱⁿ'ᵗ ᵒᵏᵃʸ°,j_o_x_a_n,,How much??,27-4-2021,0
154,valdezjaspher939,valdezjaspher939,,wow😳,26-4-2021,0
155,JB Sabuero🇵🇭,itsmejbsabuero,,@jackeyephone can you give me a iPhone bro for my Online Class 🥺🥺🥺,26-4-2021,0
156,Rjay Bricenio Arenda,rjayarendain14,,how much that samsung idol😳,26-4-2021,0
157,A4,mirkomalov_mirjamil,,100000000000000000000000000000000000000000000,26-4-2021,0
158,🇵🇭Braylle_Official🇵🇭,mr.braylle,,How I wish I have a new Phone In My Birthday Debut❤️🤦🏼‍♂️,26-4-2021,0
159,Hafiz Gandamra,hafizgandamra,,Can you gift me Sir 🥺 God Bless 🙏🏼🎁,26-4-2021,0
160,noelyn rose,noelyn192,,me po,25-4-2021,0
161,trend sirlari,trent_sirlari,,this is my phone,24-4-2021,0
162,@wandi _tik tok 21,wandi_tiktok,,Berapah sih harga nya,24-4-2021,0
163,Salamat Adbilisov,salamatadbilisov,,мага берчи,23-4-2021,0
164,Rehan Liski Ardian,rehanliskiardian,,😯😯😯😯,23-4-2021,0
165,Мунара03,munara2003,,😁,22-4-2021,0
166,X4 TᴇʙᴇXᴀɴᴀ ♡︎,elnurxhan1,,😎😎😎😎😎😎😎😎😎😎😎🇰🇿🇰🇿🇰🇿🇰🇿🇰🇿𖣘𖣘𖣘𖣘𖣘𖣘𖣘☦︎☦︎☔︎☕︎✈︎✈︎✈︎✈︎✈︎♪𝚐𝚐𝚑𝚐𝚏𝚏𝚐𝚏𝚟,22-4-2021,0
167,X4 TᴇʙᴇXᴀɴᴀ ♡︎,elnurxhan1,,@,22-4-2021,0
168,X4 TᴇʙᴇXᴀɴᴀ ♡︎,elnurxhan1,,🇰🇿🇰🇿🇰🇿🇰🇿🇰🇿🇰🇿🇰🇿🇰🇿🇰🇿🇰🇿🇰🇿🇰🇿🇰🇿🇰🇿🇰🇿🇰🇿🇰🇿🇰🇿🇰🇿🇰🇿🇰🇿🇰🇿🇰🇿🇰🇿🇰🇿🇰🇿🇰🇿🇰🇿🇰🇿🇰🇿🇰🇿🇰🇿🇰🇿🇰🇿🇰🇿🇰🇿🇰🇿🇰,22-4-2021,0
169,You know,unfounded___,,penge,22-4-2021,0
170,Thắng Phạm,thangpham482k0,,giá sao ae nhờ,20-4-2021,0
171,Bảo:))510,05102004zeze,,50 củ chứ nhiêu,17-4-2021,0
172,off,off4501,,อย่างเท่อะครับ,17-4-2021,0
173,✯𝓯𝓻𝓪𝓷𝓴 𝓵𝓮𝓼𝓽𝓮𝓻✯,lester2561,,ako po kahit isa lang po waoa ako pangonline clasa😳,16-4-2021,0
174,ikamal haikal perak,ikamalhaikal2,,waw nak juga 😭😭😭😭😭😭😭😭😭😭😭😭😭😭😭😭😭,16-4-2021,0
175,GIA BẢO 🙈,baota_051007,,mấy tiền vậy ta,16-4-2021,0
176,marklloyddulva,marklloyddulva,,sana all mayam kami mahirap😅,16-4-2021,0
177,yuki,yuki19872,,oppo marvel plissssssss,16-4-2021,0
178,Wkwkwk🙈🙉,hamiidrtn,,"@qmhr09:BISMILLAHIRRAHMANIRRAHIIM.. ALLAHUMMA SHOLI ALLAH SAYIDINA MUHAMMAD.. YA ALLAH, SEMOGA @qmhr09 dapet iPhone😅",16-4-2021,0
179,HTOO ADIN,harryhein4,,"howmY
any",16-4-2021,0
180,🍻👑,user8884105637256,,how much,15-4-2021,0
181,Christan Matias,christanmatias,,i love sampung i need 1,15-4-2021,0
182,user683874912749,user683874912740,,kaan zarj baina,15-4-2021,0
183,𝓑𝔁𝔂.𝓵𝓲𝓽,bxy.lit,,"I NEED THIS
cancel's idea bout buyin iphone*",14-4-2021,0
184,user1499896358921,joshqinbek547,,Nõvi telfõn,14-4-2021,0
185,Nimah Sugianti,evangante2,,semut 🐜,14-4-2021,0
186,SEBLAK ENAK,seblakk110,,Bahaya banget buat dompet kalok ada fyp kek gini😳,14-4-2021,0
187,Evi Yunita Barus,eviyunitabarus,,😆😆😆😆,14-4-2021,0
188,user4409653619607,yusupovravshan307gmail.1,,🥰🥰🥰🥰🥰,13-4-2021,0
189,Rizal,rijalgaming23,,hello i'm rijal indonesia🥰,13-4-2021,0
190,ချစ်ရင်ထူး,yinphusanyinphusa,,very good😁😁😁,13-4-2021,0
191,Тоқтархан Аитбаи,danjer005,,ААККУ,12-4-2021,0
192,🌿Maran Seng Lu Mai🧣💫,florence1582008,,How much,12-4-2021,0
193,fan anime có chủ đề,phan728,,hihihihihihihi,12-4-2021,0
194,Ai💍❤,ai_010712,,❤😍😳,11-4-2021,0
195,Saya Rendy,sayarendy23,,Hp Nya Mbak Andin 😂,11-4-2021,0
196,Paul Heavenly6,paulheavenly,,Народ как модель называется. Я купить хочу,11-4-2021,0
197,Ryan Mongaya786,ryanmongaya,,omg😳😳😳,11-4-2021,0
198,Jred Jaime,jredjaime26,,samsung lang malakas,11-4-2021,0
199,bu ni kuhn/bryck,kuhnjvrz,,i want like that please,11-4-2021,0
200,⑥⑤ Ⓝⓖọⓒ,65ngoc,,tặng em ik😳,10-4-2021,0
201,Tik Toker,usedmdmdmdkddmfm,,ccccccc,10-4-2021,0
202,user319383555768,jamaicarosita5gmail.com,,plss me one only,10-4-2021,0
203,fan Neymar jr,tietdungquy,,Nhìn mà muốn mua rồi đó đó nhưng mà không có tiền mua😳😳,10-4-2021,0
204,JAHONGİR,jahongir_737,,narxi nech pul ekan,9-4-2021,0
205,Đậu's Đậu's,2003.1995,,mặc dù là nó đắt và tui cũng k có đk để mua nhưng mà nhìn đã k thích r ( ý kiến riêng của mình nhà),9-4-2021,0
206,Abdullah Mullakhil,abdullahmullakhil001,,I have 🥰,8-4-2021,0
207,Bengiebegonia,sanset22,,come get it,8-4-2021,0
208,Trung,trung.1425,,uầy,8-4-2021,0
209,خورشيد,burxonovv.x,,нечпулакан и каттекан манмча Озбекистонда йооооо шекл😬,8-4-2021,0
210,Farrux Qaxramonov,farrux1777,,😁😁😏😏,8-4-2021,0
211,user2943840622382,user2943840622382,,iltimos nomini ham pulini ham kursating 💯 ta vidiyoyizga layk bosaman,8-4-2021,0
212,Myster prof,shutuburry,,how much that?,8-4-2021,0
213,Exha zea sheza,ekachantiek,,Cek hrga?,8-4-2021,0
214,user4944583429821,ekberesxer2009,,neçyedi brat,8-4-2021,0
215,Dilshodbek Madatov,dilshodbekmadatov,,zo'r,8-4-2021,0
216,user986466006481,dds1444,,daxshatu a 😱,8-4-2021,0
217,_müsteceb_quliyev,quliyev16,,bunun qiyməti neçiyədi,7-4-2021,0
218,Jasur King,jasur_08_08,,🥰😅,7-4-2021,0
219,нурик,nurislam.062,,мне нравитса,7-4-2021,0
220,Jethro Osing,jhingfricks,,can I have one po. from pinas,7-4-2021,0
221,Jinnicha🙃🙃🤪🤪🤪🤪🤪🤪🤪,dyk0bsrkcpt1,,сколько стоит,7-4-2021,0
222,🖤munisaxon🖤,mun1saxon_05,,mani orzuyim 😍😍😍,7-4-2021,0
223,BeKsTylE,bekstyle80,,Янги платформа чикди анроиддан бошка курдингларми,7-4-2021,0
224,OLLOXDAN OZGASIGA ILOX YOQ❤😊☝,iskandar20090,,😳😳,7-4-2021,0
225,user2976697131080,komila2007,,shuni narxi qancha ekan õzbekistonda bormi😁😁😁😁😁😁,7-4-2021,0
226,Hicee Hazel Neri Fab,hice_ciiing,,sanaol na lang😂,7-4-2021,0
227,Umidbey,umidbey1122,,udar,7-4-2021,0
228,user su mar,sumar958,,အရမ်းကြိုက်တယ်,7-4-2021,0
229,user5966502449002,user5966502449002,,😳,7-4-2021,0
230,mariel22,jeffriel22fz,,akin nalang Po Yan,7-4-2021,0
231,!Mark123,justbelievethat,,Sana all!,7-4-2021,0
232,loory,9003l,,naoll,7-4-2021,0
233,tik tok,jamik_1994_,,shuni manga sovga qvoromisizaaaaaaaaa😁,7-4-2021,0
234,fxz,ifanahestiii,,"Tidaaaak, akan memberiku 😭😭😭😭",7-4-2021,0
235,fxz,ifanahestiii,,iPhone xr please😳,7-4-2021,0
236,❤️Baby Faith❤️,gracecute005,,Wow I love the music🥰,7-4-2021,0
237,🔐❤🔐,zz_a_zz_022,,😳😳😳,7-4-2021,0
238,♥️♥️🌹🌹Mashhura_Masha🌹🌹♥️♥️,mashaqaysarcha0,,qancha turadi,7-4-2021,0
239,xabw,_hair.dwang_,,vậy là biết con xiaomi fold nhái luôn,7-4-2021,0
240,oksikbaevva.a,oksikbaevva.a,,это стойт 900К тенге это в казакстане есть.только на шымкент алматы 😁,7-4-2021,0
241,👾Wølfyz.¥.41041👾☄️,wolfyz_rb,,wow how much that?😳,7-4-2021,0
242,carousel,luuciya._,,"глупо,но я хочу это",7-4-2021,0
243,Lulu Aisi,lukupret,,"i want it, i want it want it😌",7-4-2021,0
244,Gian lexter dacillo,gianlexterdacillo,,sana mag kameron din ako nyan,7-4-2021,0
245,࿖☭Frostsnow☭࿖,frostsnow17,,"dengar soundtracknya
dan ingat kata nya",7-4-2021,0
246,hey lol,idkyimadethisacc01,,pov im the english comment youbhave been looking for,7-4-2021,0
247,user5632938671751,eldor646464,,2500$,7-4-2021,0
248,Isa Flores,__isaflores__,,@vian.morales 😳😳😳😳,6-4-2021,0
249,illecebra.,sgs_telephaty,,cuánto cuesta esa vaina,6-4-2021,0
250,keygomez,key_gomez8,,"cuesta $53,000 pesos mexicanos",6-4-2021,0
251,v:,_balu._3,,yo viendo esto en mi nokia😎,6-4-2021,0
252,Amada Amador,amadaamador0,,😳regalame uno anda no o seas malo😁,6-4-2021,0
253,Adriana De Sama,adrianadesama,,@user5207144610207 🥺🥺,6-4-2021,0
254,user4393518438905,sanamoy_12,,я тоже хочу такую же,6-4-2021,0
255,😘 ေမာင္ေလး ရဲ႕ မမ 😘,user1633880567397,,"ျပေတာ့ျပၿပီးမွ
ဘာတစ္ခုမွလဲျပန္မေျပာဘူး
လုိခ်င္ပါတယ္",6-4-2021,0
256,Rake Arthur Germino,arthzy16,,so cool,6-4-2021,0
257,philter,geraldvarron,,um search this for team oppo: oppo x super beutiful than samsung😏😏🥰🥰,6-4-2021,0
258,@prince/cute,princecute80,,can i have like that 🥺🥺🥺🥺🥺🥺,6-4-2021,0
259,•ERIKA•,20e17s11l,,🛑🛑 ATENCIÓN 🛑🛑 el 18 de abril todos miraremos peppa pig en netfix asi esta en top 1😎🤙🥵,6-4-2021,0
260,Aren Imbang Cuaresma,aren203,,Samsung is here,6-4-2021,0
261,Thewatcher,cookieisekaimonster,,Maybe the creator is kind enought to give it to me 😂😂😂,6-4-2021,0
262,lau :3,lau34578,,@alexiswb2 para que ud jugue freefire se imagina XD,6-4-2021,0
263,💖Mj💖,mj7286,,i wish that phone🙏🙏🙏🙏,6-4-2021,0
264,Hanni Zaw,hannizaw37,,How much?,6-4-2021,0
265,user6111158869629,fizeb.7,,nice😁,6-4-2021,0
266,AMHERSON,amherson,,in my birth day iwish ihave that cp🥰,6-4-2021,0
267,Dianiz Hummer,dianizhummer,,yo viendo sus otros vídeos y que probablemente así terminará este celular 👁️👄👁️wey...,6-4-2021,0
268,Axel Gallentes,axelgallentes,,what kind of samsung is that?,6-4-2021,0
269,Real Single158,realsingle7,,this mobile is money how many,6-4-2021,0
270,Real Single158,realsingle7,,how many,6-4-2021,0
271,Akiko Chiasa,angelica20.08,,@andreaylyha01 😌😌😌,6-4-2021,0
272,precious may,preciousmaysilva4,,sana mag cellphone din po ako🙏🏻pang online class po para dina po ako manghiram,6-4-2021,0
273,Aku nya Kamu 🤪,rangga_helle,,🤤🤤🤤🤤🤤🤤🤤🤤🤤🤤🤤🤤🤤🤤🤤,6-4-2021,0
274,❤麗綺寶貝家族💓一根蔥,joe_wang168,,不喜歡三星作的手機,6-4-2021,0
275,Bruno,brun0xl3,,e de suponer que si son tan ricas se pueden comprar esto @_las.ricassss,6-4-2021,0
276,ᵗᵉᵃtea,mixemup,,we're can I get this?,6-4-2021,0
277,Banban Billones,vivarrq68,,How much?🙂,6-4-2021,0
278,ChicaRangel12.,chicarangel12,,@diliflores28 Mira😳,6-4-2021,0
279,𝐼𝑡𝑠𝑠𝑘𝑎,aletshia,,y yo aqui con mi tamagochi😂😂😂😂,6-4-2021,0
280,Maríayusti0,mariayusti0,,cuantos riñones cuesta?,6-4-2021,0
281,crazy gun,d4veestrabela,,can I get that 🥺,6-4-2021,0
282,Kayla Aomi,kaylaaomi,,😳😳😳😳 y luego.saldra la Plasma asi😳,6-4-2021,0
283,Princessverano,monettesimplearam,,wow hangang Sanaoll na lang 😂😂,6-4-2021,0
284,jeremydavidfunes1,jeremydavidfunes1,,wow😬,6-4-2021,0
285,Yane Reyes,yanereyes05,,la pobreza observando🤡🤡🤡,6-4-2021,0
286,Rere_Luckycharm,rere_luckycharm,,Can I have one please👀😊??,6-4-2021,0
287,bmbwtbs:),bmbwtbs,,Que me lo compré dice :v,6-4-2021,0
288,g g,lavatricebollente,,ma quant'è bello,29-3-2021,2
289,_.tomyg._,_.tomyg._,,mega hnusný mobil,31-1-2021,2
290,so,nose.._.._,,@edits.x.dunkins1,3-4-2021,2
291,flafr,onixxxzy,,bisa pake tangan kann😭💔,1-2-2021,2
292,Sysi,sweetbella4ever,,Ahora si funciona este tipo de pantalla? Las anteriores eran muy malas.,22-3-2021,2
293,Mari_dearco25,fenix_mariwattpad,,Solo tengo dos riñones😬 Lo bueno es que tengo tres hermanas 👀👉👈,21-3-2021,2
294,La nasa 👽,la__nasa__,,se imaginan en 2040 el iPhone 50 con 1000 cámaras jajajajaja,29-3-2021,2
295,Belen Moyano,belenmoyano46,,quiero esoooo,22-3-2021,2
296,기계,finalmin17,,국뽕,1-2-2021,2
297,❤️Billy Maximoff🖤,psycho_boy_22,,"Wtf načo sú mu rukavice, kombinačky a to škrabadlo ci ako sa to volá 😂",1-2-2021,2
298,Roberth Bogado,.roberth._,,lindo teléfono pero no confío tanto creo que en muy poco tiempo se me descompone su flexs,22-3-2021,2
299,Эрик К.,boorsok312,,ты бы ещё болгарку взял бы,29-3-2021,2
300,Mo.cap,mo.cap,,stupendo🧐,21-3-2021,2
301,K.A,k.a0416,,@sevi_love919 Аааа искамммм 😂😂😂😂😂😂😂,21-3-2021,2
302,vero❤,danielismaelreyesnungar0,,quiero uno donde lo consigo,21-3-2021,2
303,Oscar Gonzalez,oscarglez122,,necesitó ese teléfono,29-1-2021,2
304,Nordine,samcookemajorlance,,un smic pour ça !!!!,28-3-2021,2
305,nikita,_daddy9999_,,BLAH BLAH BLAH 😌,29-1-2021,2
306,N,nekuar_tikito3,,yo me pregunto si habra carcasa para ese telefono xd,3-4-2021,2
307,.,twiks___,,@ana_liza_melkulo111 comprame,3-4-2021,2
308,MasterUnpacker_Jaden,masterunpacker_jaden,,I love Samsung 🥰🥰,25-11-2021,0
309,VeynoxXx,veynox,,Apple unboxing is satisfying,21-11-2021,0
310,TonicRobl0X,tonicrobl0x,,oop,19-11-2021,0
311,rg.73,rg.73._,,ik wil deze nu,18-11-2021,0
312,Kenny Moreta646,kennymoreta123,,ese telefono aca en guayaquil lo venden a 199$ dolares,7-11-2021,0
313,👨🏿‍🍳,thehomieanis,,gun me gratis iPhone 12 broer,21-10-2021,0
314,Tyler,_https.tyler_,,"Buy a phone, get 2 in one",2-10-2021,0
315,Tyler,_https.tyler_,,You,2-10-2021,0
316,Hristo_69,hristo_stoyanov_69,,bro plasse give mi 1 samsung 🥺🥺🥺🥺🥺🥺🥺🥺🥺🥺🥺🥺 i hcave no phcne,16-7-2021,0
317,foci hirek,focihirek.com,,wow😳,30-4-2021,0
318,@🦋:N,nk_kiiii,,Can you give to me?? my family only had 1 phone,29-4-2021,0
319,jiniper,markrjverekilmare,,plss give mee,29-4-2021,0
320,Scarlett witch😠,kukumeyeah,,@sshntae_bu pantes Ajun milih ini daripada ip,29-4-2021,0
321,yadirambuanarki1,yadirambuanarki1,,gila sih itu hp,29-4-2021,0
322,user2289507638962,mrfedric,,beli hp virtu coba apa ga puyeng,29-4-2021,0
323,Sad Story,nabil140804,,"aku minta doa dari klian semua, aku dan keluarga ku positif covid, semoga aku dan keluargaku cepat sembuh.. aminnn ya allah🥺🥺",28-4-2021,0
324,anime_gabutz,anime_gabutz,,kebayang gue punya hp kaya gitu😳mimpi dulu,28-4-2021,0
325,Wiwin Iskandar685,wiputdar4,,hp nya amnda manopo jga ke gtu kan asalnya wrna pink,28-4-2021,0
326,嘚咦的笑😊,tot_dob,,怎麼辦完全沒想要⋯,28-4-2021,0
327,(05_#JerweN),jerwenli,,wow wishes,28-4-2021,0
328,Dimas045,user2202839094822,,Belinya dimana 🥰🥰🥰🥰🥰,28-4-2021,0
329,dfdprmna,dfdprmna,,for me,27-4-2021,0
330,(つ≧▽≦)つ,.rara187,,dream,27-4-2021,0
331,Acacuis🇵🇭,acacius25,,Baka naman,27-4-2021,0
332,Om Om,an_9990,,samsung hadir,27-4-2021,0
333,X Nix Yolo,xnixyolo,,samsung ang iphone for boomer,27-4-2021,0
334,@Nyak salsa,11salsa8,,aku suka samsung🥰,27-4-2021,0
335,nastasyia_,nastasyia_,,samsung from korea right???,27-4-2021,0
336,aarixiello_,itzzlee_07,,I want that🥺,27-4-2021,0
337,Vincent Damian,vinc3ntdamian,,how much?,27-4-2021,0
338,Vin Arl Mo Res,epalgamingtv,,wow😳,26-4-2021,0
339,valdezjaspher939,valdezjaspher939,,when I have money I buy et now 😔,26-4-2021,0
340,Shaxa Shaxa,amg182shaxa,,manashu tel qancha turadi aytvoring iltimos,26-4-2021,0
341,NARUTO IS NERF.,zijenzy,,can i get realme cp ?i dont have cellphone,25-4-2021,0
342,OTAM DAVLADIM ONAM JANATIM,shahzod_pubg1,,сколка стоит,25-4-2021,0
343,Амир Ахмеджанов462,amir4ik200820,,Мечта Пабгеров😂😅,24-4-2021,0
344,Mengmeng,arffff_1,,can you give it to me after please🥺🥺,23-4-2021,0
345,2011 A,orazzbekovvv,,😱,23-4-2021,0
346,dyjbd5n1aekz,bekazorro,,сколько ето стоит где найти ету,23-4-2021,0
347,Шыңғыс Хан,shingizkhan4,,это телефон сколько стойт,23-4-2021,0
348,cacangel💖,caballagmail.com,,How much that phone cost here in phil?,22-4-2021,0
349,ferhada,frldxg,,а в тг скок будет стоить?,22-4-2021,0
350,eugelyntical14,langdaii14,,😲 hope to have that,22-4-2021,0
351,jasonabouchahine,jason1abouchahine0,,Bade meno,21-4-2021,0
352,Martina Rodríguez,atenea550,,Muero de amor🥰,21-4-2021,0
353,eko saputra,user5911342992619,,mmm jangan dihancurin buat aku aja 😳😳soalnya hpku kentang,16-4-2021,0
354,🖤Alezza .-.,bajjikaesakii,,wow can i have one,16-4-2021,0
355,user3777999650737,kobul88,,telfoniyam olopidanakana,15-4-2021,0
356,Jahongir_0515,jahongirturdimurodov,,Nomi qanaqa buni,15-4-2021,0
357,FB : Nguyễn Đình Phong 👑,ndphong08062005,,vy tới đây😂😂😂,13-4-2021,0
358,🤗Haru–Asahi😎😎,haruasahi22122004,,I like samsung phone,13-4-2021,0
359,fian,fianferiansyah1,,pengen hp,12-4-2021,0
360,user3927484572296,_fajar_4,,give mee😌,12-4-2021,0
361,pegawaikantoran,pegawaikantoran,,itu ngapain pake kape bambang😳,12-4-2021,0
362,თიკო სოხურაშვილი,tinatini2009,,how much is it?,11-4-2021,0
363,furia2006,alinachka202,,хочу такой,11-4-2021,0
364,Takox,talgar0905,,Бағасы қаеша,11-4-2021,0
365,Muhammadali,user4975731,,O‘zbekistonda bomi,10-4-2021,0
366,dyaljaomythf,dyaljaomythf,,開け方が独特ww,9-4-2021,0
367,user376890274p23749686351001,_m1lediy05,,Necha pul bu,9-4-2021,0
368,Sardor,odiljonovsardor,,этот телефон Zflip 😁,8-4-2021,0
369,00,fatima5715,,somda qancha,8-4-2021,0
370,user4414996614769,botirova_yulduz,,😯😯😯,8-4-2021,0
371,koyadjan,koyadjan,,wow😳,8-4-2021,0
372,arala qayıdıram dala,_fill.dassagi_,,neçiyediye bu,8-4-2021,0
373,JOʻRABEK,jorabek547785,,wooooooow😳😳😳😳😳,7-4-2021,0
374,🔥༺𝘍𝘢𝘵𝘪𝘮𝘢༻🔥,fatiiimmmmaaaaa,,Я влюбилась 🥰🥰,7-4-2021,0
375,🦊FUR1A🦊,.marvelous.fur1a,,Идеальный телефон для пубга😏,7-4-2021,0
376,꧁༒JESU༒꧂,jesuferdinandrodriguez,,can i have one please for online class from Philippines,7-4-2021,0
377,muslimaxon,muslima_0777,,samsung👍👍,7-4-2021,0
378,Космос халмагров,baletmalik,,Какои самсунг🥺,7-4-2021,0
379,sweetgirl,charoskhan8118,,😅🥰,7-4-2021,0
380,Жансая жоламанова,erke_saya,,Каспий кз 800 000тұр,7-4-2021,0
381,aytac,aytac430,,adi ne?,7-4-2021,0
382,Mark harvey,markoyss,,can I have one please ☺️from Philippines🥰,7-4-2021,0
383,Zhalgas,kasper051,,я думал в конце он его молотоком отхерачит),7-4-2021,0
384,...............,_nazary_,,вы где русские?,7-4-2021,0
385,Lailiyuhh,sheeeshhhhu,,I love this phone,7-4-2021,0
386,Mergan100,nurislom172420,,How many,7-4-2021,0
387,SHAXZODBEK709,shaxzodbek709,,"сколька стойт это телфон
скажиты а",7-4-2021,0
388,@mahmudhodjaev,mahmudhodjaev,,это какой модель,7-4-2021,0
389,Jessica Villalobos,jessicavs3,,@weenvillalobos algo que nos sobre,6-4-2021,0
390,люблю,gamepad.bot,,родители не когда не купят🥺🥺,6-4-2021,0
391,alexaichapanta2002,alexandra_ichapanta,,acomo cuesta el presio,6-4-2021,0
392,Dafne martes,danemarte20,,Que linda caja pero y el cargador 😬,6-4-2021,0
393,jovana 🌱,fivejov,,yo sintiendo me pobre con mi Samsung A20 🥺,6-4-2021,0
394,maria_army_bts_❣,mariaquinto27,,es hermosoo😳,6-4-2021,0
395,😏TR😏,tr_1102,,Y yo aquí con un huawei🥺🥺,6-4-2021,0
396,🌿,abi.zl,,con tus riñones me bastan@anne_16b 😏,6-4-2021,0
397,Diego Diaz,diegodiazsw,,Samsung galaxy ZFold 2 =7300 soles,6-4-2021,0
398,Mary O,cmaryooi,,Sorry boi Apple is still my fav,6-4-2021,0
399,Jane Latoza Carodan,janelatozacarodan,,wow ang ganda naman,6-4-2021,0
400,Ai Leen,ailhen10,,kdrama fan usually saw it 🥰,6-4-2021,0
401,user9035590741049,ree_tah200220,,Samsung is so underrated,6-4-2021,0
402,thv,fx._.tx,,@wujujuk1 dude,6-4-2021,0
403,nyanlinoo911,nyanlinoo911,,I’ve seen a lots in K drama,6-4-2021,0
404,biasa aja lah,manusiabiasa_179,,ka aku mau donk,6-4-2021,0
405,Lala 🐰💜,gguk.0613,,"Ese es el que tiene hobi, no?",6-4-2021,0
406,xcv7lk,xcv7lk,,อยากเห็นเคสแล้ว5555,6-4-2021,0
407,Rooh Rodriguez,roohrodriguez33,,yo tengo uno de esos,6-4-2021,0
408,Shwan Lo,shwanlo,,🤩🤩🤩🤩,6-4-2021,0
409,Zayar Hlaing Zayar H,zayarhlaingzayarh,,စျေးလေးပြောပြပါလား🥰🥺,6-4-2021,0
410,myomin tum myomintun,minminlove14,,😔😔😔,6-4-2021,0
411,Kevin David,dakev997,,"Por qué mi comentario tiene tantas respuestas? 😳😂😏
︎︎
︎Ver respuestas (99990) ᨆ",6-4-2021,0
412,Michelle Elizabeth,20michelle_elizabeth04,,imagínense jugar free allí JAJAJAJA,6-4-2021,0
413,lorena,lorena28cn,,me das uno tengo un teléfono pequeño que es Samsung soi nueva seguidora,6-4-2021,0
414,Maria Vasquez6787,misael1.50,,cuanto vendes 😳,6-4-2021,0
415,Revees,elyn_d24,,me lo regalas?🥺🥺🥺,6-4-2021,0
416,CAZZO.,ab_defgh_jkl_wxyz,,:0,6-4-2021,0
417,(●’◡’●)ﾉ𝗠𝗼𝗼𝗻𝗟𝗜𝗚𝗛𝗧𖠌,richardbaldago0,,wow,29-4-2021,0
418,♎️,anul0440,,omg,26-4-2021,0
419,homa raides,homaraides136,,wow,16-4-2021,0
420,Danica Batajoy Daapo,danicabatajoydaapong,,i love it,12-4-2021,0
421,💥mhinsue amistoso💙,mhinsue,,me please.😭,9-4-2021,0
422,user9475105645673,ched262,,wow,29-4-2021,0
423,Pugosa Jr Magallanes,pugosajrmagallane,,wow,27-4-2021,0
424,Htet Kaung,htetkaung22,,wow,27-4-2021,0
425,sobairpanda,zilon04,,Wow,19-4-2021,0
426,Mohammad Ashraf Bans,ashban.ph,,wow,6-4-2021,0
427,jm chui,jmchui14,,cool,7-4-2021,0
428,San Naing,user892819044,,😳,6-4-2021,0
429,ramgsh,ramgsh09,,😭😭😭😩😢,21-4-2021,0
430,user8810580019613,user8810580019613,,🥰,14-4-2021,0
431,@myamhuunwe,myamhuunwe,,song name plz,6-4-2021,0
432,Matty,itsmattyjaucianmorante,,@udontneedt2knowme I want one,11-4-2021,0
433,kainan:),kainan489,,als,15-4-2021,0
434,olimov_o1 🖇🔒,olimov_o1.uzb,,hello i am uzb,7-4-2021,0
435,Я и только я,gargonni,,у меня скоро будет такой.,7-4-2021,0
436,user8417093059379,maticbaker,,Finally got my iPhone 6 unlock with the help of WINTOOLZ on Instagram very fast and reliable,28-2-2022,0
437,nozeron,nozerongame,,даже согинать не надо,8-4-2022,0
438,fares mohamed,faresali015,,شكله ب اتنين جنيه ونص,14-4-2021,0
439,jdeen,jdeen6,,location please,13-4-2022,0
440,08현성,hyosung0812,,내폰이랑 같은데 부시지 마세요..,23-4-2021,0
441,tukang komen,tukang.komen.sejati,,aple bilek: gw gak pake lipet2 kamera cuma 3 biji aja udah 20anjt😏 trus klo gw bikin yg di lipet2 u mampu gak sung😂,28-4-2021,0
442,davronbekdavron67,davronbekdavron67,,googdan anca oldin ko‘rgan edim,7-4-2021,0
443,itsli.arb,itsli.arb,,ga lama ada garis di tengah,29-4-2021,0
444,YUNUSX,yunusxx09,,Mostafa Mohammedden gelenler😂😂😂,23-4-2021,0
445,💞XYREINE 27 💞,xyreine5,,me pls send it to.me to pls,7-4-2021,0
446,betterthanu,bless_____,,sound nya nolstagia bgt,6-4-2021,1
447,☦️,jani.71_,,Wtf,25-4-2021,0
448,muhajir suhemi,muhajirsuhemi,,ahsiapp barbar bet buka box hp doang:V,9-4-2021,0
449,queti,est0y_triste.com,,Mi Alcatel se la pela,6-4-2021,0
450,wilfried570,wilfried570,,My god pourquoi t’es méchant c’est le teste de koi j ai même pas le genre de téléphone là tu gâte ehhh Dieu,13-11-2021,0
451,ファビアナ,m_rear.view,,@tatianadorado_ no es joda cuando te digo que quiero ese teléfono,12-5-2021,0
452,༒︎𝐃𝐄𝐌𝐎𝐍༆,acphyo23,,@maymi127 ဟဲ့ ဝယ်ပေးချင်ဘူးလား👉😔👈,6-4-2021,1
453,Espiritu John Paul,espiritujohnpaul,,Samsung user here ❤👉,8-4-2021,1
454,(05_#JerweN),jerwenli,,https://vt.tiktok.com/ZSJS5UX7b/,28-4-2021,0
455,Geddeng Guring,geddengguring,,https://vt.tiktok.com/ZSJhJAXmh/,14-4-2021,0
456,user1377478280285,irfan_speed702,,😏😏😏😏,17-4-2021,0
457,Nurshash,nurshashaldabyergyen,,https://vm.tiktok.com/ZSJkT2G5Y/,22-4-2021,0
458,🆈🅰🅽🅾 ☑️,yano1114,,I'll just wait till it got outdated 🥺,27-4-2021,0
459,janli 🕺,janli2012,,this is not longer like unfolded phone,26-4-2021,0
460,janli 🕺,janli2012,,"100k+ in the @Philippines, equivalent to $2k 🥴",26-4-2021,0
461,Lauren,laur.drews,,"the way you opened it was so extra, why you need a whole tool chest to open it? do you own a knife?",19-4-2021,0
462,Tumpang Copy,xidontknowyoux,,holy shid,14-4-2021,0
463,John Vincent Molino,psyke00,,Can i ? for my educational purposes,10-4-2021,0
464,Anke,anke.vl,,Wrm gaan mensen weer zoiets kopen man lijpe flip gsm,21-10-2021,0
465,TopStrangers2022,topstrangers2022,,those people who love samsung phone and then when it broke they hate 😏 if u have a samsung know the consequence when some parts are malfunction,28-4-2021,0
466,KingFrancis...,k3ngfrancis,,call me when it cracks it has no case damage would be a breeze,6-4-2021,0
467,Hailey,haileyrgz,,Leipppp,30-1-2022,0
468,amaramar7519,amaramar7519,,wow,21-3-2022,0
469,nicole_vavaal,_nhv02,,@gedionmartina,6-4-2021,2
470,the_jahongirrr,the_jahon.gir,,@blackninja779,6-4-2021,2
471,😵,luciaaaa_0_0,,@n___i___e @tomaqkoo,24-11-2021,1
472,erkacha 🤪❤️💫😜,zaricha01,,@xwberdieva,7-4-2021,1
473,🖤 ꜱ ᴏ ʀ ᴀ 🖤,jennie_kim_161,,@btsismyworld28,7-4-2021,1
474,Sereny,sereny_garcia,,@yendymtz3,6-4-2021,1
475,mmmmmss,msallxc,,@xd_dd5,7-4-2021,1
476,AGT,agt2_,,@jerileft,6-4-2021,1
477,Elise,chessugh,,@leynand,6-4-2021,1
478,Mary Ruiz,jennyruiz27,,@edinsongabriel5,6-4-2021,1
479,𝙱𝚎𝚡𝚛𝚞𝚣 𝙹𝚞𝚛𝚊𝚢𝚎𝚟,bekhruz._.01,,@anvarusmonov8,7-4-2021,1
480,Boy S Npans👑,npans8,,😱😱😱😱😱😱😱,24-3-2022,0
481,wilfried570,wilfried570,,🥺🥺,13-11-2021,0
482,Dayten,bangossip,,@gasterqq,23-9-2021,0
483,Ryder,mx_for_life21,,@mtb_kids5,7-9-2021,0
484,Ur next girl <3,prettygirl.040,,@terryhastings1107,5-9-2021,0
485,𓇢 𓆸,jaybaiser,,🩸,23-8-2021,0
486,elvis_playz,elvis_playz,,@almxnd_milk2,2-6-2021,0
487,tactical_swiss,tactical_swiss,,@darkershaddow,27-5-2021,0
488,el bicho 🤚siuuu😈👺,samuel_8.0,,donde lo venden 😌 dime porfa🥺,29-3-2021,1
489,Eduardo Requena,eduardorequena3,,@naranjoboy 😳,5-4-2021,1
490,Mark Kristian Santil,tristan.2694,,ganda naman nyan.. 2in1 tablet at cp 😁😁😁 magkano kaya yan😁😁,17-3-2021,1
491,Edina Gál,edinagal78,,@noeledesnoel 😳😳😳,21-3-2021,1
492,ERICK,erick_.lok,,de cuantos pulmones ablamos 😏,21-3-2021,1
493,Jen,jennnnxf,,"Y yo aquí con mi Samsung J3, chale",4-4-2021,1
494,Cute Bts Army Girl,user4663407013814army,,jsidkdj,15-3-2021,1
495,Sandra Veronica Oroz,sandraveronicaoro,,Genial,29-3-2021,1
496,A Maung,amaung98,,"iphoneဝယ်ရမလား
Samsung ဝယ်ရမလား
လမ်းေတ ေပျာက်🤔🤔",5-4-2021,1
497,user3791436860823,5antia60,,Voy a vender mi riñon por 5 millones de pesos,21-3-2021,1
498,Ive Sanz,jhoisanma91,,@jcarman001,5-4-2021,1
499,Paola Hernández,paohdeez,,@jairo_llamasgo lo quierooooo quiero esteee!! lo quierooooooo,5-4-2021,1
500,Cibelly silva,fofoca_oficial,,meu sonho ganha um desse ksksk😅,21-3-2021,1
501,คนไม่หล่อ(ตัวประกอบ),mynemeart33,,ที่ไทยมีไหมอ่ะ น่าจะแพงน่าดู,8-3-2021,1
502,Danny Figueroa,danielperritoabandonado,,@sebas9228,5-4-2021,1
503,kat Ross,ross_24666,,@georssybr 😳😳😳😳 creo q me sobra un riñón 😂😳,5-4-2021,1
504,SEJA SEMPRE UMILDE,anonimo_flopadinho98,,imagina para jogar free fire😅,20-3-2021,1
505,Tutty,namelesss53,,@jhosanflo27,5-4-2021,1
506,Araceli Torero,latorero,,@floortorero,5-4-2021,1
507,Lieze Oosthuizen,liezeoosthuizen,,@jeneerasmus 😳,28-3-2021,1
508,Sebastian Corbala,corbala_00,,¿Existen funda para esos teléfonos?,5-4-2021,1
509,aremi gomez,2009go2,,quien me presta un millón de pesos h que diosito se lo pague es para una tarea 😗✌,20-3-2021,1
510,Zoe De Martinez,zoedemartinez,,@majose_31,5-4-2021,1
511,Lunanueva,lunanuevacom,,eso existe en verdad? en que vida se consigue?😳😳,20-3-2021,1
512,Tu que haces aqui,mojaxo_0,,poreso Samsung le supera al iPhone,21-3-2021,1
513,Bianca,biavtss,,@itscel1 @ewellynvmf deve ser bacana para ler,21-3-2021,1
514,JM,jose_manu198,,cuánto cuesta 😳🥺😁,21-3-2021,1
515,Anderson Lucavei,minero2195,,@brunahafemann,28-3-2021,1
516,...,daniel.dimateo,,Con 10 riñones seguro que no alcanza 😅,21-3-2021,1
517,Anthony_crak_por_siempre,anthony_crak_por_siempre,,Huawei le gana,20-3-2021,1
518,The Daddycool,thedaddycool59,,+ de 2000€ le portable 😅😅😅😳😳,28-3-2021,1
519,Sirena 💕,sire1101,,@erickv140,5-4-2021,1
520,Lizeth Cárdenas Rosales,lizeth_17065,,@angelrg28 😳👀,20-3-2021,1
521,Elizabeth Gris Andrade,elizabethgris,,@juliett170,5-4-2021,1
522,Ruben Soria,rubensoria1,,@romigiro,5-4-2021,1
523,Eduardo Rc🖤,luiseduardofc,,Cuando llega a México,21-3-2021,1
524,Hiếu Lò613,hieudepzai003,,cứ thấy samsung là tim🥰🥰,16-2-2021,1
525,José Morales,jose_m.ch,,@miguelhl7,21-3-2021,1
526,King boo👻,lalo_g_512,,@dyanateutli,21-3-2021,1
527,wiicho_8,wiicho_8,,@estuardoito,4-4-2021,1
528,Rider Alexander Sanc,ridsaint,,@mvm2901,28-3-2021,1
529,💜🐍La culebra 🐍💜,canelistard,,Dios mio 😂😂😂😂 me muero con ese 😂,21-3-2021,1
530,Ilan-mlt 25 ⚽️⚽️⚽️,ilan.malartre25,,C quoi le prix,16-2-2021,1
531,Ebrick Alejandro Tor,ebrick_torres,,@rodriguezanni6,21-3-2021,1
532,Black Jhons547,fernanflloo_bts,,😱😱😱😱😱🤯,28-3-2021,1
533,🚫,doyounnie0,,@.fer_90,21-3-2021,1
534,Kevin Skyline,kevinskyline0,,vive Samsung,28-3-2021,1
535,Rubem Dias,rubemdiasr,,mesmo quando eu fica rico não vou comprar esse não,28-3-2021,1
536,Daliana Alejandra T. Charupás,dalianale,,@adiltapiad,21-3-2021,1
537,❀DINA❀🇭🇳,dinaf98,,@dairyflores7,21-3-2021,1
538,Ale,ooooalita,,"Me encanta, soy Samsung forever 🥰",21-3-2021,1
539,Itzcoatl Castrejon,itzcoatlcastrejon,,@quetza_lc me lo compras con tu beca 😳,21-3-2021,1
540,Gabriel H.,gab0hir0,,una reliquia sagrada la espátula y el martillo 😁,29-3-2021,1
541,Nath,nath_sepulveda,,@magerits,21-3-2021,1
542,Rocio Yupayccana Ata,rocio02ya,,😂el apple es mejor no le entra virus y es mucho mas rrapido en cambio el samsung le entra mucho virus y se lentea🥺,4-4-2021,1
543,Jelle Van de Rostijn,jellevdr,,@pscbrt,16-2-2021,1
544,Abriil González,gonzalezabril11,,@azulnunes quienpu,21-3-2021,1
545,Adriana,bae_pau,,@faustinodominguez necesitamos,21-3-2021,1
546,Mat.Sampaio,mateusdotcom,,@_lucas.2003,28-3-2021,1
547,_Ary.FER_,__ary__25,,@kam.beno,5-4-2021,1
548,Cvang,carlosvanegas03,,@_adriana27,5-4-2021,1
549,AZZAHRA Anisya karin 923,azahraanisya,,gue punyabkok hp samsung z fold galx,22-2-2021,1
550,chup,jngwwy_9906,,creí que era el lightstick de tbz por la caja 😭,21-3-2021,1
551,Soly De La Rosa Hernandez,solydelarosaherna,,@karlamendez252 cuñada cómpramelo jajajajaja🥺,21-3-2021,1
552,sk_75,semaa.k75,,@gultjek,21-2-2021,1
553,Danilo Muñoz,danilo1626,,yo quiero uno,21-3-2021,1
554,ᵂᵃˡᵗᵉʳ ᶠᶠ ¹⁰ᴷ,walter_10k,,como me gustaría tener una de esas 🥺🥺😥 pero creo que nunca la tendré 🥺,21-3-2021,1
555,Rosa Avalos,rositalara2208,,@gracegomezro me lo compras 🥺,21-3-2021,1
556,CARLOS_YT,carlosvela096,,precio 😂,21-3-2021,1
557,kingz604,kingz604,,gelukig deze keer niet kapot gedaan,20-2-2021,1
558,sof.,sof.grl,,@monrou_479 😳,4-4-2021,1
559,VIEJON,viejontrn,,mucha tecnología... y herramientas de 4ta.... 😂😂😂😂,21-3-2021,1
560,Génesis Cisterna Elgueta,genesiscisternaselgueta,,@t_a_m_i_t_a_m_i que cool😳,4-4-2021,1
561,Robert Forde,dsparshi,,Me interesa?,21-3-2021,1
562,xx_.belen99._xx,xx_.belen99._xx0,,@nuithpaloma,23-3-2021,1
563,user6789461478003,flaquitabella53,,yo te lo compro cuanto plis🥰🥰🥰 cuando lo sacan el teléfono,23-3-2021,1
564,Iskandar Normirzayev,iskandarshox4,,OʻZBEKLAR WOTTAMISIL🇺🇿🇺🇿🇺🇿🇺🇿🇺🇿🇺🇿🇺🇿🇺🇿🇺🇿🇺🇿🇺🇿🇺🇿.,27-3-2021,1
565,Roy Bueno,roybueno97,,@nardadelgado,23-3-2021,1
566,Hebil Pubg,yorgun_1yetkili,,samsungun hangi modeli o?,27-3-2021,1
567,Malena Suárez,malena_suarez,,@kenybaznlaverde,23-3-2021,1
568,Lavinia ❤️❤️,laviisuglia,,Meglio il mio iPhone 12 pro max non c’è proprio paragone 🥰🥰,1-4-2021,1
569,Yamileth Magallón36,yamielth3,,@thecesar07ff,1-4-2021,1
570,zahylenis15,zahylenisvnzl,,@miguelchavez364,23-3-2021,1
571,Ronya Gull,ronyagull9,,By how much,27-3-2021,1
572,Shavkat25,shavkat_2505,,wow,27-3-2021,1
573,Kathy Soto,kathy.s06,,@_pamelasotoo 😯😯,23-3-2021,1
574,Lorena Mena,lorenamena2210,,@linajpacheco @beanly_0 lo quiero 🥺,23-3-2021,1
575,lalee :p,laleew,,"@jk_552 wn, sabías que si vendes cabello ganas un chingo de plata? 😳",23-3-2021,1
576,Alvarado,aarongovea0,,hello😁,23-3-2021,1
577,Vale,valeriavzg21,,@mayerliicaycho,23-3-2021,1
578,Ariana Delgado,aridelgado0307,,@alexisgomez1231 ve este pedo amor😳,23-3-2021,1
579,Abril Marin,abrilmarin61,,@alex1_lt voy a vender un riñón 😂,23-3-2021,1
580,Tay Oliveira,tayoliveira20,,@tofolliplay,1-4-2021,1
581,jkggg.jm,melanie_monrroy1422,,@ulisesmonrroy,24-3-2021,1
582,.,..10f3,,@paveehpineda compramelo xD,1-4-2021,1
583,Abraham Soto,eldrax07,,ME SIRVE. CUANTO VALE,1-4-2021,1
584,ala viu meu perfil👀👌,ian_fps.777,,por um momento pensei q ele ia destruir o celular kkkk,1-4-2021,1
585,hu tao_:D,abril.ackrmn,,@yasnabelen2 :0,24-3-2021,1
586,Gabriela,gabriela_16_19,,me😳,30-3-2021,1
587,valendag206,_valen206_,,@castillonazareth95 😳,24-3-2021,1
588,Vinicius Pires388,viniciuspires066,,queria ter um desse,30-3-2021,1
589,Laurii Sánchez,lauri_sanchez07,,Amigooo que tengo que hacer hipotecar mi casa y vender a mi flia jajaja @aylenherrera3,24-3-2021,1
590,𝓝.,nicolle_char_,,@honey.gii,24-3-2021,1
591,Bebot Garcia Muñoz,gianella1516,,@arcadiano10 mira esta bellezaaa,23-3-2021,1
592,Maribel Gimenez,gaunagibell,,@adriansantacruz5,23-3-2021,1
593,Bernal Quiros Zuñiga,naly2010,,@stephannyhidalgo0,23-3-2021,1
594,°°°,liz.7v7,,@carlosalon_so se ve bueno pal free,2-4-2021,1
595,ᴊᴏꜱᴇᴇ 🖤🔐,joseediazz.ok,,Yo hago lo q sea por esa cosa 😂,23-3-2021,1
596,♎️,whatissky_,,@luz_navarro17,2-4-2021,1
597,Alejandra Madrid,alejandramadrid01,,@yeniferruiz7,1-4-2021,1
598,Camily valencia,camilyvl,,Cuánto cuesta,23-3-2021,1
599,_j_p_c_e_:),_j_p_c_e_,,@martina_kka12 la wea bkn,23-3-2021,1
600,Invierte en nft's🌲💵💵🤑,sasaagil._.08,,yo: que guantes ni que nada siuuuuu un shamsung,23-3-2021,1
601,.,k40s_10,,Cuanto cuesta xd?,1-4-2021,1
602,virgo :×,marilinro44,,😳😳,23-3-2021,1
603,Nagire,edits_gallagher_21,,@26tiany27 @nayita220 creo que me estan sobrando órganos😅😂,1-4-2021,1
604,M:),mariafe0809,,PReZIo Y DoNDe EnTrEgA wUaPA🤑✌😘😈🦶,1-4-2021,1
605,Martínez,marmen.1914,,"ya tengo los riñones de mis hermanos 😂sólo damela😳😂
y te regaló uno de sus dientes y tratos?😂
mentiris",1-4-2021,1
606,Nicole,alisson.______,,La pobreza me esta respirando en la nucaaa marceeee,24-3-2021,1
607,user776633241129,fredperry702,,Why use that kinda tool for unboxing?,27-3-2021,1
608,Sil,silcaminos,,@leo.r1501 😳😳,23-3-2021,1
609,KaraMelito Altamiran,karamelitoaltamirano,,@moisesramirezzaragoza,23-3-2021,1
610,مِےـحًےـمِےـد جَےـبّےـوُريّےـّ,soulaf___11,,عندي الفلوس اشتري 😏😏😌 بس المشكله جبيرر ما ينحط بل جيب😌,29-3-2021,1
611,Susan Yon,susanyon,,@renezt,23-3-2021,1
612,🇨🇴JUANDA🇨🇴,juandao_o,,mira ese potencial nesecito uno de esos,1-4-2021,1
613,uuɐp,itsjustdann1,,@denzzzz4 😳,23-3-2021,1
614,Sane❤️😊,sane2304,,😳😳😳😳🥰🥰🥰🥰🥰🥰🥰🥰Gif me one,27-3-2021,1
615,𝐀𝐋𝐄♪,madahi_cv,,@janaval21 😍 wow,1-4-2021,1
616,Yuri Keysuke,wtf._keysuke,,@luamagic89 compra pra mim🥺🥺,1-4-2021,1
617,Maria Elena castreño,elena.castrellon,,me lo daz 😁,1-4-2021,1
618,DAMIR BOBOMURODOV,damirchik_2006,,😃😃😃😃😃😲😲😲😲😲🤑🤑🤑🤑🤑,27-3-2021,1
619,Renato Garcia espero que me,joao____12____,,🥰🥰😄,1-4-2021,1
620,JanŠajič,janjelep,,DAJ MI DAJ MI DAJ MI,25-3-2021,1
621,to‘rabola,abdurahmon_massod,,qacham olamiza😁,31-3-2021,1
622,Әлшер Сыздықов,alshersyzdykov,,какой самсунг названия,31-3-2021,1
623,анимишка,anisila777,,мечта фф ника,31-3-2021,1
624,Monica Mony810,monicamony85,,Toooooop,24-3-2021,1
625,jazminguardado236,jazminguardado236,,@luvinaguilar por fe 😏😂,24-3-2021,1
626,nour,nounou2233,,بابا عندو نفسو,26-3-2021,1
627,Jose,barrbz4life,,Dammnn I Need Me One Of Those🔥,31-3-2021,1
628,user3364730188612,saralamine200,,بغيتو,26-3-2021,1
629,steliozzz,steli0zzz,,@henryzhurka thirio,24-3-2021,1
630,Belanchi_6,belanchi_6,,Teloganaste jenial,31-3-2021,1
631,diamondskyvase,diamondskyvase,,máy này bao nhiêu tiền thế,25-3-2021,1
632,ХАН,xan_920805,,1400000тг сатам алатындар барма,26-3-2021,1
633,case,lanece39,,OMG,25-3-2021,1
634,Andrei,andreibati,,Samsung is best😁🥰😏😌🥰😁samsung a52 new phone,25-3-2021,1
635,Elisabeth,elisavetpanagiotidou,,έβαλε και γάντι για να μην το γκραντζουνισει 😂😂😂😂 😅😅😅,24-3-2021,1
636,Nuray Duman689,nuraydmn12,,kesk3 b3nim olsaydii,25-3-2021,1
637,user185832328377,user056964204,,",црм😂😂😂😂😂",25-3-2021,1
638,Video var artık,waht82,,Bunu rüyada anca görüruz,25-3-2021,1
639,Mãi lì..!,nhonguyen250,,kéo tâm mượt ko ta🙄🙄🙄mà nhà mik có điều kiện r🥺🥺🥺🥺,25-3-2021,1
640,Alice Stydia,alicetbbt777,,Eu ira sentir sempre uma agonia quando eu dobrasse o celular😅,30-3-2021,1
641,牙⠀入扣万入扣⠀亇乇万牙,_lina_tate_1,,😳😍😍😳,25-3-2021,1
642,joshmike,joshmike2k,,pura fantocheria,30-3-2021,1
643,FIRDAOUS💜,fi___chi,,😍,30-3-2021,1
644,Сая,caara_teper_celestia,,@sayo_vs_fem читос?,30-3-2021,1
645,Hansar94,hansar94,,Samsung c'est la basse.👍👍👍👍,30-3-2021,1
646,user3714083194345,hnuy_freedom,,สวยจัง😳,26-3-2021,1
647,max toon,x_maxtoon_x,,سخفتني😂😅😅,26-3-2021,1
648,𓆩Angle⁹³𓆪,malakalkmali,,@r__eem4 اشتي😢😢,30-3-2021,1
649,Mazen.Emad,mazen00000000,,اجيبه منين م مصر,31-3-2021,1
650,user345348519340,packo11lio,,@https_carolinaaa,24-3-2021,1
651,Jessica,jeeeeeeeessiiiii,,Perooo paraaaa para que tanto si en dos segundos seguro me lo roban,24-3-2021,1
652,RTLUTHIER,rodolphort,,"martelo uma espátula. e um Alicate.. só pra Abrir, a Caixa do Celular😂😂😅😅",1-4-2021,1
653,Jere tettamanzi,jeretettamanzi,,@santi.nano nooo,1-4-2021,1
654,Билал таксыр,user7962396010182,,сколько стоит эта теле,27-3-2021,1
655,kei🌬🖤,chiquillaqueen,,@wilfredo910,24-3-2021,1
656,🥀🥀,_lu_jimenezz_,,Nose pero son como 2 celulares en uno 1 table y 1 celular 😂😂😎😎OMG y aple sólo tiene un celular 😛😛,24-3-2021,1
657,Eyesseny Vasquez cor,eyessenyvc96,,@itsjenna22 este fue el que usó el flaco del zorro de 9kolas ... 🥰 lindo ah?.,24-3-2021,1
658,🥀🥀,_lu_jimenezz_,,quoen me etiqueta en el vudeo de arriba no se q 🤣hacer,24-3-2021,1
659,hullie 🌘,iaaa_12.5,,@olancho100 damelo🥺,24-3-2021,1
660,Chrissy Joseph269,chrissyj65,,@yuh_one_wish96,31-3-2021,1
661,Dulce Minero.,dulceminero._,,@tadashiham34,24-3-2021,1
662,Marilyn Nailea,marilynnailea,,@nidiaborquez,24-3-2021,1
663,فاتح بني,brownlight6,,شو اسمه,31-3-2021,1
664,fino señores,ta...chido_...003,,este es el futuro mis panas 😎👌🏻👌🏻👌🏻👌🏻👌🏻,2-4-2021,1
665,Sarah Volpi,sarahfoxyz,,Aspetto IPhone Flipboard,24-3-2021,1
666,☾𝓜 𝓲 𝓷 𝓲 𝓜 𝓸 𝓬 𝓱 𝓲☾︎,lokpopbts_0_0,,Oye... xd Lo siento esque estoy aburridx me podrías etiquetar en el video que te apareció arriba :v <3..,24-3-2021,1
667,Thais Perez,perezthaisleal,,@gperez678,24-3-2021,1
668,Jacsury Vega,jacve6,,y yo aquí bien tranqui con mi j2 prime que esta a punto de explotar 😂😂,24-3-2021,1
669,Maryana Lacerda,maryanalacerda3,,@lilityandressa já quero,24-3-2021,1
670,Marinette y Adrien,trjdark,,Yo quiero uno así,24-3-2021,1
671,It's Gamer,_itsgamer_,,Хочу...((((,31-3-2021,1
672,حمزه الخليف,h2a0m0z4a,,يا الربع نبغا نغير التكتوك في رمضان و نحوله كله قران يد بيد نقدر باذن الله ،,31-3-2021,1
673,denim👽,mhedimejaye,,@plaryenriquez,31-3-2021,1
674,fan Supernatural,supernatural.my.love,,How much did you pay for it?,31-3-2021,1
675,Petterson Furtado,negao..xit,,u can make a video playing free fire on him PF thank you,31-3-2021,1
676,Seltade_ytb,seltade_ytb,,a ouais le mec il met des gans il a plein d'outil mdr moi je déchire tout comme un con 😂😂😂😂😂,31-3-2021,1
677,Lisbeth Romero,lisbethromero78,,@._.jeonwingx @toxictae4,24-3-2021,1
678,Nicolas Torres,nicolastorres941,,Ya lo vi en un video de luisito comunica vas atrasado bro y en ese video lo da a toda prueba no con pinsitas,22-3-2021,1
679,Luis Enrique Parada,luisenrique3614,,@alexandra_valente33,22-3-2021,1
680,kotecita camacho,yashelandyashua_deleon,,𝘴𝘰𝘺 𝘢 𝘭𝘢 𝘶𝘯𝘪𝘤𝘢 𝘲 𝘯𝘰 𝘭𝘦 𝘱𝘢𝘳𝘦𝘤𝘦 𝘤𝘰𝘮𝘰𝘥𝘰,22-3-2021,1
681,user4877861857086,emirchikimama,,ваууууу🥰,29-3-2021,1
682,Cielo Garcia Padilla,garcia_padilla_cielo19,,"Ese celular lo tenía Lee Yeon de la Leyenda del de nueve colas🥰 solo que en otro color, buen dorama, está en Viki se los recomiendo",22-3-2021,1
683,Alberto Nerio,lopezbeto6,,@merari836,22-3-2021,1
684,Consuelo Meza,consuelom2110,,@marioasb 😳,3-4-2021,1
685,Erick Pleitez,andersonpleitezo,,@dz_profesor_97 lo quiero 🤑🤑🤑,22-3-2021,1
686,💌 🕯️,user.noe0,,y yo aquí con un Nokia :'),3-4-2021,1
687,n:n,charlicjo6wazcdi,,quiero unooooo,3-4-2021,1
688,Laura Anabella,lauraanabella5,,@juliettaa____,3-4-2021,1
689,Milagros Garcia,milagrosgarcia86,,@luufuness1 @agusumbrella,22-3-2021,1
690,Иди ка нахуй дядя,dalboeop,,И тут ты смотришь 18 плючс а зади видна пол экрана😂,29-3-2021,1
691,Adilbek Utesh,adilbekutesh,,чо,29-3-2021,1
692,⚡,josuxxxx14,,@hokagueman123,21-3-2021,1
693,andres,andrespasseli,,xq usaba guantes y herramientas jjsjsjs,2-4-2021,1
694,tyki tlu,tykitlu,,"Cual to cuesta en dólares ?
No en riñones ni pulmones :v",2-4-2021,1
695,Keithly Amanda🦋,04.keyy_,,@keilyasprilla1,22-3-2021,1
696,María T,mfrccccc,,@luisarodriguez7023,2-4-2021,1
697,Xavi Castillo,xxcflores19,,@ronald_720,2-4-2021,1
698,ДЕЙДАРОЧКА_0-0♥️,rayanna81_48,,Сколько стоит ⁉️,29-3-2021,1
699,"Ni Dios, ni Cristo, ni Jesús.",nidiosnicristonijesus,,What beautiful.,22-3-2021,1
700,Silvana Nathaly 🌻,silvananathaly08,,@jpricardo3 lo necesito,22-3-2021,1
701,Vale Madriz,valemadriz27,,@_p.a.ul.a._,2-4-2021,1
702,Jeremy Sánchez,jeremy05050,,Ese no era el celular que se le rompía la pantalla ahí por 2018?? 😂😂😂,22-3-2021,1
703,Jd,jd241522,,@kums_8,29-3-2021,1
704,user4271767043269,marixa_1990,,@modeojeda no lo quiero... lo necesito! 🥰,22-3-2021,1
705,Namu Plantita 🌱,koomontgomery_,,@blancoeli89,2-4-2021,1
706,David Santiago Cadav,davidsantiagoca3,,y si se parte a la mitad la otra sigue funcionando?😳,21-3-2021,1
707,ExCe-Vip Gønzales,exce_vip,,Where I can find the cell phone and what price it has🥰🥰,29-3-2021,1
708,Valentina Scopelliti,valeti94,,@ylenia1312 comprati questo 😁😳,21-3-2021,1
709,João Ferreira,ferreira_a.p._joao_13,,Quero um 🥺🥺🥺🥺🥺🥺,28-3-2021,1
710,_Jazmynn_,_jazmynn_1,,@_bogcsi_15 😬😬,21-3-2021,1
711,Yareli,tania._98,,Cuanto cuesta aproximadamente digo creo que me sobra un riñón 😌,21-3-2021,1
712,Lina,lina.lol_,,@andrescampo_16 @karen_ospina19,3-4-2021,1
713,Romi almeida,rmina.al,,@bri_m.a,3-4-2021,1
714,Romi almeida,rmina.al,,@andres_82849,3-4-2021,1
715,Nabil Grifi,billy_770,,je jiffe ce téléphone il est super,29-3-2021,1
716,Otávio Susin,otaviosusin,,@rafaela44496,21-3-2021,1
717,limaoquatorze,julio61224,,e como vai ser a capinha disso ?,21-3-2021,1
718,marlon01florez,pacmanxxx,,PAL free🤑😜,21-3-2021,1
719,mei !,gchxsub,,Wao se le ve que cuesta 19 riñones 30 pulmones y 70 cerebros🥳🤙🏻,3-4-2021,1
720,Braulio Tick tock,brolooo536,,Es hermoso,21-3-2021,1
721,Chiiky Quiroga,chiiky_quiroga,,@jes.dark.emm quiero quiero 😭,2-4-2021,1
722,Cuadrilla Uno,dipol27,,cuánto están esos modelos,21-3-2021,1
723,Meli Any Roldan,melianyroldan,,@ruthmoran2105 😳😳,3-4-2021,1
724,HUSSEIN SOOBHANY,husseinsoobhany0,,huh me I see same os for longer time it time to change only for 10 years this boring os only,21-3-2021,1
725,Alej_C,alej_n_,,@adpo25 😳 k,3-4-2021,1
726,Dariana Reyes,danaya0706,,@dikamova18 :000,21-3-2021,1
727,ʟʏsᴅᴇʏ,lysdey_,,eu vendo que vou ter que vender meu rim para comprar 😳,21-3-2021,1
728,Cecia valenzo,ceciavalenzo,,@karenvalenzo,21-3-2021,1
729,Mart Rodri,markrzz911,,con que diciéndome pobre en 30 seg. eh!,21-3-2021,1
730,Becs.Odranoel,becs.odranoel,,@serrather,21-3-2021,1
731,Marggie Huamani Cuet,marggiecueto22,,@nelsong36 😳,3-4-2021,1
732,Нурбол Мойдунов3707,nurbolmoidunov2,,какойе имя 🥺,29-3-2021,1
733,Pinillos Milagros,pinillosmilagros,,@ricky.rios17 😳,21-3-2021,1
734,Kim_Misuk,min_paris,,Yo con un Hawei Y6 2019 🥺🥺,3-4-2021,1
735,༺ᵃᵖᵖˡᵉʰᵉᵃᵈ༻,moonwxlkr_,,@johahernan1888,22-3-2021,1
736,kevin garcia,kevinvargas868,,LOS PRODUCTOS DE SAMSUNG SON DEFICIENTES Y MEJOR ES XIOMI O HUAWEI,22-3-2021,1
737,Nohemí Alvarado,nxhemix,,@kamy_mazapan @joexxm1 😳,2-4-2021,1
738,user9772505855982,ola2000cool,,can u please give me i am 30 and am still using a borrowed phone🥺,27-3-2021,1
739,Cesar Lopez,cesarlopez195,,"si si muy bonito.y todo para que al mes ya lo traigan rayado, rato y ya no lo trates como el.primer día",22-3-2021,1
740,Katherine♡︎🥀,katy_mayorga07,,@chavamayorga16,22-3-2021,1
741,KEVINƬϾ³²º,kevingonza01,,"@salomegonzalez18
@marriana1199 😁",22-3-2021,1
742,JHOAN👻,jhoapuar,,916,29-3-2021,1
743,🖤💐,usertqrxucwkc5,,De cuantos riñones estamos ablando😁,22-3-2021,1
744,Teo,ijustteo,,woooow,22-3-2021,1
745,user4127073812473,_0mari_0,,alguien me dice cuanto esta en pesos argentinos,22-3-2021,1
746,DINO_TITOYT,dino_titoyt,,aquí los que nunca ban a tener uno yo en primer lugar👉🏻,2-4-2021,1
747,Isabella🌼,carm.is1311,,@mapu0118,22-3-2021,1
748,Romi Rodriguez,romirodriguez1308,,@maribelrodriguezgut,21-3-2021,1
749,user3469999348863,lizi_cuautle08,,yo lo quiero @angelvazquez605 😏,22-3-2021,1
750,CARLITOS ۞🐾🔱,carlosfaridlopez30,,hermanos no lo compren es re malo y es Recaro XD enserio es más delicado que que un ojo enserio,22-3-2021,1
751,Frank,fr44nk_04,,@cristianelles como pa jugar free que chimba JAJAJJAJAJAJJAA,2-4-2021,1
752,haitienne,marlyfiakah,,donne le moi en cadeau😂,27-3-2021,1
753,callateelosico,nosoynadie4028,,"𝙘𝙪𝙖𝙣𝙩𝙤𝙨 𝙢𝙞𝙡𝙡𝙤𝙣𝙚𝙨 𝙨𝙤𝙣
😳😳😳",29-3-2021,1
754,Javier Beltran,javierbeltran021,,@gabi.513,2-4-2021,1
755,its .0.me,saad.yt.me,,الله اكبر😎,29-3-2021,1
756,Carlos García6983,____carlos____1,,🤯🤯🤯,23-3-2021,1
757,Arissa,arissavillalobos,,@ale.alejandre,2-4-2021,1
758,🌸,lo_tengoxqsi,,@p_a_s_600 loo quieroo😏,2-4-2021,1
759,Huseyn_Mirzeyev,forever_085_,,пабг в тему,29-3-2021,1
760,/ᐠ｡ꞈ｡ᐟ\,.xiaoreo,,@by.sofia12 👁️O👁️,2-4-2021,1
761,fernando gallardo,fer.055,,@emma._.itachi @leleslol @mara._florencia ...quiero uno para todos los cumpleaños d mi vida y no pido nada mas,23-3-2021,1
762,◈ᴍᴀxɪᴍᴏ ᴍᴜɴ̃ᴏᴢ◈,maximomunnoz7,,@valebor8,2-4-2021,1
763,Magali Bances,magalibances,,@fio.98 te vendo y me compro uno😂,23-3-2021,1
764,TheCresx,sal1m_ksd,,los usuarios de iPhone al ver esto : 😲😲😲😲😲😲😲😲😲😲😲,2-4-2021,1
765,Claudia María Monten,kaya3377,,vendo la casa,22-3-2021,1
766,Марс _ бмв,marselmamitbecov,,брат телефон простта агоннь😁😁😁😁😁😁,29-3-2021,1
767,Bri,brisaortizmalde222,,me lo regalan ???? xd xd 😂,29-3-2021,1
768,duglas >:|\,_d.u.g.l.a.s,,que alguien me explique,22-3-2021,1
769,Alison Ivonne,alisonivonne,,@diegolozanomenese 😅,22-3-2021,1
770,Ed Romero,edsanchez88,,@frankorado 😱😱😱😱😱😱🤩🥰😍,22-3-2021,1
771,Руся Альварес,rusya_alvares,,"За 170к я у Aple ноут с телефоном куплю лучше ,",29-3-2021,1
772,Wendy 🌈,wend_2.6,,@yass._.06 KOMO KHE LO QUIERO,22-3-2021,1
773,Ballsy,ballsyuc,,I need one,27-3-2021,1
774,Rocio Ledesma,rocioledesma28,,@abrilbrobledo2 vendiendo un riñón cada una lo compramos jajajaj,2-4-2021,1
775,Edith,karledirl,,@nelycac 😳😌,22-3-2021,1
776,User Triste,user.triste3,,"LPM, toma todo mi dinero, llevare 10",2-4-2021,1
777,Jackeilys,jackeilys,,@joyceruiz63,2-4-2021,1
778,Hadii Ameth,hadiiameth,,no es malo yo conpre uno y se daño pa pantalla de pinto 😳😳 y no querian devolber dinero y si danarlo que mal😳😳,21-3-2021,1
779,Débora,mebora..1,,@ludar_13 si quiero,2-4-2021,1
780,جۆکر,user6233515882668,,کم سعر,29-3-2021,1
781,✨✨✨,_isssssssa_,,@sandydraw5 eeeeeehhhh,2-4-2021,1
782,mingo turbo,mingoturbo,,"Me imagino que en ese móvil el whatsapp, el Facebook, tiktok, y toda esas redes son mejores 😂😂😂😂😂😂😂😂😂😂😂😂😂😂😂,.",22-3-2021,1
783,Rosamelano💅🏻,bitch3511,,yo tengo una pero es muy delicada es bien cara 😌😌,22-3-2021,1
784,<3,edits.de_todo.u3u,,De cuantos órganos hablamos?,2-4-2021,1
785,"RaYiNzEnZo, 👌🥵🤙",rayinzensoyt,,"Nee fue nada satisfactorio, ne ala vuelta señor, gracias.",29-3-2021,1
786,milii,mimigonlez,,bueno rreconfirmo que mis coreanitos son los mejores,2-4-2021,1
787,Chi_kondi🧚🏾‍♀️,chikondi022,,Was opening the box with a hammer necessary?,27-3-2021,1
788,Avi,avi_a_,,@sayuuwu de cuantos órganos estamos hablando??,22-3-2021,1
789,Priscila Camila 👑,priscila.caamila,,@gon.za0 miraaaaa,2-4-2021,1
790,JohnDoe297,johnndoe297,,puta madre que temazo😌👌🏿,2-4-2021,1
791,🇵🇷🏃🏻‍♀️🏋🏼‍♀️,wsg0034,,"hasta 1,500 esta ese cel
pero me.gusta🥰😏",22-3-2021,1
792,не знаю,aziza_2210,,zur,7-4-2021,1
793,Ali Malcho,alimalcho,,хареса ми,30-1-2021,1
794,Krzysztofzzzz,krzysztofzzzz,,Difference🤔🤔🤔Apple also has a phone in a box😂,31-1-2021,1
795,Achie Super,achiesuper,,Hey bro The real Champ.. Zo gaan die dingen eenmaal ouwe 💯💪😉❤️,8-2-2021,1
796,เเอนตี้วอนยองหน้าเหมียนหมา,m7_kwgn,,เเบบนี้จะมีเคสมั้ยเเล้วถ้ามีจะใส่ยังไง😂😂😂,2-2-2021,1
797,Sandra Hernandez9801,sansra000,,yo iba a tener uno pero ya no porque se le marca la tinta pordonde se dobla,30-1-2021,1
798,Anthony Zea,anthony5228a,,yo viendo su foto de perfil 😳 F,30-1-2021,1
799,tuki taka,francis_co_,,@gjulieta5 @lucibeth_2780 quiero uno de esos,30-1-2021,1
800,Juanindo Jorgi Janad,juanindojorgijanad,,@samsung Galaxy S21 5G thanks to @arminvanbuuren etc.,30-1-2021,1
801,AKK,someonefromest,,Z*,30-1-2021,1
802,LeaL,nincsszabadnevxd,,Meg hogy a pénzt nem szarjak...,30-1-2021,1
803,GIƱLIⱭ,giuliadecristofaro,,@francescapannitti che bello,30-1-2021,1
804,Angel💬,sad.right2,,guaoa,30-1-2021,1
805,ตั้งโปรไฟล์ไรดี,mpc.weather,,ตอนแรกที่เห็นกูนึกว่ากล่องกาดจอ,30-1-2021,1
806,Junior Di Maria,locolindoyrreal,,"Bro, would you give me one, that month, I have a phone for my studies🥺🥺🥺",30-1-2021,1
807,levogames,levogames,,😱😱,30-1-2021,1
808,응 니엄,ham04250,,얼마함????,2-2-2021,1
809,videos,starlinghangel,,tan caro y luego se queman la pantalla y Samsung no hace válida la garantía,30-1-2021,1
810,NDD,ndd_77.77,,y en una semana sucio 😂😂😂,30-1-2021,1
811,thejazz909,thejazz909,,le coup dur pour Apple,30-1-2021,1
812,tikko,tavano_tiko,,jaja semejante tecnología y usa una espátula oxidada con un martillo,30-1-2021,1
813,👀,k4te.l3,,@madalina_ciurca,7-2-2021,1
814,Diego Montenegro,diegomappe611,,Como se llama la cancion,30-1-2021,1
815,LiveFB-RrLMT,thao123le,,bao nhiu z,2-2-2021,1
816,▄︻┻═┳一RᏋጀGǺᎷᏋᏒ╾━╤デ╦︻✨,rexgamer786,,Holla,30-1-2021,1
817,大肥藍(小帳號),flying...boy,,求解背景音樂,2-2-2021,1
818,santiagxx0,the.king.009,,nadie ve mi ultimo video porque no tengo apoyo😕,30-1-2021,1
819,Hang_Akang,g114502,,china brand will copycat this,30-1-2021,1
820,大肥藍(小帳號),flying...boy,,被景音樂,2-2-2021,1
821,Karen Souza,karensouza938,,se quebrar o preço pra concertar é mais dois desse 😂,30-1-2021,1
822,Peter Alex,shavedmybeard,,Those high tech tools used to unbox!!! 👌,31-1-2021,1
823,NguyenKimKiet_34.🇻🇳🇻🇳,nguyenkimkiet_34,,chỉ để ý cái công cụ mở hộp😁,30-1-2021,1
824,ани_4ка,ann_741269_,,интересно сколько такая радость стоит 😳😳😳😳😳😳,30-1-2021,1
825,Maling Sendal,malsenahegawow,,Finally! unboxing pakek alat kuli,30-1-2021,1
826,Tristan,ttristan_1,,por que los pobres queremos eso,29-1-2021,1
827,el padre diablo😈,elpadrediablo,,esta connmadres el cel,30-1-2021,1
828,😎,siganme._.0,,Y yo aun con mi alcatel pixi,30-1-2021,1
829,Jorge Aguilar,jorgeaguilar115,,@3leenaa__machii,30-1-2021,1
830,Ezequiel Biglia,ezequielbiglia,,jaja porque usa una pinza para sacar una lamina,29-1-2021,1
831,521666666,zhangguimei5,,幫我買一台拜拖,9-2-2021,1
832,single,teha_6,,how much?😳,31-1-2021,1
833,احسن لك ماتعرف 🌚👍,ota_ko115,,هدول يخربو بسرعة,30-1-2021,1
834,tukang komen,tukangkomen060,,i want,29-1-2021,1
835,user1587699727797,rulas_emi,,como se llama esa abominación entre una tableta que se parte a la mitad poraccidente,29-1-2021,1
836,kesialan_Karma_Dosa,jadilah_neraka,,HP iPhone bisa gini gak,30-1-2021,1
837,ĐÆVÍĐ,elfantasma_vl,,con razon no encontraba mi celular 😂,29-1-2021,1
838,Amanda Daniela Mora,amanda_73906530,,como hase los estuches😁😁😁,30-1-2021,1
839,DalemberJavier,dalemjav26,,@angie26alexa,29-1-2021,1
840,gustavo a joya j,gustajoya,,"Vale 3.600.000 en Colombia es muy bonito, también el huawei p40 mate es muy bonito.",30-1-2021,1
841,Rafael Hernandez,rafaelhernandez604,,noooo,29-1-2021,1
842,Cezar Cortez,ruan1321,,@vanessa22011,29-1-2021,1
843,Oscar Sanchez,osf43,,"súper importante abrir la Caja con una espátula y retirar plásticos con alicates, si no no te cubre la garantía.",30-1-2021,1
844,firlly,firllycantikk,,gw kira mau di hancurin 😳,31-1-2021,1
845,fans de xxx,insfran_fabri,,solo los veteranos del fre reconocerán la canción,30-1-2021,1
846,user2828186451453,luiskham,,Esta mejor mi alcatel 😌,30-1-2021,1
847,OPERATOR UNIT 113,operatorunit113,,mau dong,9-2-2021,1
848,Tony Ton Tony,tony_ton_tony,,liat aja wah banget ya apalagi bisa memilikinya 🥺,30-1-2021,1
849,Franz Aly Varas Huam,franzchi23,,me lo regalas porfa,30-1-2021,1
850,ekkaterinaa,k5_5_4,,@mmorioka,30-1-2021,1
851,Van Anh,user822978822,,cái này chơi ff phải sướng bt mấy😁,2-2-2021,1
852,.....,nroonline123,,Iphone ko đủ trình😏😏😏,9-2-2021,1
853,ckrit378,ckrit2,,Когда продал 2 почки,30-1-2021,1
854,Akira an,akira.hc_,,koomgiko,30-1-2021,1
855,CB Love,cblove07,,donde lo venden,30-1-2021,1
856,mirtha legrand,m1rtha_legrand,,yo quería escuchar el plastiquito sacandolo😌😌,30-1-2021,1
857,Alexander Gonzalez,user743288065,,cuanto bale ??? y en donde lo compro 😎,30-1-2021,1
858,Hemerson Oliveira,hemersonoliveira02,,Para que diabos ele usou a espátula kkkkķkkk,30-1-2021,1
859,Fábio Junior,fabiojunior06,,moço cuidado isso vale um o preço de um rim,30-1-2021,1
860,Alan Cano 🔥,alandavidcano0,,regalame uno porfa,30-1-2021,1
861,david calle,davidesteban029,,regalé,30-1-2021,1
862,Edgar Eduardo Martin,edgareduardomart2,,😲😲😲quiero uno,30-1-2021,1
863,✨s✨,iammelsof,,@yaretzimancillar,30-1-2021,1
864,Uriel,uriel23112019,,cómo lo puedo conseguir alguien,30-1-2021,1
865,Jakkus Ortiga,jakkusortiga,,wow!😍😍😍😍😍😍😍😍😍😍😍😍😍😍😍😍😍😍😍😍😍😍😍,4-2-2021,1
866,Niyo kerkhofs,_niyo_,,can i have one?🥺,1-2-2021,1
867,user2704030657277,annemarieekwel0,,wouahh trop mortel c'est combien,30-1-2021,1
868,VSam18XD-SY,vsam18xd_sy,,Eso quería yme dijeron que no,30-1-2021,1
869,Luis Jhonatan Palma,jhonatan.palma,,"tiene para comprar eso, pero no puede comprar algo mejor que la espátula",30-1-2021,1
870,Sofs,sofsl19,,@_mariana_monteiroo,5-2-2021,1
871,Meilleurdu1,meilleurdu1,,Le prix pour savoir ... 😳😅,30-1-2021,1
872,Niyo kerkhofs,_niyo_,,mag ik er 1 dan ga ik u volgen🥺,1-2-2021,1
873,Adan Sniper,adansniper,,esta a 5mil dolares esa madre ta barato,30-1-2021,1
874,Abigail Park,dilenoaljinglejangle,,Me dijo pobre en 10362635171919632919119 idiomas,30-1-2021,1
875,Pandawa Putra,zira140,,haraga berapa kak,1-2-2021,1
876,Estephany Ovalles,estephanyovalles3,,De cuantos órganos estamos hablando exactamente 😬,30-1-2021,1
877,NAGA PUTIH💫,rahasia.75,,harganya berapa😳,30-1-2021,1
878,Δημήτρης Χαιδακης,dimitrischaidakis,,έχω και εγώ τέτοια πένσα 😁,4-2-2021,1
879,user3412556343673,boris03jc,,Je l'adore le jour je l'aurais je dormirais plus hoo😂😂😂,30-1-2021,1
880,Vick,vitoriaaagabriely,,necessito,30-1-2021,1
881,Laa Pepo,laapepo,,estoy vendiendo mis organos si a alguien le interesa 😂😂😂 necesito este celu,30-1-2021,1
882,Mika,mikareos12,,fun fact : Did you know that a Nokia also has this folding phone!,30-1-2021,1
883,Andariego Urbano,andariego_urbano,,"lo abrió delicadamente con una espatula y martillo y quitó protector con pinzas pero el trae guantes, a pirrruuuu",30-1-2021,1
884,Martin Cortez,martincortez39,,ni vendiendo las 40 toneladas de cobre que junte me lo compro 😂😂😂,30-1-2021,1
885,Minh Minh,hd.minh.com,,Hellu,11-4-2021,1
886,stephanie,short_army,,@amydelgadopenafie,30-1-2021,1
887,Lizandro Cruz Martin,lizandrocruzmarti,,se imaginan jugar free con eso,30-1-2021,1
888,Fadhil,hiao8,,2x lipat harga aipon,30-1-2021,1
889,lore hilgert,lorehilgert,,lo abrió con una espátula y martillo!!!!🤔🤔 una trincheta???,30-1-2021,1
890,_Sbaars_,_sbaars_,,"se me cae el celular siempre, si tengo ese no durará ni dos días 😂",30-1-2021,1
891,Ximena Sánchez,user3738126244717,,0 cuesta cuánto cuesta cuánto cuesta,30-1-2021,1
892,lore hilgert,lorehilgert,,una pinza para sacarle el film!!!! no este no tiene ése celular jaja 😂😂😂😂,30-1-2021,1
893,JHONNYMH,ricardomamani3,,"Bueno la espátula y el martillo listo, solo falta el móvil-tablet",30-1-2021,1
894,Daniele Vernek Ferre,anaclaravernek,,@bruna_218,30-1-2021,1
895,Костя Чернявский50,kostyachernyavsky1,,да к чему эти понты молотки пласкокубци,30-1-2021,1
896,Kennedy Saenz Quinte,kennedysaenzquint,,Donde lo puedo comprar,30-1-2021,1
897,NHƯ QUỲNH,user1234567890098q,,rh jTn😅,4-2-2021,1
898,Petrobras,lacopec,,"：tengo en la mira al que
(　-_･)ᡕᠵ᠊ᡃ່࡚ࠢ࠘ ⸝່ࠡࠣ᠊߯᠆ࠣ╦╤──
no me dejo su ♡0",30-1-2021,1
899,BTS ARMY,jiteindra,,can I have,1-2-2021,1
900,gemm,gemilangaii16,,pengennn lebih suka samsing🥰,7-2-2021,1
901,Pao Pineda700,paogarcia910,,quiero uno😭😭😭😭😭😭😭😭😭😭pero soy pobre,30-1-2021,1
902,<3,fa4ryjin,,@hankxrose “trap 4” *valt dood*,3-2-2021,1
903,Violeta Ch633,violetamishel,,creo que ya no me hace falta un riñón 😂😂,30-1-2021,1
904,Pirpirikos,pirpirikos,,τι στα διαλα; με τη σπάτουλα ανοίγουν τα κουτιά;,6-2-2021,1
905,-Ezreal-,ezreal18,,how much,30-1-2021,1
906,Helandt,noha.hdt,,Die gute Umwelt,19-11-2021,1
907,ahmad ihsan123,ahmadihsan27,,wah,1-2-2021,1
908,SEP_FC,sep_fc,,@mordex34 bora x1,30-1-2021,1
909,user6603217810782,carloszavalaherrera65,,cómo se llama ese producto,1-2-2021,1
910,Mooon,mymooooon,,era necesaria la espátula -_-,30-1-2021,1
911,C.Clarck,clarck4.2,,top....,30-1-2021,1
912,Abel Fabian,abelfabian4,,Prefiero sony,30-1-2021,1
913,none,moikkaenooenaataalla,,@ruminsisu musa😎,30-1-2021,1
914,Francisco Valenzuela,franciscovalenzu56,,me lo pudes regalar para febrero 🥺🥺,30-1-2021,1
915,❤❤,edit.de.montpantoja,,de cuanto riñones estamos hablando 🤨🤔,30-1-2021,1
916,naruteiro,naruteiro04,,não tem película que aguente,30-1-2021,1
917,Ana beatriz Bonfi558,anabeatrizbonfi2,,cera que um dia vou ter um vece😌,30-1-2021,1
918,(☞ ͡° ͜ʖ ͡°)☞,caramelo__baby,,ver YouTube aí desse ser muito bom,30-1-2021,1
919,ポーレット,worl.sad__,,se imaginan q esten jugando free fire y derrepente de cierre esa madre😂,30-1-2021,1
920,Nicolay Espinoza,nicolayespinoza17,,dejamos 100000k si nos dises donde lo podemos comprar,30-1-2021,1
921,lito,josevictor546,,😻,30-1-2021,1
922,Jacky Mvega,jackyminutti,,@alexvcastro cómpramelo 🥰,30-1-2021,1
923,tootigmootig,avakhagopian,,🥰,30-1-2021,1
924,Una vez Jesús Dijo❤️,jesusunavezdijo,,cuentaaa un riñon 😂,30-1-2021,1
925,jiraiya,miekael3,,berapa harga HP ni,29-1-2021,1
926,Muhammet_krd,_.muhammet93._,,apple en sueur 😂,29-1-2021,1
927,djAlexuS,djaalexus,,Jjaja si tiene un espátula oxidada para abrir un teléfono de más de 30 mil pesos,31-1-2021,1
928,Micaela Cardozo,micacrdz,,que venda mis riñones dice,30-1-2021,1
929,Darker,darker355,,no es buen celular 😏 es una 🍪,31-1-2021,1
930,Younes Ennjim,younesennjim,,me lo podrían decir porfa,29-1-2021,1
931,Carlos Patricio,carlospatricio4,,@adriancarlosperez,29-1-2021,1
932,ESOF | MAKUシ︎,giga_hltler,,Pls can you give me,29-1-2021,1
933,nemanja,nemanja500,,mogu li ja dobiti taj telefon caba🥰,29-1-2021,1
934,Daniel Salinas,danielsalinas087,,justo en el medio de mi pobreza 😂😂😂,31-1-2021,1
935,silverghost006,d0c007,,maker of the vud is kane using weird tools to unbox.🙃,31-1-2021,1
936,Liz:),idk.lizzz_,,@mika_aby2008 @cami_urgilezr @sebas_m_0216 toy chira,30-1-2021,1
937,Simzonian,simzonian,,@wanmhf @yopempayarchannel,30-1-2021,1
938,edits,shereka.de.mel1,,"[wronged]
[angel]
[cute]
[hehe]
[cry]
[happy]
[cool]",30-1-2021,1
939,yacin,yasino35,,plies gave me plies🥺🥺🥺🥺🥺🥺🥺🥺🥺🥺🥺🥺🥺🥺🥺,31-1-2021,1
940,Paul Villavicenci847,paulvillavicenci0,,Yo me lo regalas jajaj😂😂,29-1-2021,1
941,KendallDuarte KO,chino_06_oficial,,Donde consigo uno de esos ?,30-1-2021,1
942,user5361941471059,ericsebai20,,Waouh🥰,31-1-2021,1
943,fdlysptn,fadlyy060,,definisi kang kuli beli hp,10-2-2021,1
944,Michal Zimola,michalzimola,,wooooooooooooooooooooooooooooooowwwww,30-1-2021,1
945,user1967627476074,stas7474,,сколько за него денег?,31-1-2021,1
946,𝕯𝖍𝖆𝖓𝖟𝖞𝖞,dhanzzxyy,,gw punya hp juga bisa dilipet cuman 20 ribuan,2-2-2021,1
947,Fernando,fer089...1,,lo tiene mi mama,29-1-2021,1
948,Daniel Dos Santos Al,dealmeida008_,,moi on m'a dis que cetter pas encor bien fais se genre de système du Samsung donc à éviter quand même par se que il peux avoir juste des souci du plie,31-1-2021,1
949,Adrian Neri Zarco,adriannerizarco,,The best iphone,29-1-2021,1
950,Rafa Cavales,cavalera_rafarilo,,ESSE EH O NOVO CELULAR DESCARTÁVEL DA SAMSUNG... COMO TODOS... 😏,31-1-2021,1
951,Luis Martinez,angel.juego.fri,,donde lo consigo😂,30-1-2021,1
952,user1166889685136,davidnieto070993gmail.co,,dondr me consigo uno asi yo quoero uni 😳😳😳😳😳🥰🥰🥰🥰🥰🥰🥰🥰🥰,31-1-2021,1
953,Jesus Andres Hernández Garcia,andresgarcia1602,,y cuanto valeria eso,30-1-2021,1
954,David Baratt,davidbaratt,,🤘👍👋,31-1-2021,1
955,Rubens Santos,rubenssantos202,,qual o valor 😏,31-1-2021,1
956,Catrachito Catrachit,catrachitocatrachitocat0,,Quiero 1⃣ de esos,31-1-2021,1
957,Richard,richard_just,,dělá tohle i Xiaomi?,29-1-2021,1
958,Mibu,chico_tecrew,,c'est classe mais trop cher,31-1-2021,1
959,Paul Hernandez,paulhernandez65,,todos hablan del celular pero nadie de la espátula😅😅😅😅😂,31-1-2021,1
960,Assadullah Hassan906,assad0846,,Can I have a phone,29-1-2021,1
961,Joni Hernandez,jonathan_xd1023,,tome mis dos riñones,31-1-2021,1
962,고마해라 마이 묵었다 아이가,bega6472,,나도 저거 쓰고싶다..ㅠ,29-1-2021,1
963,우엉차~~♡,lovebank12,,갖고싶은것도 못갖는 ㅠㅠ,29-1-2021,1
964,Cristian Lopez,cristian47471,,Eso se parte 👍,29-1-2021,1
965,Veom,veom_v,,"Sprawię, że twoja noga zasnęła: - unieś nogę - umieść to na 10 filmach, opuść nogę, a zobaczysz ten ból xd",29-1-2021,1
966,♓Pisces,snurodiatulf16,,mau,31-1-2021,1
967,Anyoli Guevara,anyolimilord,,bellísimo 🥰🥰🥰🥰,31-1-2021,1
968,@MIKE GAMBOA,mikegamboa8,,🙊😍👌👍,31-1-2021,1
969,Manuel stoica,manuel.stoica.2007,,isso pra jgr um free fire era mt bom 🥰,29-1-2021,1
970,ROBERT,boxeo.com,,que venda un riñón dice 😂,31-1-2021,1
971,Diego Cortez,diegocortez93,,Chale jaja has una rifa jaja,29-1-2021,1
972,M.YILMAZ😉😉😎🇹🇷🚛,m.yilmaz_,,FENERBAHÇE 😏,29-1-2021,1
973,R@,khadafi2911,,"I'm from Indonesia, want to ask, please give me the Samsung z fold 2 cellphone",9-2-2021,1
974,kamal🥀🥀💔💔Putri Kartika,putrikartikakamal,,😡😡😡😡😡😡😡😡😡😡😡😡😡😡😡😡😡😡😡😡😡😡😡😡😡😡😡😡😡😡😡😡😡😡😡😡😡😡😡😡😡😡😡😡😡😡😡😡😡😡😡😡😡😡😡😡😡😡😡😡😡😡😡😡😡😡😡😡😡😡😡😡😡😡😡,29-1-2021,1
975,JSH3,joshuavdatog,,"▬▬▬.◙.▬▬▬
　═▂▄▄▓▄▄▂
　◢◤ █▀▀████▄▄▄◢◤
　█▄ █ █▄ ███▀▀▀▀▀▀╬
　◥█████◤
　══╩══╩═🥰🥰",30-1-2021,1
976,kamal🥀🥀💔💔Putri Kartika,putrikartikakamal,,👎👎👎👎👎👎👎👎👎👎👎👎👎👎👎👎👎👎👎👎👎👎👎👎👎👎👎👎👎👎👎👎👎👎👎👎👎👎👎👎👎👎👎👎👎👎👎👎👎👎👎👎👎👎👎👎👎👎👎👎👎👎👎👎👎👎👎👎👎👎👎👎👎👎👎,29-1-2021,1
977,Usksjuz,aeriiii0112,,Regalame 😁,30-1-2021,1
978,艾因纳恩🙆🏻‍♂️🇰🇷,winner_0321,,실재론 30만때,30-1-2021,1
979,user6947977489478,kyel_caa10,,vive les samsung🥰✊🏻✊🏿,30-1-2021,1
980,roze,_commandant_roze_,,J adore la musique,31-1-2021,1
981,Gabo RA,gabora3,,@karenmartinez833,31-1-2021,1
982,_DAVID Cruz_,davizcruz,,ahora encontré la razón x la cuál vender mis córneas 😏😏,30-1-2021,1
983,Kyawgyi,user7980542137302,,how much,29-1-2021,1
984,Dylan Leichner,dylanleichner,,@momolyly15,29-1-2021,1
985,Geen idee,bourgondier64,,Difference???? I only see you unbox a Samsung. Bullshit video or bullshit title,30-1-2021,1
986,Manuel Keukens,broodgist,,dus niet,29-1-2021,1
987,César Díaz,csr0770,,alcanza con 3 pesos?,30-1-2021,1
988,Daniela Mazariegos,danielamazariego4,,Me quedo con la vieja escuela 🤣🤣🤣🤣🤣🤣🤣🤣🤣,30-1-2021,1
989,Gonzalo Bayon,gonchi391,,en dolar a como costaria perdon ??,30-1-2021,1
990,Harini durga Durga h,harinidurgadurgaharini,,wow i like,31-1-2021,1
991,Jair Jordaan,jairjordan73,,que modelo es ?,30-1-2021,1
992,Sam Hernández,sam_hernandez0511,,lo único que tengo de ese video es la espatula,31-1-2021,1
993,Рома Трикуш,romatrykush,,В мене samsung galaxy a 10s,29-1-2021,1
994,user3291636558186,diogo_237,,"TEAM KING KONG 🦍🦍🦍🦍🦍
TEAM KING KONG 🦍🦍🦍🦍🦍
TEAM KING KONG 🦍🦍🦍🦍🦍
largatixa com o poderzinho nem vai clicar😎👌",29-1-2021,1
995,☞︎︎︎𝕐𝕙𝕠𝕟𝕪✞︎ℝ𝕠𝕢𝕦𝕖☜︎︎︎,yhonyroque,,que tal me correra el Free Fire ahi😬,31-1-2021,1
996,Jose Jaime Hernan531,josejaimehernandez1,,esta bien perron,29-1-2021,1
997,vanessa,vanessa._.090,,@_vani_21,29-1-2021,1
998,seblakkk,villain_1304,,gua jadi bingung mau bli Iphone 11 apa samsung z fold 2 ya,2-2-2021,1
999,Рустам,rystam277,,сколько стоит,31-1-2021,1
1000,Moises.R,adrielb11,,Los mejores Team Samsung 😎,29-1-2021,1
1001,wesleygtsk,wesleygtsk,,Me dá um desse,29-1-2021,1
1002,KiNG Darkne$$,kingdarknessss,,samsungg noob la gilerr ahahaa,29-1-2021,1
1003,Rut Elena,rutelenarodriguez,,Donde consigo uno y cuanto vale 🤔,30-1-2021,1
1004,Gustavo Diaz,diazmau1,,"en soles, su valor?",30-1-2021,1
1005,Jamie 🇮🇩,jamesphotos377,,tis wel een sexy telefoontje hoor,31-1-2021,1
1006,Mostacho| Soy D' Mi Tio,moschato,,todo para presumir qe tiene mesa,30-1-2021,1
1007,szczurski,pg_sharp,,i kiedy zawiasy się wyrobią 😂,30-1-2021,1
1008,Tik Toker,02022006av,,đừng nhìn tên t 😁,2-2-2021,1
1009,huhyyy,tidakadanama_065,,harganya brapa tu bg,2-2-2021,1
1010,Osmar Uriel Reyes,messiento_mexicano0,,technology will kill us😌,30-1-2021,1
1011,Giovanni Stroke Hamm,giovannistrokeham,,"Huele como a $60,000 pesos y 1 año de actualizaciones.... 😂😂🤣🤣🤣🤣",31-1-2021,1
1012,♤KRATOS♤,kratos_2.8,,Me la puedes regalar,30-1-2021,1
1013,Yusuf Cihan,fener_wix,,💛💙💛💙💛💙💛💙💛💙💙💛💙💛💙💛💙💛💙💛💙💛💙💛💙💛💛💙💛💙💛💙💛💙💛💙💙💛💙💛💙💛💙💛💙,27-9-2021,1
1014,Fabrice 94,fabrice072005,,franchement on est bien d'accord que c'est de la merde,1-4-2021,0
1015,Angel,ash_lynx1,,Cual es el celular lo quiero comprar?,1-4-2021,0
1016,user6492980591419,romanis5,,يرحم والديك هديهلي 🥺,1-4-2021,0
