,Comment Number (ID),Nickname,User @,Comment Text,Time,Likes
1,:),imnotdjojo,,bruh... that ain't even a real iPhone 12,5-2-2021,11
2,shinnie😴,.nagatorosan,,Thats a iphone 11,8-2-2021,8
3,random stuff whit balls🥦,r.a.n.d.o.m.g.u.y.y,,doe Nokia,21-3-2021,5
4,ジェイク,viezeaziaten,,"1 simple question, why",18-2-2021,5
5,29Division,29divison,,Instead of breaking iPhones give them to me I really need some,18-3-2021,5
6,π{Candra}π✓,can01__,,better for me 😳,12-2-2021,4
7,Fahmie Izzuddin303,fahmieizzuddin04,,good for me I am poor 😭,10-2-2021,4
8,▁ ▂ ▄ ▅ ▆ ▇ █,___gab0___,,Try it again with an actual WORKING iPhone12? coz iPhone deserves it? 😂,12-2-2021,2
9,Ishaan Sengupta955,idkwhutimplayin,,I hope insurance covers that lmao,20-3-2021,3
10,Edgar Castillo,alejandro_07110,,do it nokia,1-4-2021,2
11,𝐓 𝐀 𝐍 𝐄 𝐒 𝐒 🇲🇾,taness36,,Seriously no one notice the 1st want grinder not even open oso😳,12-2-2021,2
12,Zenlovesgraham,zenlazymdfk,,try nokia the toll will break😂,10-2-2021,2
13,e,dont.ask.me.brother,,is ja egal ist nur Iphone,8-2-2021,2
14,Alfie Jose Musngi,alfiejosemusngi,,noooooooo🥺,12-2-2021,2
15,Molong,molonggoloid,,UwU my dream phone🥺,11-2-2021,2
16,Eda,einfach_eda_lol,,morgen wieder mein handy schneiden kein bock😳,12-2-2021,1
17,RisMenZ,rismenz,,@briliances duhh😩,12-2-2021,2
18,𝓑𝓾𝓽𝓪𝓺🕊,keladirebuss,,better give to me man,12-2-2021,2
19,mfajar.insankamil,kuumiiiillll,,instead of you making a rest ip12 it's better for me because I need it to learn🥺,12-2-2021,2
20,Giấm Tỏi,fffffffffai03,,mày biết khá bảnh không,3-2-2021,10
21,hùng ạ,thang_be_hung,,đây là họ đang quảng cáo máy cắt nha chứ đừng hiểu nhầm 😂,2-2-2021,30
22,kode hack :F7G77R5AHXYZ,bct_lu_ajg,,"yg pertama itu kan namanya Gerinda,jadi gerinda itu gk muter...coba perhatikan baik²😏",11-2-2021,24
23,n!!,nhabiba__,,android menangis melihat ini😌,12-2-2021,12
24,Rendi,rendi_apriliandika,,"OPPO A37KU udh retak""woi, buat aku aja itu ya allah",2-2-2021,9
25,Chuẩnvl,dzam10,,Cho mày mượn iphone mày phá vậy đó à,2-2-2021,52
26,與你同型,7855aa,,現在活動舊換新，不論好壞可一換一，所切對半換二只,12-2-2021,6
27,Min🐼🐼,min7.9.94,,em khổ quá em không có ô 11 cho em một cái đi em đang xài Samsung em mua lại 1 triệu của ta,9-2-2021,6
28,Lão Nhị,laonhi007,,cái cưa cằm tay ki a nó đua có quay đâu mà cất được,2-2-2021,6
29,Trần Huỳnh Thái.,_callme.natris_,,mô hình :))),2-2-2021,11
30,￴￴￴￴￴￴￴￴￴￴￴,deey_27,,Nokia tertawa melihat ini😂,7-2-2021,9
31,PKL. 2,3010duytoan,,Nobody: ip 12 ra mắt mấy tg youtube be like 😂,2-2-2021,6
32,kngan🤓,dnkn._,,@tlngmyoongi mua cục gạch về cưa,3-2-2021,6
33,Bảo Thích Đu Đưa,badboy2072005,,nhà bán điện thoại mà lo gì 😏😏😏😏😏😏,2-2-2021,11
34,Trường Dương🍀,duongtruong88_2006,,xem video của t đi😁,2-2-2021,11
35,Trần Tài≡²⁰⁰⁸,taibaybi,,Sao nó không nổ nhỉ :)) hàng china à😂,3-2-2021,23
36,Thành em,ratkhodequen,,Cho like vì video có đầu tư,2-2-2021,10
37,༻ི 𝕂𝕀𝔼̣̂𝕋 ℕ𝔾𝕌𝕐𝔼̂̃ℕ ༂࿐,nguyenvankiet,,Má. T còn không có để dùng mà nó còn đi phá 🥺,3-2-2021,12
38,Quyết,vanhleg53,,Mô hình 250k vn đầy😂😂😂,2-2-2021,8
39,plub42,chaimongkol42,,เอามาไห่กูสาาา🙏,12-2-2021,7
40,Ferdi Jago,ferdini777,,mending kasi ke gua,7-2-2021,7
41,Hoàng Anh Có Nịt 😗,hoanganhdangziu,,anh không cần thì cho em sao lại làm thế 😅😅,9-2-2021,7
42,Phan Dinh Thinh,thinh.ph_,,đồ giả đồ thật thì nó đã nổ vì trkng pin đt cho 1 chất mà khi tiếp xúc oxi thì sẽ nổ,2-2-2021,22
43,KANG'DRIFT🇮🇩,pandunihgenkk,,cuma mau bilang kalo berbagi itu indah😁,2-2-2021,6
44,Football.,football.c23,,iPhone fake nha mn nhìn dấu chấm trắng ở cam là bt🤗,3-2-2021,10
45,Sa la la là la,luuquoccuong2672003,,đây là iphone fake thôi . chứ ai phôn thật không cưa đc đâu nhé . tao thử rồi thế là phải đi mua cái mới 😏😏,3-2-2021,7
46,Anthony Mejicanos,anthonymejicanos,,"y yo que necesito un celular para mis clases en línea :""(",29-3-2021,8
47,Min🐼🐼,min7.9.94,,"em đăng ký cho anh rồi đấy anh cho em một cái iPhone 11 hay là một cái Samsung là được
😅😅😅",9-2-2021,7
48,🔥,grappigevideo15,,je had de iPhone beter aan iemand anders kunnen geven die het harder nodig hebt🥰,3-4-2021,16
49,Con Gái Bố Đại,iuuquocnhieu2104,,Cho t có pk đỡ pkí k,3-2-2021,7
50,shinnie😴,.nagatorosan,,Dat is een iphone 11,8-2-2021,18
51,Larinho,lara3.1415926535899,,Con eso te armabas una pc,2-2-2021,10
52,Mattie Tomczak,mrzhc_epic.for212008_12,,Flip flap hele dure grap,10-2-2021,10
53,Parsa,parsakat,,Waarom?Veel mensen hebben geen telefoon🥺,2-2-2021,11
54,Milanlans,milanlans11,,Ik had die echt nodig heb iphone 4,3-4-2021,7
55,ANTI thằng mặt lờ ĐẠT VINAPHON,bitas291024,,mô hình :((,2-2-2021,5
56,bangbro07,bangro07,,"gue aja nabung buat ipon susah payah,la dia udah dapet mlh di ancurin😌",12-2-2021,5
57,Fb:นา. ลิ่ม'ฯ👻💫💜,pimpika647,,อ่อรวย,12-2-2021,5
58,Đức Thành,ducthanh469,,Thế còn thừa cái nào k cho mk xin cái 😅😅😅,2-2-2021,5
59,.,0.125hz,,Ko dùng thì đưa đây t bán đồng nát,7-2-2021,5
60,cô đơn,hoangvivo0,,cho jk đừng cưa😂,2-2-2021,5
61,わし,wasiwasi556,,フェイク品で草,2-2-2021,5
62,Akmal hengker🤓🤓,akmalhakami,,"coba Nokia, penasaran apakah nokia benar² kuat",12-2-2021,4
63,서훈한 라이더,seohun_rider,,목각이네요 뒤판에 무선 패드 잇습니다,10-2-2021,4
64,fl hết top top =)),tranngochai.16,,cái cưa đầu có chạy méo đâu,3-2-2021,5
65,ndtuyen9x,ndtuyen9x,,Hàng face,8-2-2021,4
66,CEO of LEMAK,_farah.hhh,,Mending buat gw 😳,12-2-2021,4
67,will✨,punyakyoan,,@ntahgatausiapaaaa kasi buat kita aja kan:),12-2-2021,4
68,The frontman 🔫🖤,frontman067,,Je bent gel,16-2-2021,3
69,Timo Roos,timoroos5150,,Met slijptol krijg je hem makkelijk door midden alleen moet er anders schijf op omdat hij versleten is gebroken is daarom gaat hij er niet door heen,12-2-2021,3
70,Alcx,alcxrj,,@tara.amirian probeer dit 😍😍,25-2-2021,3
71,Timo Lemmens,timolemmens3,,Ik had hem graag gehad 😂,9-3-2021,3
72,Idil Sharaf,idilsharaf,,"dadka markey lacgta ka badatay wa iska sidan dee
ku raxesta aduunka aqira san u kadaran la idin kala insha allah",12-2-2021,3
73,nhìn cái quần đùi,28022007t,,"Ko nổ😌 , mô hình hoặc là đã lấy pin ra",8-2-2021,3
74,SWHF,le_gemeaux,,On a pas les mêmes phones. Tu fais ça avec le mien ça part comme sur du beurre 😂😂😂,27-2-2021,3
75,manusia yang dimanusiakan,siapaboleh109,,bang kasih keaku aja bang seumur hidup belum pernah pegang hp ipon😢,12-2-2021,3
76,ミ★GCT★Nô Aww,dat11cm,,ay ay ay ay zồi ôi sót🙏,7-2-2021,3
77,wawan,wansptr,,mubazir om,12-2-2021,3
78,SexyBakka,tiktokuser20132907,,Mag ik een telefoon?,3-4-2021,2
79,M I I,zonamatirasa,,mending buat gua😭,11-2-2021,2
80,命,mstar124629954,,你以為他是蚯蚓砍斷可以變兩隻嗎,12-2-2021,2
81,user8455780099805,binh221316,,12 pro mô phỏng ae ạ,7-2-2021,2
82,Danique,daniquefuhler,,Je had die telefoon ook aan mij kunnen geven🤡,30-3-2021,2
83,Kyano Buitendijk,owen12063,,iPhones pesten mag niet,9-3-2021,2
84,Howthingsactuallywork,howthingsactually_work_,,Ik die 3 jaar voor een iPhone 10 spaart 😌,7-3-2021,2
85,AndhikaSaputra_18,ansapchanel,,"sayang bnget hp mahal mahal Di rusak , aku pengen hp itu ga kesampean 😔semoga Kelak aku bisa punya hp itu amin ya allah",16-2-2021,3
86,Nguyễn Nghĩa,user952672809,,khi phát hiện smartphone là hàng China's 😳,12-2-2021,2
87,เฟชคั้บ มีคนชอบเรียก,faetfa_2542,,บ่แตกใส่หัวกะบุญละตั๋วเฮ็ดไป😂😂,12-2-2021,2
88,Khánh's Huyền's,khanh.huyen_2006,,tôi đố bạn cưa được nó kìa đấy😏😏😏,12-2-2021,2
89,سياا انك تمفن,ardikaaah,,ada yang sadar gak sih klo yang pertama gak nyala,12-2-2021,2
90,N⛓,naziyraa_,,Sumpahlah mending buat gua tuh hp ya allah,12-2-2021,2
91,Fb: Đức Min's,ducmin97,,Máy mô hình nhé . Máy thật thì pin nó đã xì banh nóc rồi,7-2-2021,2
92,user1995047979969,amrish180,,zonde als je niet nodig heb geef het maar aan mij 😂,3-4-2021,2
93,FB: Đỗ Quốc Anh,doquocanh_18,,cưa v k nổ hả mn,9-2-2021,2
94,Ady,adyy448,,nowwww. give me iPhone please😂😂😂,11-2-2021,2
95,olrodrigo64,olrodrigo64,,y yo pensando xq no me lo regala,23-3-2021,1
96,🖤Logan🖤,rxlogan,,ik die spaart voor een nieuwe tel en deze man zaagt die tel heel rustig...,3-4-2021,1
97,♉,risamlw,,"apa si halu bisa kek gini?,atau si aipon exer bisa kan dia hoolang kayah",12-2-2021,1
98,Stan van dijk,stanvandijk73,,Waarom doe je dit,28-4-2021,1
99,jammy1441,jammy.....j,,noooooo why,18-2-2021,1
100,ผมนิเดรบอส😎,phatchara_010,,ให้ผมก็ได้😏,12-2-2021,1
101,dalat,duyz.qann,,Mẹ đéo xài đưa tao mẹ đi,7-2-2021,1
102,🐤,kluyut733,,Bikin kesel dehhh seriyusss syumpahhh💅🙂💔✨😭🤣,12-2-2021,1
103,cfilxbert,allwl_80,,dasar anak ngen,12-2-2021,1
104,dkdika,dkdika_247,,ko di gituin ngab🥺,12-2-2021,1
105,panggilsajaudiii,udin1116,,mending iphone nya buat ganjel pintu aj bangg,12-2-2021,1
106,K O Y,koohhe03,,Rame teu,11-2-2021,1
107,Phùng Ngọc Thoại,phungngocthoai,,mô hình,11-2-2021,1
108,Ngô Anh Tuấn,id791998,,Nhìn bt mô hình,7-2-2021,1
109,silumantupai,dakjelas112,,dumy itu,12-2-2021,1
110,Anh Kim,anhkim0799,,"If you have more money, please send me one. I'm very poor, I can't afford to buy it🥺",12-2-2021,1
111,Lance?,bakalanceto6,,Don't break it give it to me,12-2-2021,1
112,Muhd_Syaf,muhd_syaf,,samsung pls,12-2-2021,1
113,omnii_doodoe,omnii_doodoe,,deze video is niet compatibel met iPhone 12 teardown afbeeldingen 😁,12-2-2021,1
114,Ay lubis,frdh43,,hdc ahha,12-2-2021,1
115,ドナルド,totomogwapo,,"Nokia 3310 hard test maybe,",12-2-2021,1
116,Habib Saukyzawfani,zwfni21,,astaghfirullah buat saya aj bg biar bisa main game ml lancar ngk ngeleg,12-2-2021,1
117,April,ultah_ku21,,lebih baik buat saya yg kepengen ip tapi gak punya uang untuk beli ngakak😂,12-2-2021,1
118,reyhan,reyhandika290,,hahahahaha tertawa terbahakbahak,11-2-2021,1
119,Phùng Ngọc Thoại,phungngocthoai,,nếu iphone thật là nó nổ r,11-2-2021,1
120,Tom,tui_la_tom,,"nhìn là biết đây là mô hình vì thứ nhất là pin khi cưa ra không nổ, thứ hai là khi cưa, kính sau vỡ ra và không hề xuất hiện cái bảng mạch mà có nhựa",10-2-2021,1
121,Sgarco04,sgarco04,,@_celestecr que necesidad? 😭,7-2-2021,1
122,💙,veegasanncheez__,,pero q hacees dámelo,7-2-2021,1
123,Cua Nguyễn528,kuakoy278,,đi mẹ 60k 😅,7-2-2021,1
124,Nguyễn Minh Tuấn,2369.comtiktok,,mô hình,7-2-2021,1
125,Xuân Dương,xuanduong2502,,Mô hình hh,7-2-2021,1
126,user9044925237693,dikkekip.jol,,Je kan ook gwn geven want ik kan dat bijvoorbeeld niet betalen,11-3-2021,1
127,Third Eye,kenjames666,,Zzz,11-2-2021,1
128,Markjosephbarcenas,grenpink14,,done,11-2-2021,1
129,blonatx,blonatx,,hdc,12-2-2021,1
130,абу бандит - Рома,dio_brandott,,Это 11 айфон,13-2-2021,1
131,ahmed143214,ahmed143214,,warrom Dee je dat,17-2-2021,1
132,idk,jkxmlkjhgfdwqtpmnbv,,Lol,12-2-2021,1
133,tomato time,tomato_time,,thats a nokia im sure,7-2-2021,1
134,Minh_Đêy,minh2006ne,,Đầu tư 200k mua mô hình làm😂,15-2-2021,1
135,<3,anggiasft,,mending kasi ke aing,12-2-2021,1
136,roblox_player,roblox_player7594,,denk die alle arme mensen in je care niet van geld,11-4-2021,1
137,Koningglij2,koningglij,,Ik die hier naar kijk op een iPhone 7,30-3-2021,1
138,.,aronvds,,je had het geld ook aan anderen kunnengeven die niet veel uebben🥺,20-3-2021,1
139,z.vnoord,znoord010,,dat is iPhone x omdat hij die camera er op heet geplakt,20-3-2021,1
140,arinushka99,arinushka88,,Give me ur phones 😅,17-3-2021,1
141,Mystery guy,mystery_guy2.0,,You unrespectful monster,13-3-2021,1
142,SupercarTimyboy,supercartimyboy,,Do a test Whit the newest iPhone SE plsssss🥺🥺,22-2-2021,1
143,ASEP•BIZHER,gw_saha20000000000000,,gw gk siap liat org potong Ginjang pake gergaji mesin😂😂😂😂😂,17-2-2021,1
144,Yi Tùng Master,botgameff0,,ốp thì iphone còn đt thì samsung 😅😅😅,15-2-2021,1
145,thaqiffs✨,qiffs_,,Can i have one iphone 12 from malaysia,12-2-2021,1
146,camila ruiz hernandez,.camila7788,,En fin gente rica ಥ‿ಥ,2-4-2021,1
147,😮‍💨,_ymara_,,Gap je had het mij kunnen gunnen,2-4-2021,1
148,VRAGEN VOOR dingen,vragen_voor_spullen_xoxo,,Je kon het ook gwn Ana mij geven 😂,17-2-2021,1
149,Q GB,qqgb,,Mày tặng tao có phải tình cảm đi lên ko,9-2-2021,1
150,_esmeebriels_,_esmeebriels_,,Dat is een iPhone elf ik heb dezelfde 😂,17-2-2021,1
151,Vạn cục trưởng_FBI•,nguyenphuocvan123,,Ở Sài đưa tao chứ phá vậy 😂😂😂😂,8-2-2021,1
152,Alireza,alireza2890,,Wayyyy Give it to meeeeeee,30-4-2021,1
153,Kimberli Martinez,kimberlimartinez6,,los pobres se valoran se respetan,23-3-2021,1
154,volg liliputter.xd,langjoch,,Now do a nokia,20-3-2021,1
155,MANGO 🥭,jamessackers,,Doe met Nokia,16-2-2021,1
156,🐵,_nendi,,give me,13-2-2021,1
157,s,cyapiqr,,Mr for sump 1,13-2-2021,1
158,Trong luong bk,hoang_luong_bk,,11fake,9-2-2021,1
159,Rymon Illhamz,rymonillhamz,,HDC,12-2-2021,1
160,Al,ali_lje,,@clemence_03 clémence ne va pas être d’accord,12-2-2021,1
161,Nguyen van phong 7991,phong7991,,lòng đau như cắt mà nước mắt rơi như mưa . tôi thì ước có để xài để khổi mượn đt sài nửa,8-2-2021,1
162,Fortnite and rl Clipzzz,fnclipzzznld,,maar ja als je hem laat vallen is ie ook kapoet,27-3-2021,1
163,L’,l_tbk,,@m.lsmd_ la musique,8-5-2021,1
164,yarasalman2010,yarasalman2010,,My face 👁👄👁,2-4-2021,1
165,user7505869076453,souhaib934,,pourquoi tu fair ça,30-3-2021,1
166,Nisha Pokhrel Timsina,nishapokhreltimsina,,that iPhone is not real,26-2-2021,1
167,Penghuni,penghunikontraan77,,oh no .give me,14-2-2021,1
168,barth,zenron0,,bro give me 1 handphone,13-2-2021,1
169,FluffyCatToast,fluffycattoast,,iphone fanboys really be thinking its the best phone lol,4-3-2021,1
170,behrad_k_farahani,behrad_k_farahani,,It’s an iPhone 11 and I hope that it wasn’t working cuz otherwise imma cry,20-2-2021,1
171,💫𝚁𝚎𝚗𝚊𝚕 𝙲𝚛𝚞𝚜𝚑💫,shelly._.madrigal02,,@mirela.__ the sound 😂,19-2-2021,1
172,Luana Maurell687,luanamaurell0,,una pregunta son falso los celulares no,21-3-2021,0
173,Jin-Mori,lordmori0,,Geef die telefoon aan iemand die het nodig heeft bvb ik😂,16-2-2021,0
174,♡говно♡,michael_afton_fan_akaunt,,Это не 12 айфон.,3-6-2021,0
175,Doni Hendra659,donihendra07,,kawe😂,30-4-2021,0
176,🇸🇦⚜️ٓالعرب⚜️🇸🇦,wvx__4,,Noooooooooo,28-4-2021,0
177,JOKEEE,sakedside,,people with old phones🥲,27-4-2021,0
178,Random,sjoerdvandonselaar01,,Geef hem dan liever aan mij,27-4-2021,0
179,Rosalie👄👄,rosaliehof,,@ellis.voorthuis nou dus de mijne kan wel wat hebben gelukkig,26-4-2021,0
180,💯,ibrahimvnzuid,,Thats not an iphone 12,24-4-2021,0
181,=_btz,7_btz,,Wwwwwwwwhhhhhhhhhhhhhhhhhhhyyyyyyyyyyyyyyyyyyyyyyyyyyyyyyyy😳😳😳,22-4-2021,0
182,Pew pew m*therfuvker,tyfus_joch,,Heel zonde jammer van die mooie iphone x 😂😂,14-4-2021,0
183,Tuấn Kiên,tuankien710,,best cà khịa đã xem video này,13-4-2021,0
184,user9614302371267,meesdeuning,,Nokia,12-4-2021,0
185,Rɪᴎᴀʟʏᴎ•𝐏𝐑𝐄𝐒𝐄𝐓•𝐗𝐌𝐋🎟️,rinalynsedenio5837,,you should give me the iPhone because I need phone,6-4-2021,0
186,Jvdholland1,jvdholland1,,Why,5-4-2021,0
187,Dana_sheltiefan🥰🐈🐕❤️😘,ricky_plucky,,Daar was mijn telefoon dus !,5-4-2021,0
188,Ik ben hier 👇🏼,nickschieveen,,Dat is geen iPhone 12 dat is een iPhone 11,5-4-2021,0
189,Jeremy Peters,carspotter0509,,is gwn zo'n ding wat je van wish kan bestellen,3-4-2021,0
190,appie,appie333,,Doe het nou met een echte telefoon en niet met een dummietoestel |:,3-4-2021,0
191,Jeroen Visser735,jeroenvisser__,,Echt waarom?,3-4-2021,0
192,❤️❤️,marijeosinga4,,@rianneosinga2008 gvd,3-4-2021,0
193,Chiel,chieldekker1,,[slap] [sIap],2-4-2021,0
194,Joep,joep.kasteren,,Ik heb een nokia 12,2-4-2021,0
195,Chiel,chieloudeluttikhuis,,Nokia,2-4-2021,0
196,RobloxBobux,beluga085,,nokia,2-4-2021,0
197,joy𓆉︎,_____joy_____,,Je had het beter aan mij kunnen geven🥰,2-4-2021,0
198,ciaociao59252,sono_brutt,,Invece di romperlo regalamelo 🥺😅,30-3-2021,0
199,우눙,_woonoog_,,이니 나 줘,29-3-2021,0
200,Yadiel Felipe,bublois,,regalame uno,26-3-2021,0
201,aracelyherbaas,aracelyherbaas_,,Naa con romperr un movil ya se queda tranquilo,26-3-2021,0
202,Jaydon😎,jaydonch3ssen,,ja,26-3-2021,0
203,Koert,koert13,,Had hem aan mij gegeven ik heb hem echt nodig,25-3-2021,0
204,Wendy Mancilla845,mauricio22007,,"mejor mándame uno ,no le hagas eso",22-3-2021,0
205,ewadreries,imran_5049,,je kon die ook aan mij geven,18-3-2021,0
206,Aad,aaddobbe,,zo zonde,17-3-2021,0
207,Da Chonky Shark,patiboyishere,,Nokia pls,5-3-2021,0
208,Buyung Eka,buyung_masmon,,gerindanya gk nyala yg pertama😂😂,2-3-2021,0
209,Popit_forever,pop_itforever1,,Zonde,23-2-2021,0
210,.,its.bens,,dami,23-2-2021,0
211,Maud Woudsma,maudwoudsmaa,,Geef hem dan aan iemand anders,18-2-2021,0
212,Fadel del,fadeldwl,,give me please 😌,18-2-2021,0
213,ik ben niet selina,heyjijdaarvolgme,,"ik moet hier 1 jaar voor sparen en jullie maken hem gwn kapot , geef dan aan mij🥺",17-2-2021,0
214,C. Ronaldo dos Santos’ Aveiro,cr7premonte,,Dat is een 11,17-2-2021,0
215,SUIIIIII,volgmealsjenikswil,,Nokia🤔,17-2-2021,0
216,bhikon_arief,_bhikon.arief,,hp pajangan,17-2-2021,0
217,user888887960,user8888896700,,eksperimen no 1 mesinnya gk hidup,17-2-2021,0
218,Deaa_010,deaa_tanjung,,mak gw merinding lht ini,16-2-2021,0
219,Lovely <3,https.al3x3,,do Nokia 😌✋,16-2-2021,0
220,Bagassatria312,bagas_xt,,langit bumi bersaksi🍃,15-2-2021,0
221,ProdukSunda,moonhood5,,Seumur2 gw blom pernah pegang i phone😂,15-2-2021,0
222,👹ANnàbĘL👹,_een_random_iemand_,,,14-2-2021,0
223,Mayor khan,mayorkhan20,,keputusahaan krn hp nya rusak tk bs di perbaiki maka 1 kata hancurkan sekalian,14-2-2021,0
224,ctw,alapyu0,,mending buat gw😭demi alek,14-2-2021,0
225,.....,xyndaa__28,,"mening buat gue woi anj
eh astaghfirullah woi😭",14-2-2021,0
226,fajar,fajartiasna,,sopankah begitu,13-2-2021,0
227,ArianBFTernate🇮🇩,arian.ternate11,,"tau"" kase ke saya ihpone🤣🤣🤣",13-2-2021,0
228,Michelle,michelle_145527,,DUDEEEE😭😭😭,12-2-2021,0
229,Ayu🕊,cxfvzq,,"kalo ada masalah sini ceritain,aku yang bertahun² nabung cuma buat beli iphone aja belum kesampaian😌",12-2-2021,0
230,Iman Syazwan,mantodak41,,baik bagi aku je😏,12-2-2021,0
231,piw,welcome.back1,,"gua yg bermimpi ounya ho iPhone
😳",12-2-2021,0
232,Nguyễn Văn Toàn,user05432720,,😏cái đầu tiên nó có xoay đâu,12-2-2021,0
233,Aurelius Pedro Sanjaya,cover_lagu_p,,woy mending kirimin ke gw sini,12-2-2021,0
234,Kyaw Zin,kyawzin8934,,give me😥,12-2-2021,0
235,olé,zio.peraa_,,Ho pianto.,12-2-2021,0
236,kacangsoya,kakakakag83,,can you pay for me. 😂😂,12-2-2021,0
237,Sherly PutriyaSari,sherlyputriyasari,,cie cie banyak uang👍🏻,12-2-2021,0
238,Komang tania dwi lestari,tania_komang,,mending kasi gua aja,12-2-2021,0
239,I,siebie13,,Zonde!,12-2-2021,0
240,Ahmd⛎,ahmad564554,,gak jalan woeee,12-2-2021,0
241,วุฒิชัย 'ฯ,oat_25488,,เอามาไห้กูเถอะ,12-2-2021,0
242,JOHN MARK🍔🚴,jmark137,,me nalang po😭,12-2-2021,0
243,Perly Rafinka Harun,qimi__,,"itu kw boss ,, gk liat kameranya ??",12-2-2021,0
244,KenZo_2k8,hungnguyen6780,,cưa nokia ik ah,12-2-2021,0
245,🇷🇺🇨🇳🇵🇸🇸🇦🇮🇳🇰🇵,tsar.bomba6300k,,เพื่อ,12-2-2021,0
246,hdhdhdhs,gsshdjdjdns,,baik bagi aku sian aku gune android jer 😅,12-2-2021,0
247,hai abi syg🥰😍,yusrilhabibi5,,ambilkan saya kak,12-2-2021,0
248,ara,usernamengawur2,,kw,12-2-2021,0
249,SAKA •Ｒａｚ,saka_raz,,gif me fon,12-2-2021,0
250,Yuda,1ditzcees,,sini bang buat aku aja,12-2-2021,0
251,jelita manullang,jelita_manullang0,,sayang banget tu HP😂😂,12-2-2021,0
252,@marunong_3,marunong_3,,"pls dnt destroy a apple
just give it to me😁",12-2-2021,0
253,user9430162411261,user84235107654,,anak ngen,12-2-2021,0
254,Cậu•ấm,khoi17052k6,,nokia,12-2-2021,0
255,8 November aing ultah,nowafftalucard,,mainan org kaya mah beda ya bund:(,12-2-2021,0
256,Đéo,chanphong43,,sự khác nhau của đồ trung quốc vàđoof việt nam,12-2-2021,0
257,DB,danilo_srb,,Dat is een 11,12-2-2021,0
258,Feby,febyyy165,,gua yg nyesek,12-2-2021,0
259,San ahmad,sasanyk,,seketika dalam hati gw ngomong bang*st,12-2-2021,0
260,rujik..,buknsaya.12,,hebat,12-2-2021,0
261,tele,ultraaamilkman,,itu kw,12-2-2021,0
262,Mr.B,mr.b018,,iphone nya kasih gua ajaaa😥,12-2-2021,0
263,user4799748679712,sahril127,,eman hapene,12-2-2021,0
264,apaan sih gajelas,hasrul_011,,mainnya hebat😂,12-2-2021,0
265,iwan,irwanban,,mending itu ipone di kasi sama anak yg enggak mampu bang,11-2-2021,0
266,Wanda Wijaya,wandawijayak1,,100% orang gak nyadar itu yg alat pertama itu gak jalan,11-2-2021,0
267,@Yo_xxtz8,yo_xxz8,,manfaatnya apa??,11-2-2021,0
268,Hưng Lê,m.hanh16022022,,ủa ? cái máy cưa lần đầu nó có quay đâu 😅,11-2-2021,0
269,Lis,slstyn_,,"mending di weken nyong,,, dari pd juah yakui",11-2-2021,0
270,Toàn Danh,toandanh666,,mô hình,11-2-2021,0
271,Marvel Lcn,marveltod,,mending kasi saya,11-2-2021,0
272,lorenzo en dylano en Eduard,x.lamborghini.fan.x,,Je kon ook iPhone aan iemand geven die het nodig had,9-2-2021,0
273,Nguyễn Đạt,datnt23,,Cho tôi đừng cưa 🥺,8-2-2021,0
274,🐻‍❄️❤️,carlacamargo__,,Emm si no lo querías habérmelo regalado 😂😌,8-2-2021,0
275,tôi là tôi,saker00y,,"Điều đó phản ánh câu ( người ăn ko hết, người lần ko ra)",8-2-2021,0
276,anh hai Sự,haisu2020,,thằng k có. thằng phá,8-2-2021,0
277,Anime Memories,romkrt,,ai ngửi thấy mùi tiền hông??😳😳,8-2-2021,0
278,❤ Lê Đức Chí ❤,leducchi2004,,phí vc,8-2-2021,0
279,Baodesk2345 • Đang follow,toikhoquamahuhu,,Video sặc mùi tiền,7-2-2021,0
280,Long Nguyen Long🇻🇳,longnguyenlong91,,...???????,7-2-2021,0
281,Hậu Bùi,haubui74,,ko xài thì chỉ tao,7-2-2021,0
282,@𝘿𝘼𝙄 𝙋𝙀𝙍𝙁𝙀𝘾𝙏,bomxinhtraiwin,,mô hình mà đâu phải thật,7-2-2021,0
283,F.F_ICHIGO👑,f.f_ichigo,,yo apenas. no mi cell y voz Rompiendo iPhone 🙃💔,4-4-2021,0
284,Jesu257🤟,jesu57tu,,A y gente que lo nesesita😳,2-4-2021,0
285,🍁,vmbowerrrr,,Hart pijn,17-2-2021,0
286,Asia,asiallullaa,,@danjel.25 mi sento male,12-2-2021,0
287,pam,fullsnowyh,,@pstcu C-Celeste ayuda mi fyp 😢 flip flap 🥰,16-5-2021,0
288,Finn en Luca,finnenlucayt,,Wie doet dat ook bij een telefoon,27-4-2021,0
289,Byron🤍,yasirxz_.west5713,,Nokia cant break,27-4-2021,0
290,Jizri,jaze_b,,Das inderdaad een iPhone 12,27-4-2021,0
291,Keije,keije10,,Geef hem veter aan iemand anders,27-4-2021,0
292,☠︎Onfire☠︎︎,onefire70,,Dat is iphone11 ik heb hem precies hetzelfde,25-4-2021,0
293,Dream Boy💙,dream__b,,ja maar je moet het ook niet met zo'n iPhone doen... IPhone is zo kapot,25-4-2021,0
294,CHELSEYYY,chelseyiseverywhere,,Wacht dat is een I phone 11 met 2 cameras een 12 heeft 3,25-4-2021,0
295,James Andrew,hzkiiiar,,Nokia.,24-4-2021,0
296,:),blue.multisz,,MY HEART,24-4-2021,0
297,Lieve✨,lieve98,,Daar gaat je iPhone,24-4-2021,0
298,faymuller101010,fay101010,,WAAROM🥺🥺😭😭😭😭,19-4-2021,0
299,<3,x.i.a.o.main,,Nokia pls,18-4-2021,0
300,Crawlers en snelle auto’s,rc_by_me,,Het is een iPhone 11 toch,18-4-2021,0
301,3nkhm3nd,emkmend,,First test was not even moving the blade😂,16-4-2021,0
302,bul2x,userwgdwxw5hp8,,"can u please give that to me,,🥺",15-4-2021,0
303,TechBrandon2008,techbrandon2008,,waarom zou je dat doen?,14-4-2021,0
304,nmbot,nmbot,,Why,12-4-2021,0
305,cutelina,linabekle,,is that a joke,11-4-2021,0
306,Dozza,gaddar_dozza,,Bu üçlü çok güçlü,11-4-2021,0
307,krijn5,krijn5,,Haha nokia kan daar wel tegen,11-4-2021,0
308,Matteo persi,shark_blast,,Se non ti piaceva lo potevi anche dare a me😂😂😂😂😂,11-4-2021,0
309,Sᴛᴀʀᴋ,arshiekurt721,,"i tried it to my second phone, it's hard but how to get it back?",11-4-2021,0
310,siiregarrr,siiregarr1,,lah kok di rusakin... mending buat aku dah 😌😌😌,10-4-2021,0
311,Tim Knot147,timknot,,pak goeie slijptol dab is die tel niet meer,10-4-2021,0
312,Định DươnG,dinhduong6868,,có chạy mô mà,8-4-2021,0
313,AbdulSamet Teknek657,abdulsametteknek4,,doe nokia 3310,5-4-2021,0
314,Harley Van Dalen,harleyvandalen,,why,5-4-2021,0
315,wendy elzinga,wendy_on_elzinga,,zou ik een tel mogen aub🥺,4-4-2021,0
316,:D,melissalangenbach_,,@larissavisser_ daar gaat je telefoon,4-4-2021,0
317,Ik post niet meer,mirthegaal,,Mensen in Afrika hebben niks en wat doe jij je zaagt een iPhone 12 door,4-4-2021,0
318,❥𝐿𝑜𝑡𝑢𝑠,lotusxvanberloo,,@prive.x_bloem wij zetten hem wel weer in elkaar🔧👷🏼‍♀️👷🏼‍♀️,4-4-2021,0
319,Matthew Kos691,matthewkos3,,maak hem niet kapot geef.hem dan gwn aan mij,3-4-2021,0
320,Rik Derksen,rik_derksen2008,,Dat is niet een iPhone 11 je had hem ook weg kunnen geven,3-4-2021,0
321,L!v!ng_my_l!fe!,hiitsme_forever,,WAAROMMM HAD HEM DAN AAN MIJ GEGEVEN OFZOOO🥺,3-4-2021,0
322,siebebranderhorst08,siebe_0,,Why,2-4-2021,0
323,𝙴𝚍𝚒𝚝𝚜!,everything._.acc8,,Nokia😏,2-4-2021,0
324,Nouri,183langewittesurinamer,,broer ik heb geen eens tel en jij sloopt er eentje die ik heel graag wil,2-4-2021,0
325,コンラッド,_.k.n.r.d._,,hij die iphone 12 sloopt ik die met samsung galaxy s9 rond loop,2-4-2021,0
326,✨spam account✨,x.calijn_spam.xx,,@isajansen.xo geef die tel gwn aam mij en ga hem nii kapot maken,2-4-2021,0
327,Follow for hamstercult,hamstercultforlifes,,Give it to me Thats a great option,2-4-2021,0
328,CEO of Saab 900😎,1997.saab.900.sensonic,,Best stevig dus,2-4-2021,0
329,Floris Streefkerk267,florisstreefkerk,,Neeee,2-4-2021,0
330,Cars.by.pieter,cars.by.pieter,,Dat is een iPhone 11 gast dat is geen iPhone 12 dat zie je toch een de dikke rond,2-4-2021,0
331,Diederik Mook,diederikmookenspoor9,,"Ik kijk dit met mijn iPhone 12, zonde, deze kon je wel aan een goede vriend van mij geven.",1-4-2021,0
332,Alisha Gayle,alishagayle1,,Love your work,31-3-2021,0
333,Roneury12,roneury12,,porque los destruyes😭,31-3-2021,0
334,✨🍋SOPHIE🍋✨,x.girll.sophie.x,,Beter geef je mij die iPhone 11,26-3-2021,0
335,noel,tzelfer,,and when I let it fall it automatically breaks in two,22-3-2021,0
336,ladynette,ladybug.catnoir____,,why did u do that you could just give that to me😭😭,21-3-2021,0
337,Willian Renner,willianrenner,,meu sonho e ter um desse e ele cortando😭😭😭😭😭,21-3-2021,0
338,Joshy,joshytiktok8,,nokia 3310 pls🥰🥰🥰,21-3-2021,0
339,user5094347775994,vthorbensecretacc,,Nokia,21-3-2021,0
340,Fanny Saha?,_hoomanmaksafanny,,"apasih faedahnya😌, anak tetangga aja mo daring susah kudu ke sekolah dulu😌",20-3-2021,0
341,Anar Mammadov,anarmammadov22,,People watching this whit a iPhone 5s,15-3-2021,0
342,...,gwnteejay,,Do a nokia,9-3-2021,0
343,Youri_S,youri_s,,Me: i want a new phone. Random Guy on youtube:,7-3-2021,0
344,putracarera,2nd.putracarera09,,mungkin itu hdc,26-2-2021,0
345,x,thymo_0184,,dan heb je een iPhone 6,26-2-2021,0
346,user596083669997,adull128,,semoga bisa bersyukur ya Allah,24-2-2021,0
347,Hafiz,hafiznawawi5,,eh mendingan buat saya aj tu 😁,23-2-2021,0
348,Jaya Ajj,jayaaza,,HDC 😅,20-2-2021,0
349,user8402638789223,hanyaseorangpengembara,,nokia ketawa melihat ini,20-2-2021,0
350,°Jana°,jana_doeren,,You hurting my feelings 🥺,19-2-2021,0
351,Kiên Lê,ckien.110307,,cho bo nhà e đi,19-2-2021,0
352,Maud Woudsma,maudwoudsmaa,,Ik wou gwn rustig die telefoon🥺,18-2-2021,0
353,Linh Tran,linhtrandang122345678,,phá hoại,17-2-2021,0
354,🏀🤍,x.spotifysongss.x,,THATS the 11,16-2-2021,0
355,Jovan Prasetya,stress.banh,,itu casing doang,16-2-2021,0
356,ziiiiieee,zie160791,,punya hp ko di ancurin sih... bagi saya orang yg gak mampu belum bisa beli hp seperti itu yg di atas 5 juta.. saya hanya punya hp oppo a5 2020 Ram 4GB,16-2-2021,0
357,DHETT,ikhsan_839,,Sultan ya boss😳,15-2-2021,0
358,𝓒𝓪_𝓭𝓾𝓸𝓲 🐟🌊,_chucamatbuon_,,tại sao lại làm thế =((,15-2-2021,0
359,Arsahr,sorpyitnatthar,,give me i phone,15-2-2021,0
360,Nguyễn Xuân Bắc,nxb492007,,mô hình,15-2-2021,0
361,Choky,user4799020769660,,buat gw aj hp gw kentang so Al ya,15-2-2021,0
362,Fabian.0416_,fabian.0416_,,Do a sidewalk tile,15-2-2021,0
363,Ryan Saputrabks,ryansaputrabks,,HDC OM,15-2-2021,0
364,我❤️哩⛓,caimingfen1,,手機不要可以給我,15-2-2021,0
365,Rara,rara_kawaii,,gua aj sekali pecah aja dah panik😌,15-2-2021,0
366,𝓗𝓪𝓶𝓫𝓪𝓵𝓵𝓲²⁷_,hamballi027,,mending buat gw😁,14-2-2021,0
367,👹ANnàbĘL👹,_een_random_iemand_,,,14-2-2021,0
368,DrigBlack27,drigblack,,mending buat gua aja tu bg,14-2-2021,0
369,~yuuu😼♥️,faisahsayuti0,,Mending ambil gua aje bng klo di begituin😭,14-2-2021,0
370,Rei,reifalda,,hp tiruan itu HDC namanya,14-2-2021,0
371,🧿,iiyaaaaaaaaaaaaaaaaaaaaa,,masih banyak yang membutuhkan😁,14-2-2021,0
372,Jall,daeng_rrr,,give me please🥺,14-2-2021,0
373,itzmmeorang!,umi_slmh18,,"gw yg pngn pnya ip.
dn dia malah rusakin ip😌",14-2-2021,0
374,EJ,ejjzzz,,andaming may gusto nyan tas gaganyanin nyo lang✋😭,13-2-2021,0
375,.,jack22882727,,mending buat gw,13-2-2021,0
376,Movie Equal Films,movieofficial22,,😌walah jamal jamal hp di potong²,13-2-2021,0
377,amirr,amirchh_,,toch zonde,12-2-2021,0
378,💔ALE💔,_aalee09_,,Dámelo a mi antes de hacer eso,12-2-2021,0
379,I'm gonna be a star🌟💅,melatiputrisari,,kk jgan di kasih begitu hpnya kan lebih berkah kalau kk sumbangkan bagi² orang² yang membutuh@kan kk untuk belajar online,12-2-2021,0
380,Vannn 乂 𝐉𝐀𝐖𝐀𝐒𝐎𝐅𝐓,alvan_52,,percobaan pertama ngga nyala mesin nya 😂😂😂😂😂,12-2-2021,0
381,𝐿𝑢𝑖𝑠,kai..s4,,錢太多喔 你不要我要😁,12-2-2021,0
382,rasyaa,xyourfell,,SIAPA YG NYADAR KALAU MESIN PERTAMA GAK DI HIDUPIN:V,12-2-2021,0
383,chanot1224,nofeelings12,,why are you wasting your money for this just give the money to the hopeless people because they much need more help that this😏😅,12-2-2021,0
384,$,jajanlama,,ya allah semoga tahun ini bisa punya iphone🥺🥺,12-2-2021,0
385,Bebankeluarga,pengajarfolowers,,bang mnding kasi aku ajaa😌,12-2-2021,0
386,sanexyy,ryansanexyy,,bagus kah begitu dpn org miskin?,12-2-2021,0
387,Marjun Agustin Dejes,marjundejesus,,wag Naman sa yang,12-2-2021,0
388,TheyGerJoker,memeakh,,hdc juga lihat dari kameranya 😏,12-2-2021,0
389,😍😍စောက်ရမ်းချစ်😘😘,user9566284135263,,ဂျင်းခနခနထည့်ခံရသောမိမိ😂😂😂,12-2-2021,0
390,ไอ่เพชรชอบเบ็นเท็น,phetchanachon06,,Nokia,12-2-2021,0
391,𓁹‿𓁹Mweheheee,peeank.30,,udh hancur pada minta😂 ambe aja noh dh gx fungsi,12-2-2021,0
392,Marius,thenoobers2,,try samsong,12-2-2021,0
393,Ty👽,syaputracz,,bentar tu grenda nyala?,12-2-2021,0
394,水靈&火神CHL「互關」,hank9527popcat,,要用12,12-2-2021,0
395,ONYX • ķåñîņ,tuyu.king,,Samsung Galaxy,12-2-2021,0
396,h4r,anyourm__ark,,jerit2 gua liat inii!! daripada gtuu mnding kasih ke guaa😌,12-2-2021,0
397,AFAN✅,afa_pake_n,,mending buat gw bang,12-2-2021,0
398,dechan,ochannnnnnn,,mubajir yah orang di luar sana ada yg lebih mmbutuhkan😌,12-2-2021,0
399,13.59pm_,mejikuhibineedu.__,,knpa gakasi ke sy ajaa,12-2-2021,0
400,TK204,tuan161004,,tao thấy sao á bây😂😂,12-2-2021,0
401,aaginn,44491n,,gabut bnr idup lu ngab sini buat gue aja iphone na sayang😏,12-2-2021,0
402,Renn,narendra_rizqy,,oasu,12-2-2021,0
403,BìnhBoongg,th_biinh1,,"phí quá , gửi từ bên đấy về Việt Nam cho e sài thôi",12-2-2021,0
404,Phúc Hưng Vũ,mruad.no.pro,,mô hình mà,12-2-2021,0
405,Tegar Firmansyah,tegarfirmansyah21,,anak nge,12-2-2021,0
406,trvna,cntatmndo03,,Tdii tv skrg hp😳,12-2-2021,0
407,Rafidelia Channel,rafidelia,,give me oyy,12-2-2021,0
408,Kuro.Spin,kuro.spin,,mending buat gw bang,12-2-2021,0
409,Đặng Quốc An68,dangquocan6,,ủa có bin sao ko nổ,12-2-2021,0
410,Alex van de beek,huts115,,Kinderen in Afrika die die telefoon kunnen eten en je gaat hem slopen 😂😂😂😂🤡,12-2-2021,0
411,Om_indu,tukangdompeng,,belum kenal sultan lo,12-2-2021,0
412,siapa aku,dilandaangin,,"sakit ati gue
kasihin gue sini 😂",12-2-2021,0
413,Fitra Hidayat,fitra_hidayat10,,Kok ginjal gua nyeri yak :),12-2-2021,0
414,Asseupyudi,asseupyudi,,iphone menangis melihat ini,12-2-2021,0
415,mey X boy 😾🙊,user713340443,,😳😳🥺🥺,12-2-2021,0
416,Wendasari,wendasari8,,"kata yg punya hp kentang
mending buat gua",11-2-2021,0
417,GHOST FF583,ghost_ff.25,,"mnding tuker aja ama hp gw ngab aiponnya buat gw aja,trserah dahh hp gw mau di apaain😁😂😂😂",11-2-2021,0
418,rd,slowww4,,dasar anak ngen,11-2-2021,0
419,ikeh,akmal27___2,,ya Allah sayang amat itu mending bakal gw,11-2-2021,0
420,im gonna be a star,adysptra08,,@azzahraaw._ @yolandacassa_ @ghaitsa.wz gimana nii😭,11-2-2021,0
421,chimory214,chimory32,,[wow],11-2-2021,0
422,mustakim,mustaqim.pratama,,lebih baik kasihkan ke ak 😁,11-2-2021,0
423,a r u l l,amrul_byhaky,,yg hp kentang menangis melihat ini😅😅😅😅,11-2-2021,0
424,Seven Teen,seventeen025,,HDC ini mah,10-2-2021,0
425,Hnfii,_hnnnfi,,@aisyhhni._ 😳,10-2-2021,0
426,🍁ｄｏｋｉｅｎｃｈｕｏｎｇ🍁,chuongeagleking,,Mong là mô hình 🥺,9-2-2021,0
427,phú hoàng,phuhoang.2k_,,phú đã ghé thăm😢,9-2-2021,0
428,✅✅Hoàng Sinh💟💟,truongsinh_1403,,Tua ngược,9-2-2021,0
429,nguyên đại đế,deohuychuong0511,,bn ko cài đưa mk xài sao phá 😢😢😢,8-2-2021,0
430,Gra,saifeddine0156,,do the nokia 3310,8-2-2021,0
431,Floorrr💄,floortje._._,,@indre.xx NEENEE DIT GAAN WE NIIIIEEEET DOEN,8-2-2021,0
432,𝓣𝓻𝓪̀ 𝓗𝓪̣̂𝓾,tra_hau,,Demo à,8-2-2021,0
433,7tạtưởngcỏcóđá🇵🇹,ridohoipen_7,,uồi Nokia 11 pro max,8-2-2021,0
434,Văn Nhã,vannha21,,ước j dc a tặng cho e,8-2-2021,0
435,Văn Nhã,vannha21,,a giau da,8-2-2021,0
436,Khánh Vinh,khanhvinh.21,,"không xài cho tôi , chứ đừng làm vậy",8-2-2021,0
437,🕉 P H Ú H I Ệ U T R Ư Ở N G ✴,phuteetv,,phí của trời,8-2-2021,0
438,Sơn Nguyễn,sonstale,,dt iphone bị khóa icloud thì chẳng khác gì cục sắt😁,8-2-2021,0
439,Anh Bán Ghẹ🦀✈️Nguyễn Văn Toàn,nguyenvantoanp1,,tao tết này vẫn chưa có đt sài 😌,8-2-2021,0
440,maría 柒,mariacm_14_,,Tengo el mismo y le a hecho daño que lo rompan,7-2-2021,0
441,Carmen🐆,carmenn.calderon,,@beccaa.42 para eso quw nos lo den 🥺🥺😂,7-2-2021,0
442,user257884556209,amiir_827,,das ist keine echte iPhone 😂,10-3-2021,0
443,𝑷𝒉𝒖́𝒄 𝑨𝒖𝒕𝒉𝒆𝒏𝒕𝒊𝒄🍁,phuc_khbikhung,,Iphone facke😌,7-2-2021,0
444,Lord Bretwet No 1,bretwet01,,contoh orang kufur nikmat,7-2-2021,15
445,kingz604,kingz604,,en nu wat heb je gekregen,20-2-2021,2
446,(🐇),jefri_17,,better u give me,12-2-2021,2
447,Niño Roy Panuncial sugarol,ninzkie_panuncial2,,plsss give me that I phone for online class🥺🥺 notice plsss🥺🥺,15-2-2021,1
448,Jorik Vankoutrik,jorikvankoutrik0,,Je kon hem ook aan mij geven,2-4-2021,0
449,Lucho Bessone,luchobessone,,Mentira,8-3-2021,0
450,eritrea,eritrea2022,,your hands 😏,21-2-2021,0
451,gtw,abcdefjh_56,,pendapat rebaik gya adalag buat gua ajalah di banding di gituin😳,12-2-2021,0
452,.,surmdhajtis,,Kreeg ik m maar,14-4-2021,0
453,Daan Smit,dosmit1986,,"Gewoon zielig dure spullen kapot maken, zijn genoeg kinderen die niet veel hebben die je daarvan blij had kunnen maken geen waarde van geld",4-4-2021,0
454,mau melon..?,whatsappmassenger,,jre de'ne nyng aja kyakwe mbokat ora kuat tuku maning ora saben dina kwn olih duit lan ora saben wulan kwn gajian mbokat ana masalah trus kwn di p..t,4-3-2021,0
455,MENG🙋🏾‍♂️🤍,meng14141,,"Why?😳🥺🥺
can I ask 1?😳🥺🥺🥺🥰",12-2-2021,0
456,VAPING Yanyan💨,ellyflaviangeraga,,put nokia i bet that chainsaw will break.,11-2-2021,0
457,Alif Azha,mohalifdjokam354,,Cman mau Bilang Itu Alat potong pertama Nggak nyala Anjir,11-2-2021,0
458,Nguyễn Minh Hải,minhhaiahuhu,,Test thế máy đ nào chịu đc:))??,8-2-2021,0
459,Danh Võ,danhv221,,http://bblink.com/viqHQ6b đây ae khỏi cảm ơn dán vào gg nhoa xem xong nhớ chia sẻ cho người khác(link mèo2k4(,7-2-2021,0
460,٩( ᐛ )و,userigqrs0gnnl,,ただただもったいない,12-2-2021,0
461,kingz604,kingz604,,ben je nu blij op telfoon kapot te maken waarom geef je niet aan iemand die nofig heeft gek mensen,4-4-2021,1
462,🥹I love Madeleine petsch🥹,horse_4231,,Jij bent echt raar dat je kapot maakt,13-4-2021,0
463,ZatharoZ,zatharoz1,,.. stuur mij is een iphone 12... 😳 wel nieuw en heel.,4-4-2021,0
464,kingz604,kingz604,,like op tiktok,20-2-2021,1
465,Melanie Gutierrez,melanie.jessenia,,Si te sobran los iphones manda unito a mi casa porfis 🥺🥰,23-3-2021,0
466,frikandelbroodjegang06,frikandelbroodjegang06,,kijk naar me account als je van frikandelbroodjes houd,18-4-2021,0
467,Hark Hark777,n.g.u2,,Giveme🥺,12-2-2021,0
468,DONASSS,dnnss5,,SESEK AING LIATNYA,12-2-2021,0
469,Trần Mạnh Hoàng,tranmanhhoang6,,iPhone fake trên shopbie 300k,11-2-2021,0
470,Turan,sirturan,,"The phone is fake, you can easily see that if you look at the camera’s the ultrawide lens is the same as the wide lens.",20-4-2021,1
471,...,enter_your_username_,,*for people triggered ITS A FAKE PHONE you can see as the flash is not flush with the camera bump*,12-2-2021,1
472,Sven Van den Heuvel,svennyboy08pro,,nep telefoon,2-4-2021,0
473,Tijn b,tijnbmx300,,Is fake iPhone 11,2-4-2021,0
474,bessel_055,bessel_055,,hij is niet echt want als die echt was zou er rook vanaf komen,30-3-2021,0
475,K,rv.073,,Die tellie is neppe iphone kijk die camera,18-2-2021,0
476,︎ ︎,loco111112,,Lol it’s fake,12-2-2021,0
477,0548.m,0548.m,,dat is nep,7-2-2021,0
478,carspotter_oisterwijk,carspotter_oisterwijk,,Waste,24-4-2021,0
479,anoniem12345654,anoniem123455865,,whyyyyy,1-2-2021,1
480,rammxhizzz,ramaizat,,hp dami,1-2-2021,1
481,jahvier illidge,jahvierillidge1,,doe dit met een nokia,1-2-2021,1
482,KAKI METEL,billl.144p,,:',13-2-2021,1
483,🐧,khanhdepchai0108,,tuổi vs cục gạch nhá,7-2-2021,0
484,Quỳnh Nè,userub8pftk48e,,Tặng cho em ik,7-2-2021,0
485,Sara✨,sara.t.m8,,@midealdi2009 tía mira qué fuerte lo que hacen en vez de darnoslo😂,7-2-2021,0
486,.,ckdubt,,không dùng để tôi dùng cho🥺,7-2-2021,0
487,FBI,truongcuong023,,nhìn là biết mô hình,7-2-2021,0
488,I'm Kai,kai_sad9999,,qua kênh mình để xem video hay mỗi ngày ạ🥺,7-2-2021,0
489,Jan Edcel Bagasbas,jan_edcel_bagasbas,,Try the authentic one pleaseee hate fake videos duhhhh😏😏😏,7-2-2021,0
490,Achie Super,achiesuper,,You are the real Champ bro.. I follow you.. To much respect for you.. 💯😉🙏😏Woooooow,8-2-2021,0
491,kentastung,piannnnnnn,,😱,24-2-2021,0
492,user7674575899255,dungyeuok,,iPhone bao nhiêu z,7-2-2021,0
493,Nguyễn Minh Lực,lucnguyen0812,,Nhìn quả cam là biếu,7-2-2021,0
494,🌻 T H Ư 🌻,rose_nguyen_2602,,Ha ha ha,8-2-2021,0
495,翰.,ak003568_floren,,一看鏡頭就假機😁,7-2-2021,0
496,Jericho Leo Apolonio,along23pogi,,penge naman ng ng ganniyan😔😔😔,7-2-2021,0
497,Jericho Leo Apolonio,along23pogi,,pang online class ko lang po,7-2-2021,0
498,Đức lom dom,ducdajk98,,"cưa đôi quả pin mà éo sì khói, lừa vl",7-2-2021,0
499,Kain_Draws_Art,kaindrawsart.png,,i coud have eaten that 😫,18-2-2021,0
500,usermovies,spacefs.explore,,"🟥🟥🟥🧢🟥🟥🟥🧢🟥🟥🟥
🟥🧢🧢🧢🟥🧢🟥🧢🟥🧢🟥
🟥🧢🧢🧢🟥🟥🟥🧢🟥🟥🟥
🟥🧢🧢🧢🟥🧢🟥🧢🟥🧢🧢
🟥🟥🟥🧢🟥🧢🟥🧢🟥🧢🧢
︎ ︎ ︎",19-2-2021,0
501,•[ Roza ]•,roza_sw,,Das n 11,2-4-2021,0
502,DaanSprinkhaan,daansprinkhaan0,,Who tf saws their iphone inhalf ON ACCIDENT,18-2-2021,0
503,まんじろ さの,sano_20.8.1990,,nokia pls,7-2-2021,0
504,Rozie Ozie,kaptenz_ambyar12,,tiktok.com/@kaptenz_ambyar12,22-4-2021,0
505,Hayama Gin,hayamagin,,nokia 1982 đâu rồi????? 😅,7-2-2021,0
506,TikToker,user464316754515,,スマホはこんな事するようなものではありません,7-2-2021,0
507,Hiếu Bào,hieubao1979,,Thấy thốn tim,7-2-2021,0
508,Bundes030,bundes030,,@mootjerks,2-4-2021,0
509,Trịnh Bá Tuấn ❤,trinhbatuan8113,,khối đứa tiếcc😳,7-2-2021,0
510,Tencent Tencent268,arya_alfro05,,😌,19-4-2021,0
511,Fantasyah,fantasyah,,me,7-2-2021,0
512,thinh2k2425d,thinhcanmuoi,,mỹ nó giàu nhờ 😂😂,7-2-2021,0
513,wahyuherz,offbaperan057,,Halah iponhe HDC mna mungkin yang ori di gituin kwlwkwk,7-2-2021,0
514,TheFatCat,fatcatgd,,noooooooooooooooooooooo,6-2-2021,0
515,Teun,t3unk2005,,Fake kijk die camera,21-3-2021,0
516,Oscar,oscar_0318,,Het is een fake iphone kijk de camera,6-2-2021,0
517,kyenna_rutgers,kyenna_rutgers,,@naomi_haar_koel_paarden,21-3-2021,0
518,lalala,aisthagurung7,,just send it to me 🥺,6-2-2021,0
519,UH OH STINKYYY_Official,uhohstinky009,,STOOPPPPPP,20-3-2021,0
520,TIRONA.Fan🤍💙,tirona.fan,,it's not a iPhone 12 it's a 11 and I don't know if it is real,6-2-2021,0
521,Levy💫,levy_.053,,So sondeee,20-3-2021,0
522,Agus Harifin,agusharifin,,Fake,7-2-2021,0
523,agathafernandez,fernandezagatha,,@aleix_huguet_,7-2-2021,0
524,Floris Streefkerk267,florisstreefkerk,,😭,2-4-2021,0
525,Nl_.Sil,sil.fn,,Just gif it to me i need an new phone my batery of my phone is broken so i can inkt do stug on my phone when i have an charger,19-3-2021,0
526,Black Dax,2010_black_dax,,Leuk feitje deze is gwn vol fake,18-3-2021,0
527,user2398867368892,user663329970,,😢😢😢😢😢😢😢😡😡😡😠😠😠😠😱,7-2-2021,0
528,C҉a҉b҉i҉👑#boy nhà nghèo,cabi1506,,mở thử lên ko,5-2-2021,0
529,Jorisendedraak:),joris_grauss,,Doe iPhone VS Samsung,5-2-2021,0
530,Rachelle,rachxluna,,@dutchdaddy88,5-2-2021,0
531,Raquel,rainhadastrevas2020,,🥺🥺🥺,29-3-2021,0
532,dnomsed _,djsimon2006,,OK dus het is zo sterk ok ok maar wrm tf wanneer ik het 1 keer laat vallen is het scherm kapot,28-3-2021,0
533,YKIG,timeknight12345,,U know instead of destroying it u could have gave it to me in my country its not even available yet can I have the next before u destroy it,5-2-2021,0
534,k tim k phải người VN,nobita13579,,mình k có đt mà chơi nó đem ra cưa,7-2-2021,0
535,Thijn Robins,thijnr_2005,,Je had de telefoon aan mij kunnen geven zeg maar,5-2-2021,0
536,Frankfurt Avgeek Official,frankfurtavgeek,,Fake,25-3-2021,0
537,Ja,jordystockmann,,Rustig jongens is maar een dummy telefoon 😂,24-3-2021,0
538,Thijn De rave,thijnderave,,en daar gaat je geld,5-2-2021,0
539,Trung Khuong,tr.khuong120497,,phí thế 🥺,7-2-2021,0
540,Phan Anh Tuấn 😈😇,phantuan108.lqmb,,phí thế,7-2-2021,0
541,Bryan Steve Rivera Herrera,bryan_rivera_123,,hay dañando y uno necesitando,7-2-2021,0
542,Pyty Boutique,pyty_boutique,,chắc là quảng cáo máy cưa,7-2-2021,0
543,Caigizaytroi,ffworld.gaming,,Ip11 mà,7-2-2021,0
544,Kim thắng,f.kimthang,,Mô hình nó k cho xem màn hình,7-2-2021,0
545,うまい棒 めんたい味’06🦖🥚,mentai.umaibou,,カメラかっこ悪,7-2-2021,0
546,VN Thanh Sơn ✌,thanhson_1152,,@ngoctram10622,7-2-2021,0
547,Hillywood,jeroensuperstar,,haha,2-4-2021,0
548,Con Chym Tơ,usergdir20ibf3,,cho tao đi. khỏi test 😂😂😂,7-2-2021,0
549,Đạt🌜,uase762,,vô ủng hộ trang cá nhân của tui với😂,7-2-2021,0
550,Khôi,hong_ripi1102,,tua ngược nhá 🤣🤣,7-2-2021,0
551,Vuong Ngoc Toan,vuongngoctoan206,,Ip 11 mà,7-2-2021,0
552,N.KKY 🥀,nhungocmaybadodaymanuc,,nokia đi anh😂😂😂😂,7-2-2021,0
553,Huỳnh Tuấn lộc,khang.2010.vn,,iphon12 fake,7-2-2021,0
554,PinZ,pressf113,,giàu v~~~,7-2-2021,0
555,《¤phát ¤》,tienphatnguyen07,,mọi ng đ lo đó là đt gỉa,7-2-2021,0
556,Wout,woutlamp,,what the heck you think your doing come on now,9-3-2021,0
557,ekan_22,ekan_kan,,ini iphone dummy guys,12-2-2021,0
558,№,user43437220264405,,พอเจอคลิปแบบนี้จะมีคนไทย90เม้นว่า เอามาให้ผมมา ไรงี้คือไรวะอยากได้ก็ซื้อเองสิ,12-2-2021,0
559,James,jl04062006,,its a dummy iphone lol thank me later,12-2-2021,0
560,✨,xoummss,,@cerenn.ccb,3-4-2021,0
561,kost elit,tetap.aman,,kwkwkwkw,14-2-2021,0
562,✨,idontknowauserx,,Bad job 😂,4-4-2021,0
563,ThatMCBuilderNL,thatmcbuildernl,,Samsung be like: me paper,4-4-2021,0
564,wessel,itsmerexiz,,s21?,15-2-2021,0
565,user850541902286,smartass669,,Born as an iphone trashed like an iphone,3-4-2021,0
566,Y O R D I,yordizwarthof_,,@biby.dijkhuis,2-4-2021,0
567,Nisa1602,nis1602,,Oke maar wtf ik wil een iphone 12 en deze guy spleet de telefoon in 2 😂,12-2-2021,0
568,Rolandenzo86,rolandenzo86,,give to me man🥺,12-2-2021,0
569,りんきたかと,milan_kastelein,,Weirdo,3-4-2021,0
570,Hello,lass._.mich_,,Its the Fake,12-2-2021,0
571,Hi,leo_lause.maus,,Darf ich eins haben? 😅🥺🥺🥺🥺besser als die immer kaputt zu machen🥺,12-2-2021,0
572,Edrian Malenab,edrianmalenab,,😡😡😡😡😡😡😡😡😡🤣😡😡😡😡😡😡😡😡🥺,12-2-2021,0
573,0kayxfee,0kayxfee,,Das tut weh,12-2-2021,0
574,NOID,akusayasendirii,,HDC,13-2-2021,0
575,Ahhhh,vuurwerverkoop,,De volgende keer mag je hem wel aan mij geven hoor 😅😅,3-4-2021,0
576,Rizki Rizki,rizkim19,,1780,14-2-2021,0
577,Sara;),sara_drippyyy,,Das bringt dir Spaß huh?Manche Leute sparen dafür so lange und du? 🙂,12-2-2021,0
578,samamaa,samasmsa111,,hdc,17-2-2021,0
579,@zidanfebrian🇲🇨,febrian_zidan1,,"bng kalo bikin konten Jan g
gitu mending d kasih yng membutuhkan",11-2-2021,0
580,Bakken is de best,bakken153,,Wtf doe jij gast,2-4-2021,0
581,亮介 ⊗,na.ryosuke.jp,,tiếc vl,12-4-2021,0
582,user9580570522066,morad_monteiro,,ook nog een neppe iphone 🤣,17-2-2021,0
583,Dao Cong Hiep,hiep_101024,,đm ko dùng thì cho tau,9-2-2021,0
584,CBL | Fahri,inisiai_f,,"╱╱▏┈┈╱╱╱╱▏╱╱▏
▇╱▏┈┈▇▇▇╱▏▇╱▏
▇╱▏▁┈▇╱▇╱▏▇╱▏▁
▇╱╱╱▏▇╱▇╱▏▇╱╱╱
▇▇▇╱┈▇▇▇╱┈▇▇▇╱",6-4-2021,0
585,carspot_nh,carphotography.nh,,🥺,5-4-2021,0
586,@semogaMasukSyurgaAllah🤲,punyasayah14,,"heyy apa anda sudah bosan ,hidup kaya 😏😳 .. tolong lah jiwa kismin ku Menangisssss melihat ini 😭😭",12-2-2021,0
587,umaa kamuu,septriyo,,",,,,,",15-2-2021,0
588,blackka,valentijnzwart02,,bad,2-4-2021,0
589,sapei anpel 123,sapeianpel,,bang jagang kasi rusak kalo tidak suka saya yang mau dong pliss,12-2-2021,0
590,NYG ผีน้อยㅤ亗,p.fah1,,@11035_0,12-2-2021,0
591,User. 23456735,martin.lemm,,11*,11-2-2021,0
592,HRR🧸,hrr.69,,buat aku aja dong,12-2-2021,0
593,︎ ︎ ︎ ︎ ︎ااااااااااااااااااااا,i_like_changing_my_name,,de mensen in Afrika die niet eens eten kunnen kopen 🤬🤬🤬🤬🤬🤬🤬😡😡😡😡😡😡,12-2-2021,0
594,dishwish,des1fr0g,,mad or what? give me the phone instead of destroying it.,16-2-2021,0
595,Rebeca-Nicu,rebecarebi35,,ich will aber eine🥺😳,16-2-2021,0
596,.,yoga_0980,,coba nokia bisa ngak ?😂,1-2-2021,0
597,ZEE,lol.bro.caught.u.in.4k,,the blade didnt move duh😒😒,1-2-2021,0
598,fika ytta,senpaiikhun,,yg nangis ngliat nya kita satu server😭,1-2-2021,0
599,Ahmad Yusof,crimson_demons,,😂Try Nokia.. As I think. You need better tool😂,1-2-2021,0
600,Walvo,walvo27,,😭😭😢🥺,1-2-2021,0
601,Kasiel,kasiel_h,,Pake Nokia jangan pake Iphone,1-2-2021,0
602,rizki_ajy✓,rizki_ajy,,mendingan kirim ke gua cok😏,1-2-2021,0
603,IM GONNA BE A STAR🌟✨,andias117,,"SKIP HP KU MENANGIS ,😂😭",1-2-2021,0
604,😈😈😈😈,kenzowhack,,Not real,1-2-2021,0
605,Senn,kepobetsihanj9,,Gua kira tuh gerinda hidup ternyata kaga pantesan kaga ke belah pas make gerinda,1-2-2021,0
606,UrMine🙀,febryanmine,,ANAK NGEN,1-2-2021,0
607,dika,lolisu19,,enak lagunya 😭,1-2-2021,0
608,Dion :‹,perosting_handal3,,"ken yu wit a nokia 😂
#ndak bisa basa enggres",1-2-2021,0
609,auranti,limbataadityaprasetya,,@almas.ganss mending buat gw anjj 😭😭😭,1-2-2021,0
610,Kii😷👆,deskicuyy,,pas gua liat ekspresi gua🙂,1-2-2021,0
611,Sinchan Chan,sinchanchan2,,tidak berpusing😁,1-2-2021,0
612,ウルトラマンラブ,realhappyboymr.a,,sultan msh bebas🙃,1-2-2021,0
613,Hakdog,renzjared,,Nokia,1-2-2021,0
614,K💗S.,kahpi711,,mending ngan buat aku,1-2-2021,0
615,putra tri,putratrianugrah,,kita yang pengen iPhone YouTube di ancurin maklum sultan,1-2-2021,0
616,Bé Là Thiên,killed2007,,cho m cưa 1280😂,1-2-2021,0
617,gak tau,amiraafirdelinaa,,sultan gabut tuh,1-2-2021,0
618,Rajoky Pgbn,rajokypanggabean,,ada lawan nokia😏😏,1-2-2021,0
619,kela🖤,gtw.ahy,,dari pada di gituin sini dah buat gua😭,1-2-2021,0
620,Rian06tm,rian20tm,,aku menginginkan nya 😂,1-2-2021,0
621,Goho 乂 𝐉𝐀𝐖𝐀𝐒𝐎𝐅𝐓,pdi_perjuangan.id,,coba nokia jadul....😅,1-2-2021,0
622,Martin•Mengikuti,martin0211111111111,,fyp,1-2-2021,0
623,Re🤠,reyudistirap,,HP gua tuh😁,1-2-2021,0
624,hernilo,hernilo2,,ako penge po i phone pls,1-2-2021,0
625,DEWA乂 𝐉𝐀𝐖𝐀𝐒𝐎𝐅𝐓,adeliakhasanatul,,mending buat gua bang,1-2-2021,0
626,Badan Intelejen B0K£P Dunia,mamank362,,it's better for me,1-2-2021,0
627,classmate ni noel,optimumprideurgargh,,Yung una d Naman umiikot 5555555,1-2-2021,0
628,yoeu,badgrilx_,,@aku.akhwat kalo gaa mau mending buat aku,1-2-2021,0
629,tôi tên tuấn,hehe111.3,,đố cắt đc nokia,1-2-2021,0
630,I Putu Gede Supartha,iputugedesupartha,,Setelah melihat video ini saya langsung memukuli siapapun yang lewat,1-2-2021,0
631,user6228563812370,jefri783,,mending buat gue bang,1-2-2021,0
632,Firman Cok,manzgejet,,apa lah dayaku ram 2😌,1-2-2021,0
633,Schmitz,schmitz___0,,ingat mending di kasih orang yang ngk punya hp buat tugas online 😁😁,1-2-2021,0
634,BTX|HszezZho,hszezzho,,aku yang bisa pake xiomi dan redmi 😳,1-2-2021,0
635,Hüseyin Greif,MS4wLjABAAAAl5NDsZM46FNrimu6qGaYXh92KklXoscsK7CApEbcTirL56I4oAG7UE9jo8r10L3W,,Ach Nokia hält es aus,1-2-2021,0
636,no one,just.the.jed,,try nokia,1-2-2021,0
637,liat bio gw,takemi_noronar,,kesian udh beli mahal mahal likenya dikit,1-2-2021,0
638,Công Nilo,congnilo101207,,giàu quá thì cho mình dùng đi,1-2-2021,0
639,sophie,sophiiee.vt,,wenn du soviel geld hast schenk mir eins,1-2-2021,0
640,o,username123390,,@izaanakbaek.21,1-2-2021,0
641,Leon,leon3720,,plasma,1-2-2021,0
642,사랑해•✓,king_chou02,,Sayang,1-2-2021,0
643,Dương Văn Thiệt,thiet2406996,,mô hình,1-2-2021,0
644,Ruby master Pro,rubymasterpro,,kelakuan kalau gk tau mau Spain duit,1-2-2021,0
645,Mitama,mitama20,,gak apa2 demi alex😂,1-2-2021,0
646,Let’s play 🏎,htgamer2708,,Cưa đc nokia 3309 thì mik mua cái máy😂,1-2-2021,0
647,M Abdul Rohim138,mabdulrohim38,,mending buat gw,1-2-2021,0
648,Muối,user900722921,,mày cưa Nokia thử tao coi 🤣🤣🤣,1-2-2021,0
649,Py_nラーマ,fynn_x2,,mending buat gue woi😅,1-2-2021,0
650,Nguyễn Tiến Duy,user818963504,,11 mà,1-2-2021,0
651,🍀 Dũng🍀,MS4wLjABAAAATRgBcHhVhU-wxSEYMoeGb4qQHodHUa7-YxE8NwsUZyblYYXZRneKxdTtz31R6ZVE,,Vào link nhạc xem video thứ hai 😳,1-2-2021,0
652,Hanepp..,malhaskuy,,"ga papa sumpah ga ngapa ngapa
demi alek kaga ngapa ngapa
tapi lu mikir lah.... 😳",1-2-2021,0
653,𝙈𝘼𝙎 𝘼`😈,siagemm,,sedekahin ke gua aja,1-2-2021,0
654,road to 10k_________🚗1.6K,youresuchafortnitenerd,,Nokia,1-2-2021,0
655,Thanh Xuan,MS4wLjABAAAAHToWgxBmbIyyBxqlg-D4UObaLE3R5U_4AwYjJL5DmuYOej_MQpvc21_LD9dlPwAi,,pin iPhone mở ra có mùi cũng thơm lắm khi trưa mới mở ra,1-2-2021,0
656,Ojan_san,ojan_sama,,Masih kuatan Nokia 3310,1-2-2021,0
657,taikrispi,rifaldifarhns,,noooooooooo!!! just give it to😭 me,1-2-2021,0
658,@fajarrestu9,fajar_607,,knp pada suka iphone ya,1-2-2021,0
659,TWF™•Riyan04,kendbwiebd,,Nokia aja bro😂😂😂,1-2-2021,0
660,dika,andikaadidaya,,gerendaya aja gak begerak,1-2-2021,0
661,John Brian A Hilario,johnbrianahilario,,wag po 😭😭😭😭,1-2-2021,0
662,Apinat Maliwan💖✨,user38443759,,ผมขอ🥰😂,1-2-2021,0
663,Renaldo Sagala,renaldosagala,,hp kentang ku menangis,1-2-2021,0
664,anak. F,m.riki53,,kak. cobak. pakek. Nokia,1-2-2021,0
665,Taufik Akhmad Sanjay,taufikakhmadsanjay,,wah bagus nak saya suka,1-2-2021,0
666,Đỗ Sơn Tùng,dosontung.2,,Ae tin tôi đừng vào link nhạc,1-2-2021,0
667,Fynn 乂 𝗢𝗣𝗦𝗢𝗙𝗧,fynn.lemonnn,,ya elah hdc😂,1-2-2021,0
668,평범한 놈,leejongyoon6,,당연히 안잘리리지 안트렀는데,1-2-2021,0
669,FB: Trần Đình Tùng,trandinhtung_262005,,đừng xem video thứ 2 link ngạc,1-2-2021,0
670,布由🍑,user465h2y6wyf,,物理消去かな,1-2-2021,0
671,Farish😁,muhammadfarish104,,it's better for me😂,1-2-2021,0
672,デリシャス,userkcky0ddn56,,ずっとこんな顔で見てた😨,1-2-2021,0
673,Luca,archivvonluca,,Das ist nur ein demophohne als ob er extra für 10Sekunden 1400€ kaputt macjt,1-2-2021,0
674,fadli Restu anugrah,fadlirestuu,,🙂🙂🙂🙂🙂🙂🙂,1-2-2021,0
675,Thi Opal,thiopal.fth,,Ip fake,1-2-2021,0
676,🐟,rssyaaa,,@viiyyyyyy,1-2-2021,0
677,"BimaGanzz""",bimaanggaraputra0,,mba RRRRRR menangis melihat ini😅😂,1-2-2021,0
678,user5778720212453,tsgwg11,,aku mintak dong,1-2-2021,0
679,Hoàng Thiên,25_05nht,,ờ,1-2-2021,0
680,simuaz,sapeyekknih,,fake ... poor,1-2-2021,0
681,Mukhamad Asghaf,zufa._t,,ah gw coba ah 😂gw aja pakek hp vifo gk punya aifon:v,1-2-2021,0
682,ᴠᴇʀʏ ᴄʀɪɴɢᴇ ᴘᴇʀsᴏɴ,xx.cringe,,What’s next a iPad?,1-2-2021,0
683,Gᴜsɪᴏɴ,nainglunnzaw,,Be save Myanmar🥺🥺🥺,1-2-2021,0
684,VIP | KYZO,alifhaziq1122,,baik bagi...bro😅,1-2-2021,0
685,Sofia,sofia.is.single.forever,,if you didn't want it give it to me🥺 i dont have money to buy that🥺,1-2-2021,0
686,Ponakan ultraman,aisssahh_,,ada masalah apa si ka? mending buat saya aja sini🥺,1-2-2021,0
687,D,zakwanaimann,,BAGI AKU OII,1-2-2021,0
688,izul,rzl.mlyna13_,,konten yg membagongkan😂,1-2-2021,0
689,Gianluca Urbanelli,giangiopy,,try whit nokia3310,1-2-2021,0
690,.,dekobra_,,De iPhone is nep,1-2-2021,0
691,user1009925690942,awishhhhhhhhhh___,,@ATHAR:▂▂▂▂▂▂╭━╮▂▂▂▂▂▂▂ ▂▂▂▂▂▂┣━┫▂▂▂▂▂▂▂ ▂▂▂▂▂▂┃╭┃▂▂▂▂▂▂▂ ▂▂▂▂╭━┫┈┣━╮▂▂▂▂▂ ▂▂╭━┃╭┃╭┃╭┃━╮▂▂▂ ▂▂╲╭┃╯┃╯┃╯┃╭┃▂▂▂ ▂▂▂▏┃┈┃┈┃┈┃┈┃▂▂▂,1-2-2021,0
692,Daniek🤍,daniekstip,,@carlostip98 dit kunnen we ook met jou telefoon doen,1-2-2021,0
693,lfcmatthew,matthewlfcc,,NO WAY IT SNAPS WHEN CUT WITH A AUTOMATIC SAW 😳 WHO WOULDVE THOUGHT,1-2-2021,0
694,idunnow,__widih__,,I dare old nokia😂😂,1-2-2021,0
695,Hằng『Alluka』,alluka_hang,,nếu dùng đc thì cho t chơ đừng cưa thế,1-2-2021,0
696,ác quỷ nhưng mà yêu Chaeng🥰,parkchaeyounglacuataooo,,Không xài đưa tao xài cho dm:),1-2-2021,0
697,『HỒ CHÍ MINH』Nam vjp,phienphucok1,,Đừng để anh nóng hơi... hơi mệt ấy 😂,1-2-2021,0
698,Scarleth Estrada-Sia,scarlethestradasiam,,No,1-2-2021,0
699,TUTU,mahesaalgani,,itu ai pon 24 juta lubeli untuk dirusak 😭😭😭😭😭,1-2-2021,0
700,YoasKzh,yoaskzh,,😂,1-2-2021,0
701,"Tử Mễ , TDT, BMH,",0335714linh,,tes như này nhằm nhò j vs CỤC GẠCH,1-2-2021,0
702,Ruby,rubylover291,,Bnyk yang membutuhkan diluar sana😬,1-2-2021,0
703,kelvin permadi s,kelvin10032,,"pake pengaman bor, konten boleh, kesehatan prlu",1-2-2021,0
704,P4trick.,patrickpat._,,hahaahhaa,1-2-2021,0
705,P4trick.,patrickpat._,,MY PHONE😡😡,1-2-2021,0
706,ALN GARCIA,thommygarcia16,,so ?,1-2-2021,0
707,r,userrel4,,baik kasi aku tolol,1-2-2021,0
708,zxx,zakiihndriansahh,,b aj tuh ekspresi gua,1-2-2021,0
709,ruad er,ruad1606,,Nhói tim,1-2-2021,0
710,Rik,rik291108,,Ik wil er ook wel een testen hoe sterk ie is,1-2-2021,0
711,man✓,man...18,,use ✨NOKIA✨,1-2-2021,0
712,Evalohuis,eva_.lh,,@.philinedaris ik kan dit niet aan,1-2-2021,0
713,I Man Jack TKTK,i_man_jack_tktk24,,tenang itu cuma case kok😅,1-2-2021,0
714,USER ZIGA,user_samtek,,anak ngen,1-2-2021,0
715,(･–･)東東(･ัω･ั),mark8852,,你不要可以給我,1-2-2021,0
716,K_BIKERッ_,k_biker_09,,아이폰이 없는 사람한테는 충격 그자체,1-2-2021,0
717,hacker,shinehtetko246,,please me phone love,1-2-2021,0
718,RiscoL.,riscolmlbb,,"kemiskinanku berkata, sayang sekali",1-2-2021,0
719,adit🗿🤘,yntkts_528,,buat gw aja anj😌😌,1-2-2021,0
720,Zach Harry,zouks09,,"You like destroy this so can yu give me only 25 dollars 😳
Because i need this
Really and i'm serious 💔",1-2-2021,0
721,(.),vtrustedanna...dumxx08,,That’s iPhone 11,1-2-2021,0
722,布萊特教科書🤔,video959,,有錢,1-2-2021,0
723,cel 10k obs,potterhead_804,,widać atrapę,1-2-2021,0
724,Aprillio_Galuh,galuhhhuuuu,,HDC!,1-2-2021,0
725,ALEX19NA,alexxnababan,,di sini kita tahu bahwa hp iphone tersebut kw,1-2-2021,0
726,paman senam seher,yakultsatugalon,,Nokia tertawa melihat ini,1-2-2021,0
727,Bruno Bucciarati,amirulirfan_2009w,,WOW IPHONE,1-2-2021,0
728,Dony,gggmaing6,,mending buat gw aja HP gw kentang cok😂😂😂😂,1-2-2021,0
729,🔥🔥🔥🔥🔥?,arjaytomas28,,😬😅,1-2-2021,0
730,xhorrz,pgnlibur,,40 like gua ngajak mantan balikan😏😳💔,1-2-2021,0
731,YosiCRUEL,yosi_yosua26,,itu tu IP 11 bkn 12,1-2-2021,0
732,Fico Pratama,ficopratama1,,hoak,1-2-2021,0
733,Tik Toker,pokemon_go463,,Wy so stupid,1-2-2021,0
734,Jannah Ummu Abdillah al-farizi,asyrafalghifari_,,mending buat gw🥺,1-2-2021,0
735,Arill Sudah Tobat,zhyahryl1,,sultan,1-2-2021,0
736,.,wati2310,,"give me hp iphon 12,I'm from indomesia hhha",1-2-2021,0
737,Mae🦋,imjeanmae_ig,,Sana all,1-2-2021,0
738,好好好好好好好好好好好好好好好好好好好好好好好好好好好好好好,huangjia7,,NONONONONONONONO😳,1-2-2021,0
739,T.🥷,timon_030,,Nokia,1-2-2021,0
740,aditt.,adit_1801,,apa daya ku ga pernah se umur hidup ku ga pernah make iPhone mending kasi akuuu dehhhhhhhh😌,1-2-2021,0
741,user9220014887393,jellehuisstede,,Heb je er ook een voor mij🥺,1-2-2021,0
742,BGX ZDENE,bgxzdane,,Nokia kuat,1-2-2021,0
743,Serlijn Van pel,serlijnvanpel,,Dat is de iPhone 11😂,1-2-2021,0
744,Fasted,weird_genius10,,give me iphone,1-2-2021,0
745,Daniela,dani23_._,,@faye.010,1-2-2021,0
746,🤎,ivanishadjenairyy,,@iiam_.lydenxia wrm💔,1-2-2021,0
747,CasualCallit,leomordoffcial,,i dare you to slice a nokia,1-2-2021,0
748,Khaidir Ahmad II,waqeel84,,do at nokia 3310 😁😁😁,1-2-2021,0
749,Klarissa Candy,klarissaahr1,,Well can you just give me the phone instead,1-2-2021,0
750,Minineji_a_mimir-_- 💤,minineji.a.mim1r,,Nooooo,31-1-2021,0
751,✔️↖️↖️↖️↖️↖️,uservn10h1yqoy,,nhìn tiếc vcl sao ko cho tao 🥺,31-1-2021,0
752,manon_xxc,manon_xxc,,Why would you do that😳😂,31-1-2021,0
753,senna_carspotter,senna_carspotter,,Doe een Huawei P30 PRO,31-1-2021,0
754,MAS S🗿,banhsigit_anu,,nokia plisss,31-1-2021,0
755,Æontheg,aeontheg,,Why,31-1-2021,0
756,Quella_bestia_di_soma,sonogesuincannottiera,,I think its fake because in the iphone there is the litium battery and when it got hit it should catch on fire,31-1-2021,0
757,mathlajak,mathlajak,,,31-1-2021,0
758,𝓓𝓮𝓵𝓹𝓱𝓸𝔁,im_delphox,,mending ksh aku lah😭,31-1-2021,0
759,ik ben grappig,jevaderishierniet.helaas,,"Me begging my mom for an phone
some guy:",31-1-2021,0
760,Trainspotter Serbia 🇷🇸,trainspotter_serbia,,Huawei,31-1-2021,0
761,Joseph Vicente,josephvicente5,,Must be rich guy atitude,31-1-2021,0
762,🤪,fran.noor13,,an samsung a40?,31-1-2021,0
763,muslim ☪️,muslim8364,,⚠️ON Feb 1 WE ARE GOING TO FILL CHARLI'S COMMENTS SECTION WITH HATE!! ⚠️SPREAD THE WORD!,31-1-2021,0
764,marithjuhh🎀😍😝,marithjuhh_blossom_gurlx,,"Do nokia they are on breakable😂😂😂😂
Yn it's a yk right",31-1-2021,0
765,GD SapphireKing47,sapphireking47,,Plainrock124 be like,31-1-2021,0
766,pkkcountryball,pkkcountryball,,do same but with a nokia,31-1-2021,0
767,naud,naud.dd,,iPhone 11😂,31-1-2021,0
768,Norwegian candy,jonathangjerdinge2,,@jonathangjerdinge2：Not an 12 it is a 11 because 12 dosent have glass on the back and have the iPhone 5 designe😂,31-1-2021,0
769,DanielB,mindturtle,,Nokia man😏,31-1-2021,0
770,oVetrox,ovetrox,,Akku sagt nein,31-1-2021,0
771,‍,christocz,,that peoples who think it's real iPhone 12 🤡🤡,31-1-2021,0
772,Hi 👋,crypticj3ff,,🥺,31-1-2021,0
773,Israel 🦊✨,daysamfox,,79,31-1-2021,0
774,.,gorilla9837_vr,,Ps4,31-1-2021,0
775,✨,mariusdgt_tqtmmpas,,@nonod011,31-1-2021,0
776,muumikoti,www.biltema.fi,,"if you have so much money just to destroy things, you should do something else like give them to someone who really needs it like people who has no 💰",31-1-2021,0
777,Semsem,smsmm2009,,It is an iPhone 11 😳😳,31-1-2021,0
778,2137,.raxvy,,To arapa,31-1-2021,0
779,user2701616595854,xemgame,,Rip 2000,31-1-2021,0
780,Brian Sydney,brian_sydney,,Plasma brander🔥,31-1-2021,0
781,Antonio_0_807_✅,antonio_0_6,,😎🤏🏻rrr😳🕶🤏🏻,31-1-2021,0
782,idiot😩🥵,ondrusss._,,wtf Its 11,31-1-2021,0
783,CEO_OF_SUNYI,ceo_of_sunyi,,Sume phone pun akan patah kalau kau gune bende tu😂,31-1-2021,0
784,•_•,_backblech_,,Fake,31-1-2021,0
785,ALEX,alexml_1,,me lo hubieras dado😭👊,31-1-2021,0
786,𝕽𝖔𝖇𝖞 𝖌𝖓𝖙𝖓𝖌,.robygntng,,mnding kasih ke gue,31-1-2021,0
787,enea eno,enea_eno007,,u kill meee send one please,31-1-2021,0
788,Matt_Jack_17,matt_jack_17,,now you have 2 Iphone 6😂,31-1-2021,0
789,xXDepressedLonelyOwlXx,xxizzyaestheticxx,,Nokia,31-1-2021,0
790,KID¤FLAME,flame_gamingyt,,@joe.bartolozzi,31-1-2021,0
791,Xxbiden_crackedon_speedrunxX,xxbiden_on_speedrunsxx,,Nokia😏😏,31-1-2021,0
792,RIM・Swag,yesh2223,,U could have give it to mww😩😭😭,31-1-2021,0
793,Joe,uncle.joe1959,,Nokia 🥺🥺,31-1-2021,0
794,MA RK,qtmar.k,,MY FUTURE I HAVE A PHONE THEN YOU YOU BROKE IT🥺,31-1-2021,0
795,FideAL,notfipix,,IPHONE FAKE. THE CAMERAS ARE FAKE,31-1-2021,0
796,Tommy,mr_hilfiger,,Dat is een 11,31-1-2021,0
797,lovec_zeserto_kidu,general_armady_szzz,,vsak ta flexa ani nefungovala 😂,31-1-2021,0
798,Václav Kamenský,vasek_kkt,,vole kdyb jsi to nebral řezačkou na dřevo tak by to i rozřízlo !!!!😳,31-1-2021,0
799,hi,fnaf_commun1ty,,try a nokia,31-1-2021,0
800,Nickname can’t be blank,1111111111111111111111qa,,Try nokia 🥵 🥶,31-1-2021,0
801,Joshua Watkins,hellothere15220,,that's what she said,31-1-2021,0
802,Γιάννης Αεκαρα,j_frag02,,it seems that it's fake,31-1-2021,0
803,Aka_-don’t now lol,gaming10anythig,,Do a nokea phone please 😏😏😏,31-1-2021,0
804,ঔৣÐâřҟŦﺂℜêঔৣ,a.nonimys..sqquezi,,go Nokia 3310 please,31-1-2021,0
805,y_menya_big_4len,kto_npochital_tot_lox,,"Пили, пили мы же миллионеры. Новый купим",31-1-2021,0
806,✨,blossom.stuff,,@officialgamechanger27,31-1-2021,0
807,Kate,kate_45365,,are u insane???????🤦🤦🤦🤦,31-1-2021,0
808,That guy,noonenoone044,,send me a iphne 12 and i share you every time i go in social media 😁,31-1-2021,0
809,꧁ᵏʳᵃᵐ ˡⁱʳʸᶜ ᵇᵃʸᵘᵇᵃʸ꧂✔︎,kramlirycbayubay0,,why I want that phone🥺🥺🥺🥺,31-1-2021,0
810,user4927890822464,sebastian_skovgaard,,Its a fake iPhone,31-1-2021,0
811,belinay,belinaykarakurt2727,,3? Paintzer !!!!!! Mehmet,31-1-2021,0
812,Greedo,greedo40,,Try Nokia,31-1-2021,0
813,Rikard Rrotani,rikardrrotani,,It’s a fake IPhone,31-1-2021,0
814,user7333595441892,mortderire14,,We're looking for this and you're scratching this🥺🥺,31-1-2021,0
815,Roby,caposayan,,Ma me lo potevi dare a meee no? 😂,31-1-2021,0
816,bege,kangkung5rb,,sultan kalau lagi gabut😂,31-1-2021,0
817,gabriel,gabrielolivercoronel,,thats fake because didn't explode the battery,31-1-2021,0
818,Nam củ cải,duy.nam.racingboy,,phí vãi,31-1-2021,0
819,mefo sali,mefosali,,dat is de 11 dat kon he zien aan de zijkant,31-1-2021,0
820,Wassup,ssj_spongebob,,if u dont need something give it to me xD,31-1-2021,0
821,Fendt is das beste 😍😍😍🤩🤩,sebiiii52,,@apple,31-1-2021,0
822,Abdiman,abdul2764,,waste of money,31-1-2021,0
823,Hi,eeeeeee1243,,I hate u,31-1-2021,0
824,nescafe,eriqq_,,NOKIA,31-1-2021,0
825,...𝓜𝓞𝓓𝓔𝓡𝓞𝓙𝓐 𖠦,mahmedh03,,لو الاصلي كان البطرية انفجرت 😏😏,31-1-2021,0
826,Joseph Gabriel,josephgabriel66,,fake,31-1-2021,0
827,MICHI SOVIETICO,de_tod0_un_poco06,,🥺🥺,31-1-2021,0
828,꧁༺ℓὺηƓιαηƓнo,idff1252582263,,nokia chấp hết,1-2-2021,0
829,Gilang wolleeezzz,654gilang,,buatakuaja hape nya,1-2-2021,0
830,Senneroyal1,senneroyal1,,Mag ik een iphone 11,1-2-2021,0
831,user adi,riskipanderosanjai8,,😭mending buat aku kak aku pu nya hape samsum,1-2-2021,0
832,JOKES TERUS ANJG,apa_itu_jokes,,kasih gw aja😂,1-2-2021,0
833,Zoutkamp,bootjevaren_zk,,Huawei p40pro,1-2-2021,0
834,esmee springer,esmeespringer1,,😭,1-2-2021,0
835,Ejary,ejary.off,,its iphone 11,1-2-2021,0
836,lordofdarkness2,lordofdarkness2,,Empty case/dummy. The battery would have smoked at least on a real Device.,1-2-2021,0
837,MEHDI,x_mehdi_x77,,c'est pas ça je veux pleurer 🥺🥺🖖🏽(TT)👽,1-2-2021,0
838,Cpm_Fly,dirgtgtpiboongcui12,,dia Brani lah jelas Jelas Itu HADECE SOALNYA AKU NGARANG,1-2-2021,0
839,Marvel is the best,mazjurie81,,de eerste beweegt niet dat is gewoon een geluid!,1-2-2021,0
840,V7 Dann`,v7dann,,mending buat gua aja😳😳,1-2-2021,0
841,𝕄𝕣._𝔸𝕜𝕚𝕤ت,._.ak86,,Fake iPhone,1-2-2021,0
842,Achmad ALDY,peleboy4,,tak pek aeee,1-2-2021,0
843,Callum Kelly,eaeaea880,,I knew it not real it look plastic phone when u cut it so stop making hurting people feeling 🙂,1-2-2021,0
844,Ivan Vrieling,ivan20741,,doe het met een kettingzaag,1-2-2021,0
845,Abraham 1235,abraham_1235.1,,coba pake nokia,1-2-2021,0
846,CHARJABUG HOT,knorro,,Nokia,1-2-2021,0
847,SURI MENDES,surimendes,,Das ist ein iPhone 11,1-2-2021,0
848,MarcusNanda,marcusnanda,,This is a iPhone 11,1-2-2021,0
849,Cm_Sieraden2,cm_sieraden2,,@brawlstars_pro_2828,1-2-2021,0
850,♡,achieopdeblock,,"how , i couldve had that🥺 ur mean",1-2-2021,0
851,CapCut ideas! 💕,capcut..ideasx,,Omg AGGA,1-2-2021,0
