,Comment Number (ID),Nickname,User @,Comment Text,Time,Likes
1,Borna,hunter_borna,,Rip water prof,30-4-2021,15
2,maarten veldman,maartenveldman13,,"yes, i have a screenprotector",30-4-2021,15
3,Hong Tk,hongtk82,,After replace still ip68?,1-5-2021,5
4,Jim Karatzas,_dimitris__08,,pls do Xiaomi Redmi Note 8 Pro and the boyz will give u 500k likes😏😏😏😁,1-5-2021,6
5,Kipre Roland,rolandkipre,,super,1-5-2021,3
6,Firmino,robertofirmino27,,well done bro,1-5-2021,2
7,Sitnasone Sensanady,soy888999,,How much,1-5-2021,2
8,Mikey,mykeyk0,,model? 😳,1-5-2021,2
9,1,topit034,,😂,30-4-2021,1
10,zeldawarprincss,zeldawarprincss,,same thing happened to my phone,28-3-2022,0
11,lake3635,lake3635,,i will gave you my ipad11🥰,4-7-2021,0
12,𝙄𝙧𝙞𝙣𝙖🤍,irinatamaraa,,Someone send this to Jungkook,7-5-2021,0
13,ibrarjutt0093,ibrarjutt0093,,How much for samsung s 10+ lcd,2-5-2021,0
14,allore5m,allore5m,,Samsung 🌍❤,1-5-2021,0
15,𝐋𝐨𝐦𝐭𝐞𝐝ツ,lomt3d,,Yes I do,15-5-2021,0
16,I_am_groot_girl,i_am_a_groot,,Super fast@jackeyephone,4-5-2021,0
17,🐚🤴shineminthant🤴🐚,shineminthant9,,Good Brother100,3-5-2021,0
18,Seni seviyorum👉🏻❤️👈🏻,yapma_poyraz,,Oh man this is samsung?,2-5-2021,0
19,user1673441100793,kelebogile462,,No,25-5-2021,0
20,🐻❤️𝙎𝙝𝙤𝙝𝙧𝙪𝙝❤️🐼,gafurovich__sh,,Iphone 6,8-6-2021,0
21,أسہمہاإآءاقرأ المزيد على موق,hhathal96,,شنو اسم هذا الحهاز,1-5-2021,2
22,Vua Lì đòn 🇻🇳,phungtheloi,,Đấy tây họ làm chuyên nghiệp hơn các bẹn ạ,2-5-2021,7
23,osama,osamaasmr2,,ٍ,1-5-2021,2
24,papashhh,deigo213,,hermano porque daños el teléfono,1-5-2021,2
25,Lặng Lẽ,lamnga2021,,Thiệt điện thoại mà làm mấy cái lưng thủy tinh như này suốt ngày phải tốn tiền thay thôi😂,1-5-2021,2
26,HOÀNG MINH,hoang.md,,Ở VIET NAM chúng tôi dùng dây nịt cột tiềnnn =))),1-5-2021,12
27,Vũ Hoàng Khánh Giang,vuhoangkhanhgiang,,160k 6 cái sao phải buộc dây nịt,1-5-2021,4
28,Đỗ Văn Sơn,kissmegirl2000,,các công đoạn của các công nhân trong nhà máy,2-5-2021,2
29,Minh Hiếu,abc12345h1,,dùng dây chun an toàn hơn😌😌 ép như kia rễ sọc hoặc đốm màn😌 nhiều quán linh kiện bán cái kia có mấy thợ mua về đâu,1-5-2021,3
30,elgeimer23,elgamer23xd,,bro una pregunta porque al jugar COD Mobile en mi Samsung j4 plus oeta y se reinicia?,30-4-2021,2
31,Ốc Tiêu,octieu2701,,없어요 🥺,1-5-2021,2
32,امير 💓,cp_s2,,اول عربي 🇮🇶,1-5-2021,2
33,alexcongafas123,alejsjdjd,,of course No :))),1-5-2021,2
34,RAYON,bratan_011_,,"@vine_tasirli:respect😳😳
︎Смотреть ответы (113939)",1-5-2021,2
35,نحنو عشاق علي,user711786192714,,ٍ,1-5-2021,1
36,kishun,kisun111,,halo aq dari Indonesia,3-5-2021,1
37,⫷〘𓊈𓆩A__﷽__M𓆪𓊉〙⫸,a_m_511_x1,,@m.__y5 😂😂😭,3-5-2021,1
38,Nguyễn The Anh,nguyentheanh1983,,cột dây chun song mang về tháo gia cạnh vẫn sáng quắc nghĩ nó chán,1-5-2021,1
39,QR8502SA,_babykush.h_,,"hồi trước ở quán tôi toàn sài cái kẹp này, nhưng giờ toàn dùng dây thun :))",1-5-2021,1
40,Phụ Kiện Hay,giadungthongminhls,,ở VN chúng tôi dùng xây thun kakaka,1-5-2021,1
41,Trần Hưng,user9p0j8hxbdj,,lên ttbh ss thấy nó thay lưng nhìn cũng đơn giản mà thay xong áp nó nhảy khá tung chảo,1-5-2021,1
42,TiẾn sÓi,tiensoi5,,Việt Nam! Toàn dây thun kk,1-5-2021,1
43,Vệ Nguyễn,venguyen145,,Ai dây thun đâu. Dơ tay cái nhể hehe,1-5-2021,1
44,אחמד עאצי,ahmadtiktok101,,ٍ,1-5-2021,1
45,SONIC,imthevibingguy,,you si pro,30-4-2021,1
46,Ngoc Linh,09ngoclinh09,,"chỗ mình toàn cột dây thun, ko biết nơi khác thì thế nào?",1-5-2021,1
47,NC,MS4wLjABAAAAwe-hsqhcIbl9x_BA9ogLgRyOVLs3v8rqAFByHweaz0U_rgzhH_VIsNHGE4gHSxU3,,thợ chỗ tôi đi thay màn thì tịt luôn loa thoại,1-5-2021,1
48,ضرغام الخزعلي289,derghamkhazali2,,😍😍😍😍🤑🤑🤑🌹💗👏🏻❤️❤️🇮🇶🇮🇶🇮🇶🇮🇶,1-5-2021,1
49,نحنو عشاق علي,user711786192714,,ِ,1-5-2021,1
50,✨آبـن--💙❤️--بَـــرشَلـونة✨,9._em,,😂بالعراق يشدوه بلاستيكه😂,1-5-2021,1
51,Elçin Алпинист,elcinhesenovel,,уже не оригинал мусор телефон сломалса варёных надо кидать мусоро всё новые купить,1-5-2021,1
52,tootigmootig,avakhagopian,,😳😳,30-4-2021,1
53,Bil Lal,billal7998,,هل يبقى مضاض للماء او لا 🤔🤔,4-6-2021,1
54,うに山さん,unimountain,,99のスプレーの出番わい！,1-5-2021,1
55,Trinh_Y_Vu_87,y_vu_karaoke,,"mục đích ng sử dụng đt bị dắt mũi chỗ này. bán đt là phụ thôi, lượng tiêu thụ phụ kiện để thay thế gấp 10 lần số lượng bán đt 😏",28-7-2021,0
56,♚𝕬𝖓𝖍 𝕹ô𝖓𝖌 𝕯â𝖓♚,minhvan3979,,dây thun muôn năm nhé,21-7-2021,0
57,Duy,hahaha.0.2.0,,mì tôm vs keo 502 auto cứng cáp,5-7-2021,0
58,Chan Chan,chanmyae213,,"မြန်မာနိုင်ငံမှာ
သရေကွင်ူနဲ့တုပ်တာ😂😂",4-7-2021,0
59,Abood Saed863,alseare71,,وين القى مثبت الغطء,28-6-2021,0
60,Abood Saed863,alseare71,,انا اسوي ربل افلوس😂,28-6-2021,0
61,BOYSAIGON789,boysaigon789,,CHỤC TRIỆU NHƯ ĐỒ CHƠI 🥰🥰🥰🥰,26-6-2021,0
62,Muhammad Al_jibory,muhammad209030,,اسم الجهاز,22-6-2021,0
63,user,__brah____,,ilk Azerbaycanlı,21-6-2021,0
64,Noteka78,noteka78,,nhiều cái nịt 😂😂😂,15-6-2021,0
65,Hải Biên.Media,haibien.media,,Quê tôi nó quấn bằng cái nịt😂,14-6-2021,0
66,𝔐ℌℑ𝔐𝔈𝔑☹♡,mohemenelshreef,,شو نوع الجهاز,14-6-2021,0
67,Thanh Thể,thethanh1905,,Iphone thay đc v thì hay bt mấy😂,1-6-2021,0
68,Krystal,crystalyingz,,can you tell me why your BGL has no tape? border tape,1-6-2021,0
69,حمزه الشاوري,hamzahalshawry,,تركيب شاشه خارجيه نوت 9,29-5-2021,0
70,nguyentuonghy,nguyentuonghy,,Ở Việt Nam toàn cột dây thun... 😁,28-5-2021,0
71,Trọng,896369876t,,Một chiếc Note 20 ultra xịn xò,27-5-2021,0
72,Ngoc cave,cavehotell,,vn thì lấy dây thun bó bốn xung quanh.xong kêu để tới chiều rồi gỡ chưa khô keo nữa,25-5-2021,0
73,AHMAD ABDULLAH,a7a694,,🥺@moahthizam,22-5-2021,0
74,عباس حسن,tr8tk,,احنه بلاستيكه,22-5-2021,0
75,Rahimbergan1344,rahimbergan1344,,Sotiladigani yo'qmi,21-5-2021,0
76,Leo Nguyễn,lucigacon,,sao ko buột thub 😂😂,12-5-2021,0
77,Hung Nguyen,huungongg,,nhìn lại thấy mấy con samsung thay mặt lưng tiện hơn iphone,10-5-2021,0
78,❣️ℋℰᎯᏉℰℕЅ❣️,6.x6.x6,,wow 😳,10-5-2021,0
79,Hạnh Anna🌈,hanhanna91,,😁Anna đã xem 😁,7-5-2021,0
80,Tòn,camera__man,,"Đấy, phải đúng kỹ thuật như này mới không có bụi dính cam",4-5-2021,0
81,אושר אמיר746,amirahapproved,,יקור,4-5-2021,0
82,وليداحمد على النجار,pubgcarpenterprofession0,,ٍ,3-5-2021,0
83,Nguyễn Thành Chung,chungcaohnc22,,note 20 ultra,3-5-2021,0
84,Luvy,honghaitrong,,has no imei,3-5-2021,0
85,FrankeTheMedic,frankiethemedic,,I'm holding that phone right now in fear 😅,2-5-2021,0
86,Nghĩa phạm,nghiaphammm,,Con này nhìn sang hơn iphone thật mặc dù tao dùng 3 mắt,2-5-2021,0
87,Phúc Thịnh Trương,phucthinhtruong,,ở vn là dây thun nha,2-5-2021,0
88,Hoàng,hoangnguyen23100,,Găn nắp mới phải gia nhiệt cho keo nó nóng . xong mới lấy thun cột nha anh. 😁,2-5-2021,0
89,Phạm Hậu,hau2795,,Ở việt nam chúng tôi họ dùng dây thun cột màn hình 😂,2-5-2021,0
90,Ánh sáng của Đảng,anhsangcuadang09,,Ba cái đồ quỷ này xứ tôi nó làm mỗi ngày không có gì đặt biệt luôn á,2-5-2021,0
91,Long HV ✅ 🇻🇳,longhv91,,mn có biết con Samsung gì kia ko,2-5-2021,0
92,Van Dong,vandong__,,Flagship mà nội thất chán vãi 😬,2-5-2021,0
93,tâm nek,anubis3641,,"Không liên quan đến video nhưng ước 1 lần đc 1000 phản hồi 😂😂😂😂😂😂
Xem phản hồi (999) ﹀",2-5-2021,0
94,ẩℓΐ,ali_saleeh,,فقد مقاومة الماء والغبار صح?,29-6-2021,0
95,hamkosha elmasry,ma7moud_hekal,,هل متوفر ل huawei y7 prime 2019?,27-6-2021,0
96,user8795011839966,_sea_breeze_123,,а у Самсунг Галакси с21 ультра разве не матовая крышка ?,12-6-2021,0
97,・・M R・・,65.mp,,زين تبقى مقاومة الماء لو لا 😅,22-5-2021,0
98,brahim.dz,kamikaz.dz,,حنا عندنا يربطوه بلاستيك 😂😂😂😂,22-5-2021,0
99,malekbell,griffdagod0,,حسبالك حنا بالستيك 🤣,22-5-2021,0
100,فاتن الحويطات,user35497552,,ً,22-5-2021,0
101,kiriltz,kiriltz,,저거 새로 뒷케이스 붙이면 방수도 문제 없나요?,5-5-2021,0
102,😿👍,meoro5000,,s21 uitra,4-5-2021,0
103,👑Хамари7_7_7_👑,dyv7li0wzi9l,,эта кокой Самсунг,4-5-2021,0
104,وليداحمد على النجار,pubgcarpenterprofession0,,ِ,3-5-2021,0
105,Dũng đầu Đinh,cong.gmeo,,hơi màu mè tý . dán tếp xong đặt lên nhiệt lấy tay mít lại 1 lần là bao done áp suất luôn 😂,2-5-2021,0
106,Omar Mshail,omarmshail,,شاشه خلفيه سامسونج نوت ٨,2-5-2021,0
107,David Romero,ders.romero,,adiós IP68,2-5-2021,0
108,Mèo Puca,meo.puca,,màu đen đẹp thật sự,1-5-2021,2
109,محذوف,nkalb0,,ثاني عربي🇮🇶,1-5-2021,1
110,مازن عبدالرحمن35,mazenabdulrahman12,,Tecno,1-5-2021,1
111,Maicol merchán,maicoljimbodemayo,,Bro eres de Ecuador tienes algún local en Quito tengo mi celular huawei y92019 quebrada la pantalla y se me puso loco cuanto cuesta ese chiste,1-5-2021,1
112,مصطفى العامري,mostafa.mm1993,,خاصيه ضد الماء والغبار تودعكم بسلامه,26-6-2021,0
113,.,mobi4u91,,VN tui dùng cái nịt😂😂,13-6-2021,0
114,Quang nguyên,quang_banh73,,Máy gì đẹp nhỉ,3-5-2021,0
115,Слава России,doibuon_91,,mé. ép vậy mất áp suất luôn chứ đâu,3-5-2021,0
116,Lặng,daocong91,,Ở Việt Nam! Chúng tôi dùng dây nịt =]]],2-5-2021,0
117,Shuaib Sultan,shuaib_ali_143,,hi @jackeyephone do you have CAMERA and Body of H4213 ?,1-5-2021,2
118,mhama27181,mhama27181,,أين مكان عملك,21-7-2021,0
119,محمود النميمي,user3498756921753,,🤪,3-5-2021,0
120,حيدر هيثم,hid2o,,https://youtu.be/8UGRLCbIEqQ,2-5-2021,0
121,Mr.six,mr.six66666,,وهذا يدل ان الكاميرات خدعة,1-5-2021,2
122,Head In the cloud,headinthecloud4,,"lol, IPhone->idiot's phone",2-5-2021,0
123,văn tỷ,vanty22081,,v là mất áp chống nc phải k ae,1-5-2021,0
124,MALEAH,hael2383,,Howmuch for s10+ back,3-5-2021,1
125,sandilepitso,sandilepitso,,don't you wanna borrow me one 🔥🔥🔥,2-6-2021,0
126,cigarmannl,cigarmannl,,WHAT A BS 😂😂 Just use a dry anti-dust cloth to clean the phone and then put the screenprotector on . EL STUPIDO VLOG,7-5-2021,0
127,DYNO,ruleroftheabyys,,What if you brake it again by tightening the clams too hard,3-5-2021,0
128,Jeremy Ayaay,jeremyayaay,,does the water proof still on after u change the back cover?,1-5-2021,1
129,anher,anher1231,,@wanuel.2,3-5-2021,0
130,ظافر بن نبيل,zaferaldarsi,,@mfd777f,1-5-2021,0
131,bakri saidina 🤣🤣🤣🤣🤣🤣🤣,saidina522,,🥰,17-6-2021,0
