,Comment Number (ID),Nickname,User @,Comment Text,Time,Likes
1,Mark Taylor,manumark66,,Just as useful as rice 😉,23-10-2021,2186
2,𝙎𝙪𝙣𝙨𝙝𝙞𝙣𝙚,kaiya2110,,What if my screen won't work after I drop my phone to water 🤔,24-10-2021,1061
3,Hi,4doorsmorewhors03,,What happened to put it in rice,23-10-2021,173
4,Yo mama feet,lilkevin36,,Guys dont do download the app just go to youtubeand search sound to remove water from speakers,27-10-2021,234
5,Jaylen,jaylenhallo,,I first checked if it was a ad.,29-10-2021,108
6,follow4follow,mersin320,,Just put it in rice for some hours,24-10-2021,31
7,Jesus Christ loves you,jesuschristlovesyou,,put in rice,30-10-2021,16
8,idris,grebota,,how am I gonna do that it's dead🔫,23-10-2021,30
9,Stav Hen,stav_hen,,"GUYS HE MEANT WATERPROOF PHONES, THE PHONE SOULD WORK FINE IF ITS WET BUT THE SPEAKERS ARE SOAKED WITH WATER, pin this",23-10-2021,26
10,❤️LucyMai💓,xxlucy._.maixx,,Why has this only got 1 like and thats me,23-10-2021,49
11,Road To 1K Followers!,alexlikesbob,,not gonna download it because it doesn't have 5 stars,26-10-2021,29
12,Random asmr video,littlekaty456,,U need to pay 😳💰,24-10-2021,82
13,🦋Tea🦋,tea_teacup09,,I would be mad at myself,26-10-2021,6
14,Ka,irgendeinttsuchti,,Zuerst mal chillig App installiert 😂,27-10-2021,37
15,Justin Jansen,j.u.s.t.i.n026,,just have an waterproof phone,24-10-2021,12
16,robbie from robbarazzi,safariprivatemode,,isn't that phone waterproof tho😭,28-10-2021,10
17,𝓈𝒽𝒶𝓇𝒶𝓃𝒿𝒾𝓉 𝓋𝒶𝓇𝓂𝒶,msharan_official,,try record video while put your phone in water. I swear your phone will not work. Based on my experience 😂,24-10-2021,5
18,nici9993,nici9993_pokego,,es aus dem Wasser rausholen😂😂😂,26-10-2021,11
19,مروة 🇲🇦,einfach.marwa,,Auch ich die es direkt ins Akku getan hat um zu gucken ob es noch lädt 😅,26-10-2021,20
20,,fusionzayan,,I’m not gonna pay every month just for a sound when I can find it on YouTube,27-10-2021,8
21,Snakebiszzzzz,snakebiszzzzz,,iK dEeD mIjn tEleFoOn iN hEt wAtEr hIj zAt vOl mEt wAteR mAaR iK zEtTe nIeT sToReN aAn dUs hEt wAtEr stOoRdE dE tEleFoOn nIet MeEr👍👍,28-10-2021,576
22,Panoskouu,panoskouu,,Απλά μην το ρίξεις στο νερό,23-10-2021,22
23,❄️❄️❄️❄️❄️❄️❄️❄️❄️,homie_hufsa,,turn off the phone and let it dry. So easy,27-10-2021,10
24,Jonas,jonaz.yt,,Dat werkt alleen bij IPhone die waterdicht zijn,24-10-2021,32
25,mazda_miata_1996,mazda_miata_1996,,Kost wel geld,30-10-2021,15
26,𝙷𝙰𝙼𝚉𝙰 𝙹𝙱𝙰𝚁𝙰 1,hamza.jbara1,,Hoe kan je tel openen als die verdronken is,24-10-2021,31
27,main:psshyy.juice,psshy.juice,,@simply.nadinex doe dit met je telefoon misschien doet je geluid het weer,27-10-2021,11
28,normalnynick68,normalnynick68,,sama mam tą opcję w telefonie xd,27-10-2021,8
29,Rawan,jojorawan070,,iPhone 11 kan ook toch tegen water,27-10-2021,4
30,Emily🫵🏻,emilyutama,,@lauren__070 kapot slim,29-10-2021,4
31,ik_volg_binnen_1_dag,ik_binnen_1_dag,,Het kost geld,27-10-2021,4
32,normaal🤪,miljonairtv,,No because if i download u get money,28-10-2021,4
33,sheeroons 🤘🏻,sheeroons,,E poi ti rendi conto che è a pagamento,8-11-2021,3
34,stinksokken1234,star_wars_fan12345,,ja maar jouw iphone werkt dan niet meer,29-10-2021,3
35,hello,hello_guys..ani,,POV:you have samsung,27-10-2021,3
36,uxviha,.uxviha,,If you drop your phone in the water it doesn’t tricking work want me to buy a iPhone Nokia plus ultra pro max?,27-10-2021,3
37,420,dyermo__,,no,30-10-2021,3
38,smikkelkaas,levenszuigende_teef,,GEKOLONISEERD 🇳🇱🇳🇱,29-10-2021,3
39,Max,m4ksimal,,@eivindberg06 vis til emily,27-10-2021,3
40,gebruikersnaam0987,isjeboy26,,Why is you need money for that,28-10-2021,2
41,⚽️kobe⚽️,superkobe3009,,You have to pay in Thatcher game,28-10-2021,2
42,:),not...lina,,How you can do that if you drop it and it not work,27-10-2021,2
43,LegobeastXx,legobeastxx,,Covering it eith tape be like,27-10-2021,2
44,ratio,cool.fam_.ratio,,or just play dixie sound,27-10-2021,2
45,👀,jojo_01180,,@ka_ayanninuola20 probeer dit,29-10-2021,2
46,Lotte,x_l0tte.x_,,@sophie.0578 jij had toch water in je telefoon ofzo 😂😂,28-10-2021,1
47,Katie Forester,kateforsterr,,Or go to YouTube and search for loud sound 10 hours,13-4-2022,1
48,Yildez <3,jill_hilgers,,@xjudith.official ik ga dit doen Mischien is me geluid minder broken,31-10-2021,1
49,Reese@yolo,reese_duimpjeomhoog,,um just a little thing here. if my phone is in water it wil die so how am i supposed to go to the app,31-10-2021,1
50,Hendrik,stalin_ussr_officialf,,Wanna know the truth if you throw it in water and if yo phone not water proof shut it down immediately don’t use it for 2 days and start it up again,30-10-2021,1
51,venting here <3,xviixyz,,hoe kan je die app installeren als je telefoon het niet doet?💋,30-10-2021,1
52,Briar 🖤,spaceentrapta,,Guys please refrain from using rice when your phone gets wet. The rice thing is a myth. rice gets in charging port and rots there = more damage,29-10-2021,1
53,.,za.7777,,not me who is cleaning the phone and then put it in the rice,28-10-2021,1
54,Amin💯,din.farsa.00,,How can i download the app the phone is already Broken😂,27-10-2021,1
55,araz Yasmin,user8913610984299,,Just put your phone in water and said that you knew,27-10-2021,1
56,Was kyy9,g9av,,PUT IT IN RICE 😂 💀,30-10-2021,2
57,Valentina,valentinaa_tmm,,@ninxn.08 @lina.lizzy_xx of je pakt een doekje,29-10-2021,2
58,NΞVΛR,nevar.rl,,intégré dans mon téléphone l'option 🤪🤪,1-1-2022,1
59,David,tribe_davidpro,,Just nothing mine is waterproof,27-11-2021,1
60,derqkloml,derqkloml,,En niet laten zien dat het geld kost,31-10-2021,1
61,jorra_8,jorra_8,,is the iphone xr waterproof?,29-10-2021,1
62,JimGhost_RiderX,jimghost_riderx,,Ait let me just download with a dead phone,28-10-2021,1
63,Lotjeprive,lotjeprivee,,@India sardjoe volgende keer maar die filmpjes werken ook hahahah,27-10-2021,1
64,⭐ jess ⭐,..alohaxjess,,You could of said you pay for it-,27-10-2021,1
65,Alfie,pyfts,,U can just play your own music,27-10-2021,1
66,😳,hot.dude.pfp,,yea it's only for iPhone,27-10-2021,1
67,HyDrOgEn,hydrogen216,,my phone is 100% water proof😂,27-10-2021,1
68,Anonymous9249334,anonymous__100,,just search 155hz on youtube😂,27-10-2021,1
69,....,ryanvm2006,,Nope just Play a YouTube vid,27-10-2021,1
70,Спортсмен,sport_power123,,really helped thanks🥰,20-2-2022,1
71,Bilal._3815,bilal_.3815,,@saleh033. jij moet dit gebruiken,27-10-2021,1
72,《DKMFUT》,.dkmfut,,just put hardcore on,23-10-2021,1
73,Stefan,_.st3fqn._,,"No, the first thing I do is get him out of the water.",30-10-2021,2
74,NyTroX,zerox_exe_14,,Bro first stap DONT DROP IT,29-10-2021,2
75,💜,_sup98,,@joy_joy316 sa t shkarkohet ajo ka ik per lesh teli im,27-10-2021,2
76,Joe,kcoc.reggin,,Rice,28-10-2021,1
77,⚽️kobe⚽️,superkobe3009,,That,28-10-2021,1
78,.,u_gon_make_me_act_up,,no,27-10-2021,1
79,Tomixoo,tomlov66,,Funciona ?,20-1-2022,1
80,jannedonkers,jannedonkers_,,@.evibrens misschien iets voor jou😌😅,28-10-2021,1
81,Roos Lenselink,rooslenselink,,@puckverduin meteen gedownload,5-11-2021,2
82,djsiz6,djsiz6,,pls let me save the video pls🤌🏽,9-1-2022,1
83,H hvtvyyh,wieweet_x,,@wbkk.20 @hierendaarx ik krijg da nu pas op fyp,14-11-2021,1
84,jamie zitman🦋,jamiezitman_,,@mirthe010._ @ranaoztrk_ zeg ik zweer dit bestaat,1-11-2021,1
85,🧍🏾‍♂️,j33zrugi,,I go to youtube to find this sound😂,30-10-2021,1
86,Her mannn😫😍❤️,vape_is_nie_stoer_bro,,@lillyandersons2008 ik ga deze tel halen,30-10-2021,1
87,Wesley Bhajan,wesley_1995,,Or get an waterproof phone,29-10-2021,1
88,Mr. Sigma,sigmavariant,,That is a bit to late for me 😅,29-10-2021,1
89,Hallo👋,sam_juurlink,,what i do d'r uit hale,28-10-2021,1
90,Amsterdamlı✌,diametto,,App asks a lot of money😳,28-10-2021,1
91,Nathan alberto,het_is_je_boy_nathan,,No but it in rice,28-10-2021,1
92,♡Roblox♡,xroblox.met.onsx,,or just dont put it in water,27-10-2021,1
93,Bridget,x_.bridget._x,,@jm_036_ of je telefoon nu denkt ik word niet nat,7-11-2021,1
94,◇ frank ◇,01010108wksje,,no sirve para nada,26-4-2022,1
95,🤍,rachellejans,,You need to pay!,8-1-2022,1
96,🐅who are you,_ishaktheking_,,THANKS,19-11-2021,1
97,Boskurt🏇🐺🤘🇹🇷,wijk.park.kalashnikov,,It cost 3€,1-11-2021,1
98,bla bla bla,lightiiing,,@larissa_05300 anaid zaaj ogdooo hahah😂😥❤,1-11-2021,1
99,Marili van Weede,marilivanweede,,@maejmx try this lol,30-10-2021,1
100,Zoë❤,naam.raten.123,,Ben jij Nederlands???,30-10-2021,1
101,Elise Wilkens,elisewilkens,,@iris.z_ pUt iT In RIijsT,30-10-2021,1
102,.,user.balkangirlx,,@jessicahovsepjan1 handig,30-10-2021,1
103,Doritty💓,d.dmns_,,@veronica.xdh._ handig voor jou!,29-10-2021,1
104,Fleur❤️,fleurdebruin._,,@sophie.vermeulen_ HAHAH srry meiddd,29-10-2021,1
105,AA.lilgibby,aa.lilgibby,,@m.bensu voor wanneer je het weer in dr wc laat vallen,7-11-2021,1
106,Merel.letterie,gwn.merel_,,@gymnastnomie miss handig voor de volgende keer😉😂,13-11-2021,1
107,munira,munimuni,,@shanyan.k omg voor je ijs,7-11-2021,2
108,ikhouvanknuffels,berenwijf,,@louisa.a probeer da keer ma zo vr u microfoon,11-11-2021,1
109,ᒍOᑎᗩ𝔥𝔬𝔰𝔱𝔢𝔫✞︎,www.jona.hosten.be,,@bo_xdb jij Kan da wel gebruiken 😂,4-11-2021,1
110,Nynette Veneman,nynetteveneman,,@heleen.koeslag3 @plympt0n_ @ijmhayiagt DIT LIED😭😭,7-11-2021,3
111,Benthe🦋,benthe678,,"If I dropped my phone in water, it wouldn't even survive to download a app",12-11-2021,1
112,ROYAAA,princes_roy,,It worked😬,vor 2 T.,0
113,no,.leahisnothere,,or just watch a tiktok video that has that audio,vor 6 T.,0
114,Kumalala,dendanskekumalala,,Great song choice,6-6-2022,0
115,👁️👄👁️,._.einfach.einer._6,,Clear wave,29-5-2022,0
116,bri🦋💙,yesitsme_brikie,,But what if your phone is not turning on or does not work ?,29-5-2022,0
117,Luffytaro,arararagomen01,,The sound isnt comming,18-5-2022,0
118,🌺Preppy🌊,xoxo_preplifestyle_xoxo,,Go on YouTube and say get water out of phones,3-5-2022,0
119,🥷🐼,zi00000x,,Or put on doja cat and it will do the same thing,23-4-2022,0
120,nancy,joelitotito,,Como funciona el telfono,21-4-2022,0
121,♡,_preppyloverbrooklynn_,,I can't hear anything help,20-4-2022,0
122,dace,whos_d7,,or js play the sound on yt,20-4-2022,0
123,The Secret🤫side,www.theyluvnana.com,,You can also use water ejection,19-4-2022,0
124,🫦,anotherdayanothergay,,“Dropped”,16-4-2022,0
125,user1358023765029,urfavvv.ciannaa,,I just use the app sonic,10-4-2022,0
126,I make bracelets :),ceilimae17,,My phone is frozen though because I dropped it in water so I can’t download that 😅,9-4-2022,0
127,🌹Yatziri Panchi🌹,xoxo.yatziriii,,clear wave,14-3-2022,0
128,Franz Eduard ☆,frxnzeduard,,waterproof the best,10-3-2022,0
129,Sora,soraaaa_k,,@b1t2h_ THIS,27-2-2022,0
130,⬛⠀ ⠀ ⠀ ⠀ ⠀ ⠀ ࿖⠀ ⠀ ⠀ ⠀ ⠀ ⠀ 🟧,isuckonballtwins,,bro what if its off💀,25-2-2022,0
131,🤍,_nixole19_,,It costs money anyway 💀,25-2-2022,0
132,Françoise-Muh,user2460499907888,,Waouh,25-2-2022,0
133,felix,urdeaadtome__,,@brie.ej you need,24-2-2022,0
134,nefrirftklrztdga,nefrirftklrztdga,,clear wave,20-2-2022,0
135,Dasha,daryadebenova,,clear wave,20-2-2022,0
136,guuskemme,guuskemme,,jouw telefoon is waterdicht😂,15-2-2022,0
137,L💕,.luna.bx,,@s.amboons deze,8-2-2022,0
138,jcclapz,jcclapz,,You need to pay,7-2-2022,0
139,I.S.T.D.T.F.E,i.s.t.d.t.f.e,,Thank you 🙏,7-2-2022,0
140,Santa Rosa,fatnotfound,,clear wave,30-1-2022,0
141,Укулеле<3,akoevaya,,Где русские?,27-1-2022,0
142,Go sym,whosshairah,,It costs money:/,23-1-2022,0
143,Berks Fire Water Restorations,bfwrestorations,,"Ah yes, downloading some dry- works every time",18-1-2022,0
144,Geo_otti!,geo_otti,,when i drop my phone in the water i cant even turn it on to download clear wave💀,9-1-2022,0
145,mohammad,olddays02,,its cap dont,9-1-2022,0
146,James :/,aad.james,,and if my phone is not waterproof?,9-1-2022,0
147,Karim,.ii_karim_ii,,Pure smart,9-1-2022,0
148,reembayyoud,reembayyoud,,nah I just downloaded it inside the water,9-1-2022,0
149,Fifa,fifa4560,,Sonic is also a great app for this,9-1-2022,0
150,🔴⚪️⚫️,abcdefyou.911,,What if you drop the phone in the water and the phone turns off now you’re stuck😏😏😅😅😂😂,8-1-2022,0
151,You,hoopzboy,,Or use the sound in tiktok,8-1-2022,0
152,Cah rantau02,cahrantau092,,Itu iphone series berapa kena air boleh kah,8-1-2022,0
153,#𝓲𝓵𝔂 𝓺𝓾𝓮𝓮𝓷!✨🌴,ilytropical_melioos,,Buy a new one😏,8-1-2022,0
154,I 💖 Mijn parkietjes,lil_horse_soup_,,does is work too for ear buds?,7-1-2022,0
155,_wykit,_wykit,,May i know what screen protector use?,5-1-2022,0
156,Kalaiyasshwin,kalaiyasshwin_official,,just use fix my speaker on Google for free,4-1-2022,0
157,Sarah_and_Clara🖤🤍,sarah_and_clara,,Le pire c’est que l’app coût de l’argent 🤌🏻,4-1-2022,0
158,⠀ ⠀ ⠀ ⠀ ⠀ ⠀,gokufoldsurdad,,"just search on youtube ""water ejection sound""",3-1-2022,0
159,.,fienee.vdk,,I’ve already got sonic 🥳,3-1-2022,0
160,Jothishwar Jothishwar,__jothishwar02__,,just type on Google fix my speaker no need to download app😌,3-1-2022,0
161,indiegram,mohdwayu,,just use you tube simple,3-1-2022,0
162,Yaethes,yaethes,,can this do on android 😅😳,3-1-2022,0
163,Yankrato69,yankrato69,,Dis app working on ipone SE?,2-1-2022,0
164,Aatosッ,aatoz1,,Just put ypur phone in rice,2-1-2022,0
165,Keven Martinez,scallywag609,,But I dropped my phone in water… so it won’t work anymore,1-1-2022,0
166,NotEdinCraft,notedincraft,,This video is so last year.,1-1-2022,0
167,Lil_sage,lil__sage,,@rice4o u r going to be useful,1-1-2022,0
168,Hristos,yt_sivko21,,No just turn it off and leave it in a dry room for 48-72 hours(if you want you can put the phone in rice),1-1-2022,0
169,Elelelelele,gigaxddd,,Włóż do ryżu,1-1-2022,0
170,nexpinho2,nexpinho2,,ik weet dat je NL bent,31-12-2021,0
171,😈 CEO of underglow 😈,2020_honda_civic_fk9,,"Yeah im not paying 8,99€ a month good sir",30-12-2021,0
172,Ågren,elmer__agren,,It cost money,29-12-2021,0
173,Lulu,hello_my_sussy_bakas,,Am i the only danish here? LIKE THE SOUND,27-12-2021,0
174,Simp <3,trash.panda.official,,I dropped my tablet in water and now I can't even work the screen correctly or urb it off when it turned off itself I can't turn it back on what do i,25-12-2021,0
175,pilotteva,pilotteva,,Sonic is an alternate app. You guys can try it too✌️,23-12-2021,0
176,❤️‍🔥,v3rafd,,@eva weet dat je dit ooit nodig hebt,22-12-2021,0
177,Na,yeat_m,,cry,18-12-2021,0
178,eccedentesiast°,oftamalin,,@wanpikaa._ wehhh,17-12-2021,0
179,Harveyyy,.._storm_,,tysm it wo=ked,12-12-2021,0
180,samrademakers,sam_rademakers,,@lisadalhuizen voor als die nog een x in het bad valt,12-12-2021,0
181,besties,xxx_prxppy_besties_xxx,,MAX VERSTAPPEN HEEFT GEWONNEN,12-12-2021,0
182,Milan✈️,avgeekedits,,Just turn plane mode on then the water can't touch the phone,12-12-2021,0
183,🧿mæri🧿,steveharringtonis_.hot1,,I didn't have to your video was loud enough to take it out 😂,12-12-2021,0
184,🦋ᴜᴍᴍ ᴀɴʏᴡᴀʏs ᴄʜɪʟʟ💚,4liferss.o,,It work for me tysm,9-12-2021,0
185,i need more butterfly ☻,pyerit15,,Stay only need Miroh from Stray Kids 😌,6-12-2021,0
186,jaeman syg,nmricano,,just open song noisy from stray kids 😂,4-12-2021,0
187,Dgrrrr,.dylanreynolds8,,DONT DOWNLOAD IT YOU HAVE TO PAY,1-12-2021,0
188,Leiladavis,0o0ooits_me,,My screen has a briighter spot whst can I do to fix that,1-12-2021,0
189,GodOutragdragster0rager,godoutragdragster0,,Don’t get a app go on YouTube and type remove waters from speaker Mobil,29-11-2021,0
190,JaydenUwU,jaydenuwu1,,keyword 'drop',28-11-2021,0
191,Rosalie🤟🏽,a.lleenmaaronzin,,@im tall and all of u are not for u,28-11-2021,0
192,hi,cute4always,,or have a waterproof phone,27-11-2021,0
193,That_one_,user9710418614766,,just put it in rice bro,27-11-2021,0
194,youdeservedbetter0,youdeservedbetter0,,Or put it in rice,27-11-2021,0
195,.,.maersmelio,,My bestie just calls me and says that I have to scream 😁,26-11-2021,0
196,Samar Kamel,robux._.forall,,Nty we need nokia rise,26-11-2021,0
197,evie💘 | 12.0K❤️,urfavobrowniena,,I just search that up on tiktok and wola done,25-11-2021,0
198,Finn Huismans,fhuismans09,,@thekingpvp_yt ainooooo niet dit lied,25-11-2021,0
199,Hideous,mr..auggie,,No no no no put it in rice,25-11-2021,0
200,No,marvelsc00lio,,NAH NAH NAH THIS THIS IS THE RIGHT WAY……..Downloaded clearwave FIRST then do all that,25-11-2021,0
201,_its.yousef,_its.yousef,,You have to pay for the app,25-11-2021,0
202,Ognjen,ognjen_38,,if its an iphone siri can do that i just frogot what u exactly tell her,25-11-2021,0
203,veerrr🕺🕺🕺,veerleposthumus,,@floordekkrpeer slimmmm,25-11-2021,0
204,Z10N,zk.940,,Put it in rice,25-11-2021,0
205,brawlstars,fijsdnjwsnxbd,,werkt het ook met yoghurt dat gebeurd vaker bij mij dan water😂,25-11-2021,0
206,DutchSnipeKing👑,dutchsnipeking,,Als je telefoon in die water walt is dat ding kapoet,24-11-2021,0
207,mr beast edits,mrbeast.edits_,,@alicia.lolx @alicialolx @stinkmoep handig,24-11-2021,0
208,ItsTieme,itstiemeontiktok,,Ik zie.. nederlandse tekst,24-11-2021,0
209,Hans,idk_acc_27,,Of laat je telefoon niet in het water vallen,24-11-2021,0
210,Ahkando (Eurofurence 26),ahkando,,Nope. turn off the phone,24-11-2021,0
211,stephen follows💕😭 hii <3,iluvzoezzx,,Tuy,24-11-2021,0
212,haram man,lospollosgamingofficial,,i open my phone REMOVE MY BATTERY and then clean off,24-11-2021,0
213,Judy,user24356733336,,Don't put your phone in rice I did but rice got in the headphone hole and the charger as well,22-11-2021,0
214,Semvanloon,sempranks,,i sMeLl DutcH,15-11-2021,0
215,Wessel Goossens,wesselgoossens_,,Hoe als die is verdronken,14-11-2021,0
216,tazdamian,tazdamian,,🌠rice🌠,14-11-2021,0
217,ohnowereoutofmilk,yummycowjuice,,or just get a andtoid,14-11-2021,0
218,Tg,tomgbbls,,Does this also work for airpods?,14-11-2021,0
219,👁👄👁,slime.asmrv1ds,,It less wiping it 😌,14-11-2021,0
220,Florian.078,florian.0781,,But the iPhone 11 is waterproof right?,14-11-2021,0
221,idk,nikitaofz,,@lattecookiemarryme DE SOUND,14-11-2021,0
222,M3dl3y,m3dl3yk4ne,,Pov:just do it in rice😂,14-11-2021,0
223,𝐿𝐾,latoyadenhaaggx,,@. Jammer dat je dat niet met je airpods kan doen hè? 😂😂,14-11-2021,0
224,Taar ❤️😩,x_t44r_x,,@Kayla🖤🌙 uehm wij dede m gw in de droger dinges,13-11-2021,0
225,😵‍💫,kyratjuhh.x,,@senna waarom krijg ik dit nu pas,13-11-2021,0
226,Shania,ur.emo.spaghetti.noodle,,put it in rice,13-11-2021,0
227,Turkish Slim Jim,turkish_country_ball1,,My phone would be dead already,13-11-2021,0
228,ألينا,ch1ckenb1ryani,,Or you can go on youtube and Search “How to get water out off your phone” and click the First video,13-11-2021,0
229,Jonaschuiling❤️‍🔥,jonaschuiling_,,Je hebt gwn een tiktok sound,13-11-2021,0
230,divanesh5,divanesh5,,is this real,13-11-2021,0
231,FORTNITE,orion_boy070,,didn’t work 😳 😳,13-11-2021,0
232,💋,ikheetfenna,,@ruben_vanherf gebruik dit,13-11-2021,0
233,hehehehe,mister.underpants8,,"1 put the phone out
2 wait more than 45 hours
3 you're phone will probably be safe now",13-11-2021,0
234,Geertje,geertjeuuuh,,@ymke14 had jij even moeten doen😂,13-11-2021,0
235,Remcovdb,remco110,,It’s not free guys,13-11-2021,0
236,omar power,173langejordaan,,does it work on Samsung a32,12-11-2021,0
237,Noah,noah_ring,,You know that this is in your settings? You really don’t have to download an app,11-11-2021,0
238,emmelie.v.donkelaar,emmelie.v.donkelaar,,@lynnvdkampppp iets voor jou misschien voor het geval dat?,8-11-2021,0
239,𝑑𝑠,ber_7.4,,Als je tel nie meer werkt kan je het ook niet meer downloaden,8-11-2021,0
240,❤️,yehtoch_.xx,,@rx0182 ik ga nu doen,7-11-2021,0
241,loucajoosten,louca_joosten,,@auke_d da had ge toen kunnen doen toen u gsm,7-11-2021,0
242,✨🧀kaas🧀✨,gerda.isgeenannefleur,,Wanneer het liedje Nederlands is (🤨🤨🤨🤨🤨),7-11-2021,0
243,Flossy,flossy_and_friends,,"I just used the tiktok sound, nothing came out but nothing happened either",7-11-2021,0
244,Alisia 🙋🏻‍♀️,alisia.06x,,@yasmin_0164x or just use miroh bij straykids,7-11-2021,0
245,laura!!,laura.rosendahl,,@Eline perfect,7-11-2021,0
246,ae,_moondroppy_,,Watch tiktok,7-11-2021,0
247,🦋WIKTORIA ♐️ ZALBERT🦋,wolfshadow_98,,Not for free😏,7-11-2021,0
248,💕💕💕,v.brekelmans,,@💿💿💿💿💿 had jij wel nodig😭😭,7-11-2021,0
249,❦☃︎✌︎︎♏︎ᴥ︎❤︎,ilse_love0,,I think I would get my phone out of the water 💧 first 😂,5-11-2021,0
250,zara🕊,milopinkkkk,,Emm just use shortcuts 😏,5-11-2021,0
251,daviDDbarbaric,followujemnatragzaminutu,,can that work on android,4-11-2021,0
252,kingjenrayolarve,kingjenrayolarve,,how my phone survive and how too download wen i drop my phone in water,3-11-2021,0
253,julia sjoukes,julia.sjoukes_,,@jasmijn.oorschot iets voor jou,1-11-2021,0
254,Deman,deman_62,,En je moet ervoor betalen bruh,1-11-2021,0
255,anaalgeneraal,anaalgeneraaal,,nah just search up 50hz on yt,1-11-2021,0
256,CalisthenTeen,calisthenteen,,ahh yes my phone is in water let me download the app real quick👍,1-11-2021,0
257,appleuser39642391,elenadvlt,,Ik heb gwn die tiktok sound,1-11-2021,0
258,Florian😴,florianroest,,Congratulations! This video was on replay while I was wiping!,1-11-2021,0
259,Hi people,roblox_plays_2210,,Maar wat nou als ik mijn telefoon al in het water heb laten vallen dan kan ik geen app downloaden,1-11-2021,0
260,user6900634757080,oliebam,,Wait u dutch,31-10-2021,0
261,“,fleursala2,,@sophie_ddb ik ga deze ooit downloaden,31-10-2021,0
262,Tieme,tieme_siemons,,iPhone is water dicht de mijne op Ze minst,31-10-2021,0
263,mette❣️,m.ettexx,,k zou eerst je simkaart eruit halen zodat als je telefoon het niet overleeft je nog wel je foto's enzo hebt,31-10-2021,0
264,hallo allemaal,somebody.random.ontiktok,,tried that with my old phone and i couldn't find the app😐,31-10-2021,0
265,StijnBrand,stijnbrand6002,,@tristannl14 @jelmerdebaat zal dit werken?,31-10-2021,0
266,Mariëlle van Eijk,mariellevaneijk,,@deees.x nou ik zeg doe maar,31-10-2021,0
267,⚡️Hello I’m Lun⚡️,lilun2404,,Am i the only one who go on tiktok and search sound for water in phone😳,31-10-2021,0
268,jamesfernandeztiktok,jamesfernandeztiktok,,guys i have advice for you just dont wash your phone 😶,31-10-2021,0
269,TueGWaG,tuegwag,,put it in dry rice,30-10-2021,0
270,Jansje,jansjex_,,@spambyflorien voor jou😘,30-10-2021,0
271,silvanstojanovski,silvanotje,,Ik: pak een doek en maak het droog,30-10-2021,0
272,Lenna Moonen,lennamoonen,,@jiaxuanhe2007 handig!,30-10-2021,0
273,Lies,lisa.sirovina,,@ninte.arens handig,29-10-2021,0
274,ozgenur0552,ozgenur0552,,@eva_roos10 al elfide voor je sprekers ;),29-10-2021,0
275,hananally2,hananally2,,@donna_dn sla k op vr volgende keer,29-10-2021,0
276,💗💗,desiree.h26,,@privee.milla dit had je moeten roen toen je je telefoon in de wc liet vallen😂,29-10-2021,0
277,🫀,r0xqzx,,✨rice✨,29-10-2021,0
278,Preppy life style📿💖🏝,jackson._writee,,Umm,28-10-2021,0
279,Jettt 💕💕,jetlammertinkx,,@spamxpiennn download deze,28-10-2021,0
280,🇲🇪🇧🇦,lejla_wzp,,@adelisa.0575 handig om te weten,28-10-2021,0
281,melissa_l,m.elissa_l,,@marindetak_ miss doet die het dan helemaal weer,28-10-2021,0
282,Ashanti,ashantidr,,@luukderuiter3 heb jij nodig,28-10-2021,0
283,_senna.danique_,_senna.danique_2,,@xo.esmee.xo4 @noa.xxn @amynoelle_r.xo ja,28-10-2021,0
284,-_-,ineedduck,,mijn telie spaced m als er druppel water op komt,28-10-2021,0
285,Fiennnn,fien_wijsman,,@elise.hessing miss Handig voor jou,28-10-2021,0
286,noor,noorxkersten,,@lolaxpriveee had jij moeten doen,28-10-2021,0
287,Elijah,elijah.074,,@milianbouwens_ bro probeer eens hahahaha,27-10-2021,0
288,tysm for 2k 💕💕💕💕,st3p_b4ck,,or just don't drop it🙂,27-10-2021,0
289,Indy,indy_s013,,✨rice✨,27-10-2021,0
290,Emilio,emilio_skriver,,Nogle danskere her der husker den sang🇩🇰🇩🇰🇩🇰🇩🇰🇩🇰,27-10-2021,0
291,Yoni ×͜×,yoni.tpwk,,@krisztina_a8 hier voor als gij die nog is in de wc laat vallen. 2 keer in minder dan een uur 👍😉,27-10-2021,0
292,rand0m_vidz98,rand0m_vidz98,,when the phones wet and already broken 😳😬,27-10-2021,0
293,❤️‍🔥❤️‍🔥,ninawildenbeest,,@julietvdgroepp voor jou dan gaat al t wc water er uit,27-10-2021,0
294,💅Thanos💅,daddithanos,,"ik die het had gedownload, en mijn telefoon geluid op het hardst had staan, iedereen in huis keek me aan😀👍",7-11-2021,0
295,a_nelab,a_nelab,,of doe het niet in het water,7-11-2021,0
296,Joep,joep5960,,"Als je telefoon in het water terecht komt kun je ‘m het beste niet meer aanraken , leg ‘m ongeveer 48 uur in rijst om het vocht eruit te halen 👋",4-11-2021,0
297,Sean,oliedepanda,,Nee helemaal uit het komt zo alleen maar dieper er in,2-11-2021,0
298,CÉLINE FOLLOWS!!💕💕,sxftxcemi,,"@celinedept Phahah, Voor als jullie nog een challenge gaan doen onder water met jullie Phone!😂🥰❤❤@michielcallebaut",13-11-2021,0
299,Wildcat,its_the_magic_wildcat,,rijst 🍚,13-11-2021,0
300,Tran,haidangistheimposter,,Does it work in iPad?,13-11-2021,0
301,Edvaldo,maurits_edvaldo,,omg bull,7-11-2021,0
302,+-+,josh4829,,The phone would die before I get the app 😂😂,4-11-2021,0
303,☁︎︎𝗹𝗶𝘀𝗲𝘁𝘁𝗲☁︎︎,lisettez10,,Bestie don’t download it it’s make your ears dead,3-1-2022,0
304,idc_joestar,jefavo_turkberato_o,,join the cult,24-11-2021,0
305,Mecano,john_hilana,,🥰🥰🥰 READ THE BHAGAVAD GITA 🥰🥰🥰 READ THE BHAGAVAD GITA 🥰🥰🥰 READ THE BHAGAVAD GITA 🥰🥰🥰🥰🥰🥰🥰🥰🥰🥰🥰🥰🥰🥰🥰🥰🥰🥰🥰🥰🥰🥰🥰🥰🥰🥰,4-11-2021,0
306,Jay,_fwnacht,,My friend tols me to suck it out,30-10-2021,1
307,I love sus,ilovesussyy,,JUST USE SHORTCUT FOR FREE,4-12-2021,2
308,Anniek <3,anniek..bouwman,,@Spam acc van ilonyyyy😘😂🤪 voor je wc telefoon💀,1-11-2021,1
309,Apple User992443805,bitchassgoofy0,,I would use some rice 😁,31-12-2021,0
310,Tgy,durokime275,,ETF,6-12-2021,0
311,Ik kan overal wit in zien,ik.kan.wit.zien.in.je.pf,,Wie helpt mij?,26-11-2021,0
312,Cyber Critter,zx_philly_zx,,just grab something to clean it,22-11-2021,0
313,jamie👺,mydayest1,,mines installing now😏,22-11-2021,0
314,yeldem,yeldembozna,,@tanemb komen ze 3maanden later mee,14-11-2021,0
315,Tertidur1,tertidur1,,Install the app and click “limited version” you’re welcome.,8-11-2021,0
316,Jimvanbalen10,jimmyvb10,,Kijk in de beschrijving van de app🤦,7-11-2021,0
317,n.vnwest._,n.vnwest._,,Die tel is waterdicht wtf 😂😂,1-11-2021,0
318,Suus236,suus236,,Zoek gewoon filmpje op youtube op 😂,31-10-2021,0
319,Matthijs,matthijstieland_,,Ga gewoon naar YouTube,31-10-2021,0
320,sara.vdbergx,sara.vdbergx,,@lisannedv_x zullen we dit eens proberen bij me oude telefoon,30-10-2021,0
321,Brain.edits,brainedit,,Nee nee nee niet doen ik zweer het je niet doen ne echt niet doen ne ik zei nee ik waarschuw Jr nog 1 keer nee gatver nee,29-10-2021,0
322,demi,demivlt,,@pisvlekje of gw ander geluid want ja app lol,27-10-2021,0
323,DRAWINGGGG,prettyface...niya,,rice😁😁,22-4-2022,0
324,Unknown,unknown66666666666666660,,i smell kaas,13-11-2021,0
325,dn dave88,dn_dave86,,doe dat niet zet je telefoon direct uit. zo voorkom je de meeste schade aan je moederbord.,30-10-2021,1
326,_Lloydfire,lloyd_1_,,@bl.sep is handig man,29-10-2021,2
327,Dennis Soepa,dennissoepa,,Ik ruik een nederlander,30-10-2021,1
328,Luc,luc.04133,,SO FAKE,28-10-2021,1
329,DLD150_TR,dld150_tr,,ah yes I think I have brain damage,6-1-2022,0
330,I am the Devil,lucifermorningstar9_,,look on Beluga,1-1-2022,0
331,Aston,asap..problem,,Your a life saver know my parents won’t yell at me,27-12-2021,0
332,Man_behind_the_slaughter,not_all_russian_are_bad,,What if it does not turn on.?,4-12-2021,0
333,kevin dezwarte,kevindezwarte,,da n br. ti d i,11-11-2021,0
334,David,fonno_030,,fix your sink,7-11-2021,0
335,Nee,paggaslaanisfijn,,Damn your charerport still wet though,1-11-2021,0
336,Thomas Bosma,heankiee,,Ik ruik Nederlanda,31-10-2021,0
337,eendje,jeninna_2009,,floep flap floebediebedap,30-10-2021,0
338,Kylie 🍕,sweetkenzs,,Whwn your iphone 11 is water resistsnt,3-5-2022,0
339,$adamKey,sadamali7751,,Is not free,31-10-2021,0
340,Hola,fandelosvesibos2.2,,Celar wave,22-3-2022,0
341,Jack De Vogel,jackdevogel,,Cap,29-10-2021,1
342,jevader,jevaderdehoof,,cap,1-11-2021,0
343,❤️,._kutzooi,,HAD DAT EERST GEZEGT MIJN TEL IS EEN MAAND GELEDEN OP SCHOOL IN DE WC GEVALLEN GVD EN HIJ WAS KAPOT,31-10-2021,1
344,VODKAPR1,vodkapr1,,I’m I some idiot paying 2.99 dollars a month,27-10-2021,1
345,Yousra,y.ousraaa,,@sophielimehous3 shit good,30-10-2021,2
346,Ze,spaceexplore7,,This is fake je moet betalen,27-10-2021,1
347,kumalala,imunderyourtoenail,,Not me who sucks it out,25-11-2021,0
348,Len,len_2656,,nah this shit ain't working I just played the loudest song that I had (tripalovsky),15-11-2021,0
349,⚪️⚫️Vik🦅,viking.wn,,The app says is doesn’t remove water form speakers 🤦🏻‍♂️😅😂😂Wtf,10-11-2021,0
350,ᎻᎬᏨᏦᎬᏒᏝᎬᏒ™,aubree_editz,,I just dropped my phone in the shower 5 times and it still sounds perfect,2-12-2021,1
351,Krypto Owl,kryptoowl,,First thing you do is hold the power button and force a shutdown then let it dry for a week!,1-11-2021,1
352,rtxpiotrpro,rtxpiotrpro,,a wiedziałeś o tym że niektóre telefony nie są wodoodporne jak mój. no i co wtedy?,1-1-2022,0
353,knightcookie.com,knight.cookie.official,,well if I drop my phone in water it will fuck up because on the corners 👏the👏insides👏are👏showing👏,19-11-2021,0
354,truthbenzer,truthbenzer,,Uh guys…I had my phone in the shower with me and..it’s like changing colors-,9-11-2021,0
355,Factorioletsplay,givethememes,,i microwave it in onions with extra petrol,11-11-2021,0
356,Mar ⚢,mar_mareo,,Malaysia: simpan dalam tong beras. 😌,3-11-2021,0
357,GESTOPT😩.,blessing.ax,,"Don’t download the app , when you open the app it will say you have to pay. Just search on YouTube “sound for remove water out of my phone.”",29-10-2021,0
358,user2078413919257,your_basic_human6,,Oh yeah and my phone is gonnā wait for me to finish doing this before it just dies🤣,28-3-2022,0
359,Рустик,ruslan_fan_,,Clear wave,11-2-2022,0
360,Eliza🤍,eliza.x6,,@chayenne.033_,27-10-2021,2
361,Vickykooijman,vickykooijman,,@floschutteee,31-10-2021,1
362,Råchēl,rachell_1407,,@mir0h,7-11-2021,0
363,Senna,xxsennax8,,@ninaxh_,6-11-2021,0
364,ｎｉｎａ,_ninadz,,@melissa_stoffel,27-10-2021,0
365,LOHWIN RAJ,_lohwin_raj,,@jvn.bgm @whoami_021,14-1-2022,2
366,Julie Lecuyer351,combatmonkey1,,I threw my mum‘s phone in the water for this it didn’t work,18-6-2022,1
367,.,safae.adx030,,@🤍,9-2-2022,1
368,❤️,felinjax,,@xkiandra25,13-11-2021,1
369,Nosucrew,nosucrew,,@henkwww,13-11-2021,1
370,Evi van den heuvel,evivandenheuvel3,,@donna.spam_,7-11-2021,1
371,Esmanur🖤,esmaaaxxx.0,,@ughsultana,6-4-2022,1
372,Keira Lackmeyer,keiralackmeyer,,@its_me_em53529,5-2-2022,1
373,Nurul Haizad,nuurulhaizad__,,@chekziss,18-12-2021,1
374,Jasmine,jasminetenhoor,,@.wendelynxkabassa,26-11-2021,1
375,Yvie x,itz.yvie.xo,,@randomstuffbutfun9,25-11-2021,1
376,Rumeysa.yngl,rumeysa.yngl,,@benistiyomgebermekw,25-11-2021,1
377,Lilly van overmeeren,lillyvanovermeeren,,@louvandenhaesevelde,3-11-2021,1
378,Faris🏈🏸,pff_faris,,@pputeri_farahh,1-11-2021,1
379,s,neneshx,,@dramaqueennn._,1-11-2021,1
380,J E A N I N A,jeanina___,,@fastlife395 @kadija.di @edith_amh,1-11-2021,1
381,🖤,rdicybaby,,@julie.dhdt,31-10-2021,1
382,jurrenl,jurrenl,,[wicked],31-10-2021,1
383,nunamyra,nunamyra,,@belluncas,31-10-2021,1
384,💚,hibawitdaho0die,,@tizaa11,30-10-2021,1
385,✨Britt✨,britt.vanweelden,,@❥︎ ALISHAA 😆,30-10-2021,1
386,❤️..,cerennx030,,@Irem 🤍 @Beyza Oke,28-10-2021,1
387,✨stfu✨,stfu12_0,,@koendekruijff,28-10-2021,1
388,fay,faybongers,,@boterbloemke,28-10-2021,1
389,.,adanacidayi,,@ekmekarasihamsi,27-10-2021,1
390,No lama drama🦙,loempiax,,@lise.vandierendonck 😏,27-10-2021,1
391,user1531722811343,alyciadias,,@jnpereiraaa,13-11-2021,1
392,pippavs,pippavansplunter,,@robinvsaase,7-11-2021,1
393,Kimberly....KIM,kimberly....kim,,@luna....d,7-11-2021,1
394,A,a.g.043,,@H,13-11-2021,1
395,🌶🤟🎸❤️‍🔥🕺,delana_lvbx,,@haticekaya_0162,14-11-2021,1
396,Ok,yuzu.xyzb,,@inas_el.mensifi,7-11-2021,1
397,🐝,_____eiii,,@ywnaptra._,vor 4 Std.,0
398,Y3t_rue,yet_rue,,@t0xicris,12-6-2022,0
399,:),coulniryx,,@laurelinegrieux,9-3-2022,0
400,𝕒𝕣𝕚𝕒𝕕𝕟𝕖❤︎,ariadne_knk,,@__ioli,6-3-2022,0
401,🌸Babypînk🌸,baby..bold100,,@blahhh.5 @emmaaf48,23-2-2022,0
402,Is not your business🖕🏼,s.dmrc5,,@rayathomford,6-2-2022,0
403,K,ilovrchris,,@j,4-2-2022,0
404,Ally💕,allyhatcher,,@x.carla.sheppard.x,15-1-2022,0
405,Mohammed,7abibi7amood,,[weep],9-1-2022,0
406,"killer-_-styx/xr,venom 👌",venom__killer,,@apple_clinic,9-1-2022,0
407,I'msorrynot,hitikachauhan__,,@dkatuwal13,4-1-2022,0
408,🇲🇪🇧🇦,lejla_wzp,,@Onbekend,4-1-2022,0
409,Jerseyy,.jerseyprimeauu,,@jerseyprimeauuu,4-1-2022,0
410,hudieee,unagihud,,@reffyzx,3-1-2022,0
411,Ey,averyrxqr,,@gachalunarfamily,31-12-2021,0
412,Bailey,bailey.__.luv,,@roblossgamer,27-12-2021,0
413,AP TENGOK II,hafizzuddinkhairi,,@A H M A D💫,21-12-2021,0
414,Ikaa01___,ikaa01___,,@joshuji.seventeen,19-12-2021,0
415,santiya ravi,santiyaravi7,,@subashsini97,19-12-2021,0
416,JS,jsvdm_,,@sharonlateisha,12-12-2021,0
417,❥ Jaylinn,jaylinnjulia1,,@danidenuijl,6-12-2021,0
418,l_uv_,l_uv_,,@leepu_nl,4-12-2021,0
419,wawa mastura,noonawawa,,@lyaalyott,3-12-2021,0
420,ℌ𝔢𝔞𝔯𝔱𝔩𝔢𝔰𝔰,unluckybxnny,,@dogheartedperegrine,1-12-2021,0
421,🇦🇼tristany_rodriguez,tristany_rodriguez,,@Eline🖤🚪,30-11-2021,0
422,Not.jasmine,jazz.man2,,@sand.man15,30-11-2021,0
423,🫶🏼🫶🏼,sally_elali,,@serena..official0,28-11-2021,0
424,𝘼𝙙𝙚𝙡𝙖,witchy..taurus,,@summer..estabrook,25-11-2021,0
425,lily,lily.selfe,,@bella._.012,21-11-2021,0
426,~,x_catharinaa,,@010d3m3n,18-11-2021,0
427,POV: alweer herplaatst🤩,nienketjuhhx,,@lx.pleun.xl,17-11-2021,0
428,Samiayousufzai,samiayousufzai,,@Nabi Khan,17-11-2021,0
429,julianevin,julianevinn,,@fenna,14-11-2021,0
430,<3,23.25h,,@.gwen0164,13-11-2021,0
431,Eylül☺️❤️,xeylul.010,,@29.azraa @ileynaxm,13-11-2021,0
432,martijn,martijn_jacobs,,@ivar804,13-11-2021,0
433,Melody❤️✨,melodylil0,,@lisse_kamminga,13-11-2021,0
434,Mayratje,.mayraaaaaaaa,,@liesvnloonn_ @.britthkkn,13-11-2021,0
435,🤍✨,hanne.happy,,@cathodezitter,13-11-2021,0
436,KATO DC,katodecreaye,,@cathodezitter,13-11-2021,0
437,User736377382,user736377382,,@whoismx7 @cult_bro,13-11-2021,0
438,Nancy Koper,nancykoper1,,@partyshirt,12-11-2021,0
439,….,jemdrrr0_,,@kvvme4,12-11-2021,0
440,isabel💓,isabelaerdts.x,,@f.ayyx 😂,11-11-2021,0
441,🌻 Lucy 🌻,lucy.w_2009,,@ohitscora,9-11-2021,0
442,</3,zxcs7_,,@rafoo_7759,8-11-2021,0
443,🦋melissa🦋,.yupmxlis,,@larsbuiter,7-11-2021,0
444,N Yilmaz,nazaryilmaz_,,@agenttimi,7-11-2021,0
445,Macy<3,macy.kenters,,@zoe27896,7-11-2021,0
446,🐢🐢🐢,nellll_06,,@emma_cappelle7,7-11-2021,0
447,Ok,jefavoturk1108,,@user928173991,7-11-2021,0
448,Um. hi ig? 🥴,drawingxplaylist,,@chenoa.prive,5-11-2021,0
449,💕💕,apppelsientje,,@Clarice,4-11-2021,0
450,i folow back💙💚💛,strescx,,@nedimzejadini,4-11-2021,0
451,Sean,oliedepanda,,@noshitsherlock,2-11-2021,0
452,M A R I A M 💗,xmariammb,,@xchaimaab,2-11-2021,0
453,Gwen,gwen.dzsx,,@sennahageman,1-11-2021,0
454,Lorenzo,lorenzofristie11,,@tombrandwijk @jordanost25 @thorschellekens @,1-11-2021,0
455,michaldontokar,michaldontokar,,@antoniotokar,31-10-2021,0
456,Daniq🤍,daniqvgx,,@noelle073_x,31-10-2021,0
457,isabelle1sakkee,isabellesakkeex,,@faytjepateetjex,31-10-2021,0
458,𝑆𝑒𝑛𝑛𝑎 𝑑𝑒𝑘𝑘𝑒𝑟𝑠❥,sennadekkerss,,@jesse0733,31-10-2021,0
459,♡︎♡︎♡︎,manouk2008,,@suus.luttjehuizenn,31-10-2021,0
460,Angie💋,theylove.angi3,,@jesmin2008,31-10-2021,0
461,qaisara ◡̈,nrqaisara,,@꧁ 𝖓𝖎𝖓𝖆 ꧂,31-10-2021,0
462,𝐾,kayleemichellex,,@nikitavoersx,31-10-2021,0
463,Özüm Yılmaz,ozum.y,,@zoubida_05 @talkingtimewithair,31-10-2021,0
464,Emily Potter,emily..potter,,@fleur7317,31-10-2021,0
465,babyboo🖤,babyboo3348,,@aaronpragasam,30-10-2021,0
466,.,xkaithlinx,,@chana_x,30-10-2021,0
467,kiki,kikibroeder,,@Mila_1911,30-10-2021,0
468,:l,cvylnn,,@helenaakidane,30-10-2021,0
469,sterre verveda.,sterreverveda,,@sindiarosalia,30-10-2021,0
470,❥ Ellis kapteijns,ellis_kapteijns,,@fay.vanhoof.x,30-10-2021,0
471,Naomi. 🤝,naomi.verwey,,@mirtheleppen,30-10-2021,0
472,Mirthe de Vries,mirthedevries04,,@_lotte_elferink_,30-10-2021,0
473,Loïs bakker,166kortepizzabezorgerfan,,@𝐇𝐞𝐬𝐭𝐞𝐫 𝐛𝐨𝐬 ❥,30-10-2021,0
474,xlynnvhex,xlynnvhex,,@tess_vhende,30-10-2021,0
475,cailaXxx,cailaprivv_x,,@joefrizzell172,30-10-2021,0
476,💗romaissa❤,raroyasa,,@yassminawx,29-10-2021,0
477,roosleblanc♥️,roosleblanc,,@frederique_8 @liselagro 😳😂,29-10-2021,0
478,maddie,maddie8756,,@fireball98765,29-10-2021,0
479,Fleur,fleurtieman_,,@lana.duijvestijn,29-10-2021,0
480,Amira_ela,amira_ela,,@chaima_elaa,28-10-2021,0
481,Feelamers,feelamersss,,@Dais,28-10-2021,0
482,Essence,maafiax,,@reine.noire_ @ebcx._ @rayellaplayhouse,28-10-2021,0
483,!?,krisjeyeahswag,,@ilovebrysontiller52,28-10-2021,0
484,Laissss <33,liset.v_,,@spamaccvansarah,28-10-2021,0
485,Silke Schuit,silkealine,,@laura_dresselhuis_,28-10-2021,0
486,my Queen mom❤,susuhasaan,,@ilhxm_9,28-10-2021,0
487,Ayla,aylalobel,,@lou_roos,27-10-2021,0
488,Muslim and proud🧕🏼,rand0m_editzzz.urmom,,@0_oumi_0,27-10-2021,0
489,Aysk,xayk38,,@xadbis,27-10-2021,0
490,User,user99946275364,,@mai_verified_xx,27-10-2021,0
491,𝓝.,iiamn._,,@anoukak_,4-11-2021,0
492,我是迪倫,ds_anime0023,,It’s a fraud,13-11-2021,0
493,lieke 🦦,liekebraaksma,,@lalalalala.com6,12-11-2021,0
494,Fanni,salmelafanni2,,@jokelaminnea @salmelasofia2 @hhannap1 latasin tän ja kuulu ehkä maailman pelottavin ääni 😂😂😭😭😭😭,7-11-2021,0
495,bavo,bavolidou,,@lois_denheijer,5-11-2021,0
496,Jamila Amchich,jamchich,,"Pfffff zoveel water, mensen geloof deze shit niet",1-11-2021,0
497,~,lawa.033,,@..........,31-10-2021,0
498,Xwafr,.xwa.fr,,Kurz herzinfakt bekommen😁,31-10-2021,0
499,slechtwegdek,jesperr030,,kost geld,31-10-2021,0
500,She doesn’t like me bro,linkz196,,That’s cap,30-10-2021,0
501,Daniel JimenezHernandez,tmk.daniel,,@chefranie @destinyamiraax @guiomaraatw,30-10-2021,0
502,.Tech_Jms,.tech_jms,,Gfghjj,30-10-2021,0
503,S E Y L A A,_.rxedrxoses,,@ichaaayanggmri @milaqistynaa,30-10-2021,0
504,.,bakje_sesamzaad,,@make.up.mats,29-10-2021,0
505,📍026,ivarr.026,,kost geld,28-10-2021,0
506,oliver_ivp17,oliver_ivp17,,9£,27-10-2021,0
507,oliver_ivp17,oliver_ivp17,,It costs 9&,27-10-2021,0
508,b6y,bt.q,,@..dragona @almheirl @al5lfy @6j72,27-10-2021,0
509,Scarlet,scarleteasdale,,@sophia,27-10-2021,0
510,appleuser59627478,carlsbergergoat,,Du er dansker,27-10-2021,0
511,Edits by the dsi 😈,rutger_is_gangster,,Je moet er voor betalen,27-10-2021,0
512,𝓝𝓸𝓪 🇭🇷 & 🇨🇮,nooa.fn,,Iphone 7 plus,27-10-2021,0
513,loading...,beata..j,,just don't drop your phone in water,27-10-2021,0
514,Ethan,__itz.k1__,,No just be rich and get a new phone,27-10-2021,0
515,Beyza,beyzaa.ates,,@ceydaa.ates,27-10-2021,0
516,imasterthis,imasterthis,,guys if u have android it is called water idect,27-10-2021,1
517,Howyda slim,.howydaslim,,What if it dinnit turn on?,27-10-2021,0
518,💸💸,urfavvshqiqtar,,@syntheire,27-10-2021,0
519,I live by trees,leaf.marley,,@heidi..maee,27-10-2021,0
520,chaccraw,crawford1229,,Or just say to Siri play water ejecting sounds,27-10-2021,0
521,Moraitis,moraitiss,,@Thanos Vasileiou ®,27-10-2021,0
522,Nobody,dumb.account.right.here,,But iphones are waterproof you dont need an app-,27-10-2021,0
523,Nino,luta430,,Clear wave,27-10-2021,0
524,uchiha itachi,n4srul_.7,,@adampiano123,27-10-2021,0
525,Kyckling,emenwkekkgkd,,It cost,27-10-2021,0
526,...cr7...cr7,...cr7...cr7,,@khzole,27-10-2021,0
527,lilkavin12345,lilkavin12345,,I thought a iPhones was waterproof.,27-10-2021,1
528,🙄,rana.04122,,@😒😐🙄🙄,27-10-2021,0
529,3kilo banana,3kilo.banana,,@fatfat1470,27-10-2021,0
530,.,jaegfa,,@karina2you,27-10-2021,0
531,moongirl 🖤,annnnnnnnnnnnn29,,@mdnsaiful,27-10-2021,0
532,William ✝️,william1977b,,@Khaby lame,27-10-2021,0
533,Armands Ziedins,iamlitterallyjesus,,alleen legends kennen dit liedje😂,27-10-2021,0
534,(ﾉ●’◡’●)ﾉ♡︎,poopadot1609,,@erika.l0uise,27-10-2021,0
535,user8077243736392,kyle9534,,Put your phone in rice,27-10-2021,0
536,jade kirkham,jadeshub.com,,@x.o.x.ella.x.o.x,27-10-2021,0
537,Pero,peropy,,@Khabane lame react to this,27-10-2021,0
538,Bossracer 15,merbagfan3627,,When my phine even works😌,27-10-2021,1
539,amanda 🙈,.amandaw,,@adelitayuh @.mela09,27-10-2021,0
540,Blake,blake7davis,,@harry_robertson,27-10-2021,0
541,Max,max496302,,Youhave to pay for it 😂😂,27-10-2021,0
542,Yvonne⚔😘💅BB2007,boxybee2007,,Nederlander?😲,27-10-2021,0
543,Secret_ Account,chloes_secret_account38,,It cost money tho 🥺🥺,27-10-2021,0
544,PT Car Cleaning,pt.carcleaning,,@vpndl,27-10-2021,0
545,@Remi_78xx,remi_78xx,,You have a water proof case this seems so fake,27-10-2021,0
546,Roxy.gray07,roxygray14,,@paul_611 u need this,27-10-2021,0
547,achshara,achshara14,,@abishaa.x_,27-10-2021,0
548,𝑅.,r.m.rx,,@a.b.jx,27-10-2021,0
549,☺︎︎☻︎☺︎︎,mila_isamazing,,or just don't put it in water,27-10-2021,0
550,Lucie,lucie9001,,I just search get water app phone on TikTok and it comes up with the exact same sound,27-10-2021,0
551,Kalla Kreiser♥️,tiktokstarkal,,@vilmadakota,27-10-2021,0
552,Hola🫀💃,ruawwr_x,,@sup4_fly,27-10-2021,1
553,Va leanghak,va_leanghak,,How about Android ?🙏,27-10-2021,0
554,Jazz <3,x_jazzmain_xo,,@lacey_.06,27-10-2021,0
555,DAPHNE DE VRIES,daphne_devries,,@xx.lotlot.xx DIT HAD JIJ NODIG 😂,27-10-2021,0
556,🌸🌼,rubywaters11,,@Tori Molloy 😂😂,27-10-2021,0
557,Bisaram Berniskayson691,kayson426,,C,27-10-2021,0
558,🥷♠️⚔️,jasonthomasx_x,,@jayvi_janssentje mis wat voor jou,27-10-2021,1
559,m🫶🏼💗,mariaaaaa____xo,,just go to TikTok :),27-10-2021,0
560,Lay leash nay 🤍,not.leasha.layzz.nay,,Or just use tiktok,27-10-2021,0
561,Hmdjmb,veraholmberg95,,@crackheads07vibb du hade behövt den,27-10-2021,0
562,tiah👀x,tiahgreen.x,,@kacieh._spamzzz,27-10-2021,0
563,Liam Gale 🤟,liamgale4767,,@_brandonrose_,27-10-2021,0
564,𝔊𝔢𝔯𝔤𝔞𝔫𝔞🦋,ch.gergana,,wenn es doch nass ist dann geht es gar nicht an wie soll ich diese App installieren😅,27-10-2021,0
565,user7353865563260,carxzrix_7vr,,Just dropped my phone,27-10-2021,0
566,user7353865563260,carxzrix_7vr,,Thx bc when I was four I have did a phone it was iPhone I’m pretty sure the little old iPhone 6 and me the Dumbass didn’t know that was water and I,27-10-2021,0
567,Je moeder,ceofrank_,,[angry],27-10-2021,0
568,matilda 🫠,matilda.rose01,,Or just search uo noises to get water out your speakers (☞ ͡° ͜ʖ ͡°)☞,27-10-2021,0
569,Edwin vD,edwinvd7,,just buy a good Samsung,27-10-2021,0
570,tylor<3,tylorhuckx,,@jayb.nufc,27-10-2021,0
571,🖕🏻🖕🏻👍🏻,gehackyttyyttr,,@evi..vibess @evi.vibe,27-10-2021,0
572,tomvojtech,tomvojtech,,at first why would you do that like more than 90% of new phones are waterproof so its basically useful,27-10-2021,0
573,Sarah 💍,sarahmcdermott130,,@jessicameliaxo,27-10-2021,0
574,Dnd.,m1getgwop,,You have to pay,27-10-2021,0
575,Simba’s,simbavids,,Bruh it would be broke,27-10-2021,1
576,melisadixon0,melisadixon0,,You have to pay 💰 for it,27-10-2021,0
577,J A M E S,james.2577,,just download Siri shortcut😅,27-10-2021,0
578,Harriet,harriet123_3,,My dad dropped his work phone in water now he has no phone and he has to wait 2 years until work give him one,27-10-2021,0
579,Bored,xd_dudley_,,Or search 165hz on yt,27-10-2021,0
580,Hiiiiii,ollietyu,,You didn’t drop it,27-10-2021,0
581,BAD BOY Gaming,mrdevilsff3,,@khaby.lame do your work,27-10-2021,0
582,marit💗,marit.dtc,,@carjel171,27-10-2021,0
583,Vera,vera_sundqvist0,,@tuvalufs10 @weirdo_sksksks @idaarnell @elsaherlin SO HALAN MOD,27-10-2021,0
584,yourboi831,yourboi831,,@Saxynutella,27-10-2021,0
585,Edith,pedithedith,,@Filippa,27-10-2021,0
586,😮‍💨💞,adrianaa_059,,Um you have to pay for it,27-10-2021,0
587,Eric Grahn,happygrumpycat,,Or du nothing because its Water proof,27-10-2021,1
588,milly,_millylayton,,@milly_stone8,27-10-2021,0
589,I <3 🥪,kokofloofs,,Rice is more helpful kids!!,27-10-2021,0
590,Account,account10418193,,400000000000000000000000000000000000000000000000000000000000000000000000000000000000000000000000000000000000000000000000000000000000000000000000000000,27-10-2021,0
591,Edits for no one 👌,roblox._.ediitsx,,✨RICE✨,27-10-2021,0
592,cmgt 🤭,mig..og..cutie.eq,,@me_and.v_.bff_forever,27-10-2021,0
593,Isabell🥴,kajsaerbabefolkens,,@emmaerbabefolkens @emma.backup_09,27-10-2021,0
594,Spam acc 🤩,tbhudontknowme,,what happeneds if your phone cant turn on? HUH,27-10-2021,0
595,Lily,queen.ofslays,,@your_local_betch_ 😂,27-10-2021,0
596,Hailey,haileyrobichaud0,,u need this @emersyn..is..typing,27-10-2021,0
597,DK,damian2heartless,,Or just put it rice,27-10-2021,0
598,Mia,_.lowkey._mia,,Rice,27-10-2021,0
599,Wsp,itscris75,,The app cost money don’t buy it,27-10-2021,0
600,<3,raylee046,,[𝚊𝚗𝚐𝚛𝚢],27-10-2021,0
601,Ur 🇮🇶🫶,urqoda,,Rice.,27-10-2021,0
602,Hanan:),userr78972,,There’s something called YouTube your welcome.,27-10-2021,0
603,its ur girl chronic_hazel_860,chronic_hazel_672,,I have a Samsung how do I do it I checked in my place where it's not there can you tell us Android users how to do it????,27-10-2021,0
604,Piper,piper_1110,,what,27-10-2021,0
605,P R I N C E $ $,princess_.lyric10,,Tiktok?,27-10-2021,0
606,Pika,suprised_p1kachu,,put it in rice,27-10-2021,0
607,Abby,abby.mcintosh,,@hannahlqvs @kylie...leversage,27-10-2021,0
608,HowToHockey,howtohockeytutorial,,A trial really?,27-10-2021,1
609,BREE 😍😭😱😱,_breanna.filippone_,,@s1mplyj4de,27-10-2021,0
610,💛cUpCaKe💛,lilcupcake_strawberry,,You need to pay,27-10-2021,0
611,Help🥲,_lexispillow_,,Use that one sound on here,27-10-2021,0
612,Jyothi,xxxseyonxxx,,Siri can do that,27-10-2021,0
613,eisasoofi246,eisasoofi246,,You have to pay,27-10-2021,0
614,Je rend,trayprpd,,Bro iphone are waterproof 😅,27-10-2021,0
615,join the teddy cult now!!!,halloween...spoky...box,,just put it in rice for hours and you can watch tv or play in your laptop,27-10-2021,0
616,Kostas G,ti_se_noiazei__,,"""Hey siri get rid of the water""",27-10-2021,1
617,¯\_(ツ)_/¯,pmkeiminteinkawa,,the first thing you should do is not to turn on ur phone 🤦‍♂️,27-10-2021,1
618,agents_of_shild,agents_of_shild,,I don’t think it will work if you drop it in water,26-10-2021,0
619,🦋Ksylianna_Rz🦋25.4k,ksylianna_rz,,Or you just go to YouTube and search: water out of phone 😌ur welcome and you don’t have to instal anything 😂,26-10-2021,0
620,J🫶🏼,jasmin.privatt2,,@stella.iguess_ sangen er dansk😂,26-10-2021,0
621,Alinna,__whooisaliiii,,fist step-don't drop it in water,26-10-2021,0
622,Follow for follow,mizter_fat.man.per,,Say to Siri: eject all eater,26-10-2021,1
623,Join my stupid live:)😎,pittigesmeerkaas_,,@lisannetjee vr als het nog een keer gebeurd,26-10-2021,0
624,larissa,larissamalou,,is your sink ok?,26-10-2021,0
625,Rewa,official_rewa,,Does it work if I drop it in soup,26-10-2021,1
626,farahayoub829,farahayoub829,,😂😂😂😂😳,26-10-2021,0
627,Devran,devranmilanpower_,,"┈╱▔▔▔▔▔▔╲┈╭━━━╮
▕┈╭━╮╭━╮┈▏┃BOO…┃
▕┈┃╭╯╰╮┃┈▏╰┳━━╯
▕┈╰╯╭╮╰╯┈▏┈┃
▕┈┈┈┃┃┈┈┈▏━╯
▕┈┈┈╰╯┈┈┈▏
▕╱╲╱╲╱╲╱╲▏𝙂𝙃𝙊𝙎𝙏 𝙁𝘼𝘾𝙀 𝘾𝙐𝙇𝙏 𝙊𝙉 𝙏𝙊𝙋",26-10-2021,0
628,💍💕01.11.2020💕💍,_x.kollane._.tydruk.x_,,@anneli_paartalu,26-10-2021,0
629,Wedoennietaannamen👍🏾,mamawa.x,,@muhaispeng,26-10-2021,1
630,________JINTHE ♡♡_______,._.jintheke._,,waneer je mense hun gsm wit kapot doen,26-10-2021,0
631,👑😈Marei😈👑,marei_h,,As if my phone will work after I drop it,26-10-2021,0
632,Xx.Rimzie,xx.rimzie,,@xx._.luna,26-10-2021,0
633,Hanin Haddad,haninhaddadsayed,,@Princess Alzaman 7lwa aweeee,26-10-2021,0
634,zahra,illegalemarokaan,,but iPhone 11 is water proof?,26-10-2021,1
635,silke._,silke._,,@rooshulshof_,26-10-2021,0
636,aaaaaa4536,aaaaaaa34215,,@canigonow7,26-10-2021,0
637,Ka-Bouter,ka_bouter,,Pay 💰 first,26-10-2021,1
638,FOOFI,foofi900,,is rice real hac?,26-10-2021,0
639,FOOFI,foofi900,,even for Samsung?,26-10-2021,0
640,user5988136572322,polse000,,@apetryne00,26-10-2021,0
641,sofie<3,..sfieo,,"Or search on TikTok «sound to get rid of water in speaker» and tap the sound, thank me later",26-10-2021,0
642,NORAAA❤️❤️,official.noraalmutairi,,The app dosent remove water from your phone!,26-10-2021,0
643,lynn_mueller08,lynn_mueller08,,@Tim 🌮 👍🏻,26-10-2021,0
644,💖,hana_xxx_,,@user5513224677890 @narges_071 kapot goeie,26-10-2021,0
645,Pam,pam_026,,@jerrrr0.26 k zou t proberen als k jou was,26-10-2021,0
646,hajar,hajarrx_b,,@halfvollemalak_,26-10-2021,0
647,Detka podmetka,detka_podnetka1,,@gajssjjs,26-10-2021,1
648,Sahday🤍,sahday.x,,@kyomi3e dan hoef je het niet te zuigennnn😳,26-10-2021,0
649,itsme,jenna.it.is,,K heb een waterdichte Samsung maar is die app ook voor Samsung dan? Had hiervoor een S6 of S7 en die was zowat dood omdat ik 'm in de plee had laten,26-10-2021,0
650,sol kooi,solliebolliee,,@MARIN,26-10-2021,0
651,❤️,nothiswifeyanymoreee,,@n.isrintjeexx,26-10-2021,0
652,Maud,maud.t012,,And what if the screen doesn’t work after dropping it?,26-10-2021,1
653,Avsuli,annnnnnna188,,@maarriiaammmmm,26-10-2021,1
654,heyy im doing everything 😚✌️,my.preppy.xlifex,,or just ask siri to get rid of the water,26-10-2021,1
655,Dont mess up my vibe,cece_ahoumy,,Why not download it before already,26-10-2021,0
656,Lia,liagoldfarb_,,חחחחח זה עולה כסף,26-10-2021,0
657,Noraschippie,nora_schipper,,@x.beccaaa dit is nog iets voor jouw 😂😂😂,26-10-2021,0
658,alexa <3,justalexaa._,,@nicoleta.17777,26-10-2021,1
659,سما,o_sama_alireza_o,,*dropped*,26-10-2021,0
660,אני ר(ציני),jonathan123kadosh,,clear wave,26-10-2021,0
661,.21..339,.21..339,,Its for money,26-10-2021,0
662,Oyunjkhai,oyunjkhai,,Oh gosh,26-10-2021,0
663,deborah,deborah_070,,@anastacia1000,26-10-2021,0
664,Hej,tjahejtja,,Or you can just go watch TikTok it’s working,26-10-2021,0
665,Nietingebruik1989,nietingebruik1928,,@selcuk..10,26-10-2021,1
666,Omar Ajraoui,omarajraoui,,And dust?,26-10-2021,0
667,Iloveme,foodlovers050,,hey how was your day remember jesus will always be with you,25-10-2021,0
668,:,..minnaatalla,,I aint gon pay,25-10-2021,0
669,😱😱😱😱,rooskopmels,,@lindybosvrouw omg,25-10-2021,0
670,🫶🏽,jjust_joke2,,ბრინჯი left the chat 🙂,25-10-2021,0
671,🥀,vlxney__,,@adamnaqar,25-10-2021,0
672,Shira_,shira_bentov,,@baravny,25-10-2021,0
673,🧸🖤🥺,b.susu01,,Im under the water plz help me😂,25-10-2021,0
674,ארקדי,arkadicherniack,,There is a demo for a limited time after that you have to pay either $ 2.99 for three days or $ 9.99 per year,25-10-2021,0
675,Itamishi,fajerwerkidowciagania,,try to dry your phone as much as you can: 🙄 download this app: 😍,25-10-2021,0
676,AmyTollie 🎀💗,amytol10,,@backupppxmaee,25-10-2021,0
677,asadddd04,asadddd04,,@maryam._.othman you’re welcome,25-10-2021,0
678,sbgwlfmjwohdpu,pretyyemogirl,,ask siri: get rid of the water,25-10-2021,0
679,KCY sisters,kcysisters,,Pls follow @cxcntlover,25-10-2021,0
680,Art GHOSTΞD,artghosted,,Or just make a Siri shortcut,25-10-2021,0
681,ums.engineering,ums.engineering,,Nak,25-10-2021,0
682,Jen.hop,jen.hop,,@eefjehuizengaa hahaha,25-10-2021,0
683,Naomi♡,naomiofficie,,@dewi.ginger hier voor als ie weer in bad valt,25-10-2021,0
684,𝐷𝐴,__4xuo,,Guys don’t do it you need to pay money,25-10-2021,0
685,Leineee,user0467926721,,@debruyncharlotte,25-10-2021,0
686,Adela,023adela47,,"Am încercat și mi-am stricat telefonul,acum am un Samsung vechi😂😂😂😂",25-10-2021,0
687,Ⓜ️🅰️✔️🅰️,holten_priv,,@topsecret_soreng men din ble jo ødelakt da😂 «æ skulle bare vaske den»,25-10-2021,0
688,mirte,mirtexvn,,@karlijnxvn @.0rosannee0,25-10-2021,0
689,Dancing Lobsters 🦞,the.dancing.lobsters,,Or just use rice,25-10-2021,0
690,Piper biggest fan,piper.fanpage066,,If it was my phone my phone will be dead😬,25-10-2021,0
691,Ur mom,beroende.av.en.08,,Don’t download that app. You must pay for the app,25-10-2021,0
692,｡⋆ʚ♡⃛ɞ,m33r1lol,,@n3tt4 näin unta et vaa olin uimas ja sit vaa tajudin et uin puheli kädes ja menib iha paniikkii,25-10-2021,0
693,Joaina Torres,yen_lahve,,"Telefon masuk air, rendam je dlm beras. Selesai masalah",25-10-2021,0
694,Kayla,1_mm_123,,"Y’all it’s so easy just take a vibration sound like a ringtone, or look up a sound and play it lol😂",25-10-2021,0
695,😼,al1ve.lt,,ooo,25-10-2021,0
696,🎀,nutsa.mamasakhlisii,,@salo_mania mashin ro dagisvelda,25-10-2021,0
697,lol,ambqqrr,,Nah Imma use that for something else 😏,25-10-2021,0
698,julia_muIIer,julia_muiier,,dont do that its soo bad to put your phone on if its wet,25-10-2021,0
699,Potato in the sun,ur.mammie.uwu,,Wel you did not drop your phone in to the water but you rinsed IT IN THE WATERRRRE,25-10-2021,0
700,Joseph Yacoub188,josephyacoub27,,Moby,25-10-2021,0
701,Bøng Phëng,mrrpheng42,,Sonic 😌😌,25-10-2021,0
702,❥Noa,noa_dekkerr,,@bobby.mae dit hadden we ook gwn kunnne doen HAHAH,25-10-2021,0
703,Black_tea,blacktea0111,,"Go to YouTube, find “water eject iphone” don’t need to download ez",25-10-2021,0
704,DibToy,dibtoy,,First : Don’t drop your phone to Water,25-10-2021,0
705,YoItzmeSMLCHOHGAMING,smlchougamingzinot,,I open the app and put my phone in the water,25-10-2021,0
706,Yunnxe,yunnx_e,,"Rice, some kids threw my mom phone in a pond and she thought someone stole it",25-10-2021,0
707,🍄juste🐸,justeliekyte,,@lissy.my.beloved grinai rebai reiketu,25-10-2021,0
708,Alban Nitaj,albannyx21,,is it not water resistent?😂😂😂😂,25-10-2021,0
709,Unix,iamunix,,I not see this app,25-10-2021,0
710,SamKimayong,samkimayong1,,You need to pay 😒,25-10-2021,0
711,Captain HtetAungKhant,htetaungkhant446,,What about android????,25-10-2021,0
712,Levan Rexviashvili,levanirexva2,,android pleas,25-10-2021,0
713,Ciara Wilson,ciarawilson23,,@naam.loos1,25-10-2021,0
714,da.bwayy,da.bwayy,,if you get severe water damage buy a ‘revivemyphone’ it seriously works,25-10-2021,0
715,suus :):,suus.vbarneveld,,@rensk10 kom dit een x uitproberen,25-10-2021,0
716,watch mr pc4,watchmrpc0,,wowoow,25-10-2021,0
717,pia <3,pijciiii,,@leagobovc :),25-10-2021,0
718,<3,s.m2312,,@Anissa💕,25-10-2021,0
719,Minda.priv,minda.priv0,,@henny_priv5,25-10-2021,0
720,joey,joey.haks,,mijn telefoon heeft dat ingebouwd bij settings,24-10-2021,0
721,Kiki💋,username288292939939383,,@alicha_helmond,24-10-2021,0
722,ביי,iby12341234,,It's not there on Android,24-10-2021,0
723,Noof :),user729104471,,@official._milou2,24-10-2021,0
724,Suzeeee,suze_vink,,@nikkivanouwerkerk_ laten we het even over die kraan hebben wtf moet dat voorstellen,24-10-2021,0
725,.,eks_jouma,,What about Android,24-10-2021,0
726,EDITING VIDEOS,editing__girl1,,@keziabianco123,24-10-2021,0
727,I 🇲🇦,caprisunmulti.islekker,,@inssafelk._ niet mijn moeder die m in rijst doet 😭😭,24-10-2021,0
728,Anijs 💗,anyssiaja,,Yall need to pay for it,24-10-2021,0
729,lola.pickaert,lola.pickaert,,@thatkidabby.08,24-10-2021,0
730,Adam✔️,adam1.000,,and how am I supposed to open the phone,24-10-2021,0
731,Fatima,tomorrowimstillsleeping,,If you drop your phone in water and it’s off don’t try to turn it on. Put in rice for at least a day and then you can try turning it on,24-10-2021,0
732,.,cockroaches,,what if it doesn't open,24-10-2021,0
733,steffie,user98723495625,,@carinajasfel,24-10-2021,0
734,g!$card,giscard155,,I have a Samsung in playstore they didn't have clearance wave help me,24-10-2021,0
735,nrlnazirah,nazzirah.s,,@naageehuh,24-10-2021,0
736,Youssef Riahi,youssefriahi_01,,or go to YouTube and search 165 hz,24-10-2021,0
737,Dinosaura 🦖,dinoosauraa,,@your_gay_unpaidtherapist Of mijne baksteen hebbe da tege water kan 😂,24-10-2021,0
738,Indlæser...,karla_solkaer,,@..tjja.hvorfor.ikk,24-10-2021,0
739,🇵🇱,julsun27,,@zuzka_love__,24-10-2021,0
740,idc UwU,mikeyluvherfriend_123,,@chheng_girlblack @chhengchheng007 @vouchchhengchhean2 @chem_chem_xyou @,24-10-2021,0
741,delii,deli.i.i,,@blo.e.m echt goeie kraan,24-10-2021,0
742,သာသနာကတုံး,aungkyawmin266,,Can I download that app first??😅😅,24-10-2021,0
743,🤕,gotta_luv.kelly,,@bh.mma.rmn,24-10-2021,0
744,HI😜,nowie09_,,Ik wist niet dat die daar boven een Speaker zat 😂😂😂,24-10-2021,0
745,Bravo,tomer_tm,,Thank for your help love you 😍,24-10-2021,0
746,Yuval,guywithchicken,,"Or, and hear me out, turn off the phone and put it in rice then go to the repair shop to open your phone and get all the remaining water out",24-10-2021,0
747,Hello,im.cool48,,THE SONG😭😭😭(only danish ppl will understand),24-10-2021,0
748,<33,luanastuartt,,@rosaliebaum,24-10-2021,0
749,L E N G,_leng___,,Just go to safari and search(fix my speakers) Thank me later,24-10-2021,0
750,bijansfi,bijansfi,,"🥺
[wow]",24-10-2021,0
751,Zenna,zenna.r,,Emm I will go on with my life,24-10-2021,0
752,🐝🐝🐝,alice_ser_piero,,"or search on yt ""loudest sound on the world"" or something like that. And wait 1/2 minutes",24-10-2021,0
753,eden🌴☁️,eden_465,,@shirel_116 בשבילךךךך,24-10-2021,0
754,Stanisław Ostyk-Syre,po._.chuj._.mi._.nazwa,,pov: w Xiaomi była już taka funkcja bez pobierania niczego,24-10-2021,0
755,AliGT,aligt786,,Use shortcut duhh,24-10-2021,0
756,siravanherpen,siravanherpen11,,u can reven olen ur phone cause its dead so u use rice...,24-10-2021,0
757,jovanamiljanic,jovanamiljanic,,@ogaraaaaaa,24-10-2021,0
758,VOLTA🇱🇮,practicemakeimprovement,,for android please,24-10-2021,0
759,Deris Magtalas,deriz9,,Just download SONIC,24-10-2021,0
760,user4172766320742,alfee36,,Follow me and I follow back🥺,24-10-2021,0
761,Die ene Poolse chick,amelia0413,,@ayeexsurayaa probeer dit ff miss werkt ook voor je mic,24-10-2021,0
762,Bucky Barners,hawkeye531,,wazaaaaaaaaaaap,24-10-2021,0
763,الاشهب,thefootballersarea,,What about a laptop,24-10-2021,0
764,ⵣ 𝚈𝚎𝚊𝚑𝚝𝚘𝚌𝚑𝚑 ⵣ,die.ene..._,,@bestfriendswithcorona @mayatieba0 @anjeli_.02,24-10-2021,0
765,Ofir Zveda,iamofir0,,@aluf_amutagim,24-10-2021,0
766,Dans på cola,user2463655666,,i have Cat s42 dont need it😂😂😂,24-10-2021,0
767,SANDER SCOTT,savememore22,,Buy a new one,24-10-2021,0
768,KanRast,kanrast,,cool but I would rather put my phone in rice,24-10-2021,0
769,hkbiqqdoqkhojjit,hkbiqqdoqkhojjit,,It works if you subscrip 2.99 dollars,24-10-2021,0
770,Jelena Jurisic,jelena.ju,,@josip.ju,24-10-2021,0
771,A.lewis.P,areal_05,,"Wait,mine didn't turn on😳",24-10-2021,0
772,tikitiispli32,kaktu32,,rendam kedalam beras,24-10-2021,0
773,Royal_Alex,royalalex120,,Not good payment first hah😂,24-10-2021,0
774,Lotte,lotv06,,@floor.gll,24-10-2021,0
775,simp4yajii,trishcruzarellano2,,@nicolegallecruz,24-10-2021,0
776,(🥜)Annie,annie_rayzelsquties,,Bro don’t trust him,24-10-2021,0
777,superb_loyge,superb_loyge,,android has build in app😏,24-10-2021,0
778,^-------,edits.hubx_x,,Thiss app really works but you has to pay 5dollar fir this app😳,24-10-2021,0
779,.,nederlandsesurinamer,,funny..😐,24-10-2021,0
780,Nantha🌈,nanthalvd,,@vin_offxcial7,24-10-2021,0
781,steven,steven053_,,@felinebruininkk voor je niet water dichte 6,24-10-2021,0
782,Joe,yeayeaguy5,,RICE,24-10-2021,0
783,Takashiro🐦,fire_pagong,,Il,24-10-2021,0
784,( ͠° ͟ʖ ͡°),deniiseee._,,@joep_footy,24-10-2021,0
785,♥️🖤_2amazingsisterz_🎉🎊,2amazingsisterz,,𝚍𝚘𝚠𝚗𝚕𝚘𝚊𝚍 𝚌𝚕𝚎𝚊𝚛 𝚠𝚊𝚟𝚎 𝚞𝚛 𝚙𝚑𝚘𝚗𝚎 𝚔𝚎𝚎𝚙𝚜 𝚏𝚊𝚕𝚕𝚒𝚗𝚐 𝚒𝚗 𝚠𝚊𝚝𝚎𝚛!,24-10-2021,0
786,k,whattson.k,,@leqvoda,24-10-2021,1
787,Amari,the_waltermart,,u gave it a shower😂,24-10-2021,0
788,Kristian,krispo06,,"Ay, mhmmt, RICE",24-10-2021,0
789,junjunkonghalimaw,codm7953,,HAHAHHAA,24-10-2021,0
790,0341,fresh_is8,,Actualy nothing most apple phones are watter closed,24-10-2021,0
791,greenteais,_.eyffa,,YouTube ada,24-10-2021,0
792,kieleaoracoy,kieleaoracoy,,put it on rice,24-10-2021,0
793,New account,p0gip0ako,,Bigas lang malakaas sa pilipinas,24-10-2021,0
794,joanjosepharcibal23,12230007857hfjh,,"just sink your phone on a container full of rice so, on that case the rice will absolutely absorb the water coming from your wet phone",24-10-2021,0
795,BW☀️💚🐰,sarawat_and_tine,,😂,24-10-2021,0
796,Its_Awande_n_x,its_awande_x_n,,Rice is the key,24-10-2021,0
797,G4GZY,gagzy.valo,,"Welcome To
Fact
-
Cap",24-10-2021,0
798,Mees,robloxgamermees,,IT COST MONEY,24-10-2021,0
799,Miralina,miralina78,,What to do when you wash your phone under the tap😂,24-10-2021,0
800,Rhialene,mariannevilloren5,,uhmm,24-10-2021,0
801,Jasper,jasperbmgo1,,What if the phone get sooo wet,24-10-2021,0
802,Jasper,jasperbmgo1,,5 minute craft be like...,24-10-2021,0
803,joe_mama,joe_mama_750,,just put it in rice it would be faster bruh😂,24-10-2021,0
804,lulehdin,lulehdin,,😂😂😂😂😂😂,24-10-2021,0
805,lulehdin,lulehdin,,😳😳😳😳😳😳😳😳,24-10-2021,0
806,lulehdin,lulehdin,,🙄🙄🙄🙄🙄🙄,24-10-2021,0
807,Star Jake,subwaysurface15,,its an app how will it save a phone,24-10-2021,0
808,.,jamiev44,,how about the phone not working 😂😂😂😂😂😂,24-10-2021,0
809,lhiumareliocampo,lhiumareliocampo,,just play the loudest vid ever,24-10-2021,0
810,user235057409253,zombiee_prince_13,,download clear wave and put it in your oyster,24-10-2021,0
811,♤♡◇♧,robloxstoris__,,me:trying to get the toothpick in my speaker,24-10-2021,0
812,iñigo✌,pangtmokabonding,,can u make android,24-10-2021,0
813,༆BELUGA࿐,mikhailrosete,,You didn't dropped your phone,24-10-2021,0
814,mr.josh,josheeesh69,,youtube : 👁️👄👁️,24-10-2021,0
815,Pitch1234567,pitch1234567,,The best app ever !,24-10-2021,0
816,boss_choi,sobbchoi,,put new cooked rice and fryed chicken 🥴,24-10-2021,0
817,PSX,cheese.dog.l,,and why we gonna do that no reason?,24-10-2021,0
818,Its_Juul,itsjuul.b,,You look for that one tiktok sound😂,24-10-2021,0
819,😏,iamdiyour,,ME PUTING IT TO THE RICE😭,24-10-2021,0
820,AZIS,abdulazis_v,,Xr bisa gak kek gitu,24-10-2021,0
821,Jay.,username121137,,what about Android?,24-10-2021,0
822,Alley,1opq02nz85_26,,Sand?,24-10-2021,0
823,"sai ""«vvv""»»»",sai83265,,🇲🇲🇲🇲🇲🇲🇲🇲🇲🇲🇲🇲🇲🇲🇲🇲🇲🇲🇲🇲🇲🇲🇲🇲🇲🇲🇲🇲🇲🇲🇲🇲🇲🇲🇲🇲🇲🇲🇲🇲🇲🇲🇲🇲🇲🇲🇲🇲🇲🇲🇲🇲🇲🇲🇲🇲🇲🇲🇲🇲🇲🇲🇲🇲🇲🇲🇲🇲🇲🇲🇲🇲🇲🇲🇲,24-10-2021,0
824,4K ALATSKIIE,ryu_indonesia,,nung ginawa ko yan d ko na mabuksan cp ko kaya bumili ako ng bago,24-10-2021,0
825,CTI_EvanDeafYT,evandeafyt,,@ilhammaula999 kok bisa,24-10-2021,0
826,Lea Standaert,lea_standaert,,@tia32002,24-10-2021,1
827,master,masterlyrics2,,you can edit to shortcuts get rid of water,24-10-2021,0
828,ArielLiew,no_named021,,i don't thing phone with IP rating need that 🗿,24-10-2021,0
829,nekdopac2782,nekdopac2782,,I dropped my Samsung S4 in the sea and it still works without this app,24-10-2021,0
830,zbjqrn,zbjqrn,,the thing is my phone is waterproof,24-10-2021,0
831,Xyrelle (Taylor’s Version),xyyymac,,use shortcut,24-10-2021,0
832,aydin,aydinplayz_yt,,Mine doesn’t work anymore cause I used it to many times to test(I need membership),24-10-2021,0
833,RARES,raresuuuu,,Iphones over 8+ are watherproof lolll,24-10-2021,0
834,Randi Roi,selamstp,,how is it ON in the 1st place after the water😳,24-10-2021,0
835,sai,sai.679,,not samsung guys but iphone only😏😏😏,24-10-2021,0
836,1,meceski,,what about the chargin port,24-10-2021,0
837,Itsjxst.zxch,its.zxch,,You have to pay for it why don’t you say that?,24-10-2021,0
838,Ok,j0shu4_u1,,Oh hi hi speak dutch too,24-10-2021,0
839,MooMoo,musthaveuniqueusername,,"Lol, really? Omg",24-10-2021,0
840,josephd0077,josephd0077,,byt it's already not working,24-10-2021,0
841,😈Karate😈,xg_opl,,@khaby.lame,24-10-2021,0
842,User183936294,user28361910,,"WOW THX, YOU HAVE TO FUCKIN PAY JUST TO EJWCT WATER",24-10-2021,0
843,SG,sidewaysgrian,,useless also breaks the speakers,24-10-2021,0
844,Daily Push The Button,daiilypushthebutton,,Or just dry it 😐😐,24-10-2021,0
845,Berre69,berredevriese69,,Bro you need to pay for it,23-10-2021,0
846,🤡,wewenimafi,,May God bless everyone and their Families Amen 🙏,23-10-2021,0
847,🤡,wewenimafi,,May God bless everyone and their Familes Amen 🙏,23-10-2021,0
848,🤡,wewenimafi,,May God bless everyone and their Families Amen 🙏,23-10-2021,0
849,omar,omarvss,,subscription only 45$ a month!,23-10-2021,0
850,kurtlaes,kurtlaes,,put it in the microwave instead,23-10-2021,0
851,ControllerStuff,controllerstuff,,"😈ITS ABOUT GHOST ⁉️ITS ABOUT POWER 🥶 WE STAY SCARY👹🍗WE DEVOUR😈🗣💯‼️PUT IN THE SMOKE😈💪
PUT IN THE HOURS 😈💪",23-10-2021,0
852,Aryan Esmaeili,aryanedapro1,,What if the screen doesn’t work after it was in the water 🧐🧐,23-10-2021,0
853,omid_058,omidd058,,👃👃👃🧢,23-10-2021,0
854,Joshua,ikheetjoshua,,"Dit moet je juist NIET doen, zet je telefoon gelijk uit en laat het 48 uur drogen.",23-10-2021,0
855,hj,hj8954,,"Idk but i always wash my phone under running water, so far so good 😂",23-10-2021,0
856,Ewa,stalkervnzuid_5314,,its workingggg thank you so much,23-10-2021,0
857,calypsobg,calypsobg,,but my phone is waterproof,23-10-2021,0
858,Kevin Hoogland,kevinhoogland,,I was here for the music,23-10-2021,0
859,F1 Fakefear4less,fake_fear4less,,Enjoy the water damage lol and the music after you test hits hard it’s fresh,23-10-2021,0
860,Rikxianele309,rikxianele309,,Tssk if phone isn't waterproof then the motherboard gets damaged and you can't launch apps dumbases not everything has a waterproof phone 😐😑,23-10-2021,0
861,@world,humonculus_loxodontus,,Androids have it already,23-10-2021,0
862,teamledigy,teamledigy,,Βάλτο σε ρύζι και αφού είναι iphone πάρε άλλο😏,23-10-2021,0
863,Cars only 🚘🏎,2018._dodge_.demon,,Bruh go to shortcuts and press water eject no need for 007 bullshit,23-10-2021,0
864,savvidhs_,xristos.1773,,You just say Hey siri get rid of the water,23-10-2021,0
865,nini,nininini.ooo,,@lilekiladze,23-10-2021,0
866,smash,yaro.033,,Ik ruik nederlands,23-10-2021,0
867,Challenges,challenges022,,@hannah.hey9. if we did this,23-10-2021,0
