,Comment Number (ID),Nickname,User @,Comment Text,Time,Likes
1,Rosiekatex,rosiekatex.x,,It’s the nose wiggle for me 😂,22-3-2021,346
2,arts_ytash,arts_ytash,,Clarinet sales after this 📈📈,4-4-2021,171
3,💕🎀DENISE🎀💕,denisedhmn,,Who knows the real Meme,23-3-2021,14
4,MIKEY C,officialmikeyc,,"Squidward said “Nah, this is the best job i got, i’m not losing this one” 😂",4-2-2021,111
5,tobotsinit,user2nwna4yrnp,,they can get fired for dabbing btw,11-4-2021,79
6,BFC TILL I DIE,upthetangerines,,it's in the contract when they sign to play as squidward if they dab they are fired and if they are caught continuously doing it it's a fine 😂😂,11-4-2021,33
7,Faith🦋,thatpiscesgworl,,Yeaaaa were not allowed to do that anymore 😅 or they get in trouble,7-5-2021,15
8,Oguzhan Cakmak,oguzhan.c5,,I suppose he was not in the mood 😂,3-7-2021,6
9,ImRanpo,imranpo_,,"Man said”I remember that,brings me back....No”",4-2-2021,68
10,Aneta monica,anetamonica01,,People who work in Disney land dressed up as characters aren't supposed to do that type of stuff like a dab (idk why),24-3-2021,8
11,Pixel Johnson,pixel.johnson321,,He was like for goodness sake this is the 20th time why did I have to dab that one time,26-3-2021,13
12,Redd,itswolfiii,,Squiddy no dab for us :( Betrayal,28-8-2021,36
13,Nice try,mrdontgiveashitcunt,,For anyone for what ever reason still doesn’t know why he doesn’t just dab. There not actually allowed too and can loose there jobs.,25-3-2021,6
14,idc,justguts_,,he went: I have a question for God WHYYYYYYYYYY?,22-3-2021,18
15,Samantha Louise,samanthaell_,,I dont think hes allowed to.,1-4-2021,9
16,Pokemon😃,rare_catcher,,he got Vietnam flashbacks,23-3-2021,10
17,E,justluck123,,He’s like it’s been a long time😂😂😂😂,4-2-2021,18
18,Breezy B,breezyblueeyes81,,Haha just seen the YouTube video on this😁,1-4-2021,9
19,therealdg_,therealdg_,,the first guy u didmt got fined for doing tht,4-2-2021,9
20,Elyse,sharkblossom,,the dab went out of style like three years ago lmao,4-2-2021,10
21,💫,_.r_a_n_d_o_m_girl._,,HAQHAQHAQVAQHAQHAQH😂😂😂,23-3-2021,0
22,Einfach Nico15,einfachnico15,,I'm habe 2017 haben hemorrhoids,22-3-2021,0
23,_valeria_ki_,_valeria_ki_,,@annalena_kin05 kenn ich😂😂,22-3-2021,0
24,jacky.,nyari_jk,,@leonie.berenice & @meeeliii2208 😂😂😂,22-3-2021,0
25,Carina 🦋,carina.shz,,@annalenaf21 😂😂,22-3-2021,0
26,🍜,bananenshampoo,,@imnoturmumimurdaddy du wenn ich iwas mit dir machen will HAHHAHAHAH,22-3-2021,0
27,:),heleenskii,,@yxki_chxn HAHAHAHAHAHAHHAHA,22-3-2021,0
28,Spongebob Schwammkopf Offizial,spongebobschwammkopfoff,,@patrickstarofficial_ KUMPELLLL,22-3-2021,0
29,Spezy,spezyofficial,,brechen bei euch auch die View zahlen ein,22-3-2021,0
30,.,saafev,,@live_4_anime0 JUNGE WIE GEIL HAHAHAHAHAHAHHA,22-3-2021,0
31,Alles hier ist über cp!,ey_glotz_nicht,,Wo ist Spongebobe?,22-3-2021,0
32,💙❤️,soso.bmm,,@laura.7.54 ich kann nicjt mehr GAGAGQGA,22-3-2021,0
33,Andrés Hernández5123,yex127,,TACOS DE KKAAAAAA,22-3-2021,1261
34,Klahona,moon_ako,,eu poderia fazer o papel dele facilmente,22-3-2021,162
35,🫧🌊Lagoona Lover🌊🫧,shes.got.everything,,@usericj00yztam this reminded me of u idk why,4-2-2021,12
36,Ouais Gros,because.monkey,,le dab n'est toujours pas mort alors ?,22-3-2021,14
37,q,fantagaseosa,,Calamardo: chica enserio? estamos en 2021,22-3-2021,11
38,TUTUPOM TAY,tutupomtay,,"gente, personagens não podem fazer muitas coisas fora do personagem, pq senão destrói a magia! Disney e outras empresas são assim",22-3-2021,7
39,a+a,macumberinha122,,Não sei pq eu lembrei do @felipeneto,23-3-2021,6
40,xxpp,bjjrl4x,,Y el monito de atrás 🕺🕺,22-3-2021,10
41,Josesina,josesina_,,necesito una cuenta de tiktok exclusiva de videos de calamardoo,22-3-2021,8
42,CallMeJuan,callmejuan_off,,j'ai l'impression il a envie mais il va avoir des problème mdrrr,22-3-2021,7
43,UE-1206,ue_1206,,the person who did that one time got as far I know fired,23-3-2021,6
44,panconquesocrema:3,pan.conquesocrema,,@dkdjdjb8 JAJAJAJAJAJAJAJAJAJAJAJ,23-3-2021,6
45,✨J.J✨,jj_isntthere,,Squidward didn’t do it because the previous one that did the dab got fired for some reason,2-2-2021,5
46,Parker Burton · Ersteller,imparkerburton,,@ciasify here ya go,31-10-2021,5
47,😎,pdorinaa,,@m_bubi22 @mirtill003 flegma,22-3-2021,5
48,GalaxiWarrior 😎👌,panditauwu276,,@capitanyolotroll XD mira yolo lo q hace tu hermano @nandoweee en estado unidos😂,22-3-2021,5
49,L🖤,lb__.07,,@natiiiiigiil adivina de quien en he acordado viendo a Calamardo,22-3-2021,5
50,jouw mama <3,yen._idk,,they actually legally can’t do that it’s in their contract,24-3-2021,4
51,Melan Quéau,melan.nalem,,Mdrr,22-3-2021,5
52,hi,chvytr,,mis ganas de vivir son como las de calamardo,22-3-2021,5
53,🕷 The Spider Web 🕸,gay69_420,,Pretty sure they aren’t allowed to dab for some reason,22-5-2021,4
54,Claire Graham,clairegraham4,,apparently he isn't allowed to dab?,25-3-2021,2
55,🖤,me_aburro_vg,,seeeeeeeeexooo añaáñáñäñná,24-3-2021,2
56,☟︎︎︎,haru.__.flaquette,,@mathilde08078 UwU,22-3-2021,5
57,Noah boone,boonen2001,,Isn't there like a make a wish kid that can take one for the team?,22-3-2021,2
58,lrlju12,lrlju12,,give my man squidward a break common,27-6-2021,2
59,bro I'm shit,alexisalexanddr,,let the lord rest,11-4-2021,3
60,Hu Tao,tartagscumbucketandslave,,@tamakisbaee_ kind of reminds me of cornish,4-4-2021,1
61,Arthurbw51,arthurbw51,,Ah ah,23-3-2021,1
62,carolamuis,carolamuisx,,Ik wil daar heen @jusruigrok,23-3-2021,2
63,Jude,judes_random_stuff,,The dabs old,4-4-2021,1
64,Bobster Harg,bobsterharg,,Leave my man,11-4-2021,1
65,ameliaelizabethlowe,cottagecroakfroggo,,My man’s struggling there,24-3-2021,1
66,gyuslvrr,bbeomtxt,,OMG NO I WOSH I WAS THEREEEEE@yongbokscookies @yangyangsnectar @jeonghansshoulderdevil WE HAVE TO DO SM LIKE THIS,24-3-2021,1
67,Lobo,lobovr07,,He once dabbed before,24-3-2021,1
68,Trainor_tijn,thedutch_weeb,,legend,25-3-2021,1
69,Geekdom,allthegeekthings,,My squid!,24-3-2021,1
70,cote,cotelei,,he looked SO DONE,23-3-2021,1
71,Yone_chen,yone_chen,,@natilarisantinell kjjkkklkk,22-3-2021,1
72,𒁂,betti0724,,@username67678 NEEEEE,24-3-2021,2
73,Adrian Haderi,mlgmafiaman,,surprisingly I have never watched spongebob did I have a bad childhood?,10-4-2021,1
74,.,therealbob.01,,i swear the actors cannot actually do stuff like dabs for some reason,10-4-2021,1
75,❥ helen,xhelen.xs,,@yonca.avc HAHAHAHAH,23-3-2021,1
76,Ravina,ravina_rajj,,@hayeetmadude @kelsey_e_edwards 😂😂,25-3-2021,2
77,𝚘𝚕𝚒𝚟𝚒𝚊𝚊𝚊𝚊,olivia.barker.x,,@xox..amelie..xox 😂u x,11-4-2021,2
78,Flo,flomo2k8,,we got SpongeBob to dab on a class trip once 💀,11-4-2021,2
79,Aidan.J,a.johed_9,,@nikolvega1 tenemos que ir a un lugar así🥺,22-3-2021,2
80,josie🦋,_._jxsephine_._,,@xxx._.celina._.xxx8 @,23-3-2021,1
81,anna.tdr,midnight_kat02,,@froggy_toast_12 😂,23-3-2021,1
82,Syrine❤️,syrine..msd,,@lena100907 il fait des truc bizarre ton doigts 😭,23-3-2021,1
83,Kayleightju,kayleightju,,@lauravgelderr HAHAHAHA,22-3-2021,1
84,c,ccg_24,,@almusanlu @agp_14 porque se parece al de tecnología??? JAJSJAJJA,22-3-2021,2
85,clara,clara.lhs,,@prt.agathe quel ingrat,23-3-2021,1
86,⚢,soya.baee,,@overthxnker._ 😂,22-3-2021,1
87,chrissy,mondreich,,@vik._armin @you_dumbfuck @noyasmainwaifu @adelina.ndr 😔✋,24-3-2021,2
88,warzone,warzone4lifebby,,get him to stick his arm up,10-4-2021,1
89,Fla🍒,satori.___,,el pez de atrás aplaudiendo JSHDKHSJS,22-3-2021,1
90,Cande Ruiz,_canderuiz_,,JAAJAJAJAJAJAJSJA AMAMOS,22-3-2021,1
91,tamo,0htamo,,@0hatx mais non 😔,23-3-2021,1
92,dizzy,dizzy_wizzyy,,"He really leaned forward and said """,5-6-2021,1
93,Bryan_cat,bryan_cattt,,🌮31,24-4-2021,1
94,Amy,not_amyxx,,@_egg.y 😂😂,11-4-2021,1
95,loopycheez,loopycheez,,hes not aloud other wise he will just get fired thats cause they never do it,11-4-2021,1
96,Ella Tsanos,ellatsanos5,,@ilangton84 u and santa,11-4-2021,1
97,𝐒𝐨𝐩𝐡𝐢𝐚💗💗,x0x0.sophiaa,,Wait yall don’t know the ppl who dress up aren’t allowed to dab 😃,11-4-2021,1
98,❤Dhruti❤,galaxies.d,,@kirari.queen.of.sharks OMG I REMEMBER THESE FROM DISNEY WORLD THEY WERE HILARIOUS,3-4-2021,1
99,Ruckus puckus,babydiaperstinky,,Y do people see Orlando as this,27-3-2021,1
100,Gabriella Caruso,gabriellacaruso_,,@jesscarusox @monicacaruso03 wish I saw him at universal studies,25-3-2021,1
101,Pebbles&Peanut,pebbles173,,@kimberleyquinty 😂,24-3-2021,1
102,tuva🕺,tuvafknhedlund,,@www123kr ja,24-3-2021,1
103,💗🐰,xxel01se_x,,He danced with me once 😳😅,24-3-2021,1
104,Karen,karen_black1,,@cathairod0 😂,24-3-2021,1
105,Кристинка,schokokopf,,@te.evinamin 😂😂😂,24-3-2021,1
106,roblox stories xx,alissa._.playz,,There not aloud to,24-3-2021,1
107,Darby <3,imondarby,,@stormlord18 😂😂😂😂,24-3-2021,1
108,Jojo,chri.s.s.s.s,,@melina.sek i mouri tou mou thimizei kati,24-3-2021,1
109,Kujo Jotaro,jotaro.pt4,,squidward is not allowed to dab rip,23-3-2021,1
110,Marlies41,marlies41roblox,,@me_vs_you3 😳😂🥰,23-3-2021,1
111,Louise Debien,louisedebien,,@sarahdekkiche0407 oh mais c'est la prof d'anglais 😂,23-3-2021,1
112,ㅤ,twinkzieee,,I MISS THIS MEME.,23-3-2021,1
113,🖕🏼,d._.j27,,@jeremy.saved 😂,23-3-2021,1
114,Dippydapper,dippydapper,,He doesn’t get paid enough,22-3-2021,1
115,Mar Wonis,marwonis,,@jjjjjjjjjjjjjjjja decepción dice,22-3-2021,1
116,B,dkyt13,,@emma_elfgarden ave Maria,22-3-2021,1
117,Lisouille,lisa.et.ses.copains,,@_monponeymilan_ c’était lui avec qui j’ai fais la photo dans ce parc exactement 😳😳😳,22-3-2021,1
118,😿,smhdumbmf,,Who remembers the squidward that dabbed and got fired for it ;(,22-3-2021,1
119,spam acc,xd.spamacc,,@i.love.u.3k 😂😂😂,22-3-2021,1
120,NKZ PLereuse78,nkz_plereuse78,,Mdr il regarde le ciel en disant 《haoudebelai》😂,22-3-2021,1
121,SpideX,spidextheoldman,,@gregv.dgeest nooooooo,22-3-2021,1
122,Domi,itz_domi.s_main,,@imapieceofshitbby he’s like nope 😂,22-3-2021,1
123,Greta,greta.17.2,,@lill_live hahahah,22-3-2021,1
124,Christine,christiinnee__,,@totheszter11 @veronikajuhsz 🥺,22-3-2021,2
125,,notchloenaylor,,@anna_croxall u,11-4-2021,1
126,🥶🥶,ymalala1,,@thisaccountismalikis @sumi11_xx 😂😂😂😂😂😂,24-3-2021,1
127,Kald mig belozitoo😎,bella..cph26,,@emil_dyregaard13 😭,24-3-2021,1
128,Hello <3,secondwatcherswife,,@angiepleasemarrymenow i Can't reply anywhere 😭,24-3-2021,1
129,κρις🚀,_xtznl_,,@stelloukoooss ΑΑ ΘΕΛΩ ΝΑ ΠΑΩ,24-3-2021,1
130,ℐ𝓈𝒶𝒷ℯ𝓁☕︎☁︎,vechter400,,he's not allowed to dab he could get fired,24-3-2021,1
131,Csongor,itzz_esztiih,,@jencselreka UGYE NEM CSAK EN MENNEK ODA HOZZA ES MEGOLELNEM?? (NE KERDEZD MIERT),23-3-2021,1
132,Célia‼️,celia.brts,,😂😂,23-3-2021,1
133,Tired and confused,simelito77,,@lemon._.flavoured._.soup us when someone dabs in vr,23-3-2021,1
134,zurih,aplastarme,,no os quiero asustar pero han pasado casi 6 años desde que hizo el dab,22-3-2021,1
135,Ambre__schwertzig,ambre_schtzg,,@lucieklopfer on dirait les réactions de mon prof de math quand je dis de la d 😭😂,22-3-2021,1
136,Océ,_oce11,,@@chledu62 je veux y aller 😅😳,22-3-2021,1
137,anastasia<3,m.anastasia9,,@anne._.20 calamal🥰😂,23-3-2021,1
138,lauraribai,laura_ribai,,"@kiralybogi26 ez te vagy amikor felhozom, hogy talizunk",22-3-2021,0
139,Darius Boca,bocadarius1,,https://discord.gg/PkmczKVzmg,22-3-2021,1
140,cheyenne.pichelot.vp,cheytek1,,@xxginouxx je veut ce costume 😂,23-3-2021,0
141,Jessicaa Ait,jessicaaait,,@__4h30_ trop mimi,22-3-2021,0
142,Adrian Lima,udryan,,@biach_almeida KSKSKKSKSKSKS,22-3-2021,0
143,hug0SCT.,n0grinds,,ayo,22-3-2021,0
144,Ari,.kaitana,,gente q belezinha 😭❤️,22-3-2021,0
145,Señor Cacas,_dekoboy_,,HEY! Lo dudo.,22-3-2021,0
146,Nicole Mebarak Buhajeruk S.,shakiradmc,,Calamardo: q meme más quemado,22-3-2021,0
147,Tina Zardoust,tzardoust,,Me recuerda tanto a risto mejide😂,22-3-2021,0
148,Juan Rodrigo Pérez,userh70vyj2id8,,Que estamos en 2021 por dios 😂😂😂,23-3-2021,0
149,Elena,moonlal_,,Calamardo: diosito dame fuerzas para no estrellarle una silla en la cabeza🧍🏻‍♀️,22-3-2021,0
150,Tessa,tessa_maelys,,@lavraicarla 😭😭,22-3-2021,0
151,Sylvia Chai570,sylviachai1,,my dad like this cartoon,18-2-2022,0
152,Rishi,rishichandra27,,Lol,24-4-2021,0
153,🥀,yashisswaggy,,@oli..36 YOUR COMING WITH ME ONE DAY TO MEET HIM,11-4-2021,0
154,hi,octopusgardeners,,mans been asked too many times to dab 😭,11-4-2021,0
155,P.K.,am1r4l33f0rm3,,@rareeeeeeeeeeeeeeeeeee he looks up and goes why me,11-4-2021,0
156,L.AW,potnoodlemaximum,,He actually isnt allowed by Disney,11-4-2021,0
157,Iza,idiotic.aizah1,,@simply._.alima i found reema 😂,11-4-2021,0
158,Random things:p,justacringeacc,,Lol,11-4-2021,0
159,🤍,setsoffender,,apparently they get fired if they dab,4-4-2021,0
160,Sude,sudeoooo,,@hannesener 😂😂😂,30-3-2021,0
161,FadoraWitchCraft,fadorawitchcraft,,I'm going to try this one day. you'll video it! @jakedavidbtg,25-3-2021,0
162,don’t exist,justxcourtney_,,@g1_.mostactive 🥺😌,24-3-2021,0
163,Jordan Theys,jordan.theys,,octooooo,24-3-2021,0
164,Eating.com,eat_paper_daily,,Hes not allowed,24-3-2021,0
165,gab,._g4b,,@0_.lero4ka_0 😭😭,24-3-2021,0
166,Noor_hoi,noor_hoi,,"＼ ｜ ／。★
DEZE COMMENT
HEEFT GEEN LIKES
★。 ／ ｜ ＼。 ★
☆。 *。 ☆。@jildau_mattiesing",24-3-2021,0
167,Tong Wol,speed_487,,🤣🤣🤣🤣🤣🤣,24-3-2021,0
168,u <3,im_littel_shy0,,فوبيا😳,24-3-2021,0
169,Rianna😀,riannamustonen,,@mangomeloni_ se jonne,24-3-2021,0
170,M,raqi4l,,@a2theez sJaHAHAHAH,23-3-2021,0
171,user1344566777,connor.does.things,,@officialmudman123 ayyy abigail,23-3-2021,0
172,Que tal?💐,hppxchrz,,que tierno,23-3-2021,0
173,🌸Ezgi-Yasam🌸,ezgi.krbg36,,@uncleiroh24 😂😂,23-3-2021,0
174,ventilover,poopingventi,,@shigarakisdryco0chielips BAHAHAHQJSJSJSJSKAKA IACNR,23-3-2021,0
175,user5565901286525,k1an_45,,@@finnkok1,23-3-2021,0
176,Ash lyxn tengamos fe por ti,loshuevosrubiosdeash0,,awwww,23-3-2021,0
177,Santi pa,saaaantiiiagooopa,,@ivanmx444_vivacristorey xd,23-3-2021,0
178,azúcar,yonn_elgato,,no entendí,23-3-2021,0
179,Barbara👌👌,a_barbie_xd,,Por un momento pensé que lo haría 😭😭😭🖐️🖐️,23-3-2021,0
180,Lou Natali,lou_happy1,,"Il m'
à tuer 😂@mįlaaaa",22-3-2021,0
181,I.N,i.n_loveyou,,TaKoS dE Kk,22-3-2021,0
182,33_ll,ll_fcb,,الحركات🥺😭😂😂😂😍😍,22-3-2021,0
183,Margaucelestial 💜🌹,celestialmoonwolf,,@dark_angel_.66 😂😂,22-3-2021,0
184,Adriel Nairr--,adrielnairr,,não consigo sair desse vídeo 😔,22-3-2021,0
185,malwiederelliot,elliotjamie,,HE LOOK SO DONE HAHAHHA,22-3-2021,0
186,MEE5,manifoldjack.tv,,@harvestsamba PLSSSSS,22-3-2021,0
187,✨Ady✨,ady.hodkova,,@nikysek_a_ja 😂😂,22-3-2021,0
188,Terezka💖🏒,sroubkova.terka,,😂😂,22-3-2021,0
189,Keyla 🐠,creativefool.keyla,,@hai.xx.hai 🥺🥺🥺,22-3-2021,0
190,akulupa terserah,andre34263,,wkwk😂😂,25-4-2022,0
191,viper,voopat,,most viral vid,18-1-2022,0
192,Perci,ceiprz,,I FOUND IT WOOOOOO!,17-1-2022,0
193,user6290403849744,red0626,,He is t allowed to dab,16-7-2021,0
194,C̤̈ḧ̤ä̤r̤̈l̤̈ï̤ 💜,pariis.chvrlxs,,@the_normanoficial ese es el dan el que hizo la chica rubia al principio,1-7-2021,0
195,ticianedias975,ticianedias975,,😏😏,1-7-2021,0
196,phanphuong895,phanphuong895,,khịa mà😯,19-6-2021,0
197,Edrianny☺️,edrianny_pr,,Not hating but the fact that she said “hey Patrick”😂,24-5-2021,0
198,dgnvf,m00se6969,,they arent aloud Imao,13-4-2021,0
199,Lilith 🐞🤺,lillain_marie,,he can't do it or he will get fired,11-4-2021,0
200,…,lolaaaaa1102,,@xlizzy_12x,11-4-2021,0
201,🤍 pew pew🤍,robbie.youtwat,,They’re not aloud to because they are only supposed to act like the characters and “only know” what the characters know 😁,11-4-2021,0
202,Morgan Harley,morganharley10,,They’re not allowed to squidward isn’t,11-4-2021,0
203,Ilse van der Veen,ilse300,,My profile picture,11-4-2021,0
204,crooppi,t3x3d,,the other one got fired necause he dud it maybr thats why,11-4-2021,0
205,idk u,kysorgetoverit,,they cant dab,11-4-2021,0
206,loading.....,waxky_winnor,,😂😂,11-4-2021,0
207,Liam,liam_robertson,,There not allowed,11-4-2021,0
208,SF shrewddig my user on xbox,daguywhosaccdead,,@epic_jude0 😂 😂,10-4-2021,0
209,Craig tucker🖕🖕🖕,0fficial_kyle,,Just letting you know any person in the costume is not allowed to dab,8-4-2021,0
210,Christian Robinson,sonofdemons1,,@lisalouisejex 😂 @caseyhasnolife,5-4-2021,0
211,TX-21 Tactical droid,thetx21tacticaldroid,,I bet that squidward saw the video and he knew that its too old,1-4-2021,0
212,Lena,gamesforlife027,,Their not allowed too,26-3-2021,0
213,Alfie シ︎,alfies.wxrld,,He's not actually allowed to dab its a rule they made,25-3-2021,0
214,Bladeshredder,bladeshredder,,DAB DAB DAB common DAB🥺😂😂,25-3-2021,0
215,『Ashley』,sanityfqlls,,"Hey everyone! Friendly reminder! He isn't allowed to dab, he could get fired for doing anything like that. Mainly in disneyland, not sure if here.",25-3-2021,0
216,eloisecoops,eloisecoops,,@sarascuderi05 😂😂,24-3-2021,0
217,mads,wys.maddie,,I WOULD HAVE DIED IF HE FLIPPED HER OFF LMAOO,24-3-2021,0
218,Ishaan,ishaan.sharma09,,@x.mya.whittaker.x 😂,24-3-2021,0
219,K😋,mam1lam11,,They’re not allowed to dab,24-3-2021,0
220,babypluto🦋,wh0.stunna,,😐,24-3-2021,0
221,✨Sophia,s0p52,,LEGENDARY MOMENT,24-3-2021,0
222,don,don.falcone,,pardon? Patrick,24-3-2021,0
223,Noor_hoi,noor_hoi,,"🛸　　　 　🌎　°　　🌓　•　　.°•　　　🚀 ✯
　　　★　*　　　　　°　　　　🛰 　°·　　                     🪐
.　　　•　° ★　•  ☄
▁▂▃▄▅▆▇▇▆▅▄▃▁▂",24-3-2021,0
224,.,______rbk______,,@elzyy.yy_ 😂,24-3-2021,0
225,🐮Kyrahh🖤,imkyrahh_0.0,,Poor tunatentacle😂😂😂😂😂😂,24-3-2021,0
226,Lino,boyinaskirt0,,The way he just looked up at the sky 😂,24-3-2021,0
227,Alina,alinx.schimpel,,@edxr.melsi 😂,24-3-2021,0
228,🪐✨Isabelle✨🪐,ikbenisabelleee,,@ikbenmadelieff 😂😂😂,24-3-2021,0
229,stein,steinpoiesz,,😂😂😂😂,24-3-2021,0
230,✨ Elena ✨,agathokakological_lupus,,@chryssa_ksm 😂,24-3-2021,0
231,100.days.program.,random._.veci._,,"chtěli by jste zhubnout?Začněte mě sledovat,každý den budeš dostávat ůkoly, ne jen cvičící ale abyste se zvedli,a šli něco dělat🥰",24-3-2021,0
232,xxx,chickenwing.07,,@ilariaaa.23 😂😂😂,24-3-2021,0
233,betül🇹🇷,bbeetvl,,HAHHAHAHAHAHHAA,24-3-2021,0
234,[insert text here],urdadsellsavon247,,"That poor, legendary guy",24-3-2021,0
235,SIGRID,sigriid02,,@hennyyy.m lmaoo remember When we tried to do this,24-3-2021,0
236,Mark Van boggelen,geertvb123,,Octo,23-3-2021,0
237,Melina Gamsjäger,melina.gamsjaeger,,@novia.gams do mias ma hiii,23-3-2021,0
238,Eliza,elizakkaz,,"No, This is no. Well the characters are not aloud to dab and you can’t use Snapchat filters on Disney princesses and more.",23-3-2021,0
239,Manolo👽🌱,manolo_94,,Extrañó ese lugar,23-3-2021,0
240,🐸axoanddynamo🦸‍♀️,__rue_,,@jarvis_aimbot69 kell egy olyan a szobámba hogy boldogítson,23-3-2021,0
241,Whitty Roblox✨👻🖤,el_ornitorinco_espacial7,,Ajjajja,23-3-2021,0
242,.?.,its.belem_,,@hena_are_uwu 😂,23-3-2021,0
243,LAHAINEDUMAL666,lahainedumal,,excellent 😂😂😂😂,23-3-2021,0
244,fn_solarxx,hamstergang0000009,,Whi the dab in 2021,23-3-2021,0
245,🫧,anaell_drf_,,😅@clemouille196,22-3-2021,0
246,Nika,itssss.nikaaaaa,,i wanna met him too hahha😳😂,22-3-2021,0
247,Héctor Iván Martinez,tetobatillo,,:(,22-3-2021,0
248,𝓙𝓪𝓭𝓮𝓮𝓿𝓪𝓷𝓰🌆,jadeevangeline,,😂🤣😅,22-3-2021,0
249,jurgavaitkute,jayelizabethhh,,how dpes he see,22-3-2021,0
250,TitoChavez26,titochavez25,,TAKOS DE KAKA,22-3-2021,0
251,mell,melani_i_i,,@va.ni.aaaaa calamardo decepcionado NAJDJAJDJAJDJA,22-3-2021,0
252,.,lost_s0ul75,,@sansygirl_cosplays @w.dchara @aurore__mrg 😂,22-3-2021,0
253,Ivan Parra,ivan_parra,,JAJAJJAAJAJAJAJAJ,22-3-2021,0
254,Beky Csudaiova,bekuli,,@_._._vivi_._._ 😂,22-3-2021,0
255,Samuel,m4sked_mast3r,,@k_kapa @c4t_suk1 ajajJJaJKskskKAKSKDEJDJQUSJEJZEJDKEK,22-3-2021,0
256,x_-naomikeeee-_x,xx_naomikee_xx,,@kianaprovenzano 😂,22-3-2021,0
257,Ric,iiamricardo_,,not this year 😂😂😂😂,22-3-2021,0
258,random shit,random_shit_found,,"︎
︎ ︎ ︎︎ ︎ ︎ ︎ ︎ ︎ ︎ ︎ ︎ ︎ ︎ ︎ ︎
︎ ︎ ︎︎ ︎ ︎ ︎ ︎ ︎ ︎ ︎ ︎ ︎ ︎ ︎",22-3-2021,0
259,Nata,nata_alvarez95,,"lo que está claro es que está muy bien metido en su papel, así que está genial!!",22-3-2021,0
260,🇦🇷🤝🎩,pettisoo,,@_edxts..yt EYYYY VALENTÍNNNN QUE HACES AHIIIII???!?!,22-3-2021,0
261,M' Bugboo 🐞,mlbugboo,,uma vibe mais felipe neto e afins,22-3-2021,0
262,hi Im new,fruity.charlz_,,😂😂😂😂😂😂😂😂😂😂,22-3-2021,0
263,wanda,hellooooooo441,,he is notsloud to dab,22-3-2021,0
264,Luka_colak_lol,erni_bitch,,He really said 👁️👃👁️,22-3-2021,0
265,anaïs,anais_perier,,@chrisna_835 @charlottee_fdh par contre c'est où ? pcq j'y vais en Y direct,22-3-2021,0
266,Ole Petter Borlaug,opebo86,,😳🥰🥰😂😂😂😂,22-3-2021,0
267,киллерфаг,.hottieoddi,,@._.lenslis._ АХАХХАХАХВ,22-3-2021,0
268,Valentina Medina277,jhopeswaxedears,,THEY LOOK SO DONE,22-3-2021,0
269,ianka💍,madlenianka,,hahahahahahaha😂😂😂😂😂😂😂,22-3-2021,0
270,Gabrielle Kuroneko,gabiosfera,,calamardo siendo calamardo 😂😂😂,22-3-2021,0
271,Aneta Kylarová,anex_00,,This is amazing,22-3-2021,0
272,Vous soûlez un peu..,raph_plt41,,c'est carlito,22-3-2021,0
273,user4840770638702,hallebruh14,,@bethany.1016 😂😂,26-3-2021,0
274,mae,macietannahill,,@oliviakn_ wiggle nose,12-12-2021,0
275,issy,izzy_wsp,,@j3ager.0 SQUIDWARD!!!,2-4-2022,1
276,Fortegreen,red_rodamrix,,The fish: wat you looking at?,5-3-2022,0
277,noob,noob09hi,,squidward he's going like God why me,12-2-2022,0
278,Sylvia Chai570,sylviachai1,,SpongeBob SquarePants😁,18-2-2022,0
279,NaidaMilan,naidamilan0314,,wow,24-3-2022,0
280,EssayWritingService2,essaywritingservice2,,Essay writing service. link in profile. 😎😎😎,3-5-2021,0
281,Adan Lefour,adan_17_05,,il a le meme nez que prince😂😂,22-3-2021,1
282,salislacker.No1!!!!,fuck_off_bro4,,his literally squidward,11-4-2021,0
283,kaden,krazyykaden,,He looks depressed,12-4-2021,0
284,Rblx acc,xiiirobloxiiixx,,Squidward: 😀 👁👄👁😡 n.o,11-4-2021,0
285,You mad?,personofculture8,,He hates his job,4-4-2021,0
286,user9825937491524,ameliaj.xx,,@efreyacx wtf😂😂😂,25-3-2021,0
287,Ashmina,ash_mina06,,@_06h06 d quand on est gênant mais lui c’est pire 😂,23-3-2021,0
288,la bande de BG 💪🔥❤️,el_juve56,,😂😂😂 n'importe quoi,23-3-2021,0
289,User,user4245691399449,,He’s like ahh shit here we go again,24-3-2021,1
290,kamil,kamil_rizky,,can you stop to dab to Squidward,25-6-2021,0
291,pitta,pittaxxs,,Its always ‘do a dab squidward’ but its never ‘how are you squidward’ 🥺,5-6-2021,0
292,Not_Uglime,theart.atyour_wind0w,,"Imagine how many Squidwards were told to ""Not DaB for ThE FaNs"" Squidward pain",11-4-2021,0
293,.,lilpaige_8,,Apparently the other squidward guy got fired for that😭,11-4-2021,0
294,Chris bromley-west,black_wolfy97,,that squidward has had hundreds of people dabbling at them,11-4-2021,0
295,2-inch Gru,bigbollocksfr,,Why’s no one talking about the fact she said “hey Patrick”,10-4-2021,0
296,Bakugo_✨,todo_ro.ki2,,he's not allowed to fuckin dab,9-4-2021,0
297,N,jam_n5,,"She lit just called him Patrick, no wonder why he didn’t wanna dab",4-4-2021,0
298,a,emholloway69,,behind that mask is a middle aged man regretting taking the office job.,4-4-2021,0
299,Jay,totally.notjay,,His nose be lookin real sus-,4-4-2021,0
300,𝔹𝕖𝕝𝕝𝕒𝕊𝕚𝕞𝕓𝕒𝕃𝕚𝕝𝕒𝕙,bella_simmy_delilah,,he is the squidwardiest of the squidwards,1-4-2021,0
301,RedRetaliation,redretaliation,,We should have enjoyed his original dab while it lasted,24-3-2021,0
302,fabio🎭,.fabio.zh,,Its fucking 2021,23-3-2021,0
303,Jay,jay_.0182,,someone asked if squidward could dab but one of the workers said he wasn't alloud to,22-3-2021,0
304,YourGayMum,yourgaymum1,,"Fun fact, he loses his job if he dabs.",22-3-2021,0
305,Drug Tito,kurac_na_bicikli8,,My fish drowned today😢can i get some respect😢,22-3-2021,0
306,KitKat❤️,katjaaa_04,,@nikiwe88,23-3-2021,2
307,Vicky,vicky.mlts,,@angi.scd @anxnexli,24-3-2021,2
308,Veronika',veronika.ihx,,@jassch05,23-3-2021,1
309,Johanna,01.jojo.10,,@sxskia.co,22-3-2021,1
310,Sahildeep Singh,sahilo_17,,@navdeep_361,22-3-2021,1
311,Helena🖤,nijehelenaa,,@gabrijelz,24-3-2021,1
312,obviouslee,user6942055513,,@wiebke_hhn,23-3-2021,1
313,josi🥀,josi.m.23,,@marc_austria,23-3-2021,1
314,Rutto,rukolour,,@rojda_er,23-3-2021,1
315,Misa,misa_cutie,,@jxst.cos,23-3-2021,1
316,😎 Dennis 😎,deekay2404,,@katha_epunkt,22-3-2021,1
317,𝙻𝚊𝚞𝚛𝚊 ⚡️,lauraxrtv,,@rosannaruthsatz,22-3-2021,1
318,☾.,michellesophiexo,,@baumwolle911,22-3-2021,1
319,<?>,swamp.s0ng,,@millster._,22-3-2021,1
320,Joe,thuemanwith0followers,,@itsreald0,24-3-2021,0
321,Chees,chee5e4,,@heinz_beans6969,23-3-2021,0
322,@Lea🤍☁️,lea_ofzll_1602_,,@cxlled.jele,23-3-2021,0
323,Ur mom,dummkopf_2,,@weeb__art27 @wolke667 @kupplung_1,22-3-2021,0
324,𝓜𝓲𝓵𝓮𝓷𝓪,milena.520,,@roblox_suchti_230,24-3-2021,0
325,Sushi,its.official.tabea_15,,@achterbahnlove2882,23-3-2021,0
326,fabienne,langschwein,,@cx.gxral.cx,22-3-2021,0
327,ru$h1k,flying.fvc,,@nico_spielt_roblox2,22-3-2021,0
328,Lafollewsh,_diablautine_,,@_09h.04_ @maia_gallego @oceane.dryjer @laura.du_05 @magenta_peppa12,24-3-2021,3
329,Crumalailzerr,crumalail.13,,@touboutoubou,22-3-2021,1
330,jannik_24.10,jannik_24.10,,@maike.0911,22-3-2021,1
331,Alexa Francey𓆉,alexa.francey,,@www.sp0ng3b0b.c0m,22-3-2021,1
332,Fernanda TT Moraes,fernandattmoraes,,@laurentakamori,23-3-2021,1
333,dimitrap.,dimitrapx,,@ylagialhh,24-3-2021,1
334,🤞🏻🔥,.ingeborg..06,,@ana..luiza7,24-3-2021,2
335,_L0ura_,_l0ura_,,@salomertf15 @bd.lea,22-3-2021,2
336,ies,isisceelenx,,@geke.vdb @xhannedoelen @nikkivandenhurk,22-3-2021,2
337,𝙚𝙢𝙢𝙖,emmax.19,,@joelinloll,22-3-2021,2
338,Rick,rickjakobs,,@unholypotato @mrth9 @adrmnsx98,22-3-2021,2
339,..,bearmerboy15,,@rosiegyr @axellegth,23-3-2021,1
340,lengagne.marie,lengagne.marie,,@gravity1_kerbecs,23-3-2021,1
341,Magicarpe,lapedaleswag,,@soup_goes_in_a_booooowl,22-3-2021,1
342,🤓,ht...bxtch,,@random_thingxxzss,22-3-2021,1
343,nyncke,keeweeh,,@xjuultje5,22-3-2021,1
344,-,farzinxo,,@ar_rey,10-4-2021,1
345,Eline,eline_bmt,,@lizzysuisse,23-3-2021,1
346,𝓢𝓱𝓻𝓲𝔂𝓪𝓪𝓪♥︎,lowkeyy_shriya,,@armand4life,16-12-2021,1
347,alexh,allyh_x,,@raywalsh2,13-12-2021,1
348,Destiny,destinyxokundia,,@tyra_ann14,14-11-2021,1
349,anya kim,_.annie.k._,,@samdoesntgivehugs,15-4-2021,1
350,erin💋💋,erinsprivates,,@leahbisselll,12-4-2021,1
351,tktyler55,tktyler55,,@lexieeeeeeeeeeeeee,11-4-2021,1
352,cecilia,vqqoria,,@......erika,11-4-2021,1
353,Emo and broken💔,emo_jessica,,@giraffes_4_life,11-4-2021,1
354,LewisC,lewisco27,,@eharris4664,11-4-2021,1
355,chlo 🤍,chlo.x000,,@.leahsoot,4-4-2021,1
356,Alexander Hosker,alexanderhosker,,@ledwinb,3-4-2021,1
357,Jess,jessann59,,@roxannetaylor19,2-4-2021,1
358,Martha Lavery,mar.thalav,,@maeleelavery,25-3-2021,1
359,Katie,katiekates2,,@freya550022,25-3-2021,1
360,✨Savina✨,lillestjerne1.b,,@msulkis,25-3-2021,1
361,Becky xo,becky.dines,,@jsjs.15,24-3-2021,1
362,Inga,inga_inkster,,@merranmcculloch.eq,24-3-2021,1
363,emmasharples99620,emmasharples00,,@ellie.rickers,24-3-2021,1
364,Lili⚡️,itslilihajdu,,@megettemebedre,24-3-2021,1
365,iemss,iimann._,,@bluemoon_sel,24-3-2021,1
366,No request sorry :),nikitaasshitx,,@daphnegroen.x,24-3-2021,1
367,Saffron Evans,saffron.e2,,@polarbearblouik,24-3-2021,1
368,tylerjake2730,tylerjake27302,,@sandybee01,24-3-2021,1
369,craigyboy_2310,dacraigster23,,@mince_rafter @lauren_macleod33 @hannahnxx54 @isla06__,24-3-2021,1
370,Timon Hafner,hafnertimon,,@v_ng_21,24-3-2021,1
371,DarkGekko,al3xst.0,,@josh27x,23-3-2021,1
372,ZvDannae,zvdannae,,@pepita_desandia,23-3-2021,1
373,이바나 ♡,ivannaa.05,,@millicaq,22-3-2021,1
374,Joel,joel__non,,@joel.non,22-3-2021,1
375,frida.ssln,frida.ssln,,@jettelo07,22-3-2021,1
376,aya👍🏼,aya.csh,,@elsx_csh,22-3-2021,1
377,hanći,17hancii,,@lejlaforc,22-3-2021,1
378,Cassandra Ottaviano,cassandraottaviano,,@donya.unv,22-3-2021,1
379,🦋🤍,vannyy.xy,,@lockee030,22-3-2021,1
380,Carys Knapper,carys96x,,@emmybean2016,22-3-2021,1
381,Salutwasgeht,salutwasgeht,,@xannalena18x,22-3-2021,1
382,ena aka #1 lesserafim stan,losergyu1,,@mafia__lol,22-3-2021,1
383,Caxxlle,caxxllee,,@florinedpt,22-3-2021,1
384,Tehbryan,tehbryyan_,,@saracarra20,22-3-2021,1
385,Nelly Kolarova,nelllinka19,,@karoliinkkaaa,22-3-2021,1
386,💫,thecreaturenextdoor,,@aleynasaurus,22-3-2021,1
387,user17363627272652,user17373626414125,,@sandramoralesrubio,22-3-2021,1
388,hmm,unterhosenphilosophie,,@cloud....vibezz,22-3-2021,1
389,𝓛,lx.6a.56,,@coolestperson__ever,22-3-2021,1
390,𝐴𝑙𝑖𝑠𝑎⚜️,aalli.ssaaa,,@annenym__,22-3-2021,1
391,berryaaliyah07,aaliyah.b.07,,@jenn.b88,18-10-2021,2
392,justju,justju,,@erolf_,22-3-2021,2
393,<3,evanpetersrealwifeong,,@gracesayegh,28-2-2022,1
394,kt <3,kt.634,,@kaceyxains._ @itzjessx22 @x_kxls_x,11-4-2021,1
395,𝚊𝚖𝚢,xamymundayx,,@pxppy.xxxx,11-4-2021,1
396,<3,uhh.phoebepriv,,@xislaharrisonx,24-3-2021,1
397,Emma Walker🤍,emma.jwalker,,@julia.xo17,24-3-2021,1
398,Dillyana ఌ︎,dillyana_koning,,@melissa_vld,24-3-2021,1
399,Sofia,sursua,,@doobyharwood,24-3-2021,1
400,charisia dekker,charisiadekker,,@evitavanramshorst,24-3-2021,1
401,☾,xskt123,,@.vanessa.vanessa,24-3-2021,1
402,❤️,chloe_lmvre,,@calielmvre,23-3-2021,1
403,Luquesito :D,santilq26,,@pauu_campos,23-3-2021,1
404,TATY,tatyssssz,,@billysaurio_3,22-3-2021,1
405,Kiara Hermann,kihersan88,,@soy_fercho,22-3-2021,1
406,Regi,olasoyregi,,@martell034,22-3-2021,1
407,Roue Libre,julie.rdle_,,@nolwenn.1129,22-3-2021,1
408,GabrielFelix,gabriel_felix_a,,@debiasi.sofia,22-3-2021,1
409,Ella,ella.schuer,,@luk_as1325,23-3-2021,1
410,antonia,niashh,,@daniiyo,23-3-2021,0
411,Ava,_ava_ngl,,@_bts_bt21__,7-5-2021,0
412,❤️,tamaaaara._,,@piineloopii_,24-3-2021,0
413,polar,buckleypride,,@rikakawaispartner,24-3-2021,0
414,Vicky,user2285116793,,@tim3.10,23-3-2021,0
415,Nunu,nunu.ngo,,@quyen.trn,22-3-2021,0
416,🥀,yashisswaggy,,@oli..36,11-4-2021,0
417,jak Rawding,jakrawding,,@emlou198,25-3-2021,0
418,Kate,kat3rinaa9,,@.ryuk.gf,24-3-2021,0
419,amaya,amaya.dajiri,,@l_i_l_l_i_e_,24-3-2021,0
420,izzy,izzyg.7,,@slagcapital,24-3-2021,0
421,naimad,_.naimad,,@ilp_mathijs,24-3-2021,0
422,Zoé Blondeaux,zoeydlp,,@inesblondeaux,23-3-2021,0
423,Wiktoria Lamot,_wiki__21,,@jennyy.42o,23-3-2021,0
424,user5565901286525,k1an_45,,@finnkok1,23-3-2021,0
425,user5565901286525,k1an_45,,@finnkok1,23-3-2021,0
426,Millyy,_milly_15,,@_thamiresss_,23-3-2021,0
427,MoonLady,isas_567,,@isabellasilva923,23-3-2021,0
428,Dante Douglas Verazani,dantedouglasveraz,,@karlasilva1992,22-3-2021,0
429,fraukehaesaerts,dylan.obriens.hot.wife,,@random_pink_pumpkin,22-3-2021,0
430,Melia,noacfamelia,,@n0tjey,22-3-2021,0
431,.........,nolosemanito_,,@anymzc_ @anyfreefire_,22-3-2021,0
432,Amandita🦋,amanditawtz,,@davizeira_yoshaaa,22-3-2021,0
433,♡♡♡,yolanthe.stanley.holland,,@0570_maud_,22-3-2021,0
434,Star/Estrella,_purpleberryyt_,,@wolfylunax,31-3-2022,0
435,Wolfofnightmare2,wolfofnightmare2,,@cosmic825,10-11-2021,0
436,☆𝐦𝐢𝐧𝐢𝐱𝐢𝐚𝐨☆,urmum3458._,,@epovq,21-8-2021,0
437,user3777115043516,pumpkinlover1368,,@yourfanficdealer,11-7-2021,0
438,Angelo Suni,saveusgelo222,,@bluebeewi,16-6-2021,0
439,billybnd,billybnd,,@uiqoq,16-5-2021,0
440,Kiki - prefer they/them -,..fluffyyoonie,,@joohoneynation,8-5-2021,0
441,Haley Carter,haleycarter2005,,@that1oddgirlsout,28-4-2021,0
442,Jodie devoir,xojodiexoxo,,@laurenrobson2003,12-4-2021,0
443,spam,cadhlaspamxo,,@hollywalsh87,11-4-2021,0
444,Rosie 🦋,rosiefarley,,@sasha.elise0,11-4-2021,0
445,Hi Stalkers!,shaunrogue,,@ivana191094,11-4-2021,0
446,The Star Wars geek,mrfroggwith2gs,,@cheezy_boi69,4-4-2021,0
447,Lauren Larder,lozzii13,,@danielfoley22,1-4-2021,0
448,shay,shayolololol,,@sp00kymia,1-4-2021,0
449,Holly Jade,holjade_xo,,@winstaaa,31-3-2021,0
450,XelijahtiktokX,xelijahtiktokx,,@jayden11onthevibesss,26-3-2021,0
451,alex hudspith,alexhudspith,,@hannahchinnx,25-3-2021,0
452,:v,xdddddddddlol89,,@pattricia_32,25-3-2021,0
453,bethany04x,bethany04x0,,@carlarmstrong160,25-3-2021,0
454,Ayaan,careditz15,,@mohammed65412,25-3-2021,0
455,Inka,inkaa.mariaa,,@ellen2146,24-3-2021,0
456,Leon10,leontine.swennen,,@tom.hzen,24-3-2021,0
457,Caley,caalleeyyy,,@kerry_hunter23,24-3-2021,0
458,lotsku,heheheheyolo,,@shrektheratttt,24-3-2021,0
459,Shalini,shalini4000,,@m3dine_12,24-3-2021,0
460,💗,xlizzyws,,@simoon.brnnr,24-3-2021,0
461,★☆☆☆☆ ★,il0v3me4life,,@_._._.shut.up.bish._._._,24-3-2021,0
462,•EleanorUnthank🤍,e.unthankk_,,@xx.vivienne.spamm.xx,24-3-2021,0
463,Isa,isabellaxvld,,@ambieeeeex,24-3-2021,0
464,panagiota,panagiota__giannopoulou,,@lipopoulou,24-3-2021,0
465,David,david625p,,@daniella._.05 @mulle.is.a.rat,24-3-2021,0
466,♡🥀♡,_.aretou._,,@vicky.ppp_,24-3-2021,0
467,♣️Kristóf♣️,20_kristof_20,,@byu_2008,24-3-2021,0
468,Lukiss_hz,zmrdecek_,,@caujakjevole,24-3-2021,0
469,Emely🐒,picapollopumchacalaca,,@.pabloedits,24-3-2021,0
470,2sEven,2_stroke_even,,@lenn.scoot,24-3-2021,0
471,basil/finch,flowercrownsforbasil,,@z0mb1e.bunbunny,24-3-2021,0
472,Kittros,kittros,,@fortnite.xroblox @martin_yeetus,23-3-2021,0
473,Amina,feekavaid,,@selma.of,23-3-2021,0
474,moni,monaschpe,,@_babseey_,23-3-2021,0
475,🤌🏼🤌🏼,lucas_pana7390,,@salma_rhi,23-3-2021,0
476,Dennis,dennis_jup,,@pecman361_,23-3-2021,0
477,Huppati🙌,xwendytje_,,@_bbboo,23-3-2021,0
478,Edwin Velasco,edwinvelasco19,,I wonder if that’s the same one from the original,13-1-2021,10
479,Ezequiel Contreras,doomed639,,He looks like he’s thinking about his life choices,13-1-2021,10
480,Eatin,threebar_86,,Honestly worth getting fired for,13-1-2021,10
481,Kagamine Len fanpage,loserfue,,@i11umizoldyck,13-1-2021,10
482,sayjesser lol,sayjesser,,@kryomiii,13-1-2021,10
483,Giselle,giselle_christ,,@jo.__f @cool.qiwi.k @tuna_bae @milenasexy0,13-1-2021,10
484,I like your mom,chinowsst,,"""OHHHH BROTHER""""",13-1-2021,10
485,thearmyofdeath_1,nerob_72,,@chetramarjoon @tricksterkingyt,13-1-2021,10
486,Kait 🔮,kait16xo,,That poor actor probably gets asked so often that he probably contemplated quitting three times in this tiktok alone 😂,13-1-2021,10
487,Cuicsss,360_cuica7,,@lazy4267,13-1-2021,10
488,kaylee,kayleecorbinn,,@ash.corbin,13-1-2021,10
489,ur fav person 🫶,oliwiaisthebest_123,,Squidward is one of a ✨ kind ✨,13-1-2021,10
490,heartless_.dede,heartless_.dede,,@baddie_le,13-1-2021,10
491,nana,thestunnaaa,,@2swagforyouu,13-1-2021,10
492,Marillia,marillia.matuz,,@g.johnston11,13-1-2021,10
493,DaBrasillianKid,dabrasilliankid,,"“Hey Patrick, dab” 💀 💀",13-1-2021,10
494,Rafael🐢,iliketurtles101012,,He just gave you the sas 😂,13-1-2021,10
495,Conar 😩🥴,con.gg,,😳😳,13-1-2021,10
496,Kim Snyder-Lesher,piper34673,,squidward ....squidward.....,13-1-2021,10
497,what does this do?,ichibankasuga,,@koreanjesus01,13-1-2021,10
498,Nunya,the_main_anonymous,,@thedeadgirlswerehere,13-1-2021,10
499,Yours truly,mr._joestar,,He actually will get fired if he dabs but I hope one day he say fu$! This and does all memes at once,13-1-2021,10
500,Eve_Gracexx,eve_gracexx,,I did this last year in universal Florida ( we got it ),13-1-2021,10
501,"Your here, follow me plz😀",debbi_flowergirl,,So we aint bout to talk about that lik wet spot he has😂,13-1-2021,10
502,.,dlawsoswald,,That one squidward mascot got fired from dabbing bro,13-1-2021,10
503,♕Nori,snacthatsmilesbacc,,I think he can’t 😭last one got fired i think,13-1-2021,10
504,Lucas is ugly😳,.lucas_isntcool,,"@weebeditzuwu he said ""-faak i don't get paid enough for this""",13-1-2021,10
505,kane enthusiast <3,kisskaeya,,@jamaishu @shigarakismikubinder,13-1-2021,10
506,VictoriaPita127,victoriapita627,,Lol😂,13-1-2021,10
507,VictoriaPita127,victoriapita627,,Hahahah,13-1-2021,10
508,ur mom.,wtf.man3,,@_w.illiee,13-1-2021,10
509,Mexican Obama,poofart093,,make him nae nae,13-1-2021,10
510,Nate/Christy,natechristy3,,@gmonkey33 we running this,13-1-2021,10
511,🐚 ☮︎︎ ᴇᴍᴍᴀ ☮︎︎🐚,bring_back_vsco_21,,"⚠️ATTENTION⚠️SINCE NOW AMD DURING SUMMER 2021, WE WILL BE DOING SUMMER 2019 TRENDS- COPY THIS ON EVERY VID TO BRING BACK OLD TIKTOK",13-1-2021,10
512,Anna,heyitsbananas,,@brookehelena,13-1-2021,10
513,✨Shaston✨,charmander_is_flamin_hot,,@pr3tty._babyy.sadie,13-1-2021,10
514,I'll still read dms and stuff,willowshusband,,@notgooberr 😂😂😂,13-1-2021,10
515,FúñtìmēFrèddy,funtimefredbo1,,the dab is old,13-1-2021,10
516,Paige,paigec96,,@laurencolligan @lucycolligan3,13-1-2021,10
517,Chel ✨,chelm84,,@penutbuttern @jacqueflower,13-1-2021,10
518,Sammy_kay,samisacrybaby,,@aautumnn.s,13-1-2021,10
519,❤️zoe and kayah,zoe.kayahfp,,Try to get him to throw it back,13-1-2021,10
520,Jayce Cashdollar,jayce_cashdollar711,,Are you in the cabana bay hotel rn I’m at universal,13-1-2021,10
521,Zack MacNeill,zackmacneill97,,"My man’s like, I like my job😂😂😂",13-1-2021,10
522,face reveal at 300,drawingfamous_people14,,lol I wish I was there,13-1-2021,10
523,🌺Alexandra🌺,alexduchesne5,,@maggie_roy 😂😂😂😂😂😂😂😂😂😂😂,13-1-2021,10
524,Abby✌️,_abbyhowell_,,@brookestewartttt,13-1-2021,10
525,mia preteroti,miapretts,,@omf.anna omg look mr natale is in this video behind squidward,13-1-2021,10
526,Mia,_m.iaaaa_,,@josellyn3,13-1-2021,10
527,giooles,kinggiooles,,"😀
🧥
👖
His name is Buddy he is 0 years old at each like he takes 1 year ,he never dies",13-1-2021,10
528,✨ Zack ✨,mikehuntk,,@spencer_blakee,13-1-2021,10
529,𝙷𝚊𝚗𝚗𝚊𝚑,_http._hannah,,mans was questioning his whole career,13-1-2021,10
530,ੈ✩‧₊˚ ༘,yuanaspaceworld,,That’s me 😂,13-1-2021,10
531,Jaidyn:Foster ⚾️,foster_16,,@hferron111,13-1-2021,10
532,uhm hi,sam._.id30t,,He was thinking well looking up😂,13-1-2021,10
533,Ayo schlababy?,schlababy,,The meme one got fired that’s probably why,13-1-2021,10
534,Kunal Viswanathan,kunalviswanathan,,SWUIDWARD AINT NO SIMP,13-1-2021,10
535,Ariana!,arianakendrex_backup,,@raegan6980,13-1-2021,10
536,reginasep025,reginasep7,,@georginaesparzas @nico0976 yo en la vida,13-1-2021,10
537,✌️ hi,_cherryblossm_,,@cotton.candy.dream THE NOSE WIGGLED LIKE THE MOOSSE AHAHAHA,13-1-2021,10
538,Amarah Ann,am4r4h,,@jonahhadesty,13-1-2021,10
539,𝔍𝔢𝔯𝔬𝔫𝔦𝔪𝔵,nogg.22,,Dab in the 2021 😅😅,15-1-2021,10
540,Firevsice_people,fireside_people,,@.dax._,13-1-2021,10
541,addison,addi.greennn,,@sheluv_stixks it’s u,13-1-2021,10
542,_Sammy,_sammytt,,@reresqreere,13-1-2021,10
543,♥️,caca._lolol,,@bubblyy_cloud @.lilangel._,13-1-2021,10
544,Mason,masonnn.clark,,"imagine being the guy behind the suit, getting paid to be passive aggressive at people",13-1-2021,10
545,angie,_angie.213,,@vayalll,13-1-2021,10
546,God,angryeldritch,,he only does it for black people,13-1-2021,10
547,Get a life,valeria.anelis,,Was I the only one that noticed that she called him Patric 🦧,13-1-2021,10
548,stop stalking my page 😭😭,cantfwnic,,@midoriyathebean,13-1-2021,10
549,Tim Pillon,timp1225,,not very based of squidward,13-1-2021,10
550,Jayjay,jaylenperez2011,,His nose kinda looks like a :😳,13-1-2021,10
551,Pacific_Rim_Nerd,pacific_rim_nerd,,tell him that u will give him the secret formula if he does it,13-1-2021,10
552,urlocaldumbblonde,emmaplamondon180,,@claira._.may.180 smexccc,13-1-2021,10
553,madii 💕.,kw.mxdii,,@swag4ever420691 🦭🦭,13-1-2021,10
554,Olivia,olivia.yarechewski,,@scarlet0716 dab for me,12-1-2021,10
555,deez,userp8fehoukhv,,That’s me in life,12-1-2021,10
556,Isaac Valdez,isaacvaldez6,,he said always the same quistion,12-1-2021,10
557,finn parker ✨ BLM,finndameron,,The employee inside of squidward: motherrrrrfuckerrrr,12-1-2021,10
558,Chairface Chippendale,mrchairfacechippendale,,"I've seen so many of these videos now, and the people playing Squidward fucking kill it haha. Squidward will never cave!",13-1-2021,10
559,Kings&BP,kingsandbp,,*contemplates life*,12-1-2021,10
560,SarmientoJ,sarmiento.john,,@trinicx7 @lupef167,13-1-2021,10
561,Tina Celentano,teeners78,,Squidward knows he'll be in deep sh$t if he does,12-1-2021,10
562,Waffle,waffle_man12,,"he like ""ugh this shit again? get a life guys""",12-1-2021,10
563,☆,i.wanna_be.yours._,,You have to be dead to be a legend,12-1-2021,10
564,Foster kids,biankafoster23,,@strongmansleptz,12-1-2021,10
565,kelly,imkellyshi,,@summerr.leee,12-1-2021,10
566,SlickLisp,slicklisp,,squirdward is regretting his life now,13-1-2021,10
567,🌲,scwearpy,,he realized that its cringe to dab in 2021,12-1-2021,10
568,Jerry,master_baiter3,,He had flash backs,12-1-2021,10
569,Madison🖤,madiiivibes,,@kennamaee,12-1-2021,10
570,💙,belike.j,,He can’t see that’s why,12-1-2021,10
571,Christian Mathis,i_.missed._the.point,,He remembers the mistake he made 😂,12-1-2021,10
572,possibly alive person,7thwindow,,"squidward just like: ""not this again""",12-1-2021,10
573,Clyde😎,.clyde01,,@crustythedragon,12-1-2021,10
574,litz,leecheetea,,@xobella.04 @allisonsanchez757,12-1-2021,10
575,Sonic,sonicthehedgehog476,,Squidward getting real tired of your shit,12-1-2021,10
576,lilly⛓,lils.lost,,@exclusive.ems,12-1-2021,10
577,Gabe👽,lazytopost,,He was like Whyyyyyyyyy it’s the 100th time today,12-1-2021,10
578,ruben19,littlebeaver1904,,How the nose wiggled😂,12-1-2021,10
579,EEEELLLIII,thatkideli,,@niveakhondaker,12-1-2021,10
580,Cleanpotato,cleanpotato69,,he's so sick of that meme lmfao,12-1-2021,10
581,brookealfredson,n0tbrooke,,his noggin is giving me tyrophobia,12-1-2021,10
582,mani 𖤐,cigarettesaftersexenjoyr,,@yuqi100 @david20dr @itznaslol 😂😂,12-1-2021,10
583,✨Mârż✨,marz..__..gameplayz,,"He really said ""ugh this bitch""",12-1-2021,10
584,kam :D,faemania,,@megamind69666,12-1-2021,10
585,🫶🏼,luv9ianna,,@cbearzz @katz_559,12-1-2021,10
586,Robbie Robertson,guncleroro96,,😂😂😂😂😂 But when he shook his head I started laughing,12-1-2021,10
587,lilly g,lllygrc,,@peyton_h05 @kcassels817,12-1-2021,10
588,Laugheryz,laugheryz,,Squidward mega pissed,12-1-2021,10
589,Aldo,aldo5274,,Squidward ain't no simp 😤,12-1-2021,10
590,Joshua Docker Womack,joshdwomack,,@carolinejeranek,13-1-2021,10
591,😁,violinced,,Aww squidwards face looks so cute,12-1-2021,10
592,Mal🫶🏼,missionary..mal,,Is it just me or did I hear someone say Patrick 💀👩🏼‍🦽💨,12-1-2021,10
593,sofiacrew,sofiacrew,,He did this to me too,12-1-2021,10
594,Karleigh,catastrophia21,,The way he was doing the Grinch stance before he went “Ughhhhhhhhhhhhhhhh”,12-1-2021,10
595,ㅤ,areospray,,@galaxygirl2160,12-1-2021,10
596,karol,drakesgirlfriend6,,@just._.doit._.mateo,12-1-2021,10
597,Ellis🪐,bombahdear,,Squipward...,12-1-2021,10
598,tariq_7013,tariq_7013,,ماكو عرب بالطيارة 😅😂😅😂,14-1-2021,10
599,Erin Rose Young,erinxxyoung,,@macayresisbae,12-1-2021,10
600,ggbeheh,ggbeheh,,He’s definitely done it 1000 times already,12-1-2021,10
601,mac 🌻🥀,ur_dumb.bitch.mac,,@bigbadwolfpsycho,13-1-2021,10
602,.,kihiek,,@im.hinatas.wannabe,12-1-2021,10
603,Juju,.ilove.mygf,,He is like an other day an other migraine,12-1-2021,10
604,mm lenny,gakupoop,,BAHAHAHA @inosukeisbetterthanyou,12-1-2021,10
605,Soph,sophkov17,,@michal_lustig_,12-1-2021,10
606,Zak,zachariahjjames,,@poisonouslittleviperz this is genuinely my dream job,13-1-2021,10
607,Mrpresincat53,mrpresincat53,,@finkamyjagor @reeces_puffs06 @shronkrave @destr0yer247,12-1-2021,10
608,user039753,mrincredible672,,459,12-1-2021,10
609,💓Mia and Juliana💓,miaandjules18,,@sydneyjanegomes,13-1-2021,10
610,Xeno69,notxeno69,,Had to get the right angle first,13-1-2021,10
611,ⁱ ᶠᵒˡˡᵒʷ ᵇᵃᶜᵏಠ_ಠ,knooght,,imagine If it's the same guy from the meme.... Is it?,13-1-2021,10
612,Tina,lcvefclls,,@kieri7,12-1-2021,10
613,Arshia,arshia_mazaheri,,It’s obvious that he’s had it 💀😭,12-1-2021,10
614,Trailer Park Girl 🥃✨,trailerparkchrissy,,HES SO DONE LOL,13-1-2021,10
615,Bella,inkixio,,hes like “not this again”,12-1-2021,10
616,pj,justprkr,,You can tell he’s tired of that shit,12-1-2021,10
617,Josh Y🇰🇷🇰🇷,joshyoo777,,Last time I checked it was 2021,12-1-2021,10
618,<3,mxskys,,Is it me or did I hear Patrick 😂,12-1-2021,10
619,KitPlays,kitplays_,,He’s still at it.,12-1-2021,10
620,Delaney 🇺🇸,dlaneyrose2000,,@justwantanap me in a life crisis,13-1-2021,10
621,james,james.kelly,,When I was at universal I got him to hit the woah and do the whip nae nae,12-1-2021,10
622,Mystery_of_wallows,mystery_of_wallows,,@class.rep,12-1-2021,10
623,Kiibo/cheeze,kiiboards,,They get Fired if you try to make them dab,12-1-2021,10
624,Markadrien✌,yk_mark,,@anonymous_hackr @gina8421,13-1-2021,9
625,Joshua Lara,joshua_lara101,,Bruh Leave Squidward Alone 🤨,13-1-2021,9
626,Ur mom,hillbong,,The original squid ward that did it lost his job bc of it. I wouldn’t do it either lol,13-1-2021,9
627,☂️Letò🐧,penguin_effect,,@neuronosaurous,13-1-2021,9
628,Cassandra3216,cassandra3216,,@fedupfingers,13-1-2021,9
629,⠀ ⠀ ⠀ ⠀ ⠀ ⠀,disco_chomper_8,,his nose got me,13-1-2021,9
630,Kory,xsomberz,,He just does the griddy instead imagine,13-1-2021,9
631,Makuza,makuzaaa,,This was even better,13-1-2021,9
632,♡,kutpinda00,,"Didn’t the last one get fired for doing- it idk if this is true,",14-1-2021,9
633,✨🌟✨,tw1nklie,,leave this in 2020 please. begging.,13-1-2021,9
634,amy,iiiheartu2,,@jjaackiee “ My LeG “,13-1-2021,9
635,Renee🤨 (Natasha’s version),gotany_orangeslices,,What in the 2015,13-1-2021,9
636,Lake Whistler Beach House,lakewhistlerbeachhouse,,That is the most expressive no I have ever seen on an emotionless face.,13-1-2021,9
637,Mateusz169,_mati_snow_,,Eh też bym się załamał,13-1-2021,9
638,funny cow go brrr🐮🐮🐮,serpentstail,,@xox.dino_rawr.xox haha,13-1-2021,9
639,Nnhhh,nvmind23,,@saar716 ken je nog die filmpje van vroooegerr,13-1-2021,9
640,Grayson6968,nezzi6968,,🌮,12-1-2021,9
641,Aiden.Perry,aidenperry69,,He has ptsd 😂,13-1-2021,9
642,.,m_monkey_m,,😂,13-1-2021,9
643,Kai boi,kaiboiii1,,Same guy different year,13-1-2021,9
644,only changing it cause my mom,alecsis_jean,,@madyson.nicol,13-1-2021,9
645,miizcarla,miizcarla5,,This squiddy didn’t pass the vibe check,13-1-2021,9
646,Wil,wilvye,,@spontaneousalpaca,12-1-2021,9
647,hi,animeweeb406,,@addisonraelolcharliio code yxy-rnji-utb,12-1-2021,9
648,bye,cheesecake...1,,My respect for Squidward: 📈📈📈📈📈📈📈📈📈,12-1-2021,9
649,Jake,jake.the.great.222,,The reason why he didn't do it because there not allowed to do it anymore,12-1-2021,9
650,Madi,madireamer,,so we all hear?,13-1-2021,9
651,Gail😫 roblox: XxKathtineX,nezuk0ss,,THE NOSE IT JIGGLED@bakugous_right_arm01,13-1-2021,9
652,ama,ayurrama,,@sukiitlz JE L’AIME,13-1-2021,9
653,<3,sebxangel,,he did not dap because his nose will fall off,13-1-2021,9
654,_madisonmiller14,madison.miller.14,,@hanhanleete,13-1-2021,9
655,melody <3,melody.kuzminskiy,,@hallilopez @your.daily.dose.of.miles @josie.elise.18,12-1-2021,9
656,ZA`MARIAE HUNTER,yoboi._zamariae,,that man like omfggggggggg lord please tell me she did not just ase to dab,13-1-2021,9
657,So um hi,helloitsmaura56,,He really said ✨No✨,13-1-2021,9
658,Tamorion,allout.t,,Hi,14-1-2021,9
659,◡̈,_n.o.h.e.m.i_,,"He really looked up and asked “why god, why me?” 😭😭😭",12-1-2021,9
660,CJ,boomernamedbill,,"He was saying, ""OH LORD YOU TESTING ME""",13-1-2021,9
661,seabass,bashhatch,,ugh I just left there universal.. wanna go back soon,13-1-2021,9
662,Typing…,shira_al0n,,@efrat12343 העבודה הזאת מתאימה לי,13-1-2021,9
663,_,jumpsuitedmonster,,@tokoffukawa PLEASE,13-1-2021,9
664,Tik Toker,lokid101,,Respect,13-1-2021,9
665,cadee04,uh.cadee_,,@drfartknocker,13-1-2021,9
666,valeri,totallynotvaleri,,@priscilaisdeadinside,13-1-2021,9
667,Tyler Seaver,hcthorkar,,@karajordan7,13-1-2021,9
668,Smokey the bear,smoky_says_hello,,Yash he did not dab,15-1-2021,9
669,Shrek's diarrhea,shreks.shit_,,@yvete_love,13-1-2021,9
670,Braden Griffin,braden.griffin_,,@piano_gavin,13-1-2021,9
671,nonsens,ofskkdn,,@tsush.i @brak.tu.zycia @an1aa_ @youresoamazingtoday,13-1-2021,9
672,Daniel Miranda,danielmiranda26,,Be careful he might turn into the crepypasta squidward instead,13-1-2021,9
673,XXAJXX123,ajlovesharpoons,,@j.aquy03,12-1-2021,9
674,F r o g s 💕,froggieb_,,He really said why in the lord,13-1-2021,9
675,🏮卂卄几丨卄爪乇卄 🏮,ahnihmeh,,Imagine putting the Tokyo ghoul op when he tilt his head back 😂😂😂😂,12-1-2021,9
676,Ava,aavamcconnell,,@kiaraquachh,12-1-2021,9
677,Naty,...natalia_,,@million.dollar._puthay he's done with life 😔🔫,13-1-2021,9
678,crystal,crystal6340,,@savannah_198550,13-1-2021,9
679,Jamal,anotherfatherlesschild28,,He was like I don’t get paid enough for this shit,13-1-2021,9
680,osnapitz reign,dreampatoli,,he said girl it's 2021 😂,13-1-2021,9
681,Jey,gqjey,,@lcve.ily,12-1-2021,9
682,user4144563852850,hsimon,,You should’ve said dab if you dislike spongebob,13-1-2021,9
683,fabiola🥷🏽,issalexiaaaaa,,@teo._.23 @vane_.sa @amaliiia_27 @taniabudian5,13-1-2021,9
684,Ashley seale,that_girlbella0,,this is in universal @doggirl835 @im.alexis.lol,13-1-2021,9
685,daniel,dangofandango,,The way his nose wiggles 😳😏,12-1-2021,9
686,Astro Axis69,jonathan_luera,,Disney characters arent allowed to dab because dabbing is reffered to as a drug so yeah,12-1-2021,9
687,That’s the joke 😑,thatsthejoke,,I wanna know who’s behind that mask 😂😭,13-1-2021,9
688,I eat 🌭,jesiah_n,,The squidward got fired in front of me because I asked him to do the woah,13-1-2021,9
689,lesly,buvvgg,,@shigarakisluv didn’t the one that dabbed loose his job because it got popular?,13-1-2021,9
690,Nagatoro,senpapimooniepop,,"he said
✨no hunny✨",13-1-2021,9
691,Tali,taliboypolyboy,,Wow 🤦🏽‍♂️didn’t even do it for the culture,13-1-2021,9
692,Sofi,sosofi_sau,,@impotate,12-1-2021,9
693,Uh,protupozarniaparat,,He really said: why me? Not again,13-1-2021,9
694,Erick,ericksnotsus,,His face doesn’t move but you can tell he fed up,13-1-2021,9
695,raph 💀 died,not.okayy.raph,,‘Not this again’,13-1-2021,9
696,I lost the 50/50,deeznutzz001,,@your...l0cal.d1mw1t @julia.is.my.qt 😏,12-1-2021,9
697,Srishti,skierswimmer742,,@vasenna.vanessa,13-1-2021,9
698,Hugh Mungus,big_boy_requis0,,I think it’s like 5 years late 😂,13-1-2021,9
699,Jodainrocks,jodainrocks,,@bakugou_katsuki_sister LMFAO,13-1-2021,9
700,mhodges2005,mhodges2005,,@williamgergely,13-1-2021,9
701,jack,jack.alvar09,,@alexis.bruv,12-1-2021,9
702,i frew up,.c0ff_e,,@frosty_datfennec. the disappointment in his eyes,13-1-2021,9
703,[inset edgy nickname here],tweeksimp69,,@mousela @twoja.mamka pamiętacie tą legendarną gre?,13-1-2021,9
704,The Adkins Family,theadkins,,😂😂,13-1-2021,9
705,Aidan Williams816,user7385806222963,,"He really said ""not againn""",13-1-2021,9
706,Sam,sammi_lepore22,,@emmie.xo.xo the little nose shake,12-1-2021,9
707,Cassandra Letrice,cassandraletrice,,Squidward says no to everything,13-1-2021,9
708,WHAT'S KURWA PAPYN,whats_kurwa_papyn_,,it's fucking 2021 🤦‍♂️,13-1-2021,9
709,Lauren,whoslonk,,@butterlily1218 @rachbrandt I LOVE THIS,13-1-2021,9
710,Viola,thequeenviola,,@mxna_122 @_sude67 @duzigeuner1 @_marie.ch_ @mon_2220,13-1-2021,9
711,charlottebxa,charlottebxa,,@lol.im.boredd,13-1-2021,9
712,Nathaniel Velasquez,heyitsyourboinathan,,"""mission failed, we'll get em next time""",13-1-2021,9
713,Lilly,lillzens,,@jens.ko @jsmnv,13-1-2021,9
714,Yessica,yessicasr_,,why do I go to school if I wanna do this as job🤡🤡,13-1-2021,9
715,JakeE,jakeee192,,I’m just laughing so hard 😂,13-1-2021,9
716,.,lotta.wws,,"□ single
□ taken
☑ sad bc nobody sees my videos, a big or little spam would make my day!🥺💗💕",13-1-2021,9
717,patrick,patrick_meny,,i think that one viral video with squidward dabbing got the guy in the costume fired. this guy’s probably making sure same thing doesn’t happen to him,12-1-2021,9
718,user7730885459712,burritoderojow,,@dannavbv @andresm.97,13-1-2021,9
719,Julie,jeueli,,@uqba_akhtar27 @iqra_ak6,13-1-2021,9
720,Petar,jesusvonwpt,,@anini04 @1805aza @cancinar21,13-1-2021,9
721,alice,__alice13,,@ktam888,12-1-2021,9
722,Good,duplex2656,,Fortnite📝📝📝📝📝📝,13-1-2021,9
723,daisy,daisyseiglerr,,@sadie1hetzler pls,13-1-2021,9
724,<3,_simp4kiana,,@puddle.of.milk,13-1-2021,9
725,Jozsef kozma,jozsefcollects,,He’s seen the meme to many times,13-1-2021,9
726,jodie<3,jodiedalzell,,@_annagillespiex,13-1-2021,9
727,liljayden,littlejayden_1738,,@al.ondra_2307 😂😂😂,13-1-2021,9
728,pisses pants,4ng3licandies,,mans was rethinking his life decisions 😃,13-1-2021,9
729,Jewels,alexquack.ity,,"He’s like “ lord have mercy, I’m boutta bussttt”",12-1-2021,9
730,□ single□ taken☑ G U N D A M,jb_xom,,the power he holds,13-1-2021,9
731,sta te briga,andrijanno,,the man in the back,13-1-2021,9
