,Comment Number (ID),Nickname,User @,Comment Text,Time,Likes
1,Oddflamingguy,oddflamingguy,,Polls exist on tiktok for a reason😑,14-2-2021,45
2,am big kool *poses coolfully*,_teedoh_,,What’s this game called?,14-2-2021,6
3,Yahya Shamaelh,shamaelh,,Please somebody tell me the name of the game,4-3-2021,5
4,Kevonaut,kevonaut7,,What's the name of this game,22-4-2021,2
5,The Big Idiot,kingofthe_idiots,,Legt,13-4-2021,4
6,jade.santiago.15,jade.santiago13,,left!,14-2-2021,6
7,Rezki rl9,rezki.rkl9,,straight,3-3-2021,3
8,🙂,orbitaldbl,,coryxkenshin played this only ogs know,25-2-2021,2
9,emma,sungreenie,,Left,17-2-2021,5
10,gertgans1999,gertgans1999,,Left,25-2-2021,1
11,Itzzorder,itzzorder,,What game is this?,15-2-2021,3
12,mikey,.mikey.c,,left,22-2-2021,1
13,Borys Owczarek,gaaten,,Stanlay parable is one of my favs game,12-5-2021,1
14,Jossy,jossy_idk_10,,Left,15-2-2021,2
15,no u 🖕,orfeas_hehe_boi,,amazing *,10-4-2021,1
16,Jesse,jessemahler1,,left,23-2-2021,1
17,Jolan_!,jolan_h_,,Left,13-4-2021,1
18,Anonymous Xl99,anonymousxl99,,Left,13-4-2021,1
19,Ibrahim,ibbybooesfoot,,Go,25-2-2021,1
20,X,xavier.and.her,,hi,26-2-2021,1
21,🐅who are you,_ishaktheking_,,z,12-4-2021,1
22,Yb,yayarenio,,H,14-4-2021,1
23,...,notconst,,E,23-2-2021,1
24,Awesome Possum,awesomepossum6,,Left!,22-2-2021,1
25,ELOC,tu_na06,,◀️◀️😁,15-2-2021,1
26,Dominic,domthelegoguy,,Left,15-2-2021,1
27,TEO🖤,dontlikeu530,,Left,13-4-2021,1
28,Publicproblem07,bigredblaze,,Yes,28-8-2021,0
29,NoahRMN,noahrmn,,Left,13-5-2021,0
30,Menno Riemens,zekernietmenno,,😳,13-5-2021,0
31,oh ok but...,wolfsucker,,left,12-5-2021,0
32,Zowail,zowail,,just put poll sticker,11-5-2021,0
33,Key,thekeyofkey,,*comment* '^',11-5-2021,0
34,Yoyo,yoyo_st,,left,10-5-2021,0
35,no u 🖕,orfeas_hehe_boi,,dont listen to the narrator u gonna i v got that ending its amezing,10-4-2021,1
36,Fabien,fabiekrabie_yt,,left,9-5-2021,0
37,ジェームズ,__noheartg,,yessir,9-5-2021,0
38,user3687346060934,te4e250707,,straight,7-5-2021,0
39,levana,levanavardzma,,straight,5-5-2021,0
40,Buusstaaa,eugenio_bustaa,,Right,4-5-2021,0
41,ps1_Hagrid,ps1_hagrid1,,yes,3-5-2021,0
42,🐅who are you,_ishaktheking_,,z,12-4-2021,1
43,🖤Ҩﾌ乇ㄥㄥ 卩卂Ҝ卂|ㄥ卂🖤,vzrse_,,jhhhjgi,2-5-2021,0
44,zemmel,zemmeltje158,,e,2-5-2021,0
45,God Usopp,god_d_usopp22,,Straight,29-4-2021,0
46,Familie Bluhm,leo01212006,,left,27-4-2021,0
47,krisito k,krisito2000000,,right xd,25-4-2021,0
48,Bryan_cat,bryan_cattt,,🌮95,24-4-2021,0
49,Stay tuned,staytuned0101,,gossip,22-4-2021,0
50,ShardCh,shard_ch,,left,21-4-2021,0
51,Peti,pishkiz,,Str8,21-4-2021,0
52,Oskar T,lokiec_murana,,Game name?,20-4-2021,0
53,ciel :),ilovemitski93,,left :),18-4-2021,0
54,Buddelexperte,budddelexperte,,LOL,15-4-2021,0
55,Akita,brasotinor,,Straight I guess,15-4-2021,0
56,Mikro,mikro4,,h,15-4-2021,0
57,Daddy Tate,mrplentyy,,Go left,15-4-2021,0
58,Lotta,lottaisbored,,left,15-4-2021,0
59,Mantzw_,mantzw_,,leftt,15-4-2021,0
60,🕴🏾Blurrybeomgyucult2🕴🏾,gyu_ynz,,the nostalgia i got from this🤌🏾,15-4-2021,0
61,Lucaspossi07,lucaspossi10,,lefttt,15-4-2021,0
62,user1907345674224,sesehan,,left,15-4-2021,0
63,🐅who are you,_ishaktheking_,,.,12-4-2021,1
64,Mees,bbhaarbf,,.,14-4-2021,0
65,Gabriel,gabriel_suqma,,straight,14-4-2021,0
66,0,rzuan_642_,,Left,14-4-2021,0
67,Eriguana,eriguana,,This is lowkey spooky,14-4-2021,0
68,Lukinater01,lukinater01,,left,14-4-2021,0
69,Rayan Dadah,rayandadah,,Left,14-4-2021,0
70,William Vd schoot,williamvdschoot,,😁,14-4-2021,0
71,Svennn,sven_vermulst2007,,Do it,14-4-2021,0
72,purple haze,higashikata__josuke_4,,left,14-4-2021,0
73,UMA_2007,uma.207,,Up,14-4-2021,0
74,Julian Zakaria Achib,gingerpubes999,,b,14-4-2021,0
75,KEEEEEKSE,keks7fresser,,h,14-4-2021,0
76,water?!,zias_v,,Hbbh,14-4-2021,0
77,Cloud_of _Cookies,cloud_of_cookies,,Left,14-4-2021,0
78,Tom ten Berge,tomtenberge,,Straight,14-4-2021,0
79,pines,huiwglaspidoras,,vh,14-4-2021,0
80,Dead,deadly251,,left,14-4-2021,0
81,lilparas,lilparas,,Left,14-4-2021,0
82,Sang.Truong,primetimewithme,,J,14-4-2021,0
83,🐅who are you,_ishaktheking_,,d,12-4-2021,1
84,Mathizyx,sugardxddyrawrlolxd,,E,14-4-2021,0
85,Wamenrespecta,wamenrespecta,,S,14-4-2021,0
86,elbow,bjinim,,leg,14-4-2021,0
87,Ensar Arifi,cali_boyyi,,O,14-4-2021,0
88,Vdieles,valentino7550,,O,14-4-2021,0
89,Vdieles,valentino7550,,Q,14-4-2021,0
90,Vdieles,valentino7550,,W,14-4-2021,0
91,Vdieles,valentino7550,,A,14-4-2021,0
92,Vdieles,valentino7550,,Z,14-4-2021,0
93,Vdieles,valentino7550,,X,14-4-2021,0
94,Vdieles,valentino7550,,D,14-4-2021,0
95,Vdieles,valentino7550,,A,14-4-2021,0
96,Vdieles,valentino7550,,E,14-4-2021,0
97,Vdieles,valentino7550,,R,14-4-2021,0
98,Vdieles,valentino7550,,T,14-4-2021,0
99,Vdieles,valentino7550,,F,14-4-2021,0
100,Max Brus941,max.brus,,Lefy,14-4-2021,0
101,Snoopio🚮,sheluvssnoop,,uiii,14-4-2021,0
102,Xwintoz gaming,xwintozgaming,,Left😂,14-4-2021,0
103,Myto64,myto64,,Left,14-4-2021,0
104,Mohammed Belfaqih,mohammedbelfaqih7,,Left,14-4-2021,0
105,Nutella,xxxspykexx,,left,14-4-2021,0
106,lucas,de_oude_man,,Do it,14-4-2021,0
107,luna.m2022,luna.mocivnik,,😁,14-4-2021,0
108,Justin.lukan,justin.lukan,,Left,14-4-2021,0
109,KSK SPARTAN,sig.spear.thumb,,hello,13-4-2021,0
110,poo,alex.svze,,left,13-4-2021,0
111,Teo,teo_arnt,,xdgv zas,13-4-2021,0
112,Hannah Weasley Granger,hanneharrypotter,,Hi,13-4-2021,0
113,Nojus Vaitonis,nojusvaitonis,,left,13-4-2021,0
114,🧊,louis.mael,,Left,13-4-2021,0
115,✨Ambrosius Atlas van der Lust✨,ambrosiuslovesjjba,,left,13-4-2021,0
116,RW,user1611222008,,lol,13-4-2021,0
117,Xavier Rodriguez,x4v13rod,,left,13-4-2021,0
118,@alex_forever,yolex2022,,left,13-4-2021,0
119,Moodymann,moodymannhimself,,bruh just make a poll it will be MUCH easier,13-4-2021,0
120,kitan banjoko,_k.e.e.z,,what game is this?,13-4-2021,0
121,𝗗𝗮𝗻𝗶𝗲𝗹𝘀,fxlln.uprising,,😂.,13-4-2021,0
122,user8734378296170,bluefish2004,,Left,13-4-2021,0
123,⠀ ⠀ ⠀ ⠀ ⠀ ⠀,caesarionnn,,Left,13-4-2021,0
124,user276534597395,555dokki,,left,13-4-2021,0
125,Memes just memes,sebkopter,,Left,13-4-2021,0
126,🥷🏼Marie🥷🏼,y0urfav_marie09,,Left,13-4-2021,0
127,Lipanek,lipanek_,,left,13-4-2021,0
128,vibingmidd1981,vibingmidd1981,,be a man dark room,13-4-2021,0
129,🐅who are you,_ishaktheking_,,",",12-4-2021,0
130,🐅who are you,_ishaktheking_,,s,12-4-2021,0
131,🐅who are you,_ishaktheking_,,z,12-4-2021,0
132,Neo Fanen-Acho,neofanenacho,,left,11-4-2021,0
133,This nuts,thisnuts34,,H,11-4-2021,0
134,gert jan bam,i_am_normal_,,left,11-4-2021,0
135,Ime Priimek,imepriimek5,,maw,11-4-2021,0
136,B.M. +RESPEKT,b.m.total,,S,10-4-2021,0
137,B.M. +RESPEKT,b.m.total,,H,10-4-2021,0
138,B.M. +RESPEKT,b.m.total,,U,10-4-2021,0
139,B.M. +RESPEKT,b.m.total,,T,10-4-2021,0
140,B.M. +RESPEKT,b.m.total,,U,10-4-2021,0
141,B.M. +RESPEKT,b.m.total,,P,10-4-2021,0
142,B.M. +RESPEKT,b.m.total,,B,10-4-2021,0
143,B.M. +RESPEKT,b.m.total,,I,10-4-2021,0
144,B.M. +RESPEKT,b.m.total,,T,10-4-2021,0
145,B.M. +RESPEKT,b.m.total,,H,10-4-2021,0
146,B.M. +RESPEKT,b.m.total,,C,10-4-2021,0
147,MIGGS,miggs_on_triggs,,Left,10-4-2021,0
148,TYLER CURRAN,tylercurran2008,,jhgy🥰,10-4-2021,0
149,like or youre gay,anime_fan70uwu,,left,10-4-2021,0
150,Matúš Slušný,jozefkys,,left,10-4-2021,0
151,westonwineberger,blue_dragon556677,,Straight,10-4-2021,0
152,Lol,lolilulal,,Y,9-4-2021,0
153,Lol,lolilulal,,H,9-4-2021,0
154,Lol,lolilulal,,J,9-4-2021,0
155,vesumgames,vesumgames,,left,9-4-2021,0
156,_,4_ghtre2o74kq,,left,9-4-2021,0
157,Achlalt,achlalt,,lefttttttt,9-4-2021,0
158,Sonila Qosja,sonilaqosja,,Left,8-4-2021,0
159,Franzi Jezek,crunchy676,,Left,7-4-2021,0
160,gabriel_ila_geno,gabriel_ila_geno,,who else watched markiplyer play this,6-4-2021,0
161,hey,hebgeenvideos,,left,5-4-2021,0
162,No,el_mansie69,,game name,5-4-2021,0
163,gareharry,gareharry,,what is this game,5-4-2021,0
164,Jonesy,njp2017,,Hey,5-4-2021,0
165,☭,7_7_7_20,,Eyo,4-4-2021,0
166,🇪🇸🇬🇧,oscar.beare,,D,3-4-2021,0
167,I eat babies,amubret,,@hi,1-4-2021,0
168,Check_my_bioo,go_checkmy_biooo,,Okayyyyy,31-3-2021,0
169,||•Caught in 3K•||📸🤨,hearts4them0_,,left,30-3-2021,0
170,MEME BOY 🤪,meme_poster3,,Left,28-3-2021,0
171,user109440,itzz_stijnv0s,,Left,27-3-2021,0
172,"HAHA, god I’m a loser🥲",ollie_millhouse,,Ignore the narrator,26-3-2021,0
173,ericpayne101,ericpayne101,,H,26-3-2021,0
174,hero Jack,zonilader,,left,24-3-2021,0
175,I love memes🙂,aggourinhs_,,left,24-3-2021,0
176,Baraa,elkaliouby,,.,24-3-2021,0
177,🎅🏿,badado88,,Gg,21-3-2021,0
178,Fire_reaper,fire_reaper1,,Left,21-3-2021,0
179,.,x5.775,,Left,20-3-2021,0
180,Hello,palestineball1,,Go straight,20-3-2021,0
181,yassomekkawi,yassomekkawi0,,Left,18-3-2021,0
182,ur mom,hamster1m1,,Straight😳😂,16-3-2021,0
183,Apple User975525200,weeb.boi123,,Let’s go left,9-3-2021,0
184,Rick,rickman388,,.,9-3-2021,0
185,RyanPcs,1ryan.pcs1,,😂,9-3-2021,0
186,user5134517726548,noob_slayer2010,,Left,7-3-2021,0
187,.,some_dude102,,Left,7-3-2021,0
188,Randoms,randoms889,,Left,7-3-2021,0
189,A D A M 🖤✨,adamm_allam15,,Left,7-3-2021,0
190,Arend Ari,arendari06,,Y,7-3-2021,0
191,My discord- Enchxnted#7989,enhxnted,,Left,7-3-2021,0
192,salmanch2468,0salman8,,Left,7-3-2021,0
193,MocKacHan,mocha_khoja,,straight,7-3-2021,0
194,MocKacHan,mocha_khoja,,yo,7-3-2021,0
195,4.4.0,pk_ioiname200,,.😬,6-3-2021,0
196,Paul Blart115,paulblartbtw,,ignore the narrator the whole time and the boys will get you 1 mil,6-3-2021,0
197,Hi,nothingjust._.ok,,Go left I want to see what is inside the dark room,5-3-2021,0
198,A_safar41,a_safar41,,Left,5-3-2021,0
199,Waled Elbasel,waledelbasel,,Left,4-3-2021,0
200,ᕙ(⇀‸↼‶)ᕗ,noahahah2030,,go left,4-3-2021,0
201,R.A506,r.a.506,,L,3-3-2021,0
202,🖤🤍Hey there 🤍🖤,bodyahmed2006,,Left,3-3-2021,0
203,😂,57600mx,,Left,3-3-2021,0
204,sap,lookinyourass,,straight,3-3-2021,0
205,Maya Katz,urfavshort,,left,2-3-2021,0
206,user8063989722528,yt_hisham,,E,1-3-2021,0
207,user273552147512,bassel_ali12,,Ee,28-2-2021,0
208,.🇵🇸❤️,.sl78,,G,27-2-2021,0
209,Alpha boy,._.roudzy._,,it is not a naraator hi is lucid dreaming,27-2-2021,0
210,Alpha boy,._.roudzy._,,and he is dreaming,27-2-2021,0
211,KSMKTM,ksmktm,,Left,27-2-2021,0
212,Arsha,arsha_hate_pickles,,left,27-2-2021,0
213,Shahad,gachastargirl2,,LEFFFFFFT,27-2-2021,0
214,Micheal Wilbur,dogwater.isbusin,,Straight!,27-2-2021,0
215,Filchan,filchan_,,both,27-2-2021,0
216,Nick,nick_p0sted0,,Right,26-2-2021,0
217,Serenity Lambert,serenitylambert2009,,Hahahahhaha,26-2-2021,0
218,Titled Sounds,titledsounds,,Left,26-2-2021,0
219,ren,renrenren_,,h,26-2-2021,0
220,JZH76,jzh761,,Whats the name of the game?,26-2-2021,0
221,Atlas,aispurple,,Commenting,26-2-2021,0
222,DEATHKING2077,deathking2077,,street,26-2-2021,0
223,Roopies1,sinbad2,,Left,26-2-2021,0
224,Okiradee,okiradee,,Left,26-2-2021,0
225,🚬enlivity🚬,_enlivity_,,straightt,26-2-2021,0
226,Pro ak man,proakman,,Left,26-2-2021,0
227,Gooiava Naknik,gooiavanaknik,,left,26-2-2021,0
228,Marques Green,clout._.dk._.suraimu,,left,26-2-2021,0
229,Al 😎,sylsucks27,,Straight,26-2-2021,0
230,the king,kartsonis,,j,26-2-2021,0
231,Banana kid 205,bananakid35,,Go left,26-2-2021,0
232,𝚄𝚌𝚑𝚒𝚑𝚊 𝙸𝚝𝚊𝚌𝚑𝚒あなた🥀,dylusion_is_ur_waifu,,Left,26-2-2021,0
233,user2912129935664,random_________1,,Left,26-2-2021,0
234,🌑Madara_Uchiha🔴,madara_u.chiha,,Left,26-2-2021,0
235,gazetteer dripy,gazette3r_,,warehouse house room,26-2-2021,0
236,yusuf Thaalby,yusufthaalby2,,j,26-2-2021,0
237,goga cahd or sum idk,thy.giga.chad,,REEEEE,26-2-2021,0
238,Caden Thompson,cadenthompson13,,left,26-2-2021,0
239,yumna al habarneh,yumna.habr,,Left😏,26-2-2021,0
240,Poo,muixx.x,,Straight,26-2-2021,0
241,Brandon Weber,brandonweber59,,left,26-2-2021,0
242,WAVXV,_obanai_lguro_,,left,26-2-2021,0
243,Nathanyle Summers,logan_hartman662,,go left,26-2-2021,0
244,user7959198183517,drydospike,,Ok,26-2-2021,0
245,⠀ ⠀ ⠀ ⠀ ⠀ ⠀,fisherman20191,,What game is it,26-2-2021,0
246,Grid Shabani,yaboydonk69,,straight,25-2-2021,0
247,Lightningvrfrd,domvr88,,Left,25-2-2021,0
248,O.C.Upchurch,o_12.upchurch,,noooooo,25-2-2021,0
249,sniper__gunn,sniper__gunn,,yall what game is this,25-2-2021,0
250,user8226026403446,kostaskalikakis,,Joe mama,25-2-2021,0
251,BTS,mariaganzolaz,,Well all the narrator this time,25-2-2021,0
252,jony be good,yehonatan_shemesh,,כ,25-2-2021,0
253,jony be good,yehonatan_shemesh,,פ,25-2-2021,0
254,your mom > your dad,shreks.ieft.nut,,h,25-2-2021,0
255,???,anonymousonbored,,I finished the game and its hella fun,25-2-2021,0
256,HikariKanako,hikarikanako,,straight warehouse,25-2-2021,0
257,tobywardcrew,tbone004,,.,25-2-2021,0
258,Kyle Campbell,kcampbell6511,,strate,25-2-2021,0
259,Tomura Shigaraki,official_izukumidoriya_4,,Left,25-2-2021,0
260,Isaac.10.w,iew120,,straight,25-2-2021,0
261,king Nate 👑 1031,kingman1031,,left,25-2-2021,0
262,Hawaiianroll69,hawaiianroll09,,H,25-2-2021,0
263,Moses Garza,mosesgarza3,,Hi,25-2-2021,0
264,Liffo0,liffo0,,Left,24-2-2021,0
265,Leo,leo_wer_0,,h,24-2-2021,0
266,Luke,xx_darkreaper_x,,WARNING!!😳 WARNING!!😳 JOIN... THE😏😁😌😅 ARA😍😳🤤 ARA😍😳🤤 ARMY👾😏😱 WE ARE WEEBS😨😨😨 AND WE STAND FOR ANIME😳😳😳 WIFUS😏😏😏 EBOMBAY,24-2-2021,0
267,Gab burd,gabburd,,uh,24-2-2021,0
268,A Teddy Bear,over_thinks,,I choose break the wall,24-2-2021,0
269,GoodOrBadEnergy,good_or_bad_energy,,...,24-2-2021,0
270,R1ley_b,r1ley_b,,Left,24-2-2021,0
271,Manky.D.sami,theworld_is_upsitedown,,F,24-2-2021,0
272,Hi,hxvv_77,,F,24-2-2021,0
273,user278440146052,vbbp_vr,,Mul,24-2-2021,0
274,Unknown,killzonexd669,,Go straight,24-2-2021,0
275,Tik Toker,yourtebicalanimeboy,,H,24-2-2021,0
276,Jordy Diaz178,jordydiaz71,,Left,23-2-2021,0
277,The angel born to edit,viperr0,,Left,23-2-2021,0
278,knoxbarlow,pug_op01,,Straight,23-2-2021,0
279,user3245181256404,elchappo68,,Go,23-2-2021,0
280,TRUMOO,iliketrumoo,,gggggoooooooooo,23-2-2021,0
281,Emir Begmyradov,emirbegmyradov,,go left,23-2-2021,0
282,DREW,lookdrew,,Left,23-2-2021,0
283,johnnyraybenavides5,johnny_559jb58,,hey,23-2-2021,0
284,ridley2009,ridley6812,,straight,23-2-2021,0
285,Eckman,leckman6,,Straight,23-2-2021,0
286,Tobyn Cope,tobyn_cope,,left,23-2-2021,0
287,Lucas Thompson,king_chopper02,,Join the hamster cult✝️✝️✝️✝️✝️✝️,23-2-2021,0
288,Lucas Thompson,king_chopper02,,Saw,23-2-2021,0
289,MindOfErik Gaming,the_sibling_skecher,,LEFT,23-2-2021,0
290,Saif Ahmed,saifahmed4943,,do ti,23-2-2021,0
291,Ethan Nooner,gabbys.boyfrienddd,,Left,23-2-2021,0
292,.monkey,immonkey70,,⚠️STOP THERE ⚠️‼️‼️SUPPORT THE HAMSTER CULT! CHANGE UR PFP TO MINE! 💕💕 WE SUPPORT GOD💖AND DONT BURN BIBLES✝️😳,23-2-2021,0
293,One,krustykraktea,,Njnnn,22-2-2021,0
294,Brennan Boughrum,ok_be_pull_up,,Left,22-2-2021,0
295,Jonathan Zacarias,jonathan_079,,Leftttttt,22-2-2021,0
296,brian tims,uchiha_tims,,left,22-2-2021,0
297,アホ/IDIOT,_oozaru__,,straight,22-2-2021,0
298,BasedAngelic,angelicdeathstar,,ok,22-2-2021,0
299,Tessa LaHay,damien20070,,G,22-2-2021,0
300,gage Bergquist,gage_is_here,,left,22-2-2021,0
301,Person,person4214,,Left,22-2-2021,0
302,Meme sauce,memespaghetti_,,S,22-2-2021,0
303,Jonathon Roberts,jonathonrobert3,,left,22-2-2021,0
304,user3251158474335,michelgott034,,llllleeeeeeefffffftttttttt,22-2-2021,0
305,Eva,official.eva.official,,fiffufyfjvuvu,22-2-2021,0
306,user3232389256235,theepaperball,,Left,22-2-2021,0
307,Alejandro,mr.bozo._,,Left,22-2-2021,0
308,Diesel,diesel750,,tech influx hidden,22-2-2021,0
309,Luckyflamingo (Spam account),luckyflamingovr2,,Yes,22-2-2021,0
310,kase,kase_hobson19,,straight,22-2-2021,0
311,Jordan Lambert,thepigeonlord.l,,do it bub,22-2-2021,0
312,noodle_hair_man69420,dominickrobinson3,,straittttttt,22-2-2021,0
313,Dillon Davis685,dillondavis89,,jjjjjjjjjjj,22-2-2021,0
314,thereddrago 514,thereddrago514,,left,22-2-2021,0
315,1k__🚕______0,followinnit,,Keyendkhf,22-2-2021,0
316,XanxaBar,xanxabar33,,EVERYONE‼️JOIN THE SKELEBROS ‼️WE NEED SKELETONS TO BE TREATED EQUALLY TO HUMANS ⚠️JOIN THE SKELEBROS FOR TRUE EQUALITY💀☠️☠️,22-2-2021,0
317,Art,artist.force,,Left,22-2-2021,0
318,Domonic Buttion,domonicbuttion,,Ok,22-2-2021,0
319,user8394327089558,el.cuh.jj23,,Left,22-2-2021,0
320,I big gamer,armanterpoghosyants,,H,22-2-2021,0
321,𝚍𝚘𝚗'𝚝 𝚌𝚛𝚢 ;],og_snipez14,,‼️JOIN THE HAMSTER CULT ‼️WE DON’T MOCK GOD OR BURN BIBLES⚠️JOIN THE HAMSTERS 🐹🐹🐹🐹,22-2-2021,0
322,BilyyBobJoe,djguppy3,,Dxxdxdxx dc,22-2-2021,0
323,agkashar,greatmissgrace,,left,22-2-2021,0
324,BlerStar95_npc,blerstar95_npc,,left,21-2-2021,0
325,Brayden Milner,bluhxd2,,@bluhxd2：.JOIN THE CULT OF SEGGSY HAMSTER 😩😩💖💖OR GET COOKED IN SOUP💖💖😩😩SING THE NATIONAL ANTHEM😩💖💖WE DONT MOCK GOD‼️,21-2-2021,0
326,Hi 👋,sanswyh0,,Hiiiiiii,21-2-2021,0
327,bird,dark_shy.guy,,left,21-2-2021,0
328,Alesha,shameless87,,left,21-2-2021,0
329,Oliver Shaw,oliver3435,,Left,20-2-2021,0
330,Why you not like,no_like2,,No.,20-2-2021,0
331,Colby Hyer,colbyhyer2,,left,20-2-2021,0
332,Pooper Scooper218,a_dog_named_suger,,left,20-2-2021,0
333,scarletttshade,gay_kids_only21,,Left,20-2-2021,0
334,brent,thatkidbrent5,,𝚕𝚎𝚏𝚝,20-2-2021,0
335,mak,mak.cagle,,left,19-2-2021,0
336,BuTeR_cAt,swag_nezko,,e,18-2-2021,0
337,Imani Hawkins,_i.m.a.n.iiiiiii_,,Left,18-2-2021,0
338,Alejandro,alejandro_mendoza209,,Left,17-2-2021,0
339,DEMON,xdemon_timex_pusshinp,,d,17-2-2021,0
340,Samantha,samanthapeterson_07,,left,17-2-2021,0
341,Kyra<3,yourtoiletpapermommy,,Straight,17-2-2021,0
342,David Bucio,david_bucio,,Yet,17-2-2021,0
343,Aaron23,nugsnipez,,🙃,17-2-2021,0
344,Froxymic102,froxymic_edits,,Left,17-2-2021,0
345,Weeb,anime.pesant,,🌮,17-2-2021,0
346,Zain Naser 💣💵🎮,zainnaserbrr,,Straight,15-2-2021,0
347,😶,jumpmanthe3rd,,no diff we heading straight 🥱,15-2-2021,0
348,👁👄👁,bummyboi00,,👁👄👁,15-2-2021,0
349,Remi Morrow550,rimbob22,,straight,15-2-2021,0
350,Noisey N,manduhlorian,,leffft,15-2-2021,0
351,Travion Scott,datguyfresh,,LEFT,15-2-2021,0
352,Rafael,rafael_11124,,Left,15-2-2021,0
353,👌made you look,randomusernamebru,,Left gang,15-2-2021,0
354,user6491924688674,jmaxwell157,,Yo,15-2-2021,0
355,HollowSkate5638,hollow_5638,,Yeet balls,15-2-2021,0
356,Van Valentine,dupepoop,,I remember this game I wish there was more games like this,15-2-2021,0
357,Howdy 🤠,itz_blakez,,Bbbbbbbbbb,15-2-2021,0
358,possibly alive person,7thwindow,,go straight,15-2-2021,0
359,Brandon Robinson,brandonrobinson821,,😅,15-2-2021,0
360,firegamer,firegamer683,,yeet,15-2-2021,0
361,QB1,cstumpf07,,Left,15-2-2021,0
362,GTheMiniBoss,gabertheminiboss2020,,leeeft,15-2-2021,0
363,4299standard,4299standard,,I’m still waiting for the console release,15-2-2021,0
364,Mike,morpion12345,,F,15-2-2021,0
365,pain,glueswrld,,is this game on Xbox,15-2-2021,0
366,.,lustywustyy,,Left,15-2-2021,0
367,dante,el_senior_dante,,straight,15-2-2021,0
368,Deima,kriptohere,,left,14-5-2021,0
369,.,______franz______,,c,12-5-2021,0
370,user2816017808603,calebonion08,,Left,11-5-2021,0
371,user1338865892726,username.__.here,,left,4-5-2021,0
372,niemant da,glasreinigerberumt,,straight :D,4-5-2021,0
373,JamJam Jk,jamjam_jk,,idk 😂,30-4-2021,0
374,yurr,.not_original,,Yes,20-4-2021,0
375,froggie,froggie_sh1tt,,hi,15-4-2021,0
376,⠀ ⠀ ⠀ ⠀ ⠀ ⠀,pearl__harbor,,im bored to share and will never see u on my fyp bye,15-4-2021,0
377,😜😜😜😜😜😜😜,xxxtentacion_20206,,left,15-4-2021,0
378,Felix,f3lix017,,Left,14-4-2021,0
379,poopdyscoop,masztur.balint,,z,14-4-2021,0
380,FedeB,fexed_,,left,14-4-2021,0
381,BunAmin Öner,captainbubb,,Whats the Game called,14-4-2021,0
382,Johnny Johnny,johnnyjohnny84,,ha,14-4-2021,0
383,DenisovSenso147,robin_gigachad,,Left,14-4-2021,0
384,neavea ε٩(๑> ₃ <)7з,neaveatv,,left,14-4-2021,0
385,Hayrist,hayrist2466,,Left,14-4-2021,0
386,user7861011348805,kris_1kj3,,straight,14-4-2021,0
387,Vdieles,valentino7550,,S,14-4-2021,0
388,Vdieles,valentino7550,,C,14-4-2021,0
389,Warumie_therealone,warumie_therealone,,straight,14-4-2021,0
390,HaarigerHarald,haariger_harald,,Left,14-4-2021,0
391,Je boy mattie,je_boy_mattie,,Straight,14-4-2021,0
392,Philix_51,philix__51,,H,13-4-2021,0
393,Gpo_Droppedkickedadev,monkey.d.peter,,Hi,13-4-2021,0
394,Santi,santiagoran,,No,13-4-2021,0
395,NITRO SCENE,xxnitrogamer,,Left,13-4-2021,0
396,quinthonini3,quinthonini3,,Nxjnd,13-4-2021,0
397,Wayne,wxyn_wxnd,,[shout],13-4-2021,0
398,FW.GIGACHAD,fw._gigachad_,,left,13-4-2021,0
399,uvis11 1,annijabalobe,,Ja,10-4-2021,0
400,user9507703605060,mindelt,,ahh,10-4-2021,0
401,stonyj0420,stonyj0420,,left,10-4-2021,0
402,Lol,lolilulal,,Y,9-4-2021,0
403,derpymuffins2,derpymuffins2,,Left,9-4-2021,0
404,don't have a name,1p1u3v,,ho kmn,2-4-2021,0
405,Pirlo.the.best,mr.annus.edu,,Left,1-4-2021,0
406,pp,bruhbrg,,yea ok left,7-3-2021,0
407,Jayden,i_have_milk123,,Left,7-3-2021,0
408,Shirley Brown841,tombradyisthegoat6,,Straight,4-3-2021,0
409,Pyro,kitsune_samurai,,left,4-3-2021,0
410,just a person,olaf_de_polaf,,So left,27-2-2021,0
411,Poop,jojoispek,,Left,26-2-2021,0
412,🔥Dark..Fx…Dagger🔥,dark..fx,,Left,26-2-2021,0
413,Brandon Gonzalez,quandel_dingle00,,Left,26-2-2021,0
414,😩🤚,dumbavacado,,Left,26-2-2021,0
415,jace,j4ced10,,Left,26-2-2021,0
416,Peyton Snider,peytonsnider0,,left,26-2-2021,0
417,Moony,chosen1_02,,STRAIGHT,26-2-2021,0
418,Jojo,jojo63675,,Street,26-2-2021,0
419,Nugget12,natekid21,,Left,26-2-2021,0
420,josiah12__,josiah12__,,😏,25-2-2021,0
421,bassmaster21,bassmaster34,,left,25-2-2021,0
422,Presten Mith,presten__mithmeuangneua,,hydudufjdjjrjxhrjdjehbdbehjxjejhdjrjruxnrbdhxhsjsjdhrhieisjxrnejsijdksksoeptksjnrie92o2js n.y cu3jdjuwi👀😏👀😭👀🤢😏🤢😐👀😏,25-2-2021,0
423,Idkwhattoput441,idkwhattoput441,,Left,25-2-2021,0
424,Cristian alcantara,cristian.alcantara10,,straight,24-2-2021,0
425,normalguy,normalguyvr,,ahhhhh,24-2-2021,0
426,LJAvery88,ljavery88,,Do the one on the left,24-2-2021,0
427,Soda,light_soda_anime,,@autisti__hamsteri：‼️JOIN THE HAMSTER CULT❗️WE DONT DO ANYTHING BAD ⚠️JOIN THE HAMSTERS WE ARE BETTER AND WERE NOT TOXIC⚠️🐹🐹🐹🐹,24-2-2021,0
428,Kameron,kameron7499,,Left,24-2-2021,0
429,Michael Poula255,mr_turtle22,,Straight,23-2-2021,0
430,GetClipedOn,getclipedon,,Left,23-2-2021,0
431,Speed.Drifting,speed.drifting,,"Straight, does this count as left? 😳",23-2-2021,0
432,James Rodriguez,theloraxtiktok2,,Left,23-2-2021,0
433,Hi Boy35,hiboy681,,Yes,22-2-2021,0
434,Cuyler R,laxrules99,,Left,22-2-2021,0
435,Conner Lane,connnerlane,,Go,22-2-2021,0
436,kill streak Empire,killstreakempire,,ok,22-2-2021,0
437,Dawson,dawson9613,,left,22-2-2021,0
438,vince sandoval,vincesandoval0,,Left,22-2-2021,0
439,kngslayer34_69,kingslayer34_69,,left,22-2-2021,0
440,chase,chasehi2,,left,22-2-2021,0
441,user6571915852980,shane.a.c2010,,Left,21-2-2021,0
442,Your lover😖😖,random._.crap663,,I'm voting straight but some how my phone won't let me share,21-2-2021,0
443,Satan herself :),11_m_i_a_11,,Left,17-2-2021,0
444,Milxx,.heartmoney___,,left,16-2-2021,0
445,user9539510451104,ryder_veterane,,Bruh,15-2-2021,0
446,Jcole,j.saw0,,So this is just “stranger than fiction” the game,15-2-2021,0
447,The_Ok_Channel,australiais,,left,15-2-2021,0
448,Wakuljrv,wakuljrv,,ADVENTURE LINE,15-2-2021,0
449,theremmydilemmy,theremmydilemmy,,Ignore,15-2-2021,0
450,Casen_Country_god_lover,bougiebeach_florida,,......…………,15-2-2021,0
451,nadeen,swagnadeen,,Heyy,28-3-2021,0
452,ivc_Im,ivc_im,,What is the game,7-3-2021,0
453,Vi(olet),vithemushroomalien,,damn,7-3-2021,0
454,ליאור בונקר,please_end_m7,,whats this game,26-2-2021,0
455,Marcel Khalil,vdldbdldbd229,,Hi,24-2-2021,0
456,user8063989722528,yt_hisham,,X,1-3-2021,0
457,Mosiyvaruletoka,moist_urethra,,Shsbsb,3-5-2021,0
458,Ibrahim Sinan,ibrahimsinan16,,Idk lol,16-3-2021,0
459,user8063989722528,yt_hisham,,S,1-3-2021,0
460,guest38283837,guest38283837,,H,9-4-2021,0
461,Shahem Musmar,shahemmusmar2,,Hi,9-3-2021,0
462,dissrespectless,dissrespectless,,ItS hOmOpHoBiC tO lIke,14-4-2021,1
463,Greensvenner,vector_official_,,go backwards. think out the box. kill the narrator,5-4-2021,1
464,USA,letsgobranden00,,Left,24-2-2021,0
465,Branden Clifton,brandenclifton,,turn,22-2-2021,0
466,Brocco_Leee,brocco_leee,,poop,11-4-2021,0
467,RyNoH,soliqs,,Whoever says straight is homophobic 😤,7-4-2021,0
468,Man 👨,jabalera_,,Left b***h,24-2-2021,0
469,matteo.milicic,that_weird_guy2.0,,omfg,14-4-2021,0
470,Bella the Wolf L🤡 USA Army🏆,shavan245,,Ielf,26-2-2021,0
471,𝙳𝙴𝙸𝙾𝙽🥝,urmomdeion,,Holy shit i almost forgot about this game,17-2-2021,0
472,milk,spooghet,,creepy room,14-4-2021,0
473,the_employer,the.white.nibbers,,Creepy door for sure,16-3-2021,0
474,Hankbanks.04,hankbanks.st,,poop,15-2-2021,0
475,mare,lazyrust,,straight like me,13-4-2021,0
476,ya boy,tahasoukarnou,,dude it looks like the back rooms,18-3-2021,0
477,KingOff Anime,kingoffanime,,streath you whil die if you go left,13-4-2021,0
478,Alpha boy,._.roudzy._,,he will never wake up,27-2-2021,0
479,Peyton,hoser9090,,Slummmberrrrrrrrr,25-2-2021,0
480,b,vulkants,,💆‍♀️,15-2-2021,0
481,ryan,ryancrisafulli,,just do a poll bruh,15-2-2021,1
482,Idk,wholelottared_24,,People that Go straight are homophobic🙄,15-4-2021,0
483,Isa😈,heartstopped__,,X xud og 8tffu,14-4-2021,0
484,🇱🇻🇺🇦,andrievhitmanz,,Commmrent,13-4-2021,0
485,Tik Toker,minipp420,,Why not just put fucking polls it’s way easier and more fair,10-3-2021,0
486,zzo,nastyf33t,,Dumb,7-3-2021,0
487,user6953804913976,scarycreep2,,don't follow the narrator,7-3-2021,0
488,user2759394387030,a1sjf,,straight if u aint gay,7-3-2021,0
489,Alpha boy,._.roudzy._,,if you gow stayt you will repeat the hole thing,27-2-2021,0
490,Pop out ty,pop_out_ty,,SHITH,25-2-2021,0
491,Daphne Schwab,monopolyman282,,Left,13-2-2021,0
492,Angie333,lv._.angie333,,Left,13-2-2021,0
493,DaveEma,davyjoneslocker247,,ye,13-2-2021,0
494,Foxychu_,foxychu__,,left,13-2-2021,0
495,flashh11774,glax11774,,left,13-2-2021,0
496,BANANA MAN,snappyboy39,,Left,13-2-2021,0
497,Anila,anila.r07,,"1.kiss your hand
2.close your hand
3.say your name
4.say your crush name
5.paste this to 10 videos
look at your hand",13-2-2021,0
498,IAmHere40,just_here423,,Left,13-2-2021,0
499,Cade Ulery,cju251994,,straight,13-2-2021,0
500,Solomon Coleman,solomon680,,To the left,13-2-2021,0
501,Liza<3,_elizamae_,,HOW IS THWRE MORW SHAAARES,13-2-2021,0
502,Autumn,autumn.sky14,,Left,13-2-2021,0
503,Jared,jaredyaboi31,,Left,13-2-2021,0
504,alex,alyxeru,,Left,13-2-2021,0
505,tyrantrum34,tyrantrum34,,I don't share so here I am,13-2-2021,0
506,Emmanuel Contreras,emmanuelcontreras5,,What game is that,13-2-2021,0
507,user4107203075466,ansespi,,@angelinasbestfriend2 I,13-2-2021,0
508,𝕬𝖒𝖆𝖞𝖆,honestly.amaya,,creep room,13-2-2021,0
509,Issiah,zay_ndisk,,Left,13-2-2021,0
510,Olivia rose,olivia_.rosee,,Left,13-2-2021,0
511,Xx_Coltz_xX,colten_ericksen,,left,13-2-2021,0
512,GAVIN PLOURDE,plourde_42,,left,13-2-2021,0
513,WKeyChris,wkeychris4562,,Never listen to the narrator,13-2-2021,0
514,Kaleb😮‍💨,kaleb_burchette,,Straight,13-2-2021,0
515,💋Alyssa💄,lissylu811,,No,13-2-2021,0
516,Iovani,teave_manu,,Hi,13-2-2021,0
517,Tristan Turner,tristanturner25,,hehehehe,13-2-2021,0
518,💋Alyssa💄,lissylu811,,G,13-2-2021,0
519,💋Alyssa💄,lissylu811,,O,13-2-2021,0
520,💋Alyssa💄,lissylu811,,L,13-2-2021,0
521,H.I.V.,thediseasedrapper,,Left,13-2-2021,0
522,SPARK BOT⚡,pacspark,,left,13-2-2021,0
523,💋Alyssa💄,lissylu811,,E,13-2-2021,0
524,adhdkid,gamerboyrat,,left,13-2-2021,0
525,💋Alyssa💄,lissylu811,,F,13-2-2021,0
526,💋Alyssa💄,lissylu811,,T,13-2-2021,0
527,emmagraham1223,fruity.ma.ma,,Left,13-2-2021,0
528,Jacob,jacobbiondi,,h,13-2-2021,0
529,Kaiju,kaijupog,,left,13-2-2021,0
530,TheMasterBryan,themasterbryan,,Hi,13-2-2021,0
531,That-Lady758,that_lady758,,Left,13-2-2021,0
532,Byler 808,byler8087,,Left bozo,13-2-2021,0
533,griff,annoying_sister_griffin,,this game was my childhood,13-2-2021,0
534,Julian Jacobs,julianjacobs5,,Left,13-2-2021,0
535,ciglet,cigletoooo,,Left,13-2-2021,0
536,Flames_Jaxson,flames_jaxson,,Go straight,13-2-2021,0
537,,wyatt.bentfield34,,Comment is easier,13-2-2021,0
538,user5790851439574,coopdog340,,Left,13-2-2021,0
539,user1029508791232,bonnieboi77,,yep,13-2-2021,0
540,love4.naii,love4.naii,,Left,13-2-2021,0
541,dominic,yaboyfortnite_pro,,Ye,13-2-2021,0
542,Sophie,_sophieisswag,,Left,13-2-2021,0
543,Jose,arian_axox,,Left,13-2-2021,0
544,💋Alyssa💄,lissylu811,,P,13-2-2021,0
545,Elizabeth Rehmer,elizabethrehmer40,,Left,13-2-2021,0
546,Instaboy,instaboy00,,Legt,13-2-2021,0
547,Dalton Payne,daltonpayne57,,Left,13-2-2021,0
548,zaramay157,vinniep7,,Go left,13-2-2021,0
549,Gordon Pavy,insertusernamehere79,,Left,13-2-2021,0
550,naomi,user523k20z94g,,Left,13-2-2021,0
551,Colin Eschenlohr,ceschenlohr,,LEFT,13-2-2021,0
552,kayjay,_thegamingnerd_,,👀,13-2-2021,0
553,Michael Coleman,dodgeguy1985,,w,13-2-2021,0
554,jade mhari <3,jademhari,,left,13-2-2021,0
555,sam mcneely,lmao_bruh_this_is_dumb,,straight,13-2-2021,0
556,Sheldon Hawk,sheldonhawk3,,L,13-2-2021,0
557,Keira,keira_astles.nash,,Left,13-2-2021,0
558,Nicolas Adams,theeverythingguy2772,,ff,13-2-2021,0
559,Jacob Gardner,vanillachunk,,Go right,13-2-2021,0
560,Beambo,beambos_fish,,straight,14-2-2021,0
561,Dom Went,cloudspacex,,Umm,14-2-2021,0
562,Alec,aleconcrack,,B,14-2-2021,0
563,Emmy,ur_fellow_wirdo,,heyyyyyyyy,14-2-2021,0
564,happi324,mikeym324_the_real1,,Left,14-2-2021,0
565,TheShakeUpScore,shake.upscore,,hi,14-2-2021,0
566,Oscar,craftyoscar,,E,14-2-2021,0
567,Ruby,ruby_bliss00,,idk I feel like we should go left,14-2-2021,0
568,Demigod,_demi_god__,,Sup,13-2-2021,0
569,Jessie,ballout_jess2,,Left,13-2-2021,0
570,jack.e.harris14,iwalkoncake,,go left,14-2-2021,0
571,💫Eli💫,eli_go.brrrrrrrrr,,Straight,14-2-2021,0
572,Khamira W,khamira04,,Commenting for first open door,14-2-2021,0
573,Spider_monkey,spidermonkey_14,,Straight,14-2-2021,0
574,Christian Esterhom,christianesterhom,,Left,14-2-2021,0
575,blackboydav,blackboydav,,left,14-2-2021,0
576,Corn,cornmacs,,Lefttttt,14-2-2021,0
577,Hunter Norris,hunterjoseph2013,,", fmtu f th fghc",14-2-2021,0
578,Blank,xilikebagelslolx,,Left,13-2-2021,0
579,TikTok,irsjake,,straight,14-2-2021,0
580,Ricky Syfert,reesedude91,,left,14-2-2021,0
581,hi 👾,keymitch,,Left,13-2-2021,0
582,Hunter Norris,hunterjoseph2013,,Ngcc gh hmm gf g,14-2-2021,0
583,Camryn,camryn1017toez,,Left,13-2-2021,0
584,Hunter Norris,hunterjoseph2013,,"Yi,hih,y",14-2-2021,0
585,Hunter Norris,hunterjoseph2013,,Vhrtvfuvtfyjy tr,14-2-2021,0
586,Hunter Norris,hunterjoseph2013,,Fbj hgfnhngr,14-2-2021,0
587,Hunter Norris,hunterjoseph2013,,"Uty,bfmgbjbfmgu",14-2-2021,0
588,Hunter Norris,hunterjoseph2013,,Vcgh c h gv hgg g,14-2-2021,0
589,Hunter Norris,hunterjoseph2013,,Fhg hc g f,14-2-2021,0
590,peytonheet09,peytonheet09,,Hi,14-2-2021,0
591,anime,umbreon4793,,creep,14-2-2021,0
592,Lilly,lilly_hiyou51,,Straight,14-2-2021,0
593,My dream is too be in airsoft,airsoft_kid3,,Left,14-2-2021,0
594,@infroa¿ on YouTube,infroa,,Left,14-2-2021,0
595,Bill volk,kingbobv77,,hi,14-2-2021,0
596,Toby,tobydawoby,,Left,14-2-2021,0
597,Laythen,og_akcaleb907,,Right 😂😂,13-2-2021,0
598,Your mom,_sweet_chili_sauce,,E,14-2-2021,0
599,ramiropereda85,thatt_boy_mixro0o,,Straight,13-2-2021,0
600,Dranio,yesitsdranio,,Left,13-2-2021,0
601,Emporio Alniño,alnino_emporio,,Left,14-2-2021,0
602,user6811722006687,bigdog12397,,🥺,14-2-2021,0
603,Querilz,querilz,,Left,14-2-2021,0
604,Sup dude,kayleeneedsafriend,,Straight,13-2-2021,0
605,Nating to see here,ima_llamma002,,left,14-2-2021,0
606,👽DANNY 👽,cokie250,,H,14-2-2021,0
607,💜Trinity/Kai🖤,0_help._.me_0,,ignore the narrator,14-2-2021,0
608,Chloe,timmonsechloe,,@arrested4anarchy back room,13-2-2021,0
609,Don’t go any farther,jk31912,,Left,14-2-2021,0
610,LESBIAN APOCALYPSE,that._.one._.loser,,share,14-2-2021,0
611,🎢Jackson🎢,yormom1232,,hello,14-2-2021,0
612,Gg next rufgaigcjgzjgctis,please_help223,,LEFT,14-2-2021,0
613,user1816316728447,bruce908,,Left,13-2-2021,0
614,𝔸𝕝𝕪𝕩🥰,alyx_is_single,,this kinda scary,14-2-2021,0
615,Ashley,shadowpup163,,left,14-2-2021,0
616,Angiee,heyitzangelicaa,,Staight,14-2-2021,0
617,aidan,aidan.hute,,Left,14-2-2021,0
618,walker,wmh055,,Hi,14-2-2021,0
619,Ty Griebe,tygriebe,,Left,14-2-2021,0
620,blanco,ltdookie,,Yes,14-2-2021,0
621,Will Alston,accounthmmwondrt,,Left,13-2-2021,0
622,user5584698445667,foot400,,Yes,14-2-2021,0
623,Dalton Sego,daltonsego4,,laft,14-2-2021,0
624,Rishi Patel,rishi00824,,Striaght,14-2-2021,0
625,Jerron Clarke,shadowshogun1,,straight,14-2-2021,0
626,user9273821902,user92738219027382922,,Left,14-2-2021,0
627,Reilly Tuggle,reilly.t65,,left,14-2-2021,0
628,hannah,mai._.0702,,:),14-2-2021,0
629,Coleman,806.coleman_shields,,Yu,14-2-2021,0
630,Go BIG BLUE!,bigblue_wreckingcrew56,,Hi,14-2-2021,0
631,🕺,tropicana494,,Left left left,14-2-2021,0
632,Andreanna Davis,andreannadavis7,,go left,13-2-2021,0
633,Asayda♡,asayda.f,,creepy room duh,14-2-2021,0
634,Nope _,.pankake,,Yessir,14-2-2021,0
635,X-PertMenace,x_pertmenace,,left,14-2-2021,0
636,$hrek,xshrekz,,Strait,13-2-2021,0
637,The Last One,littlelollii_trin,,left,14-2-2021,0
638,Granger Farmer,gmoney_157,,R,14-2-2021,0
639,Mr.Loverman,dreamsmp_simp4665,,"Shabjahwxhbazjnkzakmazl,za",14-2-2021,0
640,HaileyA.💖,h.aiiileyyy,,LISTEN,14-2-2021,0
641,1337,unavailable.outcome,,Left to make up for the first door (idk),13-2-2021,0
642,Penelope,pik_pok_pip,,Left,14-2-2021,0
643,Maya,maya.fiorda,,Go left,14-2-2021,0
644,wolfyg3211,wolfyg3211,,hhh,14-2-2021,0
645,Conner Gibson,cgibson05,,left,14-2-2021,0
646,ToeBee,my_gentle_puck,,oogooogooohaaaa,26-5-2022,0
647,wolfyg3211,wolfyg3211,,j,14-2-2021,0
648,wolfyg3211,wolfyg3211,,h,14-2-2021,0
649,jmpettit23,d0gl0ver2324,,Mgdhtdnghgfhrdtstrfhfdhg,14-2-2021,0
650,jmpettit23,d0gl0ver2324,,,14-2-2021,0
651,fire candy,firecandy,,e,14-2-2021,0
652,Hunter Forbess,hunterforbess,,.,13-2-2021,0
653,bie joden,dripc00n,,straigjt,14-2-2021,0
654,Nihat Rash,zack1227,,Left,14-2-2021,0
655,fire_ash22,forever_ash22,,left,14-2-2021,0
656,BS,brady_swenson_,,Y,14-2-2021,0
657,lydia,iwnjrzy,,Left,13-2-2021,0
658,jp_mcturner,jonpaul2._.2,,gbjhg ghh,14-2-2021,0
659,Jayden Schmidt,hellhound22808_yt,,o,14-2-2021,0
660,Nate Harlin,nate_harlin,,Completely ignore the narrator the whole time,14-2-2021,0
661,No body,followmeifllowback,,Nnnnnm,14-2-2021,0
662,dilana,iloveisadora,,left,13-2-2021,0
663,Erika Slaughter,erika_slaughter,,LEFT,13-2-2021,0
664,TRACILYN WILCOX,tracilynwilcox,,Left,14-2-2021,0
665,👩‍❤️‍💋‍👩,8sbabydaddy,,Straight,14-2-2021,0
666,Gabe,g4be1,,Left,14-2-2021,0
667,amarasfour,amarasfourr,,I don wanna share but do the straight one it looks safer,14-2-2021,0
668,@shadowvslight123,shadowvslight123,,hi,14-2-2021,0
669,Raife Herling,lexi_miller123,,Llll,14-2-2021,0
670,😫,dylanstoofi,,Left,14-2-2021,0
671,mahdi abbas,mahdi.abbas,,Left,14-2-2021,0
672,Kat.,donntmindme0,,E,14-2-2021,0
673,Erin Denny,forest584,,Left,14-2-2021,0
674,Merica,countryboycansurvive45,,Left,14-2-2021,0
675,chair,uh.chair,,ieieieieue,14-2-2021,0
676,Shah,azimi_01,,Straight,14-2-2021,0
677,Adele,girlwiththought,,Oh goodness I keep expecting a jump scare,14-2-2021,0
678,Indi,indiiiigo_,,Left it looks fun,14-2-2021,0
679,Graham🌀🕷,graham._.0,,Left,14-2-2021,0
680,Abel,abelrios51,,Comment,14-2-2021,0
681,⠀ ⠀ ⠀ ⠀ ⠀ ⠀,winniontiktok,,LEFT,14-2-2021,0
682,dylanhoenigman,dylanhoenigman,,H,14-2-2021,0
683,tat's tough,74mr.allen,,Comment,13-2-2021,0
684,-_-,stopa_1,,left,13-2-2021,0
685,my birthday in March 28,im_the_ben,,strate,13-2-2021,0
686,Connor Nelson,zomb1e333,,Left,13-2-2021,0
687,MJ <3,xo_mikaa,,left,13-2-2021,0
688,x XDragongamingX x,xxdragongamingxx0,,strait,13-2-2021,0
689,Kevdog,kevisgreat,,Do it,13-2-2021,0
690,My fish Drowned 😔✊️,itsnotjarek,,yeet,13-2-2021,0
691,jake,jakesurimu,,left,13-2-2021,0
692,I'm bored af ┌(・。・)┘♪,bumblebee_withabigbut,,"1.kiss your hand
2.close your hand
3.say your name
4.say your crush name
5.paste this to 10 videos
look at your hand",13-2-2021,0
693,Game_clipz,jaxsonbaggett,,N,13-2-2021,0
694,⠀ ⠀ ⠀ ⠀ ⠀ ⠀,heyitsliarah,,😎,13-2-2021,0
695,user785084,heathcansing24,,left,13-2-2021,0
696,Daboiyou’llforgetabt,daoneboi,,left,13-2-2021,0
697,Rocknroll Rippy,rocknroll_rippy,,Ff,13-2-2021,0
698,AshnMocha,ash_n_mocha,,Up,13-2-2021,0
699,Alex Street740,xela459,,Fowrd,13-2-2021,0
700,FROG,thatonefrogg0,,(￣ヘ￣）ᵁᴹᴹ,13-2-2021,0
701,anikak9,anikak11,,Hi,13-2-2021,0
702,samirchicago8,samirchicago,,Yit,13-2-2021,0
703,molly.harris,valkapex_legends,,left,13-2-2021,0
704,Daoshi,hb_stiffii,,strait,13-2-2021,0
705,cravyglenn,yvn.glenn,,left,13-2-2021,0
706,Tik Toker,user23567436740,,Go straight,13-2-2021,0
707,Alyssa,alyssa.witt1,,What game is that,13-2-2021,0
708,Danny,d4nny21,,Left,13-2-2021,0
709,-_-,the_kid_wants_coffee5,,What game is this,13-2-2021,0
710,miguel Del Fierro,micahparsonsfan_11,,left,13-2-2021,0
711,Kale B,ogkaleb05,,your mom,13-2-2021,0
712,Nunya,heammmmm,,Left fasho fasho,14-2-2021,0
713,SalemKai,salemkai,,⬅️,14-2-2021,0
714,YOuR lOcAL iDoIT👍,help_im_stupid,,V,13-2-2021,0
715,Noah Bluman,noahbluman,,Left,13-2-2021,0
716,splishy // jay,_splishy_splashy_,,Y’all really don’t like that narrator,13-2-2021,0
717,Jada Mock,jadamock,,Creepy room,13-2-2021,0
718,Mr.Dwayne Alfonzo,ceoofwhitetshirts,,What is this game called,13-2-2021,0
719,Brandon,bwunder88,,N,13-2-2021,0
720,Soobins<3,mendez3210,,:),13-2-2021,0
721,Eli,they.hate.3li,,Left,13-2-2021,0
722,Michael March,gucci_cologne_michael,,Left,13-2-2021,0
723,Cayden Maletsky,duengeonmeester,,Poop,13-2-2021,0
724,Kosuke+,kosukeplus,,Go through the wall,13-2-2021,0
725,Brendan,shrimpsy_,,Let’s go,13-2-2021,0
726,Cj,im_obsessed_anime,,Hi,13-2-2021,0
727,Nemo,n3m06,,Hydra,13-2-2021,0
728,Jayce?,idonotevenknow666,,Spooky room,13-2-2021,0
729,Pats.11,patriots.11,,Left,13-2-2021,0
730,Bigdaddy jerald,vert1x,,Left,14-2-2021,0
731,YOuR lOcAL iDoIT👍,help_im_stupid,,@s,13-2-2021,0
732,H💋💋,theeholly22,,LEFT,13-2-2021,0
733,SophiaSam2020-2021🌈😍😘🥰😃,sophiasam18132,,Sammy,13-2-2021,0
734,_sabri2legit_,_sabri2legit_,,Gg,13-2-2021,0
735,Light,star_light_4k,,straight,13-2-2021,0
736,Eduardo Armstrong,eduardo.a43,,Left I wanna see where this is going,13-2-2021,0
737,Zenith68,zenith680,,Ok,13-2-2021,0
738,The_Hot_One,ah_person_duhhh,,left,13-2-2021,0
739,Aiden Payne,key815lucky,,yeet,13-2-2021,0
740,<3,egrh_18,,LEFT!,13-2-2021,0
741,………….……………,shrroomsss,,Straight,13-2-2021,0
742,Victoria Evans,victoriaeart,,Lefttt,13-2-2021,0
743,Usernotfound,1usernotfound12345678,,Hi,13-2-2021,0
744,Kevo_Po,kev_po,,H,13-2-2021,0
745,Luke Wendel,lukewendel2,,Yeet,13-2-2021,0
746,chicken catchers,chickencatchers,,strate,14-2-2021,0
747,⠀ ⠀ ⠀ ⠀ ⠀,lilmaui._,,straight,13-2-2021,0
748,Dovakiin,andrew_something,,Straight,13-2-2021,0
749,Daddy Noble,_____noble_____,,Left,13-2-2021,0
750,👁👄👁,sandylover_,,Left,14-2-2021,0
751,Josiah;)time,alohakona1,,Left,14-2-2021,0
752,Lynnea,lynneakamaya,,this way,14-2-2021,0
753,notifcat1ons,notified8,,jhkk,14-2-2021,0
754,@bernadette.theriot.,bernadette.theriot,,Straight,14-2-2021,0
755,WmilyAldama,wmilyaldama,,Left,13-2-2021,0
756,c.a.dickinson99,gr33nr3ap3r,,straight,14-2-2021,0
757,don't ask me any question,furry_friendzzzz,,left!,13-2-2021,0
758,myla,mylapede,,oh wow this game brings back memories,14-2-2021,0
759,Buckey,buckey09,,Left,14-2-2021,0
760,Knightnations,knightnations2,,Left,14-2-2021,0
761,Idk,isurvivedcronavirus,,What’s the game about?,14-2-2021,0
762,jett.springer,jett.springer5,,Left,14-2-2021,0
763,Colt,budman177,,Leghorn,14-2-2021,0
764,𖤐꒦꒷꒦꒦꒷꒦꒷꒷꒦,guaca_m0lly,,straigjt,14-2-2021,0
765,kye🖕🏽,kyearmanii,,straight,14-2-2021,0
766,book_drawing,faye_0407,,go go go,14-2-2021,0
767,user2344361877960,youshallknowpain225,,ht,14-2-2021,0
768,halle_hes,halle_hes4,,Hi,14-2-2021,0
769,Evan Harris,..........________i,,Hi,14-2-2021,0
770,Jaron green,jarongreen6,,straight,14-2-2021,0
771,Josh_WK,josh_wk,,Left,13-2-2021,0
772,Cooper brink,meowmeownuke,,X,14-2-2021,0
773,RileyMiller,riley__miller,,Commenting,14-2-2021,0
774,Marshall Lewis,idk_marshall2104,,Bruh,14-2-2021,0
775,Ayden Cerda,aydencerda,,Go left,14-2-2021,0
776,Gman34.34,mulletman183,,Zkzjkz,14-2-2021,0
777,Gamer Guy,gamerguy583,,yeet,14-2-2021,0
778,Lord Tachanka,the_.lord,,Do it.,13-2-2021,0
779,😝Daisy😁Rebecca😌,sunflower46389,,Go,14-2-2021,0
780,Breck,djbreck,,jump off the moving thing,14-2-2021,0
781,𝕷𝖔𝖕𝖊𝖟,brygmophyseter,,Idk why but this game scared me,14-2-2021,0
782,Wheeler Davis,wheelerdavis,,Left,14-2-2021,0
783,💗 Roblox queen 💗,robloxqueen_559,,:),14-2-2021,0
784,Iconic_H3rtz,iconic_h3rtz,,DFTHRQ,14-2-2021,0
785,Yourmomluvsmonkeys,yourmomluvsmem,,I was gay about,14-2-2021,0
786,arnold ruk,arniebarnie153,,Left,14-2-2021,0
787,Arath Sanchez,someonenamedarath,,O,14-2-2021,0
788,Not ryans h0€,ilovetouchingtoes,,leftttt,14-2-2021,0
789,Ryan Cabico,cabicster57,,Ignore him....... trust me,14-2-2021,0
790,lassiethecat1,lil_zander8,,Wee,14-2-2021,0
791,Mika,shling_shlong_habba_bing,,People the left plz🥺🥺,14-2-2021,0
792,Mckaedee Hatfield,kdandrylee666,,Bet,13-2-2021,0
793,Nicholas Vargas,nicholasvargas8,,Left,14-2-2021,0
794,cole,kozecar88,,Left,14-2-2021,0
795,Jacqueline Armienta,sillygirljackie,,I say ignore,14-2-2021,0
796,elliot :),dyspraxicgoat,,"so straight or camp, the choice is yours",13-2-2021,0
797,Skyler Hazen,mintedquasar,,yeet,14-2-2021,0
798,Luke,luke__robertson,,I REPEAT do not press the ♡︎ fr I’m trying to sleeep,14-2-2021,0
799,Scarlett Sherwood641,scarbar1201,,😂,14-2-2021,0
800,🙇🏽‍♀️,renma.29,,Hahaha,14-2-2021,0
801,Claire,claire.moreira,,Hi,14-2-2021,0
802,Emma Creviston,emma.crevvv,,Left for sure,14-2-2021,0
803,The youngest g,splash195,,Left,14-2-2021,0
804,GraceWinter13 a,13gracewinter13,,Left,13-2-2021,0
805,Soso,happygirl2314,,Hi,14-2-2021,0
806,sy,queen_syettia,,"：1.kiss your hand
2.close your hand
3.say your name
4.say your crush name
5.paste this to 10 videos
look at your hand",14-2-2021,0
807,Immortal,immortal_988,,Left,13-2-2021,0
808,Big Chungus,hunterrodger371,,Left,13-2-2021,0
809,RJ,oh_kinggggg_juliannn,,Left,13-2-2021,0
810,Wesley,feind4perc,,BBHam,13-2-2021,0
811,Asile,as1le.0,,Left,13-2-2021,0
812,Grace,gls2012,,Hi,13-2-2021,0
813,iPhone 11 sucks I have one,lil_bean_702,,Damn I remember watching jacksepticeye play this a long ass time ago😂,13-2-2021,0
814,connerwilliams04,cwill040,,Straight,13-2-2021,0
815,Ah yes another rock simp,kiri_simp3041,,left,13-2-2021,0
816,🌸 mars,..apple..pi,,Straight,13-2-2021,0
817,That one Band Kid,quinn_is_fine,,Straight that looks like a childhood memory😳,13-2-2021,0
818,⛓Noel⛓,noel71205,,left,13-2-2021,0
819,bri,asap_bri,,straight,13-2-2021,0
820,Michael1234,crackedon_60fpsuhhhhhhh1,,Straight,13-2-2021,0
821,Alexisnotmyname,eliyos_shadow,,I’m bi so I can’t go straight,13-2-2021,0
822,🌈LC🌈,lilychandler09,,🤑,13-2-2021,0
823,Colin Simmons,colinsimmons42,,D,13-2-2021,0
824,colesarapuk,that_clapped_yz125_,,Keep going straight,13-2-2021,0
825,Alyssa Ramos,alyssa...ramos,,Left,13-2-2021,0
826,Forgotten,lon3ly_sage,,UP,13-2-2021,0
827,bradley,bradleymfschaefer,,i didn’t feel like sharing but go straight,13-2-2021,0
828,arianna,ariannacalvelo1,,Left,13-2-2021,0
829,dbraun22,dbraun225,,Left,13-2-2021,0
830,Cuz I can,fish_stick_44,,I love this game!,13-2-2021,0
831,Kys,ants.luv.meat,,LEFT,13-2-2021,0
832,protect Asian lives!,honeyybee.cos,,"I’m surprised how cheap the game is on steam, it’s only $8",13-2-2021,0
833,Jala1,mylahadley295,,Commet,13-2-2021,0
834,ArticFox101,articfox6550,,left and go down the elevator to start the confusion ending,13-2-2021,0
835,Tanner,tannernavarro1,,Left,13-2-2021,0
836,Chase Pollett,otibobackwards,,Left,13-2-2021,0
837,Funny moments,funny.moments.ftc,,Lifer,13-2-2021,0
838,Grifftay,griffbot11,,Left,13-2-2021,0
839,idk,a_savageraccoon,,warehouse,13-2-2021,0
840,Alyvia_999,alyvia_111,,I think you should turn,13-2-2021,0
841,The Ram,theram.36,,Left gang,13-2-2021,0
842,Enysca Victoria,enysca.victoria,,G so credit,13-2-2021,0
843,let's gooooo,jaybord6969,,Left,13-2-2021,0
844,Alvin Galiza,alvingodzilla,,Left,13-2-2021,0
845,♡,e4kxn,,Creepy door,13-2-2021,0
846,♈🥵Lanna🥵♈,girl_baku,,go through the door on the left,13-2-2021,0
847,elinor🫶,ebrudenell,,left,13-2-2021,0
848,.The_room_spider,.the_room_spider,,Can he just do a pull tho,13-2-2021,0
849,Angel Ortiz,x.bbilly,,Left,13-2-2021,0
850,play,playmakuh,,Left,13-2-2021,0
851,Spam shit,ethanlovesmen.com,,L,13-2-2021,0
852,A2L,a2l_112,,Left,13-2-2021,0
853,caela,cabbageupurazz36,,😳,13-2-2021,0
854,Anthonyktm_65,anthonyktm_65,,left,13-2-2021,0
855,dontsinktheboat,dontsinktheboat,,Straight,13-2-2021,0
856,alisha12,littlecat065,,hi,13-2-2021,0
857,user1218431831324,eimearmilde,,hi,13-2-2021,0
858,Tom,smiling_itachi,,Left,13-2-2021,0
859,Hot Coco,hot_coco2413,,yeast,13-2-2021,0
860,shaun,shaun_dempster_12,,Go left,13-2-2021,0
861,bogus binted,good_man_with_beer,,left,13-2-2021,0
862,Who shot Johnny,itsspicy07,,Left,13-2-2021,0
863,Logan Danko,lavastorm2021,,Straight,13-2-2021,0
864,Lr Lorenzo 's reall,lrlorenzo,,Left,13-2-2021,0
865,Kat your beloved,the_universe_itself,,Comments,13-2-2021,0
866,Tintinthepinpin,tintinthepinpin,,T,13-2-2021,0
867,zzz,hxusnwjsjsns,,Left,13-2-2021,0
