,Comment Number (ID),Nickname,User @,Comment Text,Time,Likes
1,What Do You Meme?™ ,whatdoyoumeme,,he was silenced,19-6-2021,693
2,Anden,pickolascage0,,"he was like: why are we still here, just to suffer?",2-9-2021,63
3,spam acc,woahitsnotkeii,,Didn't the last squidward got in trouble for dabbing? So it's understandable,29-8-2021,47
4,Blank,blankdial,,"Man really said ""why god why?""",11-7-2021,118
5,Ivor Xian Z ✨,ivor_xianz,,Not the mediocre fish at the back 😂😂,18-8-2021,63
6,_nn.aj,_nn.aj,,Weirdly this is the best vid ive seen today,16-8-2021,149
7,I like cheese,seafoamtheswagcat,,Squidward is just like “This is a waste of my time. No. Bye.”,23-11-2021,6
8,Bigdicsuccdicx,anthonyhereph,,"why didn't they dabbed?
answer: the first guy who dabbed got fired by Disney. sad",27-8-2021,26
9,Yellow_ terracotta,yellow_terracotta_0,,Bruh he just remembered that time he did it😭😭😭,24-10-2021,46
10,darieluribe1,darieluribe1,,"he went through a lot, it was about time",4-9-2021,7
11,aliciaparga,aliciaparga1,,When my mom asked me to clean my room.,16-6-2021,6
12,✨❤💎gacha life queen❤💎✨,btsf380,,I AM CRYING THE SOUND😭😭,27-8-2021,7
13,Ciarra Tales,ciarratales,,this is my reaction when my friend starts to tell me abt this guy who raises red flags:,23-7-2021,5
14,paradeaz,paradeaz,,"Made my day, thnx",9-8-2021,8
15,washanky ✔️,washanky,,It’s always dap never hey how’s it going 🥺,11-7-2021,5
16,CD 6,bingleton.coohiesmith.28,,Where was this,10-8-2021,7
17,ralf wrecker,ralfwrecker0,,he cant dub bcus the guy who did got fired,23-8-2021,6
18,GaleXuss,galexuss_collections,,POV: YOU CHECKED MY VIDEO....,30-6-2021,10
19,SOCO,someones_content,,He wont do it anymore 😔,13-9-2021,5
20,Evin Lozano,evin_lozano05,,@amanda.garzaaa WE GOTTA GO!!!🥺♥️,10-9-2021,5
21,ItsMeHaruko,itsmeharuko,,contexto: ella es fanatica de lo sensual ella tiene una foto mia,30-10-2021,7
22,가람,707love0,,아니 손바닥 봐 손바닥ㅋㅋㅋㅋㅋㅋㅋ😂....😶,16-7-2021,5
23,nico.2021_rk,nico.2021_rk,,explicación;el ue estaba disfrazado iso un Dab nose como se llamaba y casi lo depiden,25-7-2021,20
24,𝒻𝒶𝒻𝒶𝓎𝓊,yujie._.0813,,懷疑人生,20-6-2021,7
25,咖哩飯不要加咖哩,superopnoob,,這章魚哥差點變歴史,5-7-2021,6
26,dewahdnf,dewahdnf,,"Saat Air mataku mengalir
Aku tak bisa menggunakan tissue
Aku butuh
4 Lembar
4 Lembar
4 Lembar
Saat aku menangis",25-7-2021,11
27,お父さん,joyfullove2,,イカルドさんスポンジにいつも酷い目あわされて大変ですね,1-8-2021,35
28,tortoise,tortoise20202,,"ホォン……
フゥン……",20-6-2021,7
29,ぶりぶりチキン　　　　　　　　　　　　　　 🪳,wt.ffffffff,,どういう事ですか？,10-8-2021,5
30,にょー,nyou_yuno,,頭集合体恐怖症,19-7-2021,9
31,💙WINNER💙,ygwinnerlove,,スポンジボブ見たかったな😅,3-8-2021,6
32,Kawaii Desu Studio🍭🍭🐟,kawaiids,,Lucu bgtt,3-7-2021,6
33,Zacky Jcob,jcob_exe,,"apa yang dilakukan hewan - hewan itu
""Squidward""",4-7-2021,5
34,k4th,k4thh.y,,"ok, eu acho que sou um pouco sensivel demais, to chorando :(",30-6-2021,5
35,. Mommy?,..n0t_.kai,,He looking like he just saw 1 of his passed family members,6-11-2021,5
36,Tortellini,mr.wolf.is.my.sexy.jesus,,he looked at God to question why he did this to him,11-10-2021,5
37,dungdung,dun9dun9,,idungnya disensor kpi,3-7-2021,4
38,dik.opik,dik.opik,,kan jd pengen peluk squidward,4-7-2021,2
39,롤하는 카레,bibigo4kill,,징징:아 월급 많은데 걍 내려갈까,2-8-2021,3
40,sophia,esile._,,@justanothernormalsimp @avsxri I feel like squidward everyday,12-7-2021,3
41,Nata,nata1_660,,観客ほぼ居ないの草,19-7-2021,3
42,Mickey 👹,mickeyflippingyouoff,,he didn’t seem to like that,10-9-2021,3
43,スミレっこ,sumirenoko_00,,この音源嫌だ…,12-8-2021,2
44,ArianaNatorFam34,ariananatorfam34,,Wait who is the girls name I think I know her,30-9-2021,2
45,kai,rever0301,,原來章魚哥粉刺在頭上,11-8-2021,2
46,Hensy Pengou,_.pengou._,,@sagebonk_ @drqaco_ @maxenebonk @justiebonk @leewasbanned @@,17-7-2021,2
47,Raup,164up,,Yok mau rasa apa sosisnya🌭🗿,5-7-2021,2
48,1736382910910910,tuancrabbb_,,Helo help me im sad@fuckva,4-7-2021,2
49,Yuki🦋❄️,.yuki_191196,,สีหน้าฉันเมื่อลุงยืนยันที่จะอยู่ต่อ😩,5-7-2021,2
50,peter,04jiunnnnn,,自從上次被騙 章魚哥從此不再相信人類,19-7-2021,1
51,Louisa Is Dead <3,louisa.is.dead,,@aagieeee squidward has had it 🥺,26-8-2021,2
52,يحلوكمم,7iple_,,@wxdm.0 حليله,21-7-2021,1
53,Coklatmatcha 🍀,whaay15,,@halflucifer_ whay Squidward whaaay,18-7-2021,1
54,別に痩せたいし…,two_me69,,私もイカルドに会いたい！！,1-8-2021,1
55,Danica Niegas 🧿,danicaniegas,,@edwardniteacherannnica 😂😂😂😂😂😂😂😂,21-8-2021,1
56,Nhi Trần,beniizme,,@bemok03 =))))),16-8-2021,1
57,o_O what you said?!?!,o_owhat_did_you_said1,,Dabbbbbb,10-8-2021,1
58,น็อกซี่ Noxxie ☁️,anothernoxxie,,@stormdays @therealdisaster aku ngakak sampe nnagess😂,19-8-2021,1
59,Krismaz,xmas..all.year,,IM NOT GONNA DO IT,17-8-2021,1
60,아는 사람,ssipsaeki,,@omg11010 표정 너무 잘맞앜ㅋㅋㅋㅋㅋ,11-8-2021,1
61,༄𝑳𝒂𝒛𝒚懶懶,lazy._.ch,,"@oao_qaq_111 當你在網路上看到孤兒
章魚哥:",11-8-2021,1
62,(´▽｀),bear._.0706,,章魚哥有抬頭紋,10-8-2021,1
63,お味噌汁,arikonnu,,ジョウロの先みたいwww,2-8-2021,1
64,。,cicinpuipui,,キエッリーニ選手,30-7-2021,1
65,AYAAA,inisayaalaa,,@queen.umzkal @pakrizkiii gemas x Squidward ya,28-7-2021,1
66,🎗,421ooo1,,와스고잉온,15-7-2021,1
67,TALLERTHANU,lochlaincaseyyy,,The TVA 🧍‍♂️,14-7-2021,1
68,.,.iki21,,aku menyebut nya tampan dan berani,6-7-2021,1
69,aldi rifki,aldirifkey,,ngebadut,5-7-2021,1
70,user6760485183607,MS4wLjABAAAArsucxI6KhSlbsgZZEgkrmMxPYpJDjjbmezE0iIYTZw2Fyon4zF8wBtllip6jWj1d,,witwot,4-7-2021,1
71,Cameoooo,cameo2139,,Mood =)))),3-7-2021,1
72,อิอิ,aod_81,,ตีบทแตก 555,1-7-2021,1
73,Xie,jjxie.hum,,@yi._.01.06 @cy_1006 可愛的章魚哥,10-8-2021,1
74,KRLAME@L,krlame,,Aaahh〜🥺🥺,3-7-2021,1
75,Hej jeg er Maria ♊️ 🇩🇰,mariaskovsby,,No plis 🥺,5-9-2021,1
76,내가 무무로 보이니?,jess140407,,코 댈렁달렁 거리는거 왜케 웃기지ㅋㅋㅋㅋㅋㅋㅋㅋㅋㅋㅋㅋ,29-7-2021,1
77,...?,ahnjaeho17,,징징이: 하.... 인생....,3-7-2021,1
78,Soul⭐King,xtraceryz,,"he is like ""god have mercy""",12-3-2022,1
79,piecs,bucadebeppo,,@ohylx cuterr,19-8-2021,1
80,一個啊勾勾,hope03080,,我懷疑那個章魚哥是黑哥扮好的！,10-8-2021,1
81,.,wiimpykiid,,He did the same thing to me when I was there,9-7-2021,1
82,キラ<3,heymiss_07,,@fernandainamoto @ayu_xxboredxx mds ele ksksks@peachuuh,4-7-2021,1
83,Alena Espinosa,alenaespinosa,,@jasmin.086 this?,25-10-2021,1
84,Tik Toker,ermes.costello.skjshs,,the mascots in the back: ( ͡° ͜ʖ ͡°),5-9-2021,1
85,玉,tadaki_kaori,,Squidward is tired,29-7-2021,1
86,ఌ 𝒟ℴ𝒿𝒶 𝒞𝒶𝓉 ఌ,doja.is.a.goddess,,The way he looked at the sky 💀,22-7-2021,1
87,madi,madilynanderson,,@ilianaamendozaa this is how you make me feel,24-10-2021,0
88,‍‍,dyrtunu0gxxw,,덜렁덜렁~,10-8-2021,0
89,☄️,yooooooooon3,,お鼻もちもちしてそうだなｸｯ,31-7-2021,0
90,altheamariedacono,altheamariedacono,,aww ao cute,22-7-2021,0
91,츠카사 간Zㅣ,happpppp123,,ㅜㅜ,21-7-2021,0
92,egaegot,egaegot123,,sekuitwet @syssclop,5-7-2021,0
93,一團肉呆🧸,queena__1108,,@89121zzz 我是章魚哥本章,6-8-2021,0
94,시현(06),me_061103,,와스고이온~~,31-7-2021,0
95,A_Magnus,a_magnus,,He had enough 🤣🤣🤣,6-10-2021,0
96,🍡🌮🍣🧁🥐🥡🍰🍔🍟,marieizhotasf,,Sqed werd,25-8-2021,0
97,juang,xyzac15,,squidward adalah kita saat ini😌,28-7-2021,0
98,ㅣ,choesiu,,먼 산을 보며…,25-7-2021,0
99,Lester,hey.there.good.looking,,65% nowaday when see squidward irl,16-7-2021,0
100,Dek Arief,sayaininetisen,,awal lagunya mirip dari upuk timur,14-7-2021,0
101,Kat,k.katherynnn,,Y,11-7-2021,0
102,Shaun,yoo_ido,,คิดถึงขวดพริกไทย,4-7-2021,0
103,Kirishima,your._.local._.kirishima,,i luv this vid it’s just so cute to me,16-3-2022,0
104,# 𝗩 𝗘 𝗥 𝗢 💗🌷,svnkiechvrs,,@beach.wgf la mossa all'inizio della bambina<3,26-2-2022,0
105,Lorena,lorena_beniezx,,j😌ñúñ🥺,13-2-2022,0
106,noob,noob09hi,,squidward literally just said why me,12-2-2022,0
107,LML,aidenva9253,,@lauraxpalacio camp,12-1-2022,0
108,Kakashi_11124,ttvyeet_boy120,,Noooooo,31-12-2021,0
109,user9274337810206,jenrodriguez1084,,Every dad,30-12-2021,0
110,itsfingerlickinggood1,itsfingerlickinggood1,,“Flashbacks”,7-12-2021,0
111,I_DonT_kNoW,im_playing_rblox_rn0_0,,....징징이 얼굴이 왜케 우울해ㅜㅜ,6-12-2021,0
112,coffeedawg,mrcoffeedog,,hi,17-11-2021,0
113,It’s me,_.itsme._672,,Silence total 😭😭,12-11-2021,0
114,just_anormalgirl,a_person._.1v1,,me at school,20-10-2021,0
115,jl_look,jl_look,,he alive people,18-10-2021,0
116,jl_look,jl_look,,ITS HIM,18-10-2021,0
117,HarryHoo,harrychanhoo,,"People: He got rejected
Viners: Remeber dabbing Squidward this is him now",15-10-2021,0
118,Elizabeth 🤤,el154b3th,,He called out to the gods,29-9-2021,0
119,jehebrihtvthtjs,jehebrihtvthtjs,,Come on squid word do the dab🥺🥺🥺😢😔😔😔😔😔,22-9-2021,0
120,trem,trem_qqq,,he remembers the times,18-9-2021,0
121,Hi,good.4.y3,,The sound fits so well😂,14-9-2021,0
122,Jumeirah Cat,chiwibiwi,,He knows..,13-9-2021,0
123,rStephen,stephgoated,,i thought this is going to show good memories,9-9-2021,0
124,Kaylee louis,cynical._.caffeine,,he became silence 🥺,5-9-2021,0
125,RUTHISINSANE45,ruthisinsane45,,the dab police are here don't run you will be put on home arrest for 5 days,4-9-2021,0
126,Henry Rivers/Headcheese,itsthattiktokprofile,,art!!!!,4-9-2021,0
127,咖啡蛋糕,coffeecake76,,章魚哥：你走開啦,28-8-2021,0
128,Highest in the room,xmellyplayz_yt,,How come there’s no one there😂😂,28-8-2021,0
129,Lazada Philippines,toemaytoethegreat,,This is so sad,27-8-2021,0
130,Bob and bospi💙💛,mrhoppplayhouse2the3,,Squidword,26-8-2021,0
131,👾eseme👾,abductedsloth,,"pls, he's so sassy",24-8-2021,0
132,Crying obsidian,xcrying_obsidianx,,NOOO SQUIDWARD,24-8-2021,0
133,Drake??,dri_zzy2x,,“If one more person dabs at me”,24-8-2021,0
134,ホラゲ好き人間,souta887,,つまりどういうことだってばよ！,23-8-2021,0
135,Tucker🏈🏈🏈🏈🏈🏈🏈,cyclops100,,O,23-8-2021,0
136,Daratto,darattoo,,🥺🥺🥺,21-8-2021,0
137,Rome La 🐷,romela346,,🤣🤣🤣,21-8-2021,0
138,Ryan,riunakaryan,,"Use the sound ""My pronounce are He not him, cuz ill never be him"" and play the vid of squid dabbing on the parade",20-8-2021,0
139,ᴍʟᴏ-ᴅᴀɴ,mlo_bestfam,,🥺,20-8-2021,0
140,Scientific Life,khoahoc_vui,,Nhây thật sự 😂,20-8-2021,0
141,￼,videosonlyme,,re,19-8-2021,0
142,KAYLAH STOP STALKING ME,everyonehatesme180,,So beautiful 🥺,18-8-2021,0
143,Bob,day00123,,make him flossing pls,18-8-2021,0
144,thery.me,thery.me,,ang cute ni squidward🥰🥰😁,18-8-2021,0
145,ｊｈｕｌｉａｎｙｕａｎ-ｉｇ🧿☘︎,mamalhaivlogs,,squidward: watver 😂😂,18-8-2021,0
146,D E N Z 🌊,denzzzsun,,HAHAHHA HES LIKE “UGH THEY DONT PAY ME ENOUGH TO DO THIS”,18-8-2021,0
147,starbucksaddiction ♡,_lizzy.riddle,,I like squidward,18-8-2021,0
148,Mylove,mylove8986,,🥰🥰🥰🥰,17-8-2021,0
149,the sleepyhead artist,sleepyhead_artist,,Squidward is my favorite character in SpongeBob SquarePants he’s the most relatable,17-8-2021,0
150,Itzbarbsbruh,itzbarbsbruh,,lol,17-8-2021,0
151,<•~•Monchi•~•>,jacobmonchi,,Why is he sad🥺,17-8-2021,0
152,𝐿𝐼𝐿𝐼𝑇𝐻 🍃,broken.lilith,,☺️,17-8-2021,0
153,/command_block,thirdy_850,,he remembered back in the days,16-8-2021,0
154,Dhnnuu,dhnnuuu,,@khaby.lame he did it!!!,15-8-2021,0
155,jennifergomez3915,jd2005leo,,man the good times we all did in them 2000 -2019,15-8-2021,0
156,Alyssa Richmond363,xxkermit.the.frogxx,,@Alexandra Moran245 LMAOO,14-8-2021,0
157,Christian hernandez,christianhernand327,,squidward :(,14-8-2021,0
158,고구마,wappppppppppppppppp,,@wwwwwwwwwwwwwwwwwap ㅋㅋㅋㅋㅋㅋㅋ아 진ㅁ자 징징이 힐링된다,12-8-2021,0
159,⛓Darky👿,darky.emo,,my mood in the morning be like,12-8-2021,0
160,Vanessa Al Suwaidi,vanessaalsuwaidi,,Lol how he praying for god to let them stop making him dab alot,12-8-2021,0
161,┃┃¨　╋┓,hhdnk07,,どゆこと？,12-8-2021,0
162,︎︎,gallusgallusdomesticus1,,集合体無理😅,11-8-2021,0
163,Carys,qianth,,@yinnnnn_32 🥺,11-8-2021,0
164,恩~~~~~,ku_0701,,什麼意思？？,11-8-2021,0
165,𝐮𝐫𝐮,vantetaehyung0,,なんかくそかわいい,11-8-2021,0
166,パンダパンツ,pandacom2,,ユーロ優勝おめでとう,11-8-2021,0
167,.,soul1122332,,걸을때 소리나나,11-8-2021,0
168,"(New)白猫パーカーฅ( ̳• ·̫ • ̳ฅ)و ""ﾌﾘ",newsironekopaka1,,イカルドすべてにあきてるやん w w w w w w,11-8-2021,0
169,NARUTO&FREE,free_naruto_7ru10,,お疲れさま,11-8-2021,0
170,Ray,yongtaekh,,@gureumi27 ㅈㄴ 귀엽당ㅋㅋㅋㅋㅋㅋㅋ,10-8-2021,0
171,喪黒福造,mogurofukuzo,,ぷらーん,10-8-2021,0
172,ーうん,pumipumi38,,こういうアクターになりたいな,10-8-2021,0
173,だいの親父🫑,uk_057dai,,村人,10-8-2021,0
174,🐑,sheng._.pei,,為什麼有點可愛,10-8-2021,0
175,もも,_nouzirugirl69_,,イカルド可愛いww,10-8-2021,0
176,13y,user547631673,,不要叫我黑哥,10-8-2021,0
177,inggggggggggggg0,inggggggggggggg0,,我這輩子 只在乎六點能不能準時下班,10-8-2021,0
178,眉毛愛好家,killmenurude,,ええええ！！！行きた~~,10-8-2021,0
179,备备不卤多呱,juan_06011,,憂鬱大頭,10-8-2021,0
180,yura,yura0626,,イカルドかわいいなwwww,10-8-2021,0
181,酒酒啦,love_vm,,@gs.202115470 嗷超可愛的,10-8-2021,0
182,後藤輝樹,kaodasi125,,どゆこと？,10-8-2021,0
183,佳💫,mm061230,,@lkx061027_ @0713mia @estrus_10 我朋友,10-8-2021,0
184,万次郎の鲷鱼烧,mikey_____09,,從小就很喜歡章魚哥(⁎⁍̴̛ᴗ⁍̴̛⁎),10-8-2021,0
185,ふらん🎩🌜 No war,akb505,,頭見たとたんゾワッてしたwww,10-8-2021,0
186,=-O,meanimal2r,,앜ㅋㅋㅋㅋㅋㅋ 겁나귀여워,10-8-2021,0
187,びび,monchhichi_ru,,鼻たぽんたぽんしてるかわいい😂,10-8-2021,0
188,𐕣,f33llik3dyln,,dabしてよ,10-8-2021,0
189,송수연,ainspane,,징징이 귀여워 ㅋㅋㅋㅋㅋㅋㅋㅋ ㅠㅠ,10-8-2021,0
190,吾輩はバナナである。,bnana_1004,,ドユコト？説明プリーズ,10-8-2021,0
191,返信を見る V（47）,dy6ni7dthh4v,,😂,10-8-2021,0
192,塵,jintouzei,,where?,10-8-2021,0
193,なのぷ,uoxou_piyo,,煽り耐性高いな,10-8-2021,0
194,태환,jangtaehwan1,,와츠고잉온 한국형님 와야죠ㅎ,10-8-2021,0
195,@チュパピbot,munyanyo1313,,明日尿検査なのに…,10-8-2021,0
196,😻,user6460842373494,,あっ,10-8-2021,0
197,いとう,itodesukedomo,,イカルドっぽい笑,9-8-2021,0
198,하연,hyydiwu,,저개 왜요?,9-8-2021,0
199,z_zx,pplopineappleo,,he’s like saying OH WHY WORLD WHY!!,9-8-2021,0
200,조지아엘레나엘리자베스마리앙투와네트3세,dohyon0411,,왜 귀엽냐고ㅋㅋㅋㅋㅋㅋㅋㅋㅋ,6-8-2021,0
201,Spam like=block,miss.ecl1pseq,,IMAOO,6-8-2021,0
202,"호꼬♡,호돌♡ 누나",anharate1,,@woohuns0904 오늘 너가 보여준거 왜케 많이뜨냐?,4-8-2021,0
203,勞贖,darrmmd,,他笑的時候鼻子會縮回去嗎,3-8-2021,0
204,수민,qieididjq,,@sjajaiwiwj 징징이,3-8-2021,0
205,biggysmallz,smallybiggz,,the pain in his motion,3-8-2021,0
206,りん,rin_burn.e,,え、イカルドらぶちになった,3-8-2021,0
207,簡單的腐女\(ϋ)/,dreamnotfoundoh,,章魚哥：又來(ب_ب),3-8-2021,0
208,죠죠러의 재생목록/Jojo fan's playlist,bonkman84,,zzzㅋㅋㅋㅋㅋㅋ,3-8-2021,0
209,すずき🐕❤️‍🔥,ais33559,,イカルド鼻無くしたらイケメン説。,3-8-2021,0
210,しあわせ素肌,aaww800,,はああイカルドちょーかわいい,3-8-2021,0
211,makaron,ta.ma824,,まんまイカルドで草,3-8-2021,0
212,かまじい,nower692,,鼻がひらひらしてるw,3-8-2021,0
213,なの,user79828022,,頭集合大会w,3-8-2021,0
214,gray,izukus.emo.phase,,PLEASE HES SO DONE-,2-8-2021,0
215,トウトイテイオー,mumeinanasi3,,4枚重ね4枚重ね4枚重ねじゃなきゃ〜ダメさ〜うぇい！,2-8-2021,0
216,笑到美叮美噹🤣,taotaohahahahahashutao,,🤣🤣🤣🤣🤣,1-8-2021,0
217,まお,mao212115,,可愛いすぎる😂😂🥰,1-8-2021,0
218,ʕ•ᴥ•ʔ,mosquito._.628,,아 졸귀 ㅠㅠㅠㅠㅠㅠㅠ,1-8-2021,0
219,Goose knife,goose6905,,bruh nono is now bad,29-7-2021,0
220,fitrisoraya8917,fitrisoraya8917,,sassy😂,29-7-2021,0
221,LopezRen,renfrihlopez,,🤣🤣🤣🤣🤣🤣🤣🤣🤣🤣,27-7-2021,0
222,Joshua,vjshuaa,,😂😂,24-7-2021,0
223,TuTu,panwijjauuu,,@crizsajoynicole qt,24-7-2021,0
224,Harley iriz,thenameishkiking,,poor Squidward...🥺,23-7-2021,0
225,Dream_OwO🇰🇷🇺🇸^^,dream_owo22,,😌,23-7-2021,0
226,Ryder,ryderwillson,,the dog had enough let it rest :(,22-7-2021,0
227,angry_children,angry_children0,,@offical.katsuki4 @sanaihasveryj_ the way they stare at the sky,22-7-2021,0
228,Lizette Gutierrez,lizettegutierrez2,,He” remembering the meme,22-7-2021,0
229,strawbery_shortcake🍓❤,something.cute2,,@lian_____.x זה הצחיק אותי,20-7-2021,0
230,Unknown?,stefana_chan,,squidward is tired:(,19-7-2021,0
231,Im supra,suprrrrrrrraaaaaa,,So cute,17-7-2021,0
232,Paul Medina,paulmedina27,,why squid? why???,17-7-2021,0
233,Labu labi,labulabiie,,😂😂😂,16-7-2021,0
234,이승준,dltmdwns5804,,징징이 댑하는거 생각나네,16-7-2021,0
235,Caca,yo_mama_obama69,,Squidwards like when will ther be a year that they don’t say that,14-7-2021,0
236,Aiden😊😊,they_hateaiden,,Poor Squidward!!!!!,13-7-2021,0
237,😸,satoruwu._,,@hph1909 :),12-7-2021,0
238,tinylittlewitchy,.sammythemuffin,,He just looks so done lmao 😭😭,12-7-2021,0
239,lemonberry🍋,limonberry42,,ain't Squidward shirt Brown 🟫,11-7-2021,0
240,Glitxh,glitxhie,,what happened exactly?,11-7-2021,0
241,E 🦋,eeee.xxx,,wwwwwwwwわたしもそれきてみて動きたい,11-7-2021,0
242,The OG,real_wendys_og,,he's remembering his fallen brothers 😔,11-7-2021,0
243,Gew_pap,gewrgiaaaa__,,Am I the only one who would go and give him a tight hug 🥺?,9-7-2021,0
244,giselle :),giselle_gordon1,,@thedylxn WAIT HIS FACE (eyes and nose) WTH-,8-7-2021,0
245,ぴーなつ@あさみ民✌️🐰,kokoro4750,,イカルドはタコ？,8-7-2021,0
246,I’m not gonna be online💕,savannah._...lowkey,,He has flash backs🥺,7-7-2021,0
247,🍓🍓🍓🍓🍓🍓🍓,_strawberryxskies_,,😂😂,6-7-2021,0
248,Peterpanlover@,karenhater13,,😂😂,6-7-2021,0
249,broken.craft,broken.craft,,he’s like now was that necessary,5-7-2021,0
250,Jaden Holley,jadenh4454,,this is hilarious omg😂,5-7-2021,0
251,ky,hhhzhaq,,Squidward head looks like from a salt or pepper thing,5-7-2021,0
252,Torian West,torianwest1,,i didnt know he was sad🥺🥺🥺🥺🥺🥺,5-7-2021,0
253,Rendi Andika,rendi_polos,,99+,5-7-2021,0
254,oof,lilyb.lol,,lolllll,5-7-2021,0
255,Gia,elliizu,,no need the music to make it beautiful. It's already beautiful,4-7-2021,0
256,sexiest,_666exist,,haha,4-7-2021,0
257,Swaggy_k1e2,romanstolemyfood,,Why he look so sad doe-😭🖐,4-7-2021,0
258,Farhntu,rambutkecoa,,@bebelac_________________ wkwkwkw,4-7-2021,0
259,😼,tea090977,,🥺,4-7-2021,0
260,Big boi hunter,hunteriscursed,,😪,4-7-2021,0
261,Its me ti,tiaiayaya,,Kayaknya enak bgt kalo jadi squudward gak perlu begini begitu,4-7-2021,0
262,(ง'̀-'́)ง,neasjayar,,my man's squidward's like god why me,4-7-2021,0
263,ZillaYyier,broken.toy8,,😂😂😂😔,4-7-2021,0
264,LJ,leejihoooon,,🗿,4-7-2021,0
265,돌맹,_dolmeng,,@y_.eun 나 저거 사줘,4-7-2021,0
266,Ryu Zen,ryuzen22,,why we still here 🙁,4-7-2021,0
267,not swag,euanpogi007,,squid ward:im sad sorryv Parker Burton,4-7-2021,0
268,Biqqq.,biqqq_abiq,,"only clowns, who can entertain others but not yourself :)",4-7-2021,0
269,Rias,aegis_fin1,,イカルド見てぇw,4-7-2021,0
270,iamjusthappy,iamjusthappyi,,lobang2 kepalanya bikin merinding😬😬,3-7-2021,0
271,Crayolabox06:),crayolabox03,,He had that “If one person more say this” look 😂😂.,3-7-2021,0
272,𝓱𝓪𝓼𝓱𝓲𝓶,abang_hashim,,👋,3-7-2021,0
273,🌸,bakugounohime,,damn why this really looks sad 😭 and the sound made it worser hahahha,3-7-2021,0
274,juko james,jokojokoloko07,,hahahahaha,3-7-2021,0
275,febaydeple,ayu19ayu,,menjiwai😂,3-7-2021,0
276,Batyabatbat,batyabatbat,,"squidward: ""...not this again...""",3-7-2021,0
277,ayu,ayustyrn,,hauahahauah “ughh nope”,3-7-2021,0
278,ℑ𝔣𝔞 𝔫𝔲𝔯𝔥𝔞𝔶𝔞𝔱𝔦 ❤️🌹,ifa_jasmine84,,🥰🥰🥰,3-7-2021,0
279,🧿<3,theyluvfernnn,,MOOD,2-7-2021,0
280,futebol 😍,karina.7274,,𝙩𝙖𝙙𝙞𝙣𝙝𝙤 🥺,2-7-2021,0
281,wn,w3nniii,,@yvesje :),2-7-2021,0
282,Uchiha Sasuke 💜💜💜🛑🛑🛑,saskue_uchiha524,,I miss him doing the dab,1-7-2021,0
283,tatum,i.dont_use_this_account_,,it’s already beautiful,1-7-2021,0
284,ぽてと,xxxkong0877,,鼻プルンプルンしててかわいい🥰,1-7-2021,0
285,VanTeks*19,mahiruxkuroa445q,,hei dimana coolanya?!,1-7-2021,0
286,user9812537143068,valeaitana3,,He was like: WHY GOD,30-6-2021,0
287,Yvone Milay Thura,yvonemilaythura,,Here before @sssniperwolf,30-6-2021,0
288,zee_,calistaze00_,,🥭,30-6-2021,0
289,boba_skittlesxixiYT,nezuko._.kamadoyt,,Is that you,30-6-2021,0
290,Hunter Robinson,chvyrt,,squidward contemplating existence,30-6-2021,0
291,-Hello-,freddy.fazussy1,,Salt shaker squidward,14-9-2021,0
292,??,gllrhwl,,@lalalaa_4 @angstsupremacy ko sas,29-8-2021,0
293,이앤디,ijihwan06,,표정 킹받네,28-8-2021,0
294,c8 c8,ihsevfbsdjfvbwrgbw4lrgf,,他一定是黑哥,10-8-2021,0
295,Land,julia0487,,章魚哥的另外兩隻腳呢？,10-8-2021,0
296,·͜·,dandelion4440,,イカルドがいちばんすき,10-8-2021,0
297,名無し,nanashi_oio,,まだからかわれてるのこれでWWWWWWWWW,10-8-2021,0
298,恩恩,nn900809,,為什麼我想到黑哥,10-8-2021,0
299,Yd yg ke dua,yudhhhaaa,,squid yang menyebalkan sangat menyebalkan,11-7-2021,0
300,Surabaya Terkini Official,surabayaterkini,,semangat patrick,5-7-2021,0
301,난혼자서도잘놀아,honja_nollyogo_mandeom,,진짜 너무 귀엽다.. 보고싶어,4-7-2021,0
302,Khaby 𝘀𝗵𝗲/𝗵𝗲ଲ,khaby.fpxx,,This is dad.,4-7-2021,0
303,carl,mrchongyl,,@itsyaboinicky_ mood,2-7-2021,0
304,meg,megg.sweeneyy,,@becca this sound,vor 5 T.,0
305,🙉Monkey🙈,ferrell_dingle_the_3rd,,Bro was like: BRUH I DID THIS 6 YRS AGO,29-1-2022,0
306,uh,duh1nonly,,bro got ww2 flash backs😔💔,6-9-2021,0
307,ChillinWithTheChickens,chillinwiththechickens,,Aww squidy,4-9-2021,0
308,Louisyru💬🤍,louise.ru,,my kids favorite show!! 🥰🥰🥰🥰🥰,1-9-2021,0
309,Mimi Wei,wellring24,,哈哈哈😂,22-8-2021,0
310,niniee ･ω･,ninie._one,,CUTE,22-8-2021,0
311,move along,juliesneezer,,aw hes cute,18-8-2021,0
312,unclecokek1,unclecokek1,,@elle000_00 muka mcm u,18-8-2021,0
313,Hanad,hundo_bando2021,,squidward was going through it 😭,18-8-2021,0
314,Miyu,mmer90210,,イカルドが1番好きwwwwwwwwww,18-8-2021,0
315,✨✨✨,jassssssssszz,,@khaby.lame is that you,17-8-2021,0
316,Jaycee,jaycee1401,,cute squidward 😂😂😂,17-8-2021,0
317,amm⭐️🌍,whatsup.com__,,キエッリーニこんなとこで何してん,16-8-2021,0
318,Rafaeldorado21,selecta.melawai89jaksel,,@khaby.lame poseee but like prying😆,16-8-2021,0
319,oki,dilonardosimp,,@darksasuke95 il fait notre pose sur bitmoji party 🧍🌈,14-8-2021,0
320,momo,momonosuke203,,かわいい、,12-8-2021,0
321,モモ,backfat2,,え！どこ？！行きたい！！！！！,10-8-2021,0
322,stop,renamed120,,鼻かわいい,10-8-2021,0
323,MAX,ricky10098989,,パイナップルに住んでいるー,10-8-2021,0
324,りっくん💊,black0516,,仕草が似すぎ笑,10-8-2021,0
325,ふくみ😺,y_f1009,,いーちゃん……？,9-8-2021,0
326,dianejoseph47,dianejoseph47,,That's how you know he done with life 🥺😔🙁,9-8-2021,0
327,Hello,hergyhergy,,squidy had enough,6-8-2021,0
328,Jacob,gigachadfriend1,,more like sad,4-8-2021,0
329,I have another acc and quitted,qvillv,,𝙄 𝙙𝙤𝙣'𝙩 𝙜𝙚𝙩 𝙞𝙩,4-8-2021,0
330,Praveen Luitel,praveenluitelarts,,why does he look like @khaby.lame,31-7-2021,0
331,cheez curds,i_eat_deck_cards,,Hes so disappointed oml,29-7-2021,0
332,Hello there <3,just_chilling_how_bout_u,,He rlly said “ he’ll nah go home girl,27-7-2021,0
333,funtime_foxy890,funtime_foxy890,,r.i.p,25-7-2021,0
334,.,______..__.._______,,Squidward contemplating life 😂😂😂,25-7-2021,0
335,yitian?,huyitianswifiee,,@venti.vj woah..,24-7-2021,0
336,voixy,yuwrey,,"The sad thing is the original squidward who dabbed got fired, which is why this Squidward didn't dab.",20-7-2021,0
337,토마,korkkkk0,,are you happy?,19-7-2021,0
338,凡乙立尺,ks2b,,Damn,14-7-2021,0
339,DK | Takoyaki,dustintrono,,squidward cute hahaha in MASKOT😂🥰🥰,14-7-2021,0
340,Gommii Channel,gommiichannel,,best keep character 😂,10-7-2021,0
341,🦇Dracula’s Hood Bitch🦇,cyanideflavored,,BYE. I’d have screamed.,10-7-2021,0
342,rapmon,_rapmoster_,,how sad😫✋,7-7-2021,0
343,Bat naman?,ajsan87000,,JOLLIBEE CAN DO THAT WITHOUT BEING FIRED CUZ HE'S THE BOSS.,6-7-2021,0
344,K҉A҉Y҉ 🦋✨🌈🧚🏽‍♀️,artth0tz,,This is the origin of her villain story.,5-7-2021,0
345,migoyeng,miegoyeng16,,squidward no smile :(,5-7-2021,0
346,rarareu,raraalnr,,kok kasian ya,4-7-2021,0
347,😜,222..stephxni,,😂😂😂😂,4-7-2021,0
348,elfreda5,elfreda177,,skwkwk wiwod galau😂,4-7-2021,0
349,dyyle9w78fo2,dyyle9w78fo2,,why~,4-7-2021,0
350,Gwendaa,gwendysider,,I love squidward LMAO,3-7-2021,0
351,T Manz,t_mnz,,That fish on the background,3-7-2021,0
352,Apple User255933,lukas_mike_,,Leave him alone for once,2-7-2021,0
353,bintang iklan spiritus,bintikus,,i mean...she dabbed i’ll probably give the same reaction,2-7-2021,0
354,Colin Ed,luvlace20,,me: feels bad for laugjing 😂,2-7-2021,0
355,colossal_84,colossal_84,,YESSSSSSsss,6-7-2021,0
356,aaauulll,aaulliiaaaaaa,,@user112400507 damn,4-7-2021,0
357,Kento-San,kento_s18,,why do i feel so scared @lxt.icia_,1-7-2021,0
358,sashuh,sashshoe,,@planowestseniorhigh why did this make me cry,22-8-2021,0
359,KUDIL 640874,cudil640874,,😂😂😂😂 that so funny lol....,3-7-2021,0
360,J,jjdjv12,,😂,1-7-2021,0
361,Gaming with Sultan,xsunlanx1,,Sad🥺,2-7-2021,0
362,Eduardo0137,eduardo0137,,eu n entendi 😔 alguém explica,7-5-2022,0
363,^.^,yyyymmdd3,,@ta2subottlegod 해외진출?,3-8-2021,0
364,greedbirdy,greedbirdy,,just do it,25-7-2021,0
365,씨발새끼야,30.50e,,ㅗㄴ나구ㅏ엽다ㅠㅠㅠㅠㅠ,15-7-2021,0
366,greedbirdy,greedbirdy,,I felt pain,25-7-2021,0
367,Thiago<3,thiag.hdrmp,,"Felicidades me encontraste!! soy el comentarista secreto, primo de @_neko.xd_ dudo de que me vuelvas a encontrar, Adios👋",20-8-2021,0
368,🐵🦍🐺 Antonio 🦁🐯🐮 (on),minivlogs123453,,"@Shindo life:Where all the comments?
︎
︎
︎
︎
︎
︎
︎
︎
︎
︎
︎
︎
︎
︎
︎
︎
︎
︎
︎
︎
︎
︎
︎
︎
︎
︎
︎
︎
︎
︎
︎
︎
︎
︎
︎
︎
︎
︎
︎
︎
︎
︎
︎
︎",4-7-2021,0
369,mare,mare.frau,,@kkgreil MY FACE IS SQUIDWARD,7-5-2022,1
370,峰田　実,minetaminoru22,,鼻、オイラのタマキンやん,23-8-2021,1
371,<33,yariam.._..pr,,is squidward🥺,21-1-2022,0
372,user8657830793223,user8657830793223,,Lameeeeeee,23-11-2021,0
373,Vjcapili,ohmyvjj,,small tiktokers let's support each others,26-7-2021,0
374,heysaa 🦖,els.frnd,,gemes liat idungnya pengen Noel,6-7-2021,0
375,Abbi,its_not_abbi,,its always squidward do this and never squidward how are you doing😪😪,15-1-2022,0
376,BIG SEXY DAKOTA 😫😫😫,blonderitzcracker,,You either die a hero or live long enough to see yourself become the villain,27-11-2021,0
377,모지,dyckwdreut25,,마상,28-8-2021,0
378,ㅋ,rr27qi18rfux,,첨에 하늘에 처다보면서 한심좌를 불러내버릴려하네,28-7-2021,0
379,냥이씨,yomyomaasister,,처음에 여성분이 몸짓한거 로블에 징징이가 그렇게 몸짓하면서 따라왔는데,15-7-2021,0
380,pop,arttimegrease000,,i wanna steal Squidward's nose,18-8-2021,0
381,dyv8j02dnvg3,dyv8j02dnvg3,,恐怖を感じたのは俺だけ？,10-8-2021,0
382,食い意地モンスター,naporitan99,,鼻もちもちしてそう,10-8-2021,0
383,キャスバル・レム・ダイクン(公式),kyasubaruniisan,,ズゴックやん,10-8-2021,0
384,空,piece_of_meat29,,鼻から╰ꂹ╯はえてる,4-8-2021,0
385,𝕵𝖆𝖇𝖇𝖆𝖗,jabbarajaa,,@l04nj1ng_ ngakak cuk🗿,4-7-2021,2
386,Squidward,squidhyrohito,,go to bikini botom,5-7-2021,0
387,Chariz,d0g1es,,depressed squidward,2-7-2021,0
388,Kimberly Santos Aquino,kymakino,,Hahahahaha attitude tlga to si squidward 😁😂😂,20-8-2021,0
389,うい˙˚ʚ(*´꒳`*)ɞ˚˙,tadano91saidayo,,鼻ちぎってやりたい笑,11-8-2021,0
390,阿月,gugigugi.0201110,,他頭上的點點看起來好噁心(´▽｀),1-8-2021,0
391,finandjakebubblemar,shaquackeroats,,"he was like g*d why me,",10-8-2021,0
392,humza,hamouziii,,squidward looked more depressed than usual,15-8-2021,3
393,Big shart,collumz,,It sucks that they can’t do this because they straight up just get fired if they do dab.,22-7-2021,1
394,TrePaidFr,tre._33,,This song actually make everything 10x sadder,20-8-2021,0
395,ほそかわ,hosokawaaaaaa,,☹️,17-8-2021,0
396,uncpar,paru3n,,鼻水出た,30-7-2021,0
397,Kirito Love Eugeo,kiritoloveeugeo,,มองดูว่าเมื่อไรลุงจะออก;-;;,30-7-2021,0
398,Mel ~!,daisy._.mel,,He looked so disappointed,23-7-2021,0
399,kimRJ,asmmmak,,@mayasa_soot HE LOOKS DEPRESSED,15-7-2021,0
400,Gett.Yokoツ,get.yokofamily89,,@bowiekwlr มึง!!! 😂😂😂😂,11-7-2021,0
401,rayanmuhammad_,rayanmuhammad_,,aku benci hidupku -squidwod,10-7-2021,0
402,rocky alf,rockalf,,Gw Geli liat Atas kepala Squidward 😌,10-7-2021,0
403,พชญาดา ทองม,__7_123_,,เอาซะเศร้าเลย😂😂,5-7-2021,0
404,M06-CABELLO,m06cabello,,Why squidward always acting weird😁,5-7-2021,0
405,Wisanu Tooptong,gamewizanu,,เศร้าจังเลยสควิดเวริด,4-7-2021,0
406,Đại Quản Giáo,daiquangiao,,Nhìn tên tui đi,11-8-2021,0
407,漆黒の追跡者kuro川明人,dyfbdcvmih4x,,”やつ”みたいな雰囲気出てていいねw,10-8-2021,0
408,MineSound,minesound,,현제 징징이표정 -> 내표정☹,10-8-2021,0
409,LẠ NHỈ,lalungnhiii,,https://vt.tiktok.com/ZGJSpanSM/,26-7-2021,0
410,NerecOjay Abelleza,nerecojayabelleza,,https://vt.tiktok.com/done😂😂,5-7-2021,0
411,April-Rain Dunlap871,blob_flew,,Her:dabs* do it 😀 him:stares at heaven*speaks to god*should I- 😀,23-8-2021,0
412,laniyah1229,laniyah1229,,When SpongeBob dies:,7-7-2021,0
413,Voltgamingproductions,da_paper_man,,Why squidward why,4-7-2021,0
414,jerry,sittingforg,,"it's always ""squidward can you dab"" and never ""squidward can you take a picture with me"" 😔",1-7-2021,0
415,ghoust,itsnatbih,,his fucking frown 😭😭,31-8-2021,0
416,PocketVIPs,pocketvip1,,I hate to say this but that's a normal man wearing a Squidward costume,29-8-2021,0
417,Raydoma,charliezones,,he's too soulful squidward,28-8-2021,0
418,You got the whole chat laughin,meme_without_humor,,"The only thing people want from squidward is the dab. Not him, just the dab. In this video I understand his feeling why do people only want me to dab.",28-8-2021,0
419,Tyler ⭐ 4 town forever ⭐,nobodybutus0k,,He dong twant to dab because last time do u know about the squidward dab ? he got fire thats why he dont want to do dab,26-8-2021,0
420,Vince Jennsen Ela105,superpinoy71,,His superiors are not having dabs for the people,15-8-2021,0
421,Monseiur Pickle,monseiurpickle,,"Man, I feel so bad for Squidward since people keep asking him to dab. 😂",5-8-2021,0
422,Michelle,michelle_angel4,,"Hi stranger. Just wanted to let you know that Jesus loves you and so do I <3
John 3 :16 -21",1-8-2021,0
423,Blueberry bonfire,_smart_fella,,I heard they can’t dab because the OG squidward got fired for dabbing,30-7-2021,0
424,user106802553483,doofis_,,my guy is so fed up with ppl asking him to recreate that vine lol,24-7-2021,0
425,SkullGuy 💀,skullguy15,,when the squidword done with his dab meme,12-7-2021,0
426,Baksoaci,kibruazka,,SQUIDDY BEING SQUIDDY,3-7-2021,0
427,Mister A,alvinontiktok,,Squidward my man ain’t playing around,2-7-2021,0
428,Big chichis,cmtpp_,,@sharoll.michelle me 2,1-7-2021,0
429,Spicy Pisces,nicki_naenae,,https://open.spotify.com/playlist/3GKej9sMZ9Ss9GqSc568Jn?si=OEGLN0rASwmcsSBjzi8yXQ&utm_source=copy-link&dl_branch=1,18-8-2021,0
430,eva,psyaoo,,@xvezx,29-7-2021,1
431,ana,anafizlan01,,@nrzuhairh,23-7-2021,1
432,tampan dan original,saudara.laki_laki.hebat,,@usertigril,4-7-2021,0
433,𝙇𝙪𝙘𝙠𝙮𝙮𝙮,lucky_aiko0,,@laraqueen322 @error2359,16-7-2021,2
434,mu qing apologist,opusequilibrium,,@rainagalit @monter00s @katkatbalite,21-8-2021,1
435,ILikeGermanBoys✨,aurelia_mich,,@irondeficientc @snippergay,18-8-2021,1
436,mary jeanne,the2003sfairy,,@ryydikuluslol,21-8-2021,1
437,CD,smrbmdc,,@buh.bles,10-8-2021,1
438,❓Taco.Jelly❓,_the.big.jelly_,,😂😂,4-2-2022,1
439,☁️,czubowna,,@wermucka,20-11-2021,1
440,Chocolate Lord,chocolatelord1000,,@kizzy_lyrick,4-9-2021,1
441,.,sialoiss,,@sgilmn,22-8-2021,1
442,𓆩 ♡ 𓆪,lxuriaaa,,@eros_lune,21-8-2021,1
443,eucalyptus,jariachi,,@arwhievillarino,21-8-2021,1
444,_ss,_smsms,,@.namelessss @karlathugg,20-8-2021,1
445,ray,papiporay,,@itbbar,17-8-2021,1
446,yea,udontknowmeatallaight,,@simpforayul,16-8-2021,1
447,.,192837a19,,@gh_0h,15-8-2021,1
448,kada_kat,kada_kat,,@chqrrlyxd,12-8-2021,1
449,QyhNhi,qyhnhi,,@nghm_nguyet,12-8-2021,1
450,hi,mushroom_dates,,@ferlansey,11-8-2021,1
451,Samraa,samra.kk,,@nejlathecreator,6-8-2021,1
452,:3,sekkularhaze,,@_david_ms,1-8-2021,1
453,당신이뭔데,1006_.mo,,@userssssrwd8yk,31-7-2021,1
454,",",1l8_sh,,@999eeerrrr,13-7-2021,1
455,Gtkfjfk 5478,hdjfjfj053,,@yocebgro,12-7-2021,1
456,sienna,sienna.may_,,@lannii_02,7-7-2021,1
457,dianaolvera,dianaolvera2.0,,@fatimavillegass_,2-7-2021,1
458,d.,rvncl.w,,@icedcoffy09,30-6-2021,1
459,какая то пяу пяу,sweetheart.kichi,,@chei.zi,15-8-2021,1
460,Maddie,maddie_4216,,@crystalsolorzano6,2-7-2021,1
461,mr0wltv,mr0wltv,,@nessacastro.16 @jhernmv_,11-7-2021,1
462,adiknyasiboy,adiknyasiboy,,@favouriteeboyy,12-4-2022,0
463,Jostin22,videos_stumbleguys34,,@kisha..edits,10-1-2022,0
464,user6423960471420,nemothefish_official,,@cneely102,5-10-2021,0
465,Manny Hernandez,manny.is.not.funny,,@totally._not.emma,19-9-2021,0
466,dunno,nowayyyyyyy_7,,@celestine_ashh,12-9-2021,0
467,hi,mushroom_dates,,@ferlansey,6-9-2021,0
468,Hej jeg er Maria ♊️ 🇩🇰,mariaskovsby,,😳,5-9-2021,0
469,Akiooooo(ella),fruitsnacksincups,,@mastergoop,4-9-2021,0
470,♡∀♡,heheha1306,,@cottony_nisa,29-8-2021,0
471,neta,neta_v123,,@user971309186823,29-8-2021,0
472,Gloss' Sunshine 🌈,miniongiuwu,,@hobiyourhope_,29-8-2021,0
473,M4di378,m4di378,,🥺,28-8-2021,0
474,Rea Laggui Galero,reagalero,,@reannelg,22-8-2021,0
475,Jean,jeanxna,,@renthelonewolf,21-8-2021,0
476,Z-Brot💃,z33c10,,@melmeldy,19-8-2021,0
477,michie 🌞,miechiechang,,@sky_xxi26,18-8-2021,0
478,janella,ilovelilpeepxx,,@lmfaoolmaolol,18-8-2021,0
479,yam♡,mayriuchi,,@penguinknows,18-8-2021,0
480,hwhaha,ccccorpe,,@aplsvcmd,18-8-2021,0
481,Luna,aquilalunaa,,@tsukichan_10,18-8-2021,0
482,Lia,laxtte,,@reputashun,18-8-2021,0
483,deved,devinarrssa,,@devina_rossa,18-8-2021,0
484,✨,m.mymymy48,,@nnnnnnaaa16,15-8-2021,0
485,拿莫·郝雌（部落公主👑）,tbcbas,,@4565441d @why_i_download_this,11-8-2021,0
486,ruth,doxothao,,@yotsuui,11-8-2021,0
487,Amber Cheun,acheun23,,@3rickim,10-8-2021,0
488,Shi,shijiazhen,,@demo_9797,10-8-2021,0
489,lupa0120,chuan_yun_yao,,@userfykcgmagcz,10-8-2021,0
490,hehe,m4yr30,,@badoniz,10-8-2021,0
491,珮芳.,pei_fang.0926,,@chenwei0206,6-8-2021,0
492,🦋,nabis_calling,,@sujin._.0310,3-8-2021,0
493,🫧,isaeop,,@hellozczz,31-7-2021,0
494,soyoul,usersoyoul2,,@user5456332852132,31-7-2021,0
495,just your average weeb,hanjuroki,,@joisuriin,29-7-2021,0
496,I farted lol,jordanarzaga_,,I farted loI,5-6-2021,3
497,melty!  ֗    ִ  ۫   ˑ<3,tjh.garden,,Porque hacia el dab oqndlamqodnslqlw same calamardo same,8-6-2021,3
498,<3,kachoww0rm,,@roses13bees @wilcox.03,5-6-2021,3
499,🤍Random🖤,random_0person0,,@obanaithebanana @savage.games NOOOOOO,5-6-2021,3
500,Old Acc,aidan.wuttke,,he had some war flashbacks there @jaixy15,5-6-2021,3
501,Brisutería,brisuteria_,,@4nnd_lucio @fatima.borjas,9-6-2021,3
502,-.-,s.alien.s,,@kashimakotaro @kaejisuna,5-6-2021,3
503,NightBoreZ,nanyourbae1,,mendalami peran banget anjrit wkwk,5-6-2021,3
504,Chris Trotta Comedy,christrottacomedy,,This squidward actor deserves an oscar,5-6-2021,3
505,Oi_matu,oi_matu,,@err0r_user_not_found JAJAJAJAJAJ,5-6-2021,3
506,ACE,deadlycurious_,,@mmmmmmmmn420 @abbie.777 @teganrose73,4-6-2021,3
507,*:･ﾟ✧*:･ﾟ✧,kokom1luvr,,@_stephaquino @positive_pear HELP ME,5-6-2021,3
508,I bet my dad could kiss ur dad,dadsfist,,ngl I bet the actors get tired of being asked that like... probably 5 times a week 😅,5-6-2021,3
509,iris,just4eyeball,,@yummmylice @strawberrytiddymilk @snfidlemdjdjks0 💔,19-6-2021,3
510,😼🤍✨,phalonne2,,@justejadeee Carlos il me fait de la peine Jsp pk 😭,9-6-2021,3
511,you'll never know,sunoosleftnostril,,he will never escape his past,5-6-2021,3
512,Kaisen,kaisen2dsimp,,@soulkingalex @itz._.kianna12 LMAOOOO,5-6-2021,3
513,Gloria Reka,gloriareka,,@emma.seifert,5-6-2021,3
514,It’s me,killerr_77,,امانه يشبه الي يقول صفات الرجال المتفق عليها عالميا 😭؟,5-6-2021,3
515,Mike Nguyen,miknoooget,,@oppsieitsada @pollytheperson,5-6-2021,3
516,PPPP,._.ppy,,@12_sq 我要對他跳章魚舞,5-6-2021,3
517,leah moore,leahkiwibird,,@catz.in.hatz @ghostg1rrl @lofilotad @soppysappho,5-6-2021,3
518,Ogór/Ogur,lubiegenshina,,@aley...pani_shin on się załamał XDD,5-6-2021,3
519,TuhqaTano,tuhqa_,,FISHPASTE,19-6-2021,3
520,Thomas,im_scared.24,,@little.cora7 @cr3_17 @bushcraftnick55,5-6-2021,3
521,charlotte burrell,charburrell,,@littlezaney99,4-6-2021,3
522,Tweek Tweak,jer_tweak,,"@craigtucker76 :""0",5-6-2021,3
523,🦑Squirtle Squad🦑,legendarybeanburrito,,"He really looked up and was like “Fish Lord, why you do this to me?” 🐟🙏",5-6-2021,3
524,zawa,zwnhz,,@ainilariffinn @zhrhsnaachoi @wnnranltyha @chowww__chowww @belluvyou_ nak sekor 🥺,5-6-2021,3
525,𝓛𝓲𝓵𝔂 <3,lilyssssss_,,@_madsmckeownn @salty._.dorion @.__ayla__.t,6-6-2021,3
526,Sophbarstow07,sophbarstow07,,@tropiclikeitshot_123 the face of disappointment,5-6-2021,3
527,russian4mona,russiancat61,,пересмотрел раз 100 🥺,6-6-2021,3
528,Poboy00300,poboy00300,,It’s always “Do the dab Squiward” but never “How the dab Squidward”,4-6-2021,3
529,???,helodroplet,,@goinggreyy @leheidicat @lesquidd,5-6-2021,3
530,Gene Kazama,hoseff_,,@no_shit_bish @_yzaprank 😭,6-6-2021,3
531,Mazzyyyy~🧛🏾🥂,7eleven.h,,@ayooshifty @ghostd.mp4 @jebstudio BRUH,6-6-2021,3
532,M-16,h1.1f,,ما فهمت,5-6-2021,3
533,I_Maps シ︎,i.maps7,,@liapontesfreitas Eu quando acordo triste kkkkkk,7-6-2021,3
534,Grawney,grawney,,the fish behind applauding squidward for overcoming his addiction to dabbing 😂😂😅,4-6-2021,3
535,Victor Ortegon,victorglz327,,alguien que se sepa el nombre de la cancion🙏🙏🙏🙏,6-6-2021,3
536,Tom,incritom,,luloso estas depressivo,6-6-2021,3
537,olivia,oliviadelos,,@alexmonc04 you when i say boi 😢,5-6-2021,3
538,Jaklyn,jak1yn,,@rachreib @aashleythompsonn @morgan.reib @miafbird,4-6-2021,3
539,GABE,zzvxnf,,@me.dees @lowkey_112 😢😢,4-6-2021,3
540,Erica Turner,rica.turner,,Okay but where are you meeting Spongebob characters cause I’m in!!,17-6-2021,3
541,ardurkadurka,arturkadurka,,@skvore @prarararrara @y_aust_al_a @ksunchik27,6-6-2021,3
542,YeeHaw,jenn_46,,@hectxr1 @tibs.g37 @kum.sixtey.9,4-6-2021,3
543,Pell,opellzin,,@strogonoffdetatu esse vídeo me deixou triste,5-6-2021,3
544,Charlie,lolitex,,@ii_2d_il tristeza 😔,6-6-2021,3
545,Apples2Apples3,apples2apples3,,@xo_chil @dendec9 @leacocaines,4-6-2021,3
546,гав,kisslotni,,@nedobryaet я,6-6-2021,3
547,D1lfluvr,idontgiveabonk,,@sofiaandunce @jejnejx @prxyana when squidward doesnt dab anymore😩😔😔😔😔,5-6-2021,3
548,syn,synt1x,,@titusk697 @trippyphilia,5-6-2021,3
549,аскинг анастасия (^._.^)ﾉ,p0pendos,,@funeebunee8,6-6-2021,3
550,_keri_tan_,_keri_tan_,,@alexsandra.sazhnova @forevermaknae_050,6-6-2021,3
551,Rodrigo Cp,rodrigocp2,,Como se llama la canción,5-6-2021,3
552,lola,_luretra.di_,,@mz_giulia_ sto male,5-6-2021,3
553,czesciczolem,sanderka_gangsterka,,@ziomalus_ @gawryjoleko,7-6-2021,3
554,tui chán lướt tiktok lắm rồi,theboizyouneed,,@tsukishimahoe_ cả thế giới từ chối luôn:(((,5-6-2021,3
555,eyes,eyejuicess,,@mcshizzle,5-6-2021,3
556,Burtal,christopher_kolor,,Brutal,6-6-2021,3
557,behkah,behkah444,,@brianna.blevins @courtlynmartin,5-6-2021,3
558,Eri,ereiya,,@jelosxi,4-6-2021,3
559,DL,dlouieee,,@noeleei HHAHAHAHAHAHA,6-6-2021,3
560,хочу чипсики :(,m.i.isha,,аааааааа он такой милый 🥺🥺🤧🤧🤧🤧,6-6-2021,3
561,RhiannonB.,rhiannonb13,,D:,5-6-2021,3
562,Женнет Вайсулова,dv000000g,,@kaktizadral,6-6-2021,3
563,©©©,kimpa_,,@fufayka01 уууууууу😭🤧,6-6-2021,3
564,Aminox,_.aminox._,,@.lameufakuroro @nekross7,5-6-2021,3
565,Alex,fanta.black,,"bro I don't get why they aren't allowed to do these trends. ""no don't do anything that could go viral and bring free advertisement to the park!!""",5-6-2021,3
566,Séhkiàs/IdiotsAssociation,sehkiasofsingapore,,Sedward 🥺,5-6-2021,3
567,✨Del✨,.delusion.incarnate,,@stupid_blue_moon,5-6-2021,3
568,Tik Toker,seorangboti,,gemes bgt pls😭,5-6-2021,3
569,✨ Sydney ✨,sydneysailormoon,,@s4ilormars,5-6-2021,3
570,yoshinori #1 lover,yosahilover,,@nvllera @kekekekekekekekei,5-6-2021,3
571,Héloïse Giorgi,helo.giorgi4233,,@_.lou.mcn._ si tragique,10-6-2021,3
572,turnaroundturnaroundturnaroud,xddxctg,,@cute32girl32 @miraidark,6-6-2021,3
573,グリム,xhitogawari,,@kool0kid @salamistickss,5-6-2021,3
574,🤍,coconute66,,ada masalah apa sih lu squidward 😂,7-6-2021,3
575,Vinny Batista,vinicinhus_b,,@lorenzoolima Lula dono do DAB!,6-6-2021,3
576,🎮ＧＡＭＥＲ 🎮,natywise._.karmaland,,@el_noob_defortnite,6-6-2021,3
577,<3,yofrenship,,@slutskyy @dafortdz tag lang,5-6-2021,3
578,Barber Supreme,iiphase56,,the pain,16-6-2021,3
579,XRD,3xrd,,@9uul @turkyorf @a_1xp صالح يحزن 💔💔,6-6-2021,3
580,kid,keposajasie,,"""cape gue capee"" @switputatu @_icelemonade_",7-6-2021,3
581,soph,sophiella__,,@im_tired_dont_bother_me @tinkuroo,4-6-2021,3
582,Naëlle 🤍,naelle.7,,@kamiz_kaz,10-6-2021,3
583,fallen 2090,jay.2090,,โง้ยยยน่ารัก😂,5-6-2021,3
584,Emily,emilyyy1215,,@veronicamolina_ @laylateresalopez70 HES HAS ENOUGH,4-6-2021,3
585,Pengen Oppai,lupant3k,,Setidak nya trsenyum dan bangga pada diri sendiri,6-6-2021,3
586,ROOKIEEVELYNN,rookievelynn,,@reneethompson66 he so cute,7-6-2021,3
587,k,rrxga,,"he remember 3 years ago abt someone who want hit the dab, but he didn't",5-6-2021,3
588,ur mom,shoyossaxophone,,@chloeissuperlame,4-6-2021,3
589,Black😻😻🥷🏾,b___lck,,Dang,4-6-2021,3
590,Ryan Paul,ryan_paul,,He’s so tired of people asking this 😂,5-6-2021,3
591,Jake Ganz,magnumd0ng7.3,,@colby.westtt @graysophene @larsophene,4-6-2021,3
592,Sadie,female._.edsheeran,,they aren’t aloud to dab😒,6-6-2021,3
593,喜歡kpop的Peggie❤️,kpoploverspeggie,,肚肚好可愛😳😂,4-6-2021,3
594,ꕤ,seokjinsboobs,,ПХАХАХАХПХХАХАХА НЕ МОГУУУУ,5-6-2021,3
595,Rejhana,rej2708,,HAHAHAHAHA @sollinaa.99 @tireemisu @trashsam,5-6-2021,3
596,kei,dlwlrmkt,,@_gyussi @notji4n @j4logy,10-6-2021,3
597,:D,ionlylove_puding,,@cristina.uchiha W,5-6-2021,3
598,𝒍𝒚𝒄𝒂𝒆𝒖𝒔,lycaeus_,,@essy_siddy @erzachie @buboloks,10-6-2021,3
599,west,user69.420_q,,もうダブしてくれなくなったのか😢,5-6-2021,3
600,luv to be not there💞<3,starlightsans,,it doesn't feel the same anymore,7-6-2021,3
601,🕺🏽,thot2extreme420,,@catherine.mechael a legend died 🥲,6-6-2021,3
602,:^,brasilxd..._,,ya no es el mismo💔,6-6-2021,3
603,Yo mama,sat0rii,,@fr0ggyboba @tilliesme @crying_dolly,5-6-2021,3
604,🌼,_athyia,,@dreiariecakes bff i wanna get rejected by squidward too– lmao,10-6-2021,3
605,muffin,puriinpann,,@razormaintm @ejh.edo,5-6-2021,3
606,kaitlyn,kaitlynmarrie,,@genitalbeans HIS NOSE WHDJJEWJJS,5-6-2021,3
607,bluedog444/nobodycuddly,blue.dog444,,"I'm getting a job at that place and dress as squidward and DAB 😈😈
.
.
.
. 3 TIMESSSSSS",6-6-2021,3
608,diana✿,splatinum_,,@@says_kari @biancabee8,5-6-2021,3
609,montilikki,montilikki,,@_sablygz_ это видео меня полностью описывает ахахах,5-6-2021,3
610,vega,leekumeeku,,@juicybananahole @terralune,4-6-2021,3
611,Ash,skititles,,@rubyt45697 @.__saturn,5-6-2021,3
612,andi,sagesnail,,@ughlilah @https.yxnnxh @waifucai,5-6-2021,3
613,hugsberg,hugsberg,,When I was a character attendant we had a serious meeting about the consequences of dabbing 😂,5-6-2021,3
614,meghan,meghhann7,,@lemons.27 @teffamitch @madb_05 @sorry_im_gay_mom,17-6-2021,3
615,ur mothers favorite <3,urmomsmiddlenipple,,@arousedbees @giselly1003,4-6-2021,3
616,つよ,czmzty,,@oya525252 언니가 좋아하는 징징이,6-6-2021,3
617,Yasheen.K,yasheen.k,,@thedumbbrunettehoe beautiful yet sad 😔,5-6-2021,3
618,yuba,tubakaracay,,@shxdizzle @jboujee246,4-6-2021,3
619,ella,makapakkaa,,@poppy.parkerx @uh._.lucy @luke014_ @oliverascott @gabrielblake321 squidward will not dab,5-6-2021,3
620,🦔🦔🦔,tinkuroo,,@dumbass_lucass,4-6-2021,3
621,charley,charleyfrew,,@snailtrailcum @oliviaemerson05,5-6-2021,3
622,ຖ້າໃຫ້ກູໃຊ້ໄອໂຟນກ່ອນແມສແນ່ນອນ,khoisuemiyouder,,🥺,6-6-2021,3
623,Iki,rzk1boy,,@taacaaw @laylaaawww 🙂💔,7-6-2021,3
624,very swag very pog,diahwulun7,,squidward dab is literally a mood,5-6-2021,3
625,vulpes,vullllpes,,@jzxiss0,5-6-2021,3
626,🥛,milk_chelik_da,,@gf_officall блин грустно,6-6-2021,3
627,🫧,cupcakeiice,,كنه يقول الشكوى لالله,4-6-2021,3
628,Xiblau,h4ppybutter,,@thay_stay21 as vezes só os lula molusco,6-6-2021,3
629,tay :),taylor.jean23,,@.mac.aroni @moldyoyster I love when someone is so expressive even through the littlest of movements,6-6-2021,3
630,tori8205,victoria.ann.05,,@monkeypoop1738 imagine how many times they get asked that a day it has to be annoying no wonder squid is always sad,4-6-2021,3
631,cody,codyypecot,,@clannal0lz @carley.lillian,4-6-2021,3
632,Avery,ishartedonaquarter,,@kaelynalex @slimyharbour @cheesearson,5-6-2021,3
633,通り雨,freeegyc,,dabはしてくれないとw,6-6-2021,3
634,Sogeking,jaydensboyfriend,,@shanesgiirlfriend,10-6-2021,3
635,REYXSannBOY,rey0803,,why?,6-6-2021,3
636,tsnackthecreator,tsnackthecreator,,This is prob the 892 time someone asked,4-6-2021,3
637,Darío E.,derj30,,🥲🥲🥲🥲🥲🥲👍🏼🥲🥲🥲🥲🥲🥲🥲🥲🥲🥲🥲🥲🥲🥲🥲🥲🥲🥲🥲🥲😅😅😅🥺🥺,4-6-2021,3
638,Yo mama,dumbwatch,,The face really sells it,4-6-2021,3
639,🦂,_lettucex,,@youransweristrue *war flashbacks*,5-6-2021,3
640,Watty,watty_616,,@sian.jennifer0,6-6-2021,3
641,Raven,brave_nn,,"@itzmeqorty @primadanaaa he really said ✨no, bye✨",6-6-2021,3
642,Hudson karsies,hkarsies6,,@kkoiven @haw_hee_art @coodawg77,4-6-2021,3
643,baxter999,urmysteriousboy,,@uhnishinoya sad patrick 🥺,6-6-2021,3
644,Mas Bambang's,al.bsj,,"""Hal yang paling tidak aku suka adalah dimana ada Spongebob dan Patrick !!"" --kang Squidward.",5-6-2021,3
645,jule,julpyofthevalley,,@dieselara_official süßiiii,5-6-2021,3
646,annapapale,anna_papale,,@alessiavitolo_ alessia,5-6-2021,3
647,Yisus,theyisus70,,@team.otaku85 modo sad,6-6-2021,3
648,kes,kes_lann1,,dalgamı geçiyorsun canim,6-6-2021,3
649,finn the human 🙋‍♂️,phoefinnfofum,,@kirstinchls @synquil,10-6-2021,3
650,Rafael Candido,shift_esquerdo_,,no,6-6-2021,3
651,.,n_ljm,,@rauenclaw_h @seohyeon.baisy,5-6-2021,3
652,Maxou,maxou4118,,@sk00thoz_ @nxtr_dbt Carlos le surveillant 😂😂,5-6-2021,3
653,不要看旁邊，就是在說你,absonyo,,不過說真的，那章魚哥真的一舉手一投足，都把什麼叫無奈表現得淋漓盡致,5-6-2021,3
654,Muppet🖤,dl_muppet,,I would cry,14-6-2021,3
655,Kaue Santana,kauesantana97,,@juuzou_aysha,5-6-2021,3
656,h,shortlosergirl,,😔😔,5-6-2021,3
657,Perhaps Murky?,perhapsmurky,,@dummyashley @gummymuffins_,4-6-2021,3
658,Rach,rackofshoes,,NO ONES GONNA TALK ABOUT THE WAY HIS NOSE SHOOK???,4-6-2021,3
659,Jay,whatdidtheclocksay,,“Oh Neptune”🙄,4-6-2021,3
660,Of course,_ofcourse_1,,@poducesistimkashtanom @_help_001 @thenuts0,6-6-2021,3
661,да,shish_kun,,@scp523 @chickiwi @inerejet @zefirni тот самый...,4-6-2021,3
662,Sophia,d0wnfallss,,@thepettybug @thepettyfoureyes,5-6-2021,3
663,Sleepy kid😴,antoinedumbshit,,he can't anymore they fire them if they do so,6-6-2021,3
664,A man • Following,a_man_is_gay,,@itz_me_ashlynn3 @come.on.me.bro0 @elfnee @i_will_gun_yu squidqard aint feeling life right now😔,5-6-2021,3
665,Volleyball is my drug,heideehall0,,@kenadee.s.mieling,11-6-2021,2
666,Camiiillaaa,caaammmiiillaa,,@dany_walls_,5-6-2021,2
667,Carlos,closriii,,The og now,9-6-2021,2
668,Michael,istealcandyfromkids1,,When life was simpler,5-6-2021,2
669,user8197284711107,damon.stel,,@ngii.d,11-6-2021,2
670,ash <3,ashliquin,,@leahtine have this too,5-6-2021,2
671,Marianna Guandeline,__guandeline,,@jestratico @_gutavoix @nicoly_holanda230 @_zeudora,5-6-2021,2
672,iWolfie5501,_____vortex______,,squidward has dabbed twice online but never after,5-6-2021,2
673,meg,megslarkin_,,@shannonmurphy_ me contemplating life,5-6-2021,2
674,Peter.,lilpym.bx_,,siapa yang kau panggil hidung besar .. hidung besar 😒,5-6-2021,2
675,Yeehaw 💛🤠,avalonsyeehashaw,,@babey_babey,12-6-2021,2
676,Ale 💯,ale.rodriguez55,,@draven9boi,5-6-2021,2
677,aurore.thrd,aurore_thrd,,@_lucie__45_ ptdrrr clairement lui tout à l’heure 😭😭,11-6-2021,2
678,Josue.srn,josue.srn,,@dianaa.mg,9-6-2021,2
679,Layla,_.layla._8,,@_mitch_is_the_coolest_ OMFG GE IS TIZZIONO,9-6-2021,2
680,cikebum,twentychoco,,hnyr sadar atim tu mirip sqiudward anjjjjj @azkiiiiu @rrysdaulff @xxsyrich,5-6-2021,2
681,Rich Zilli,richzilli,,@mariana.rioos,9-6-2021,2
682,joc,jxcel1n,,@_.ch103_ a rejection,5-6-2021,2
683,🥸,icecube2428,,@bearmeow123,5-6-2021,2
684,Jeremiah,kid_oreo,,@bjnicer_glycerin @ashxr.cos @mot1v3,5-6-2021,2
685,Pz,p_z984,,@_tylerblanchard_ bro no way they trying to do what you were going to do first,9-6-2021,2
686,Rowan,rowansto,,@_thebestbella,5-6-2021,2
687,Roxy,sick.of.my.user_name,,@gh0st795,5-6-2021,2
688,Tyler Haywood,kinghaywood,,@_tylerblanchard_,5-6-2021,2
689,Eric,kittybrehbreh,,@cicimelanin,5-6-2021,2
690,erinnnnn,n0x.n0x,,@gaygraveyard,5-6-2021,2
691,Kathie,oxkathiexo,,@oxemilyxo0 @a.simple.spider,5-6-2021,2
692,🥞ᕦ(ò_óˇ)ᕤ🌮,mongraal_on_controller,,Give the man a break,9-6-2021,2
693,Maria Kilheffer,mariakilheffer1,,@itookamassiveshit69,11-6-2021,2
694,kt,kaitlynnt8,,@mayamcgvry,5-6-2021,2
695,tú madre novio,queef_burgler,,@heartbeatshawty,5-6-2021,2
696,ok,uhhyami,,@deyn.sarm,9-6-2021,2
697,stanley irl,stanleyaldana,,@t1nytitt1es,5-6-2021,2
698,me and steve soulmates !,cedstars,,@y2k_victori4,5-6-2021,2
699,MP✨,mah._.pbs,,@user4321kkjjkk,9-6-2021,2
700,🫰🏾,xyarrm,,I thought the squidward remembered when he did it and looked in the sky,9-6-2021,2
701,xxfrederikkexx,x_frederikke_x,,@seaflapflap,5-6-2021,2
702,crackers,kkehara,,@d.e.l.f.i.n.a.reyes,12-6-2021,2
703,Honestly.g,honestly.g1anna,,If “and you did this for what “ was a person,12-6-2021,2
704,BiancaCr,biancacr19,,@flaviafortes_,11-6-2021,2
705,jasmine :-),jacobcolliersballsack,,@tavleen.b @jaiyaatwal @kj.021 🥺,5-6-2021,2
706,Tweek,kenny_coffee,,@_mikan_lover_,5-6-2021,2
707,kyle?!,kylefartz,,@ciinaabunz,5-6-2021,2
708,Delani,delanidog5,,@some_random_creature @fandom_freak0 @queen_vibess0,9-6-2021,2
709,DKN😘,martinnn89924,,🥺🥺🥺🥺🥺🥺🥺njlf jgxitdd58d fcncjcc,11-6-2021,2
710,NotMr.Unknown,notmr.unknown,,"it's because it's against the policy for Squidward and is a drug reference in saudia Rabia. it resembles canabis use, and he/she can get fired. 😥",9-6-2021,2
711,Jomaria,marysienka567,,@k1dawa,5-6-2021,2
712,Introverted MF,acleverdumbperson,,@stuffispoggers @theamazing_adam @xxrubyxsoot12,5-6-2021,2
713,camillejulienmazur,cam_eraman,,@jojo_lescargot 😭😭😭😂😭😭😭,5-6-2021,2
714,Eddy,cpw217,,Expose him with the hidden pictures in spongebob supersponge,9-6-2021,2
715,Emo Minecraft Bees 🖤,shut_.cats,,@ratboioio I actually saw him dab at universal once lol,5-6-2021,2
716,friends,juanamartinez619,,😔🥺🥺😭😭,8-6-2021,2
717,KATERS,katsters1,,@jedistevens,5-6-2021,2
718,𝐌.,babytortie,,@e.mma.alexandra 😂😂,5-6-2021,2
719,LEX,aesops.binch,,@kwijas,5-6-2021,2
720,schipher,cucumcool,,@nonamenoname504,5-6-2021,2
721,(o゜▽゜)o☆,pinksayshi,,@snxwyz,5-6-2021,2
722,andrea,.lizanel,,@camilsofiaa I feel like you’d be so happy here,8-6-2021,2
723,꧁☾︎Tae🧸☽︎꧂,jjjkshibui,,@dacumixpro,8-6-2021,2
724,Sofia J.C.,sofiaj.c,,@marinacaramelo_,5-6-2021,2
725,Skylar,skylar3001,,@t0e.munch3r,5-6-2021,2
726,I want to kiss David Bowie,inf3rno.sonata,,@possum.skulls,8-6-2021,2
727,sam,samiwam0,,@bunnies.are.cute_1 PLS,14-6-2021,2
728,Dalya,dalyacrips,,@3.10op @sofia.babe @.lamboo carlos ne veux plus daber😔,8-6-2021,2
729,Jasmine Brown,jasminebrown712,,@tiffanimarie32,14-6-2021,2
730,R6 FORLIFE,r6forlife5,,@lilstepbruh,14-6-2021,2
731,Mateo,furr0_g4y,,Me dieron ganas de abrazarlo😭😭,8-6-2021,2
732,user3622970723101,majo_2003,,@sophia_cares,8-6-2021,2
733,Deondre 🍔 😋,underrated.co2,,He has PTSD from his dab long ago,14-6-2021,2
734,süßer hase,derechteaporot,,@younggetsu chronische depressionen,8-6-2021,2
735,Big Hazza ME,hazzavelli,,@olielliott04 @jacob_t_08,5-6-2021,2
736,Chungus18,phat_chungus21,,I feel like we should get squidward to dab to end all this horrible tragedies pass couple of years since when he last did a dab😎😂😂,14-6-2021,2
737,Liam.crll,liam.crll,,@yaelle_mrt,5-6-2021,2
738,蝦蝦丸,nini960213,,@扭彣,5-6-2021,2
739,Gabriel Katz,_nodus_tollens_,,"He looked to the heavens for guidance and heard no response, so he fell into the clutches of darkness",5-6-2021,2
740,shw’ouiddie,poopy.doopyfart,,@iluvbophades @andreaadav04 “squidward stays in his pants”,5-6-2021,2
741,denise,desnis.e,,this made me laugh,5-6-2021,2
742,VB Fiend,vbfiend,,@the_bushchook_bandit @thomassorley @jimbobsrimjobs,5-6-2021,2
743,𝒲𝒾𝓀𝓉ℴ𝓇𝒾𝒶,w.nowosielska,,@pacholvska,6-6-2021,2
744,꧁𝑆𝐴𝑅𝐴𝐻꧂,sarah__dick,,Quand il regarde Le ciel💀💀😂😂😂,8-6-2021,2
745,brooklyn,da.meat69,,@bethany.roseee,5-6-2021,2
746,Christina ^_^,thelazynatural_cc,,@pinkgiraffe21,5-6-2021,2
747,losty,lostylel,,@alecwtf LMFAO,5-6-2021,2
748,까올리,chw115,,아 존나 귀엽다ㅋㅋㄹㅋㄹㅋㄹㅋㄹㄹㅋㄹㅋㅋㄹㅋㄹㅋㅋㅋㅋㄹㄹㅋㅋㄹㄹㅋㅋㅋ,5-6-2021,2
749,pato0,patopelaod0u999,,"@idk_nicol34 pero-
*se pone a llorar calamardo*",8-6-2021,2
750,madison,madzyo_0,,@aabernal29,5-6-2021,2
751,Roman,lhtsout,,@di3alot,15-6-2021,2
752,mpavz17,megannpavletic,,@franca_neill,5-6-2021,2
753,you.can.catch.me.sleeping,zombi.senpai,,should have made him do sheeesh,8-6-2021,2
754,Beet,missbajablast,,I heard the original dab squidward got fired for that,5-6-2021,2
755,Angelina,linamaria1027,,@isaac_sandoval07 😂,5-6-2021,2
756,🙃,hughdancysdance,,@lillisononeillius,15-6-2021,2
757,Brenda,diazbrenda_04,,@jordyn.x1,5-6-2021,2
758,rinamivina,rinamivina,,@evaa_maay,8-6-2021,2
759,Cam,_sabito_ds,,@krimus23,5-6-2021,2
760,chicken feet babe😏,r0g3rtayl0rsdrums,,@fabiha.offtp @jss..8,8-6-2021,2
761,Kylie,kyliegrace_04,,@kayleewaasdorp,5-6-2021,2
762,strawberry,eijis_letter,,@elysianvee,5-6-2021,2
763,Estefano Benites,estefanobenites0,,@hiimernesto,8-6-2021,2
764,신륮땡여덕,midzy._.itzy_,,졸라 귀엽네,5-6-2021,2
765,:)),mrrsscullen_,,@xx_fridq_,8-6-2021,2
766,Sarah hanna ✌🏻,deffonotsarahhanna,,@chloeporter2006 I miss him,15-6-2021,2
767,spence,wannabeathlete,,@angie.90744,5-6-2021,2
768,I don't careee,swett._n,,@13h30_.xd,13-6-2021,2
769,Shalamengmeng,maeorwhateva,,@donalynq,5-6-2021,2
770,blxzedchainsxw,blxzedchainsaw,,@scrollingat3am,5-6-2021,2
771,Becca,iseeuarnulfo,,My mans had enough,5-6-2021,2
772,cool beans,kailinsss,,@.stacys.m0m @grassfishe,5-6-2021,2
773,Sebastián Morocho Ca,sebas12.7,,@dani_am09,5-6-2021,2
774,britzlele,britsiikanlele,,@gabbitz_,5-6-2021,2
775,Dakota,dakota.waters1,,@taylorgumb,5-6-2021,2
776,Amanda,amanda_piel,,@tiktokcrocsksksk,13-6-2021,2
777,Addy,v._addy_.v,,@_.heyybugaboo._,9-6-2021,2
778,pépé🤌🏻,userndndk,,@iamcharleselie,5-6-2021,2
779,🧸Eric🧸,_itz_erii_,,@lizziepallav,5-6-2021,2
780,kirby,kirbalicious__,,@espe._.ranza,9-6-2021,2
781,Soap,ihatemonkes2,,@klxxxqt @jarvisfromironman44,12-6-2021,2
782,miki,tiredmiki,,@_lachiejoughin,12-6-2021,2
783,Yuu..,gabchen1,,@asorakosuke,5-6-2021,2
784,Fram,pfernicus,,@littlelotte95,12-6-2021,2
785,Margarida Folgado,missty12,,@mafaldacfernandes squidward :(,12-6-2021,2
786,sguarina,sguarina,,@itssoleille 😂,5-6-2021,2
787,Cecespieceez,cecespieceez,,@sophiaa_the_2nd,5-6-2021,2
788,nksmax,nksmax,,"@wzl.philipp Du machst mir keine größere Freude als mit diesem Kostüm, vergiss alle Geschenkideen bitte",5-6-2021,2
789,Teejay,pushin.tz,,it's been a long time since he nevered dab🥺🥺,12-6-2021,2
790,Aidan R,notaidanr,,@not_sira_,5-6-2021,2
791,becca,beckawwwww,,@ratty_natty_,5-6-2021,2
792,Chillbitch,chillbitch_0,,@alyvia14,5-6-2021,2
793,Jacob Jouben,not_joubs_account,,@makenna_delk,5-6-2021,2
794,iamizzy7,iamizzy7,,@sof.tijunelis,14-6-2021,2
795,Trin,trinidad.24,,@a.kmart,8-6-2021,2
796,debora,lmaoihavenoidea,,@yazmin.trbl,5-6-2021,2
797,chemo,s0y.chemoxd,,un dab en 2021,8-6-2021,2
798,jenny,jeeennyyy.p,,@mellyj18 OAJDAHHSH,5-6-2021,2
799,あじくすま,.surfinclo,,@sydxmfckhd_ gemoy parah,5-6-2021,2
800,harrylikeshaydaysheeeesh,harrylikeshaydaysheeeesh,,@emilymaw_ squid wars depression arc sussy imposter hahahahha,5-6-2021,2
801,Breanna,psychedelic_clownn,,@Gavin,14-6-2021,2
802,Bug<3,a._.bisexual._.bug,,@panda.chicken,5-6-2021,2
803,lucas,lucas1112d,,@alexyaya1232,14-6-2021,2
804,kyla:),kyluhh.gela,,@n0t._kassidy,5-6-2021,2
805,Juliana,fancy_liana,,@cm_pierra,5-6-2021,2
806,:D,polllxxzx,,"@het_xaxaxa АХАХАХ,его рил походу каждый второй просит сделать это.",8-6-2021,2
807,Kels,kelseydjuley,,@that.dishwasher.bean,8-6-2021,2
808,kai★,ventigaybard,,@myrainechoco,5-6-2021,2
809,Pfudor61,pfudor61,,@lizz_loser,8-6-2021,2
810,Isa,isabela__oliveira,,eu sou assim@thadaami,5-6-2021,2
811,rez,rezayl.g,,@prkattt,5-6-2021,2
812,hm,h_e_d_e_h,,"kepalanya cok
ngeri",5-6-2021,2
813,Chris🦭,chriss.nuggss,,Legend say he’s still waiting for the original to come back,5-6-2021,2
814,Abbyarthur_,abbyarthur_,,@abbyymiramss,5-6-2021,2
815,m_m,h.xg10,,@xiiomaraah,5-6-2021,2
816,mimsaky_zuch_<3,mimsaky_zuch_0108,,@neturno2.0,5-6-2021,2
817,marki123,markyow123,,why does squidword looks like minecraft villager? hhmmmmp? 😂,5-6-2021,2
818,Scarlett Carson,scarlettcarson0,,@evskarratt,5-6-2021,2
819,𝘀𝘁𝗺/𝗯𝗹𝗺,134340n,,@hayaalhoutii WHY IS JTHSI FUNNY,5-6-2021,2
820,I eat kids.  ऀืົཽ≀ ͔ ͕̮ ऀืົཽ ✧,cebolla.con.pelo,,@edits_de_boomers3,5-6-2021,2
821,WaterLilyThief,waterlilythief,,@_katrcos_,5-6-2021,2
822,Safija 👑💕,safija_a,,@the.arslan,5-6-2021,2
823,Mary,braiindeed,,@taliia.aa,5-6-2021,2
824,…,matpatcat69,,@snoopdawgskitty,5-6-2021,2
825,ᕦ(ò_óˇ)ᕤ,bubbie.gum,,"@ckieffer_eula « Oh bordel encore une folle, vsy j’en ai marre »",5-6-2021,2
826,다이안⁷,alltimedork,,@da666y,10-6-2021,2
827,Mey-rin 🫶🏻,graceplayzonyt,,@emilylw.xo,5-6-2021,2
828,nathalie,irritatednat,,@theheartbreakprince,5-6-2021,2
829,Reí,reixnnvv,,@chiara_clara05,10-6-2021,2
830,✨SpixieGames✨,spixiegames,,When I went for a band trip and got to go in the back we saw a squidward and everyone started dabbing and a cast member came up to us and told us /,5-6-2021,2
831,gianna,giannajicha,,PLS,5-6-2021,2
832,Maya Magdalena Saragi,mayamsaragi,,squidward need a love 🥰🥰🥰,5-6-2021,2
833,Санчес,jujujillo,,@_fuhking_page_ ХАХАХАХАХА,5-6-2021,2
834,cocopaser,cocopaser,,@kaktotakpoluchaetsya @haotique,5-6-2021,2
835,うずまきナルト,queen.queenqq,,Squidward dan ke2 temannya bs bernafas didarat 🤭,10-6-2021,2
836,lee,lehawa,,@narcoticsweettalk,5-6-2021,2
837,Omgoi**,maruktammaitonneeee,,ดับฝัน😂,9-6-2021,2
838,Ju <3,_ju.dorange,,@poutiblagueur,5-6-2021,2
839,Morgan,sagittariusshrimp,,@gootaegyu,5-6-2021,2
840,🦁LEO🦁,indras1996,,"""""IF I HADIR A DOLLAR FOR EVERY BRAIN YOU Don't HAVE, I'D HAVE ONE DOLLAR."" - Squidwardtortelini""",5-6-2021,2
841,Aylin Garcia,mishgarcias,,@themoonmansion,10-6-2021,2
842,Marla,_.marla._1,,@isabelstrkw,5-6-2021,2
843,A_wildgust,a_wildebeast,,@penny24xx,5-6-2021,2
844,wevos,wevit.o,,@_.alavergaelnombre._ JAKSKSK,5-6-2021,2
845,dolly ¥:),breadmaniscool,,@x_x.charley.x_x,5-6-2021,2
846,elloptákazoroszok,belugadabest,,Ez én vagyok emberek közt.,9-6-2021,2
847,ハジク,zerotwoeess,,@irdnqq,5-6-2021,2
848,.,im_not_fine_helpme,,@_.kuro.animes._ @gyro_s_pizza le prof de musique et sa clarinette :,9-6-2021,2
849,lucy m 🥱🥱,sh0rtm0mmy,,@mariamcgee,5-6-2021,2
850,user4730210032325,bengisuegr,,@rubinwow,5-6-2021,2
851,NO DILUC SLANDER ALLOWED,lawlietkoshi,,@eevenez @ro.binbin,5-6-2021,2
852,william,williaaaaaaaaaaaaaaaam,,@im.not.rubysharkie,5-6-2021,2
853,applecider,spiceyramenn,,@jshxmrcd,10-6-2021,2
854,Vlad,gabe.saporta,,@brycemustdie @flourfacegerard,5-6-2021,2
855,Ashe,_ashe.n,,@kjauntymas,9-6-2021,2
856,Nerdy Vent,nerdyvent,,@weng_ya_ya,5-6-2021,2
857,i,manzooruh,,@llunnnas,9-6-2021,2
858,.,xwlndm,,@officialqiyax,10-6-2021,2
859,pheb,phobbyy,,@m.ddyh,5-6-2021,2
860,apoll,hateyouasmyself,,@cybermilkk,5-6-2021,2
861,☆ Ky༏ee ☆,dcayyed,,They can’t do it because they’ll get fired for breaking character😔🔫,5-6-2021,2
862,abby,_abbymcd,,@mckinleyszautner,10-6-2021,2
863,Elif Nur Küçükkara,elifnkk,,@user930624175,5-6-2021,2
864,Karsten,666karsten666,,@saraelizthom,5-6-2021,2
865,anna 🤠,vpnpanini,,@goughwhitlam,5-6-2021,2
866,romy,beingaliveisweird,,@exblai,5-6-2021,2
867,jess,jessi.dnh,,@mycha.6,5-6-2021,2
868,ς(>‿<.),timexxone06,,@heyhaenami 징징이야!!! 너 왜거기 계서!!!!😳😳😳,10-6-2021,2
869,eilish,eilish219,,@.ya.boi.alex,5-6-2021,2
870,𝘄𝗮𝗳𝗲𝗹,no...siema,,@csenguś,5-6-2021,2
871,Anthony,anthony.der.weise,,@36.semih @naomicruz132 damn,5-6-2021,2
872,Olivia,liv.laugh.luv_,,@_.t..j._,5-6-2021,2
873,Ur mom,lord.farquaads,,@angelinaa.px,5-6-2021,2
874,pa.bna,pa.bna,,@matizpw,5-6-2021,2
875,yd,ydrh33,,@itss.sherrrr pengen fotoo sama Squidward 🥺,5-6-2021,2
876,hotdads,ssaeyaa,,@mitolohiya,10-6-2021,2
877,marlene,marlene.frnk,,@milfpage is anscheinend nicht das erste Mal,5-6-2021,2
878,🌱,160.en,,@yang_qun 你適合去扮演章魚哥🤣,5-6-2021,2
879,MacyJean🤩,macy_jean20,,I want to go there!!!,9-6-2021,2
880,bella,rad_eski,,he really said 😐,5-6-2021,2
881,hitofm,serentzy_x,,Poor squidward😙,10-6-2021,2
882,✨💫Alter_Maker💫✨,alter_maker,,@...............0_o,5-6-2021,2
883,otp là nhất,_cbbwcj,,gì mà cute vậy,5-6-2021,2
884,Boh,dearmewoah,,@freya_marie06,5-6-2021,2
885,kokos,izubrainrot,,@dilftaro_enthusiast PLSSSS,10-6-2021,2
886,Nani,mafriendisasimp,,@thegirlinthebackofclass,5-6-2021,2
887,nunoᕕ( ᐛ )ᕗ,_nun0x,,@sgomez_6,9-6-2021,2
888,Hi Kevin hier/here,kevintheking786,,Squidward has enough of the dabs,5-6-2021,2
889,🙃Ness🙃,ness_cofee,,@xiaosimp._,5-6-2021,2
890,gia,porkbaobunz,,he just created a serial killer,5-6-2021,2
891,Allyson,allyyymlyo,,@mahal_kita2.0 @b_ariane THE WAY THE NOSE MOVES ITS OWN WAYSHSBWH,5-6-2021,2
892,isa 🐙,ysastictac,,@jelsonizer MOOD HAHAHAHAH,10-6-2021,2
893,Fish,fish_flames_,,@s4m4y4,10-6-2021,2
894,Dzifa,notazifa,,@mandarynthyme lmaoo,5-6-2021,2
895,<3,pfandflasche69,,@bizarre.moth NOOOO,5-6-2021,2
896,eddie munson’s gf (real),teun__jansen,,@iimkoe,5-6-2021,2
897,Ali Hyde,mediumarcana,,@unsusboy,5-6-2021,2
898,Nat,.._nat_,,@_lestrange____,5-6-2021,2
899,MUGIWARA,esteban_bdrs,,@emerauderx,10-6-2021,2
900,Rin,arya_maybe,,@vicky_oprea,5-6-2021,2
901,Lucia,lucia.180606,,@liebgemeinte7von10punkte,5-6-2021,2
902,Juliaaaa,.julia.s,,@xmia.rx,5-6-2021,2
903,Gab,gabbymacho_,,@nnylx_,10-6-2021,2
904,elprincipeee_,_damianooooo,,@scattolins_,5-6-2021,2
905,ardhel,ardhell3,,@b4bynativ3,10-6-2021,2
906,iga,igamusialek,,@wojtacka,5-6-2021,2
907,vika_wihle,vika_wihle,,@last_summer0,5-6-2021,2
908,gutsngore,gutsngorex,,@emily_lynes,5-6-2021,2
909,Ornella,ornella.gtn,,@clagautier HE SAID NOP,5-6-2021,2
910,Sally,bedandflowers9,,@_salua.aaa_ @yasminsalima,5-6-2021,2
911,⠀ ⠀ ⠀ ⠀ ⠀ ⠀,gabijxo,,@simpiaa,5-6-2021,2
912,Dein Vater,elli.tse,,@celinekrsk noooi,5-6-2021,2
913,Mathysjullien,mathyselo,,jppp 😂,9-6-2021,2
914,ManFiss,manfiss_,,Carlo 🛐,9-6-2021,2
915,Weeby,plaintshritgirl,,@awkward.me_hi He is done with everyone's bs,5-6-2021,2
916,mui -.-,mui_bakachiro,,@aki_hoshiko,9-6-2021,2
917,chloe,chloee__022,,@cronnby,5-6-2021,2
918,williebil,williebil,,@nina.ramezani @ilyendejong @rinskee @maritjanine,5-6-2021,2
919,lilou lvn,liloulvn,,@cyb3rgurl3m0n @margot.tlls,9-6-2021,2
920,lulo29,_lulo29,,@emchunphadaothegioi,10-6-2021,2
921,yamao,okaka3333,,@senpai_bakuhoe,9-6-2021,2
922,𓆩 lyaa 𓆪,sshlya,,@bazilanw4r THE GELENG,10-6-2021,2
923,Bethan ✨,bethtails,,"@nikitac9 in love with this sassy squidward, I’m cackling 😂😂😂",5-6-2021,2
924,Kuso,kuso708,,@sunny.sophiex,5-6-2021,2
925,Kreuzin,ethan_kreuz,,@jasminewheelerr,9-6-2021,2
926,obsessedwithavery.org,michtwe,,@laurenxoxo_16_ @rachelttaylor @evangelinebasham,9-6-2021,2
927,Baby 🧿,bad9ss,,@flulala @cupsofdream,10-6-2021,2
928,Meltingmarz,meltingmars,,@mphsrdr dabward,9-6-2021,2
929,pengen main MPL,xin9876,,itu t*t*t ya,5-6-2021,2
930,parasites.3,yeetifulyeets,,@x.oli.burgess,5-6-2021,2
931,Patrick,patmccrotch,,@alyana_2thuggin_,5-6-2021,2
932,мαяιℓєє,_.marilee._,,@simpforsam he looked so sad in the beginning 💀,10-6-2021,2
933,✨🦊Sweet_IN✨🦊,sweet_in_,,@wxdtf_,5-6-2021,2
934,✨Aniya✨,.aniyajones,,@capcarroll27,10-6-2021,2
935,oh mah lord,gojosunlimitedvoid,,@nilaytesfaye wir,5-6-2021,2
936,My Lord Karuto,yoitzmekaruto,,"Squidward looked up in the air abd really said ""Oh. My. Fuckin. God.""",5-6-2021,2
937,Nolan Braren,the_train_thomas,,@laura_rauscher,5-6-2021,2
938,ps5918837,yuyuyu._.c,,@vasilikivi,5-6-2021,2
939,baba brahim,ghost_xx_baba,,@mustygrumpygrandpa,5-6-2021,2
940,sierra,smk.bpe,,@ynx_.d,5-6-2021,2
941,emilee☀️,emi_lazydaisy,,@ssa.sophie_,9-6-2021,2
942,magighost,magi_ghost,,.,5-6-2021,2
943,SPAM DE LIKE = BLOQUE,l.vrzweb,,Carlos : Eeeh Jésus,10-6-2021,2
944,skkrt,keaunujebs,,@nela_rmt,10-6-2021,2
945,Joseph,vrtk_jc5,,Dab is old why still trying?,9-6-2021,2
946,jasmine,jasmine.fordex,,@laurynatolson,5-6-2021,2
947,Lily,lilymarjelle,,@natalia.xniemann,5-6-2021,2
948,Erica,ericaleigh96,,@emc11840,5-6-2021,2
949,anya,anyasarah,,@shedeeran_,5-6-2021,2
950,user688465863330,lucymonaghan11,,@gabrielle0k,5-6-2021,2
951,rachael,rachael_szor,,@stas_baseball,5-6-2021,2
952,Mariannet Antoine,mariannet05,,so cuteeeeeee,9-6-2021,2
953,😈,ytotiwn_,,@justnotxavier12 @cheeenlee @nicole_yeo121 no why I kept on looking at the eyes and nose MY MIND DIRTY PLS,5-6-2021,2
954,Antonio lo gnomo,paride.ficiente,,@mai.na.gi0ia_,5-6-2021,2
955,💌,....jessi,,@justin_0753,5-6-2021,2
956,Aid,ashluvsaid,,@h8.kiytee,11-6-2021,2
957,бэ,shtrro,,это же из того видео с дебающим сквидвардом...,9-6-2021,2
958,tals,tali3asin,,@laurie4sutcliffe,5-6-2021,2
959,Sugone Deasze Nutzse,mrssquidward_,,this makes him look so hott @astermanifold @sabanori_,11-6-2021,2
960,✨Bitch Boy✨,mangle3597,,@corilil2005,11-6-2021,2
961,feyza,feyza645,,@22ec11,9-6-2021,2
962,FOLLOW BANNED 😞,kurtsw0rld6.9,,He's not allowed to do it anymore,5-6-2021,2
963,Zoha Awan,zohaawan2,,@rabia.ramzan the waving 🤣,9-6-2021,2
964,Lucky,lucky_lifting,,@apex_legends_content87,9-6-2021,2
965,aleena,ale_eners,,@msitarz1,9-6-2021,2
966,❤️KURTS KUNKLE SOLOS❤️,welovekurtsworld,,So no one is gonna talk about the fish 😀,9-6-2021,2
967,grace 🗽,gracelikestomatosoup,,@itsjusthugo_,5-6-2021,2
968,Novice✨,lynnovice_,,He bouta jump this man so done 😂,10-6-2021,2
969,jewis,jewis08,,@yankeikei,5-6-2021,2
970,theduckstrr,theduckstrr,,@jbobojboboj,5-6-2021,2
971,;))),jilliandens,,@marissa.good this was me when i was there,10-6-2021,2
972,Y,yigit_s5,,Lol I’m everywhere,5-6-2021,2
973,Jacqueline marie,jjacquelinemarie,,@karliflower,5-6-2021,2
974,alex,sp0rtlich,,@.nelek,5-6-2021,2
975,ashley ¨̮,feat.ley,,@erectilewrinkle,9-6-2021,2
976,:),aroxe_live,,@_b0bblegum_ noooooooo,5-6-2021,2
977,_.Kabouter_fan,uh.arinboylol,,I was expecting a dab,9-6-2021,2
978,공듀꼬미𓅰,jungminha8,,징징아🥰🥰,10-6-2021,2
979,☄🏌‍♀️,this_is_bekaa,,"Yaaa, i just found the good pfp;)",5-6-2021,2
980,ruby sams,bobdylantwink,,@bugbraine,5-6-2021,2
981,vins,vin.ssss,,@lyla.a.a.a,10-6-2021,2
982,sarah,sarughh_,,@carefreesam,5-6-2021,2
983,tara :D,chyuniie,,@_tiffany.x,5-6-2021,2
984,Chefderwave,chefderwave,,@official_nizudemklas,5-6-2021,2
985,ดาวตก,meteor469,,ก็สมเป็นสคิตเวิดดีนะ55555,5-6-2021,2
986,eva,eva.phillips_,,@_abbielee,5-6-2021,2
987,𝙡𝙞𝙪.𝗮𝗻.𝗀𝖾𝗅 ˖ ࣪ ٬੭,jeno.pastelito,,@markk_nct,5-6-2021,2
988,✨Joe Jones✨,joe_uwu_jones,,@abyy18l @radish_moo.exe,5-6-2021,2
989,DontAskMeImDrunk,mitskis_husband,,@feebeeta96,5-6-2021,2
990,ju.luxsha,ju.luxsha,,@astandiomande7894,9-6-2021,2
991,Elspeth,elspethb_,,@thebest_marmolade,5-6-2021,2
992,Aly🤪,aly_is_grate,,@_pinky._.pie_ I cant😂,9-6-2021,2
993,큐티뽀짝 그라생,tjekdud10151210,,@garam_0723 징징이씨 힘내요,9-6-2021,2
994,g i o m,nervevaunit01,,@wanderings0ui,10-6-2021,2
995,.,michele_pazzo_sgravato,,raga quindi non conoscevate il meme della dab di squiddi??,9-6-2021,2
996,Zelbershtein,zelbershtein1321,,Мне кажется что помимо главных героев из данного мультика все будут в данных костюмах страшно выглядеть,5-6-2021,2
997,zuzanna,zuzanna.alice,,@gianlucazgombic,5-6-2021,2
998,paulischarf,paulischarf,,@scharfner2.0,5-6-2021,2
999,Mega simp 👩🏿‍🦲🤟🏿,szambo_,,@.xdol.rblx._ @150709oliwia @kowal_skaaa mocne 😞,5-6-2021,2
1000,XelfiaZero,xelfiazero,,@spongeey_bob,10-6-2021,2
1001,блять я,kiakus0,,@iflu_u блин,5-6-2021,2
1002,Tiramissyouboi,gibreee_,,kok didaerah gw badut nya beda yee,5-6-2021,2
1003,Rian,djdjsusbsjshsnakishebf,,Happy?,5-6-2021,2
1004,💥,bunniiskullz,,@user891737918l,9-6-2021,2
1005,Andrea,mo0kyy,,@lissabbby,9-6-2021,2
1006,rich girl,rich.girl.from.the.usa,,Sorry aber das ist nichts besonderes ich hab das auch,5-6-2021,2
1007,Ayeh Priscion Al-Alawi,ayeah_96,,@kuroosaysmeow disappointed but not surprised 😂😂😂,5-6-2021,2
1008,Angry Dwarf,666xxeviexx666,,@fr0gdaisy,5-6-2021,2
