,Comment Number (ID),Nickname,User @,Comment Text,Time,Likes
1,Jonatan,j5nb4l,,"The only thing that I would add is: CYA. Make sure to document and advertise everything; risks, dependencies, scope creep, etc...",6-2-2022,
2,PR Punk,pr_punk,,What if they blame it on you beign slow?,6-2-2022,
3,Skiddie,anonymouse8578,,"i wish more people did this!!! They ain't gonna pay you more for meeting an unreasonable deadline, it just becomes expected!!!",6-2-2022,
4,Snowybird,cheburashka15,,It is the only way. I agree. How do you deal with threats from management in this situation to deliver or be let go?,6-2-2022,
5,John Miller,danknaught,,"For fixed scope, fixed deadline projects, spend the time before the deadline looking fo a new job.",6-2-2022,
6,hashtagsheps,hashtagsheps,,What about this advice that you have to be seen to go above and beyond for promotions,6-2-2022,
7,And_says_,and_says_,,They usually blame Designers instead.,6-2-2022,
8,og_ai_man,og_ai_man,,That was my old job. It was like,6-2-2022,
9,Taz,tazminiandevil,,“I want to go on record that this is a bad idea…” and then watch the 🔥🔥🔥,6-2-2022,
10,David Attenheigm,dmrclem1970,,Yes now this on 100% agree. They have no clue,6-2-2022,
11,Brandon James Rogers,captnrogers91,,This. Some people refuse to understand this,28-2-2022,
12,Geet S,sangsiv,,I allow people to fail coz I used to be one of those people that carry others and now I’m like no fail a little,6-2-2022,
13,KIVOX,kiv0x,,"I have ADHD and get distracted really easily, when I am making a project I rewrite it atleast 10 times because I am scared to 1. be judged and 2.-",6-2-2022,
14,John Vandivier,johnvandivier,,😂😂 It’s so real talk I love it,6-2-2022,
15,crazy,notanothercrazycatdude,,FACTS,6-2-2022,
16,ヴィリャモー エドカー,eddie_sige,,shipping companies 😂,4-5-2022,
17,giant asparagus,giant_asparagus,,Just start looking for a new job,27-2-2022,
18,Tisha Marconi,sunflowergalaxy88,,currently watching this happen at my big corporate job. bonuses go out end of Feb; gonna be hairy to see all the resignations in March. we told 'em...,6-2-2022,
19,emmaslow,emmaslow,,Haaaang on ... is there a kittie cat trying to add their 2p on this one? 🥰,6-2-2022,
20,churro777,churro777,,Lol he’s right,6-2-2022,
21,Blair W,blairw0,,this is the way,6-2-2022,
22,QTGina Fortnite,qtginaaa,,Fax,6-2-2022,
23,FeelTerr,feelterr5,,"whatever you say, but background sound made me nervous, I was trying to figure out where is it coming from...😅",25-2-2022,
24,Ruslan Babych,digitwolf,,What if they use this against you when it comes to promo?,24-2-2022,
25,Long,leaizewho,,what i kept saying to my friends if i see them work for free to catch deadlines. 😬,23-2-2022,
26,user4973190050594,son_of_alkebulan,,😂 😂 😂 😂 I didn't know I could have this audacity,23-2-2022,
27,miadogdad,miadogdad,,"if management actually got 40 hours worth of work out of every team member, the project wouldn't be late 😒",23-2-2022,
28,Cardude91-,cardude91,,How to get fired in 2 minutes,23-2-2022,
29,Jason Burt,jasonburt05,,Yup. Tell leadership a brick wall is coming and let it happen. CYA.,23-2-2022,
30,Geet S,sangsiv,,This is so key,6-2-2022,
31,Dayangsters,dayangsters,,Yassss 👏,22-2-2022,
32,Mari Lpz,maribellpz25,,"Yep , they never learn!",22-2-2022,
33,Micke Rob,aquaria23,,"Agree. or if they tell you to do other work, same situation",10-2-2022,
34,Luxedo,luxeedoo,,Exactly,8-2-2022,
35,KL,kmade02,,Isn’t it sad that this is what is required.,8-2-2022,
36,Nicolas VERHELST,nicolasverhelst,,Amen,8-2-2022,
37,PatioRancher,patiorancher,,PREACH!,7-2-2022,
38,Margus Martsepp,margusmartsepp,,🥺 Yes. I totally agree.,7-2-2022,
39,Gray.Duck,gray.duck,,I did this and got fired. Expectations are delivery on time at any cost.,7-2-2022,
40,Shicaca,shicaca14,,Heard the noise in the background and thought it was my cat,7-2-2022,
41,Dylan,one_forest_one,,Also unionize your workplace!,7-2-2022,
42,Mynamare,jennaprice774,,Truer words were never spoken,7-2-2022,
43,JZ Jake Zachariah,jzjakez,,Leadership cannot fix what they don’t know is broken. Your complaints are not evidence that things are broken. Business metrics only.,7-2-2022,
44,JDubs,jwalk377,,The number one problem I see with other Project Managers is they don't show their work. So they can't prove anything.,7-2-2022,
45,user3612660340291,veganorangechicken,,yesss,7-2-2022,
46,CodeBrickLayer,codebricklayer,,Brilliant,7-2-2022,
47,Mercury's Hot Too,mercuryshottoo,,I've BEEN saying,7-2-2022,
48,Tarkan,tarkan151,,EMOTIONAL DAMAAAGE,7-2-2022,
49,Rebel Nerd Farmer,rebelnerdfarmer,,100% this.,6-2-2022,
50,Ahmad,klikclac,,Lol do people not have hobbies friends and family outside work? 40hrs is all they get from me. Not a minute more.,6-2-2022,
51,dmyourmom,dmyourmom765,,I worked for someone that overworked us to fail. He said he had to get things to break to get leadership to see a problem.,6-2-2022,
52,Sheriden Mansfeld,ctsmansfeld,,"Also interested to hear your recommendation to staffing when there is 50 hrs of work to do, hire 2 people?",6-2-2022,
53,namespace4242,namespace4242,,hell yeah this is my philosophy,6-2-2022,
54,user1211782677743,sconnelly77,,Many people only learn thru failure.,6-2-2022,
55,Marco B.,marcobazz,,awesome advice,6-2-2022,
56,instanummmmm,instanummmmm,,🙏🙏🙏 amen.,6-2-2022,
57,spamsnailstravels,spamsnailstravels,,the prob is that if you change you just look incompetent. everyone has to do it and most won't in fear of losing their job,6-2-2022,
58,Brian,_godot,,This is something that I’ve been railing against at my job. There are repeatedly posts about someone going above and beyond/heroic efforts. 1…,6-2-2022,
59,SapGuy,sapguy77,,Yup. i did this shit for years as a salaried FTE. Life is so much better as. an hourly consultant.,6-2-2022,
60,William Sylvester,williamsylvester0,,Been running two startups simultaneously. Shit finally hit the fan and management finally evaluating what happened and what went wrong,7-2-2022,
61,Salem,salemper,,My life changed for good since I started trading with...@protraderandrew,6-2-2022,
62,Stephanie Swinson Mays,ssmays,,"Guilty! I took on all work that incompetent ppl didn’t do, 16hr days, etc dept is a dumpster 🔥 but who would even kno. Ended up quitting",14-2-2022,
63,Sheriden Mansfeld,ctsmansfeld,,How do you recommend companies staff when work is cyclical (ie. 35 hrs some weeks and 50 others)? Hire 2 people so no one has to work more than 40?,6-2-2022,
64,Robin Moore,robin_healthpsych,,Cool cool. But what if your job is looking after other humans and ensuring their safety?,23-2-2022,
65,Paul,bytesunfish,,I worked 80 hour weeks for six years. it was not worth it. learn from the creator and idiots like me,7-2-2022,
66,Steven Stip,stevenstip3,,also not delivering on time can be done using estimates that go over the deadline. this allows you to flag it early.,6-2-2022,
67,Eddie the panda,pandaman202,,"Also, while you’re “letting poop hit the fan” , start your search for another job 😏",6-2-2022,
68,Matthew Chau,matthewchau20,,exactly.. and document the fuck out of everything.,7-2-2022,
69,Brigsby,brigglesworth,,If you feel the need to work extra hours. Do interview prep during those extra hours.,19-2-2022,
70,Synyster328,synyster328,,"Yep, if you tell them it's not possible and then continue doing it... They'll continue to expect that and ignore you",13-2-2022,
71,Joe Momma,ufoinsider,,"Also….break small eggs, especially at first. If you have a catastrophic failure out of nowhere you may end up worse off",6-2-2022,
72,davidmccourt55,davidmccourt55,,That's a nice take if you have a bunch of money in the bank and can just afford to lose your job,6-2-2022,
73,user8557878286152,dadshoes65,,"🙋🏼‍♂️🇨🇦🚑🚒 missing context; suffice to say I declined to step up, said I wldnt undermine others, but org is not worthy of my above and beyond 😳",10-2-2022,
74,Josh Bodzin,bowie1kenobi,,💯,8-2-2022,
75,djhansen77,dhzelda77,,🙌🙌🙌,6-2-2022,
