,Comment Number (ID),Nickname,User @,Comment Text,Time,Likes
1,lekenneth,lekenneth,,drop the lighting setup!,12-3-2021,373
2,MaybeThatGirl,n0tthatg1ri,,Nobody: my science teacher,9-3-2021,8554
3,Carter Market,cardoor1,,Naw naw naw.Not a podcast your a cam girl 😏,9-3-2021,8743
4,brvhman,brvhman,,hey uh carter i think your uhh aio is installed incorrectly 😳,9-3-2021,2685
5,LeeHarveyOswald_Official,leeharveyoswald_official,,hold up r u actually 15?,9-3-2021,733
6,PathfinderGamer22739867 Fan,pathfindergamer_fan,,Ok yea I get I’m poor,9-3-2021,78
7,harris cole ,_harriscole,,thank you for using my song!,9-3-2021,289
8,Mark,mark.calip,,What exactly is phantom power for a mic?,9-3-2021,216
9,yes,carterpchasspoken,,CarterPCs has spoken,9-3-2021,25
10,Loading…,the.legendab,,My band teacher literally has that setup 😂😂😂 with a crisp mic and camera😂😂😂,9-3-2021,6
11,aaron😻,mrelmo001,,what happens if u have only 25 keyboards in the background?,14-3-2021,161
12,ashuran9007,ashuran9007,,"*headphones
like 60% sure you made a vid yourself on the difference",9-3-2021,102
13,⚠️Ayaan⚠️,shutup4z0,,BRO I USE A SCHOOL LAPTOP,9-3-2021,41
14,v,simplested,,Are red dragon keyboards good ?,9-3-2021,51
15,cuigovkvkvkvif,ghfffg6d56duf,,Now what is your excuse for not joining?😂,9-3-2021,95
16,Irfan Ahmed,brainstorm_x,,I would much rather have a blurry camera just so the teacher doesn't see me 😂,9-3-2021,7
17,.,_chris_206_,,Dude having a good setup turns into pain when they make you turn your camera on 😭,9-3-2021,140
18,R3H4NN,r3h4nn007,,"Okay but we want to know how you make all this money, being just a 15 year old",9-3-2021,82
19,YvngLamzz,yvnglamzz,,Boiiii I know you be gaming in class fasho,9-3-2021,63
20,ﾠmalay,wholelotta.malay,,carter the people in the meet can hear you on that screen 😬,9-3-2021,133
21,Telestro,telestro,,first day my teacher said I looked like I was about to make fortnite videos :),9-3-2021,6
22,bruh,im_a_fucking_onion_mason,,@carterpcs which is better intel core or Amd ryzen?,9-3-2021,7
23,¥RäKïböu*,irjdcn,,Yo that headset name tho 😂 6xx,9-3-2021,53
24,BookerX,justbookerfr,,do you stream? bc why do you need the mic and camera,9-3-2021,7
25,Jack,jackschmitzz,,Do people know who u are when ur in zoom?,9-3-2021,7
26,Pendejo,itzzfabrii,,ps or Xbox 🤔🤔🤔,9-3-2021,6
27,J.fay,j.fay,,tesla,10-3-2021,38
28,Hayam salah,make_me_laugh_for_follow,,Best 800 dollar pc,9-3-2021,7
29,BiggByrde,alexmeyerlol,,You 100% get made fun of,9-3-2021,28
30,Jared Maynard,jared.m_,,cant creams be rly scratchy and just a very ehh switch,9-3-2021,24
31,🇺🇸Jacob🇲🇽,jacobh3rnand3z,,Hey can you please make a tic tok on what you need to make a pc I really want one but don’t know what I need to make it so I might buy a prebuilt thx,9-3-2021,29
32,Jonathan,jojosiwa21202020,,all my teachers ask if I run a podcast 😂,9-3-2021,9
33,Jacob Meetze,meathead202,,never going to use any of this,10-3-2021,8
34,MKAlphaTv,mkalphatv,,day 98 of asking: How to move files(games) safely from one drive to another Hdd,9-3-2021,24
35,Lostcherrio,lostcheerio,,CARTER CAN YOU DO A SET UP TOUR!?!?!?!🥺,9-3-2021,25
36,Valeri Muradyan,muradyan_99,,Can you do a good pc under 500 please,9-3-2021,17
37,Luca_ulookpretty,luca_ulooksexy,,Bruh it’s just school chill,9-3-2021,13
38,Uz1,uz1rt,,Are you from Denmark,9-3-2021,12
39,"btw, my name is Meriem",m.x.r.i.e.m,,dude it's just school i use my phone,9-3-2021,8
40,gherbo,guyfloo,,what mic stand is that,9-3-2021,10
41,ChiefAshh,chiefashh,,We have the same wallpaper 😁,10-3-2021,11
42,🥱🤷🏻‍♂️,...crispy,,First omg,9-3-2021,25
43,XLTT STORE,xlttech,,The one and only tech boy in the class,9-3-2021,16
44,Jack,strawserjackk,,is there a mic on the camera?,9-3-2021,17
45,Nobody,envensinty,,He be turning on his camera just to flex,10-3-2021,10
46,Honda Civic,h0nda_c1v1c,,Bruh i got my chrome book and a model o😂😂,9-3-2021,13
47,Wiggles,jazebra1,,All that to have your camera turned off,9-3-2021,11
48,Malik,yourlocalegyptian2,,Carter we get it ur special,9-3-2021,16
49,Frosty,officialinfinitefrosty,,What do you think about MX Silvers?,9-3-2021,11
50,coomer,conner_bulldops,,I don’t think the kids in your class could tell with their 720p chrome book screens,9-3-2021,13
51,𝖈𝖆𝖗𝖙𝖊𝖗.𝖑𝖒𝖋𝖆𝖔,carter.lmfao,,are you carter?,9-3-2021,8
52,NEONPESTO,neonpesto,,Lol,9-3-2021,5
53,mack kuyper,mackkuyper,,What about lighting?,10-3-2021,5
54,Fpv_makr2,fpv_mark2,,How long is your desk in cm?,9-3-2021,5
55,Jaydickson,jdicksonx,,CARTER PLEASE SAY HAPPY BIRTHDAY TO ME,9-3-2021,5
56,ㅤ,sinnerghoulz,,best blue switch keyboard?,9-3-2021,5
57,sam,smdsam,,what bluetooth headphones would u recommend for listening to music under $300?,9-3-2021,5
58,Matthew,matthew.f8,,What's the wallpaper called?,9-3-2021,5
59,",",hatdne,,The lights on My h100i won’t turn on. Everything is plugged in and I don’t know what to do please help,9-3-2021,5
60,indoortai,indoortaiedits,,To get 5fps instead of 2🔥🥵🥵🥵🥵,10-3-2021,4
61,Jo daddy,j0anthony,,Me using my phone,9-3-2021,4
62,Carson,car.so.n,,Bro,9-3-2021,4
63,Hi,fucking_asshole3,,With that when not listening you can’t use the excuse I was lagging 😅,10-3-2021,3
64,Sofia,ssofia.paz,,@helaynuhh literally Errol but without the camera,10-3-2021,3
65,Jack,jackyboy860,,FOR SCHOOL!,9-3-2021,3
66,Memo F,shreks.right.ballsack,,Step 1: buy a pc,9-3-2021,3
67,:),king4teenn,,@.coolpro.yt you doing this 😂,12-3-2021,3
68,Ahmed Assaker,assaker2006,,U do all this for school? Habibi I use my chancla as a camera stand 💀,29-3-2021,2
69,audreymorgano5o,audreymorgano5o,,@abby.sommer @leonajamaleddine @braelynmay mr hiedie,12-3-2021,2
70,@Aram1384💗💗,aramlaly84,,@itz.sita @bsnskkdjskwks @gloriasharifi YA ALLY,15-3-2021,2
71,Laughlin,laughlin_3,,Mans probably has his camera turned off @ttv_demons,9-3-2021,2
72,agit,userwh1t3,,@luiza.btw DZSHGSSH,9-3-2021,2
73,Stanley Todd,stan.1ey,,R we gonna not talk about how it says joby on the camara,14-3-2021,1
74,.,qwroki,,Does the king respond also I use a quad cast and a movie camera for school lol,14-3-2021,1
75,Dominik yes with a k,dominik.romero,,"sheesh all I got is my school laptop, some books, my amp and guitar, and nintendo switch with my monitor, read replies",13-3-2021,1
76,Sebastian,potato_alm,,I want the same camera as you but I can’t afford a $3000 camera😂😂😂😂,13-3-2021,1
77,Dubs,dubswasaved,,My teacher : asks if I have a YouTube channel or podcast Me:I’m doing something right,11-3-2021,1
78,vdot ✪,vdotbinflockin,,What desk is that,4-4-2021,2
79,Sebastian Rodriguez,carterpcs.has.spoken,,Carter has spoken,11-3-2021,2
80,p,shlinggling,,And then you turn off your camera,15-4-2021,1
81,Dikkay,its_dikkay,,@mrbrain297 durbinesh durbine mane vali lensesh fargh dare,12-3-2021,1
82,Richard,baen_z,,how much the total of this stuff🥲,9-3-2021,1
83,🇹🇷,zumerb,,@ayvqq @mareesaw I THOUGHT THIS WAS MOURN,27-5-2021,1
84,𖨆,_gremlinjxck,,@kekedekes2007 this u 😅😂😂,11-3-2021,1
85,Daniel Kon ⛄️,danielk0n,,My teacher said that I remind her of a podcaster with my streaming setup,11-3-2021,1
86,chris,ndjdubdbksk,,Flexer😂😂😂just joking,10-3-2021,1
87,Bob,defrosty_28,,you have this awesome gaming setup but what games do you play?,10-3-2021,1
88,newport_brandt12,newport_brandt12,,so ur that kid,10-3-2021,1
89,user3815475872239,kaeram0,,Do you live by your self?,10-3-2021,1
90,kade 🤨🤨,kade_rz,,Carter actually funny af 😂😂,10-3-2021,1
91,poopiebumfarts,poopiebumfarts,,join 2 of the same meets and see the quality other ppl see,10-3-2021,1
92,Chris DiMeo,chrisdimeo0,,Sweat much,10-3-2021,1
93,logris,logris1,,only the second quarantine. lol I am on my 7th,10-3-2021,1
94,Logan Bracken,defnotlogan0,,It is funny because google meet only does 720P,9-3-2021,1
95,Matteo,matteolabbe,,Carter can I have a new mousepad,9-3-2021,1
96,Drop the bass,im_unknown226,,When its picture day in 2025,9-3-2021,1
97,Bozo,straightupbozo,,you’re so awesome bro 💪🙃,9-3-2021,1
98,Zues,acairney,,And yet the teacher still be like. Our laptops cost more and run better 😂😂😂,9-3-2021,1
99,Alex,mr.papricagoose,,That is google meet not zoom,15-5-2021,1
100,Ily HEESEUNG,ot7yup,,Thats me then I get a bad grade😌,25-4-2021,1
101,Jasper,jasper.luscum,,Where do you get the money!?!😂,7-4-2021,1
102,The lost Uchiha,bballdawg30,,Lol I just turn my 🖥 on we good 😁,18-3-2021,1
103,Piwi,exotic.piwi_,,Carter made it out the hood 😳,9-3-2021,1
104,The kid with an rtx3090 for MC,probablyodd,,HEADPHONES CARTERRRRR,7-4-2021,1
105,Evan,evan.condones,,Can I get pc?,11-3-2021,1
106,ELLEN,ellen_372,,@sarah_d37 ms foley,11-3-2021,1
107,BELLA HACKER😽😽,juliagarint,,@isabloja @anna.haggqvist @alice.henrikson ska man testa 😂,11-3-2021,1
108,🚀 🚀🚀 Coding Paths 🚀🚀🚀,onesirian,,Next. Friggin. Level,25-7-2021,0
109,Slayer,slayer4576321,,Me taking notes,5-7-2021,0
110,SHALOM,funnyclipsoflordksi,,I just make sure my camrea is blur as possible and my mic is as carp as possible so that the teacher does not make answer anything this guys 😂,1-6-2021,0
111,JL Lee,jllee0,,Any recommendations for best bujet stylish gaming headphone,30-5-2021,0
112,Jan Emanuel (s),janemanuel_,,I also have that ikea reindeer painting/stitching!,27-5-2021,0
113,PCneek,pcneek,,Isn’t that mic 5k 😳,20-5-2021,0
114,OR3O,or3o_cute,,i just use a school chromebook 😶,18-5-2021,0
115,tall_boy_the_12th,tall_boy_the_12th,,2000th. Comment,14-5-2021,0
116,Oli Read,.mrr3ad,,All of this to be turned straight off and start gaming 😂,5-5-2021,0
117,Alfie Taylor,alfietaylor58,,Oooooh get you,3-5-2021,0
118,Why do u care,u_r_a_cowchmeller,,Oh ur that kid,3-5-2021,0
119,the cuttest dog,rottweiler.saar.ne,,2000th comment,30-4-2021,0
120,rhai,rhaithebronze,,i got a $20 headset,29-4-2021,0
121,Evokuu,evokuu,,200,29-4-2021,0
122,Nöffler,noeffler,,who paid all this stuff ?😳,26-4-2021,0
123,Johan,johan110304,,@carterpcs Can I have a ssd bro🥺,25-4-2021,0
124,Harold the drippy cat🥵🥶🔫😎,drip_cat987,,Can u do a 3 min video of ur setup tour,25-4-2021,0
125,Dexter,dexxterdax,,I will never do this for school... ain’t nobody got time for that 😑,24-4-2021,0
126,Football,goose_on_moose,,Pro same,24-4-2021,0
127,Jayden,studical_mech,,26keyboards😳😳😳,24-4-2021,0
128,lucaaaa,_.lucaaaaa_,,k,20-4-2021,0
129,Zachary,yozach36,,I did the 2000 comment,19-4-2021,0
130,carra,carra.cliped.you,,can I plz have a keyboard and mouse I follwed,18-4-2021,0
131,ᎽᎾᏬ ᏝᎨᏦᎬ ᎷᎬᏁ ᎷᎽ ᎶᎾᎾᎠ ᏕᎨᏒ,fwybtweeks,,Can you tell me your headset plz,16-4-2021,0
132,Casper,csperh,,bro i dont even turn my camera on,15-4-2021,0
133,jacoby,lovenevaeh01,,so you spend a lot of money on a setup then what game do u play?????😳😳,15-4-2021,0
134,m,mahirr.060,,@loughh CHAIN,15-4-2021,0
135,Milo,milojarvisfaetiktok,,"For everyone who's not feeling the best here’s a hug:
༼ つ ◕◡◕ ༽つ",15-4-2021,0
136,user6321709217403,thereal_clan0,,Yo bro I’ve bin thinking about This can I get a keyboard 60%plz,13-4-2021,0
137,Hi,b3n17,,What does everyone think about my first vid 😁,10-4-2021,0
138,Twizly,zandar55467,,and they want u to use a crombook 😂,8-4-2021,0
139,Matthew Byl,mbyl_cpt,,damn bro some people be balling in money 😔,8-4-2021,0
140,Uriel Velasco,urielvelasco7,,i bet that was expensive tho 😣,7-4-2021,0
141,itsin sarellano,the_yungboy_yaqui,,can I have a keyboard? anykind,7-4-2021,0
142,Jonny,jritzrichards,,I’ve been quarantined 4 times the year 😂😂🥱,7-4-2021,0
143,blurrシ,13lurr,,Ya know aria banks follows u,6-4-2021,0
144,Alex,alexx.mett,,A 3123:,6-4-2021,0
145,Oliver,0liver.24,,Desk and desk legs ?,6-4-2021,0
146,riley,rileychen_,,I just use school chromebook bruh,5-4-2021,0
147,Kennedy †,k.vk.h,,2nd time? ha try 8,5-4-2021,0
148,drippy.boi.zeek,drippy.boi.zeek,,same,5-4-2021,0
149,💸🥷,centralneger,,For the Netherlands its the 3 time,4-4-2021,0
150,Ibrahim,ibraxkh1,,Can I have any keyboard or an keyboard removal tool pls🥺,4-4-2021,0
151,⠀ ⠀ ⠀ ⠀ ⠀ ⠀,nezuko._._.kamado,,✨Special✨,4-4-2021,0
152,Brandon Irwin,qwqpulse,,Headset link ?,4-4-2021,0
153,Erick,theofficialpablo0,,Only 26 really wow that’s not a lot 😅🤣🤣🤣,4-4-2021,0
154,Baban,baban.dyari,,Nice we have a so many cars one to go to my grand parentes house another one to go to the market and another one to go back to home 😂,3-4-2021,0
155,nikos_mpasounas,nikos_mpasounas,,now thats a good jordan,2-4-2021,0
156,Akin Ajibola,its_justtunde,,I wanna see the PC,1-4-2021,0
157,Fares,habibi_fares,,Carter should I put a computer on a floor with no carpets?,1-4-2021,0
158,Marion🖤🤚🏽,lostmystixx,,Has a keyboard for every letter in the alphabet,29-3-2021,0
159,HC,its_herkie_,,Yo Carter what switches would you prefer bro?,28-3-2021,0
160,Dabauce Sauce,giga.monke,,Why does it matter what they think? Dont they know your tiktok,28-3-2021,0
161,Carterpcsgay,carterpcsisgay,,youre,28-3-2021,0
162,Libby joy Enangkile,libbyjoyenangkile,,cool set up for me thats my dream. im an I.T student and i dont even have a laptop you must be rich to have a set-up like that hehe,27-3-2021,0
163,user1473416496911,jesam_jesam,,Why?,27-3-2021,0
164,Mantelis,mantelis_xd,,Yo carted i dont think you will notice me but i saw one of ur vids in wich you told that you coild gove a keyboard and i could really use that.,25-3-2021,0
165,.,kh.075_,,Pov: i have to much money,25-3-2021,0
166,Cedric Salameh,cedric.cum,,POV: your school setup is your phone,24-3-2021,0
167,harvey,harveysfailinglatin,,I just use my laptop microphone and camera,24-3-2021,0
168,I ❤️ hot latinas,ashtwan6942,,my teacher thought said I was ready to start a pod cast with my set up,24-3-2021,0
169,😕,giannis.city,,Please speak English,22-3-2021,0
170,whot1,.whot1,,I’m also quarantined,22-3-2021,0
171,f00z,f00zyy,,My teacher says I look like a pool or with a gaming chair and headset😑😑😑,21-3-2021,0
172,Pat,pastasaauce,,POV You come from a stitch with a better setup,20-3-2021,0
173,myz.miyata,myzxyuuichi,,Ahahahaha I’m sleep😂😂😂😂,20-3-2021,0
174,𝖘𝖍𝖊𝖊𝖘𝖍,gasmoney.com,,🥲,20-3-2021,0
175,маријанко,marjaanko,,no 😸,19-3-2021,0
176,hiiiiiiiiiiiiii,things4457,,@loughh has you beat i think,19-3-2021,0
177,ibrown,_iain_brown_,,I have the same picture of the deer,19-3-2021,0
178,curry rice🥵,manraj.com,,My camera always dies when I use it for a long time. How can I prevent it,19-3-2021,0
179,FOLLOW FOR MORE :D,valorantclips4u,,Can you please give me a pc pls am poor😂,19-3-2021,0
180,.the slay kid💀,.theslaykid69,,Are you Rich,18-3-2021,0
181,web >:),coolkidweb,,my teacher said that I looked like I was about to be on a radio show like howard stern,18-3-2021,0
182,Andrew_aheee,andrew_aheee,,Ahh my fyp is fixed now carter is here,17-3-2021,0
183,Joshua McCleney,joshuamccleney,,✍🏼get✍🏼26✍🏼keyboards✍🏼,16-3-2021,0
184,abandoned acc,qernic,,what are the best mics u can get,16-3-2021,0
185,Eddie Spaghetti,eddiespaghetti212,,"lol, you have 2 wires, i have one 😎",16-3-2021,0
186,christian.ricci,christian.ricci,,Carter what’s the best switches for keyboard,16-3-2021,0
187,user4660407763941,i_eat_orphans_4_a_living,,why not shure sm7b and rode psa1,16-3-2021,0
188,𝔻𝕒𝕟𝕟𝕪,dannyespana6,,You met my cuzin can you say hi,16-3-2021,0
189,Nathan,whoisnathan_,,Imagine having all of this but you have your camera off for the whole year 😂😂,16-3-2021,0
190,ietsjens,ietsjens,,I originally thought it was an hd600,15-3-2021,0
191,daddy lake🤤🤤🤤🤤😏😏😏,mdt_olliejack,,are brown switches good for gaming,15-3-2021,0
192,Eric Nghiem,ericnghiem,,Sheeshhhh😨😨😨😨,15-3-2021,0
193,chris,chris_curioso,,Bro go outside,15-3-2021,0
194,Brayden Clement297,braydenclement0,,Can anybody please tell me what the best 800 dollar pc is,15-3-2021,0
195,6969,african.3,,@_lukemorley this should be us since we get quarantined so much,14-3-2021,0
196,RichReps,richreps,,this dude 15 and I'm 16 with not even a laptop 😭😭,14-3-2021,0
197,user6800346718939,ianabney14456,,What is your job ?,14-3-2021,0
198,Isaiah,isaiah.forhan,,What is That mousepad,14-3-2021,0
199,Isaiah,isaiah.forhan,,What’s that keyboards,14-3-2021,0
200,PLUTO,its.pluto.yk,,the AIOOOOOO,14-3-2021,0
201,Din pappa,hahahadinmamma,,Whats the mice?,14-3-2021,0
202,geusjxjwiwjxhsjsnbxjxsn,eusuntprostul,,i just use my phone,14-3-2021,0
203,sr,stevenrogel,,i have my chromebook and connect it to me tv via hdmi,14-3-2021,0
204,Vaikasesi,im_not_an_alien_,,nobody: Me chilling with my 9yr old laptoo,13-3-2021,0
205,Night Hawks,that._.random._.guy,,Wdym? I did,13-3-2021,0
206,AJN4,adriangetbusy,,aye whats that wallpaper it's fire,13-3-2021,0
207,iluvyoungthugger,iluvyoungthugger,,i use the laptop my school gave me 🧍🏽‍♀️,13-3-2021,0
208,Kyle Roberts,kyleroberts_6969,,He’s probably failing that class😂(jk),13-3-2021,0
209,Slo - Andrew :),slomohstv,,I need your wallpaper,13-3-2021,0
210,Est,estifannos123,,Teacher pet,13-3-2021,0
211,Liam Aylward,ticklish_soil_4_real,,Show them the DAC and AMP for your headphones 😂,13-3-2021,0
212,Not coming back,dash.spamm,,Me not knowing what your talking about: 😃,13-3-2021,0
213,Blue Snowball,bluesnowball0,,What is that mousepad? been trying to find out for hours,13-3-2021,0
214,Stfu,megamaster_96,,If anybody actually does this for online school you will be the joke of the class,13-3-2021,0
215,Grant Knapp,quandledingleberry69,,I have the same wallpaper as daddy carter,13-3-2021,0
216,kaboose,moosekaboose42,,ayo it’s carter with a pc,13-3-2021,0
217,dominick 💪,55_dom,,What is the first headset called,13-3-2021,0
218,help,crying.the.pain.away,,I just want to stop to say I love your videos😁,13-3-2021,0
219,Dad,espngil,,What’s that thing that separates the drawer and the table called?,13-3-2021,0
220,jojo tard,jostar.tard,,I use a laptop [hehe],12-3-2021,0
221,kyonn,kyonn.n,,ayo I have the same wallpaper,12-3-2021,0
222,r,ragnorz,,Now when you say your mic isn't working classmates r gonna make fun of u,12-3-2021,0
223,taffi,itztaffi,,wait i know you hmp🤔,12-3-2021,0
224,user,user294919472,,THIS REMINDS ME OF SOMEONE IN MY CLASS LOL,12-3-2021,0
225,KillerAlmonds,sloppywasabi,,Is the blue compass arm worth it?? 😳,12-3-2021,0
226,MR ACHI,mrach1,,nice fortnite Setup do you have renegade raider,12-3-2021,0
227,Ari,nyc.lunar,,My teacher asked if I stream 😳 what do I do?,12-3-2021,0
228,Jerrad,jerrad._,,who else stays in there bed all day doing school,12-3-2021,0
229,itmemason,itmemason_,,I'm 14 your 15 I'm close to carters age 😳😳,12-3-2021,0
230,🐢,kanaagarv,,is a 1050 ti with a ryzen 5 2600 good?,12-3-2021,0
231,alex,chubbysito,,what is the best choice for a 50$ pc I'm pretty broke and I wish I can have one 🥺🥺,12-3-2021,0
232,Skateboarding,skiing..hub,,AY YO I HAVE THAT ANIMAL PICTURE 1,12-3-2021,0
233,isaiah,isaiah.wingle08,,yo I seen you at walmart,12-3-2021,0
234,.,weloveyouonika,,@pool._.ratttt @hootyhoo_yt just for school 😳,12-3-2021,0
235,ก็็็็็็็็็็็็็็็็็็็็็็็็็็็็็,raciallymottivated,,imagine being in a class with Carter pcs,12-3-2021,0
236,1,jacob_6996,,Bro I’ve been quarantined 5 times almost 6😂,12-3-2021,0
237,candymans,thecandymans69,,i got the Logitech webcam (720p) with a 30 dollar cardioid amazon mic and my teachers think im a gamer and a streamer,12-3-2021,0
238,MarcoM,mrhotpocket123,,What happens if you use a cpu with integrated graphics and a graphics card at the same time or is that not possible,12-3-2021,0
239,Elux,supremios,,Want a break from the ads???,12-3-2021,0
240,stefany🤍,fortmills.curlyhead,,I use my laptop that is currently FROZEN with 50 assignments missing 😁,12-3-2021,0
241,William Moore,will_i_am_moore,,The flex,12-3-2021,0
242,TOM LEE,tomlee040,,can you do a 200-300 gaming laptop,12-3-2021,0
243,haribo,haribotob,,Step 1: ✍️get ✍️26✍️keyboards ✍️,12-3-2021,0
244,Glorp,glorp_sauce,,Going all out but don’t have a rodecaster :/,11-3-2021,0
245,sTeVeN,0t.stevie,,bro i literally use a amazon tablet.,11-3-2021,0
246,Aleks,aleksis.vilums,,You should actually go to class with it and stream it,11-3-2021,0
247,.Bravery_,.bravery_,,27 KEYBOARDS???!!?!?!?!? 😭😭😭😭😭,11-3-2021,0
248,acacia button,acacia_button,,but why?,11-3-2021,0
249,Johnny Gonzalez,johnnycito10,,When your a try hard at everything,11-3-2021,0
250,Jackson👽,jettass.post,,daddys money be like,11-3-2021,0
251,Alpha,alphaaj15,,How do u have time i just wake up and join,11-3-2021,0
252,djim,dejimbon,,My teachers always ask me if I have a podcast 😂😂😂,11-3-2021,0
253,AkaSoundey,akasoundey,,Me who can’t even go to school at my own table bc it’s too cold: -_-,11-3-2021,0
254,qJKJp,qjkjp,,I need to see this all together please upload a video of you using it all,11-3-2021,0
255,Neluu,denismacunostideja,,"yea flex on us, the poor people😂",11-3-2021,0
256,Tik Toker,stiffcox420,,And I use a Lenovo thinkpad lmaoo,11-3-2021,0
257,Brody Krey,brodykrey,,26 KEYBOARDS WHY CARTE WHY,11-3-2021,0
258,User7136371819193874731901,iskandarashraf,,how do you stay focus in class without distraction? 🥺,11-3-2021,0
259,卄ㄚᗪ尺ㄖ,fw.hydr0,,school setup...?,11-3-2021,0
260,Fletcher ong,itz.marshy40,,Ima need a reaction from those students😂,11-3-2021,0
261,Beaner,itzzrolo,,He speaking english right??,11-3-2021,0
262,Ethan ko,injkhoe,,@emilyy.kim_ ngl mr kim is more extra than this,11-3-2021,0
263,Deez,blaze.__4,,2nd ha rookie try 5 times,11-3-2021,0
264,Aksh Aulakh,akshaulakh,,Now u can’t say in chat miss my mic is not working 😂😂,11-3-2021,0
265,Anna Costello,annacostellooo,,But why?,11-3-2021,0
266,TTV_Issac-Smyth,issac_smyth,,Your not weird your famous pretty much,11-3-2021,0
267,elliot :),dyspraxicgoat,,HE'S GOT THE HUH DUH SIX HUNDOS!!!!! you know what I mean,11-3-2021,0
268,Piano,votonz,,Show us your class reaction and teacher reaction that would be great😁,11-3-2021,0
269,Ace Burkhart,zzz.ace,,no matter how many expensive stuff like this that i could have i would still mute my mic and turn off my camera,11-3-2021,0
270,samora 🥷,vlone_1k,,This actually makes me wanna do school,11-3-2021,0
271,FranktheStarWarsfan,frankthestarwarsfan,,@jaytx_57 imma need this,11-3-2021,0
272,Luke P,lukep_05,,Gaming,11-3-2021,0
273,Help,idontevenknowanymore420,,Now do the worst online setup tour,10-3-2021,0
274,Thomas,thomasgribbon_,,EY😏EY😌A😌E😁OH😬A😁A🥰EY😂EY🥰A😂AH😅AH🥺AH😌AH😬AH😌AH😌A😌EH😅OH😅AY😳AY😌EH😬E😬A😂,10-3-2021,0
275,👻 boo 👻,bamzterlover,,He just tod me that im poor in 1000 different languages😂😂😂,10-3-2021,0
276,Edward D.,thenycdognamedluna,,At least this made me know I’m not the only one using google meet 😅,10-3-2021,0
277,Emil Jakobsen,emiljakobsen8,,@lil_askepot det virkelig nice,10-3-2021,0
278,alex,placeholder.alex,,gotta make sure your mic is in frame,10-3-2021,0
279,oscar the man,oscar.umm,,"That’s an ok online school setup I guess, but do you have the 3090 if not, it’s kinda trash...",10-3-2021,0
280,bacon mcgriddle,chickensandwichplainpls,,Imagine his electric bill 😂,10-3-2021,0
281,OddoYourFriend,bimmefar69,,Im using an old slow laptop from 2008,10-3-2021,0
282,🍃,wong911.1,,Pov: ur rich,10-3-2021,0
283,Gaming with Abtin,abtindagreat,,Second intro could be how to flex in less than 60 seconds,10-3-2021,0
284,oby-_-,oby_464,,Bro your rich or somthing,10-3-2021,0
285,Tk,taylor_kinsella,,What desk do u have ?,10-3-2021,0
286,samsing,kriss0298,,i am going tell my parents i need it for school😂,10-3-2021,0
287,mikal 🧸,m1kalm,,Nah you doing too much carter,10-3-2021,0
288,cayshawn 👹,cayshawnthegoat,,🤦🏾,10-3-2021,0
289,Aiden wahid,lemonnugget2,,you can tell it’s expensive by how much words you don’t understand,10-3-2021,0
290,Denali Stevens,denali633,,Carter I’m just saying I’ve been watching you since 100k and had no idea you lived like a mile from my house until yesterday 😳😂,10-3-2021,0
291,..,_amj23_,,got same...wallpaper...😏😁😁😌,10-3-2021,0
292,scat,qzxli,,Proceeds to not use cam or mic,10-3-2021,0
293,George Travis,gergtravis,,i don’t even turn my camera on,10-3-2021,0
294,ツLuizzツ,vvsrevs,,What’s that wallpaper,10-3-2021,0
295,luca 🥶,luca.turan,,Some of us just on school chromebooks tho 😭😭😭,10-3-2021,0
296,Yum,p0st_m0rtum,,Second time 😂😂😂 3RD TIME,10-3-2021,0
297,Mason,mason.rake,,And I’d still leave it off,10-3-2021,0
298,ROSARV,robbyvent,,where do you get the money for this,10-3-2021,0
299,user1516298014090,redpants22,,hi,10-3-2021,0
300,Patrykos,pe.pis,,k.,10-3-2021,0
301,Tik Toker,_audionic_,,why dont you show us how all this looks in lesson,10-3-2021,0
302,Soren..grubb,soren.grubbb,,Can we have a full setup tour.,10-3-2021,0
303,,sebbas58,,@ashleys.simp mr kineens set up 💀,10-3-2021,0
304,😵‍💫,cloned2x,,bro making me wanna throw all my gaming stuff away,10-3-2021,0
305,Ginger nugget,gingernuggetog,,My boy is on google classroom,10-3-2021,0
306,.,10w23,,u have the same headset like Lazerbeam,10-3-2021,0
307,kn,kisaiah_,,Kareem 😂😂😂😂😂,10-3-2021,0
308,kai,kaionthebheat,,@phoebejjj same 🙄,10-3-2021,0
309,Justin,justinv844,,he is flexing on the whole class 😂,10-3-2021,0
310,Caden Summers,cadensummers7,,And I’m over here not even logging in,10-3-2021,0
311,Landon Swift,landonswiftkp,,I’m on my 5th q rn,10-3-2021,0
312,Paytoslay,paytoslay60,,I use a xbox 360 camera,10-3-2021,0
313,センピ-ゼロツー,mr.badeditor,,show us your class😁,10-3-2021,0
314,Bret,bretigop,,Can you do the audio test on your mic on the camera ?,10-3-2021,0
315,Macyn_Fogg,macyn___,,I just use my school laptop,10-3-2021,0
316,the last crusader,the_last_crusader,,im in class with all audio engineers so tbe cameras are hot trash but the audio is just 👌,10-3-2021,0
317,.,__deeznuts____,,Now u have 2 spam the keyboard in the mic,10-3-2021,0
318,calebmekonnen,ong_im_different,,Literally streaming to his zoom class,10-3-2021,0
319,Andre Wilson,dxrknezz,,Wait I thought you dropped out,10-3-2021,0
320,P4L,jac0bgr33,,pls tell me where you got your desk it my dream desk but I can't find it,10-3-2021,0
321,Mark😁,she_luvsmark,,what pc u use,10-3-2021,0
322,Ella,_frazzer,,@anasofiafernandezpecina literally Jacob,10-3-2021,0
323,banana gaming,bananagaming15,,Teachers pet be like,10-3-2021,0
324,Michael Grzin,michaelgrzin_,,“Tell me ur rich without telling me ur rich”,10-3-2021,0
325,alberto,sargentslongs,,me with my chromebook 🌚,10-3-2021,0
326,Ur dad,flaminglion408,,Just get a school Crome book,10-3-2021,0
327,Euan Bourne,rabbid_racoons,,where do you get all this money 🤨🤨,10-3-2021,0
328,DJ_Kreepy,dj_kreepy,,man if only i could buy that stuff😪,10-3-2021,0
329,Breanna🥵,breannahall_08,,can we see there reactions please,10-3-2021,0
330,Rylee,yfnrylee,,It’s always the try hard people in zoom class,10-3-2021,0
331,Daniel levatte,daniellllllllllllllll29,,Danm I just use my chromebook,10-3-2021,0
332,regan.norman07,regan.norman,,For them to see u on 30 hertz,10-3-2021,0
333,Jordan,hashira.no.1,,Do you live alone,10-3-2021,0
334,sully,sullylad4,,2nd pfft it'sy 4th,10-3-2021,0
335,Brayden Andrews,bdawgandrews12,,How do you afford this,10-3-2021,0
336,Max,max.arnold35,,@finnland18 this is lane,10-3-2021,0
337,Ethan Hunter,moist_cracker,,My guy just the Senhizer Hd6XX’s cone on I thought you where a tech guy,10-3-2021,0
338,Mason.lutz,mason.lutz,,That’s how you know someone doesn’t go outside,10-3-2021,0
339,Mf thwifo,bugerrbanana,,I feel like ur the type of kid who always on his camrea during classes,10-3-2021,0
340,4skn,...soul_,,what's ur mouse pad,10-3-2021,0
341,Mason,mason..powell,,What games do you play or like what do you do with your pc,10-3-2021,0
342,Lmao,ploxxy.crazy,,Yo chill it’s only school it’s not that important😅,10-3-2021,0
343,mrbulldops✅,thatmrbulldops,,"calm down, the school chromebooks can't handle all that",10-3-2021,0
344,user6586729886458,just.tom5,,My mans setup cost more than my car,10-3-2021,0
345,JdotB_,jdotb_,,damn only had 25 keyboards,10-3-2021,0
346,Ryder,ryder_535,,Noo then you don’t have WiFi or my laptop as a excuse,10-3-2021,0
347,Ilias👀🚶🏾‍♂️,i.lookman,,bruh if i had that ill actually contribute in class😂😂,9-3-2021,0
348,Tactical_Arab,tactical_arab,,I just sleep,9-3-2021,0
349,h,yesshitsherlock_,,Step 1: have money,9-3-2021,0
350,Soni,sonixperias,,your headset is the what?,9-3-2021,0
351,🐛Cruzz🐛,cruz_villegas,,pov: u just use a chromebook😌,9-3-2021,0
352,Haya,haya.ababtain,,@lisaishotterthanyou togas setup,9-3-2021,0
353,Dad,ed1o1,,"if your not flexing on your teachers that you make more than them, you’re doing it wrong",9-3-2021,0
354,d a n,daniel.hosek11,,where can i see your chair,9-3-2021,0
355,owen,owenbu20,,Were do u get the the money for all that?,9-3-2021,0
356,Unknown68,door_is_life_,,Where do you buy everything from,9-3-2021,0
357,rollin burba,genghiskhan371,,man's sweeting in zoom😳,9-3-2021,0
358,Asian dude,useripipl7q12d,,This guy dosent chear,9-3-2021,0
359,ケビン,uh.drugz,,Bro I have a 7 year old Laptop and a brocken Headset... At least I can Play Minecraft on it,9-3-2021,0
360,D1 Instagator,christiansremedy,,wallpaper?,9-3-2021,0
361,Tom,tomkay20,,Second pffff . 3rd roockie,9-3-2021,0
362,jonathan.d5,jonathan.d5,,only second lucky,9-3-2021,0
363,Henry,bobmarleysbro,,"He’s lacking, only the second time😂",9-3-2021,0
364,1 12 9,user.true_ali,,what are the specs on your PC. just wondering 😁,9-3-2021,0
365,Bray💠,itzbraymayne,,What kind of mouse pad is that I need a new one,9-3-2021,0
366,lea,manifestiranje,,WHAT,9-3-2021,0
367,.,suumeboiss,,MAKE THE KEYBOARDS LIGHT UP!!!,9-3-2021,0
368,Sepehr,__sepehr__,,Hi,9-3-2021,0
369,Jaq Mann,jdmjaq,,Im in my 6th quarantine,9-3-2021,0
370,what.a.chad,i.slurp.ur.left.testicle,,ol mate senny,9-3-2021,0
371,Jonas Larsen,jonaschugs,,Bro I’m also bring quarantined right now!!,9-3-2021,0
372,Dromore100RL,dromore100rl,,Bruh,9-3-2021,0
373,supremepinguin,supremepinguin,,If he's 15 and I'm turning 15 next week I got a lot of things to change 😳,9-3-2021,0
374,Joe Mama,hug_joe,,Again make me a pc😅,9-3-2021,0
375,Teo Ivancevic,teo.ivancevic,,“Extra special”... well special it is,9-3-2021,0
376,Anton,svedberg0,,Am i the only one that wonder when hes gonna put on the cap correctly,9-3-2021,0
377,HxrryKnxght,ox.hxrry,,Day 6 trying to get a free pc,9-3-2021,0
378,Lena Post957,lenapost0,,I just realized how long your head is,9-3-2021,0
379,Dalton Wolfe,daltonwolfe2,,I still ain’t Turning on my camera nor my mic😂🤚🏻,9-3-2021,0
380,You Tube,mafidel89,,Need,9-3-2021,0
381,______,_____yikes_____,,I have a ryzen 5 2400g and a rx570 I was wondering what will be a good thing to upgrade on it,9-3-2021,0
382,Ali Naqvi,hamborgr12341,,yo what’s the wallpaper called on wp engine?,9-3-2021,0
383,Niko Vincent,nikovincent,,Buys that camera: “hm this will look good”. *Does turn on camera*,9-3-2021,0
384,alivian.khosho,alivian.khosho,,My respect for dababy 👶🏿 📈📈📈📈📈,7-4-2021,0
385,MR.BEAN,jimmy_england57,,MK2 MORE LIKE MK2 OPPRESSOR 😂😂😂😂😂😂😂😂😂😳,8-4-2021,1
386,Burgi,burgi__,,Imagine his teacher doesn't want the camera to be turned on😳,17-4-2021,0
387,Huxi:),n0ahhuxi,,Check out this Guy @loughh,16-4-2021,0
388,j,annicockk,,Ayo ur life and death wallpaper I have that too,14-4-2021,0
389,Abdulmalek,vurasxx,,DT 990 pro or the sennheiser?,6-4-2021,0
390,Zach,_im_zach_,,Wait how much is your mic,31-3-2021,0
391,sdot,sdoht,,It’s the drool on the shirt for me,19-3-2021,0
392,6adiq2.0,ilovebasktetball,,"best build for 2,000 to 4,000?",14-3-2021,0
393,Anime Lover💖❤️,.soflow,,Can you post your previous set ups please🥺🥺🥺🥺🥺🥺,12-3-2021,0
394,Conor Ryan,conor_ryan07,,Bro I would get bullied,11-3-2021,0
395,Egag,lifeisnotready,,English please,10-3-2021,0
396,C.A,chadd.aa,,Damn u use da same wallpaper as me. Noice,10-3-2021,0
397,Kade Colon,papikade69,,I need help I built a whole pc and It works I just need wifi on it help pls,10-3-2021,0
398,Rvgersm1121,rvgersm1121,,if you where on my class I would hate you for making me feel poor much love,10-3-2021,0
399,dj,fatheryp,,Wait I heard a mf say u was like 16 or 17,9-3-2021,6
400,Teeq,teeq.101,,What mic do you reccomend for $50,9-3-2021,38
401,🧃🌍,laggi.n,,can someone buy me something on my wishlist,7-4-2021,0
402,Dorian,dori.m27,,can you give me a fridge[^••^],25-3-2021,0
403,corey,that_kid_corey,,"slide to the left
( ͡° ͜ʖ ͡°)
slide to the right
( ͡° ͜ʖ ͡° )
take it back now y'all
( ͡° ͜ʖ ͡° )",12-3-2021,0
404,?,user3710582583,,You are all getting baited carter litteraly thinks he knows everything but Mann u just loop up YouTube vids about the stuf u bought,22-3-2021,1
405,Tik Toker,bydgoszczownik,,Ok we get it ur parents have money,21-3-2021,1
406,.,dylrup,,@loughh’s is better,11-3-2021,1
407,Ayushmaan,ayush.maannn,,We all know that we keep our cams off sooo u are just flexing now lmaoo,24-3-2021,0
408,!,ihoop414,,POV your here from daddy @loughh,12-3-2021,0
409,💯,morrisonmostwanted,,I hope people make fun of you,12-3-2021,0
410,hi,imthebot69,,bro you doing to much,10-3-2021,0
411,Daddydaniel,daddy.pops.filnny,,Do u get bullied,9-3-2021,0
412,Dylan,dylankinda,,try hard,9-3-2021,0
413,;),jewlyus,,YOUR IN SCHOOL NOT STREAMING,9-3-2021,1
414,friendly-bob,friendlyb0b,,Hi Hi hi hi hi ji,17-3-2021,1
415,Pops,loverofrust,,True gamer,21-3-2021,0
416,stratoss💧,stratoss_d,,"I have a shot on Charli but I have no ammo, each like equals one ammo...
(　-_･)ᡕᠵ᠊ᡃ່࡚ࠢ࠘ ⸝່ࠡࠣ᠊߯᠆ࠣ╦╤──",9-3-2021,1
417,Arf,arfin07_,,I swear I heard senhizer sexxxx,4-4-2021,0
418,hi,wooden_shovel,,pc looking sexy daddy uuuuuhhhh 😩,13-3-2021,0
419,Hu,big_black_dudes12,,Im gay,13-3-2021,0
420,Mason Stewart,stewy_7,,Go to @loughh account,12-3-2021,0
421,RyanRussell_08,ryan.russell07,,✝️WAIT STOP ✋🏻 JESUS LOVES YOU VERY MUCH ✝️OUR FATHER IS COMING✝️TURN TO HIM BEFORE ITS TOO LATE✝️REPENT AND SHARE GODS WORDS,11-3-2021,0
422,STRAIGHT ZONE,not_fatherless,,HELP THIS GUY OUT @offcyril,10-3-2021,0
423,Calster,kalleskaviaar,,sry but the mic and the headset is very ugly,18-4-2021,0
424,Andrei,andrei_idiot,,I got corona,11-3-2021,0
425,ángelito 🏀,angelito_abundez,,All just to have ur camera off and talking in chat,5-4-2021,0
426,Ye,br3adsz,,Your aio is installed incorrectly,9-3-2021,10
427,Kiril,keeks.05,,@roobbiesaid Whatta nerd😂,9-3-2021,1
428,hunter,hunterconnon,,Wait you guys had a break in quarantine. I’ve been in it since 2019 no breaks like wtf,19-3-2021,0
429,Santey,santeywrld,,@santeyhvh：It’s funny how he uses a background made by a CS:GO cheater,14-3-2021,0
430,Burger Lamp,burger_lamp,,how TF do you have this cind of money and how old are you,11-3-2021,0
431,Water,quinnb15_,,We don’t care,11-3-2021,0
432,Wilson,ldudkshdj,,5 times don’t care,9-3-2021,0
433,Qina,qinatech,,get a fish tank,9-3-2021,5
434,lewis Wong,lewis...wong,,What do u think is the best keyboard for $60,9-3-2021,5
435,Kbanker,kbanker,,@bj.govinda do they,12-3-2021,2
436,Karlo Libert,karlolibert0,,Nah i usually pretend like my mic and camera dont work so they dont aske me questions,18-4-2021,1
437,𝓻𝓪𝓶𝓹𝓪𝓰𝓮,rampagezs,,that background looks like my pfp,9-3-2021,1
438,Hi,h1._.hi,,Man I just don’t like the two different coloured monitors,10-3-2021,0
439,z,4everjoey,,so if i buy and do all that she will like me back?,9-3-2021,0
440,⚽️ Irwin ⚽️,darkbunny.0,,look at @loughh 💜,12-3-2021,1
441,TT,pog.ex,,U need to chill,10-3-2021,1
442,ily,userymtnql9hpm,,No one cares,12-4-2021,0
443,user2269809187123,bagelshredder19,,How is your head so tall,29-3-2021,0
444,Good day,menace.bk1,,@loughh is better ngl,12-3-2021,0
445,Anthony,anton_3.3,,that's already overkill,11-3-2021,0
446,?,iv_lance,,Ummm miss my camera is not working🤫,11-3-2021,0
447,⛓ Imprisoned ⛓,rencarnation24,,Me with a laptop 👨‍💻,10-3-2021,0
448,Milton,ghost.radar_,,OVERKILL 😂,10-3-2021,0
449,Ewan,ewan._._,,How is this dude so r i c h,10-3-2021,0
450,!,alezf6,,This guy will never get rid of his virginity,10-3-2021,0
451,Professional thigh guy,fwdallday,,slightly overkill,10-3-2021,0
452,Vj Wilson,vj_wilson,,ummm... how bout a 2012 Samsung phone,10-3-2021,0
453,HarryRyder,harryryder873,,Nobody:the kid who wants to flex in zoom,9-3-2021,0
454,SHANE,sigmashane1,,If you fail,9-3-2021,0
455,Helldiver,helldiverr,,If cringe flexing would be a person,9-3-2021,1
456,Ju❤️,theyluvj9,,only two? i got quarantined 6 times in one semester🤌🏽,9-3-2021,2
457,…,hshdhdc,,Yo that shirt kinda dirty and white whatchu be doin 🥛 😏😳,13-3-2021,1
458,magic_p_s,magic_p_s,,im 1 year olther than you but look like a fricking 6 year old wtf,12-3-2021,1
459,✞,renjinotpluto,,sennheiser is like the pinnacle of audio goddamn,14-3-2021,1
460,Refiency,refiencyy,,can anybody tell me some good 1 pin switches,12-3-2021,1
461,ANTONI,antoinegetsnobitches,,All that to have your cam and mic off,12-3-2021,1
462,Sam Dressman,samdressman,,You need a mike that sounds like a radio,11-3-2021,1
463,Michael Southard,m.southard,,they prolly think you work for the government 😂,9-3-2021,1
464,Franisco Molina,b1x_s,,Yea everyone has fucking!!!!! 26 keyboards,9-3-2021,1
465,Nathanael,nathanael_d17,,damn i just use a chrome book camera,10-3-2021,1
466,user9605400663553,bryan_706,,Sheesh now he be runnig school at 1000000 FPS SHEESH 😬😬😬😳,10-3-2021,1
467,Lane Johnston,lanejohnston8,,Yo it’s the hurdur 6 hungos,9-3-2021,1
468,Dr.Spicy,dr.spicy,,Too he’s got the huhduh sixhundos,12-3-2021,1
469,Alexaskildsen05,destroyedalex,,Do you Get bullied?,19-5-2021,1
470,Chris,.chrisig,,Zoom 0-30 FPS 🤢,22-3-2021,1
471,Liam Martin,liamfm2604,,can you hell me build a good starting pc for around 1000,26-4-2021,0
472,office,off1c3,,Huh duh six hungees by ol'mate sennys.,20-4-2021,0
473,<3,sachacijffers,,so you're voluntarily throwing away any excuse to not have to say the awnser,19-4-2021,0
474,DIERYA.RL,ethanal.rl,,I’ve been quarantined 6 times,7-4-2021,0
475,adrian,_.insanity,,what do you do for a living damn,6-4-2021,0
476,🦦,dubairobb,,"All I do is put a vaseline on my cam, you got it all wrong",6-4-2021,0
477,m,9.ll.2001,,meanwhile the teacher has like a 144p webcam and a shit mic,4-4-2021,0
478,Chris odell,chrisodell553,,"hey Carter I see that you have the ""links"" still on your Taskbar, do you know how to remove unless you like it there",25-3-2021,0
479,roc,rociscool,,I'm doing it right. 3 teachers asked me if I had a podcast,21-3-2021,0
480,devan,devanwiththetshirt,,only use the senhisers HD-600,20-3-2021,0
481,DK-AJ21 oof,dkaj21oof,,yo I was gonna ask if u knew any monitors and a mic witch comes with a stand all under 250 euro as I need improve my setup,16-3-2021,0
482,stiz,kitty_eater08,,lookin like a goofball,14-3-2021,0
483,Your cars extended warranty,phisikss,,If I only have a budget of $150 what do you think the best.... no one cares,14-3-2021,0
484,Khaby,khabylamme3,,Under kill for online school jk 😂,14-3-2021,0
485,Maintiax,maintiax,,Make your camera run in 4K so their crappy pcs die,13-3-2021,0
486,Brandon Williams,.tokenblkguy,,Dang bro just stay home. If you got Quarantined 2 times. Cause seems like u ain’t doing something right,13-3-2021,0
487,Adam,donkey_kongs_right_nut,,Hey what’s a good mouse for cps? 100 budget btw. 😁,13-3-2021,0
488,user4778703900332,ywyattwhy,,You are awesome. I cannot find the hack to speed your computer up. Can you remind us? Thank you.,13-3-2021,0
489,Krazy_driang19,krazy_drian19,,Every one sitting on a wooden chair with a Mac on a table my man with a podcast with around 30 keyboards my mans doing different,13-3-2021,0
490,Taj,_taj_s,,Me with my MacBook Air and external monitor,13-3-2021,0
491,Nicholas,the_tiktoker222,,Yo can you tell me the best pre built pc thanks 😁😁,12-3-2021,0
492,Taevinn,taevinn_crowley,,"Hey what’s your pc build and can it run games like warzone, Cold War, apex,ark and just big games like that",12-3-2021,0
493,Viesturins🫶,vi444qtt,,what do you think is the best pc for 1000$?,12-3-2021,0
494,Jahaziel Calzada,slxwdo,,So um my teachers either think work at a radio station or im selling drugs,12-3-2021,0
495,Michael,michael_milazxo,,Would you kiss James Charles for? ultra i9 10980XE 4.6GHz & Intel Core i7 10700K 5.0GHz! THREE Nvidia RTX 3090s flat screen TV 66 inches curvey,23-3-2021,0
496,🇩🇴🇵🇷,face_of_the_what,,@fxndi_iso,22-3-2021,0
497,Yb cult 4L,iihearteeya,,😂,13-3-2021,0
498,Tati<33,iluv._tati,,@aryianotfound @chucklesammy,13-3-2021,0
499,Ben,yoitaben,,@blakecoppens,15-3-2021,0
500,kristofertstaib,kristofertstaib,,@,15-3-2021,0
501,DeAndre,drecovercetti,,@johno.0,15-3-2021,0
502,Phil,philip.mazohl,,.,23-4-2021,0
503,Calmond,riley.ormond,,I,12-4-2021,0
504,mfsanji,mfsanji_,,⁶,30-4-2021,0
505,drippy.boi.zeek,drippy.boi.zeek,,😂😂😂,5-4-2021,0
506,ethan.burns,ethan...burns,,@tichota_beckett,10-3-2021,0
507,Wydchriß,yochr1schill,,Day eight of asking for a wave check,11-3-2021,0
508,Cheese,personwholikescheese_,,@personlikesbean overkill much,11-3-2021,0
509,I’m very unoriginal,usernamesarehard5,,This seems a bit overkill,11-3-2021,0
510,Nick Laviolette,nicklav22,,"my teacher made fun of me for my set up (blue yeti, cannon m200, and an arctis 7)",11-3-2021,0
511,Utak ni abel,utakniabel,,You should stream while your in a zoom class,10-3-2021,0
512,TJ “The Pizza Man”,ceoofpizzahut,,PLEASE what is that mic arm called? My blue yeti keeps collapsing my current arm,10-3-2021,0
513,cameron edmondson,cameronedmondson1,,@eugeo63,11-3-2021,0
514,vin disel od bit pazar,malata_pumpa69,,yoo wtf how do u make money,10-3-2021,0
515,resetflaws,resetflaws76,,is there a site to buy switches or key caps or were to buy banana splits,10-3-2021,0
516,tyree💕🤨,honeybuntyree,,What’s the best pc under 1000$,10-3-2021,0
517,AK,akmndz,,Then here I am struggling with my hp 2017 laptop who keeps disconnecting itself time by time 🙃🙃,12-3-2021,0
518,Joshua,ichbinjoshua,,wrm ist da ne sonnenblende drauf häää,12-3-2021,0
519,Peach,mzpeachz_,,How’s that 5000 series case treating you? Considering getting one in black,12-3-2021,0
520,Shane🥷🏻,shane_918_,,@loughh,12-3-2021,0
521,AaronKraus,aaronkraus0000001,,@gianluca_conte1 @marceau.lassus @gordon_rams_me69 gianluca this you?,12-3-2021,0
522,Mauricio Ochoa,elmau8a29,,Wait you were not quarantined once,12-3-2021,0
523,Owen Adkins,thatowendude,,@tlarue944 he copied my back round,9-3-2021,0
524,Jin,arjunxm,,AYO carter i have the same japanese death wallpaper too SHITS 🔥,9-3-2021,0
525,ahahah,googoogagagfy,,what is your desk top called?,9-3-2021,0
526,Doodoo,iatemygrandmasdentals,,Like I have 26 keyboards 😃,9-3-2021,0
527,NathanC- atoad,i_am_a_toadman,,bro looks toasted,9-3-2021,0
528,James Horn,kakashihatakia007,,i want to see one of or classes,9-3-2021,0
529,Atticus,atticus5z0,,I stay muted and have camera off the whole time,9-3-2021,0
530,Anbu shifty,2shifty12,,You never take off that hat the boys will give you 1 million likes to take off your hat,9-3-2021,0
531,Ish,ish.0.1,,"Getting quarantined for2nd time? in the UK, I’m going back to school tomorrow after I’ve been quarantined for 2 months",9-3-2021,0
532,Jacob Edward Smith,jacobedwardsmith,,Can anybody tell me the best cpu for around $600?,9-3-2021,0
533,Mused,mus6d,,@simplyaliano beat that,9-3-2021,0
534,Alfonso Garza,alfonsogarza19,,What’s the best keyboard for 50 bucks?,9-3-2021,0
535,Marcus,marcus_f2,,If I had all of that I would still have my camera off in every class,9-3-2021,0
536,Rohan Prihar,.rohan_,,Try hard,9-3-2021,0
537,Dalton King,king.dalton11,,@xdacoolest wtf? 😂,9-3-2021,0
538,Braxden,brax_the_goat,,What is your opinion on a Anne pro 2,9-3-2021,0
539,hi,markese_nsx,,Wanna donate a keyboard,9-3-2021,0
540,edis,edis.mx,,U better make sure u not gonna go irl school 😂😂,9-3-2021,0
541,Robert_pook,robert_pook,,"Anyone know the best budget keyboard (no num bad but with f1, f2 etc)",9-3-2021,0
542,I see,scl_galaxy1,,Good job carter,9-3-2021,0
543,𝔙𝔩𝔬𝔫𝔢,therainisnice,,Yeah my school setup is my bed and Chromebook not to flex or anything,9-3-2021,0
544,JJ,itz.jjoshy,,No led doesn’t matter,9-3-2021,0
545,Trenton Rodger,trenton.rodger,,is that headset small or do you have hands like hulk,9-3-2021,0
546,Adam,g9.nyxz,,carter or anyone in the comments I just got Ethernet and my speed is slower than wireless and almost 15 times a day I lag out of discord and my game,9-3-2021,0
547,KhadenHerrickOfficial,khadenherrickofficial,,anyways the fitness gram pacer test...,9-3-2021,0
548,athan,y3rds,,I have a chromebook,9-3-2021,0
549,Sinn,s1n8670,,When you can’t even pretend your lagging to get out of class,9-3-2021,0
550,gwen >:(,gwen.j,,why am i older than u,9-3-2021,0
551,sSsSsSs,123.abcd.lmnop,,Where can I get me some carter stickers,9-3-2021,0
552,Zikomore,zikomore,,Do you have the shure sm7b it’ll look so much funnier,9-3-2021,0
553,Alex,aleksrodriguez__,,Are you in the tik tok creator find,9-3-2021,0
554,kferraro5691,uevanish,,@os_moldyhotdog,9-3-2021,0
555,ty,ty.smyth,,need a setup tour,9-3-2021,0
556,user9595523272707,braverluna,,"hey, what’s a good gaming pc for ab $400-500 I would also use it for school sometimes",9-3-2021,0
557,Nathan,nathanvriezerr,,@trevan_207 wtffff,9-3-2021,0
558,.,jxshyyx,,I use that wallpaper life and death it’s sick,9-3-2021,0
559,ℍ𝕩𝕣𝕕.𝕥𝕣𝕒𝕫𝕫 is daddy,hxrd_trazz,,Can we see how the camera looks,9-3-2021,0
560,Eli Hayes,groovygrape_,,What does a shock mount do ???,9-3-2021,0
561,Patrick Maalouf653,patrickmaalouf1,,carter flexin',9-3-2021,0
562,Dennis,dennis_____3,,Carter do you know why I get packet loss when I get 250 download speed and when I do packet loss tests they always come out to 0percent packet loss,9-3-2021,0
563,⠀ ⠀ ⠀ ⠀ ⠀ ⠀,elliott2comp,,I just want everyone to know this is 100% accurate and if you don’t look like your running a podcast your doing it wrong 👍🏼,9-3-2021,0
564,🔱,tino.vela_,,What is a good 60% silent keeb under 80$,9-3-2021,0
565,Sir savage824,dylank812,,How old r u?,9-3-2021,0
566,Tyce baldwin,tyce_baldwin8,,I’ve been quarantined 4 times...,9-3-2021,0
567,David Yi,davidyi07,,Best headset mic for gaming/streaming?,9-3-2021,0
568,ChrisT,christingley6,,whats a good cheap usb mic,9-3-2021,0
569,yeet,lila57474,,hello. love your room and setup man!!,9-3-2021,0
570,Idk,luchi_166,,Is there a 400 dollar graphics card thats good,9-3-2021,0
571,Your mom,skinnywhiteboi6,,What’s the best mouse,9-3-2021,0
572,...,aonway,,I swear u were at my basketball tryouts or someone looked just liked u,9-3-2021,0
573,Justin_bonito,.justinb,,Kinda underkill,9-3-2021,0
574,Guy,fiolhfdfg,,bro trying to make a movie💀,9-3-2021,0
575,Shaft312_Ryan_,shaft312_ryan,,Take notes😂,9-3-2021,0
576,divers_fn2,divers_fn2,,Yo @carterpcs How do you keep everything clean. My setup is always dusty so I have to constantly clean it,9-3-2021,0
577,Nick,nic.latina,,You may have a good setup but show us the grades you get,9-3-2021,0
578,Darxk,darxk03,,I really think your aio is installed incorrectly,9-3-2021,0
579,Zoloft,zoloft.exe,,“Still fails the quiz”,9-3-2021,0
580,AWOB,awobontiktok,,I love your setup keep up the good content,9-3-2021,0
581,Brady Sidney,bradysidney,,@brysen...vallee,9-3-2021,0
582,Philbert Dietrich,phillycheese3_44,,Ey welcome to the squad of being quartintine @carterpcs,9-3-2021,0
583,yvng_rae💙🦾,theonly.rae24,,Thought I was on my following,9-3-2021,0
584,Aiden Audet,aiden_m23,,Need more rgb!,9-3-2021,0
585,Patt White,pattwhite06,,His setup is so hawt😩,9-3-2021,0
586,Taylor Johnson,abimbolajafari,,You have as many keyboards as I have stds,9-3-2021,0
587,Cammy,cammy_1872_,,any good pre bulids for streaming ?,9-3-2021,0
588,Bro.wtf,wtf.br6,,Your class mates are gonna see you in 24k 😂,9-3-2021,0
589,user1609273574006,yuvraaj2820,,Yo,9-3-2021,0
590,Jad Bouhussein,jadb64,,you can never say my mic and camera don’t work tho,9-3-2021,0
591,Bigboi_Ethan,bigboi_ethan,,How do you cable manage so good?,9-3-2021,0
592,Nando,nandodraws,,PFFFTTT,9-3-2021,0
593,neb,nebluaa,,all of my teachers make fun of me by asking for my podcast 😐,9-3-2021,0
594,Tyler Kramer,kramingo,,What headset with mic do you recommend that works for both Xbox and PC?,9-3-2021,0
595,mhakim_7,moh.hakim7,,"Wait why do u have such a good and expensive set up, r u a popular streamer",9-3-2021,0
596,Travisjack,travisjack,,Hey I wanna build a pc what would you recommend,9-3-2021,0
597,Brandkin,brankdin,,my brothers lookin to buy a prebuilt rn. have u done an updated video on that recently?,9-3-2021,0
598,⠀ ⠀ ⠀ ⠀ ⠀ ⠀,e_v____a_n,,bruh i was on a macbook with airpods,9-3-2021,0
599,aizaer,zaerrrrr,,can you make a pc build for me around $700 please and thanks,9-3-2021,0
600,Say what,danny69195,,How can you get the wallpaper,9-3-2021,0
601,…,nuggetislost,,😂 Omg love this guy,9-3-2021,0
602,Jasper,jasperistaken,,Any suggestions for earphones?,9-3-2021,0
603,Brody Pagac,brody_pagac,,Wallpaper?,9-3-2021,0
604,...,dontaskwhy827,,Was that headset in the beginning the PC37X,9-3-2021,0
605,User,camt976,,all that to stay on mute 😂,9-3-2021,0
606,AJ,stuckup_aj,,Carters that guy in school that all the dudes want a shout out or free stuff from him,9-3-2021,0
607,Ebag,gabesarceno,,Why u keep getting quarantined,9-3-2021,0
608,BobTheBuilder,bob6372148,,This gives me hope that my school will be quarantined,9-3-2021,0
609,Turtle,r2dant,,What’s the best keyboard under 50 dollars,9-3-2021,0
610,Spence,mr.rico.swave,,@carterpcs what is a good pc for comfortable gaming and school,9-3-2021,0
611,Marble,marblerl,,Lmao I can just imagine what the kids who don’t know about your tiktok are thinking,9-3-2021,0
612,?,abdul8199,,"𝑰 𝑳𝑶𝑽𝑬 𝑩𝑳𝑨𝑪𝑲𝑷𝑰𝑵𝑲
︎︎
︎View replies (186)
︎︎
︎︎
︎︎
︎︎
︎︎
︎︎
︎︎
︎︎
︎︎
︎︎
︎︎
︎︎
︎︎
︎︎
︎︎
︎︎
︎︎
︎︎
︎︎
︎︎",9-3-2021,0
613,Snappy the 🐐,snappynw,,What’s the point of the mic on the camera?,9-3-2021,0
614,Gavin Wuisan,gwfuture,,Bro why is it setup so clean,9-3-2021,0
615,Lil hersh,jjynkzz,,I want to see they’re reaction to seeing your setup,9-3-2021,0
616,nick021.ny,nicktison583,,Can you make a video on the best low budget gaming mice,9-3-2021,0
617,Cris,crisgoodboi,,I’m litarly a wana be cater,9-3-2021,0
618,STOP SENDING ME TIKTOKS,cookie.creamer.fan,,I’m about to get a keyboard and mouse for a ps4 for cod and Minecraft what do you suggest,9-3-2021,0
619,David,step.___,,I feels like @yuliontop would have his hand cam on,9-3-2021,0
620,Tik Toker,thebob1235789,,How much was ur whole setup,9-3-2021,0
621,👁👄👁,ethanluvs_u,,got nothing on the pixel girp,9-3-2021,0
622,Alex,realalexgraal,,What’s your pc wallpaper pls,9-3-2021,0
623,Nuyt,cnuytw,,Do your classmates ask for free keyboards?,9-3-2021,0
624,Jerome,jaquaviontavious38,,"on one:
that one rich kid on the zoom:",9-3-2021,0
625,user7344368886426,yourdadispooping,,Carter I think your the coolest kid in school,9-3-2021,0
626,The dark nebula,the_dark_nebula_,,Hey can u tag me in a vid of reviewing a ducky 1 2 mini,9-3-2021,0
627,Timothy Shibu,timmy_s7,,I use a cannon t6i for zoom,9-3-2021,0
628,Heller 811,liam.811,,What would be be a good first pc for me but cheap,9-3-2021,0
629,Tik Toker,jus.neva,,Ty for the code for ur class carter,9-3-2021,0
630,Akeem,akeemtheglizzymachine,,When.,9-3-2021,0
631,alexa’s boyfriend!,a1exas.superhot.bf,,Hi Carter,9-3-2021,0
632,Twitch.tv/Pixelchu07,pixelchu07,,@hi_there_im_shamus,9-3-2021,0
633,v,luvrdieg0,,someone Should Just make a setup for school,9-3-2021,0
634,delay clips,00__00..00__,,It’s okay I got quarantined 3 times,9-3-2021,0
635,AfricanMonkey,thenutellaone368427,,Show us school meeting,9-3-2021,0
636,Mark Blackburn,mblackburn2113,,What does it look like when In a zoom meeting?,9-3-2021,0
637,😐,koltinnnnn,,Fax lmao my teachers think I have a podcast,9-3-2021,0
638,Tyler Dilbeck,tdilbeck33,,Your to much 😂,9-3-2021,0
639,Brrr,lmkpoppin,,One of the kids on class has a a mic on a boom arm and the teacher asked him if he has a podcast😂,9-3-2021,0
640,Ker,thatguyrhino,,Sometimes I forget you’re only a year or two older than me,9-3-2021,0
641,Donkeyyy,nick.giligan,,all this just to have 720p google meets,9-3-2021,0
642,Yus J,kalza2004,,Dad I need a 3090 for school now,9-3-2021,0
643,Brussel#PND,brusselpnd,,I’ve been quarantined 5 times 😐,9-3-2021,0
644,Koltina,kolton.hornaday._,,Do you stream???,9-3-2021,0
645,Koltina,kolton.hornaday._,,Do you stream?,9-3-2021,0
646,William 69,williamhasaids,,You got a put lights on the keyboard so they know for a fact that those are keyboards omg 😬😬,9-3-2021,0
647,LMJ1O1,lmj1o1,,Best headphones under $100 thanks,9-3-2021,0
648,D$,f1_supermax69,,"I'm getting a pc soon, I'm planning on getting the nzxt starter pc $800. should I stick with this or go with something else for 800",9-3-2021,0
649,joey,ricotwohard,,@mattmccaf competition,9-3-2021,0
650,Tornado,tornado.dbl,,hello,9-3-2021,0
651,wrigley,ionlykidd,,"good music, carter.",9-3-2021,0
652,Aiden Shelton,aiden_shelton12,,Class be like show off,9-3-2021,0
653,Mio,just.relaxa_,,Then you do obs virtual webcam,9-3-2021,0
654,🦖🐢dm to play mc🐍🐊,funnymongus,,yeah I dont the teacher is going to be seeing that camera quality with their 30 frames dell desktop.,9-3-2021,0
655,qc_alien,qc_alien,,how Do u get all this monney ?,9-3-2021,0
656,Arctic,arctic.silva,,iv been quarantined since December,9-3-2021,0
657,cadewilloz,cade2044567483,,@carterpcs What computer would you recommend for my home setup? Req. under $1000 and 16-32GB DDR4.,9-3-2021,0
658,Izac Mactal,izacmactal,,Notice how we started quarantining in March again 😂,9-3-2021,0
659,🎩,botitron,,Boys running a whole studio during zoom,9-3-2021,0
660,user4159701766524,dominix_sz222,,i love how u discribe the camra like a weapon,9-3-2021,0
661,Mk,mkdkck,,Thousands of dollars for audio ez,9-3-2021,0
662,🧐📦💥,fzxtrix,,I just use a laptop and Apple earbuds,9-3-2021,0
663,Oliver,buttery_t0ast,,@legitimateboredem,9-3-2021,0
664,Kyler,nrovy,,What’s your birth month,9-3-2021,0
665,lukegorena,lukeg9,,"i got that headset paired with the magni modi stack, it’s great",9-3-2021,0
666,UrAputo,perro42069,,What is the amount that I should Pat for my first build pls respond,9-3-2021,0
667,Ten,tencdy,,that one guy that is a tryhard at school,9-3-2021,0
668,Caden Kurtz,c.kurtz69420,,Dude that’s crazy I just got quarantined today too,9-3-2021,0
669,Kaveesh,idkkaveesh,,"🛸　　　 　🌎　°　　🌓　•　　.°•　　　🚀 ✯
　　　★　*　　　　　°　　　　🛰 　°·　　                           🪐
.　　　•　° ★　•  ☄
▁▂▃▄▅▆▇▇▆▅▄▃▁▂",9-3-2021,0
670,User3744746383728,http.urmom.net,,WERE USING THE SAME WALLPAPER!,9-3-2021,0
671,Moe Awada,moeawada3,,If u mind answering how old are you,9-3-2021,0
672,DyslexicBird_28,dyslexicopp,,Yo carter can you help me set up my headset so I can use the mic,9-3-2021,0
673,Duro/Abani whatever ur choice,abaniorduro,,That’s so over kill for no reason,9-3-2021,0
674,David,davviiiiiiiiiiiiiiiiiid,,hes got dem huh duh six hundoos. do you have a pukcell or 1grit to go with them?,9-3-2021,0
675,Alonso_8 YOU UP,theycallmedaddy0_0,,For real what games do you play,9-3-2021,0
676,Ryan,ryan_najar28,,Hey Carter what is the best secondary monitor for around 150$,9-3-2021,0
677,maddix,mpoopfart,,ok,9-3-2021,0
678,christian.,chris_toro,,yo carter can you check out the Drevo caliber V2 TE,9-3-2021,0
679,timo,timo1528,,"""a podcast or something"" sure😳",9-3-2021,0
680,Benjamin Dennis,stickybear526,,what streaming/gaming pc do you reccoment for 1500,9-3-2021,0
681,walladan,rwalladan,,What’s the point of having a pc that good when you play chess only,9-3-2021,0
682,Madoodoo,madoodoo,,Any wireless headset you’d recommend?,9-3-2021,0
683,Huss,huss13am,,Dad?,9-3-2021,0
684,Joe Biden,joe_b1den1987,,Nah you have to make it seem like your stuff isn’t working so you don’t have to do anything,9-3-2021,0
685,JaviTheMightyMilf,fnkidjavi,,Pov ur @carterpcs and u saw this so u liked my comment and followed me😳😏,9-3-2021,0
686,ōkamiッ,wtfokami,,Early,9-3-2021,0
687,Nik Sylvester,niksylvester,,Great bro I need this,9-3-2021,0
688,step mercury,mercuryorbits,,what is the best keyboard case and pcba? i want to have some leds on it also,9-3-2021,0
689,Ct_lol,dr._.dumpling,,Can you build a 60 percent hotswap keyboard?,9-3-2021,0
690,BrandonJHernandez,brandonj394,,How much was your PC?,9-3-2021,0
691,☹︎FʟɪᴘᴘᴇʀFᴀᴜɴ☹︎,flipperfaun,,That’s not totally not over kill...,9-3-2021,0
692,Tac,_.tac,,pog,9-3-2021,0
693,philip,_philiphill,,Imagine the quality,9-3-2021,0
694,Landon,landon1227,,Bro is flexing on zoom😂 you’re nuts,9-3-2021,0
695,ivan,oy.baby,,Hi carter! 👋,9-3-2021,0
696,Max Miller,futuremoneymaker,,Here me out closed back or open back headphones,9-3-2021,0
697,bb,chanclah,,Best 300 dollar pc for gaming ??,9-3-2021,0
698,Ahmed,the_2_legends_0,,😂,9-3-2021,0
699,feen for asian & latinas,iluvpandaexpresss,,Show us while in zoom class,9-3-2021,0
700,Max Miller,futuremoneymaker,,Not to be rude but if I saw this it would be 50/50 either this guy is sick like really cool or he’s a loser but more on the sick,9-3-2021,0
701,Noah Pollak,noah_pollakk,,Good mic under 150?,9-3-2021,0
702,vexie,.holw,,I was gonna make a joke a ask for a keyboard or a mousepad but I realized I dont even have enough money to build a pc,9-3-2021,0
703,Drew,drew.breedlove,,What are your thoughts on the apex pro til,9-3-2021,0
704,uli,drainuli,,it’s been 6 mins,9-3-2021,0
705,Damian,damiancantskate,,Thank you carter very cool. But I’m thinking of upgrading my 1660ti. Should I wait?,9-3-2021,0
706,bruce,joemama8080808,,Hi,9-3-2021,0
707,Nathan,.___.nathan,,what mic arm would you recommend for 30$-50$,9-3-2021,0
708,Thalen Allison,thalen_89,,Can you explain what’s special about cameras and why they’re so expensive?,9-3-2021,0
709,Bro?,playboi.aidan1,,How u doing?,9-3-2021,0
710,Owen Etson,owen_etson,,They think your weird until they realize that your more successful then they are,9-3-2021,0
711,Saheezy,saheezyyyy,,I do the same stuff but tilt my camera up,9-3-2021,0
712,TheDrBlueberry,thedrblueberry,,JOE MAMA,9-3-2021,0
713,Sge,sxxge__,,What setup do you recommend for $350? Like just running valorant at 60-80fps if possible,9-3-2021,0
714,Zp,zp.122334,,You should record your teachers reaction,9-3-2021,0
715,:),pickleflavoredcracker,,its my first time being quarantined also,9-3-2021,0
716,juul,jhlsky,,do people think you're some sort of famous twitch streamer lmao,9-3-2021,0
717,tavita,txvita,,You’re cute🥰,9-3-2021,0
718,Carter307,carter67981,,nice,9-3-2021,0
719,cody what’s good,codymillller,,Best pc for 300$,9-3-2021,0
720,MilkWoman,stuck_under_the_bed,,Where do you get the hdmi out cord I can’t find one anywhere,9-3-2021,0
721,Shiyeon,shiyeondosentusethisacc,,REPLY,9-3-2021,0
722,Liamparkins 39,beanking27718,,No,9-3-2021,0
723,Shiyeon,shiyeondosentusethisacc,,HELLO,9-3-2021,0
724,ℙ𝕒𝕓𝕝𝕠,pablograviolo,,that's pretty cool,9-3-2021,0
725,kadan,kadan69,,What’s the best prebuilt for $75k?,9-3-2021,0
726,Jeff,cat1234272733,,42 sec 😳,9-3-2021,0
727,Arius :),smolkakyoin,,Heyo carter,9-3-2021,0
728,Dylan.....Griffith,chad_griffith,,love you bob,9-3-2021,0
729,Casey Cohen,casey_cohen,,Early,9-3-2021,0
730,yes,_cheese_toast_,,ha carter,9-3-2021,0
731,Tommy,tommy.wawrzynczyk,,Carter what are your thoughts on 011 dynamic?,9-3-2021,0
732,Nathan,nathanaubin04,,😅,9-3-2021,0
733,James,yuhjxmes,,Early,9-3-2021,0
734,Ronit Podder,ronitpodder5,,Second,9-3-2021,0
735,:),cheekstroker,,Pacific Ocean has 3 different pronunciations of ‘c’,9-3-2021,0
736,Stingy,stingray1596,,More Instagram dms,9-3-2021,0
737,oscar,oscar_r7,,Yeah mom this is the minimum I need for class,9-3-2021,0
738,zcdawg,zcdawg,,Try hard lol,9-3-2021,0
739,Christian⚾️🇨🇦🏀,jawatermelon,,"Every body watching be like, what the f**k",9-3-2021,0
740,jesse,shitter_na,,Damn that camera make u look extra hot,9-3-2021,0
741,Jamdoll,jamdoll_,,Nice,9-3-2021,0
742,Basil derlis,basil.derlis,,I’m acc early I love u carter,9-3-2021,0
743,fml,sho.is.here,,im gunna have this and go through the class w/ my camera off and not sy anything 😂,9-3-2021,0
744,aubrey simire253,its_econ,,your cool want to dm on dc,9-3-2021,0
745,Rayne Ola,rayne.ola,,What grade are you in,9-3-2021,0
746,enriquerivera42,enriquerivera426,,Can you review the asceny 60% I bought off amp on and idk if it’s good,9-3-2021,0
747,.,aidan._o,,Cartier you’re still sexy,9-3-2021,0
748,user9385041692836,lebstyl,,Hey bro what is the best performance pc that is at least 500$?,9-3-2021,0
749,Norgam,morgan.hix,,Little under kill ngl,9-3-2021,0
750,frosty,acemintyy,,you low key kinda look like @carternotpcs,9-3-2021,0
751,Ryan.Black,ryguytheging,,Dang,9-3-2021,0
752,🇮🇹,soccer_content77,,Hey do you know a good keyboard for $70 au price,9-3-2021,0
753,Nery Lopez,nery_lopez_mora,,yo gimme a keyboard jk just trying to make u mad,9-3-2021,0
754,Jaydenpoo<3,fwjayd3n,,To think I use a chrome book,9-3-2021,0
755,𝘍𝘦𝘭𝘪𝘱𝘦 🪬,felipr1x,,The best 5 pin hot swap 60 percent cases,9-3-2021,0
756,Austin,bigp062,,Damn that background based,9-3-2021,0
757,Axell‼️,axell.carrasco,,If they flame you they not living life like they should,9-3-2021,0
758,Aidan lol,.grtz,,What do you think of the hyperx quad cast,9-3-2021,0
759,𝓑𝓻𝓪𝓭𝔂🌾🦆,bradyedwards9,,give us a tour,9-3-2021,0
760,sharkyiscool,sharkysaysbruhh,,hey Carter I'm trying to get a queit keyboard under 100$ if you can tell me one that would be great,9-3-2021,0
761,Scoop,scoopzlul,,Make sure the class can see ur pc,9-3-2021,0
762,Real V0DJ,v0dj_,,Bro its just school,9-3-2021,0
763,Gioo,jammboo_,,thoughts on my parts list,9-3-2021,0
764,Carter,iheartgilfs69,,How would you feel if I put stock gateron yellows in a gmmk,9-3-2021,0
765,ColeDaCow,cole.89,,Bro start streaming,9-3-2021,0
766,jBk Heshster,jbkheshster94,,BRO LOL,9-3-2021,0
767,Vecc 🐍💿,vecc9,,i love your content,9-3-2021,0
768,Vecc 🐍💿,vecc9,,is the blue compass affordable for a somewhat tight budget,9-3-2021,0
769,mr.freeze7809,mr.freeze7809,,@carterpcs carterpcs is the redeon 5900xt good?,9-3-2021,0
770,eze,bbzen_,,pc specs?,9-3-2021,0
771,I like to hack,robloxhackermann,,EYOOOO me too I wasn’t so lucky I got quarantined on my birthday March 7th,9-3-2021,0
772,D,ightdew,,Hey carter Can you check Akko CS Series key caps and switches and keyboard,9-3-2021,0
773,Nathaniel Eades,nate...........8,,father carter what is the best cheapest tkl keyboard,9-3-2021,0
774,Dev_TGH,dev_tgh,,or you can use a webcam?,9-3-2021,0
775,Enrik,enrik_da_elf,,this has to be a joke cause I get embarrassed if they see my perifials 💀💀,9-3-2021,0
776,.,the_blockso,,Hey carter can you make a pc for multitasking with a price point of 750$,9-3-2021,0
777,Jerry2X,__jerry16,,How do you connect a camera to a pc for stream a canon camera,9-3-2021,0
778,ooze2x,sossbo1,,If u did this if billy u in the middle of class,9-3-2021,0
779,najay ✰,najayx,,money 🤑,9-3-2021,0
780,🧟‍♂️🧟‍♂️,96keks,,What’s the best $50-$60 mic,9-3-2021,0
781,T🅾️mmy,tommy2shiestyy,,“😩🐱💦” - The girls in his class,9-3-2021,0
782,andryroo,andrew__strawbrich1,,MY TEACHER ALWAYS WANTS ME TO START THE CLASS LIKE A PODCAST,9-3-2021,0
783,Anand Merai,anand_merai,,dude pls help my comp is flashing taskbar and it's a black screen HELP,9-3-2021,0
784,ジョシュア,syphul,,"""Then make sure you have all 26 keyboards lined up and your set"" Lmao",9-3-2021,0
785,Dom,kazinari_,,what I just use a chrome book 😂,9-3-2021,0
786,Jack Barrett,jackbarrett24,,Carter where this money coming from😳😳😳,9-3-2021,0
787,use monero,use_monero,,Ancap wallpaper,9-3-2021,0
788,Isaiah A.,isaiah.a.11,,I've been quarantined six times,9-3-2021,0
789,Viciouz_Gamer,viciouz_g_customs,,@carterpcs yoo look at this noob,9-3-2021,0
790,Nigasarous Rex,whyudodat42069,,Bro if ur were in my class you would be a LEGEND,9-3-2021,0
791,3D Saul,walterwhtie,,Bru my computer barely works,9-3-2021,0
792,Hi Candoon,thatboon,,How do you pay for all of that,9-3-2021,0
793,Bennett,bh.679,,You are soooo ✨EXTRA✨ and I’m here for it 😂,9-3-2021,0
794,gonzalez,fwgonzalez,,man has a setup worth $700 for school,9-3-2021,0
795,Gerry,jerrymtz25,,Bro I’ve gotten quarantined for close contact at school 4 times,9-3-2021,0
796,planes,jnoms,,too smart,9-3-2021,0
797,tobsmiller,tobsmiller,,I’m at school,9-3-2021,0
798,Tucker Voigt,fourdoorsm0rewh0rez,,best 60% customizable keyboard $160 budget,9-3-2021,0
799,Typical,offficaltypical,,You should make a video doing that and see if you get a reaction,9-3-2021,0
800,uchiha,suwusyde,,Logitech G Pro wireless thoughts? Getting a new one for $89 lmao,9-3-2021,0
801,Daddy,925.xavier,,@nethrnoah,9-3-2021,0
802,“BRCglitch”,brcglitchyt,,What graphics card would be the best for streaming under 700$,9-3-2021,0
803,Jamie_Mcgauley,jjmcg10,,u use google meet aswell I thought that was a British thing,9-3-2021,0
804,Looking4Ely,mommypoge,,What mousepad do you have?,9-3-2021,0
805,....,arch_crav,,I just bought the razer black shark v2 x. Have I made a mistake.... I’m panicking,9-3-2021,0
806,Nate,akanate1x,,A prebuilt pc thru 1200 1500 for 240 FPS for fortnite plz and thanku,9-3-2021,0
807,Harry W.,harry_wilson7,,Where most people just have their mics and cameras off,9-3-2021,0
808,Slapped AKidForA1$,ikilledthekidsorry,,"All i got is a school chromebook and some 25$ headphones, think my set up beats yours in quality",9-3-2021,0
809,idk,uncie.kizaru,,what's the best pre built from best bu,9-3-2021,0
810,fowlbehavior🥳🤩,fowlbehavior,,mark 2???,9-3-2021,0
811,Alex,alexbevilacqua01,,is the at2020 w scarlet solo good?,9-3-2021,0
812,Tik Toker,bluewaffle9,,Meanwhile I’m over hear with a chrome book with a scratchy mic and a camera that makes me look like a potato,9-3-2021,0
813,user9062561590,connor69_high,,This quarantined is gonna suck,9-3-2021,0
814,漬物バーチャルリアリティ,pickle__gt,,I want to see the reaction 😂,9-3-2021,0
815,Aerian Wilson.,wtx_wilson,,Nope,9-3-2021,0
816,charlie_oconnor,charlie_oconnor116,,what is a good pc for 800-1000,9-3-2021,0
817,🦝𝕛𝕛𝕣𝕒𝕔𝕔𝕠𝕠𝕟🦝,jjraccoon,,you still cool tho,9-3-2021,0
818,🦝𝕛𝕛𝕣𝕒𝕔𝕔𝕠𝕠𝕟🦝,jjraccoon,,they definitely think you werd,9-3-2021,0
819,Sebastian Carrillo,sebastiancarrillo68,,U try hard,9-3-2021,0
820,🦝𝕛𝕛𝕣𝕒𝕔𝕔𝕠𝕠𝕟🦝,jjraccoon,,lol,9-3-2021,0
821,Singh,_singhisking21,,Why is your screen yellow tinted,9-3-2021,0
822,colton,coltn.brkz_,,You ain’t need to impress nobody on zooms bro 😭,9-3-2021,0
823,Snoopy,r_whitmore,,@6i281.2,9-3-2021,0
824,James,bricckgod999,,Me with a Broken camera on my 12 year old lap top,9-3-2021,0
825,abbcccdddd7,abbcccdddd7,,Do you stream or do YouTube? If not why do you have a setup like that?,9-3-2021,0
826,Rika Faherty,yelo_nazi_on_the_patzy,,So lucky man,9-3-2021,0
827,Calvin,calvindingman,,hey carter no rush but when can we expect the case swap like the 5000x??,9-3-2021,0
828,nicholas,nicholasmpatterson,,Damn we got the same Life / Death wallpaper f,9-3-2021,0
829,evan 🫵,owens_a_clown,,ok,9-3-2021,0
830,Faisal,faisalaluhakbar,,Only 17 keyboards😪,9-3-2021,0
831,IDK,idkman123.lol,,lol,9-3-2021,0
832,Cameron maltbie,cameron_maltbie,,"Real talk, other than sponsors, tiktok, and social media overall, where do you get all the money to get everything you have, or is it all social media",9-3-2021,0
833,Patrik Tomašević,meliodas.is.a.simp,,dude I have beeen quarantined 4 times becouse of school,9-3-2021,0
834,Mine,megumifushiguros_wife,,Literally me,9-3-2021,0
835,.,yy.oshi,,If I buy a nzxt pc does it come with all the cords and wires,9-3-2021,0
836,Zah 🤞🏾,loser.zah,,"No one: my comp tech teacher, we’re learning excel and I’m bad at math 😔",9-3-2021,0
837,Pablo,juicymilkiesforyou,,this dude flexes his whole setup for a zoom call,9-3-2021,0
838,miles johnson,miles________,,hd 6xx's are so good wear those everyday,9-3-2021,0
839,John Kahy,johnkahy0,,i would be exited to study,9-3-2021,0
840,Quinten De Craene,quintendecraene,,best desks,9-3-2021,0
841,Jack$un,smexy0069,,But All that won’t help me get confidence to do my homework 😂,9-3-2021,0
842,Briskk,briskksan,,How do you afford this? What’s u job?,9-3-2021,0
843,Robert,robert_maclean,,Bruh I’m older than u what💀,9-3-2021,0
844,Saucyyy,sa.u.cy,,What’s the best pc I can make with 1000 for warzone Minecraft and fortnite,9-3-2021,0
845,london scammer jr.,misterputitin,,get a mic you can set voices on and mid conversation switch to robot voice lmao,9-3-2021,0
846,Jacob Sharkey,jacobcomputers,,Oi nah we need reactions,9-3-2021,0
847,SPLoT,spl0t,,Hope u remember to frame it that the mic shows a little frim the top so they know u have exoensive mic and stand for it,9-3-2021,0
848,Luke Mcgahan jenning,lukemcgahan2,,Please tell me what the headphone stand is connected to the table,9-3-2021,0
849,MRGrindYT,mrgrindyt,,hey carter whats that mic arm ?,9-3-2021,0
850,.,j.smith1344,,How do you get a dslr camera to work on pc mine dint connect,9-3-2021,0
851,Teg 🫠,teg_m,,POV: in the uk and you don’t switch the camera or mic on,9-3-2021,0
852,Louis,much_obliged,,Haha I'm in my 4th lockdown,9-3-2021,0
853,Oliver,maccernoli,,What games do you game,9-3-2021,0
854,chief bean,chiefbeann,,Can u send me a dog for free?,9-3-2021,0
855,rind,unicornpisser,,second lockdown in austria we were in 3,9-3-2021,0
856,Big man,bobaskett_,,How rich are you,9-3-2021,0
857,nitya,nitya._05,,you should upload your setup on setup wars,9-3-2021,0
858,Honestly,voirengoku,,yo Carter my PC isn't working right I turned it off and now it turns on but just stays at a black screen I tried start up repair but that didn't work,9-3-2021,0
859,Moussa,i_sell_kids_from_my_van,,What specs does your pc have?,9-3-2021,0
860,Sam stirlixg,sam_stirlixg,,This is what my maths teacher thinks his set up is like,9-3-2021,0
861,Apollo,kingpeals,,Gah just shut up and stream already,9-3-2021,0
862,ante,ante.nc,,bro that cam quality is shit,9-3-2021,0
863,-SwagCat-,kallmepeterpan,,Pfft its only his 2nd time... you dont kniw how it feels to be in quarantine 9 times😭,9-3-2021,0
864,Vadims Cerkovs758,thenoonesimp,,broo just coming to online school more then enough. Thats so overkill (its like kicking a dead dog(😂😂,9-3-2021,0
865,⠀ ⠀ ⠀ ⠀ ⠀ ⠀ ⠀ ⠀ ⠀ ⠀ ⠀ ⠀ ⠀ ⠀ ⠀,apdorsies,,Give me ur setup for a year,9-3-2021,0
866,@itz_camo,itz_camo,,The kids in his class with just a laptop,9-3-2021,0
867,Adam,beetrootonacid80,,some time in the next 5 years Americans will get it right about covid 😂😂,9-3-2021,0
868,Walter Black,ea_86_fan,,"teacher: why do you look and sound so good
me after I hear her: eh-eh-eh-eh m-is m-y i-internet i-s
the boys in the discord call:😂😂😂",9-3-2021,0
869,bruh,happynitro,,carter tutorial on how to get quarantined i got school tmrw,9-3-2021,0
870,Estrada,sheluvs.angel76,,@estradaulises760 my guy said live stream while in class😂😂,9-3-2021,0
871,Tik Toker,marcuswahila,,All of that to just say “here”,9-3-2021,0
872,AnneFrankGaming9,annefrankgaming9,,Man I wish I was u,9-3-2021,0
873,hi.,ulove_mo,,Do you have a job😁 just wondering,9-3-2021,0
874,Velon,vel0n_,,How did you get your camera to work on calls I can’t get my T7i to work even if my life depended on it,9-3-2021,0
875,Mimss,mims.loen,,Then the teachers video be like all laggy,9-3-2021,0
876,HUH,bossman_prountzos,,Can you do a video during class,9-3-2021,0
877,Klodd,rakgradde,,@lucas.orheden,9-3-2021,0
878,tainewallace,tainewallace3,,We get it your rich,9-3-2021,0
879,Ryan Thompson,rhinofire_,,Bro I use a webcam from 2005 I honestly don’t really care,9-3-2021,0
880,Koru ⠀ ⠀ ⠀ ⠀ ⠀ ⠀ ⠀ ⠀ ⠀ ⠀ ⠀ ⠀ ⠀,koruzzx,,I use phone,9-3-2021,0
881,Francesco,anthosoldier,,2nd? It's the 4th time for me,9-3-2021,0
882,Bryan Tapia,bryantapia54,,yo get me up to the top lets see if he will get me a free pc just for fun😂,9-3-2021,0
883,STFU.its.daddy.M3T0,stfu.its.daddy.m3t0,,u using google meet too ?,9-3-2021,0
884,grub,master_grub,,do you stream if not why do you have so much things for the setup?,9-3-2021,0
885,user836552819436152,user836552819436152,,Always gotta give the class a keyboard cam when you’re playing games in online school,9-3-2021,0
886,duckads,sshawnj,,who made that wallpaper,9-3-2021,0
887,Mpo,dxenakis09,,dude in Greece we in in the third one,9-3-2021,0
888,Txg Machine,txgmachine,,do you have a amp for thr 6xx,9-3-2021,0
889,_. j1active,_.j1active,,do you work on google classroom,9-3-2021,0
890,ethan,ethxn.greene,,Bro just stop like what’s next your going to take over the universe,9-3-2021,0
891,dthefr,dthefr,,"Ayy bro what do u mean ""your podcast this is a communist society so its our podcast",9-3-2021,0
892,fwthunket,fwthunket,,How you get all this stuff and the money to afford this? I’m like genuinely curious 😂,9-3-2021,0
893,Another bloke on the internet,cyclops376,,Your setup is one of the most tidy and cable managed on tik tok,9-3-2021,0
894,Alex Ironta,aironta200,,I was wondering why he's showing of till I saw the caption,9-3-2021,0
895,🥵,__mohanad.ali___,,@youssef._.mohamed.08 he has same wallpaper as me,9-3-2021,0
896,60gb_hw_folder,andeth_thy_brothern,,y'all ain't been lockdown for a year,9-3-2021,0
897,Jackson S,l.h.n.y.b,,Bro do you know what color grass is,9-3-2021,0
898,.,mxt0e,,Best gpu to pair with a 2600 that isn’t a 1650 or 1660,9-3-2021,0
899,Kairyn,kairyn_young,,Cnadan you use a voice changer,9-3-2021,0
900,maorfr,maorfr,,Lolololol imagine not having white monitors,9-3-2021,0
901,Hi,im_not_meaningful,,Only 26 keyboard?? I thought you had a lot of them.,9-3-2021,0
902,FelXxa,felxxa,,i would still say mi camera doesn't work if they call me😳,9-3-2021,0
903,Jack,jackwebb1231,,@stxrm_cylo 😂😂,9-3-2021,0
904,Juan Jose Ulloa,juanjoseulloa,,Nah after this you can’t say that you camera is broken in a test,9-3-2021,0
905,Nick,nick_u_03,,@niyo69,9-3-2021,0
906,:),henderblan,,"okay i have an issue with my pc, carter doesn’t have to answer this, just anyone that has knowledge in this area. my pc was freezing up, and i decided",9-3-2021,0
907,Antisocialchase,chaseloveshockey,,Me with a chrome book,9-3-2021,0
908,Yolo_trimba,itz_trimba,,So this is a flex,9-3-2021,0
909,Zeuxs,ns_zeuxs,,when he first started he sounded like he was giving us a warzone loudout,9-3-2021,0
910,will,.she.luvs.will,,how tall are u dammmmnn,9-3-2021,0
911,HatOneGuy,_.that1guy._,,26,9-3-2021,0
912,andrew,andrew.s50,,dude I just did yo,9-3-2021,0
913,🇪🇬,onlyahly,,I attend on my phone 😅,9-3-2021,0
914,RebelX21,rebelx21_,,Daddy’s money,9-3-2021,0
915,Tristan,_tristanhannie,,my countries in its 3rd lock down😳,9-3-2021,0
916,Ty Bosselman,tybosselman,,I doubt your teachers monitor can handle your cameras fps,9-3-2021,0
917,nuniz#3451 let's be friends ;),__someone__random__,,ur school setup is better then my gaming setup 😳,9-3-2021,0
918,VintageChanelSunglasses,vintagechanelsunglasses,,Amazing headphones for listening to your teacher earra🅱️ing you every time they join,9-3-2021,0
919,Amran Hussein🇵🇸,amranhussein21,,I swear @carterpcs my teacher said to me are you in a studio,9-3-2021,0
920,"'/<>×,÷*÷>",idkadb,,that camera is soooo over most teachers only have a 720p or 480p laptop or monitor,9-3-2021,0
921,Dylan,dylan_10101,,So you do go to school,9-3-2021,0
922,/s,tay.stephens,,"Nah bro buy stax, you’ll look GOOFY",9-3-2021,0
923,James Wright,69jameswright69,,I use a cannon as my webcam steel series headset and fully mechanical keyboard when I have to type with my mic on 😳,9-3-2021,0
924,.,bamdad__,,Ur so white,9-3-2021,0
925,Ellis,vhxbroken,,Carter your aio,9-3-2021,0
926,Juni.,average_juni,,My teacher says I look like a Radio Dude,9-3-2021,0
927,Javi,elgranchorizo12,,What gpu do you have,9-3-2021,0
928,_lennox.13,_lennox.13,,What us your background and ist is from Wallpaper Engine,9-3-2021,0
929,༼ つ ◕◡◕ ༽つ( ͠° ͟ʖ ͡°),userloser0101,,"Imagine 6,000$ camera",9-3-2021,0
930,Gavin nance,gnance1736,,Me who plays on a ps4 in closet and a lawn chair 🥲,9-3-2021,0
931,Rin,_mugetsu._,,your teacher gonna catch you sleeping in 4k,9-3-2021,0
932,nef,nef________,,Nice Aio,9-3-2021,0
933,Hayden Bowen,hayden_bowen,,Wait schools in gr are getting quarantined?,9-3-2021,0
934,dylan,dylancantthinkofname,,When google meet only supports 720p 😭,9-3-2021,0
935,Crispy,crispy067,,Your quality doesn’t even look that good you just spent a shit ton of money for no reason,9-3-2021,0
936,Jamie Quayle,jamiequayle,,this account has just turned into him flexing his stuff,9-3-2021,0
937,erin louise 💟,_erinlouisexo_,,Also me: i can’t unmute my mic doesn’t work,9-3-2021,0
938,MancuShrek,mancushrek,,Flex?,9-3-2021,0
939,🦍,not_comedy_gold,,😐,9-3-2021,0
940,YT_ICY_Cyber,yt_icy_cyber,,What’s a good monitor I can get for under $200?,9-3-2021,0
941,jack,jack_heywood15,,hey carter how do you afford this,9-3-2021,0
942,Its Ya Boi p,a_long_banana,,just got flexxed on in 10 different languages feeling good👌,9-3-2021,0
943,Spencer Castle,spencer.the.tiktok.god,,I have the M50 and it took me like two weeks to figure out how to set it up as a webcam 😅,9-3-2021,0
944,devin,dwyerrr_,,nobody: literally nobody: kids asking for a keyboard,9-3-2021,0
945,Strictest,strictestmc,,Surely record a school session,9-3-2021,0
946,Wapiti,itswapiti,,bro my techar has a cam in 4k 😳,9-3-2021,0
947,Tompirt,pirt.tom0,,@ngugimuchokifurahar what is the point,9-3-2021,0
948,Jonno,ewan.001,,O,9-3-2021,0
949,𝑃𝑙𝑎𝑦𝑏𝑜𝑦لا,www.layze5.com,,Quick question should I build a pc or buy a prebuilt ion know what to do,9-3-2021,0
950,Steffan,steffh1,,"Carter: my camera doesn't work sorry
teacher: shut up Carter I know you have 11 more",9-3-2021,0
951,🌼Lucy🌼,.dandilion._,,Me trying my best to have bad audio and video on my zoom lessons 😅,9-3-2021,0
952,Noah,noahnow6,,Damn they’ll really catch your ass in 4K if u get caught cheating 😂😂,9-3-2021,0
953,Joe Shmoe,daddy.shmoe,,when he was talking about the camera I thought he was talking about a gun😅,9-3-2021,0
954,Γιώργος,_diamadopoulos_,,We get it you are rich am poor😭😭😭,9-3-2021,0
955,BeTcHnEeDsNaMe,betchneedsname,,Only at carterpcs,9-3-2021,0
956,Gal Tzeelon,hplatz,,"you have a really good audio setup but you know the scarlett isnt the best
idk if it doesnt limit you in any way now then its fine",9-3-2021,0
957,caio,rippath0,,my school says we don’t need cameras on however I like it on to show of my 38 keyboards in the back😏,9-3-2021,0
958,AUSPenatr8,auspenatr8,,sigma balls,9-3-2021,0
959,⠀ ⠀ ⠀ ⠀ ⠀ ⠀,pieter__post,,"im studying film so basically everyone has a good mic lol, not camera bcs were too lazy to hook it up to our pc",9-3-2021,0
960,.,vzeloo,,Reply ? 🥺,9-3-2021,0
961,.,vzeloo,,HAHAHAAHAHAHA,9-3-2021,0
962,Sears™,www.sears.com,,the HDTV 6xx's are amazing I got them a while ago,9-3-2021,0
963,Jimbob,fred_the_goat_17_fc,,You is funny,9-3-2021,0
964,Maks,maksoginsk_,,WOW,9-3-2021,0
965,a,.dissko,,Dweeb,9-3-2021,0
966,chromeslug,user766538900,,obama?,9-3-2021,0
967,tomas,blzo,,haha my health teacher thought i would have a talk show but i only have a c920 and a blue yeti haha,9-3-2021,0
968,Curty,skrtie,,He is that one kid,9-3-2021,0
969,exc1td,anaverageoutsider,,Lmao Pokiman before the fame 👀 if you know you know 😂,9-3-2021,0
970,Yh,o.jlh,,and then zooms compression the difference completely negligible,9-3-2021,0
971,zayy ツ,zz4yyy,,hey carter how did you have enough money to start this all ?,9-3-2021,0
972,alex5delgado,alexisveryswaggy0,,@totallynot.gaby,9-3-2021,0
973,L1FE_L1NE,l1fe_l1ne1,,You obviously need a goxlr,9-3-2021,0
974,Doesy,bebopreee,,Rich kids these days I use the camera from the chrome book and the audio,9-3-2021,0
975,!,hashtag.reelist,,what’s a good pre built pc,9-3-2021,0
976,🐧,businesssgoose,,doink it wronk,9-3-2021,0
977,🐸,pepedafrawg,,What do ur parents think abt ur setups,9-3-2021,0
978,WILLLAAAAYYYY,cur1ywurlyyy,,@antibacktirialspray ofc he does this😂😂,9-3-2021,0
979,JOEY MARTIN,joeymartin29,,What are some good keyboards that are high quality but not to expensive,9-3-2021,0
980,Filip Waper,filipwaper0,,this is man really said to his dad that his setup cant handle zoom meetings,9-3-2021,0
981,user,user173haqeh739jzj0,,Show it to us in action,9-3-2021,0
982,c,user2dk3mt9jey,,I just use my phone,9-3-2021,0
983,user592253916982,henryfhulme3,,I have been in quarantine 4 times,9-3-2021,0
984,ツlynx,lynx.suraimu,,Just how much do you need to flex,9-3-2021,0
985,TTV NotPro4525,ttv.notpro4525,,I've been quarantined 5 times bro,9-3-2021,0
986,tie,crustyjeans,,best mic arm?,9-3-2021,0
987,Brady Smith,bradylikesween,,i just realized carter is only a year older than me and more successful than i’ll ever be already,9-3-2021,0
988,Zen Fortuin,zenfortuin7,,When are you going to get sent a 360hz monitor just for fun 😁??,9-3-2021,0
989,user2064079429214,israelnava97,,@cristianlm2006 I’m don,9-3-2021,0
990,nina,yehemfs,,I thought you were like 22 😭,9-3-2021,0
991,I speak facts,speakingfacts3rd,,can u build a 800 pc on the internet as good as u can I’m trying to build one,9-3-2021,0
992,Varin,trini_var,,People who use a chrome book for online class 😂😂😂,9-3-2021,0
993,honey brain,superjacoe3,,how much was your set up,9-3-2021,0
994,theyluv.ang3l,theyluv.ang3ll,,Day 1 for asking for a pc,9-3-2021,0
995,AarenL,aarenl,,I'm sorry HOW MANY KEYBOARDS??? sounds like you're living the dream,9-3-2021,0
996,user9663541411088,beaton.duncan,,What wireless mouse/mice do you recommend,9-3-2021,0
997,Wazzep,bigshaqverified,,I hope it just straight up doesn’t work,9-3-2021,0
998,Elijah Nash,3lijahnash,,wow...I wish I had a monitor and pc🥺🥺🥺must be nice,9-3-2021,0
999,😈,_griffin79_,,If not to brag was a person :,9-3-2021,0
1000,Yegyeom Seo,jablinski_shabaraki,,Ok I gotta ask... WHAT IS IN THAT HAT,9-3-2021,0
1001,im mexican lol,bravedg,,That one girl pulling up into class with the 4k had audio and camera 😳,9-3-2021,0
1002,Freddy📍,kaeden.ferguson,,Do u even game,9-3-2021,0
1003,S,liovetits,,what’s the headphones called 👀,9-3-2021,0
1004,TBC,tbcmc,,All this for google meets to make u sound and look like ur using a tin can,9-3-2021,0
1005,the,grant_loves_baseball11,,Excuse me You don’t have 2 or more monitors 😳,9-3-2021,0
1006,.,savewantsyou,,Are you the middle. Character from all the bright places😂😂,9-3-2021,0
1007,The Kaden Waters,gtxkaden,,@kadethegoat2,9-3-2021,0
1008,😀,d_mcneil,,People with school laptops 🥲,9-3-2021,0
1009,خليجي,the_padel_guy,,how old r u?,9-3-2021,0
1010,Ian,itastard,,The kid in his zoom on a school laptop with WiFi that can hardly support zoom 😐,9-3-2021,0
1011,Tik Toker,bigcumsackk,,Best keyboard for: $30,9-3-2021,0
1012,tf kinda name is macklin,mackjordan23,,weird flex,9-3-2021,0
1013,Mubeezie,mubeezie,,DAMN THAT MIC CRISP,9-3-2021,0
1014,logs,logan.cobham,,Pt2,9-3-2021,0
1015,Kyleitchyman,kyleitchyman,,How do u get the money to buy all of this? Rich parents?,9-3-2021,0
1016,Ruben_A,ruben_a12,,That’s right you need to go above and over👍🏼,9-3-2021,0
1017,Brandon I guess?,brandon_i__guess,,The camera looks bad for some reason? Try using light?,9-3-2021,0
