,Comment Number (ID),Nickname,User @,Comment Text,Time,Likes
1,leo15178,leo15178,,bro the bullet hit a wall and bounced on to the headphones also just bend back the bent part and it will be fine pluse anny other headset would be des,3-5-2022,42
2,user.58,user.584200,,please me I broke mines a year ago and it has ducktape on it,6-5-2022,6
3,🐐,.itskane,,I don’t need headphones 😏,1-5-2022,7
4,〖WEEM║乇 〗,m_adara1,,Iwant one i dont have any headphone :),19-6-2022,1
5,:),nvylol27,,Me pls I really need one mine is broken🙏🙏,13-5-2022,1
6,Naser Khalid Al Hash,tigern9pro,,I never win but worth a shot,29-5-2022,1
7,liam_halbershtat,liam_halbershtat,,love the wheels man,3-5-2022,7
8,Keir,itzkeir,,Hey how are you?,12-5-2022,1
9,Kass,240kass,,I’m using a 15 dollar turtle beach I’ve had for 3 years lmao,8-5-2022,1
10,Hayden Waters,haydenwaters08,,I don’t even have a pair of headphones,4-5-2022,12
11,Caleb Oyegoke,monkeyfluffy,,Gots to get the bag,9-5-2022,1
12,mc︎,kwrm1t,,this,vor 12 Std.,1
13,Quandale Dingle,patrlckthestarflsh,,lol,2-5-2022,5
14,Musa,not.mxsa,,Hey,22-5-2022,1
15,visual1384,visual1384,,alpha,9-5-2022,1
16,James,jamesgetsguap,,I like getting stuff,8-5-2022,1
17,RedTigerYT,redtigermc,,Ok,15-6-2022,1
18,Maybejeremy,jeremybyrne12,,I like headphones,9-5-2022,1
19,Kenny200IQ,usmellugly,,100% it still works,9-5-2022,1
20,Kai,stealyoballsguy,,give me the hyperx headphones I own the same razer headset it was a hand me down from my friend (its been destroyed by his baby sister),27-5-2022,1
21,dreaming,dreamingexe,,hi,vor 2 Std.,0
22,Yerrt09,yerrt09,,I need pair of headphones for my friend I can hear him play because he doesn’t have a headphone,vor 2 Std.,0
23,M ⚡️,moxlwi,,Qq,vor 11 Std.,0
24,z,draw.with.my.dresses,,I need them,vor 20 Std.,0
25,user6033948193722,user16281635158,,My razer headphones stopped working after one week so I can not believe they saved someone’s life,vor 22 Std.,0
26,abdul majid2369,cooldude66666666,,give me,vor 23 Std.,0
27,karas,wordless_mercy,,I need it,vor 1 T.,0
28,aegirchang,aegirchang,,Me,vor 1 T.,0
29,who you?,assassinmaster_8,,comment 👍,vor 1 T.,0
30,ابغاا اخرج من ٣٠٠ متااابع,mf3c,,banana,vor 2 T.,0
31,Ninja,ginga_yt,,hi,vor 1 T.,0
32,Takuye,moshfiq34,,big fan,vor 2 T.,0
33,gnx.,gnx._0,,I use lapto headphones,vor 2 T.,0
34,user7812185029506,mina_z69,,imagine I get em,vor 2 T.,0
35,Saim Ajazi,MS4wLjABAAAAK4FKlW0r4jcOBzZ00wEK_rop8UIVpQlXkw4Uoy4hjkk7Wg9sRsaeWN7edPTx3ZyH,,Yo I'm using a 5 below headset,vor 2 T.,0
36,Rayyan zubaidi,__rayyan09,,Yo,vor 2 T.,0
37,dick man,penis_weenis,,image using headphones,vor 3 T.,0
38,.,v8_v9,,بوييي,vor 3 T.,0
39,ميكي موسا😳,2.k_1,,I don't have a headphone 🥲,vor 3 T.,0
40,naatuuraal,naatuuraal,,Using some turtle beaches from 2016 💀,vor 3 T.,0
41,Annonyms,annyoms2,,Me...?😁,vor 1 T.,0
42,ITz_Fahad FN,itzfahadfn,,Me pls I’m using a 10 dollar old headphone from 5 years it’s broken,vor 3 T.,0
43,Omar Abdelqader,omarabdelqader7,,me plz,vor 3 T.,0
44,eevan_09,eevan_09,,I need the headphones I can't afford to get my own please🥺,vor 3 T.,0
45,Muhaimin,muhaiminn69,,dam,vor 3 T.,0
46,scraft162,scraft162,,oki,vor 3 T.,0
47,Karam 1273,karam_.1273,,Huh,vor 3 T.,0
48,FeTeX,r.fetex,,Hmm,vor 3 T.,0
49,Ninja,ginga_yt,,I have those,vor 1 T.,0
50,daniyalmashhadi66,dinosaur.inc8,,I’ve bee your follower for almost a year gimme that headphones,vor 3 T.,0
51,Dire,._dire_,,Huu hi,vor 3 T.,0
52,hilal_20111,hilal_20111,,Hi,vor 1 T.,0
53,MJ,al_jifre,,Hi,vor 3 T.,0
54,LegendAhm3d,xhmed.i,,meee pls,vor 3 T.,0
55,ba.ay,ba.ay,,Kk,vor 4 T.,0
56,Rosen,itzmothz,,Headphones would be great,vor 4 T.,0
57,Madah,madah.00,,I hope,vor 5 T.,0
58,Georgino El Helou,mortalboy_,,pls me🙏💓,vor 5 T.,0
59,Barrett_,no1here_1,,hi,vor 5 T.,0
60,user8288519505671,sebti103,,Me🥺,vor 2 T.,0
61,Abdul Rehman 🔥,abdul.rehmany,,let's try,vor 6 T.,0
62,8qlx,8.lqx,,hed fon,vor 6 T.,0
63,Hyper_astro,hyper_astro,,Me pls,vor 6 T.,0
64,idk,reap3_r0,,hey I'm getting a setup really soon and I need a pair of headphones!,vor 6 T.,0
65,thebestmanoinZAWARADU,thebestmaninzawaradu,,Wish I could have them,vor 6 T.,0
66,Omar Elbaradie,ratattata88,,yo,vor 6 T.,0
67,M7MD200513,m7md2513,,siiiiiiiiii,vor 6 T.,0
68,..,huwawuie,,Dudu,vor 6 T.,0
69,Faadi.af,faadi.af,,Can i get one?,vor 6 T.,0
70,.,k.c0r,,🥰 I really want the headphones because currently i don’t have a pare and my tv doesn’t have sound and now i can’t game with my fri,vor 1 W.,0
71,viper viper,viperviper20,,It wouldn’t even stop a bb,vor 1 W.,0
72,عمك,7asan_ba9alasuper,,hopefully me 🥰,vor 1 W.,0
73,k_7f4,k_7f4,,Me,vor 1 W.,0
74,RandomMan_17,randomman_17,,ball,vor 1 W.,0
75,-,4.upi,,Hey,20-6-2022,0
76,ANDREWW heree😎🤪,andrewwtheorange,,Ye,20-6-2022,0
77,squidward460,squidward460,,hi,20-6-2022,0
78,إلياس,emk322,,ok,20-6-2022,0
79,Jes,jes_0691,,Me,19-6-2022,0
80,GHOST,ghost6291,,what car do you drive,19-6-2022,0
81,jeppefriis3d,jeppefriis3d,,hi,vor 1 T.,0
82,Tomer,rachelbe468,,me,19-6-2022,0
83,omega6926,omega6926,,damn,19-6-2022,0
84,Joe69,joe69mama64,,Every x box players’s headset,19-6-2022,0
85,𝐼𝑚_.𝑀𝑥𝑛𝑥𝑥𝑏_,im_.mxnxxb_,,Hey carter I don’t have headphones at all 😌,19-6-2022,0
86,GodBlessed guy,glka002,,hi.,19-6-2022,0
87,Reid,reidforster985,,I have 15 dollars too spend on headphones any advice,19-6-2022,0
88,Ibrahim Mohanad,ibrahimmohanad,,My head beans are withering away,19-6-2022,0
89,LuanAvk,luanafk216,,me?,18-6-2022,0
90,Saad Khan,saad_aslam,,lol,18-6-2022,0
91,z.ayyoub_dxb,z.ayyoub_dxb,,Bro exposed them 💀,18-6-2022,0
92,Cheese Burger,cheeseburger70,,سييي,18-6-2022,0
93,CoZmIc,cozmic138,,Wow😳,17-6-2022,0
94,Spark_c4,spark_c421,,That’s cool thanks for the vid,17-6-2022,0
95,user7270079789266,ilililili08,,Kk,17-6-2022,0
96,المهيري🤍,_kms9,,حبيب والله,17-6-2022,0
97,Ali Rawashdeh445,alirawashddeh211,,love your vids,17-6-2022,0
98,Ara,ara..69,,my headphones just broke im using my old one,17-6-2022,0
99,Mutaazzz,m3taz.89,,Bismillah me,17-6-2022,0
100,Reeeeeee man,goat_vfx,,LMFAO,17-6-2022,0
101,Reaper,ibraa514,,Siuuuuu,17-6-2022,0
102,theerfdom,theerfdom,,I know my luck,17-6-2022,0
103,Zaid Khawaj,conutik,,My krakens snapped when I accidentally bent it while removing it,16-6-2022,0
104,D E X I F Y,dexify.aep,,Damn,16-6-2022,0
105,Destroyer,mzastro,,ok where is it,16-6-2022,0
106,.,alcides._,,Hi,16-6-2022,0
107,Jason Farah,_jason_farah_,,hey,16-6-2022,0
108,Nicho,joebidensnewaccount,,I do need a new pair of headphones,16-6-2022,0
109,Mo7amed,player_o0o01,,I don’t have headphones 🥺,16-6-2022,0
110,user9591497584886,..qxr9,,Hi,16-6-2022,0
111,CEO of bröd 🍞,raminizo,,I win or i take your pc 😈😈😈,16-6-2022,0
112,SmartCar69,smartcar69,,i am using 10$ headphones from jvc,16-6-2022,0
113,Jacob,jxckeboy,,“Razor commenting”,16-6-2022,0
114,Unokers,unokers,,I uuse my phone for mic lol,16-6-2022,0
115,Unokers,unokers,,Me,16-6-2022,0
116,Nightkingdeluxe,adam_svard,,Do you guys use headphones?🎧,16-6-2022,0
117,Itay Haimov,itayhaimov0,,please me i have been using 20 dolars ear phones,16-6-2022,0
118,muuyaki__,muuyaki__,,Yo,16-6-2022,0
119,Isaac Duives :3,schietgeweer,,Lol,16-6-2022,0
120,B7,user2327199301094,,Hi,vor 2 T.,0
121,50k🥀😩,theunkxwn1,,Me?,16-6-2022,0
122,forge_YT,forge_yt,,Sup I would like to enter for the giveaway and also good luck to all who join,16-6-2022,0
123,Idksadface,idkoksadface,,Siiiii,16-6-2022,0
124,MBF,q55ma,,Pls man,15-6-2022,0
125,mhamad3aliklay,mhamad3aliklay,,pwease,15-6-2022,0
126,mr supra,mr_supra45,,Hi,15-6-2022,0
127,abdo_7anaka69420,abdo_7anaka69420,,Interesting,15-6-2022,0
128,giga cat,dragon_man_sub,,me,15-6-2022,0
129,b_khalid,lynxquotes,,yo,15-6-2022,0
130,Yosef,yosef._.dd,,Me please?,15-6-2022,0
131,user4921235321539,jonathancultured,,yo can i get one?,15-6-2022,0
132,OUSAMA,lb._.4,,good,14-6-2022,0
133,Foxy,foxy_pngtuber,,"Me, I don’t have a headset",14-6-2022,0
134,Sup bitch 🤪😍😍😝😜,frid654,,Me pls,14-6-2022,0
135,De gea.exe,degea.exe,,Hi,14-6-2022,0
136,Tik Toker,carslover169,,Plssss me,14-6-2022,0
137,user291030124008,pelehod,,hi,14-6-2022,0
138,9.11pilot,9.11pilot,,me,14-6-2022,0
139,gayloverXXX,guy_turgeman4,,i can feel that headphones pain,13-6-2022,0
140,Mansour..ab,ma.alb_0,,Me,13-6-2022,0
141,westhamshoes,westhamshoes,,Plz i dont even have a mic,12-6-2022,0
142,Lucius Lam,luciuslam,,you shouldn't break them,12-6-2022,0
143,Rakan,ra_an11,,Me me me,12-6-2022,0
144,Am..mini,am..life,,me,12-6-2022,0
145,🗿,amongsus11011,,Hola,11-6-2022,0
146,xbox._.gang,xbox._.gang01,,me pls,11-6-2022,0
147,Steph_tz,tziiortzis,,I don’t think we have to be there for you to do it for the first week or two or Friday and we will have a plan to be in a hotel room or we will be,10-6-2022,0
148,Nationz,ar_9226,,Damn,10-6-2022,0
149,Augie___knobloch479,augie___knobloch479,,I don’t need the new pair of headphones but I know a friend that really does,10-6-2022,0
150,...,pinkop7,,How would even some headphones be that strong,9-6-2022,0
151,E,robloxgamplayes,,Me pls mine are broken,9-6-2022,0
152,H1 Pablo,tiktok_xio_,,Really need open but 120k comments 😬,9-6-2022,0
153,AvivTech,avivtech0,,hehe me,8-6-2022,0
154,ڤيمتو,.1q86,,I need the hyperx headset,8-6-2022,0
155,🎙️⛔,micpro13lem,,yo,8-6-2022,0
156,n_x83,n_x83s,,Hi,8-6-2022,0
157,Abd,abd.wrld,,Lol,8-6-2022,0
158,sad_boi,last_graffiti,,😏,8-6-2022,0
159,Brino Soa,smth.intersting,,Oh ok,8-6-2022,0
160,real,chasewong_,,when,8-6-2022,0
161,Zohar Aviv,zoharaviv,,היי,6-6-2022,0
162,Dennis,drrnnis_777,,Wwww,6-6-2022,0
163,Dennis,drrnnis_777,,Sis uwu Jesus,6-6-2022,0
164,Dennis,drrnnis_777,,Was,6-6-2022,0
165,TantuniBoii,tantuniboii,,Can i get it i am studying my collage quiz and normal time job my only fun is game and i am learning coding i nead that if you gave me i become happy,6-6-2022,0
166,christnasr309,christnasr309,,Can I get 1,6-6-2022,0
167,olithefairy,olithefairy,,Bro I really need a new headset one of the ear muffs have fallen off and there is only audio in one year and the mic doesn’t work please bro I need it,6-6-2022,0
168,MahdTheeGreat,mahdtheegreat,,can I get one my current one is so broken I can only hear from 1 side,5-6-2022,0
169,Minecraft Msm,yueets,,me,4-6-2022,0
170,Syed Akram11,syedakram006,,hi,vor 3 T.,0
171,ZEN,zen_yes,,Yo can I get dA headphones?? I'll go pro in Minecraft if I give me dat,4-6-2022,0
172,Ryan,ry4nh4qeef,,i wan the headphone,4-6-2022,0
173,•-•,vikio_o,,breaking headphones asmr,3-6-2022,0
174,Nali,nali.191,,ello,3-6-2022,0
175,Namesakegamerr,namesakegamerr,,yo me,3-6-2022,0
176,⚽️⚽️⚽️Aserywr_cfc⚽️⚽️⚽️,aserywr_cfc,,Me,3-6-2022,0
177,Shaked,shaked696,,Me,3-6-2022,0
178,Colby Ugland,minionpc22,,I love headphones,3-6-2022,0
179,baseljaghoub,baseljaghoub5,,"why, give it away after destroying it it's worth parts",2-6-2022,0
180,•,y3wt,,M e D:,2-6-2022,0
181,Leveled,leveledspaced,,I’m late aren’t i,2-6-2022,0
182,XGningnong,xgningnong,,That would be nice,1-6-2022,0
183,LolFoxy,lolfoxy01,,nice headphones,31-5-2022,0
184,7moodiR,a7med_a71,,worth a shot 😂,30-5-2022,0
185,Adamtheperson,adam_theperson,,I need headphones lol,30-5-2022,0
186,𝐸𝑚𝑎𝑎𝑟 🥀,emaarpubg,,Me,29-5-2022,0
187,kerky,kerkywastaken,,imagine i finally get headphones,29-5-2022,0
188,twisters2050,twist2050,,me 🙂,29-5-2022,0
189,︎︎,dannish_the_drifter,,cool,29-5-2022,0
190,krigig,ghostkrigig,,Yeh,29-5-2022,0
191,Yessir,yessir3633,,Hi,29-5-2022,0
192,peleg,pelegarg,,how?,29-5-2022,0
193,⭐IRL_CRUDDYBLADE⭐,cruddyedits,,they looks awesome,28-5-2022,0
194,HASlbn_,haslbn_,,Gimme,28-5-2022,0
195,Kaya kurutepe,kayakurutepe,,My headphones are not working since i was able hear stuff,28-5-2022,0
196,Ibuki,ibuki876,,Plz pick me,28-5-2022,0
197,Bozokikiler,bozokikiler,,Yo I need those headphones lol,28-5-2022,0
198,Eduan.d,eduan.d,,bro what even are headphones??,27-5-2022,0
199,Allison,allisonwwood,,could i get one plssss,27-5-2022,0
200,huihhhh,afiqnkm4joker,,I mean if it survived a car run over it should be durable enough 🗿,27-5-2022,0
201,r4iy4n._,r4iy4n._,,that not the same one😂,27-5-2022,0
202,Joel shibu,lemony53,,lol,27-5-2022,0
203,Syke,kenzio235,,pick,27-5-2022,0
204,Lewis Hiranandani,lew115n,,ayo I would put a power point on why I should get them but I cant on tiktok,26-5-2022,0
205,idill,idealfelix,,okeh,26-5-2022,0
206,Kreshan Shrestha402,kreshanshrestha,,Hi,26-5-2022,0
207,Cameron,official_cameron0,,Its beans and burgers,26-5-2022,0
208,Kozy,kozyyyyyyyy,,Me zaddy please,26-5-2022,0
209,Angelo Rosciano,dr.sycox,,Will i get selected for the win plz?,26-5-2022,0
210,bhwiwgsg,gsisbsts,,me,25-5-2022,0
211,Slyy,imslyy,,"Yeaa, not even close",25-5-2022,0
212,Adam,adamchunw,,Ror,25-5-2022,0
213,Abdi🫠,blagicy,,Ok,24-5-2022,0
214,nonamo the 1st,lxoflex,,"pls 😅 I use earbuds
my mom's 😂",24-5-2022,0
215,bottle cap,__bottlecap_,,im trying to higher my chance of winnig probably unsecssesfuly,24-5-2022,0
216,bottle cap,__bottlecap_,,i want,24-5-2022,0
217,Omar,omrz07,,Me pls dad,24-5-2022,0
218,Dndndc Dndndnd,user630177587,,lolz,23-5-2022,0
219,valorant_avangers,valorant_avangers,,Hi,23-5-2022,0
220,רועי לוי,larry_the_goat_69,,mememe plZzz I don't have a good headphone I have a15 dollar one lol,23-5-2022,0
221,ソヨン,seo..yung,,lol,23-5-2022,0
222,ayo the pizzas here,drug_.dealer420,,pick me pwes uwu,22-5-2022,0
223,Digo,digo1109,,I don’t have the money to buy am good headphones so I really hope I have the opportunity to win this. Love you content and you always makes me happy,22-5-2022,0
224,zenkifypcs,zenkifypcs,,ok,22-5-2022,0
225,Caca Caca,cacacacapro,,Hehe boy,22-5-2022,0
226,Lol,animepeak2,,I’ve pls,22-5-2022,0
227,נאור,llpodcasterll,,please?,21-5-2022,0
228,⭐️Ori_Glazer⭐️,ori._glazer,,Me,21-5-2022,0
229,FIFA lad,fifa_lad11,,Headset,21-5-2022,0
230,xebec,xebec069,,hi,vor 3 T.,0
231,Chris Antoniou,chrisantoniou6,,Bro that guy had kraken ultimate not the regular ones,21-5-2022,0
232,ProBeast Playz,probeastplayz,,hi I like your content keep up the great work I'll know I'll not win,20-5-2022,0
233,skycuz,skycuz,,i really would like em.......,20-5-2022,0
234,Yshxbxjd,yduxyshduf,,No way i won,20-5-2022,0
235,CptnDonut,cptnd0nut,,i need it@,20-5-2022,0
236,Song.exe,song.exe1,,Me pick mr,20-5-2022,0
237,tudanphamduc,tudanphamduc,,hello 🥰🥰,20-5-2022,0
238,DD,didi_8149,,damn I want one😆,20-5-2022,0
239,Ken,MS4wLjABAAAATFgKcE9ep_d56mxfC6XohGPr09cPHPwJvoJbfTBHiGbMGBMKaVTgXzwgqWB8DY8L,,Damn,19-5-2022,0
240,Kaplan Kaan,b0yutbutreal,,pwease me jk,18-5-2022,0
241,AMPlaying,amplaying2,,this is a comment,18-5-2022,0
242,Lee,k1ngsl4yer,,"I don't even want them to game with, I want my dog to listen to Olivia Rodrigo",18-5-2022,0
243,proGabi22,progabi22,,You can own a black powder gun,16-5-2022,0
244,kakkis gaming,kakkisgaming,,halo,16-5-2022,0
245,ioioio__,ioioio__mc,,am i late for the headphones?,16-5-2022,0
246,Lian Yefet,lian_yefet,,hi,15-5-2022,0
247,Quandel Dingle,triggerhappies,,ooh I need them headphones,14-5-2022,0
248,Person,abstract_eclips,,Hi,14-5-2022,0
249,Yousef Abdaljaleel,yousefviiip69,,Man I own one and it is NOT durable😂😂,14-5-2022,0
250,Mj,itsmjig,,yes,14-5-2022,0
251,حبيبكم🖤🌚,ithv,,I need headphones,14-5-2022,0
252,Farhan Muneer,fxaru1,,Man like I never have a gaming stuff in my life lol,13-5-2022,0
253,Habibullah,habibullah2245,,"i need em
pls",13-5-2022,0
254,idk,heheheh_siuuuu,,hi,13-5-2022,0
255,IGC pocket,igc_pocket,,whats your bg? please,13-5-2022,0
256,g.jetjee,g.jetjee,,I would love a new pair of head phones 😊,12-5-2022,0
257,The Ref,redmantank233,,Damn,12-5-2022,0
258,Maria,headset8887,,😄😄,12-5-2022,0
259,Alt_acc_L S,yjw_i,,Man🥺😅😳🥰😳,11-5-2022,0
260,uvays,anlegend_tee,,ok,10-5-2022,0
261,Derick Glen,derick.rodz,,Well I need one,10-5-2022,0
262,MAD_DRIFT,mad_drifter911,,i wish i win ineed one,10-5-2022,0
263,Riverd,riverd420,,Hello I want headphones,10-5-2022,0
264,jellyqup,jellyqup,,hyper x cloud 🚬👌,10-5-2022,0
265,andipahh,andipahh,,Yes just yes,10-5-2022,0
266,NenBjarne,zekernietbjarne,,I need,10-5-2022,0
267,H,hhhha.1021,,ok,9-5-2022,0
268,Maurice Delgado636,theyhate._.maurice,,I don’t even have non,9-5-2022,0
269,Milk,wezie_is_visual,,@,9-5-2022,0
270,they call me dark chocolate,lil.ali8w9,,i hop i win 😅😅,9-5-2022,0
271,🌷,1ne0ut,,"My headphones are just, dead",9-5-2022,0
272,JustAnotherJon,yikesanotherjon,,I need better headphones can’t hear the footy steps of my enemy’s.,9-5-2022,0
273,TheAceofHearts,theaceofhearts69,,Me plsss,9-5-2022,0
274,01iver.C1ausing,oliver.clausing,,Yo I do t have a headset,9-5-2022,0
275,Gabe Chavez299,mullet_kid,,hi,9-5-2022,0
276,yoitzmejeff,ttvyoitzmejeff,,come let's see how lucky I am😅😅😅,9-5-2022,0
277,caped baldy766,_im_just_a_weeb,,ah,9-5-2022,0
278,SAB,sabastianbanabakis,,Ok,9-5-2022,0
279,Marco❤️,kmatamina,,Lol,9-5-2022,0
280,🥵,sierrakb,,Ok,9-5-2022,0
281,Daniel Wargo,rtxchimkin,,I will win the hyper headphones,9-5-2022,0
282,Derhan,derhan77,,Let me get one,9-5-2022,0
283,ButteredPaws,nawatanipaws,,woop woop,9-5-2022,0
284,Jrnightman,jrnightman,,Pls 🥺🥺🥺,9-5-2022,0
285,life things,lifethings16,,pp,9-5-2022,0
286,Mr. Krabs,mr.xxxkrabs,,"that was a little disappointing lmao, headphones folded so easily 😂",9-5-2022,0
287,Nihad Ramic,nemoo_r,,That's neat,9-5-2022,0
288,Chicken nuggets,yeetus_the_meatus69,,my pfp is a lizard can I win?,9-5-2022,0
289,its__travis27,its_travis27,,I'm tryna get a new headset,9-5-2022,0
290,emmerson,em272_,,heyyy,9-5-2022,0
291,Lost442nd,l0st442nd,,Pop tart,9-5-2022,0
292,Bauer,bauer999,,Men? Or men?,9-5-2022,0
293,Alpha male,mrglizzbane,,Headphones,9-5-2022,0
294,Peter L,pj_07_,,Pls,9-5-2022,0
295,Rige Nage,rigenage,,Hi,9-5-2022,0
296,Dark Paradox,bakedinschool,,Those headphones would be dope,9-5-2022,0
297,mikey resuello,izz_mikey,,razer headphones are huggggge,9-5-2022,0
298,Skizzle,ratexe,,15$ headphones hit different,9-5-2022,0
299,Dylpokego mcd,dylpokegomcd,,Brawl,9-5-2022,0
300,💕💕💕💕,evil_anarcy,,I need that headphone carter 😭,9-5-2022,0
301,reinrunner0,reinrunner0,,that must have been a nerf gun that shot it,9-5-2022,0
302,White trash Blake,blakehein69,,Yo,9-5-2022,0
303,sebas,dgo.sebaz,,Okay,9-5-2022,0
304,Braisy,smw.snowy,,i’m using earbuds fam i need to win this lol,9-5-2022,0
305,pain.hubfyp,pain.hubfyp,,you i need some headphones,9-5-2022,0
306,Ranni,ranni.the.consort,,Pp,9-5-2022,0
307,…,dambro__,,run me the headphones,9-5-2022,0
308,H£ko Clark,hikoboi,,"love the content 👌
keep it up 1🤯😳💯💯",9-5-2022,0
309,Drakezchumchum,drake.sharp,,Me,9-5-2022,0
310,Vedshisty_wsg,vedshisty_wsg,,Man the razr headphones r actually good same with the hyper x for their price and quality,9-5-2022,0
311,Alex,lsthatalex,,🥺🥺,9-5-2022,0
312,Gettingbetteratsubwaysurfers,mgdestroyer409,,Bro they look nice,9-5-2022,0
313,lover boy,jesus_ordaz07,,I need a headsets I've been using just tv speakers,9-5-2022,0
314,Oki buddy,scream.no.s,,My little brother sat on mine I could rlly use a new pair,9-5-2022,0
315,Voulb,thevoulb,,me,9-5-2022,0
316,⠀ ⠀ ⠀ ⠀ ⠀ ⠀,mr_tall_one,,me,9-5-2022,0
317,Taylor721,taylorhernan632,,Yo yes,9-5-2022,0
318,Hi,ligmaba11s34,,Did you already do the giveaway,9-5-2022,0
319,VOD Cvpz,r9cpz,,I’ll take one,9-5-2022,0
320,vin,vinnyd330,,Can I get one,9-5-2022,0
321,Mitchell Finlayson,mitchellfinlayson,,hi,8-5-2022,0
322,jaylanscott958,jayxtoxic11,,bruh,8-5-2022,0
323,mirajsandhu182,mirajsandhu182,,Give me,8-5-2022,0
324,Natan Busel,natanbusel,,Headphones!,8-5-2022,0
325,safeeight,safeeight,,hi,8-5-2022,0
326,uriel,sexmaster21,,lol,8-5-2022,0
327,The OG Jeff,sonicatemygrandma,,Worth a shot,8-5-2022,0
328,Simon,slump.simon,,Me,8-5-2022,0
329,sn0w,gamerdoggo_,,Taco. 🌮,8-5-2022,0
330,Elyas Rahimi,elyascanfixit,,You could’ve paid someone to shoot,14-6-2022,0
331,DANIEL,daniel34592,,Hi I would like to have headphones pls,5-6-2022,0
332,.,shhaspect,,hi,28-5-2022,0
333,Innormal🇧🇳,innornal_ml,,pick me daddy 😏🥺,22-5-2022,0
334,Maikol,imsupahot,,Me,12-5-2022,0
335,Underground Music,undergroundmusix,,"Carter, youd be surprised as to how easy a bullet can deflect.",8-6-2022,1
336,levi Nicholson,.levinicholson07,,the bullet had to go through his walls first,11-5-2022,1
337,Bean,beandemond2,,But 3 people could have got a headset inserted of only 2 🦁,27-5-2022,1
338,Trey,itstreygamin,,Can I please have one my headset broke,15-6-2022,1
339,Prinkz,prinkz_,,Sup broski,8-6-2022,1
340,Riad Jamal,riadjamal0,,i am big,16-6-2022,1
341,Colini,colini_,,I have been using a webcam mic for the last year. I would love a pair of headphones,9-5-2022,1
342,Gutayba,gutayba,,lemme get it,17-6-2022,1
343,Sony Halabi,sonyhalabi,,sui,vor 2 T.,0
344,Nawaf,mr_cut17,,Wsp,vor 2 T.,0
345,bloo,blooltf,,oo,vor 3 T.,0
346,Mosa,mo_yabo1,,Sui,vor 3 T.,0
347,keenu,.keenu,,poop,vor 3 T.,0
348,Basel,tazojk,,already knew it sucks,vor 5 T.,0
349,Alhassanmaklad1,alhassanmaklad24,,beanz,vor 6 T.,0
350,𝘼𝙮𝙖𝙣𝙣,x._.ayan,,This hurts.,10-6-2022,0
351,8,bozo2322,,Upo,30-5-2022,0
352,تضيفني اضيفك 😂,uk5b,,Ples,29-5-2022,0
353,malvin,malvinphll,,pick me or die,18-5-2022,0
354,ZachL42069friend,zachl42069friend,,At,14-5-2022,0
355,riginos,riginos13,,🥸,10-5-2022,0
356,fire,im._fire,,this model is shit but igot the razer black shark + sound card ithink my headset is soo g9od,vor 13 Std.,0
357,Idk,idontknow_imbored,,What kinda of desk do you have,vor 4 T.,0
358,daboybeanzz_bruh,daboybeanzz_bruh,,someone tell me how dumb my profile looks,vor 5 T.,0
359,Bestarabballer🏀,thearabking7gotliveban,,poop,21-6-2022,0
360,.,gottaluv_drewski_backup,,Love your vids been watching your fir a while you would always pop up on my fyp I would really appreciate if I won one cus my headphones broke,13-6-2022,0
361,coyall..lol,coyall..lol,,Luv your vids,11-6-2022,0
362,DRAGONRAGE 80,dragonrage20,,if I an lucky can I get one,9-6-2022,0
363,Kai Nagaya,kaikai123455,,I play with headphones i stole from my friend😅,8-6-2022,0
364,secretedxpert,secretedxpert,,yo Carter at like 5 am this morning I finished last of us 2 and then went to bed,7-6-2022,0
365,Michael,idkmichael19,,hyperX alphas are cool,5-6-2022,0
366,ACET3CH,acet3ch,,gola,2-6-2022,0
367,Max,maxxboihi,,Prove it 😏,1-6-2022,0
368,Joseph,skuffedjoseph,,pick me,1-6-2022,0
369,off the percs,c4h8tr,,please pick me my family has been starving since 1982 thats the year my dog died. please i would eat a razer mouse on cam for it,10-5-2022,0
370,Logan Plein,ceo.of.laddder,,Sick video,9-5-2022,0
371,KillerAce1z,killerace1z,,Jit got saved,9-5-2022,0
372,samuelgutierrez55731,samuelgutierrez5559,,I think they passed,9-5-2022,0
373,Bruh,thomasthetrain060,,Like your vids,9-5-2022,0
374,Raccoon Eggs,raccooneggs69,,poop,9-5-2022,0
375,Xplicity,aydenwilliams94,,The bullet probably went through the wall before hitting him or someone had a BB gun,9-5-2022,0
376,Kirby,notapperson,,On this video,9-5-2022,0
377,Krayan,krxyan,,Pick me pick me I am ur biggest fan,9-5-2022,0
378,Tobi,tobidraws,,giggity giggity,9-5-2022,0
379,veryfunnyunfunny,veryfunnyunfunny,,It’s used for aliens,9-5-2022,0
380,Spinaa10,spinaa10,,I love ur vids,9-5-2022,0
381,ur_only_grandaddy,idekdoy0u,,poop,8-5-2022,0
382,w,esex_6,,man I don't even have a pc🥲🙁😕🥲,vor 3 T.,0
383,Addy Ahmer,drsweet__,,chicken,vor 6 T.,0
384,😱,ixxzoi,,😂😂 They look funny,17-6-2022,0
385,Clash dark,clashdark_sus,,Underage to get a gun but you drive? Where tf is this,13-6-2022,0
386,jad,jadrajabjr,,Why did I start stroking it 😂,6-6-2022,0
387,I'm a hater,fortnitekidssuck5,,"mans bought a $100+ headphone just to bend it, throw it on the ground and stomp it with his car 😂",24-5-2022,0
388,ZachL42069friend,zachl42069friend,,Oles,14-5-2022,0
389,kingston,sylah.kingston,,Carter member that time I gave u some headphones so could I get some alphas 😅,13-5-2022,0
390,Perthhero04,noimnotaspy,,Kaboom,9-5-2022,0
391,kingdevil187,kingdevil187,,I’m using a 10$ dollars headphones from the gas station,vor 3 T.,0
392,natural,ali.asfour07,,Yo Ur Acc hot like wow,21-6-2022,0
393,Juni,juni._.13,,me because me,16-6-2022,0
394,glaive 😮‍💨😮‍💨,g0ool,,@okeenskiy what great timing as soon as i open tiktok,14-6-2022,0
395,mathewpuntikov741,mathewpunt,,Hi how are ya,26-5-2022,0
396,Joel Cruz,user93d9p51vud,,Hi,21-5-2022,0
397,mohammad rauf,muhamm._.meh,,Headphones please 😢😔😫,10-5-2022,0
398,mitts.user,mitts.user,,i need the headphones i’m just using airpods which over heats on my ears,9-5-2022,0
399,Nico,nico.spanos,,Bro speaks YouTuber ngl,9-5-2022,0
400,FrankieLikescola,frankie_lovescola,,Alpha,9-5-2022,0
401,Quack quack,quacklesss,,Just commenting for that give away tbh,9-5-2022,0
402,https.yeetmeister,https.yeetmeister,,i’ve really been needing a headset recently,9-5-2022,0
403,renan,youwantacookie21,,yo those headphones sound nice,9-5-2022,0
404,F%Ostt,ostify,,Can I have them,8-5-2022,0
405,wayoon,wayoon1x,,headphones,8-5-2022,0
406,Idksadface,idkoksadface,,Stop it he's already dead😭😭😭,16-6-2022,0
407,Jamil Katrib,jamilkatrib,,Bro please give me i have shit turtle breach,15-6-2022,0
408,q8,bolt.w,,ليو جستك يصيح,14-6-2022,0
409,Michael Douglas,ognightphoenix,,Love rqzer products but the headphones kinda shit ngl,9-5-2022,0
410,6inchbaby,6inchbabyonbaby,,Please dude I need those head phones my life is a disaster without music it’s like music is medicine please and I only have the crappy headphones dont,vor 2 T.,0
411,ﾌΛᄂΛᄂ,14v.g,,Dam,vor 2 T.,0
412,dan_skull4,dan_skull4,,plz me i have bad headphones and i follow you for a long time,19-6-2022,1
413,leojamesalexandercal,le0andch4rlie,,Hi I commented,vor 3 T.,0
414,مقادير `~,fkuzg,,hi,vor 1 W.,0
415,rayangassim2009,crit_sdd,,Hey,vor 1 W.,0
416,dadumbokid,dadumbokid,,I'm using 16 dollars earphones I'm so cool,16-6-2022,0
417,LetsGoBikeUAE,letsgobikeuae,,The car got me,14-6-2022,0
418,Benjamin Dover,lljwaste999,,Yo I really need a new headset I been rocking the bugha ones for 5 months so please,26-5-2022,0
419,rblx wolf,gostygalery,,me plsss,26-5-2022,0
420,CO-CEO OF FORD EXPEDITION🥵🥵,2006expedition,,Can I get them pwetty pwease,21-5-2022,0
421,aram_is_swag,aram_is_swag,,Me pwease,20-5-2022,0
422,zandam,zanda_m08,,Giveaway candidate #1,15-6-2022,0
423,‍,..idktbh.._,,Wdym you people? 🤨,vor 4 Std.,0
424,Psychosis,dahmon99099,,imagine,vor 17 Std.,0
425,.,gr4gv,,Nice,vor 1 T.,0
426,suiimanbfhfh,suiimanbfhfh,,bruh,vor 4 T.,0
427,edx_xd,edx_xd__,,🥺🥺,vor 5 T.,0
428,{𝒚𝒐𝒖𝒓 𝒅𝒂𝒅𝒅𝐲♕},swaggy_daddy10,,That wasn’t a test. That was personal,vor 1 W.,0
429,be nice,be_nice_3,,Free pass,18-6-2022,0
430,Vicka baŕca,n7rp1,,🎧,15-6-2022,0
431,bass money fancy clothes opps,.youmidash,,😂,15-6-2022,0
432,Ofir Benshloush,ofirbenshloush,,Hello,13-6-2022,0
433,G4STY,f1_gasty,,hello,1-6-2022,0
434,AdonMrGveret,adonmrgveret,,bro not 18 yet and already makin bank,29-5-2022,0
435,Zheera44,zheera44,,😁,29-5-2022,0
436,bottle cap,__bottlecap_,,hello,24-5-2022,0
437,Chris Antoniou,chrisantoniou6,,🤯🤯,21-5-2022,0
438,Chris Antoniou,chrisantoniou6,,😳😳,21-5-2022,0
439,Sean Pichaya,seanpichaya,,Hello,18-5-2022,0
440,איתמר נתן,itamarnatan123,,nice,13-5-2022,0
441,Issam Jana647,isamovman,,Bruh,10-5-2022,0
442,Yonatan Tassa,yonatantassa,,ככ,vor 4 T.,0
443,.,0lo6,,L,vor 4 T.,0
444,愛染,not_aizenn,,e,vor 4 T.,0
445,ᴀʙᴅᴜʟʟᴀʜ ᴋʜᴀʟɪᴅ,p.ainfull,,A,vor 1 W.,0
446,N7UAE,n7uae,,1,18-6-2022,0
447,Fade0928333,fade0928333,,E,16-6-2022,0
448,.,mmo132,,H,14-6-2022,0
449,Dennis,drrnnis_777,,A,6-6-2022,0
450,.,dereck..k,,W,5-6-2022,0
451,…………,bajsksjshuii8288,,j,26-5-2022,0
452,Let’s go,fdndjdh,,H,22-5-2022,0
453,kai🦇,kaiixva,,g,9-5-2022,0
454,@,yzxqp_,,:D,9-5-2022,0
455,Perkess,perkesslmao,,.,9-5-2022,0
456,Cade Carpenter,bruh_idk_at_this_point15,,u,8-5-2022,0
457,ベルモット,verumoth,,Hello,vor 6 T.,1
458,Tru_Autist,semenofhomunculus2011,,🗿,vor 19 Std.,0
459,amikogroot,amikogroot,,O,vor 1 T.,0
460,Naxx,dirtismyname,,Yooooooooooooooooooooooooooooooo,vor 4 T.,0
461,tuckerlee629,funnyimpressions0,,U,vor 5 T.,0
462,Arseny Basili,arseny_basili,,Siickk,vor 1 W.,0
463,ZERO,zero_germany,,Sick,16-6-2022,0
464,تيم أولاد,vhkkrr,,Hu,16-6-2022,0
465,A_D_X_GTR,adam_r35_gtr,,:),16-6-2022,0
466,Nicholas,nicholasmartinez.cy,,sick,15-6-2022,0
467,SadigAR,sadigar,,سي,7-6-2022,0
468,Dennis,drrnnis_777,,Sisisisixuudydhdh,6-6-2022,0
469,lx0gt1,lx0gt1,,Gg,3-6-2022,0
470,smixalis84,donald178,,u,26-5-2022,0
471,Ahmed,ahmd.knwl,,:),24-5-2022,0
472,シᴘᴇw乛мᴇシ,pew123321,,Heh,22-5-2022,0
473,hasan,hasanuknow,,Ndnsjshshananhahe yes 🙌,10-5-2022,0
474,𒉭💀 me,sekiroenjoyer,,k,9-5-2022,0
475,new guy,new_guy_tiktok,,k,9-5-2022,0
476,Tug Diego,barookas357,,Heedphurn,9-5-2022,0
477,Bob Colling,mufatorzzrl,,Crazy how dumb there look i herad there ok tho,vor 2 T.,0
478,yazoon 🌚🌚,yazoon_mesh_3ala_kefak,,dont like this plz 👍,15-6-2022,0
479,totallysuenk,dante.ur_father,,L,9-5-2022,0
480,Ray,red_broccoli,,🥺…😅,vor 2 T.,0
481,Cornelius Hooglefart,cornelius__07,,👑👑,24-5-2022,0
482,playboy kc,playboy.pabloo,,😏,24-5-2022,0
483,Carterpcs · Ersteller,carterpcs,,I’m giving away a pair of HyperX headphones to two people who comment,9-4-2022,4990
484,sabra,sabra_666,,"Give one to @M_A_S_S he doesn’t have a mic, he’s black, he can’t swim, he has bald spots etc..",vor 5 T.,0
485,fares ghazal79,faresghazal21,,aint no way it stopped a bullet,vor 1 T.,0
486,Nev,nevs__,,Pick mee,18-6-2022,0
487,.,_masrio_,,pick Me.,18-6-2022,0
488,🫤,neeki_your_mama,,that kid got lucky,14-6-2022,0
489,.,rr.pol,,ا,2-6-2022,0
490,Reem Marina,babyyeeter20011,,the bullet probably hit him at a weird angle,24-5-2022,0
491,Pranav,pizza4life247,,pick me.,22-5-2022,0
492,HaZe,hazexgaming,,pick me,21-5-2022,0
493,Axani,axent_,,Pick me zaddy,9-5-2022,0
494,Muhammad,muhzxcs,,Oh i really need those cloud alphas plzzzz,29-5-2022,1
495,user3764252031045,askmetodraw,,pick me please,10-4-2022,4
496,jakob,jakob108,,Deez,10-4-2022,4
497,LetMeMake1,letmemake,,Get the same model,10-4-2022,4
498,Lompe ball,alexberget,,I need new headphones mine broke,10-4-2022,4
499,NFtech,nf_tech,,I want a headset🙃,10-4-2022,4
500,Theo,theo.a365,,🥖,10-4-2022,4
501,water1276,water1276,,hi,10-4-2022,4
502,Armaan Motiani,armaanoo9,,hello carter,10-4-2022,4
503,ale,aabaterie,,pls can I have them I love your Vids and a good headset would be useful,10-4-2022,4
504,Bronson,jaqavious_,,My brother had Razor headphones just like those and the first day he got them I stepped on them and they broke,10-4-2022,4
505,Eli Joshua,plsz,,meples😌,10-4-2022,4
506,Luka Allington,luka_allington,,I really need a new headset my dad broke mine cause he was angry at me😳,10-4-2022,4
507,Bbb,stevarion,,Headphones👍,10-4-2022,4
508,Zain.,mynameiszain0,,pick me bc i’m an immigrant in australia,10-4-2022,4
509,aidan23837,aidan23837,,Me,10-4-2022,4
510,ChingerUnknown,chingerunknown,,I have decent headphones don’t pick me,10-4-2022,4
511,Karter,karterbrogan,,I drink pilk,10-4-2022,4
512,Wil Oates,mr_notwil,,Pls,10-4-2022,4
513,Joey,.puhpy,,Pinecones,10-4-2022,4
514,Rayjaxx,rayjaxx_,,Im using my brothers old 20$ Amazon headset 😂,10-4-2022,4
515,WIV_PRO,rapion_,,My name is now “two people who comment”,10-4-2022,4
516,𝓐𝓪𝓻𝓸𝓷,iioveaaron,,pick me i love you man,10-4-2022,4
517,🇨🇴PabloEscobar🇨🇴,latinnmc,,👀👀👀,10-4-2022,4
518,Robbo,robbo4211,,Pls @Carterpcs,10-4-2022,4
519,Louiscody367,louiscody367,,hello,10-4-2022,4
520,Jack Carver,racer350z,,If you actually are giving away 2 I’ll take 1 😁,10-4-2022,4
521,qvuxr,qvuxr,,Yo pick me i have. £10 headphones off amozon 😭,10-4-2022,4
522,dantejimenez515,dantejimenez515,,That knife look’s crusty,10-4-2022,4
523,Brikkern,embrikb,,meow i want headset,10-4-2022,4
524,Gui,mizuwh,,bruh,10-4-2022,4
525,FUTT.SNA,futt.nadim,,pls pick me bro,10-4-2022,4
526,NoShadow__,noshadow__,,"yo my headphones don't work anymore, hook me up G",10-4-2022,4
527,Rhys newbigging,rhysnewbiggings,,@brandon_8126 casually runs them over,10-4-2022,4
528,Chris,chris_bonnickbackup,,Among sus,10-4-2022,4
529,tiago,tiago42069,,Cater I’m down bad for a new headset bro,10-4-2022,4
530,K.C,eclipsoz,,Lmao I definitely need headphones for my birthday I haven't had any in about 3 years now,10-4-2022,4
531,bigjohnjr69,bigjohnjr69,,im using turtle beachs please help,10-4-2022,4
532,Patrik,patrik0808,,Pick moi,10-4-2022,4
533,DB77ispro,db77ispro,,comment,10-4-2022,4
534,-_-,luthebig,,Sir I need head phones the ones I have rn are stolen from my school and the wires are holding on for life by electric tape,10-4-2022,4
535,,ryankeohane706,,I am using 10 euros headphone,10-4-2022,4
536,just dont do like luddisen,emilnummen,,i hope i get picked i have a hyperx headset but the headrest thing is broken so its super loose and i can barely hear anything,10-4-2022,4
537,Harry,tropical.0.8,,Hey😏,10-4-2022,4
538,ok.,g3nd0s,,did someone say headphones? 😏,10-4-2022,4
539,⠀ ⠀ ⠀ ⠀ ⠀ ⠀,matthew_gil07,,I dont have a headset bro pleasee,10-4-2022,4
540,swifety,swifety,,I need headphones to play subway surfers on my fridge,10-4-2022,4
541,dinneenharry,dinneenharry,,Hey I like kids,10-4-2022,4
542,Coll Person273,oasan_man,,my raver kraken just broke im in need of new headphones,10-4-2022,4
543,EJT.Tom,ejt.tom,,Head,10-4-2022,4
544,Killer_bunny19,ttvkillerbunny19,,Please my headphones so broke lol,10-4-2022,4
545,djklengends,djklengends,,hi,10-4-2022,4
546,ㅤ,exhausted.ex,,Can I have the headphones please and thanks.,10-4-2022,4
547,Spudolliers,spudoliers,,Please I really need one of these my headset brok 1 week ago and can’t get another one,10-4-2022,4
548,Emil,emilhelle07,,Me,10-4-2022,4
549,🎡John heath🎡,baby_bilco,,Hello,10-4-2022,4
550,Thomas,thom.aas,,omg free headphones?,10-4-2022,4
551,Tyler<3,hxyo_r6,,Hello good sir 😌,10-4-2022,4
552,ragz692,ragz692,,Pls my headset is 10$ pls,10-4-2022,4
553,yea,kasitsat,,😃,10-4-2022,4
554,Mohammadtazer,tayzirface,,Carter give me headphones now,10-4-2022,4
555,وليد,asimwaleed,,The green looks good tho,10-4-2022,4
556,Rhys Williams,rhys_mj_williams,,could I please win 🥺 my headset is broken 😅,10-4-2022,4
557,shaid,asger_sm,,booba,10-4-2022,4
558,jimmyk2007,jimmyk2007,,headphones sound pretty cool,10-4-2022,4
559,Zzz,averagerobloxaddict,,I don’t even have headphones lol,10-4-2022,4
560,yousef.alasttal1,yousef.alasttal1,,carter pick me I have a bed as a gaming chair,10-4-2022,4
561,Echo_hunter009,echo_hunter009,,I don’t have headphones rn,10-4-2022,4
562,Harry J,hbroharry,,Pls me,10-4-2022,4
563,animation,vicsanimations,,bet,10-4-2022,4
564,Loading...,howthingsaresupposedtobe,,"Hey Carter I would like one, if I don’t win can I have the ones you smashed and I’ll try to fix that and use it ?",10-4-2022,4
565,Tomy,tomm_bommb,,I really need a new headset my mic has broken on the last two pair of hyperxes that I bought,10-4-2022,4
566,さまや汤nᴏᴏᴅʟ,mickmickmickmickmickja,,me please my headset is completly broken,10-4-2022,4
567,Idek,my.camera.roll.is.weird3,,My headphones broke bro💀,10-4-2022,4
568,Secretary,makotosachiko,,todays my mom dad grandma grandad sisters brothers pls my family only eats sands 🙏,10-4-2022,4
569,Liquid Ice,liquidiceesports,,"Pick me please I don’t have a pc but I do have a Xbox, but I can’t talk to anyone.😂",10-4-2022,4
570,II_Void,ii_void,,i need headphones to play val,10-4-2022,4
571,Nivas,nivasssssss,,Carter please me I use my ps4 headphones,10-4-2022,4
572,19/09/22 the fog is coming,runtowardsthefog,,Headphone,10-4-2022,4
573,Alfie Adamson,abomb1710,,Hello Carter could I please have some headphones 👍,10-4-2022,4
574,loganclaytonking,logan_mmaboss123,,hi me pls I dont have a headset,10-4-2022,4
575,George.barnes,george.barnes,,Siu,10-4-2022,4
576,josh,myst.mtb,,fr,10-4-2022,4
577,Meme dealer🤝,collectyourmom,,Give da headset,10-4-2022,4
578,YouTube WoolfyFN,x9woolfy,,Me,10-4-2022,4
579,olekverneland,olekverneland,,Hiiii,10-4-2022,4
580,Olaf Bednarz,itzaccolaf,,"Yo, I am the only one who has never asked for a mouse pad or keyboard",10-4-2022,4
581,Crappy Animations,shopmations,,I like headphones ig 😂 I’m just kidding I already got some headphones somebody else deserves them 😁,10-4-2022,4
582,no_calorie_water,toaster.has.toes,,I need some headphones bro,10-4-2022,4
583,pipe.bonifatti,pipe.bonifatti,,I use 10$ Walmart gaming headphones,10-4-2022,4
584,Matthew Lemon,matthewlemon0,,A,10-4-2022,4
585,Rock,rockyry_,,can I be chosen as one of the people who get a headset I have been using a school one lol,10-4-2022,4
586,theo.latimer,theo.latimer22,,Headphones would be great,10-4-2022,4
587,Abdullaha,fabzy15,,llsss can i get one mine are liek 10 dollers and broken i need new ones,10-4-2022,4
588,eAzY Draiii,eazydraiii,,im using mobile headphones,10-4-2022,4
589,harry,.harry.9,,i’ll have a headset,10-4-2022,4
590,Aviation,avation4,,Hi carter,10-4-2022,4
591,.,rapsac.toth,,I like to win so pls?😌,10-4-2022,4
592,Baileyy,koigiri_,,i love Carter 🗿👍🏼,10-4-2022,4
593,Toadless69,stevethepharmacist,,Hello.,10-4-2022,4
594,RavenSucksAtLife,ravensucksatlife,,Bet,10-4-2022,4
595,icantthinkofausername,icantthinkofausername_9,,whoever thought it was a good idea to give us a neon green headphone cable needs to be locked up,10-4-2022,4
596,kieran2742,kieran2742,,hii i hope i win a hetset 🥰🥰,10-4-2022,4
597,😈Obama😈,secretaryscrotum,,Pick me daddy,10-4-2022,4
598,Kye,kyepowerz,,My brother sat in mine I now need new ones,10-4-2022,4
599,Hadj Bullfrog,hadjnibba,,👍,10-4-2022,4
600,Lou🐐,mathiasyg,,"Id like headphones, mine broke a few weeks ago",10-4-2022,4
601,Pelé,tantoelekk3r,,Headset,10-4-2022,4
602,R K,shano_02,,i want the headset cause i dont have one now and my monitor doesn't have speakers so i dont hear anything,10-4-2022,4
603,🤷🏼‍♂️,quatric,,wouldnt mind a pair of alphas👿‼️,10-4-2022,4
604,BANKOE,bankoe123,,Me,10-4-2022,4
605,Chris,fuxmv,,Poop,10-4-2022,4
606,Bogi,bogiizzda,,Hyper ekes ekes ekes,10-4-2022,4
607,⠀lebendeEnte,lebendeente,,187,10-4-2022,4
608,K0smo_,k0smo_,,maybe it hit the metal part of the headband?,10-4-2022,4
609,I follow back,torrfesk,,Razor sucks (pick me @Carterpcs ),10-4-2022,4
610,Ur mom,yellow.chip,,Hi,10-4-2022,4
611,idiot8cookies,idiot8ookies,,nice,10-4-2022,4
612,VytsKk,vytskk,,me I need headphones I play on no sound,10-4-2022,4
613,your mom😏,jayden_is_niet_hier,,i need New headphones cause my Whole left Side is broken,10-4-2022,4
614,L.S,l1.sulski,,you realise the bullet was deflected about 3 times,10-4-2022,4
615,Chitownjit,user650987643245678,,Can i get some new headphones lol,10-4-2022,4
616,Will 😎💪👍,willss.stuff,,mr carter man pls pick me,10-4-2022,4
617,Nicholas P.,kiabeta,,my razer headphones snapped after my cat knocked them of my desk once 😐 only had them 2 months,10-4-2022,4
618,Jadon,jadonissosexy,,I will twerk for a pair of headphones.,10-4-2022,4
619,JOTAROOO,jotaro.0.kujo0,,"Walter Hartwell white here, in need of a headset for my gaming channel lemme win a pair",10-4-2022,4
620,Ramunėlis,ramunelis_,,I am using 10 dollar headphones please i am trying to make my dream setup and good headphones wud be very nice,10-4-2022,4
621,aidan,a.i.d.a.n00,,If you don’t pick me you like men,10-4-2022,4
622,😈,iridoscyclydous,,ill do sum strange for dem headphones😈,10-4-2022,4
623,Tarun,metheanol,,I’ll take a keyboard instead if u out of headphones,10-4-2022,4
624,Creations3D,techppl,,Ello:),10-4-2022,4
625,Whitespace,whit3spac3,,I don’t even have headphones soooo you have to pick me 👍👍👍👍,10-4-2022,4
626,W,slixdidit,,Me please,10-4-2022,4
627,pax8714,pax8714,,hi,10-4-2022,4
628,𖤐,aplotas,,Hi,10-4-2022,4
629,Decisive.R6,decisiver6,,yo ⛏️me,10-4-2022,4
630,Ralphygoat,ralphygoat,,Yo help a brotha,10-4-2022,4
631,Saul,smurfettelover,,I need some cause I got none I can use,10-4-2022,4
632,Doc,dawson2226,,i would quite enjoy a pit of exquisitely good headphones for my leap frog,10-4-2022,4
633,keeankawamoto,keeankawamoto,,i’d love a pair of headphones,10-4-2022,4
634,Jordy Navarro,jordynavarro34,,there is more planes underwater than summarines in the sky: pls I need head phones 🥺🥺,10-4-2022,4
635,Ben,rossstewartisasexybeast,,Hi,10-4-2022,4
636,Fierce,fierce1444,,mmkk I need some headphones mine just broke today,10-4-2022,4
637,Zayen,zayensheikh,,love u,10-4-2022,4
638,HydroFlaskinmyAss,hydroflaskinmyass,,I could use them I share mine with my sister,10-4-2022,4
639,user8143239756419,human_on_the_earth,,Bro please I have the bugha headset💀,10-4-2022,4
640,Will,flamexx5,,me please,10-4-2022,4
641,Cruz533,cruz5333,,Was not expecting u to run them over with a car,10-4-2022,4
642,user8498927359633,essqort,,Mmeee please,10-4-2022,4
643,Derp,skrderp_vr,,Me please,10-4-2022,4
644,.,eqzmlgisboss,,meee,10-4-2022,4
645,Piss off 🖕🏻,zzeno19,,CARTERRRRRR IM IN NEED,10-4-2022,4
646,F's property,hundredguap,,Tht would be nice ngl,10-4-2022,4
647,Joshua cruz,joshua.acruz13,,Pokémon,10-4-2022,4
648,Tik Toker,yes678188366636551738,,Bruh,10-4-2022,4
649,mason,.m.a.s.o.n.w,,nice……….bread 👍,10-4-2022,4
650,Bus on the tip,error.mp3,,You should pick me because… we’ll no reason actually… I just don’t have headphones 😅,10-4-2022,4
651,Ryder,rxder._r,,Pls pick me,10-4-2022,4
652,SPECIMAN_A,rvg_mrblizzo,,hey carter,10-4-2022,4
653,Meme lord,cheesiercake,,everyone has a mom linus has a mom and carter doesnt,10-4-2022,4
654,Anthony,dusk_tm,,Not even gonna ask for a pair just wanted to watch the vid,10-4-2022,4
655,RT_jaguar_yt,trjaguar,,Hyper ekisekisekis,10-4-2022,4
656,ferguscastleberry64,fergus.castle,,Hi,10-4-2022,4
657,sharaf,s.sharaf143,,i’d like new headphones,10-4-2022,4
658,Potato,aghsbsbdbd,,I have no sob story sorry bro i just want a pair of headphones i dont have one,10-4-2022,4
659,Posadas Jr,beetleriser,,A new headset wouldn't be bad,10-4-2022,4
660,Hsv1235,hsv1234567,,My mic broke I need new one,10-4-2022,4
661,jjjjjjj,blackalec2,,Hi man,10-4-2022,4
662,lukas DK,lukas69_69,,My cat just chewed up my mic cord yesterday 😭,10-4-2022,4
663,〽️,oscarm026,,ok,10-4-2022,4
664,Trev,trev_morrison,,Please help,10-4-2022,4
665,Jairuz,..wheez,,Pakistan in da bag,10-4-2022,4
666,ab.hamza,ham0622111,,Me😳,10-4-2022,4
667,Lordhellm33,lordhellm33,,yooo finally he's doing a giveaway hope I win,10-4-2022,4
668,aidenredd123,aidenredd2004,,Me,10-4-2022,4
669,funny,isayfunny,,hey Carter pick me and I will donate ten bucks to joe,10-4-2022,4
670,vivek.patelll,vivek.patelll,,@dmp0013 Yk need those new headset,10-4-2022,4
671,Ass cheeks,juicy_coont_fluid,,I’m straight,10-4-2022,4
672,Call me Mark,agwad_,,"😖😖me, me!",10-4-2022,4
673,Brandon,brandon__guy,,Hey I love you,10-4-2022,4
674,Niklas,borednik6,,Yus,10-4-2022,4
675,benlandstra,benlandstra,,please bruv,10-4-2022,4
676,Milk,adza7607,,Head,10-4-2022,4
677,AJ,ajmartinez._,,carter,10-4-2022,4
678,urhjrjdjdkowow,j2jjeidococow,,'I'm not on a watch list' idk sounds like something someone on a watch list would say,10-4-2022,4
679,taclo2,taclo2,,Headphone winner,10-4-2022,4
680,Alvin,spex_is_syco,,Me pls I don’t have any head phones only my older brother has and he doesn’t let me use them,10-4-2022,4
681,.,charlieaylettt,,me,10-4-2022,4
682,Haider..pc,haider..pc,,I don’t need a headset I’ll prob review it then giveaway it again,10-4-2022,4
683,Harry Boylan,harry.boylan2,,Yoo,10-4-2022,4
684,VOXBI_CLIPS,voxbi_clips,,I like sounds (headphones produce sound so I like it) 🗣📞,10-4-2022,4
685,katieborcoskie,katieborcoskie,,my headphones onley work out of one ear,10-4-2022,4
686,Zoro uciha,damflamingdragon,,Shop at carter pc mousepads,10-4-2022,4
687,tino thankachan,omotion5555,,how's it going carter,10-4-2022,4
688,Joe,maplemaster69,,Plz pick me I been using the same turtle beach headphone for 3 year I feel Am like balding,10-4-2022,4
689,Trenden M,trendenm,,Been a long time follower and the headphones would help me out since I’ve been having issues with my current ones.,10-4-2022,4
690,Taz,itsonlytaz,,Entering the giveaway 😅,10-4-2022,4
691,Phoenix_Nye,phoenix_nye,,I’ll kiss you,10-4-2022,4
692,ethan,ethan.loll,,i want the headphones because my monitor does not have sound and my last headset that was a razor disconnects every time i move the jack,10-4-2022,4
693,Niall Holden,niall_holden,,Yo i want headphones,10-4-2022,4
694,ⓈⓗⒶⓃⓃⓄⓃ,6_shannon_9,,So uhhhh headphones,10-4-2022,4
695,Ale,alesostre,,ight bro,10-4-2022,4
696,wise old man,wiseoldman_,,babe wake up carterpcs just posted,10-4-2022,4
697,Bodhi,bodhialdridge,,Please bro it would be awesome,10-4-2022,4
698,Edits,movie.show_editzz,,"I need new headphones mine are old PS4 headphones and I haven’t gotten new ones since I got a pc, I would really appreciate the headphones 🥰",10-4-2022,4
699,Brian,biblanbriundo,,"Hear me out, ima need those my headset broke",10-4-2022,4
700,Idk a username 🤷🏽‍♂️,youngboijo,,I would love new headphones since my current ones are bad.,10-4-2022,4
701,Jeremy,jeremy.079,,sheeesh,10-4-2022,4
702,Jack,jackyboi_249,,I mean I need headphones my krakens aren’t bullet proof any more 🙏,10-4-2022,4
703,Nathan,ndviper1,,Hi thx for thinking about ur followers,10-4-2022,4
704,HP OMEN,hpomen,,Cloud alphas 😩😩,10-4-2022,4
705,Jackson DAmico485,jacksondamico_90,,I want headphone,10-4-2022,4
706,Redz.,redzzyy,,Plsss my head phone jack is bent,10-4-2022,4
707,black guy,_.lebombjames._,,twerk,10-4-2022,4
708,🎏,graham_marye,,farterpcs,10-4-2022,4
709,igor karwowski,ikarwowski6,,Pls me,10-4-2022,4
710,.,www.midgets.co.uk,,Hmmm,10-4-2022,4
711,MicahWasHere,micahwashereyt,,noice,10-4-2022,4
712,Seb,sebstinks,,pick me daddy carter,10-4-2022,4
713,finn,finnbeggan_,,plz,10-4-2022,4
714,Mikael,mikael0599,,Carter who needs a headset buy me a sword,10-4-2022,4
715,Ollie.Staugas,ollie.staugas,,Pls carter I am begging daddy give them to me,10-4-2022,4
716,che.tewhiu_,che.tewhiu_,,My headset is broken this would help so much 😳,10-4-2022,4
717,adrian,adrian____________,,"Hello CarterPC’s, I think I would highly benefit from a pair of HyperX Cloud Alpha’s. Please Daddy Carter I need them Uwu",10-4-2022,4
718,rn4537054,rn4537054,,Cool,10-4-2022,4
719,Luca!!!,luca3945,,Me plz,9-4-2022,4
720,HazDean,hazdeannn,,My headset is kinda done for at this point some hyper x headphones would be brilliant,9-4-2022,4
721,me and my friends solo 😂,itsalexlolfunny,,ok so carter didn’t die in this vid I can confirm.,9-4-2022,4
722,KuzgunCUK,kuzguncuk8479,,but the color is so cool,4-5-2022,3
723,Chris d,cry_about_it__101,,I like headphones,1-5-2022,3
724,Hypnos,qiblish,,Give me headphones (real),20-4-2022,3
725,testingcrdecks,testingcrdecks,,i want it please,13-4-2022,3
726,Charlie,charlie_rother,,plzI have apple earbuds as my headphones,10-4-2022,3
727,Ee,jarkeen,,Please give me one,10-4-2022,3
728,Robbie,robbied131,,Please I got switch headset,10-4-2022,3
729,Yomanjaro Yesyesyw,gokusoloz_,,yo,10-4-2022,3
730,Nehemiah 🧌,user7oghzfimrh,,Pick me or else,10-4-2022,3
731,MONKE,fat.monke,,PICK ME CARTER PICK ME PLS,10-4-2022,3
732,Delayed,delxyed_on_twitch,,can i pls get the hyperx headphones i use a steel series arctis 5 and there really old and i need a new headset,10-4-2022,3
733,Ivan Knecht277,ivanknecht377,,If I get those imma cry,10-4-2022,3
734,Auggie,perc304me,,yo,10-4-2022,3
735,.,.__._73,,Gimme da headphones,10-4-2022,3
736,Logan hanson,keanu_keys,,Me,10-4-2022,3
737,Hunter Stevens,hunter.stevens._,,Here my entery . have a nice day,10-4-2022,3
738,sleepless weeb,sleepless_weeb,,CARTER😈,10-4-2022,3
739,RED,...save...o,,My headset mic plastic fell of and it’s just a hanging mic lol,10-4-2022,3
740,pizza,vidzisthecutest,,hey,10-4-2022,3
741,blue_tokyo,blue_yume,,carter-senpai pweaase 🥺🥺,10-4-2022,3
742,Mikey,.miguelhoops,,I broke my headphones while playing madden and I need new ones I would appreciate if I got a pair,10-4-2022,3
743,fatbish19,fatbish19,,🥺,10-4-2022,3
744,demic80,demic80,,Hi,10-4-2022,3
745,Ratsers69,ratsers69,,Send them over to me and ill give them away again,10-4-2022,3
746,Ty,tdurks10,,I need to upgrade headphones plz,10-4-2022,3
747,John,stridehr,,Hyperx neat,10-4-2022,3
748,staffie.gta,staffie.gta,,Me,10-4-2022,3
749,MichaelRTodd,michaelrtodd,,Ohhhh yes,10-4-2022,3
750,Code: 100tShaggy,100t_shaggy,,lol,10-4-2022,3
751,Drago Liam,dragoliam,,I need new headphones it would help me a lot,10-4-2022,3
752,User2004,nathanw9081,,Yer,10-4-2022,3
753,Thomas Hickman,thomashickman00,,Ye,10-4-2022,3
754,Sugar daddy,itsursugardaddy,,Can I please have headset master carter,10-4-2022,3
755,Samuel Lanto,sumtingnotlame,,If they ain’t razer they ain’t headphones,10-4-2022,3
756,eliottsekula45,eliottsekula45,,hello,10-4-2022,3
757,Dylan’s 4 u,dylans4u,,Yo tryna slide me a pair,10-4-2022,3
758,Brokenghost999,brokenghost999_,,I’m so broke lmao please,10-4-2022,3
759,Charlie,all_for_charlie,,def not me,10-4-2022,3
760,Gorilla.gt,gorilla.gt,,I’ll take them 😳,10-4-2022,3
761,Highluisg,highluisg,,I need headphones,10-4-2022,3
762,Vin.valente13,vin.valente13,,Pick me my mic stopped working a while ago,10-4-2022,3
763,Paul Khamo,paulkhamo,,Hi,10-4-2022,3
764,Rawr,_.yurfavwaas._,,I’m using razor kraken head phone help 😭,10-4-2022,3
765,sophie,real_tophie,,me pls,10-4-2022,3
766,krn.s09,k6.aaaa,,damnnn,10-4-2022,3
767,Twizz,.movelookk,,Me,10-4-2022,3
768,kade_whisenhunt,kade_whisenhunt,,Hi,10-4-2022,3
769,Alejandro Gutier5987,moplopyh,,There is so many people I would probably not be chousen but it doecebt hurt to try,10-4-2022,3
770,landonengle517,no_thanks1517,,hi,10-4-2022,3
771,Ryan Seely,ryanseely,,Headphones are cool👍🏻👍🏻,10-4-2022,3
772,mato,mateo_aeg,,my dog needs the headphones he currently doesn't have a chew toy,10-4-2022,3
773,Adian,realraidshadowledgends,,My headphones just broke and now I can’t game,10-4-2022,3
774,andrew,soper___,,"carter you are wrong, in michigan you can own a hand gun at 12",10-4-2022,3
775,Lofi Rat,john_yanke,,yeah those ain't stopping a water gun,10-4-2022,3
776,juni0rthemanttv,itzjuni0r1,,Me,10-4-2022,3
777,Phill,ppetiprin,,Haha I love Carter,10-4-2022,3
778,Aidon,aike135_2.0,,Plz me,10-4-2022,3
779,pulse,pulsekekw,,meow,10-4-2022,3
780,Christian Daleiden,cdaleiden,,I eat potatoes 🥔 😋 I like giveaways,10-4-2022,3
781,Rohan,rohanrpasi,,Dope,10-4-2022,3
782,Jakob,morra.di.6969,,hope I win,10-4-2022,3
783,Forza,_.forza_master._,,Hi,10-4-2022,3
784,roccos tacos,roccos_tacos429,,hi,10-4-2022,3
785,Mike Jimenez,mikejimenez59,,🥺Plz,10-4-2022,3
786,Snakeman,snakeman917,,Please,10-4-2022,3
787,HarlMK,imaginebinggay,,Me,10-4-2022,3
788,I blew up,rufuswyd,,please me I only have a 5dollar mic,10-4-2022,3
789,Sup,ryderscorp53,,Me pls,10-4-2022,3
790,Figure kid,anime_coiiector,,Me,10-4-2022,3
791,William Wiltshire,robins.biggest.fan,,Me?,10-4-2022,3
792,.,sbd_death,,I like headphones,10-4-2022,3
793,boast,boast.hits,,imagine I win 💀,10-4-2022,3
794,$$$$,kalin69420,,Me please,10-4-2022,3
795,quintenthe god w,quintenthegodw,,He was right not be durable,10-4-2022,3
796,Brody_truitt,brody_truitt,,Carter come on,10-4-2022,3
797,Andre55Nasty,andre55nasty,,Me,10-4-2022,3
798,Josh_is dust,josh_kovie,,Ok,10-4-2022,3
799,ban gingers,edwxrd_08,,I don't have a headset,10-4-2022,3
800,SurfsideBacon65,surfsidebacon65,,Hi,10-4-2022,3
801,Jordan,jburgs88,,Pick me plzzzzz,10-4-2022,3
802,Darring’s heart break,darring_west,,I’ll take the headphones heh,10-4-2022,3
803,megan,boscostickbich,,i have a razer headset please i need a better one,10-4-2022,3
804,林小周,flckzy,,Can I have the headphone bc mine is broken,10-4-2022,3
805,Ashton,ashtonmacehatesyou,,Carter I need some headphones. !!,10-4-2022,3
806,imranfrmva,imranfrmva,,Let me get them yo ill be great fyp,10-4-2022,3
807,bablo,pablolaths,,Hi hehe,10-4-2022,3
808,🗿Issac🗿,zaceaim,,yo i need the headphones bro,10-4-2022,3
809,PLXR ZynX,plxrzynx,,Yo,10-4-2022,3
810,marcus hall,blackairforces62,,I don’t even got a headset to my name,10-4-2022,3
811,Nando👴🏿💪🔥,threedotvibes2.0,,Me please,10-4-2022,3
812,Brayden smith,hunting_is_the_b3st,,Hey,10-4-2022,3
813,👩‍🦯,user65847577,,me,10-4-2022,3
814,Savage pancakes,savagepancakes69,,Pick me uwu,10-4-2022,3
815,Fynn,localneighborhoodfynn,,i been a (G),10-4-2022,3
816,mrpeanutbutter384,mrpeanutbutter384,,Can I please have a pair,10-4-2022,3
817,cactus_YT,cactus_yt234,,Carter my friend would u like to help a brotha out,10-4-2022,3
818,ofka,ofk.a,,broo,10-4-2022,3
819,Dolan cash,dolanscash,,If I will win will give it to my brother who needs them,10-4-2022,3
820,Onion,theonion.1,,Me,10-4-2022,3
821,JDM/MOPAR FAMILY,adrian4k._,,no one is going to see this bit I like men,10-4-2022,3
822,luzifer,luzifer_107,,i'm not even using headphones😂,10-4-2022,3
823,troydobson2,troydobson2,,I feel dumb,10-4-2022,3
824,Lukey11,lil_homie694,,I just got a ps5 for my birthday,10-4-2022,3
825,Steven Mcwhorter,stevenmcwhorter,,Yo my dude,10-4-2022,3
826,IGN: Kexnth™,kexnth.cr,,No way those could deflect a bullet,10-4-2022,3
827,Mistake,gryonic,,my headphones half broken.. i need some new one my boi,10-4-2022,3
828,user5780597576116,upurass69,,Yooooo please,10-4-2022,3
829,AJ,ajwilson.1,,Please pick me I have been using the same pair of razer krakens for the last 6 years and I just can’t do it anymore😣,10-4-2022,3
830,Roveron the boss,roverontheboss,,I'll take some headphones my are broken,10-4-2022,3
831,Aryan Sindhi538,nibba052,,Yur,10-4-2022,3
832,Zach Dittus,zach.dittus,,🎧,10-4-2022,3
833,Erick,h_erick_,,Fortnite reference?,10-4-2022,3
834,blank,a_black_banana,,took my whole vid idea,10-4-2022,3
835,pedersen,pedersen_,,The $20 Amazon choice headphones I bought temporarily held up longer than my razer kraken headset 😐,10-4-2022,3
836,🖤ĐØŃÑİƏ🖤,seekerlol,,Carter pls me my mic broke 💀,10-4-2022,3
837,Spy,spyproof,,I need to replace my razer headset please 🥰😁,10-4-2022,3
838,Ivanna,ivanna_o1,,I like headphone 👍🏿,10-4-2022,3
839,jordang2k,jordang2k,,me plz i use to mics bc my mic broke on my main headphones lol,10-4-2022,3
840,Ryan,ryan_.fb,,Please pick me,10-4-2022,3
841,Ammar Bagasra,ammar.bagasra,,So I was using 20 dollar Amazon headphones those broke so then I used Sony school earphones those broke then I used AirPods lost those now I got nothi,10-4-2022,3
842,stormishtrooper,stormishtrooper,,Yep,10-4-2022,3
843,CAMREN_27,cam_3527,,Cam I get them I don’t have a headset that’s good,10-4-2022,3
844,shadhi🫐,shadhi420,,😅,10-4-2022,3
845,Ninjapekka9 9,ninjapekka69,,Lol,10-4-2022,3
846,Clayton Cameron,clayton.cameron0,,Yooo,10-4-2022,3
847,o̸̦͌͌â̷̪̮ẇ̴̨ê̷͕̙͝o̷̺̓,oaweo,,me,10-4-2022,3
848,EmanSquad10,eortega.21,,Zaddy pwease pick me,10-4-2022,3
849,justyn colon 😬,justyn_colon98,,Yooo let me get a pair,10-4-2022,3
850,user6716087633747,mikasa4004,,Yo por favor,10-4-2022,3
851,Ryne Wajick,cubbiesfan023,,Hyperx is 10x better then razer,10-4-2022,3
852,Sameer,sameerofficial249,,I don’t know even have headphones,10-4-2022,3
853,normandouellet615,cruz6199,,Man wish u could of actually shoot it to see if it would,10-4-2022,3
854,Omar Oropeza / OJ,bobbyorange12,,Fam,10-4-2022,3
855,Edward.paige,kira....me,,Can it be me I use earbuds for headset,10-4-2022,3
856,Liam,notliamdollard,,I no longer feel safe carter,10-4-2022,3
857,scottypimpin54,scottypimpin54,,i actually have these headphones lol. would love the ones your giving away,10-4-2022,3
858,Therandomperson,thereallyrandomperson,,I have a razor kraken superlight,10-4-2022,3
859,Gorilla B. Fuffy,adonispridgen,,ok,10-4-2022,3
860,Slow,xxslowspamxx,,what are HyperX HeadPhones?,10-4-2022,3
861,HI,goffyman55,,I think they still work,10-4-2022,3
862,Legion_Of_Horribles,hatepatat,,I have 2 trillion dollars and have infinite stuff. Can u please have a pweecee🥺🥺🥺🥺🥺🥺🥺🥺🥺🥺🥺🥺🥺🥺🥺🥺🥺🥺🥺🥺🥺🥺🥺🥺🥺🥺🥺🥺🥺🥺🥺🥺🥺🥺🥺🥺,10-4-2022,3
863,Ghost,fziehfdz,,trying my luck,10-4-2022,3
864,X 6000,x60000000,,Hola,10-4-2022,3
865,.,dhhdhdhdjejw,,Bro please... That's it please man I need em,10-4-2022,3
866,Cristian Octavio Chavez Osuna,cristianoctavioch,,Pls,10-4-2022,3
867,Chill,idkwhatmynameshouldbe679,,I have a 10 dollar headset I new one would be actually mint,10-4-2022,3
868,Hot mom🦶🥰💀😈☠️,iluv_badussy,,Head bands a G fr,10-4-2022,3
869,deeznuts,short_bus_king2.0,,I don’t think head phones can stop a bullet unless it’s far and like a pistol,10-4-2022,3
870,ray👹👹,...ramon_,,Dang,10-4-2022,3
871,CHICKINMOM,chickinmom,,Let me get one,10-4-2022,3
872,S15,drift_clips69,,Bro I need this I have to talk to my frit by Nokia😂 JK,10-4-2022,3
873,dad,sheanue,,si,10-4-2022,3
874,Lamont 🃏,lamontv2,,I got some astros with a short in the right ear for 3 years,10-4-2022,3
875,Bendabeast11111,bendabeast11111,,Hi,10-4-2022,3
876,schlub69420,schlub69420,,Hyper,10-4-2022,3
877,mewo,mewowasfoundsoyes,,I don’t have any for gaming,10-4-2022,3
878,me,gabr___iel,,Yes,10-4-2022,3
879,Itz.pulz,pulz.edizt,,Yo love your video,10-4-2022,3
880,Jonathan.,quixex,,😂,10-4-2022,3
881,Chad :),thychad_,,hey carter ws up i’m building a new pc setup soon and would like this headphones.,10-4-2022,3
882,Šimon Michalík,_simimichi_,,Uhm I could really use some new headset right now,10-4-2022,3
883,reef_0820,reef_0820,,Magikuriboh,10-4-2022,3
884,Tech Related Content,_dyllie_,,Lol,10-4-2022,3
885,Skyler Mickelsen111,mickelen692.0,,please pick me,10-4-2022,3
886,Ok,zwio,,Hi,10-4-2022,3
887,Idk my name,friend_jk,,Me pls,10-4-2022,3
888,Ian Edwards,ianedwards21,,Carter is cute,10-4-2022,3
889,aidenerlich,aidenerlich1,,The story is cap idc,10-4-2022,3
890,RaptureTanky,rapuretanky,,it had to be a .22LR that was shot at him,10-4-2022,3
891,Yfz_Alan47,alan.4700,,Please me,10-4-2022,3
892,Shaariff,shaariff_14,,The reverse got me LMFAOO,10-4-2022,3
893,Aydrian,limmited650,,please Carter man. I need it,10-4-2022,3
894,pov_you_miss_your_dad,pov_you_miss_ur_dad,,Hi,10-4-2022,3
895,Gnomes,gnomez_,,my brother needs new headphones bad please,10-4-2022,3
896,👌🏼Tyler heckman👌🏼,heckman528,,Ain’t no way I’m getting it,10-4-2022,3
897,Pedro,..peddro,,"Perhaps it wasn’t the headphones that were durable, maybe the bullet was just bad",10-4-2022,3
898,:3,urinat3,,I would like to win this giveaway because i have had my headphones for many years and they’re finally getting to the point where they’re not workinh,10-4-2022,3
899,user9263070541998,archiefraser5,,I have the 1.99 tik ton air pods 😂😂😂,10-4-2022,3
900,alvin,alvinfvng,,water🧎,10-4-2022,3
901,Robert Botello,robert_botello69,,can I plzz get the hyper head phones,10-4-2022,3
902,samenfinger,samenfinger,,Me I want them,10-4-2022,3
903,P.Renshaw,p.renshaw,,That would be legit 😎,10-4-2022,3
904,Faizaan Mahmood,naaziaf,,Hi I have diarrhea and I like headphones,10-4-2022,3
905,Pranking_John_Rn,pranking_john_rn,,I looòoooove you daddy,10-4-2022,3
906,🫀,zrzse,,Comment hidden,10-4-2022,3
907,Spanish Inquistion,spanishinquistion,,Please don’t stop believing,10-4-2022,3
908,NoRes Jakey,noresjakey,,Please I want need headphones,10-4-2022,3
909,pooper scooper,laynes92,,that was a brutal,10-4-2022,3
910,Max Kupfer,bigsmartfish,,"Damn, a whole video, and all the comments care about is a giveaway.",10-4-2022,3
911,The-Samurai,tiny_samurai,,My headphones have been broken for awhile,10-4-2022,3
912,PAIN,ag_pain,,hi Carter,10-4-2022,3
913,aaronmode,aaronmode,,hi carter,10-4-2022,3
914,Chicken joe,gorlillacock,,Gimme the headphones,10-4-2022,3
915,hadidastekkz,hadidastekkz,,Yo,10-4-2022,3
916,Vrgn_00,not_a_vrgn_00,,Hi I would love to have them,10-4-2022,3
917,ericdavidson_,ericdavidson_,,don’t pick me,10-4-2022,3
918,Alexander Vanmeter,alexv0815,,Please clouds look so cool and besides the point thx for the vids,10-4-2022,3
919,Kenji,kenjiyuh_,,Couldnt expect any different outcome tbh,10-4-2022,3
920,atheer,ath.eer_,,joe,10-4-2022,3
921,Lukey😪,lukeplsno,,"Gimme gimme, I want BASS",10-4-2022,3
922,zach,zachlikesmonkes,,ayo carter😏 can I get them headphones?,10-4-2022,3
923,Nseak,nseak,,Do colab with plainrock,10-4-2022,3
924,AkameDeath,akamedeath1,,Plz pick me,10-4-2022,3
925,AG,ag6689,,I bet u wont pick me,10-4-2022,3
926,user7011060971010,tj_1234abc,,Yay,10-4-2022,3
927,user53001952245,user53001952245,,Hi,10-4-2022,3
928,JustThatCarGuy2611,justthatcarguy2611,,I have the same head set but it’s black,10-4-2022,3
929,rti_water,rti_water,,Pls me I have the night mic,10-4-2022,3
930,Neil O Brien,neilobrien3,,yup,10-4-2022,3
931,Hi,jjlyman2009,,Me plz,10-4-2022,3
932,Shimo.Yuki,frostedicee_,,Those razor krakens are more broke than me after playing genshin for 1 year,10-4-2022,3
933,Relijah Rivera,relijahrivera,,Me I’m broke,10-4-2022,3
934,Elite_Golden_yt,drgoldenx,,I need headset,10-4-2022,3
935,sebi,grimbase,,my baby brother cut mine with pliers so gimmie gimmie,10-4-2022,3
936,......,startrap1,,fax,10-4-2022,3
937,Amplify,amplify77,,yay headphones,10-4-2022,3
938,Matt Deboer,mattdeboer1220,,Yo can i have some headphones,10-4-2022,3
939,.,notshinokage,,😎,10-4-2022,3
940,sam,sammfagann,,i kinda wanr the headphones,10-4-2022,3
941,Stephanie,toesfred,,Hi,10-4-2022,3
942,dhruvilpatel5201,dhruvilpatel5201,,I WANT PLEASE,10-4-2022,3
943,Account,yfufyffugi,,Plea 🥰,10-4-2022,3
944,Noah Boney,fishmannika88,,Crazy muffs,10-4-2022,3
945,_KeshavSharma,sharmakeshav0123,,I really need headphones plz🙏,10-4-2022,3
946,User,prosaic,,I’m using a dollar tree earbuds,10-4-2022,3
947,Leighton,zxqce,,give me headphone,10-4-2022,3
948,Cat,frosty_loves_jesus,,I’m gonna win 🥇,10-4-2022,3
949,MECH7274,mech7274,,I love cats,10-4-2022,3
950,Delta,duhbeedd,,I can guarantee i wont win,10-4-2022,3
951,expirrd,expirrd,,Ok gimme,10-4-2022,3
952,gabe,gabriel.0314,,i use apple wired headphones,10-4-2022,3
953,C14ty2,c14ty3,,Did you get the same Pair of headphones,10-4-2022,3
954,Trabenaski,trabenaski,,"yo, I mean i woukdnt minf a new good headset",10-4-2022,3
955,Keerit Pandher,lakers_fan48,,Me,10-4-2022,3
956,Reid,duglyuuckling,,I have to use an Xbox eye for a mic I don’t have anything else I need them pls,10-4-2022,3
957,itsonlytonyy,itsonlytonyy,,I still use my monitor speakers a pair of head phones would be great 😂 @Carterpcs,10-4-2022,3
958,Nathan Huckelby,nhuckelby,,A new pair of headphones would be nice,10-4-2022,3
959,Synthell,synthell,,Pls me,10-4-2022,3
960,Wyatt,onespiceyboi,,"I mean, like I'm always open, plus I live in Michigan.",10-4-2022,3
961,big fushy,x_pp02,,i have earbuds pls hook it up with those hyperx headphones,10-4-2022,3
962,Luxedø,lux3do_,,ahh,10-4-2022,3
963,Madara,madara.cb,,Gimme headbones >:(,10-4-2022,3
964,Ali Burhanuddin,aliburh05,,Can i have them pls,10-4-2022,3
965,ryker,rykeeer_,,I want headphones,10-4-2022,3
966,Mark,tzee_757,,Lol.,10-4-2022,3
967,Aanand,aanond127,,i’m brown,10-4-2022,3
968,Jake Del,bigpapijakedel,,Ayo carter lemme get that headset shawty,10-4-2022,3
969,Oren_S,o_sed117,,please bro,10-4-2022,3
970,Andrew Monterroso,m1n1.drew,,Pwease pick me 🥺,10-4-2022,3
971,Ilyaz,fw.ilyaz,,bro me please,10-4-2022,3
972,Sean Nugent,insertnamehere1457,,Beep boos,10-4-2022,3
973,Brady,brady_vs_wrld,,I’ll take em,10-4-2022,3
974,Mia S.,miaevelyn707,,Honestly razer don’t fit my ears the way they should which is disappointing because they’re the first gaming headphones I’ve ever had,10-4-2022,3
975,B🧿🧿bies,zforgets,,"😻😻😻Carter did you do your hair today ,💕😻💪(please pick me)",10-4-2022,3
976,Nathan Cayot,nathanncayot,,Ong I need them,10-4-2022,3
977,the most normal account,atotalynormal,,Maybe me,10-4-2022,3
978,Swag man Buford,swagmanbuford,,Hello,10-4-2022,3
979,Cannon Barrett,saltywaffle183,,id love a pair of hyper x alphas,10-4-2022,3
980,Andy,andyyyyylaw,,gimme the headphones [angry],10-4-2022,3
981,jomama,thebeanerbarber,,could I get a pair please?,10-4-2022,3
982,jacobseiff,jacob_seiffert,,I thought razors headphones were cool😭,10-4-2022,3
983,LIL(seki)OFFiCAl💫⚡️🔥,heartless_seki,,I dont have a microphone pls can i get it,10-4-2022,3
984,nessie,jay_20700,,me daddy pwease UwU,10-4-2022,3
985,Derektheme,derektheme,,Hello,10-4-2022,3
986,Nick,nicolas.lmao24,,word dawg,10-4-2022,3
987,.,youarenowmanualybreathin,,bro i got them bugha headphones💀 i need this,10-4-2022,3
988,.,piearsz,,nice (gimme headphones pls),10-4-2022,3
989,Bartholomew III,kscoma69,,Head phones he giving away nah my ear buds yee,10-4-2022,3
990,Ethan Lucker,ethanlucker0,,im using dollar tree headphones,10-4-2022,3
991,Yes I watch the flash,schwaylif3,,I don’t like green,10-4-2022,3
992,casen,casen_wise,,Elden ring players be like,10-4-2022,3
993,Psn: CapalotDesires-,capalotdesires,,Pls daddy Cartier,10-4-2022,3
994,Kanji Demon 👾🫶🏽,sxai.wz,,I don’t even have headphones so please me lol 😥🤨,10-4-2022,3
995,Riplckpapa,lckpapajr,,Please me my mom has cancer,10-4-2022,3
996,McLaren P1 GTR,mclaren_p1_gtr_,,Igloo,10-4-2022,3
997,matt,mattkoee,,instead of ft my freinds a headset would be nice,10-4-2022,3
998,Merc’d,.mercd,,Hello I need a new headset😅,10-4-2022,3
999,Nico ?,.___.nico.__,,the second time u ran it over was personal..,10-4-2022,3
1000,Jose,josexcampos5,,hey man,10-4-2022,3
1001,docked,dockedz,,apple,10-4-2022,3
1002,Jacob Adams,jacobadams66,,I'm using dollaramma headphones in a game based off of hearing and Intel,10-4-2022,3
1003,Finn O,finn_o574,,👰🏼‍♂️,10-4-2022,3
1004,Alex Aviation ✈️,alexaviation1,,first try already destroyed Lol,10-4-2022,3
1005,You are a scammer,medeirosbrian,,Frog,10-4-2022,3
1006,big mike,mback142,,carter you are so sexy,10-4-2022,3
1007,Arnas Jay,beanbagbastard,,headphones would be cool and greatly reduce my deaths of being snuck up on by creepers,10-4-2022,3
1008,⚡️🐐,eletric.derwin,,Ok,10-4-2022,3
1009,Aj,aj.sou,,I’m completely messed up my razer krakens 😭,10-4-2022,3
1010,Sushiboiweeb,sushi_manz,,"hey bro, nice come up hoping I win",10-4-2022,3
1011,Winston,42winwhite,,Hi carter,10-4-2022,3
