,Comment Number (ID),Nickname,User @,Comment Text,Time,Likes
1,Phone · Ersteller,tweh18,,My page have your wants,15-9-2021,
2,ihlas,ihlas1111111111,,how match in srilanka prise,17-9-2021,
3,Davis Dready,dready_1,,luxury right there,14-9-2021,
4,Heaven,heavenz64,,that is beautiful,19-9-2021,
5,Craciun Gabriel Mirc,craciungabrielmir,,Price ?,14-9-2021,
6,simonhen,siteddyhen,,where can I find does phone?,22-9-2021,
7,anan_diaz2,anan_diaz2,,wow nice 🥰🥰,28-9-2021,
8,janerosebaybayon,janerosebaybayon,,me plss,6-10-2021,
9,Bogdan T,booghy80,,wow 😳😳,13-10-2021,
10,ifaqemensimli,ifaqemensimli,,Salam bu telefonlar necyedi,22-9-2021,
11,Roosevelt Winfrey909,rooswin,,How much and where can I get this 📞???🥰🥰🥰,24-9-2021,
12,Rafał Zalwert,user37057835,,How much does it cost,6-10-2021,
13,judawamekuwansi,judawamekuwansi,,I likethis kind can you tell me how much it cost so I can get one,4-10-2021,
14,Z31D_,elzeid13,,"Hello,is it for sales.",23-9-2021,
15,user9716595153896,nabinshahi888,,howmaney price sir,5-10-2021,
16,sexyboo,lovely_watches,,l need this pls,26-9-2021,
17,Chris Sands,chrissands60,,very nice,21-9-2021,
18,user8934798216343,kitty571963,,Gorgeous,29-9-2021,
19,user2170875219538,d.s.v5,,yau mac,22-9-2021,
20,Phathutshedzo Nemali,king_nema,,guys I need the name of that Huawei 🥺,1-10-2021,
21,Maiara Bomfim,maiarabonfim18,,fy🥰,21-9-2021,
22,Sal amorim,sal.amorim_oficial,,muito top,18-9-2021,
23,maisakrause710,maisakrause710,,Que chik meu faz uma doação de um celular pra mim sou uma pessoa bem simples😳😳😳😳,17-9-2021,
24,liaalves2215,divinamariaalves496gmail,,preciso ganhar na lotofácil,16-9-2021,
25,Simone Dias Cunha,simonediascunha,,meu sonho,16-9-2021,
26,sla..kskss,sla..kskss,,da pra jogar GTA 5??,19-9-2021,
27,thiagocebola190,thiagocebola190,,Me senti mal agora 😁😁😁,20-9-2021,
28,Janaína Andrade,janainaandrade69,,eu pobre olhando isso 😪,20-9-2021,
29,GABRIEL OLIVEIR,gabrielolive2,,top,18-9-2021,
30,luccage8,luccage8,,nossa que engraçado a moça tá mexendo numa coisa que vale a minha casa e a minha vida😬,19-9-2021,
31,Reinaldo Mendes Santana,adyonys,,qual nome qual valor y onde eu encontro jovem,19-9-2021,
32,lokis.34,cristianyester34,,k modelo es el dorado es divino yo lo kiero,14-9-2021,
33,helder pereira,helderredley,,deve custar um rim aii,19-9-2021,
34,user224169060__RiCh@rd,5_18ricardo,,"NO ME PARECE 😒
....😒😒
NADA PRACTICO ,ESTE MODELITO",14-9-2021,
35,Yanespecialfamiliaama,yanfamiliakleo,,Boa.noite,19-9-2021,
36,user9925072533769,olinda284,,legar mesmo,15-9-2021,
37,Fernanda Rodrigues,fernandacorinthiana,,sonho meu😂😂,16-9-2021,
38,Thales Cuiabano,thalescuiabano,,eu quero,18-9-2021,
39,divinaoliveira752,divinaoliveira752,,Boa tarde queria um não precisava você chique não simples mesmo😳😳😳😳😳😳,19-9-2021,
40,TONINHO,toninho2237,,toninho abraço,18-9-2021,
41,alexandrehenrique813,alexandrehenrique813,,chique demais,17-9-2021,
42,Margarete Dias,margaretedias40,,Muito lindooo🥰🥰😁,17-9-2021,
43,toft101,toft101,,Seguindo juntos somos mais,19-9-2021,
44,Paulo Gabriel,paulo_gabrielll,,eu pensando que era um morfador do power ranger,18-9-2021,
45,レミィ,remiygood,,なにこれ？,19-9-2021,
46,Kakashi Hatake,viniciusolivei6830,,meda um o meu so trava,19-9-2021,
47,Matheus Soares,matheussoares983,,ainda sim deve tá mais barato que iPhone,18-9-2021,
48,Isabel Cristina Sousa Grillo,belcris270,,É quanto,3-10-2021,
49,Gabrielle Ferro,princesa_morango,,"@andreluiz_5 que agonia mds, sério, credo",9-10-2021,
50,mateussilvamt04,mateussilvamt04,,kkkkk,2-10-2021,
51,Decio Ferreira709,decioantonioofc,,Boa noite,7-10-2021,
52,Maria Zélia Xavier D,mariazeliax86,,eu quero sim ♥️,1-10-2021,
53,nelcineiadasneves,nelcineiadasneves,,tudo de bom e gratidao,24-9-2021,
54,drika,anadrianak,,"lindos! Pra quem pode tá ótimo, mascnão enche meus olhos",22-9-2021,
55,rosanirafafragagmail.com,rosanirafafragagmail.com,,Afeeeee.... sou pobre nem sonho,4-10-2021,
56,morenamotta122,morenamotta122,,top,23-9-2021,
57,arlecipaivamacedo,arlecipaivamacedo,,que da hora,8-10-2021,
58,Isabel Cristina Sousa Grillo,belcris270,,Eu quero um desse,3-10-2021,
59,Joana Soares5579,joanasoares020,,Gostei 🥰🥰,5-10-2021,
60,404 Error,barmalei102,,цыганская радость! и камера 5 Мп. 😂👍,5-12-2021,
61,dannycosta2014,dannycosta2014,,"meu Deus que coisa mais linda 🥰🥰🥰🥰🥰🥰🥰🥰🥰🥰🥰🥰
isso deve custa uma nota 🥺🥺",22-9-2021,
62,ricardomateus465,ricardomateus465,,o garoto UAL,26-9-2021,
63,como_podeacontece,como_podeacontece,,top demais,26-9-2021,
64,silver2378,silver2378,,класс,24-9-2021,
65,user2516097947212,luciana7costa,,E eu que estava me achando com meu A10,2-10-2021,
66,dyvkw9vmgd0f,dyvkw9vmgd0f,,qual é ó valor dese primeiro selular,5-10-2021,
67,DEUS GREGO?,euslkoreo,,@madnessa_tvdu a pergunta e pra q isso,1-11-2021,
68,Roger Marcelo Kaba,rogermarcelokaba,,me da o seu antigo 😁,21-9-2021,
69,eliananobre38,eliananobre38,,lindo,7-10-2021,
70,Sonia.marciano,soniamarciano2,,kkkkkk,8-10-2021,
71,Betodoria22,betodoria22,,amém,4-10-2021,
72,cristian 5589,5589cristian,,creo no llegar ni para la recarga de estos tlf,22-9-2021,
73,Rosemeire Vieira,rosemeirevieira05,,que lindo,20-9-2021,
74,user2250876663423,user2250876663423,,واو كتير حلو,4-10-2021,
75,SE LIGA HEIN,rapunzeldasquebrada,,o brasileiro chora,10-10-2021,
76,mariainesgomes743,mariainesgomes743,,Eu quero dim🥰🥰 🤪,13-10-2021,
77,user46317922377162,user46317922377162,,É desse jeito mesmo,13-10-2021,
78,Алексей,aleks30603326642,,Цена какая????,19-9-2021,
79,dyq2sv6nsecx Flávio Henrique R,dyq2sv6nsecx,,oi,20-9-2021,
80,terezinhageneroso8tere,terezinhageneroso8tere,,prefiro uma geladeira,24-10-2021,
81,Sueli De Souza Ro765,suelidesouzasou,,viu arrastar pra cima fiquei deprê 🥺😂,17-10-2021,
82,Jussara Carvalho,luciacarvalho333,,Quero um,9-10-2021,
83,gilvanaborgesdeandrade,gilvanaborgesdeandrade,,maravilhoso lindo,30-9-2021,
84,Aline Lauffer,alinelauffer_oficial,,🥺🥺🥺 e eu aqui só querendo um smartphone que dure mais a bateria 😭,29-9-2021,
85,Lis,elisaelisa201,,meeee,26-9-2021,
86,Valdir Lourenço 289,valdirlourenco289,,eu quero um,8-10-2021,
87,andresomcastro,andresomcastro,,onde comprar,21-9-2021,
88,izildaguedesrocha10,izildaguedesrocha10,,NOSSA amei quero um 😭😭😭😭😭😭,29-9-2021,
89,cleidearaujo5851,cleidearaujo5851,,😳😳😳 munitobom,29-9-2021,
90,Iracema Paim Langer,iracemapaim60,,para mim possuir um celular desse eu tenho que fazer mais de 100 mil comentários para ver se eu consigo um igualzinho mas vou esperar,9-10-2021,
91,fer♡x:fav,mona0978,,Los vende los teléfonos ?,22-9-2021,
92,mi Reyna,joannaramos848,,ni para una funda me alcanza para mi cel de plástico😅😂😂😂,10-10-2021,
93,😐,miriyeff07,,sevgilim gösterişli olmasın dedikden sonra istediyin telefon,6-12-2021,
94,{ waaaw },p3qu3no_m0,,eu pedi do meu pai esse tablet que dobrar aí ele falo que vai comprar pq tá na promoção,7-10-2021,
95,Rosacomoumarosa,rosacomoumarosa,,tô precisando de uma capinha dessa manda uma para mim😌😌😌😌😌,30-9-2021,
96,YOKOHAMA LOVE,yokohamalove0,,"スマホかっこいい
iPhoneて本当に遅れてる",2-10-2021,
97,Rositania Andrade,tania04128,,só nos sonhos 😳😳😳uau 😂🥰,29-9-2021,
98,Angela Maria dos Santos,angelamariadossantos017g,,eu quero,26-9-2021,
99,nadin5174,nadin5174,,этот телефон стоит не поверите 421.838тыс.рублей или 38000 китайских юаней,2-11-2021,
100,daisdradosadosana,daisdradosadosana,,oi,6-10-2021,
101,erivaldoodara,erivaldoodara,,BOA TARDE JÁ FIZ MINHA PARTE,24-9-2021,
102,nhomkinhgiahan-tiktok,vannhan.tiktok,,cho xin giá với ạ,8-10-2021,
103,mariaroselaniaferrei,mariaroselaniaferreira,,Boa noite amiga que deus tia besoi muito obrigado Deus abençoe sua vida muito bom verdade 👍🏻👍🏻👍🏻👍🏻🤑🤑🤑🤑,25-9-2021,
104,Suleni Santos,senhora816,,Boa noite 🥰,27-9-2021,
105,madallena😍,corinthianana,,alguém comprando Rii😂😂😂😂😂,8-10-2021,
106,Rivaldo Soares,rivaldosoares28,,legal gostei desses vídeo🥰🥰,28-9-2021,
107,@vera25,user09848431vera25,,coisa de Rico😳,9-10-2021,
108,vicentina PS,vicentinadepaulas,,Que riqueza a capa desse 🥰🥰,25-9-2021,
109,Janaína,janinha03k,,ainda prefiro meu j8😊🙌,13-10-2021,
110,Delciu,dkmarajo,,maralilha,8-10-2021,
111,Eliane Carmindo,elianecarmindo,,MEU DEUS EXISTE ISSO 😱😱😱😱😱😱😱😱😱😱😱😱😱,29-9-2021,
112,Joseli,josy1666,,deve ser bem caro longe das minhas possibilidades 🙄🤔,23-10-2021,
113,Aliandro Dias,aliandrodias0,,Nem todos os meus órgãos compram,30-10-2021,
114,Lenaaaaa 🦋🌹,helenamaria_18,,"Eu olhando o 1° celular: 🤮🤢🥴
Eu quando vi o 2° celular: 😍😻🤤💖",27-10-2021,
115,Rubens francis,rubensfrancis3,,esse dimais,30-9-2021,
116,Lenaaaaa 🦋🌹,helenamaria_18,,@.o_gabriel_ Olha o 2° celular 🤤🤤💖,27-10-2021,
117,adailzaalencar,adailzaalencar,,Quero um🥺,23-10-2021,
118,user8197888269239,silviacristina00,,eu quero,12-10-2021,
119,VIVIANE,vivilouca4,,será como usar isso 😂😂😂😂😂😂😂,28-10-2021,
120,socorroamaral205,socorroamaral205,,top🥰🥰,29-10-2021,
121,suelimachado903,suelimachado903,,Opa,13-10-2021,
122,Raiane borba,raianebr0,,@tweh18 To Precisando,17-10-2021,
123,Valdilene Maia,valdilenemaia,,que sonhoooooo,18-10-2021,
124,@sakura.uchiha,lily_20ysjj,,😁😁😁😁😁lo,20-9-2021,
125,suelimachado903,suelimachado903,,fui,13-10-2021,
126,Elias de Souza,eliasctba,,show 🙏,29-10-2021,
127,.fabiana,fabiana.barbosa.34,,qem dera eu porde compra um 😅,22-10-2021,
128,user6500522719143,user6500522719143,,q lindo,15-10-2021,
129,Milton.35,miguel.248,,legal,20-9-2021,
130,suzan.ester.1,suzan.ester.1,,me fã um pelo amor de DEUS,31-10-2021,
131,Simone Gomes,simonegomes964,,que chique.so pra quem pode,2-11-2021,
132,cvgy778 серж.,cvgy778,,да так себе...😅,13-10-2021,
133,mf,miria14397,,quero muito,14-10-2021,
134,TeteNana santos,user4865590699156,,quero um,14-10-2021,
135,user7228743416829,user47294757,,这是什牌子手机？,20-9-2021,
136,user6056458348001,rosy.777,,lindos,5-10-2021,
137,Andreza Graciela de,andreza.official,,Isso é só pra admirar porque nunca vou poder comprar um. 😂😂,31-10-2021,
138,Beatriz Silva,bia0678,,Eu quero um desse😍,19-9-2021,
139,7arteguto,7arteguto,,personalizado 😏😏😏😏😏,20-9-2021,
140,Laura preciosa23,lauraoficial001,,me dá um,19-9-2021,
141,user372224598008,sabriano24,,روعه,11-10-2021,
142,capivara é o bicho mai legal,sr.ademir,,um Rin serve ?,29-10-2021,
143,Luahna Ribeiro,luahnaribeiro,,a palavra pobre de maré maré foi citada após eu nascer inspirada em mim 😅,28-10-2021,
144,Abdul Razzaq,user14609951,,مشاء الله تبارك الرحمن 💞 💓 الأول غالي كتير التاني حلو كتير دريويش 🥰😁,11-10-2021,
145,user7952167145393,rose20gmail.com1,,if that top this top cell phone must be an absurd expensive one🥰🥰🥰,11-10-2021,
146,Jacqueline Castro,jacqdavimig,,Não compraria. Aff,8-10-2021,
147,user3474734489735,minieminicolins,,😂😂😂 uma bagatela de USD 10.000,28-10-2021,
148,Rudney,.rudney,,Tem rosa ou branco?,17-10-2021,
149,IRACEMA❤💚AMORIM53💚❤🕊🦋🇧🇷?,iracema.amorim53,,muito show,30-10-2021,
150,patriciaprado869,patriciaprado869,,eu quero um,29-9-2021,
151,🧿🌞Geani Mesquita🌞🧿,geanimesquita,,top 🥰🥰🥰,28-9-2021,
152,beatrizpinheiro837,beatrizpinheiro837,,Top,17-11-2021,
153,Marcia Santos,user307123993105,,Perfeito 🥰🥰🥰🥰,8-10-2021,
154,julietemaia791,julietemaia791,,maneiro,1-11-2021,
155,user5329495533806https://vm.ti,ibraim533,,oi,6-10-2021,
156,João Vitor magne weber,quennflopp,,"eu indo compra 🏃🏃
lembro q não sou rico",8-10-2021,
157,@adih.moura31,adih.moura31,,eu achei que ela tava tirando morfador e a mofar Power Rangers,9-10-2021,
158,Fabi Felício,minhavidadeacs,,"Do jeito que o celular vive voando da minha mão, sem chance",2-11-2021,
159,Apelido: Lis,mozert9,,"gnt que isso, veio de 20100?",6-10-2021,
160,Asian Duck Queen,happyfriend922,,Is that the phone from the Power Rangers?,5-10-2021,
161,aparecidaalmeida091,aparecidaalmeida091,,Lindo d mas 🥰,16-10-2021,
162,mariadaguianas16,mariadaguianas160,,que coisa chique né é um celular muito bonito viu muito chique um bom domingo para você e tenha uma boa tarde abençoada por Deus,31-10-2021,
163,Diaaz_zk,diaaz_zk,,"NOSSA 😲 E EU AQ COM O MEU MOTOROLA TODO QUEBRADO, FIQUEI TRISTE AGR🥺",31-10-2021,
164,lucineiasouza9296,lucineiasouza9296,,adorei,1-11-2021,
165,Emilda505,emilda505,,Eu quero,2-11-2021,
166,sirleá chermout,leia359,,COISA MAS LINDA DE BONITA😁😁😁🥰🥰🥰🥰🥰,29-10-2021,
167,جميلة عسيري,jamilaasiri5,,هاذي جوال فخم علي كم,20-9-2021,
168,022Kaah_Ribeiro,022_bbzinha.do.cg,,no momento que chegar no RJ perde na hora😂😂😂😂😂😂😂,19-9-2021,
169,patriciaoliveira5531,patriciaoliveira5531,,Nossa agora que troquei o meu pro j7😂😂😂 🤑🤑,31-10-2021,
170,Leticia Bra🇧🇷🦋,leticiabra457,,Kkkk 😂😂,8-10-2021,
171,marianega35,marianega35,,oi,25-9-2021,
172,kỳ 15111980,_ky086,,đẹp,2-11-2021,
173,tata regina 22,tataregina22,,queria eu ter um celular desse,25-9-2021,
174,noemitito36,noemitito36,,que lindo eu quero um desse,8-10-2021,
175,Tassio Araújo,tassio4050,,gostei mais da caixa,30-9-2021,
176,lucienedejesus71,lucienedejesus71,,que legal,28-9-2021,
177,user7049396104828,user7049396104828,,muito top,9-10-2021,
178,Carlosrodrigues,carlosrodriguesf5,,bom dia,31-10-2021,
179,user7385485440201,mchavinny,,Eu quero,8-10-2021,
180,margaridacosta541,margaridacosta541,,Oi meu amigo,29-9-2021,
181,rosamariamachadod,rosamaria12mmm,,lindo,5-10-2021,
182,nilza,hanabolyferreira,,lindo🥰🥰🥰🥰,3-11-2021,
183,@yaraferreiradasilva,yaraoficial3,,lindo,29-9-2021,
184,Fatima Leque,fatimaleque,,Muito lindo ameiii,8-10-2021,
185,Andrea Cunha755,andreacunha755,,"Caro,caríssimo. Só um ""veio"" tipo da lancha...",8-10-2021,
186,lipebre Sharp,lipebre.sx,,celulares q custa seu rim check :D,1-11-2021,
187,diego satnos,diego28santos01gmail.co4,,é lindo,31-10-2021,
188,Vilma,vilma_bor07,,bom.dia,22-9-2021,
189,Rosane v,004381192rosane,,Que sonho esse aparelho🥰 podia dar um pra mim ne,1-11-2021,
190,Mcatharine_,mcatharine_,,eu vendo gente se achando pq tem um iPhone kkkkk,4-10-2021,
191,Angel Marcucci,angelmarcucci,,fyy,5-10-2021,
192,Carlinha🤬,vulgo_mariacascuda,,"E eu aqui com meu pocket, até começo de janeiro estarei com um iPhone7🥰",2-11-2021,
193,Joice Carla Ferreira,joicecarlaferreiradeand0,,"me senti mais pobre,se é que isso é possível😳😏😁😁😁😂",26-9-2021,
194,suzan.ester.1,suzan.ester.1,,quero um deste🥰,31-10-2021,
195,edjane Dias,mariaedjanedias,,Lindo 🥰🥰🥰,6-10-2021,
196,Reginaldo Ribeiro co,reginaldoribeirocosta,,show,21-9-2021,
197,marcelinodesousasilva,marcelinodesousasilva,,ytamara canta avalanche,13-11-2021,
198,dpovoas,dpovoas,,Midar por favor meda,1-11-2021,
199,martinamarts,martinamarts,,Hermosicimo,10-10-2021,
200,mozaoeneguinha,mozaoeneguinha,,aceita auxílio😂😂😂😂,21-9-2021,
201,Rafael Lima,rafaellimarodrigues,,esse aparelho vale minha casa😂😂 esqueci eu não tenho uma😅😅 trágico,2-11-2021,
202,Leonice Campos,leonicecampos1,,uau me apaixonei mas ta longe do meu alcance 😌,30-10-2021,
203,user7536543764277,elizandraddelfonso2000,,top amei muito lindooo,26-9-2021,
204,user344586399887,user344586399887,,класс я тоже хочу,4-10-2021,
205,dy0uaajl2tlc,dy0uaajl2tlc,,اتمنه يصير عدي واحد,6-12-2021,
206,I love you Justin Bieber,beliber_edit,,São tipos de celulares que não podemos ter no RJ e outros lugares do Brasil se não a gente e assaltado,17-11-2021,
207,cadelinha do eddie💗💭,lahzxn,,tipo de celular q eu quebraria na hora de virar ele:,17-11-2021,
208,Emilyedits,emilyeditxx,,Nokia Tijolão está diferente ninguém segura,16-11-2021,
209,Nanda boladona,atanildamendes,,Como eu queria ter dinheiro para comprar um desse mas não tenho eu queria ganhar de presente🥰🥰🥰🥰parabéns 👏👏👏👏👏👏,16-11-2021,
210,_k_a_r_i_n_a_216,_k_a_r_i_n_a_216,,дай ответ сколько стоит и где можно купить,14-10-2021,
211,Enma,enma851799432,,bellissimo per un regalo,14-10-2021,
212,🌹Herikadreams🌹,hherikadreams,,precioso...pero al alcance de poquitos...🥰🥰🥰,13-10-2021,
213,yokaira062,yokaira062,,Cuánto cuesta ese celular y este a este celular en forma de una tablet Cuánto cuesta el que se abre,13-10-2021,
214,Carol,a.vida.3.boa.xxx,,era mais fácil ter me chamado de pobre,8-10-2021,
215,@gustavin_,gustavohs7,,preciso desse cel para minha vida,4-10-2021,
216,Maisa,patriciacorrealopes,,celular da máfia chocada passada,20-9-2021,
217,たつなり252,tatsunari08,,カッコいいね世界に一つだけなのだろうか,19-9-2021,
218,خالديه✌️,8gg27,,واو واو,6-12-2021,
219,lisanana881,lisanana881,,xique,28-9-2021,
220,Marcio de Aguiar,marciodeaguiariguapesp,,interessante,1-11-2021,
221,williamvillon468,williamvillon468,,I need one pls,7-10-2021,
222,user4641642891605,jood_t3,,بدي العلبة 🥰😂,5-12-2021,
223,"ripal,salam04",ripalsalam04,,maudong bang,4-10-2021,
224,kombejulu,kombejulu,,nice,27-11-2021,
225,José Carlos,barbosasantos25,,@oie,25-9-2021,
226,Deferson barbeiro,defersonbarbeiro,,show,17-11-2021,
227,Mirian Layssa,mirianlayssa,,top,16-11-2021,
228,elcides34,elcides34,,kkk😳,13-11-2021,
229,jorgedias524,jorgedias524,,shou😜😜,23-10-2021,
230,josivaldadasilvas,josivaldadasilvas,,top,22-10-2021,
231,.___A//*•___.,totaly._.not_.akiraa,,"Ela: 😎💸
Eu: 👌👁👄👁🍜",17-10-2021,
232,sandrasantos9362,sandrasantos9362,,lindo,14-10-2021,
233,user67784620946586 alnini,alnini1,,تم,11-10-2021,
234,Venia😘😘,veniakarels1,,yoh,2-10-2021,
235,Alice,user894142305517,,eu pobre olhando😂,8-10-2021,
236,phone-part1,phonepart1,,wow so cool🥰🥰,24-1-2022,
237,naor3000,naor3000,,legal top 🥰🥰,24-11-2021,
238,Dhandara Ferreira,dhandaraferreira2020,,será meu!!🥰🥰🥰🥰🥰,24-11-2021,
239,flavioaugusto5282,flavioaugusto5282,,Boa tarde amém eu creio amém,17-11-2021,
240,marcosamaral308,marcosamaral308,,amei o segundo eu quero um é um sonho😜,17-11-2021,
241,murbackmaria123,murbackmaria123,,Legal 😎,17-11-2021,
242,Marcos Antonio Marques,professormarcosoficial,,Lindo 😳,17-11-2021,
243,Cleonice Silva,cleonicesilva407,,que legal interessante🥰,16-11-2021,
244,Clarice,clariceclaricedac2,,lindo demais adorei,15-11-2021,
245,blink_♡,blinkkk_1,,como casar com jk check,14-11-2021,
246,fabiosampaio936,fabiosampaio936,,oi boa tarde e top,13-11-2021,
247,user2339884532114,user2339884532114,,muito bonito,12-11-2021,
248,Ariia_17,ariia_17,,@askonff 😂әперші 😂,2-10-2021,
249,mdmahabub06177,mpmehedi12345,,"ভাই কি ফোন এটা,",30-9-2021,
250,james,jamesharryvillanu1,,1 pless,27-9-2021,
251,Sérgio Otávio Cardos,midasgamer3,,aqui onde moro não ia durar um dia que ia ser roubado,1-11-2021,
252,GuilhermeBR,guilhermebr261,,roda Free Fire?,1-11-2021,
253,anacristinabras2,anacristinabras2,,espetacular🥰,23-10-2021,
254,claudiutanase281,claudiutanase281,,cuesta 3200 $,13-10-2021,
255,ismail ismail,biskriismail,,الله يبارك,13-10-2021,
256,Isa,isa.cha0,,Pourrai-je en avoir un merci😁😁😁😁😁,13-10-2021,
257,netotoso(=^･ｪ･^=),hideki_chan_unu,,I want how many are,8-10-2021,
258,Delaine Ferrante,delaineferrante,,🥰🥰🥰🥰🥰 magnífico esplendoroso bellissimo ooooooooo 👏👏👏👏👏👏,20-9-2021,
259,THIAGO.MARTINN.OFICIAL,thiago.martinn.oficial,,#FYYYYYY SHOWWWW 👏🏻,5-11-2021,
260,Nadya,nadia_11.24,,И какая цена у этой чудо техники?,6-12-2021,
261,viioiiv0,viioiiv0,,두번째 폰 잘나온듯,20-11-2021,
262,Jonathan Sampaio,jonathansampaio13,,esi bacana,3-10-2021,
263,kaderkady185,kaderkady185,,ما شاء الله ربي يبارك,29-9-2021,
264,Ahmet Cengizhan25,cengizhan.380,,nasıl alabilirim,5-12-2021,
265,user1865455921450Елена,user186545592145008,,"Ну и нафига,лучше слышно?",5-12-2021,
266,RABO,rabo_2021,,а ты сколько почек продал 1 или 2,5-12-2021,
267,2paman,2paman0,,mmwen renmen konnen si téléphone sa yo dis ponib,24-9-2021,
268,uchiha_sasuke,____sasuke_uchiha______,,я цыган мне 32,5-12-2021,
269,نور,user45389296843086,,كانو خزانه مو تلفون الثاني احلى,5-12-2021,
270,كَحًيــّــلَآن آلَقــطآطشه,mhmd.lgttsh,,هليكوبتر هليكوبتر😂😂,5-12-2021,
271,Kadir,kadiryildirim1453,,Slm fıyat,5-12-2021,
272,dybnjn5wj343,dybnjn5wj343,,зачем такой телефон?,5-12-2021,
273,mishka,krianel,,у меня OUKITEL😂,6-12-2021,
274,黒ずくめ,cat.and.black,,スタパ斎藤?,3-12-2021,
275,nadin5174,nadin5174,,сколько стоит этот телефон,2-11-2021,
276,Andres Santos,andressantos208,,manda para me..,5-10-2021,
277,yo misma,rafaelailuminada,,me encanta!!👌⚘🌷🦋😘,29-9-2021,
278,user8505298086095,awelerafy431,,ce,27-9-2021,
279,Jean Claude,jeanclaudedupuy0,,superbe,24-9-2021,
280,𝙰𝚒𝚍𝚊,aida______unu,,телефон Путина😂,6-12-2021,
281,٠,dyvxdm5kwp1n,,ما شاءالله,6-12-2021,
282,I'm you friends?),w_off00,,телефон путина,6-12-2021,
283,TA13618,ta816tp95,,Hanmac Bon7 2900$,5-12-2021,
284,user5597030095677. Lola,lolitena2,,El mio está roto 😅😅😅😅😅,5-12-2021,
285,user2250876663423,user2250876663423,,هاي,11-12-2021,
286,mathanmathan7495,mathanmathan7495,,berapa harga,7-12-2021,
287,user2213358009615,salmasoso166,,مشاء الله,6-12-2021,
288,CiCibebe,eminkff,,abi pubg açarmığğğ,6-12-2021,
289,Berke,berke0072,,Son,6-12-2021,
290,Лайк не жалко,asylff09,,у меня есть почка,6-12-2021,
291,Я не понимнюсвоё имя,dytwo8ox9rg8,,пов: мы нашли ТеЛеФоН ПуТиНа,5-12-2021,
292,David Calderón Patón,elincorformista,,como se llama ese modelo?,5-12-2021,
293,carlosriberatoled,carlosriberatoled,,marca yujiro hanma deven ser poderosos 😅,5-12-2021,
294,carlosbalbuena566,carlosbalbuena566,,estamos hablando de los dos riñones o todos los de mi familia😂😂,5-12-2021,
295,Моська),moska511,,огооо 🥰,5-12-2021,
296,Anna 🌹🌹👄❤️🎭☕☕🌹🔥👄 amo-te,annarosa_43,,UHAU,5-12-2021,
297,izaakkoese,izaakkoese,,als je er eentje over hebt,5-12-2021,
298,Bakili balasi,elican_aliyev,,skolko stoit?,5-12-2021,
299,rafaelamarcal688,rafinha787,,wow how beautiful 🇧🇷🥰,5-12-2021,
300,user25087198997314,jairsoares1201,,intedi. nada.,4-12-2021,
301,Semprefiel,sempre2022fiel,,Top👏👏👏❤️👍,4-12-2021,
302,jpriquelme1,jpriquelme1,,oi,3-12-2021,
303,flor de lis,flordelis050,,vou ter um desse,27-11-2021,
304,lay:(:,lay20240,,deve valer minha casa c tds os móveis🤡,27-11-2021,
305,nihaaaa6,nihaaaa6,,lindo🥰,27-11-2021,
306,liliane,princesaperola2,,show!!😍♥️,26-11-2021,
307,Jeferson Salgado,jefersonsalgado91,,🥺🥺🥺😁😁😁😁😁eu quero um desse,25-11-2021,
308,laurocorrea0 Lauro,laurocorrea0,,um luxo só.,25-11-2021,
309,marilenedaneluz79Mari,marilenedaneluz79,,Meee😳 maravilhoso 👏👏 lindo 😍.Top demais,25-11-2021,
310,dayana,dayanamelo205,,uauauauau,25-11-2021,
311,Gildete Gois lopes,gildedgoislopes,,são lindos uma boa venda para você que Deus te abençoe cada dia mais guia seus passos onde você andar🥰,24-11-2021,
312,Izabel telles,beltelles77,,OMG !!!! necessito de um desse!!!!!!,23-11-2021,
313,Fátima. Borges. Matos,fatima.borges.matos,,Fy🥰🥰,23-11-2021,
314,katiagomes870,katiagomes870,,"amei,🥰🥰🥰🥰",22-11-2021,
315,jef,jeff_da_100k,,top 10 celulares que eu não queria nem se me desse,22-11-2021,
316,MurielS2,muriel0166,,Eu achei que era um carro kakakakakaka,22-11-2021,
317,𝖞𝖚𝖗𝖎.⅝.ㅅㄺ.🏴,perry_yuri,,me sinti humilhado,21-11-2021,
318,Mara Brites,marabrites0,,Meu Deus que lindo,20-11-2021,
319,Wanda Coelho Freitas,wandacoelhofreitas,,uau que tudo !!!,20-11-2021,
320,Grazi Kuster Kiva,grazikusterkiva,,uau,20-11-2021,
321,donfefe61,donfefe61,,eu compro ...,20-11-2021,
322,kaleny 159,kaleny19,,Top🥰🥰,20-11-2021,
323,silvioj..j,silvio..j,,eu nem quero esse aí não.......😎,20-11-2021,
324,Daniely Souza,danielysouza030,,um rim será que dá pra comprar? 😂😂,19-11-2021,
325,@joiapreciosa,preciosa9676,,top,18-11-2021,
326,Rosangela crepaldi,rosecrepaldi,,que luxo amei,18-11-2021,
327,belferreira496,belferreira496,,lindo 🥰,11-11-2021,
328,mandinha<3💗,www.mandinha.com.br,,@emeefea02 compra pra mim 😔😖😭,11-11-2021,
329,renanfariashoffma,renanfariashoffma,,e uma nave espacial,7-11-2021,
330,Edivan24,alaide493,,lindos,5-11-2021,
331,lloresx,lloresx,,oh moço tem como mandar um desses no correio pra mim?,5-11-2021,
332,Mariah Fernandez,mariahfernandez3,,só no sonho ter um desse. nem vou receber herança nem ganhar na mega 😂😂😂😂😂,2-11-2021,
333,Maria,stawz_maria,,será que uns 5 rins da pra pagar isso,2-11-2021,
334,user9210527424610,user9210527424610,,não me ânimo sei que não tenho condições nem pra sonhar com um destes,1-11-2021,
335,d⁴rk_maci,dark_marci1,,me dá um,1-11-2021,
336,wesleyrochadacruz6,wesleyrochadacruz6,,🥺🥺😰😰😥😥😢😢😭😭😭😭😥😥 só tenho j8 prime,1-11-2021,
337,Gimy Costa 726202,gemersoncosta726202,,Legal 😁,1-11-2021,
338,oliviasantosda835,senhorningue,,Vc n que me dar um desses🥺,31-10-2021,
339,SÍLVIA᭄ㅤ꧀♡,silvia.d.oliveira,,"Talvez se eu vender meus rins eu consiga compra,mãis não verei ele depois kkkk🥺",31-10-2021,
340,ALX,alxf..ajp,,"eu achando q era ""capinha"" 😳",31-10-2021,
341,marcanoalejandro601gmail,marcanoalejandro601gmail,,nossa 😳😳😳,30-10-2021,
342,rdscell615,rdscell615,,top 😂😳😳😏,30-10-2021,
343,user3440312629594rosemeire,user3440312629594rosemei,,Nossa nunca vi nada igual,29-10-2021,
344,ritacassia964584,ritacassia964584,,lindo,29-10-2021,
345,marcospaulodecampos2,marcospaulodecampos2,,eu quero por favor 😢😢😢😢😢,28-10-2021,
346,Iracema378,oiracema378,,Lindos muito Top,28-10-2021,
347,um Cleiton apenas,cauafelipe018,,o prefeito cll e um nokia só que presta,28-10-2021,
348,Erivaldo Gonçalves S,erivaldogs,,top,28-10-2021,
349,777777,nimcaanqurux,,Ilake pone,27-10-2021,
350,fatimaferreira9611,fatimaferreira9611,,Olá 🥰🥰🥰🥰🥰🥰,26-10-2021,
351,user2658057248784,user2658057248784,,Eu quero muito mais muito muito muito,26-10-2021,
352,sirleiaparecida853sirlei,sirleiaparecida853,,boa noite,24-10-2021,
353,jose25750,jose25750,,"@
boa tarde 😘💐😽😘😘😘😘💐😽",21-10-2021,
354,nairbatistadasi,nairbatistadasilv,,legal🥰,17-10-2021,
355,user5945041536784,lisandrolu,,lisandroluismargoteefamiliares,16-10-2021,
356,aparecidaalmeida091,aparecidaalmeida091,,amei 🥰,16-10-2021,
357,꧁༺♡Ceiça luz ♡༻,maria.vicente_oficial,,queria eu ter celular bom para fazer meus vídeos,14-10-2021,
358,assunta gioia,susygioia,,bellissimo,13-10-2021,
359,bruno,bruninhogbcell,,mais trabalho pra nós técnicos,11-10-2021,
360,IoniraOliveira123,ionira123,,Lindo 😳😳😳😳😳,11-10-2021,
361,Aliens,aliens078,,Abonnement,10-10-2021,
362,danielsilva7535,danielsilva7535,,rapaz que legal,10-10-2021,
363,eocavalo,cavalo_67,,eu n pago 100000 bilhões em um celular nunca na minha vida.,9-10-2021,
364,rose,rosev128,,"Já kero, a não me lembrei que sou pobre 😳😂😂",8-10-2021,
365,joaoart63,joaoart63,,me chamou de pobre em 195 línguas,8-10-2021,
366,Marcinha Ruiva,marcinharuiva,,lindo celular,8-10-2021,
367,Zelair Palagar,zelairpalagar0,,Boa tarde,29-9-2021,
368,jhonspenselfranco,jhonspenselfranco,,una pregunta esos telefonos los compras o te lo regalan por esos telefonos me facinan parese que son muy caros 🤔😊,28-9-2021,
369,sigo de volta,gabriel_duarte_melofc,,me chamou de pobre em mil línguas diferentes,28-9-2021,
370,io,edilnkkkkk0,,boa noite,27-9-2021,
371,Renato Santos,renatosantos0088,,isso só aparece quando o dinheiro acaba,25-9-2021,
372,Fabiano Carvalho,fabianocarvalho291,,SHOW,25-9-2021,
373,mansatacand,mansatacand,,eu quero,24-9-2021,
374,Maira Borges,mairaborges33,,Boa tarde 🌹🌹🌹🌹,23-9-2021,
375,Mzl PRO,satiswaran48,,anne ini belli mana,23-9-2021,
376,pfo pferer,pfopferer,,"Is nur um Angeben gut, technisch ist das Schrott",13-10-2021,
377,Adriano Guedes,adrianoguedes0,,onde eu consigo comprar um desses,28-10-2021,
378,RO53SE60,ro53se60,,Quero um,8-10-2021,
379,Luluzinha 09876,luzinha_09876,,que lindo 😍❣️❣️😍❣️❣️❣️❣️,22-10-2021,
380,givaldosoaresdasi,givaldo20210,,que coisa linda e,20-10-2021,
381,isaacmendell84,isaacmendell84,,Muito legal,1-10-2021,
382,londoño@123,www.tiktok.com.diogenes,,cuando cuenta,19-9-2021,
383,dyxibepmrhbm,dyxibepmrhbm,,كيف بدنا نوصي الرجاء الرد,6-12-2021,
384,naigorus88,naigorus88,,moi je préfère le coffret a cigare,5-12-2021,
385,Tharun Rajesh Gunturi,tharunrajeshgun,,how much,25-9-2021,
386,user6374793293486,derr14cklove,,so nice price how much,23-9-2021,
387,Marco Antônio,marco.a.ribeiro,,muito legal mesmo viu parabéns pelo seu vídeo😳😳😳😳,20-9-2021,
388,Alfonso,alfonso_1973,,"Frases y reflexiones:♡ℱℰℒⅈℤ ⅅⅈᗅ ᗅℳⅈℊa♡
　★ ★　　　　 ★ ★
★　　　★　★　　　★
★　　　　 ★ 　　　　★
★　　　　　　　　　★
　★ ♡♡♡♡♡♡♡★
　　★　　　　 　★
　　　★　　　 ★
　　　　★　★
　　　　　★apoyando✍",5-12-2021,
389,Vinícius Alves,vinithegameer1,,ok.... qm vem cmg assaltar? kakakaka,1-11-2021,
390,user7458528847717teca,user7458528847717teca,,EU quero 😳,28-10-2021,
391,JeffersonSena,jeff.senna,,Eu quero 🥰,13-10-2021,
392,Oddball,oddball_666,,Заходи если интересен питер,6-12-2021,
393,m00n866,m00n866,,😐can anyone buy me mobile like those?,6-12-2021,
394,Anton Waechter,antonwaechter,,oh yes women like expensive staff but she don't like to work. She sitting then worker on his shoulder.,5-12-2021,
395,Josearnaldosilva,j.arnaldojk,,manda um desse pra mim,27-11-2021,
396,Luana Sharon,luanasharon,,aii ja quero,22-11-2021,
397,Leon & Clara,mariadosocorrosou102,,Meu sonho um aparelho desses🥰🥰🥰,18-11-2021,
398,tania Vasconcellos,taniavasconcello2tan,,eu quero🥰🥰🥰🥰🥰🥰🥰,28-10-2021,
399,uma otaka,alana_falsa,,"Please give me the second, please, new follower.🥺",8-10-2021,
400,julhyajesusbusato,julhyajesusbusato,,me dá,21-9-2021,
401,Fabricio Lima Lima,fabriciolima862,,Show belas Maquinas,21-9-2021,
402,HOAN.🤞 37,dyck1zrmgkkc,,máy này giá bao tiền vậy,30-9-2021,
403,cecilia,ceciliagsjsh,,se cai nosso rosto quebra todo prefiro um nokia,1-11-2021,
404,biaamorim121,biaamorim121,,DEU 300 mil reais moço,1-11-2021,
405,Adriana Neves,adriananeves525,,chato ser milionário ter que escolher qual usar hoje😏,26-10-2021,
406,Val Ribeiro,valmira1961,,lindo celular lindo e o meu tão antigo um beijo,23-10-2021,
407,Júnior poeta .,jrpoeta2610,,@jrpoeta2610:olá adorei seu trabalho e quero que sejamos recíprocos em tudo dê bom Jr poeta agrada de vc bjs,6-10-2021,
408,heltonmelo138,heltonmelo138,,e uns pobres que compra iPhone e acha que é rico.....,4-10-2021,
409,jonhy416,jonhy416,,quanto tá custando um desse,28-9-2021,
410,JANARA COMANDOLLI,terapeuta_perturbada,,"E você aí se achando com um iPhone 12 😂😂😂🤡🤡🤡🤡🤡🤡🤡 _____esse tel da caixa está 10 mil dólares:a prova dágua, inquebrável e ouro___😂😂😂🤡",20-9-2021,
411,naay_canto,naay_canto,,morfador do pawer ranger preto😂😂😂😂😂,31-10-2021,
412,laio brasileño,laio3205,,que evolución,10-10-2021,
413,prazer Mel,itz_melxx0,,3 rins da?,8-10-2021,
414,Marly Salles,marlysalles0,,custa quanto,23-9-2021,
415,Jose Gonzalez,josego34,,Que frivolidad,5-12-2021,
416,atlas2829,atlas2829,,isso cai na sua cara sua cara entra para dentro,5-12-2021,
417,KellyGomes,kellygf3,,"O pessoal do iPhone de mais de 5 mil, vendo um desse😳",26-11-2021,
418,Arthur e Fanny,arthurmatheusguar,,isso custa mais que meu rin😂😂😅😅,21-11-2021,
419,bielzim.gstz7,biel.exe..7,,será q roda um fogara,19-11-2021,
420,Lucia Helena,lucia_helena48,,nossa que celular lindo é o celular do meu sonho🥰🥰🥰,4-11-2021,
421,Blessed,user7840719807818,,Estes celular de abrir e fechar já teve muito problemas. Tomara que tenham melhorado.pois eu mesmo do jeito que uso celular abri fecha vai quebrar li,2-11-2021,
422,Naldo Goncalves,naldogoncalves4,,DEVE DE SER MAIS CARO QUE UM AVIÃO.😂😂😂😂😂😂,31-10-2021,
423,caduuu,caduuuu.01,,parte no meio pra mim e pra vc 🥺,31-10-2021,
424,alinerocha14120,alinerocha14120,,eu quero,29-10-2021,
425,Esther 1012,sara11a12,,por favor me dá o segundo por favor me dá o segundo celular eu quero muito por favor por favor por favor por favor quero chegando me dá para você pode,8-10-2021,
426,Maria Helena de brito,marysmhb1,,😱ques telefones mais xique e luxuosos🥰🥰🥰,24-9-2021,
427,윤겸,user951904596825,,Made in China.,19-10-2021,
428,Irene Ferreira,ireneferreira3091,,nem nos meus mais belos sonhos 🤤,19-9-2021,
429,IRISHMAN4EVER,irishman4ever,,is that phone from power rangers. that's funny shit. hahaha,13-10-2021,
430,Espada,grimmjow_xclusive,,giant brick of a phone,26-9-2021,
431,진실의 방으로,yongjae52,,폰은 좋아보이는건 알겠는데 기포부터 없에주면 안될가요?ㅋㅋ,19-9-2021,
432,user4703501066353,1440aa3,,فيه صليب,6-12-2021,
433,PrizrakGaming,busterkapitan1korykova1,,how much did he take from the Armenians,6-12-2021,
434,cool,chuks654,,u guys ain't following me y😭😭😭😭😭😭😭🥺😔😞,5-10-2021,
435,🌻D E L V A🌻,delvamarreta1,,fyyýyyy,30-10-2021,
436,Maria Margarida Est,mariamargarida248,,🥰🥰🥰,21-9-2021,
437,Rosilane,rosilanefarias124ofc,,😳😳😳,10-10-2021,
438,Margarete Aparecida,magaribeiro33,,😳😳😳,20-9-2021,
439,raquel felix,raquelfmattos,,😳,20-9-2021,
440,MARCELA LIMA,marcelaheloysa,,@cristinadiogo017,19-9-2021,
441,Fabiane Xavier,fabianexavier94,,@suzanebrasil395,8-10-2021,
442,A.G.Gold 📘URÂNTIA📘,bufalobilgold,,👍,4-11-2021,
443,Celma Ferreira378,celmaferreira64,,🥰🥰🥰🥰,31-10-2021,
444,mikaelmessi203,mikaelmessi203,,[cool],8-10-2021,
445,gleidson549,gleidson549,,😳😳😳😳😳😳😳😳😳😳😳😳😁😁😁😁😁,4-11-2021,
446,sla,theo._.700,,@tataxtae5,27-9-2021,
447,duchf915,duchf915,,😊😊,25-9-2021,
448,duchf915,duchf915,,@,25-9-2021,
449,dybplybavw3z,dybplybavw3z,,😇😂😂🙂,6-12-2021,
450,Otton Azevedo,ottontriunfante,,😬😬😬😬😬,20-11-2021,
451,Raquel cordoba ♥️❤️,raquelcordoba47,,🥰🥰🥰,7-11-2021,
452,neidesuzart753 suzart,neidesuzart753,,🥰🥰🥰🥰,2-11-2021,
453,user47021649434095,isabeldaveiga,,👏👏😍😍😲,1-11-2021,
454,franciscasousa3146Fran,franciscasousa3146,,😳😳😳,1-11-2021,
455,kassiavalevalle,kassiavalevalle,,@@maybeyoulove1666,31-10-2021,
456,rythellymalheiros,rythellymalheiros,,@amandaferreira803,31-10-2021,
457,Elizabeth Henrique,elizabethhenrique7,,🥺🥺,30-10-2021,
458,ⓜⓔⓘⓡⓘⓝⓗⓐ,meirinhasoares8,,😊💜💜💜👏👏👏👏😳,30-10-2021,
459,Célia Regina,celia_monque_2,,😳😳😳,29-10-2021,
460,Maria De Fátima,a.mariadefatima,,🥰🥰🥰🥰,28-10-2021,
461,JoNaSTeC GaMeS Sales,jonastecbig369,,😳😳😳😳,28-10-2021,
462,macedolucas,lucassmacedo1,,@renatoestefani,28-10-2021,
463,raimundaoliveira823,raimundaoliveira823,,😂😂😂,27-10-2021,
464,Loraine Souza,lorainesouza67,,@flaviogomes67,23-10-2021,
465,0meo no e marli ok,user3880371003600marlii,,😂😁,23-10-2021,
466,Antônia lima⚘💕🌻🇧🇷🤝💋,antonialima215,,😳😳👏👏👏👏😳😳😳👏👍❤❤,23-10-2021,
467,jose25750,jose25750,,@,21-10-2021,
468,Antonio Ferreira da,antonioferreirad6,,🤣🤣🤣🤣🤣,17-10-2021,
469,igrhaynneavalon,igrhaynneavalon,,🥰🥰🥰🥰,9-10-2021,
470,Zélia,zelia0864hj,,😳😳😳😳😳,9-10-2021,
471,Alex Frazão,olodum4,,😳😳,8-10-2021,
472,Joao Dantas,joaodantas0506,,🥰🥰🥰,7-10-2021,
473,anthonyalmeida507,anthonyalmeida507,,😏😏😏😏😏,7-10-2021,
474,camilluguirer,camilluguirer,,😎😎😎,6-10-2021,
475,andressasoares32107,andressasoares32107,,😅,5-10-2021,
476,Solange Marques,solangemarques176,,😄,5-10-2021,
477,Zenaide Ribeiro Duarte,zenaideduarte6,,🥰🥰🥰,4-10-2021,
478,mariellen12345567f,mariellen12345567f,,😂😂,3-10-2021,
479,josecarlosquinta5,josecarlosquinta5,,😃😃😃😃😃,30-9-2021,
480,irismaia150,irismaia150,,@😂😂😂😳😏,30-9-2021,
481,solrolimstevan,solrolimstevan,,🥰🥰🥰🥰🥰,28-9-2021,
482,franciscomauro291,franciscomauro291,,😎,28-9-2021,
483,Roziane Souza,rozianesouza02,,🥰,26-9-2021,
484,oi♓😶,claudiorosa00._.otaku,,@_pr3tty.anaaa,26-9-2021,
485,Alessandra Pink,pink.botelho,,🥰🥰🥰🥰🥰,25-11-2021,
486,Bibi Santos,mr.bibisantos0,,😳😳😳😳🤣🤣🤣,24-11-2021,
487,johnurgel155,johnurgel155,,😬,24-11-2021,
488,Vanivaldo Assis Barbosa,vanivaldoassisbar,,🤨🤨,22-11-2021,
489,paulogomes18506,paulogomes18506,,🥰🥰,20-11-2021,
490,NEVY,nevy_diogo,,😇😇😇😇😇,19-11-2021,
491,Mari Erly,marierly10,,😍😍😍😍,19-11-2021,
492,Maurilis Zico,mauriliszico,,😎😎😎😎😎,19-11-2021,
493,Lisandra Bueno Macie,lisandrabuenomaciel,,🥰,19-11-2021,
494,Maria Basílio,maria.sousb,,❤,18-11-2021,
495,eleni gomes de souza,elenigomesdesouza,,🤣😂,17-11-2021,
496,Adriana Silveira 🌹,dricapets,,😳😳🥰🥰🥰🥰🥰,17-11-2021,
497,user7279802642915,lyla.1993tp,,@denisleal50,12-11-2021,
498,♡︎𝑵𝑨𝑵𝑵𝒀 𝑴𝑨𝒀𝑨♡︎,pmmyzinha09,,@reflex1981,10-11-2021,
499,Angella Silva,angellasilva54,,😥,10-11-2021,
500,Angella Silva,angellasilva54,,SONHOOOOIOOOOOOOOOOOOOOOOOOOOOOOOO,10-11-2021,
501,Márcia Bagunça,marciabagunca0032,,🥰🥰🥰🥰🥰🥰🥰🥰🥰🥰🥰🥰🥰🥰,3-11-2021,
502,Luuh costa,luuhcosta33,,@veronicasilva2021v,2-11-2021,
503,josedeque..FF,josedeque..ff,,..,1-11-2021,
504,Gabrielly Vieira,gabriellyvieira124,,@walquiriavieira24,1-11-2021,
505,MoneTort,monetort,,@juliana.sgorlon @pedrotorturello5,31-10-2021,
506,✨🆓 fire✨,evellyh03,,@vennysantanaaraujo70 😳,31-10-2021,
507,desmanteladoofici,desmanteladoofici,,🤪😜😝😛🙂😆😁😄😃,31-10-2021,
508,Eulina Diamantino,eulina138,,@🥰,30-10-2021,
509,família top,top_family5,,uauuuuu,17-10-2021,
510,kikaurejfjgbsxj5385,kikaurejfjgbsxj5385,,😳😳😳,14-10-2021,
511,Naing Soe,naingsoe232,,💸,13-10-2021,
512,Travailler.cristal.façade.02,02.16.31,,👍🤝♥️,13-10-2021,
513,martina montes73,martinamontes02,,🥺🥺🥺,13-10-2021,
514,Pedro,pedrohenriquefacinibarb0,,🥰🥰🥰🥰🥰,11-10-2021,
515,Mari Maciel,mariana1010105,,@marrie1w @mari106467,9-10-2021,
516,anapauladepaula50,anapauladepaula50,,😳😳😳😳😳,9-10-2021,
517,user4325329176292,ricardoqueir0z03,,:Este celular e muito ruim pra assistir fica uma lista no meio da tela. eca,9-10-2021,
518,Cleudimar Viegas,user937943629216,,😅😅😅😅,8-10-2021,
519,Aloisio Louzado,aloisiolouzado,,😅😅😅😅😅,8-10-2021,
520,Laura Lauramurr37,keitemur,,❤❤❤❤❤❤❤❤❤❤❤❤❤❤❤❤,6-10-2021,
521,Laura Lauramurr37,keitemur,,😍😍😍😍😍😍😍😍😍😍,6-10-2021,
522,user5329495533806https://vm.ti,ibraim533,,😜,6-10-2021,
523,marciovale883,marciovale883,,😉😂,6-10-2021,
524,edenilson,edenilsonborba135,,😍😍😍😍😍,4-10-2021,
525,Md Nasim Islam,mdnasim3500,,😅😅😅😅,30-9-2021,
526,analauraana783,analauraana783,,😂😅,28-9-2021,
527,Sara Vasconcelos,saravasconcelos60,,.,27-9-2021,
528,Eunice Alves Pereira,eunicealvespereira1,,👀👀,26-9-2021,
529,gustavoferreira9892y,gustavoferreira9892y,,😬😌🥺,26-9-2021,
530,sueli melo,suelimelo087,,😁😁😁,25-9-2021,
531,jesaias62,jesaias62,,😏😏😏😏😏,24-9-2021,
532,luz.jazmin3,luz.jazmin3,,🤩🤩🤩🤩🤩🤩🤩🤩🤩🤩🤩🤩🤩🤩🤩🤩🤩🤩🤩,24-9-2021,
533,francisnelsonfons,francisnelsonsilva,,😎😎,24-9-2021,
534,user8364462273017,jeremias99123,,😂😂😂😂😂😂😂😂😂😅😅😅😅😅😅😅😅😅😅🇧🇷🇧🇷🇧🇷🇧🇷🇧🇷🇧🇷👏👏👏👏👏,22-9-2021,
535,Nilma Matias872,nilmamatias0,,😳😳😳,20-9-2021,
536,wegleisonsouza735,wegleisonsouza735,,nem meu salário por 20 anos eu compro um desse,20-9-2021,
537,Nadja Andrew,nadjaandrew,,@vitorgabrie00,19-9-2021,
538,Johnstrongman,johnstrongmanmc,,ราคา,19-9-2021,
539,esmeleon315,esmeleon315,,precio,19-9-2021,
540,eita,anaacansada,,@seemanca @kdjskxjskp Carae,19-9-2021,
541,kikaevince,kikaevince,,🤗🤗💯💯💫💥🌏🇧🇷🤩🏝🌞🧒🤠,18-9-2021,
542,M@iconsc,maiconbueno7,,Eu quero da pra mim😍😍😍,18-9-2021,
543,ǝɔᴉlɐ,lokavet,,deve valer quantos rins? 😳😁,18-9-2021,
544,Ailton Barros,ailton_barros,,Eu tenho tres dese e quatro da quele ekiko e Kiko kico e kico e kico e kico e kico e 🥰,18-9-2021,
545,Tata Silva4365,tabyta27,,queria um 🥺,18-9-2021,
546,xxxxxxxxx,jc121641,,👏👏👏👏👏👏👏👏👏👏👏,18-9-2021,
547,yllasantossouza,yllasantossouza,,o celular é lindo demais 😍,18-9-2021,
548,carolsouzaFXLN,carolsouzafxln,,😳😳😳🥺🥺🥺🥺,18-9-2021,
549,jarinkaandreeva,jarinkaandreeva,,красивые вещи...🤔😏🙄👍👍👏👏👏😱😱,17-9-2021,
550,dynbxju1f8ux,dynbxju1f8ux,,😳,17-9-2021,
551,Fernanda Luiza,fernandaluiza01,,porrammmm🥰🥰🥰🥰,17-9-2021,
552,ninikullaninikull,ninikullaninikull,,😋😅😆,16-9-2021,
553,mokete kiddo,busra11073,,that's a mart x,16-9-2021,
554,gilbertocelestin7,gilbertocelestin7,,🥰🥰😳,16-9-2021,
555,คนที่ถูกลืม,11.8.2520dan4,,สุดดีว่ะ,15-9-2021,
556,Theik Htwe,theikhtwe,,ဘယ်လောက်လဲ,14-9-2021,
557,[\\\\\\\\0\\\\\\\],x..xtstrxx..x,,@aventurera_._.2 bestie te vendo,14-9-2021,
