,Comment Number (ID),Nickname,User @,Comment Text,Time,Likes
1,Phone · Ersteller,tweh18,,My page have you wants🥰🥰 Thank you everyone,23-12-2021,
2,minagray3,minagray3,,that is some beautiful phones,19-12-2021,
3,Phone · Ersteller,tweh18,,Thank you🥰🥰,21-12-2021,
4,Mon Day,monday924,,How about google😂?… gg,19-12-2021,
5,Niro mark,niromark1,,Mate 40 🥺,20-12-2021,
6,Marcos,topmarcos,,what's the models of them?,19-12-2021,
7,abenezer246,abenezer246,,plase one,19-12-2021,
8,love is life,user37373874,,how much prize,19-12-2021,
9,Valentina,valentina43433,,nice 🥰🥰,19-12-2021,
10,user2719431103719,policedavid65,,cool,19-12-2021,
11,solo sigueme,kaneky724,,wow 😃,20-12-2021,
12,nassmanassehalag,nassmanassehalag,,Dope,20-12-2021,
13,Qutab_dxb,ghulamqutabofficial,,"Why huawii, don't have play, all apps are not available on app gallery",19-12-2021,
14,Spy ❤,fezaifezaii,,woooooooooooooooow,19-12-2021,
15,A,ag8ag,,"Which is better and newer, brother? 🥰",2-1-2022,
16,MD Mostafijur Rahm82,mdmostafijurrahm85,,price,13-3-2022,
17,Ikram Abduullah,ikramabduullah,,Hi,28-2-2022,
18,𝓜𝓭 𝓙𝓪𝓱𝓪𝓷𝓰𝓲𝓻 𝓐𝓵𝓪𝓶,sweetdreamjahangir,,nice,5-1-2022,
19,chtayyab6445,chtayyab6445,,bro price Kya ha,11-2-2022,
20,@Milkky_Angel,michealnangelo0,,look at phones here meanwhile people are just wasting their money on iphone 🤨,5-1-2022,
21,michael773096858715,bayardo722,,huawei el numero1 si no fuese por el pánico que eeuu le tuvo y que eeuu jamás compite limpiamente hoy día huawei los aplastaría,19-12-2021,
22,࿇༲࿆༫࿆࿂࿆༗ɪ ᴀᴍ ʜướɴɢ,cvh1988,,сколько,19-12-2021,
23,KAGAN,kagan_of_the_caucasus,,подарите мне один из них,26-12-2021,
24,مجودي,dypsxxe2mnt5,,عطيني هدية واحدة جوال,19-12-2021,
25,dreesk11,dreesk11,,El de la derecha es el honor magic 3..... Honor de lo mejor.. Lo recomiendo,19-12-2021,
26,Fabiix13,fxbixlx_,,"Lo mejor,, cómo celular,,",19-12-2021,
27,Ionuț Alecu,dyjj4up7gg5j,,vreau și eu unul,19-12-2021,
28,で|•𝚈𝙰𝙼𝙸🇲🇲シ︎,zawphyothu23,,mcc try ေနလို့ pin ထောက်ထားတဲ့videoလေးဝင်ကြည့်ပြီးlike copyလေးလုပ်ပေးပါလားရှင့်🥺🙏,20-12-2021,
29,user6572090997626,alan.........c.c4,,podrían decir los modelos o características porfa,19-12-2021,
30,anhchanggalang,anhchanggalang,,ước muốn của tôi lúc này,19-12-2021,
31,Garfild,garfild278,,Huawei в россии новые модели не поддерживаются с 2020г😏,19-12-2021,
32,ألَمْ ألْفِرْاٌقٍ,m_g_r_o_h2,,شنو اسم الجهاز,19-12-2021,
33,koki,kokobyemane,,fantastisk 😳,19-12-2021,
34,Mércia Luis Cau,mercia986,,è Huawei o quê esses?,19-12-2021,
35,Emmanuel Axel Dure Martínez,axel.dre,,Samsung nomas 😊👌,31-12-2021,
36,ابن الأفندي✌,userjmw4,,@0.suriye جهز الدولار 😎,3-1-2022,
37,3ĢÄB,aim_azma,,@kola_ff كن لقيت زي دا ما بمشي المدرسه 😂😂,5-1-2022,
38,Wtgtghd,fhgsxxhgcdhc0,,كين عند خوايا عند الحنوات,8-1-2022,
39,Yunus Akay,y_u_n_u_s_a_k_a_y,,Bence j1 Mini,9-1-2022,
40,Alg 🇩🇿,dy3mm0sxjj1s,,هادا لایتقارن بالیفون 😂😂,5-1-2022,
41,naserabdi8💖💖naser💖💖,naser3447,,شقد حقو,1-2-2022,
42,Utku_kral63,utku_kral63,,"abi bana verirmisin?
lutfen",23-1-2022,
43,Reinaldo Mendes sant,reinaldomendessan2,,Onde encontro y qual nome alguém poderia me informar,5-1-2022,
44,SHAHZAD KHAN,nadanzarghy0,,price,16-2-2022,
45,dy01ib97a0ff,dy01ib97a0ff,,цена,15-1-2022,
46,Wojtek Bro,kajtek1x2,,co to za telefony,4-1-2022,
47,Sichuan boy,zhongguo101,,华为！,2-1-2022,
48,Vedat Çetinkaya,vedatcetinkaya.14,,@suleymanaltann yakışır sana bunlardan biri,17-1-2022,
49,تىت,khaledkadro38,,تاملات قرانيه,1-2-2022,
50,azamjonhabibullayev,azamjon1113,,qaytaraman insha'Allah,24-2-2022,
51,😎🇪🇬🇵🇸-🇦🇹محتوى_منوع,3margamer2007,,واحد بتلت كاميرات والتاني بخمسة😂😂,18-3-2022,
52,Amjad M Hajjaj😼,amjadmhajjaj,,سعرو بالشيكل 9709شيكل,25-2-2022,
53,Berkay,berkay__510,,allan seven gönderir tane ondan,21-1-2022,
54,_xtq_komtan_054,xtq_komtan_054,,satilit olmaq isteyirem,15-1-2022,
55,꧁𝕄̆̈𝕠̆̈𝕤̆̈𝕙̆̈𝕒̆̈𝕜̆̈𝕖̆̈s,user389771137921255,,مترد على ميتين امى ياعم بكام التلفون ده 😂,7-1-2022,
56,Gence,gencelibalsi,,"qiymet.,: 9090000000 milyon ..üsdünde de zamanet veriller 2222222 😂😂😂",3-1-2022,
57,اْسّْمْرْ _7,mhmoo290,,ان شاء الله,13-2-2022,
58,malak 207,walaaemad207,,السعر يعملوا ١٠٠٠٠٠٠,24-2-2022,
59,bijoux858,bijoux858,,😳😳😳 très jolie,20-1-2022,
60,بهاء البكور,dylxerzgz7t6,,شو سعروو 🥰اخي 🥰,11-1-2022,
61,rajavasimli,rajavasimli,,sül,9-1-2022,
62,rajavasimli,rajavasimli,,viyad,9-1-2022,
63,Abrar Al-Wasabi,ddg940,,بّـلَيّزَزَزَ,7-1-2022,
64,Ravshan Iymamov,iymamovravshan,,Bana Huawei,5-1-2022,
65,Hümeyraayse Bozkapla,deliyiz_693,,fiyat,18-1-2022,
66,naseem,user3404993211648,,I need a one mobile,8-2-2022,
67,Samariddin,samariddin708,,hiiiiii,2-2-2022,
68,user27698848885,user27698848885,,يارب واناراحصل لا حد زيه,1-2-2022,
69,Anas_sar@,anasalsarairah,,شو فايده ما عليها متجر,30-1-2022,
70,القيصر السوري 😍😘,hassanadlby1,,@abodalidlbi1 شوف ازا بدك بس بي 1850 دولار,30-1-2022,
71,সিঙ্গেল ছেলে,dy92m0m5lu7q,,price koto,12-2-2022,
72,Ahmad_Op🇵🇸🇵🇰,ahmad_04_1,,too Expensive,11-2-2022,
73,أّبًوٌ مًحًمًدٍ,dyhbage3k74s,,@mamounalhoms جبلك واحد معي,8-2-2022,
74,🖤SEVGiM SENSEN❤️,qlsqanc_meleyim,,Neçiyedir xoşma geLdi💕😍😍,8-2-2022,
75,🖤Хамза🖤запито🖤,ham_for,,Для пабга 😏,4-2-2022,
76,user3758034188858,maximsha0,,Самый сильный Майн не потянет даже,2-2-2022,
77,Алексей,user9692334965085,,где купить можно,2-2-2022,
78,𝑆𝐻𝐴𝑀𝐸,mohamedsy_1,,اسم لغنية ياعرب؟ ؟,1-2-2022,
79,ABU DABI5,user434421ciller,,это где продаётся,1-2-2022,
80,Дьявол ✔1:,vyacheslavyurievich0,,скоко один стоит ответьте пжпжпжп,1-2-2022,
81,☠️ করোল্লা ☠️,badboytamim3,,wow ki phn Ra vai😬😳,13-2-2022,
82,isaiflores217,isaiflores217,,parece Nintendo😅😅😅,31-1-2022,
83,TONMOY 79,sheikhtonmoy783,,price koto,13-2-2022,
84,malik,pendukaka007,,Bhai plz 1 mobile ly kr dy do big fan,12-2-2022,
85,Ramzbek93,tik.tok_pubg93,,Че это корпус чтоли😂,9-2-2022,
86,Kuchimov,toshtemir60,,narxi qanchalik ekan,8-2-2022,
87,starling_608,asterai,,in love with Huawei phones 😩😩❤❤,8-2-2022,
88,hasankg6,hasankg6,,poco X3 tapiki,1-2-2022,
89,Mohamed Ezzat,xl0lmohamedl0lx,,"Huawei porsche design mate 20 rs the 3 cameras
Huawei porsche design mate 40 pro the cameras",1-2-2022,
90,Rtx Sakil80,rtxsakil09,,Huawei is the best Mobil in the world,11-2-2022,
91,Rk ★Rawdi★870,emonbaidx870,,i phone ar bap,11-2-2022,
92,Tom Singer,tomsingsmusic,,Beautiful,10-2-2022,
93,user63042576345,user63042576345,,good,10-2-2022,
94,احمد,ahmet333555,,اشحن لي تلفون قبل لا اموت,10-2-2022,
95,BH_BOY _36,bh_boy_36,,os3 bro,9-2-2022,
96,مهند الجسري,dy6bal6hz192,,شو أسمون هدول,8-2-2022,
97,omaryahya819,omaryahya819,,اداش سعرو😁,8-2-2022,
98,555,elvin5036780831669,,super,8-2-2022,
99,the nightmare,stmnightmare,,i need one😂😂,7-2-2022,
100,BLACK KING,dylba4kg5j4l,,Цена,6-2-2022,
101,MARCEDS 💪💪💪💪😈😎,maryamessam62,,بورشن دزين,3-2-2022,
102,dybzge8fluxw4,dybzge8fluxw4,,حلم,2-2-2022,
103,🇦🇪🇸🇦🌹💕,vib0000000,,🥺Wooow,2-2-2022,
104,islomjon,krasifcik,,nima bu 😱,1-2-2022,
105,S.H ART & MEDIA,s.hartmedia,,perfect,1-2-2022,
106,@həyatan_küskün_45,_aksana_1289,,super,30-1-2022,
107,ardaakpinarr,ardaakpinarrrr,,@ardaakpinarr59:😁 ⃢beğenince hereket ediyor arkadaşlar,30-1-2022,
108,MD Saeid258,mdsaeid258,,হুয়াইএ মোবাইল কি আজ কাল খাওয়া আছে নাকি,11-2-2022,
109,ال سعدون,sadonxx9,,nice,10-2-2022,
110,tepe_hakan03,tepehakan12,,babada verirmisiniz,6-2-2022,
111,Yusuf Zeren,yusufzeren25,,güzel😏😏,1-5-2022,
112,Muhammed,muhammed_hn,,2 legend,28-4-2022,
113,🇱🇾(سالم المنتصر)🇱🇾,s_a_l_e_m_al_mo_nt_aser,,@2005ffhfhh 🥰كان بتاخد,18-3-2022,
114,king Boy,benfrajmelek,,كم سعرو الجبن أشتريه🥰🥰,18-3-2022,
115,user9364546318501,jk.vai0,,price in Bangladesh,16-3-2022,
116,حارث جمجمة,harth_20005,,شنو أسم جهاز,14-3-2022,
117,amroamro1337,amroamro1337,,😳😳😳😳😳😳😳 ما احلاهم,14-3-2022,
118,Donaldo Peralta160,donaldoperalta360,,cuánto cuesta,13-3-2022,
119,AMiNe_luCas,amine_lucas,,cool,12-3-2022,
120,مصطفى صدقي,mostafasedky561,,بكام,11-3-2022,
121,user2135204137102,user2135204137102,,la la la la baraka talhna wbaraka,10-3-2022,
122,MuhriddinIsmoilov,user14246215410597,,@vuy,10-3-2022,
123,hdod26,hdod26,,تلفون اليمين اسمه هواوي بورش وسعره ب ريال سعودي 100 الف ريال,10-3-2022,
124,Mohamed Abubakar799,mohamedabubakar79moh,,price,10-3-2022,
125,HDG YT,short_movieclip,,Samsung 😏😏,8-3-2022,
126,Ashikuzzaman Shuvo 21,ashikuzzamanshuv8,,camera dakhte chai,6-3-2022,
127,AMal mahmoyb,user62771044,,ممكن اعرف انواع هم وسعرهم كم من فضلك لو سمحت,5-3-2022,
128,user722517303034,user722517303034,,😎💪Mate40 Rsهواوي,4-3-2022,
129,احمودي احمودي9603,useryiejfsbnlu,,السعر,4-3-2022,
130,ϺǗŜŤÃƑÃ ÃĤϻẸĎ,dyyxzzmkkf1o,,شو اسمها,4-3-2022,
131,محمد أمين قلة995,dyj1c1o76zpi,,اسم انمي,4-3-2022,
132,user1060914414034,joshu466,,quiero uno,4-3-2022,
133,اسامه داؤود,asamhdaaood,,ممكن ايفون ١٢ برو مكس وايفون١٣ برو مكس,3-3-2022,
134,341,abvgdey526,,Huawei p50 pro пж,3-3-2022,
135,Alhamdulillah_musulman,samadjon08,,Вот это хуавей,2-3-2022,
136,Fahim1917 Fahimkarim,fahim1917fahimkar,,ineed phone please 🥺,1-3-2022,
137,𖤐 || ☻ محـ☆ـمد ثابت,user2758386132142,,شو السعر,1-3-2022,
138,乂✰Ｈ𝕒𝔁𝓍𝓐Ň 👑 Ⓡⓐⓙρù𝕋 🔐✰乂🎁,haxxan_write,,name modo,1-3-2022,
139,osvaldecirforast3,osvaldecirforast3,,quero um,1-3-2022,
140,hadi,hadialsarmah1,,واااااااااااااو,1-3-2022,
141,シ︎𝑯𝑨𝑵𝑶𝑮𝑼𝑳_༒︎,alypolayew,,betlay ugratda TKM😏,28-2-2022,
142,Md Sohel Ali145,mdsohelali145,,মোবাইলের দাম কত ভাই,26-2-2022,
143,shamimaak7,shamimaak7,,nice,25-2-2022,
144,user9135439455997,user9135439455997,,সব ফোনের বাপ,25-2-2022,
145,🔥{S. a. m. u. r. a. i}🔥,x7_samurai7,,كام فريم في ببجي,24-2-2022,
146,sheikh_hoblos,muxammada.xoblos,,1+,24-2-2022,
147,عبدالمالك فتحي,091712vvv,,دير فيديو علي وحش الالعاب😏 وطلع تعليقي😳,24-2-2022,
148,Rajpoot No ۔1,sulehryno1,,halo,24-2-2022,
149,ناجي البصراوي,user039456526,,شنو اسم هاذ الجهاز,24-2-2022,
150,shekhzadam❤,mama_shahram_hady,,How much is it,24-2-2022,
151,Vadik Valera,vadikvalera,,cât costă un telefon te rog spune😳😳,24-2-2022,
152,user5035969520042,jeylingselenadavila,,quiero uno,24-2-2022,
153,منوعات يماني,mohmmed_699,,بكم الهواوي,23-2-2022,
154,ڪروري ♡♕,karar52,,اسعر بليز اريد واحد,23-2-2022,
155,Sardor_chik,sardor_chik008,,nomi nima ekan😳😳😳😳😳,23-2-2022,
156,jesus May God,mta121221,,hi,23-2-2022,
157,بشار ماجد الدميني,dyypuys56up7,,اتمنى يكون معي واحد منه,23-2-2022,
158,❤❤❤🔥🔥free fire🔥🔥❤❤❤,sidiaahmed00,,i have huawei y7p,22-2-2022,
159,TikTokGÃɦÃ,pubgproplayerpubg1,,@alibabich_05__ ovo nama dvojici treba,22-2-2022,
160,Admin666,admin7000567,,Это Кутокфон а не Телефон 😂😂😂😂😂,22-2-2022,
161,انوو 💋❤,dy74kgp3cmyk,,Can we get to know the price?,22-2-2022,
162,الفتاة الانيقة,abirzahzah150,,نشاء الله يرزقنا ربي كيما هذا,21-2-2022,
163,يونس سطايفي,younissatifi,,اعطهني 🙂,21-2-2022,
164,,hodasimiki,,waw,19-2-2022,
165,Muhammad Khalid bin waleed,muhammadkhalidbin7,,Nice,17-2-2022,
166,waseemshahzad449,waseemshahzad449,,price kia hin,17-2-2022,
167,Majeed Gul,majeedgul4,,both king but exps,17-2-2022,
168,Prince F,princebd927,,gift kora den ekta amak..,16-2-2022,
169,ld,sc.can1,,kosteriyon tamamda fiyatında yaz😂,16-2-2022,
170,♡«♕﷼꧁صدام♕♡ ꧂﷼♕♡» ~,sayyid969,,بلاش,16-2-2022,
171,♡«♕﷼꧁صدام♕♡ ꧂﷼♕♡» ~,sayyid969,,السعر ٢٠ الف🥰,16-2-2022,
172,Jam Shakeel211,jamshakeel35,,bro price Kia ha 🥰 plzz btaoo,15-2-2022,
173,user9373482196257,user9373482196257,,prais koto vai 😍,15-2-2022,
174,N T H RAHUL,user2646419609200,,Omg 😳😳,14-2-2022,
175,Omar ali,eldenring14,,Going down,14-2-2022,
176,user4160673268643,user4160673268643,,çox pis telvondu yaxşı işləmir,30-1-2022,
177,..ROCK..MON'',monmon0514,,i ok,30-1-2022,
178,BS・وحشے,hamedjan4545,,سلام لالا گل خوب هستی انشاالله که جور سلامت باشه لالا جان لطفن همین تیک تاک منو لایک کن و یک خواهش دارم به همین دوستانت هم همین آیدی تیک تاک منو بفرست,30-1-2022,
179,Ayomjon,ayomjon,,сколько стоит,30-1-2022,
180,ايةالاشقر,dalalalhassan3,,انا اية احمد الاشقر0011$,30-1-2022,
181,Palash Sheikh655,palashsheikhnew,,2 phones model no. plz.????,30-1-2022,
182,SYFE SYFE,syfesyfe8,,نحوس علي واحد كيفو إنشاءالله,29-1-2022,
183,Suhrob_7705,suhrob_7705,,bosing aka,29-1-2022,
184,ٱﺂبو໑ ۦَٰ تيمۘ ۦ ٱﺂڶجٓجسـۡسرٖي,hybhaldwlh130,,وين هضه,29-1-2022,
185,İsa ÖZ,isaoz55,,modelleri ne,29-1-2022,
186,Aydin Gültekin,useryfo3e3t5pf,,Merhaba hatılık mı,29-1-2022,
187,Шохрух Мамадиев,shoxrux201222,,Sotaszm,29-1-2022,
188,Poznai Koisam,poznaikoisam3,,Супер😁😁😁,28-1-2022,
189,dytsmebzollb,dytsmebzollb,,это игровые?,27-1-2022,
190,123456789bdbdbjwejdbbdwk,123456789bdbdbjwejdbbdwk,,bna b,27-1-2022,
191,İbrahim Köse,user095231016,,fiyat ne,26-1-2022,
192,gxgxvxvx3,vladimirversion1,,TESLA🚗🔌🔋 FON,26-1-2022,
193,user3675744706123,user3675744706123,,неча пул экан бу телфонла,24-1-2022,
194,✗𝚒𝚛𝚊𝚓 Mɪᴢɪ,xirajmizi007,,poco x3 pro plz,23-1-2022,
195,YT_MUNNO🌎-sı,aze_alik.pml,,oyyyyyy🥰,23-1-2022,
196,MD Nurul Hasan Joshore,hmmusalinhasan60,,many,23-1-2022,
197,MD Nurul Hasan Joshore,hmmusalinhasan60,,dam koto,23-1-2022,
198,Muhammad Showrov,muhammadshowrov171,,woww😳😳,22-1-2022,
199,user8471284770799,mehmet_adlms1213,,benim videolar niye izlenme🥰🥰,21-1-2022,
200,çingene pici,yigitbey020,,abe bana yola ne olur,21-1-2022,
201,Mustafa_gngr_73,x.cr.7.mustafa,,abi nekadar satın alıcam telefon lazım acil fiyat sonra yazar sın acil,20-1-2022,
202,kıran Mustafa,mustafakiran555,,huawei hangi seri,18-1-2022,
203,Samet👀,0s_a_m_e_t_01,,oppo pişmanlık almayın isteyen olursa bende var aldım fiyatın yarısına veririm,18-1-2022,
204,hikmet bey yaramış,hikmetbey2,,slm,17-1-2022,
205,(◍•ᴗ•◍)❤,nur8653,,ششششششششششو,17-1-2022,
206,Зверь,user4989424348788,,70 т,17-1-2022,
207,mourad,mouradscan,,واش كاين بحال هاد البوشيط ديال mate 03pro,16-1-2022,
208,Юра,svobovec,,красавцы хорошие телефоны 🥰,16-1-2022,
209,🤍03❤08🤍,ferid_g_,,@artleys03 mükəmməl diyilmi😅,16-1-2022,
210,toprak°,toprak1012141,,😳😳 muhteşem,16-1-2022,
211,Rzayev_Firdovsi 83,firdovsirzayev691,,super,16-1-2022,
212,dym8zm2j6kem,dym8zm2j6kem,,Что за модель подгони один,16-1-2022,
213,نور,norah69u,,😢حلمي,16-1-2022,
214,ياسر الغالي,0531656mnbv,,شقد السعر,15-1-2022,
215,user5688288911515,user5688288911515,,Сколько стоит,14-1-2022,
216,🇦🇫BİSMİLLAH SALEHZADEH 🇹🇷,bismillah0580,,abi banada versene,14-1-2022,
217,Руслан рупа в сети,user2854798639413,,продаёшь,14-1-2022,
218,dyxf4cfsctyn,dyxf4cfsctyn,,شكد السعر😁😁😁😁,14-1-2022,
219,Μαρία Ιωάννου,mariaioannou48,,timi,14-1-2022,
220,سالم الهياشي869,dy4e8wsvns6s,,اسم الجوال بل عربي الي ع ليمين 🥰,13-1-2022,
221,Mohamed Manaa,mohamedmanaa17,,بكام,13-1-2022,
222,كيان العربي 💔🖤📜,arad511,,نفس جهازي هسا,13-1-2022,
223,Rebar Karkuki13,rebarkarkuki0,,سعر,13-1-2022,
224,Rebar Karkuki13,rebarkarkuki0,,نرخی چەندە,13-1-2022,
225,الريس,c4.2.x,,What is the name of the device,13-1-2022,
226,Recep Eren,receperen212121,,Fiyat ne kadar kardeşim,13-1-2022,
227,𝐄𝐌𝐀𝐈𝐍,eo.8i1,,شكد سعر,13-1-2022,
228,محمد الشيخ ❤❤❤,dy1dzctk2xo2,,ووووو,12-1-2022,
229,ابودرداء,dysyg1zq2ggh,,اخي عرضلنا سوني,12-1-2022,
230,مِےـٱلَكےـ. ٱلَصِےـوٌيّےـلَحًے,515user9248931477515,,حلوو 🥰,12-1-2022,
231,حموي 『حر』,ahmadbrahem99,,شو المواصفات والاسم,12-1-2022,
232,kadir_byt63😁👑❤️,kadir_byt63,,Fiyat,12-1-2022,
233,Nguyễn lê kim Ngọc2023,nguyenlekimngoc2022,,đẹp quá,12-1-2022,
234,شعبان الكوماندا,dyddblrhh2no,,"يعمل كام
لاسوان",12-1-2022,
235,مريم الزمان,imad.890,,شو السعر,11-1-2022,
236,ابو امير العميري,abuamiralamiri2,,سعر,11-1-2022,
237,penaltigoool,penaltigoool,,Подарите😳,11-1-2022,
238,Pablo Gelvez Gelvez,pablogelvezgelvez,,Kiero uno,11-1-2022,
239,user662535119219о,behruzzon,,здравствуйте сколько стоит это телефон и где можно заказать,10-1-2022,
240,ozcan_demirkol,d_e_l_i_t_u_r_k,,fiyati nedir,10-1-2022,
241,ابو تيم,dyw5qq8k09za,,شو اسم هاد،جيهاز اشقد سعر,10-1-2022,
242,jjjjjjjjjjjj,dyc1zpf8hit7,,حبيبي انا متى تنزل,10-1-2022,
243,بنت الريف الشمالي,suriyeli_zeynep,,ياجماعة مين بيشتريلي هاد😂,10-1-2022,
244,استوريات حزينه 🥺,user8671753786163,,شنوو نوعيته,10-1-2022,
245,ماي ليزا,maya..58,,هاذا حتى بحلمي مستحيل اشوفو,10-1-2022,
246,tiktok,dgevhwuehvegwh,,eline aldığının fiyatı ney,10-1-2022,
247,Ruhan Afrin,ruhanafrin0,,ادي بتجيبو امشان ماما,9-1-2022,
248,عمر العيزان,user4002093344556,,كم سعر,9-1-2022,
249,,ugurdundarkoc.566,,İPHONE İPHONE İPHONE İPHONE İPHONE İPHONE İPHONE İPHONE İPHONE İPHONE İPHONE İPHONE İPHONE İPHONE İPHONE İPHONE İPHONE İPHONE İPHONE İPHONE İPHONE İPH,9-1-2022,
250,مهداوي,dy94t6nt3urs0,,وين الكاهن ويجيك والله ايشتري والله بيش مليون مليونين,9-1-2022,
251,.,cakmakk.21,,mclaren and porsche ed.,9-1-2022,
252,Ersel Karadogan,erselkaradogan,,Hayalimdeki telefon,9-1-2022,
253,تحديات بيس موبايل 2021,wilkhennous,,كم سعر رادمي نوع 11برو 🥺🥺,9-1-2022,
254,❤۰ ۵ N U R ۵۰ ❤,nurvestella56,,fiyat,9-1-2022,
255,said,mehmet__said63,,fiyat ne,9-1-2022,
256,ابو صالح العكيدي,dydnt0e1ehg0,,شو سم الغنيه,9-1-2022,
257,[™ok🎃 g'afforov🎃ok™],gafforov_x2006,,man olaman qata,9-1-2022,
258,ᎻᎯ ᎷᏫᎠᎻ,h.a.m.o.d.h.12,,@raed_l كوزال,9-1-2022,
259,Memet Iclek,memeticlek1,,fiyat,9-1-2022,
260,Engin_miroglu1903,engin_miroglu1903,,Hangi model bu ya,9-1-2022,
261,erdalcan_65,erdalcan.65,,abi banada bir tane telefon ver benim telefonum göç olmadı,9-1-2022,
262,Gök/Sayrøx.pubg,tr_sayrox,,bende mi 13 ultra var D,9-1-2022,
263,ULTIMATE BOSS20,ultimatebosss20,,@gamingak20:পাশে💘থাকলে💘পাশে💘পাবেন।💘লাইক💘দিলে💘লাইক💘পাবেন️💘ফলো💘 দিলে💘 ফলো💘পাবেন ❤💖💯 💗,9-1-2022,
264,أبو محمد❤️,mahmodalkhalil6,,شو نوعو هاد الجوال,9-1-2022,
265,Hkd Gnx,hkdgnx,,how much does it cost,9-1-2022,
266,bakılı FƏRİDMUSTAFAYEV🇦🇿💪😎,cpmbakili7,,iphone🤗,9-1-2022,
267,sadiqafghanafg,sadiqafghanafg,,kç tl kanki,9-1-2022,
268,Hamza Yücel56,44escober,,iPhone den daha pahalı bence,9-1-2022,
269,﷼سمܔو༒الأᬼمܔير﷼👑😌,hussamdashohalep,,@muhamed._55 شو هدول شريك 😳,8-1-2022,
270,محمد😴✌🏻,mohamedhatim500,,iPhone 🥰,8-1-2022,
271,عدي,oudeysy,,الجهاز التاني حلو كتير والله,8-1-2022,
272,Emrah ağkanat,user34465456,,fiyat,8-1-2022,
273,uas.0193t83o24,sy8998u,,سعر,8-1-2022,
274,احلى شيلات,user1172887101751,,بكم ما شتيتي😁😁,8-1-2022,
275,كيلان الحنين,dyrwzptetpbq,,شنو سعر هاذا الجهاز,8-1-2022,
276,Muhammet Emin Öztürk,55_nuhammet_55,,poco X3 pro kılıfı varmı,8-1-2022,
277,☪️NEED FOR SPEED MOST WANTED ☪,volkswagen_passat7667,,OPPO telefonu olan ben🥰🥰,8-1-2022,
278,NAIMMIRZOIAROV2010,naimmirzoiarov2010,,как называется,8-1-2022,
279,user49987250237152,____button_17,,ooo,8-1-2022,
280,اميرة 👑هااربة من الواقع 👑,ddkshskdbjdhdjdj,,مافي هدية الي 😳,8-1-2022,
281,Rosivaldo Moraes,rosivaldomoraes23,,Qual o valor?,7-1-2022,
282,ابـ𓅃ـن آلَمًوٌـᬼ✯͜͡صّ✯لَ,sssfggbb,,"اسم الجهاز
فاكس ماكس باكس نوكس ابرو",7-1-2022,
283,🖤🖤,kahled658,,كم فريم علببجي ؟,7-1-2022,
284,Abrar Al-Wasabi,ddg940,,رَجَـآنٌ,7-1-2022,
285,Abrar Al-Wasabi,ddg940,,شّـنٌوُهِ آسًـمِـ آلَآغّـنٌيّهِ,7-1-2022,
286,youtubemasmer,youtubemasmer,,الحمد لله,7-1-2022,
287,♛عبــارات حزيـــنــــه♛😔,xalalamyx,,بكااام,7-1-2022,
288,user7881419718196,fauzzy12,,Wwoow how much is the Huawei,6-1-2022,
289,leysh13,pubgislame,,Which one is better,6-1-2022,
290,Flori,florichintoan,,vreau sieu unul,6-1-2022,
291,Abdo❤,dyl6szz37rfw,,عندي 😂😂,5-1-2022,
292,Mars_Kalash,mars_kalash,,Putin si apple aperçoit ce produit🔥🔥🔥,5-1-2022,
293,7hmed Gharaa,3hmedghaarra,,جمال,5-1-2022,
294,فيصل 😍😍😍,dyc7yhnnezoa,,الشعر,5-1-2022,
295,fredyduran210,fredyduran210,,cómo se llaman,5-1-2022,
296,محمد ابو العفي597,zafaraprophet181,,كام سعرهم اتنين 😳😳,5-1-2022,
297,❤️Ku🌞rdo💚,kurdo___k,,هاد بورشا دذاين,5-1-2022,
298,Georgi 85,gushterov,,model 🥰🥰🥰,5-1-2022,
299,m.montana767,m.montana767,,right one copying Poco NFC or X3,5-1-2022,
300,سعد الفقي,saadalfaqi,,كام السعر يافندم,5-1-2022,
301,R A E E S K H A N,bilalahmadomerkha12,,Which mobiles are these? 😳,5-1-2022,
302,امين الحب,a.m.i.n.a.m.i.n,,نفس جهازي😌,5-1-2022,
303,FASTsoex,ultiboss8,,Bu telefonlar şimdi 200 FPS TİR PUBGDA,5-1-2022,
304,Môĥàméď źaźa,mohamed_naizk,,اللي حابب يعرف اسم الجهاز انا بعرفه🥰,5-1-2022,
305,user7139436355029القلب لك متاح,user7139436355029,,اريده 🥺🥺🥺🥺🥺🥺🥺🥺🥺🥺🥺🥺🥺🥺🥺🥺🥺🥺🥺🥺🥺🥺🥺🥺🥺اكو ابن حرام يجيبه الي 😁,5-1-2022,
306,Diego Garcia,df.garcia,,que celulares son?,5-1-2022,
307,آلَجـ♥ـنـ♥ـرآلَ,mod_nour,,اشو اسمو هدا ياخي😳😳😳 وين موجود يازلمه,5-1-2022,
308,يحيى المصري,user7805575411522,,كم سعرو,5-1-2022,
309,احمدالشيخ,user6564644019417,,بيش سعر,4-1-2022,
310,dyr4uao3xl64,dyr4uao3xl64,,ardian,4-1-2022,
311,user7139150292382اياد،ايدرس,user7139150292382,,شو سعره,4-1-2022,
312,alina,user4694832680407,,cît costă,4-1-2022,
313,Rafiullah SRK,rafiullahmiakhail,,best mobile phones,4-1-2022,
314,حسين صباح,user9knkoga2qg,,شكد سعره وين,4-1-2022,
315,ORXAN,orxanrecebeliyev,,bir 30 manata olar😂,4-1-2022,
316,سفيان المالكي@@@@@@؟,dypzs403pz0e,,كم اسعر,4-1-2022,
317,mustofo104,mustofo104,,qancha bu,4-1-2022,
318,رماد الورد,rmad232,,الله يرزقني حقو واشتريه,4-1-2022,
319,Erciyes,ismailerciyes00,,telefonun kıralı,4-1-2022,
320,حسين إبراهيم,userd5baxw4ysw,,سعر,4-1-2022,
321,Nelson Mejía,victornelsonmejiatorres2,,Yo quiero uno yes,4-1-2022,
322,Lokman25,lokman_25,,Markası nedir huwai kaç,3-1-2022,
323,Усон Рыскулов,dy303z1cyy92,,заказать можно этот телефон,3-1-2022,
324,İsa Can Aydin,isa_can_003,,ne kadar abi havai,3-1-2022,
325,HENRYSANTY777,johnwomack96,,I need,3-1-2022,
326,🐺 nokhchi🐺 2107🔥🤤,777_greyhound_777_95,,цена??,2-1-2022,
327,Ali,alikader13,,fiyat ne,2-1-2022,
328,kaankorkmaz,kaankorkmaz051,,abi çok kameralı olan bana versene,2-1-2022,
329,ИСЛОМБЕК 99 01 31,islom555505,,привет брат можна ми 11 ултира,2-1-2022,
330,კანონმორჩილი მოქალაქ,truemen13,,@gioiarajuli966 ეს ორი რა სიცოცხლეა,2-1-2022,
331,mubi_05.,_musilmanka04,,канча,2-1-2022,
332,❤️🌹🌷বরমা সুন্দরী🌷🌹❤️,mdashiksek600,,দারুন🥰🥰🥰,13-2-2022,
333,FF.ELMIR.FF5757,duzunero,,@senan.bs_editss telofon budu 256 yadas 10 ram,12-2-2022,
334,Ku bo,not.0134,,လီးလို လာကြွားနေတာလားမေယိုး လေးရဲ့,12-2-2022,
335,@Ashik mohonta,ashikmohonta0,,ভাইয়া দাম কতো🥰🥰🥰,11-2-2022,
336,HOSEN HOSEN23,hosenhosen2341,,٢🥰🥰🥰,10-2-2022,
337,eyüp edis,eyupedi,,bu güzel,9-2-2022,
338,Eyyüp Kubat✅,kubat_eyuup,,kral lütfe bana bi tane gönderirmisin,8-2-2022,
339,Faruk63,63faruk00,,iPhone kral👑,8-2-2022,
340,Saniibrahim@,sani0803968,,nice,7-2-2022,
341,MEHMET GÜLEÇ947,dy6smp5qwnic,,Pazarlık olurmu,6-2-2022,
342,Gülistan Guloo,gulistanakpinar01,,Allah aşkına için bana da gönder Kargo ptt beklerim seni,5-2-2022,
343,Ashikur Rahman,ashikurrahman2244,,দাম কত,13-2-2022,
344,Melek Tekin946,melektekin946,,bana Huawei,12-2-2022,
345,03014488142,user5342563381787,,In ma Google da diya ya ni,11-2-2022,
346,قراصنة الدوبلاج,otakuamv6,,الله يرزقني ويرزقكم امين,8-2-2022,
347,سَٖ۪يِٰدٌِ إَلَٖڜٰڜٰيٰوَڂِٰڂِي,sead_hswan,,يرزقنا ومايحرمنه,1-2-2022,
348,Eskobar,escobar0113,,poco ultrA,1-2-2022,
349,مـᬽـعقده͜ه💛,nada_2006n,,😶😶😵,1-2-2022,
350,@mehrab 🎧🤕,_asrorbek_1_317,,uxbile qayerdan topsa bola 😏,11-1-2022,
351,Allan Eduardo Bal319,allaneduardobal31,,me regalan uno x favor 🥺🥺🥺🥺🥺🥺,4-3-2022,
352,Perm159Rus159,perm159rus159,,"что за марки, автор?)🥰🥰🥰",22-2-2022,
353,love you,betylol12,,"how much
where location",20-2-2022,
354,piyanist_ilhan_welat,piyanist_ilhan_welat,,fiyat😌,30-1-2022,
355,ڪہٰ۫۬بہﹻۗﹻۗﹻۗﹻۣۣۗۗﹻۗ,user4r9qeqibib,,XAWMI يا عمري😍😍,13-1-2022,
356,Ahmet Ural,uralahmet64,,sag taraftaki telefonun adı ney,10-1-2022,
357,54乄COM卂NDＯ,tatanga_5452,,Sizden ricam sayfama girip beğenirseniz çok teşekkür ederim öğrencim Allaha emanet olun,9-1-2022,
358,zak,zak72zak,,سعره موازي للايفون 13 لا بفضل الايفون عنه,9-1-2022,
359,zinonino16,zinonino16,,كم سعره في الجزائر,8-1-2022,
360,مُتيّمْ,1_kr_5,,mt 10 pro ne kader,8-1-2022,
361,شبل يافع,dywefagvnboi,,كم سعر,8-1-2022,
362,Hamde Salih,2272gmaal,,شو سعرو,8-1-2022,
363,balang123.uwubbb,balang123.uwu,,how much,6-1-2022,
364,زكريا بياله,zakria92biala,,بورشا ديزاين,5-1-2022,
365,عاشق القمر,user5883564422111,,والله العظيم بتمنى يكون كندي,5-1-2022,
366,mojtba2718ツ,mojtba2718,,naem phone?,5-1-2022,
367,Abw - Aljwwd,user6tpe6xrvgb,,Is there no one to help me financially?,4-1-2022,
368,$ђẩ$ђм̃̾$,hashm696,,نفس جوالي بس منين اجيب البااك 😞😞😞,4-1-2022,
369,شوووووووشششش 😵🤨,mohammedalmaswary,,هولا ما ب يوصلين اليمن الا بعد ٢٠ سنه,3-1-2022,
370,𝄟✮͢🦋⃟≛⃝🇼 ʰⁱᵗᵉ  𝄟✮⃝🇩 ᵉᵛⁱˡ,sudevff,,Please give me one more 🙏,12-2-2022,
371,EmRAH PoLaT,emrahpolat449,,Mate 40 essahlı xuruo,10-2-2022,
372,Jubaer Islam3109,jubaerislam280,,ভাই আমি গেম খেলকে পছন্দ করি আমার ৭২লেভেলের আইডি আছে কিন্তু আমার ফোন ভালো না প্লিজ প্লিজ প্লিজ একটা ফোন দিবেন প্লিজ দেন্না ভাই 😭😭,15-3-2022,
373,Jubaer Islam3109,jubaerislam280,,ভাই আমার একটা ফোন দিবেন প্লিয প্লিয দেন্না আমি আপনার ভিডিও দেখি লাইক কমেন্ট করি একটা ফোন দেন প্লিয দেন্না 🙏🙏🙏,15-3-2022,
374,مستريح البال❤😘,dyzox2rzfek8,,"اخاف ان اذكرك يارسول الله.
ولا يصلي عليك احد ...",30-1-2022,
375,هواجس🥀🖇️فراتيه* ♡🥀,asil2000best,,":🌺والله ما رأيت مصليا على محمد إلا وقد جُبِر.""🌹
❤️ﷺ ٱللَـﮬـُمَصـَلِِّے وَسَلِّـمْ؏َـلَے سَيِّدِنَـا مُحَمـَدْﷺ،♥️# اضافه لاستمر. لو سمحتوا🥺",17-1-2022,
376,Rawand &Blbas,blbas1238,,"الحمد اللە❤أستغفر اللە❤سبحان اللە
❤لا اله الا اللە❤اللە اکبر",4-1-2022,
377,واحد دايح,x_1max,,ياخي قهر 🥰😂@mh_xn12,8-1-2022,
378,بن طہيہب مہوسہى,moussa_135,,خوتي ديرولي ابوني هذا كنت جديد بلز 🥰😳,8-1-2022,
379,ashraf44elbadry أشرف,ashraf44elbadry,,ممكن متابعة ولايك🥺🥺🥺🥺🥺🥺🥺🥰,7-1-2022,
380,manzanaresfrandde,manzanaresfrandde,,😳😳😳woooo 🥺🥺🥺🥺🥺,3-1-2022,
381,Abdullah,abdullahakbiyik123,,Şunun dadını bilen bı kalp atsın len oraya 🥰,10-1-2022,
382,mikki malik,mikkimalik2,,Meri I'd chek kr lo yaro😒apna favorite song comment kry follow kr do bhai sb ki support ki zaroort hai fazool cheezy to sb check krty hai ya bi Dekho,25-1-2022,
383,бақай,user1407682986222,,бағасы қанша,18-1-2022,
384,احمد جمعة,ahmetjomaa1,,في ٢٠ از بدك😂,15-1-2022,
385,Mostafa,saranwalmustafa0,,بخاطری ویدیو های جالب🤣🤣🤣 من را فالو ♥️ ♥️ کنید و همیشه خندان باشید 🇦🇫 🇦🇫 🇦🇫 لایکر هم هستم 👆👆👆,15-1-2022,
386,الخبير MD,mouyadalsayed,,اوف واحد منهم اصير امبراطور ببجي,5-1-2022,
387,Aliosman066,delidolu045,,haydi canım sende telefon yakıyor beyaaaa,2-1-2022,
388,acı hayat,acihayat12345,,bes para etmez,30-1-2022,
389,𝑨𝑳𝑰̇,_wq_karabey_,,ikisinin de kamerası çabuk kırılır,8-1-2022,
390,нурик,dyyebacyltgb,,Зачем дерево почём,2-1-2022,
391,Perihan.Ece,peri.ece04,,Huawei fiyat ne kadar ben cok memenunum ondan yaa fiyaatt,27-12-2021,
392,user1015974572294,_umut333_,,abi bide bana alır mısın silifkedeyim gazi mahallesi saygılı 5 apt,30-1-2022,
393,DrABREHAM,drabreham,,how much and where can i get now in Saransk .mordovia,28-1-2022,
394,Rzayev_Firdovsi 83,firdovsirzayev691,,yağşı,16-1-2022,
395,maqeelebaady,maqeelebaady,,I want a phone in Afghanistan,15-1-2022,
396,مطنوخ الموالني,dydishh9fpr4,,شو هد الجهز,15-1-2022,
397,simbolon,tiioug0simbolon,,berapaan ni bg,14-1-2022,
398,miran,miran17352,,bunlar kac fps verio,10-1-2022,
399,❤۰ ۵ N U R ۵۰ ❤,nurvestella56,,Telefonica satılıkmı,9-1-2022,
400,Arda Özdemir,ozbemir_4650,,abisatlıkmı,8-1-2022,
401,Ынтымак Эрнисбеков,yntymak703,,экран пакажи,8-1-2022,
402,karimbahibahibahi0,karimbahibahibahi0,,من اي بلد تورينا هاذ الهاتف وكم سعره,7-1-2022,
403,Pubg_محمد,pubg_mohammad7,,شواسمه.الهاتف,7-1-2022,
404,demir ailesi🇹🇷🇹🇷🇹🇷,barandemir7890,,satılıkmı,5-1-2022,
405,King Of The King,hbabak5,,price,22-2-2022,
406,ចាន់ថា,reimbursement564,,mate 30pro RS $$,4-2-2022,
407,Saifullah,saifullah123402,,Rate please of 🌹porchosi 🌹,4-1-2022,
408,pubg.danger,pubg.danger2,,o telefon elimde olsa pubg ebesini ağlatırdım,9-1-2022,
409,Ertuğrul TaplakTepe,ertugrul.06,,60 bin tl yok mq üstüne 100 bin daha koyar ev alirim,2-1-2022,
410,Muhammed Veysi,muhammedveysi27,,insta Muhammed._.veysi27,26-1-2022,
411,ÇAĞLA,cagla_offical09,,Ablam lütfen gönederebilir misin lütfen,8-1-2022,
412,many 1989,solo5881464732519,,ممكن إستفسار,2-2-2022,
413,Ömer,.06_06ankara06_06,,ulan zenginler bu dünyada cennet sizin !!!!🥺,9-1-2022,
414,(^mohammad^),mohammad.com890,,🤔🤔🤔wtf,7-1-2022,
415,👑👑the king,.x.noufel_25,,طاح راح😂😂😂,6-1-2022,
416,Мальдэра Алмазова,malderka9697,,"Реклама килиш олдинг, огирликни тохтатила сутхорлар",19-2-2022,
417,Jhoel Zurita Gomez,alexanderzuritagomes,,Hello a todos los que lean esto... Si usted busca un movil con la mejor cámara SE PUEDE COMPRAR EL MATE 40 PRO DE HUAWEY 😉😏,12-1-2022,
418,Тунджел Сезгин,bliznaka2,,"the worst huawei it's is Huawei 8I 😤 low camera, low processor in game all time lag. Samsung and IPhone it's the best!!! 😏",5-1-2022,
419,中国DJ城--徐公子。,love_dj520,,致敬中国华为。,9-2-2022,
420,IF 〆Ｓㄚ 么 乙 ツ,ahmedsayedabdulsalam,,سلاماً على من صلى علي رسول الله وتابعتي فضلاً🥺,7-1-2022,
421,JO El-SAEED,youssifel_saeed,,لايك بالحب علي آخر فيديو عندي 🖤☹️,8-1-2022,
422,Raean TANASh,raeantanash,,"😻💝💝💝💝💝💝👍اهديني
يا",17-3-2022,
423,fahed aigle noir,fahed7925,,حنين تليفوني هواوي y6p,23-2-2022,
424,eneskiral7,eneskiral7,,abi bana hediye edermisi🥰🥰🥰🥰🥰🥰,14-2-2022,
425,مهندعبدالله,dyyg0fnxfhxq,,ببجي فوته الموضع 😏,25-2-2022,
426,/Mör3B /,yous3f_sabr3y_0,,@mohamed_naser_0 😂😂,24-2-2022,
427,𝙰𝚋𝚍𝚞𝚊𝚣𝚒𝚖 𝙰𝚑𝚊𝚍𝚘𝚟,_abdu_1505_,,@bmirza17,15-1-2022,
428,عبود ابو سمرة,abnabdo12345,,@hashem0555,12-1-2022,
429,العشق نونة 🥰,n.m.a2520,,@yato115,2-1-2022,
430,Abdalrman Bn Oun,abdalrmanbnoun,,@qosaykhomaj&&&,6-2-2022,
431,ღ ּﷲ ּﷻ ּا̍ڪبڕ➹❀,user083653484,,😳🥺😰😱😭😭😭😭😭😭,14-3-2022,
432,🖤Žïmø❤,nazimtenes,,@user6513128764348 🥰🥰,24-2-2022,
433,user5864159645229,pman774,,☺️☺️☺️☺️☺️☺️☺️,21-2-2022,
434,sab_riya_008,sab_riya_1,,🥰🥰🥰🥰🥰,17-2-2022,
435,1,mdalll0,,🥀💓🥀💓🥀💓,14-2-2022,
436,QARABAĞ1987,qaraba9_1987,,@qaraba9_1987,29-1-2022,
437,محمد علي,dyvus64b4l2j,,🤩🥳😟😕🙁🥳,28-1-2022,
438,GAMER 2_0_0_0,uzbek...ff,,😱😱😱😱😱,17-1-2022,
439,حسين ابن سوريا,huseyin8765,,🥰🥰🥰,15-1-2022,
440,フィラス✌️❤️,_2.00.05_,,@wesamshuaip,12-1-2022,
441,user8756465791438,alshebl2021,,@lulyshaif910,12-1-2022,
442,meryemgokhan,meryemgokhan1234567890,,👍👍,11-1-2022,
443,Md Ismail,babu759533,,@mms.ridhay,10-1-2022,
444,احمد,muhmad.al.fahd,,❤️❤️,10-1-2022,
445,ابراهيم,ffktryuweff0,,😏,9-1-2022,
446,ecrinsu alpdoğan,ecrinsu949,,😳😳😳😳😳😳😳,9-1-2022,
447,صرخه الم?❤,crypaincrypaincry,,🥰,8-1-2022,
448,Hakan Altan,hakanaltan4,,@eumut1903,8-1-2022,
449,Abrar Al-Wasabi,ddg940,,😊😊,7-1-2022,
450,bechirjlali,bechirjlali09,,@khaledjleli,6-1-2022,
451,عمار 𝅘𝅥𝅯,x_xf_7,,@2_3bi,6-1-2022,
452,shehhh1234567890ني,dyg5iyo5ik6z1,,🥰🥰🥰🥰,6-1-2022,
453,Bogdan Milovanovi655,bogdanmilovanovi6,,@😌😌😌😌😌😌,5-1-2022,
454,PUBG : 𝓚𝓤𝓩𝓖𝓤𝓝,pubg_kuzgun_68,,@recep.bakar68,3-1-2022,
455,ASIF GAMER,asifshawon12,,😳😳😳,13-2-2022,
456,shamimhossain0077,shamimhossain0077,,🥰🥰🥰🥰,11-2-2022,
457,Rk ★Rawdi★870,emonbaidx870,,@emonvai2k7,11-2-2022,
458,dange darya,dange.darya777,,🥰🥰🥰🥰🥰🥰🥰,10-2-2022,
459,حلت وتساب 🥰🥰,raro397,,🥰🥰🥰🥰,9-2-2022,
460,يوسف الشمري الشمري,muhammadjamilalshammari,,😌,9-2-2022,
461,mrDAWUT⁹⁹³⁶⁵¹⁰⁶⁹⁹⁹,_h_a_n_o_g_u_l_08,,🥰🥰🥰,8-2-2022,
462,FOOTBALL 🇩🇿🇵🇸⚽🥇💯⚽💯MESSI,football0565,,🥰 😂 😂 😳 😏 😅 ❤ 🐊 🇩🇿,8-2-2022,
463,مـيـت انـا 😴💔,._a_h_m_a_d_.1,,@x_pikachu._x,7-2-2022,
464,Ali Abdimomunov,alihan_0_1,,🤫🤫🤫🤫🤫,6-2-2022,
465,AB,dyphx39uee9m,,🙂🙂,3-2-2022,
466,Min Phyo Thu,minphyothu2,,@xennurannoying7,3-2-2022,
467,Tebib Tebib69,tebib56,,😁,2-2-2022,
468,7moudi,1x_7amoudi_x7,,@_a2m7d 😳,2-2-2022,
469,omnia badawy,omniabadawy4,,😞😞😞,1-2-2022,
470,Foz 🦅,foz_foz5,,@dijwar..isso7,31-1-2022,
471,n.daq,necmetin_daq,,@inankaracan3 @roj_free.dom @kiingmemo 😳😏😳😳,6-1-2022,
472,Qusar-KİRİK,demirovabdul,,@tenhalig1 @lezgin3836 @lezgin_038.kirik,3-1-2022,
473,إبراهيم 😎😎,dyoyagkjxecq,,ووواو,31-1-2022,
474,ERGASHBEK7890,huligan_uzbek,,2,22-2-2022,
475,Sam Koukou820,samkoukou820,,😂😝🙂🙂🙂,22-2-2022,
476,sai kyaw lin[ ok],saisaisaisai1187,,6000000$ ez [wow] 😏,30-1-2022,
477,Mohammed,mohammadismail8358,,"@mohammadismail8358:🥰 Mohammed IsmaI 8358:꧁💔সুপার🌹꧂
꧁💔️কলিজার🌹️꧂
꧁💔️বন্ধু🌹꧂
꧁💔সেই🌹꧂
꧁💔হয়েছে🌹꧂
꧁💔লাইক কমেন্ট করে পাশে💔থেকো বন্ধু🌹꧂ ইনশাআ",27-1-2022,
478,aboemad577,aboemad577,,ووووووووووا شاد حلو ووووووووووااااا🥰🥰🥰🥰,17-1-2022,
479,גינאן עטיה,user6740516049198,,😃😃😃😃😃😃😃😃😃😃😃😃😃😃😃😃😃😃😃😃😃😃😃😃😃😃😃😃🥰🥰🥰🥰🥰,14-1-2022,
480,Tonguc. Cancan,cancantonguc05,,hiyat,10-1-2022,
481,Kani Meşe,azmimese2,,haaadi laaaan,9-1-2022,
482,adalı suskun,user7970178977146,,vavvvvvvvvvvvvvvvvvvvvvvvvvvvvvvvvvvvvvvvvvv😬😌😅😏😳😂😁😇😎😌,9-1-2022,
483,KUNAMEHI_MV,kunamehi,,wowowowowowow @zzariif 120fps😳,5-1-2022,
484,لوفي,daneil381,,222222222❤❤❤❤❤,4-1-2022,
485,رومان رينز,user5447717673586,,😳😳😳😳😳😳😳😳🥰🥰🥰🥰🥰🥰🥰🥰🥰,4-1-2022,
486,Mehmet Çeçen,chechenofficial,,W,9-2-2022,
487,قتيبه ح,dyf1usg9otpshsna,,",11111000😅",1-2-2022,
488,💞💞MD Roman Sheikh?,md.roman.vai1,,"❥ নতুন༊᭄পোষ্ট༊᭄করছি༊᭄সাপট༊᭄করলে༊᭄খুশি༊᭄হতাম●───প্রিয়༆🥀🥰💙
ღ●───༊""সাপট༊᭄করলে༊᭄100%༊᭄সাপট༊᭄পাবে༊᭄🌺😌💘
ღ●───༊""🥰🥰",11-2-2022,
489,@__lan0,starteam062,,HUAWEİ 💪💪💪💪💪💪😎😎😎😎😎💪💪💪💪💪💪😏😏😏😏😏💪💪💪😈😈😈😈😈😈😈😈,30-1-2022,
490,↜شـــــڪـــــــࢪا ↝,housinhassona,,الفخامة🥰🥰🥰🥰🥰,2-3-2022,
491,user6232507212207,user6232507212207,,yaxshi zor,2-3-2022,
492,kefli insan 1999,amid2828,,salam Axşamınz xeyir alamağı olar,1-3-2022,
493,【Z】【A】【N】【E】,r26____ff,,@dzhissoka 😳😏,23-2-2022,
494,خواطر,sosoana810,,متل المرا تماما من برا يااااي ومن جوا باي,21-2-2022,
495,user7353603890157,user7353603890157,,wow,14-2-2022,
496,ℭİℨℜ𝔈𝔑İ𝔑 𝔈𝔉𝔖𝔄𝔑𝔈𝔖İ,baran_tolga_65,,@beyin.jimlastigi,11-2-2022,
497,Min KoKo346,minkoko725,,🥰🥰🥰🥰🥰🥰,5-2-2022,
498,wasif4.0,wasif4.0,,😲😲😲😲😲,4-2-2022,
499,Bilall Bilall271qwe,bilallbilall271,,🥰🥰🥰🥰,2-2-2022,
500,Memet Sun210.,2134mehmet_,,teki 30 bindir simdi,31-1-2022,
501,sai kyaw lin[ ok],saisaisaisai1187,,🍷😈,30-1-2022,
502,Volkan Ünlü,volkanunlu0,,Huawei ye söylen oppo onu s.... Atar,30-1-2022,
503,Asım Koc,asaf55550,,bunlar neden pahahali,30-1-2022,
504,Aslanakbey340,aslanakbey340,,Google yok çöp,30-1-2022,
505,Anakkenyahcina99,anakkenyahcina99,,https://vt.tiktok.com/ZSebgjVpN/,29-1-2022,
506,ايوب ابو محمد,eyup_bo_muhamed,,@kahlidalmustafa,16-1-2022,
507,beyunca,mehmet.beyunca735,,kamerası çok buyutmuşler😂😳,15-1-2022,
508,user716139,mesut_polat02,,iki dalak iki ciğer yeterlimi😂,12-1-2022,
509,CLUB MUSİC 🎶,clubmusicc,,👈🎶✊✊,11-1-2022,
510,kemal erturhan 27 kemal,kemal.g27,,Huawei,11-1-2022,
511,Tonguc. Cancan,cancantonguc05,,30 bin telle,10-1-2022,
512,Azizbek,dpazizbek_tt,,phone name pls,10-1-2022,
513,`{♤أمير البلاد♤}`,user4997663111372,,اخواتي وصلوني 100متابع والله محتواي حلو مش لايك علا تعليقي امانه عليكم وصلوني 🥺🥰🥰🥰😳😳,9-1-2022,
514,Ümit_cinar,umit_cinr,,a101 ne zaman gelir,9-1-2022,
515,Ulvi,user4gjiq1fgt6,,xıaomi,8-1-2022,
516,مرام مرومة,dyf72t5np82x,,🥰🥰🥰🤪,8-1-2022,
517,77/ ابليس,77.eplees,,الي عندو احسابات تيك توك او لايكي مشحونة للبيع يتواصل معي خاص,7-1-2022,
518,user123456789asd2,user123456789asd2,,bedava versinler kullananın a***,3-1-2022,
519,,tahsinking342,,vai agulur price,3-1-2022,
520,أبو خطاب الكردي,xcz123zxc321,,كيف تتواصل,2-1-2022,
521,Sanjar,sanjar1.8,,сколька стоит это телефон,2-1-2022,
522,Халтай Нұрлан,dyaomyy10fry,,👍👍👍👍,2-1-2022,
523,James harden,capersun,,no one buy these phones there Chinese made they collect data from you there communist phones do research there trying to promote bs 🙄,2-1-2022,
524,Brian :3 🤙✨🇳🇬,briansantos1420,,no hay un xiamoi xd😅,2-1-2022,
525,Carlos Daniel CASTRO,carlos9283737,,mmmm cuánto por nø estamos hablando que aguanta bueno para saber mi estimado caballero,1-1-2022,
526,Azayev Akşin,2007azayev1,,Huvavey,1-1-2022,
527,FREE MOVIES,movies_free_wach20112,,Tesla phone coming,1-1-2022,
528,halilherki,halilherki,,hep büyle Bir telefonum olmasını isterdim,1-1-2022,
529,musica de GUERRERO,musicadeguerrero,,donde los venden quiero uno,1-1-2022,
530,musica de GUERRERO,musicadeguerrero,,donde los benden,1-1-2022,
531,2003XABIB,2003xabib,,narxi qancha,1-1-2022,
532,kevin🖤Owenz 🖤,owenzkevin20,,ninguno se iguala😏al Xiomi mi 11 lite😏😂,1-1-2022,
533,Winglow,winglow0,,Nothing Huawei for me ever. They install firmware to track you. They’ll listen to you calls too. Pass.,1-1-2022,
534,Piter Apaza Valda,piterapazavalda,,@setofer2.0,1-1-2022,
535,Xishan Al Amin,xishanalamin,,😂😂😌,31-12-2021,
536,Shine Thu ya Aung,dyaqsmbtwzam,,ေစ်း ေလး ေျပာျပပါလားဗ်🥺,31-12-2021,
537,justin,justinoapazacastr,,ya no sirve ese tesla ya ba sacar este 2022 un telefono marca pi mas mejor qe esos y el Ayfon,31-12-2021,
538,💔💔😔☹,tonyperez4036,,me regalas uno porfa😁,31-12-2021,
539,Exploit guy,the_big_world_0,,@elitekenshi22,31-12-2021,
540,asadrehman1227,asadrehman1227,,I need girlfriend,30-12-2021,
541,Raj,rajuahammed428,,I love huawei,30-12-2021,
542,GIULIANO BEVILACQUA namber one,giulianobevilaqcuarom,,come si chiama lo voglio comprare,30-12-2021,
543,PRIZRAK,prizrak26.19.10.94,,цена?,30-12-2021,
544,cacai 1234567891,caiquesilva967,,eu tenho poke x3 😬,29-12-2021,
545,x,fkckcf_7282._,,[🚁],29-12-2021,
546,Mike Mikey195,mikemikey195,,how much prize,29-12-2021,
547,Lajbar Khan,lajbarkhan45,,good,29-12-2021,
548,Lajbar Khan,lajbarkhan45,,hi,29-12-2021,
549,کْنِجّ يَمًآنِيَ,alkngalyman,,مًنِ وٌيَنِ,28-12-2021,
550,pak_and,pak_and,,",#",28-12-2021,
551,Tik Toker,khan677183364,,Nis fon my fbarit 🥰🥰🥰🥰🥰🥰🥰,28-12-2021,
552,wellphonecase,wellphonecase1,,good product,28-12-2021,
553,👉❤️অভিমানিছেলে❤️👈,smmunna520,,🥰🥰,27-12-2021,
554,Tik Tok R 5055,tiktokr5055,,wow🥰🥰,27-12-2021,
555,kevindunwoody,kevindunwoody,,these phones will gather all your info there is a whole scandal about it.,27-12-2021,
556,ONTOR DHALI21436587,ontordhali0,,vai model koto koto,27-12-2021,
557,user9431784592270,mice409,,fiyat nedir satiyormisunuz,26-12-2021,
558,cengiz atar,cengizbeyfendi,,beş para etmez marka,26-12-2021,
559,diyorbekh,diyorbee_sheih,,Какая модель телефона рядом с Huawei p 40 pro,24-12-2021,
560,۶ـسًٌُُگــــــــرٍيَ 👨🏻‍✈️,al_zubaydi,,@alabbadi163 ضيفيني سناب 🥰,24-12-2021,
561,SHERRY,.sherry01,,@aminkhan6462,23-12-2021,
562,XX_YOUSEF_XX,back._in._.2052,,يزم لو تشتري نوكيه اشرف من الهواوي بقهر لأنو,23-12-2021,
563,★彡ⓁⒾⒹⒺⓇ ✞☬ঔৣ꧂,elliderdegarena,,cuanto,22-12-2021,
564,Kx900,mx9300,,Huawei 🤮,22-12-2021,
565,jose maria,adexe355,,ayudame a yegar 2k,22-12-2021,
566,asyl,genii314,,мнаны қотағыңның жұмыркасын жартысын кесіп сатсаңда ала алмаисың,21-12-2021,
567,حمودي العراقي💥💥,dydisyx5maf8,,هواوي اصله فاشل كله صيني 😆😆😆,20-12-2021,
568,B'Burhan Sarı,burhan.bbuusrrhaan,,10 sene sonra Türkiye de 😂,20-12-2021,
569,Alex88.ru,alexander.ru88,,моя мечта какой-нибудь таких телефонов иметь они iPhone г**** ГВ о,19-12-2021,
570,Sözüm şeirlerin mükemmelidir♡,19.o5.22,,★.Porşeee 🤍🤍,19-12-2021,
571,ociel ortiz,ocielortiz3,,cuenda,19-12-2021,
