,Comment Number (ID),Nickname,User @,Comment Text,Time,Likes
1,❤SİNPATİŞNİ❤RÖYAL❤,sinpatiwni__royall__085,,S 21 ULTRA😌,13-1-2022,
2,BEMNET931,bemnet931,,giveaway 🥺,14-1-2022,
3,user1530324179433,user1530324179433,,price please,13-1-2022,
4,🤝,adi_banat1,,Jetzt kommt S 22 bald😏,16-1-2022,
5,Nandi Siziba,nandisiziba,,Love,13-1-2022,
6,Mohammad Tanha,mohammadhussini6,,very nice beautiful,14-1-2022,
7,Mey,user9510624306927,,samsung S20 fe,24-2-2022,
8,user4859601255732,bahil75,,price and place,24-2-2022,
9,开朗的网友,zongzon98,,"I want it, too, but I don't have enough 💰🥺",24-2-2022,
10,Pudo_Fan_ពូដូ/CR7,pudofancr7,,nice 👍,23-2-2022,
11,user8714721281630,user8714721281630,,hi,27-3-2022,
12,Tøñy,olfbiatti,,99+,18-2-2022,
13,Vi Nesh,vihhh.xx,,i have this,7-2-2022,
14,Hiden,thisistheendforu,,Samsung A52 Here...,13-2-2022,
15,clearen chandra,clearen_chandra20,,samsung a51,12-2-2022,
16,fyuen,fangyuenn,,not20ultra🥰,8-2-2022,
17,user1308183139988,user130818313998,,how much ?,7-2-2022,
18,Anime Lover🥰,bophaa009,,i love my phone,23-2-2022,
19,Long Sofa,chenlong367,,😂😂 modern,23-2-2022,
20,user4742350689871,user47423506898714,,LIKE,6-3-2022,
21,Anas. lumjana,anas_kuppom,,สวยๆ🥰🥰🥰🥰,14-1-2022,
22,@elviejo2525,rafaelmendez253,,que precio tiene ese Samsung por favor,13-1-2022,
23,.,detodo2022memes,,Uno del Huawei p40 pro,13-1-2022,
24,longer987,hlong8789,,samsung mất giá nhanh vãi,14-1-2022,
25,kaittsung,kaittsung,,ซัมซุง S21 ตัวท็อป,14-1-2022,
26,أبوشوكت العباري,ha_.583,,بيش سعره,13-1-2022,
27,Naim,naimnaom10,,مساحته تقرب 512GB روعة,13-1-2022,
28,Myat Thu,yemyatthu024,,vivo 🥺ပြကြည့်ပါလား အခုထွက်တာ,7-2-2022,
29,koko81226,koko81226,,ဘယ် လောက်လဲ😁😁,1-2-2022,
30,9587729791512,user9587729791512,,kpn ya aku punya hp sebagus itu?😳😁😊,30-1-2022,
31,🇯🇵🇲🇲Htun Naing Oo🇲🇲🇯🇵,htunnaingoo56,,ဂျပန်မရောက်သေးလို့ပါ လာမနှစ်ကိုင်နိုင်တော့မှာပါ😌😌,17-2-2022,
32,Mai Tiên Nguyen,nguyentien67d,,minh đang sai a 52 sam sung,28-2-2022,
33,genodiaz,genodiaz28,,me imteresa precio,28-2-2022,
34,oom wanida,oom_wanida,,เพิ่งถอยมาเมื่อวาน,11-2-2022,
35,muhammad yanis yahya,1234yanisyahya,,bagusbanget,6-3-2022,
36,lisa love,kokolisa32,,ဘယ်စျေးလဲ🥺🥺,21-3-2022,
37,user3904238335831,user3904238335831,,လက်ဆောင်ပေး😁,17-3-2022,
38,@Lupi,tika_sariy,,sy baru beli a52s 🤸‍♀️🤸‍♂️,4-3-2022,
39,tomats1234567890,tomats1234567890,,"đẹp,nhưng dùng nhanh hết pin quá.😳",12-2-2022,
40,92tonggek,92tonggek,,20 ultar,25-2-2022,
41,เป็นของเล่น แต่อยากเป็นของเธอ,dyi5tr6ksu19,,ผมก็ใช้ซัมซุงเอ11,7-2-2022,
42,Laurita,lauritadgm,,@sagitario.g bb queyo 🥺,2-3-2022,
43,SMTE271995,1995tesm,,Precio,28-2-2022,
44,saulbrodo,saulbrodo,,precio por favor,28-2-2022,
45,user5980150163457,estelitamolina7,,q precio,28-2-2022,
46,Luis Tejeda,l.tejeda,,el mejor Smartphone,26-2-2022,
47,องุ่น,buncha313,,ใช้รุ่นเดียวกันเลย,12-2-2022,
48,dynkvqoqfj5q,dynkvqoqfj5q,,"ေတာသားကို
မျမင္ဘူးရင္ၾကည့္ထားၾက",23-3-2022,
49,Park kyi phyu,myatmon2635,,@yoontaekook04. ငါ့ကိုဝယ်ပေးပါလား,9-3-2022,
50,user9996142936787,user99961429367087,,ราคาเท่มไรจร้า,19-2-2022,
51,xiebaoge,xiebaoge,,三星手机确实吊,23-3-2022,
52,น้องแนน ชาแนลจ้า,uservhi7hpybkk5,,สวย,22-2-2022,
53,elvisgonzalesrami,elvisgonzalesramirez,,q precio tiene,11-2-2022,
54,นองแนน ชาแนลจ้า,dyu5a5npkma5,,สวย🥰🥰,10-2-2022,
55,MimiNorge,maha_ahmadkasem,,هاد نفس موبايلي سامسونج كالكسي الترا S21,28-2-2022,
56,Đinh Loan19k5,dinhloan09011995,,S21 Ultra đúng ko ạ😂,7-3-2022,
57,Inha Kosmetik Grosir Amurang,inha_92,,saya punya samsung 21 ultra belinya prtma sekali louching 19.500.000,16-2-2022,
58,TU NGUYEN327,suri4.018,,nhà em muốn cái gập đi được😂,8-2-2022,
59,ansalabd0,ansalabd0,,شو سعره التليفون,7-2-2022,
60,Angelita Tejada,user8207315412869,,este es Samsung S20 me encanta pague 600 dolares aqui en NYC,9-2-2022,
61,ELTIGRELLANERO,eltigrellanero,,precio?? compita??,6-4-2022,
62,anak cantikk♡,nara_prettyyyy,,itu 15 juta😌,17-2-2022,
63,Veasna Keo838,veasnakeo838,,ថ្លៃមានបង,7-2-2022,
64,aragondavilaemma,aragondavilaemma,,Samsung s 20 plus pro tengo yo,4-3-2022,
65,judith lopez161,judithlopez1975,,regale me uno,3-3-2022,
66,Diana Navarrete,diananavarrete754,,Cual es?,2-3-2022,
67,Jacky Morales,jackymora123,,Que Samsung es,2-3-2022,
68,bangjowo.publik figur👨‍🎤🤴🕺,aslam.akangjawa_real,,spill berapa harganya bang🙏,23-2-2022,
69,Aeycee Braga,aeycee12braga,,@Francis Adrian del R ganda,2-3-2022,
70,moonon61,moonon61,,ราคาอยู่ที่เท่าไหร่ครับ,24-2-2022,
71,Thienkim 🧸🍓,ttk.2013,,đang xài=),6-3-2022,
72,@822yfzxl🔥ฟรีเครดิต3⭕️⭕️,822yfzxl,,สวยงามมาก😏,6-3-2022,
73,soica,soica005,,giá bao nhiêu vậy a,24-2-2022,
74,Gold_Duy,gold_duy,,có những bác chưa dùng ss đời cao nhưng vẫn vào chê như đúng r,24-2-2022,
75,mona zaaz boru jabat,user6900714183783,,brapa itu harga nya,23-2-2022,
76,bts fan,yoonsu05,,တင်ထားတယ့်vdလေးlikeဝင်ပေးဖာလား,5-3-2022,
77,noppon1533,noppon1533,,พึ่งตัวเอง s22เอาต้า มาครับ ตัวท๊อบสุด,5-3-2022,
78,@LizvarelaLopez123,lizvarela37,,precio,5-3-2022,
79,dyfzon89suif,dyfzon89suif,,đang dùng s22ut cmt 🥰,4-3-2022,
80,朱古力87,user4520516948902,,quá sai lầm khi mua con này.....xài do hết phần thiên hạ.. bị lỗi con ip68. xài nóng như tăng phô,1-3-2022,
81,Simonpetrus Margo586,simonpetrusmargo5,,harga y berapa,27-2-2022,
82,JoeynavenHozey✝️,joeynaven,,nice fon bruh,25-2-2022,
83,Bro Sophannith131,brosophannith131,,Sartណាស់🥰🥰🥰,24-2-2022,
84,minnnyounggg,22itsminyoung23_,,my phone 😊,24-2-2022,
85,user7431194504609,user7431194504609,,ဘယ်လောက်လဲစျေးက,23-2-2022,
86,고객,customer095,,s22 울트라,23-2-2022,
87,SC,saochea,,តម្លៃ,23-2-2022,
88,이복동이🌹🌹,ex76624985,,삼성5GS21 👍,23-2-2022,
89,Maria Filgueira Soares,mariafilgueirasoa,,valor,1-3-2022,
90,miowsaltowww🤸,kjbyeol,,Bismillahirrahmanirrahim🥰,28-2-2022,
91,Nurul Syafiqah4319,at_cikah11,,wow😍,27-2-2022,
92,بارون تماسيح القريعة,moroanas04,,prix,25-2-2022,
93,Alybugis878,alybugis878,,klau aku Samsung M12 😏😏,25-2-2022,
94,bangjowo.publik figur👨‍🎤🤴🕺,aslam.akangjawa_real,,bgus bnget ya🥰🥰,23-2-2022,
95,Call me qhafkaa_,qhafka1005,,masi pake samsung s21 sih🤣,4-3-2022,
96,Safril Irnc,muhsafril5,,kak cek harga ?,5-3-2022,
97,"Noe, ♥️ Noe, ♥️",moe.may2,,ဘယ်လောက်လဲ,4-3-2022,
98,Tamao Serizawa2576,tamaoserizawa2576,,binjai,4-3-2022,
99,Sarlius,sarliustamasoleng,,Ku msh vivo. 😅,1-3-2022,
100,Ardhi Susanto,ardhisusanto67,,nama pelindungnya apa ?,27-2-2022,
101,I,ivnn.001,,Samsung Galaxy S9 Plus nyimak yg duluan keluar seharga 13 jutaan,26-2-2022,
102,Helmi Emi637,helmiemi1970,,m22 udah cukup,25-2-2022,
103,Unknown💔,yoonnadichit0,,ကြိုက်လို့😘😘😘,25-2-2022,
104,zxzyzz,zxzyzzzz,,kapan beli ini anjir,23-2-2022,
105,user2332319783695,user2332319783695,,harga?,7-3-2022,
106,Triyan Antoni876,jongos8213,,kapok beli samsung..samsung A51 saya blom ckup 2thn dah tepar...😏😏😏,2-3-2022,
107,ذمسةسخسومصوصت,semoga_lancar0,,sy sdh beli ini gue pake,27-2-2022,
108,.,123455789qwerty,,yah udh kelanjur beli oppo Reno enem g,27-2-2022,
109,Елжан Ерқажы590,user3mlr4t2x2y,,Бөспеш,25-2-2022,
110,huynhsaker,tohuynh2003,,vẫn xài note 20 ultra 5g 🥺🥺🥺,12-4-2022,
111,Quân,user6226025550233,,Mình đang dùng s22plus k chê điểm gì chê mỗi cái pin quá yếu,12-4-2022,
112,ø mìì ĵķĵ ķ'ŝá,nisa2566l,,ទូរស័ព្ទចេះតែចេញសារីថ្មី តែខ្ញុំនៅប្រើអាចាស់ដដែល😅,11-4-2022,
113,Bảo Ngọc,user137408199,,gia bao nhieu ban oi,11-4-2022,
114,ᴢᴇɴᴏᴏɴ,sike12345566,,ကျော့်အဖေကိုင်တယ်,10-4-2022,
115,ᴢᴇɴᴏᴏɴ,sike12345566,,ဆယ့်ငါးသိန်းသုံးသောင်း,10-4-2022,
116,tray8978910798391,user8978910798391,,rm brapa,10-4-2022,
117,irza.oktary,jianhary,,samsung be like🥰,10-4-2022,
118,Vickie,mmwl554454,,လိုချင်ပီ,10-4-2022,
119,爱你,nyijiang0,,这个怎么买@,9-4-2022,
120,Isme._phuoqq🍄,annyoeng._phuongdayyy,,nokia:))))),9-4-2022,
121,Phyoe Wai Naing468,phyoewainaing468,,How much?,9-4-2022,
122,Cristina Londoño239,cristinacordon1,,guau🥰😳,8-4-2022,
123,yizhan fan,wadi5122,,ေဈးဘယ္ေလာက္လဲဝယ္ခ်င္လို႔😳,8-4-2022,
124,ᴄᴇʟʟᴘʜᴏɴᴇ ɴɪ ᴍᴀᴘʀᴇɴᴅシ︎,maprendd_2,,Samsung A 72 here,6-4-2022,
125,Nang Sri Baoruang,nangsribaoruang,,สวย,6-4-2022,
126,micky.gar8,micky.gar8,,precio,6-4-2022,
127,🇲🇲Kaung Htet Kyaw😍😍🇲🇲,loverlover439,,အတာ၄သိန္းခြဲပါ,5-4-2022,
128,•🧋Froggy🐸💚🧋•,y2s._.froggie,,My Dad have that,5-4-2022,
129,Luisa Kolonio,luisakolonio,,😳🥺🥺🥺 al segundo mes que lo compre se rompió la pantalla 🥺🥺,4-4-2022,
130,maneka,maneka89,,cek harga,4-4-2022,
131,🅑🅤🅙🅐🅝🅖 🅕🅞🅡🅜🅞🅢🅐,pejuangmasadepan450,,skrg brpa harga,4-4-2022,
132,user6309392391119,user6309392391119,,စျေးလေးပြောပြပါလားဖုန်းဝယ်မှာမို့,4-4-2022,
133,Violeta Chiquita Vim,rominagarc04,,q precio tiene,4-4-2022,
134,다이😹👌,thai3698,,S21 ultra🥰🥰,3-4-2022,
135,user1981998600575,kieutrinh4759,,đẹp,3-4-2022,
136,i'm gonna be star💅💅,echa_roblox71,,mamah ku beli harganya 18 jt,3-4-2022,
137,ကိုခိုင်ကွတ်သားလေး,dy2cbv3jofga,,ok,3-4-2022,
138,hendry,henz051,,my dream🥰🥰yes at my dream😏😏,3-4-2022,
139,ĐỊNH FMON,g_f_mon,,con này ram nó bao nhiêu,2-4-2022,
140,Ăŭñĝ Μýò Wíñ,dybsp3f5r7u9,,Ramလေးပြောပြပါလား🥺🥺,2-4-2022,
141,Hertine,hertine5,,pengen ganti hp...pakai hp sebagus itu,2-4-2022,
142,Sitt Min Nyo711,sittminnyo711,,ဘယ်လောက်လဲbro🥰🥰. .ကျနော်ဝယ်မလို့...ကျနော့်ဖုန်းကချုးခံလိုက်ရလို့🥺🥺,1-4-2022,
143,Zul Manto9445,zulmanto2,,zoom X100,1-4-2022,
144,هلال علي السبئي,user4se3zb1nve,,اا,31-3-2022,
145,Hdvdbrj Dkevdve,hdvdbrjdkevdve,,I have 😁,31-3-2022,
146,Ketmanee Jantaharn,ketmaneejantaharn,,สวย,31-3-2022,
147,Wahyu Sha709,xcchandra,,sampai Blitar bos😂,31-3-2022,
148,user339133,user3391334,,could you please send me one,31-3-2022,
149,Vdjblmsk,vdjblmsk,,ok,31-3-2022,
150,sangvalrachawong,sangvalrachawong,,ราคาๆๆๆ,31-3-2022,
151,PJ☆♡,pc__.321,,พ่อหนู s22😳,30-3-2022,
152,Nikmah348,nikmah3488,,aplah daya a72🙄,30-3-2022,
153,လငရငခသ လရငခသ,myominzawwww.tiktok.com4,,လှလိုက်တဲ့ဖုန်း,29-3-2022,
154,Bosca โลกต้องจำ,phetsengchan,,wow amazing 😍😍,29-3-2022,
155,Miryanti KS,miryantiks,,Samsung besti ibu saja hp pinjam,29-3-2022,
156,ae12_bee,ae12_bee,,hp Samsung,28-3-2022,
157,taufit Marzuki,toufittudia,,berape harge,28-3-2022,
158,braksophal,brakaophal323gmail.com,,តម្លែប៉ុនម៉ានបងទិញមួយ🥰,27-3-2022,
159,Aziz Z677,aziiz7000,,samsung berapa ni,27-3-2022,
160,សមបតត លកខណ939,usergr5ibo60uw,,Wow,25-3-2022,
161,Leap Kh536,boramey756,,ស្រលាញ់🥰🥰,25-3-2022,
162,Ace Ace Acx,aceaceacx,,hi,24-3-2022,
163,Mikasa Min HO,mikayoon_gi,,Qué modelo es?🥺,24-3-2022,
164,Aung Aung92612,aungaung926128,,hi,24-3-2022,
165,user1497166727591,user1497166727591,,ဈေးလေးနဲ့ ဂိမ်းဆော့ကောင်းမကောင်းပြောပြပါလား,23-3-2022,
166,แอนนานักโภชสายกลาง,annanutritionist,,เคสรอมาจะครบปี ยังไม่มีจ้า,23-3-2022,
167,Tinh Sky670,tinhsky670,,mua,22-3-2022,
168,solahudinsaid,solahudinsaid,,mau kakak😌,22-3-2022,
169,mcrodge?,mcrodge,,same phone,21-3-2022,
170,sudip ydv 8848,sudipyadav8848,,oopy😂😂😂😂,21-3-2022,
171,Ram Bahadur Siptungkha,kirati_yafeel_7,,how much it's cost,20-3-2022,
172,Lek,drcomputerth,,ใช้อยู่ พอได้อยู่ครับ 😄,20-3-2022,
173,Kim gyoyukk,gyoyukk,,awesome phone 📱 in the world 🐱 Samsung,20-3-2022,
174,samantha,amelia_gurl5,,can you test A52 please,20-3-2022,
175,wintin385,wintin3853,,ok,19-3-2022,
176,Vlie_nne,lan_alleine,,Im using one right now😁 It's my mom's though but she can't even get us a 20k phone😁,18-3-2022,
177,user9271194524217,user9271194524217,,ေဈးဘယ္ေလာက္လဲ့,18-3-2022,
178,🥰Khant phoe myat aung👪718,userktqqmt1vyjkhant,,ဈေးဘာ်လောက်လဲ,18-3-2022,
179,user3703779914874,user3703779914874,,ဝယ်ချင်လိုရလာ,18-3-2022,
180,♡︎ᴀʟɪᴄᴇ♡︎,alice72105,,မမအဲလစ်ပါခင်ပေးကြပါအုံ,18-3-2022,
181,Trần Hùng60263,user03trs9ktn2,,giá sao vây e,18-3-2022,
182,😁😁😁khing😁😁,khing908,,ဘယ်လောက်လည်,18-3-2022,
183,user9387469961059,1m2e3m4e5,,متل الي معي,17-3-2022,
184,A Gyikaung,agyikaung83,,ကြွေပီ,17-3-2022,
185,robbyfirmansyah,robbyfirmansyah13,,keren bgt,17-3-2022,
186,Tun Tun Win6439,tuntunwin6439,,၀ယ်ပြီးပြီ🥰,17-3-2022,
187,Ngabui Nga Bui,ngabuiii33,,mình mới mua mà nỗi cam trước k biết sửa ở đâu vì hàng sách tay,16-3-2022,
188,leonam,lijum17,,same,16-3-2022,
189,Su Su Hun,susuhun6,,hi,16-3-2022,
190,papabearzz1,papabearzz1,,"S22 ultra, you think you only got ? wrong ,i also got it",15-3-2022,
191,Kyaw Zaww Tin,kyawzawwtin,,s 10 ဆိဘယ်လောက်ရှိလဲ,14-3-2022,
192,cahaya,flowssl,,Samsung apa?,14-3-2022,
193,谦,asheng0111,,爱了🥰,14-3-2022,
194,arzana,arzana12345,,nice,13-3-2022,
195,My cell Mycell,mycellmycell80,,dimn bisa kita pesan,13-3-2022,
196,My cell Mycell,mycellmycell80,,berapa harga nya,13-3-2022,
197,rosell,dxlly_jane123,,woi I'm using it rn.,13-3-2022,
198,অবুঝ মন আমার,soniya786hs,,harga brapa,12-3-2022,
199,folow me,m.najri_chanel,,gw kapok pake samsung,12-3-2022,
200,Bryan Saputra⚡,bryan_xcay2,,bantu viralin vidio gw spamn virtex kalau bisa bang,12-3-2022,
201,mojoo player👤,myatkant00,,wow😨,12-3-2022,
202,.,bcn.lordskippy,,i just have samsung galaxy a52s,12-3-2022,
203,Emma❤,emmaroblox_6782,,i have that already :)),11-3-2022,
204,ធន យង650,dyo36dc9vdl0,,ស្អាត,11-3-2022,
205,user8041934346079,user8041934346079,,Uraa,11-3-2022,
206,Soon Lee Love,soonleelove,,ဘယ်လောက်ဈေးလဲနော်🥰🥰🥰,11-3-2022,
207,TuSirenitaarielluna🌙,tusirenitaariel,,precio en Bolivia,11-3-2022,
208,ไชยะจัก,user3162259517112,,ລາຄາເທ່າໃດ,10-3-2022,
209,,gtxmars,,there is a phone behind your cameras,10-3-2022,
210,Lilja,lilja_cecilie,,I got the samsung a52s or something like yhqy,10-3-2022,
211,محمد ايمن,dydfcj3rn077,,السلام عليكم ورحمه ممكن سوال هل في عرض على أجهزة سامسونج جالكسي يوم الجمعة و السبت الموافق 11و 12 مارس تشتري جهاز و الثاني هديه مجانيه يريت ترد علي,10-3-2022,
212,【34】Kara K A R A E N IYISI,pupkeyz_pupesports,,knk bende a52s+ 5G VAR YANI AYNISI BENDE VAR🥰,10-3-2022,
213,Min May Souk Foke Kwe Loe,minsorngrloe1,,s paw min may loe,10-3-2022,
214,useอาฉัน778899,user5698214518166,,หล่าคาเท่าไร้,10-3-2022,
215,Sai Thaw Tar Min523,kominsa,,မိုက်တယ်,10-3-2022,
216,ละอ่อนเหนือ,userx4smqy1wyu,,ชัมชุงA52S 5Gไหมครับ,10-3-2022,
217,mim69adiba🥰,mim69adiba,,is not originals,10-3-2022,
218,user850825424562,user850825424562,,ยากได้,10-3-2022,
219,dawan72,dawandawan72,,SAMSUNG HP GDA MATINYA..,9-3-2022,
220,Linhtet199,user5332363652527,,ကြိုက်ပီ😳😳,9-3-2022,
221,Antonhy Ramirez98 el chamuko,antonhyramirez98,,"en Guatemala Q 8,000",9-3-2022,
222,bella.❤❤🐞💐Any🌹🌹,anabella_495,,wow belleza🥰🥰,9-3-2022,
223,yếnđậu,yendau9820,,note 10 quá cố rồi,8-3-2022,
224,natchananda,natchananda887,,สวย,8-3-2022,
225,noala corrupción,noalacorrupcionp,,1100 usd el s21u de 256 gb pagué en Chile,8-3-2022,
226,Quốc Dũng2055,quocdung588,,mấy thánh hok biết nói như rồng. giá hiện tại là hơn 33.900.000 nha. nếu đặt hàng trước được giảm 5tr còn lại gần 29.000.000 nha,7-3-2022,
227,rinaldifrasetyo,rinaldifrasetyo,,cakep tuh smart phone😇😇,7-3-2022,
228,💜🌸》내 사랑 정국《💋🐰,jeon_jungkook076,,punyaq samsung A52s beda tipis 😅,7-3-2022,
229,Cinta Abadi8699,cintaabadi86990,,berapa duit,22-2-2022,
230,💔ŤãmBaĹ HåțÎ💝,smt1l,,love samsung🥰,22-2-2022,
231,Kendo988,kendo_9090,,lúc trc đam mê samsung. Giờ chán. bẻ khóa rất đơn giản thông tin bảo mật đều bị lộ,22-2-2022,
232,julia yesra,julia.yesra,,woahhh bagusnya... aq ja msh pake A70 .. liat ini ternyata lbh bagus 😃,22-2-2022,
233,151myatnoeeain151,user2367471074218,,မကြိုက်ပါဘူးဟယ် ph ringtone😏😏စံကတိုးတာ ဝယ်ပြီးမှ sရမ်းမှား😏,22-2-2022,
234,kokochitgigu,kokochitgigu,,ကြိုက်တယ်ဗျာဘယ်မှာ မှာလိုရမလဲ,22-2-2022,
235,LINH XE ÔM,link9.gmail.com.vn,,xin giá,21-2-2022,
236,☀️Cheems khóc^^☀️,cheemscc,,"mình có chiếc đang dùng mua thế giới di động còn bảo hành 10/2022 ,khu vực hà nội ai mua mình bán",21-2-2022,
237,PiscesCute♓,tiramisu_cream16,,sangat keren,21-2-2022,
238,kakapinky,pinky4335,,ကြိုက်တယ်ဗျို့,20-2-2022,
239,Prabhu,prabhu_baral123,,best phone in the world🥰,20-2-2022,
240,user1021930618634,user1021930618634,,ကြိုက်တယ်,20-2-2022,
241,Jay Ar Campo790,jayarcampo790,,70k😂,20-2-2022,
242,💗💗💗MAY💗💗💗,maybrani029,,ဟုပ်ကဲ့ကျယ်မsingleပါ😃😃💗💗💗💗💗💗💗💗💗,20-2-2022,
243,😘THIHA😘,thiha22217,,HOK,20-2-2022,
244,WildanGuspradana,wildanguspradana02,,"Mampunya Masih Beli A52s 5G 😂,",20-2-2022,
245,An,anchian7,,Harga di Malaysia 6k,19-2-2022,
246,Aung Ko Ko Htet Paing,aungkokohtetpaing,,wow bro i like this mobile😌😌,19-2-2022,
247,SEYDOU MATENIN SIDIBÉ,startima2,,Wahouuh,19-2-2022,
248,Indi Eke,indien23,,the samsung power 🥰.,19-2-2022,
249,ДАГЕСТАН,05marat5,,Я за 470 машину куплю,19-2-2022,
250,___Ma___Chao___168___,___ma___chao___168___ll,,តម្លៃ,19-2-2022,
251,moelay91847,moelay91847,,ဘယ္ ေလာက္ လဲ,18-2-2022,
252,user761638048617,sonephv,,ຢາກໄດ້🥰,18-2-2022,
253,🌜🐼,2065.07.28,,much better than iphune hae @<3,18-2-2022,
254,Minhentertainment,minhentertai,,tui chỉ tin dùng 3 hãng máy 1 oppo 2 iphone 3 sam sung,18-2-2022,
255,I'm Back,aluking556,,ဂုဏ်ယူပါတယ်မိတ်ဆွေ ဒီမန့်ကိုမြင်တဲ့အတွက် သင်ဟာကျတော့်ကောင်မလေးဖြစ်သွားပါပီ.🥰😅😅,18-2-2022,
256,KoKoMaung64,kokomaung64,,ေစ်းေလးေျပာျပပါလား,18-2-2022,
257,arum ndalu,user832068211,,"aku aja masih pakai note9 nya
la ini dah kluar2 yg baru trus.",18-2-2022,
258,Jawhed,jawhedjago,,cek harga,18-2-2022,
259,Kham Kham5711,khamkham5711,,ຂໍລາຄາແດ່,18-2-2022,
260,@kyawzinthant9988,kyawzinthant339,,ရချင်မီ😇😣,18-2-2022,
261,hungdayy,hungdz565,,CHỊ TUI CÓ,18-2-2022,
262,သနထန797,dyalb1nyo452,,အသံတော်တော်ြကယ်တယ်,18-2-2022,
263,သနထန797,dyalb1nyo452,,လက်ရှိကိုင်နေတ။အဲ့ဖုန်း,18-2-2022,
264,holubovaterka,holubovaterka,,pls zakolik moc pls,17-2-2022,
265,holubovaterka,holubovaterka,,za kolik 😮😮😮😮😮ten je hustej ten chci,17-2-2022,
266,Michat Cabang Bali,sayacewebangly,,hp nya sama kayak cowoku,17-2-2022,
267,tỷ tỷ,kungood94,,chung thanh voi samsung mãi iu,17-2-2022,
268,cinta Fitriaqila,52.31,,waw,17-2-2022,
269,သ၊ဝ္မူိင္းလူင္,user2262656517320,,ဘယ္ေလာက္လဲ,17-2-2022,
270,.... poolay11 ....,poolay11,,รุ่นนี้ หาเคสสวยๆ ยากมาก,17-2-2022,
271,taktau6897,taktau6897,,give to me,17-2-2022,
272,ko htet,hallarhallar920hallar,,စျေးသိချင်ပါတယ်,17-2-2022,
273,❤$ပေါမလေး❤,kyalsin2981,,ဝယ်ပြီးပြီကင်မရာတေည်တော်ကောင်းတယ်,17-2-2022,
274,Farah,farah123456789123456789,,Aku Samsung A72 Pro max😂😂,17-2-2022,
275,all,muhammad.irwan01,,samsung memang keren😳,17-2-2022,
276,minmin,tukiminmin2,,aku juga pake samsung 3..3jutaan,17-2-2022,
277,els🗿,elsa88elsa,,hp sy jg Samsun,17-2-2022,
278,Ashok Khatri,ashokkhatri67,,pp?,17-2-2022,
279,Tria.l,tria.l,,Tahun lalu beli s21 ultra,17-2-2022,
280,Hans_Tjia99,hans_tjia,,Want 1😁,17-2-2022,
281,cahlmjg1,cahlmjg1,,bnyk yg tnya harganya sy beli 1199.rm,16-2-2022,
282,sushi traxh,sushitraxh2,,I WANT🥰,16-2-2022,
283,polce211208,nyongnhope853,,hargax brpa,16-2-2022,
284,ปั๊กขวิ๊ดพืชที่ถูกลืม,onnicha.99,,อยากได้,16-2-2022,
285,Sai Sai,user8961230965106,,Please answer how much?,16-2-2022,
286,thaxaina,usrrr060,,price,16-2-2022,
287,A Ngel Kaung289,angelkaung289,,ေစ်းႏႈန္းေျပာျပပါလား,16-2-2022,
288,user6323584823724,lytheang168,,🥺🥺love,16-2-2022,
289,"""ZORO""",user2183632859191,,ဘယ်လောက်လဲ😏😏,16-2-2022,
290,oummi,.oummi.22,,Yes 😁😁😁😁,16-2-2022,
291,user1801085014889,user1801085014889,,giá bao nhiêu vậy bạn,16-2-2022,
292,Faradila Fudzi,user6344985372729,,Price,16-2-2022,
293,ddysbarandgrill,ddysbarandgrill,,s21 camera it's dope,16-2-2022,
294,Rose Rose,roserose8221,,manis..😁😁🥰,16-2-2022,
295,ipah223,ipah223,,keren bnget tp g punya duit,16-2-2022,
296,Inggrid Hartono 谢,inggrid_hartono,,❤ samsung note9,15-2-2022,
297,Bint Husen,user51401012,,H m samsung A 72,15-2-2022,
298,PaingLay,user7452376678810,,ဘယ္ကိုဆက္သြယ္ရမာလဲ,15-2-2022,
299,Hlub Koj Xwb451,hlubkojxwb4156,,giá b nhiu,15-2-2022,
300,Bucin5298,bucinpo,,sunguh kren 😁,15-2-2022,
301,Cá koi 992,cakoi992,,máy này máy gì vậy bạn và bao.tiền vậy đẹp quá,15-2-2022,
302,Qimi7560,qimi7560,,Betui ka 1300 ja....😏,15-2-2022,
303,Soumendu Das625,soumendudas05,,hi,15-2-2022,
304,𝗔 𝗥 𝗞 𝗔,c0ollkidzz_,,Pake Samsung A70 Aja lah😁,15-2-2022,
305,buza,gutengguteng245,,kirain a52 😂,15-2-2022,
306,ahnoe941,ahnoe941,,စျေးကဘယ်လောက်လဲ,14-2-2022,
307,faကောင်လေး,hhajfuukdhhjdoajcjgkjd,,ဘယ်လောက်လဲ,14-2-2022,
308,Châu Bánh Bao,chaubanhbao29,,vừa mua lúc nãy new seal 19tr7,14-2-2022,
309,legend,sugiono_8669,,sy trauma pke samsung lcdnya kya ampas,14-2-2022,
310,Emoji_STory<33,the_robloxstory1,,am using it now,14-2-2022,
311,abelsalidigan,abelsalidigan,,eow😌,14-2-2022,
312,Aprilyachantika97,aprilyachantika97,,punya ku masi S20ultra 🥺🥺,14-2-2022,
313,Arasi Ala Aufa,arasialaaufa1,,boleh nanti belinye nunggu THR turun...😁,13-2-2022,
314,kamrul,as_asraful,,৩০ হাজার টাকার মধ্যে উন্নত মানের ক্যামেরা ফোন কি মডেল এর পাওয়া যাবে। বাংলাদেশ,13-2-2022,
315,𝗥𝗨𝗗𝗬.444..𝗣𝗟𝗔𝗧.𝗘🅾k☑️,rudy.rudy444,,kren,13-2-2022,
316,1134567789zvbjhchhcuc548,1134567789zvbjhchhcuc548,,bao nhieu 1kg cho 5taj,13-2-2022,
317,Skl Skl319,sklskl319,,samsung kun mobile ho kati price ko ho malai riplai pathaunu na,13-2-2022,
318,Kim Quyên,dy74jpf8cjtt,,mjh mua 35,13-2-2022,
319,ឪត្ដរមានជ័យ ទឹកដីកំណើតខ្ញុំ,dy2v9uxr0fhq,,ราคา,13-2-2022,
320,user,175monkeys,,"kak, uangku 2000, cukup ga?",13-2-2022,
321,sopianyaniani,sopianyaniani,,berape bos harga diye,13-2-2022,
322,Juhdi Dalimunthe,juhdidalimunthe,,cek harga bos,13-2-2022,
323,𝐘𝐞𝐨𝐛𝐨,hshluvvv,,just want 1k follower 🙂,13-2-2022,
324,LOST MORALITY,mylife58739,,"Samsung Galaxy S21 Ultra Review: It has a 6.8-inches Dynamic AMOLED display, which is smaller than the Galaxy S20 Ultra",13-2-2022,
325,Damar1807,damar1807,,mungkin smsung msih kalah sm iphone dah...wkwkwk,12-2-2022,
326,maitedsanchez121,maitedsanchez121,,nice,12-2-2022,
327,D' Transporter,bryanuy84,,price please,12-2-2022,
328,smarvandeep,rawnieailend,,gw mao beli doit nya kurang 2rb perak😌😌😌,12-2-2022,
329,Joko Umbaran8785,jokoumbaran8785,,mau kak,12-2-2022,
330,Raana,raana_____,,skrg aku jdi pengguna samsung,12-2-2022,
331,🌹🌹🌹,dyp0wzfghu9q,,كم سعر,12-2-2022,
332,triple Z Family,triplezfams,,masih bertahan dgn samsung s20 ultra aja 😂,12-2-2022,
333,HP MURAH 100% ORIGINAL,mitracelluler_surabaya,,hay kak yuk mampir di @HP MURAH 100% ORIGINAL kita lagi adakan bigsale lhooo... jangan ketinggalan ya,11-2-2022,
334,alyaa♡,nazwaayyaa,,hp yg gw pegang😳,11-2-2022,
335,bangdede73,bangdede73,,pake yang ada aja lah samsung a51😁,11-2-2022,
336,Hmm,yudhiyaelahh,,hp gua😳,11-2-2022,
337,Con Trai của Bố,contraicuabo,,1.5tr,10-2-2022,
338,Сабит Шериев,alihanadilbai,,т,10-2-2022,
339,uyayuyayarpandi,uyayuyayarpandi,,keren ya masih berapa ni,10-2-2022,
340,Wai Myo372,waimyo3720,,ဘယ္ေလာက္ လဲ,10-2-2022,
341,"""โบโบ้&พารวย""😘😘💞💕",bobo_boooo,,38000ครับ,10-2-2022,
342,dym1t6f3s637wimon,wimon.2514,,ตระกุลSใช้ทนค่ะ,10-2-2022,
343,erik,keilyngarcia4,,el mejor 🥰,10-2-2022,
344,စေကာ့ကရင္လူမ်ိဳးပါ,y2k8111,,SONY Ph က်ေတာ့ ဘာလုပ္မျပေပးတာလဲဗ်,10-2-2022,
345,Sarinten,sarinten11,,pengen tpi mshal😳😳🥺🥺🥺,10-2-2022,
346,BCM221,bcm221,,"sumpah
ini handphone nya kelihatan elegand bgt desain nya.
jujur sy sgt cinta bgt sama samsung",9-2-2022,
347,antonioalves9821,antonioalves9821,,@oi,9-2-2022,
348,user3513289740779,alhadejoke,,S21 ultra is how much,9-2-2022,
349,Yudhi Hadmin putra,user34215123841913,,insyallah ada jalan,3-3-2022,
350,Mg Mya Gyi471,mgmyagyi471,,meetoo,6-3-2022,
351,user9938545173355,lalito562,,alguien puede dar el costo en español,5-4-2022,
352,chính khách,chinhkhach04,,2 triệu mới mua😂,2-4-2022,
353,de todo un poco 😊,edit.pro.tiktok,,pana regalame un sel para mis estudios esque le que tengo no alcansa espasio esque el que tengo no sirve igual esque lo nesito para mi espasio plis,29-3-2022,
354,funny girl,userthapaz,,how much?,24-3-2022,
355,dzdcayigjbmlvge,a.table.is.special,,How much,22-3-2022,
356,Adri,adrifajrilham,,samsung a71 gua belik 6jt jual cuma 4🥺,20-3-2022,
357,chuongpham888,chuongpham888,,cho xin giá.samsung gì vậy,14-3-2022,
358,Azay sancayyy,user7611620380384,,"d,jual jatuh harganya separu harga",14-3-2022,
359,duniyar Kamshi,yunusa668,,Hw much,9-3-2022,
360,itissofar,itissofar,,how much ?,9-3-2022,
361,Planiswamy Vijayakum,planiswamyvijayakumar,,how much,8-3-2022,
362,suraj jaysawal59810575,surajjaiswal59810575,,how much,3-3-2022,
363,Juan Carlos Vega,juancarlosvega42,,que precio tiene ese Samsung las características,2-3-2022,
364,guadalupe Barrera roman,guadalupebarrerar0,,k modelo es,1-3-2022,
365,Honesty s Gabino,saidinsgabino1,,how much,22-2-2022,
366,Khary Num,kharynum,,how much b,22-2-2022,
367,Nasiru Alhassan bara,nasirualhassanbar,,Beautiful how much?,20-2-2022,
368,Aurelian,aurelian88,,Can I have one please,20-2-2022,
369,Khemra Chum,chumkhemra777,,how much🥰🥰,19-2-2022,
370,abubakarbin,abubakarbin400,,hello how much this s 21 ultra,17-2-2022,
371,Ihat Puraihat,ihatpuraihat,,brp s' hrg nya hp model gini,15-2-2022,
372,Bross ka 262,pengvichka262,,How Much,12-2-2022,
373,Otunba,otunba34,,I love this. pls hw much?,10-2-2022,
374,minkhat044,minkhat044,,how much,27-2-2022,
375,Lily Ana211,lilyana2113,,how much,24-2-2022,
376,iyaa,naomii056,,pingin nya 🥰🥰,4-4-2022,
377,Sneakers_Mario,sneakers_mario,,ill follow you !,30-3-2022,
378,Fauzikin06,fauzikin06,,like😁👍🏻👍🏻😊,22-3-2022,
379,It's Me..,qin2shop,,nunggu 10jetong ajalah 😂😂😂,9-3-2022,
380,Sushila Raj Niroula,rajsushiniroula16,,pp kati,6-3-2022,
381,Hiwang hiwang tong hiwang,user0827o235,,Deeznuts,25-2-2022,
382,mumun,meijuwit,,"orang2 pd komen beli., lag gw cuma bisa ngecess doang",12-2-2022,
383,Bình Nguyễn,binhtrinh9679,,10tr ok,12-2-2022,
384,Tim Dijasa Kediri ✅,timdijasakediri,,"INFO cek di Aplikasi ❤ DIJASA ❤
install di playstore infonya lagi ada PROMO sekarang....!!!",7-3-2022,
385,sedec vallejo,user6380374488427,,cuanto.bales,31-3-2022,
386,Charlotjeanabellard,user8904077762845,,cuanto erpreso,31-3-2022,
387,beautiful_earth31,beautiful_earth31,,cầm cái này đi tán gái chắc được 😂😂,31-3-2022,
388,..,mairuumaii,,รุ่นเดียวกันเลยค่ะ😊,17-3-2022,
389,Thường TD,MS4wLjABAAAAoApmBgTUbWLbyb3-EDLZ7e6q3Pufk-z_YEU0CF24etJ7EzcdTN3Qdxga47JwuWfl,,mất giá nhanh,7-3-2022,
390,🎖สมัครง่ายเงินชัวร์🆔@PG689👀,thank1573,,🎯ยิ่งกว่า30ล้าน🔝ฮิตมากแม๊⤴️⬆️,6-3-2022,
391,Ly Heng2227,lyheng2227,,how much usa$?,21-2-2022,
392,Keen Lớn,keennho37,,mới làm con a52s 10tr900,20-2-2022,
393,shamsol mohamed,shamsolmohamed8,,"if u trade with note 10 plus ,need to add 780 cash for this phone😅😅",17-2-2022,
394,𝄞❦̷N̷ 𝑎𝑘𝑘𝑎𝑙𝑒🦋𝕭❣️𝕻,sapanatimaromero7,,my phon s 21ultra 🥰🥰🥰🥰🥰🥰🥰 no 1 samsung phon camera🥰🥰🥰🥰🥰🥰🥰🥰🥰,17-2-2022,
395,王振豐,usero8tykf0ukj,,我的今天送修死當,16-2-2022,
396,Jahred Espiñoza,userzf3ondhzhj,,always overheating. .battery life not good,15-2-2022,
397,Bang Didul,bang_didul,,ora duwe duweeet,15-2-2022,
398,user56339587544111,catjepenk28,,"ikutin yg punya product, dijamin yg punya product kaya raya,pesat,... yg ngikutin jd korban tambah melarat...",12-2-2022,
399,Сабит Шериев,alihanadilbai,,братан телефон мыкты 70000тураиын,10-2-2022,
400,29maine29,29mhaine2020,,samsung s22 Ultra latest,12-3-2022,
401,tray8978910798391,user8978910798391,,pm,10-4-2022,
402,ohmohm119,ohmohm119,,ราคากี่บาท,9-3-2022,
403,user3847605898005,user3847605898005,,ราคาเท่าไรครับ@,28-2-2022,
404,Tung May935,tung935,,ให้มาไรนักหนากล้องอ่ะ,23-3-2022,
405,Ayss Ilocanoy,ayssilocanoy,,piuro iyakin ang naririn8g ko lagi,14-2-2022,
406,Xa Xa Kim,kimxaxa789,,SAMSUNG dùm chip Exynos xác đinh đi bắt sóng wifi và 4G yếu hơn CHIP NAD . SS CHỈ DÙM DC CHIP NAD MỚI VÔ ĐỊCH 😂😂😂,1-4-2022,
407,nadiraharova280,nadeva7867,,Ih keren mau dong,13-2-2022,
408,sarahi25,sarahy2587,,recomendado,11-2-2022,
409,carmesuse,user9701142064441,,tilefono,11-4-2022,
410,carmesuse,user9701142064441,,Hola cómo es tas,11-4-2022,
411,dybuy8qc97ld,dybuy8qc97ld,,အဲ့ဖုန်းဘယ်လောက်လဲ ဗျ,8-4-2022,
412,R R,user8429763535120,,saya mau banget hp Bagus,13-3-2022,
413,user9980786600717,user9980786600717,,"😅🥰সাদ shaad
😂",11-3-2022,
414,Aamon tik tok,playerml959,,aku Oppo reno 7,22-2-2022,
415,วนทน ยกกลน877,dy0txoaahpbp,,สวยค่ะ,16-2-2022,
416,yousef kadafie,fann_cute.uwu,,Hp ku itu 😏😏😏😏,13-2-2022,
417,Supandy Lutan,supandylutan,,note 10 aja gx habis2 pakenya.,12-2-2022,
418,ykov53,ykov53,,😎😎😎,8-2-2022,
419,zatul emma,deqmalolove,,@@suffi_rashid 🥺🥺,11-2-2022,
420,user7810249769436,user555980806,,@nyi_sitt,9-4-2022,
421,Nana_shopping,kamillatastys,,😏😏😏😅,6-4-2022,
422,ប រ8520 Bora ស្អប់ការសម្ដែង,userg2pgardng9,,🥰🥰🥰🥰,4-4-2022,
423,YoonPhyu,yooon1244,,@dgrkkt111,3-4-2022,
424,beto chiluisa,betochiluisa2212,,😇😇😁😁😆😜😝🥰,1-4-2022,
425,Matthew Harka Hutabarat,cyharjihutabarat,,🥰,31-3-2022,
426,"Hak'' ma thr lay "")",imurgf58..1,,@beutybella4,30-3-2022,
427,lee หมกรอบ,user7aqoa7kw0j,,😳😳😳,30-3-2022,
428,angelinasouza 000,angelinasouza000,,😌,28-3-2022,
429,Phyo Phyo4000,phyophyo4000,,😁😁,27-3-2022,
430,Felip Gaming,felipgaming,,😂,24-3-2022,
431,Asrul Hae,asrulhae,,🥰🥰,23-3-2022,
432,jeasrase,eiondelacruz,,@jeasrase,22-3-2022,
433,Meta world,meta_world8,,👍,20-3-2022,
434,user1576936951094,user1576936951094,,😽😽🙂,20-3-2022,
435,Ngọc San Giàng,userm7oduddphh0,,😏,19-3-2022,
436,Ko lay Kolay168,kolaykolay1687,,🥰🥰,16-3-2022,
437,❤AGIRLBot1206❤,agirlbot1206,,😌,16-3-2022,
438,user8322088001288,user8322088001288,,😂,15-3-2022,
439,FAေကာင္ေလးပါဗ်ာ🤕,aung.164,,😳,14-3-2022,
440,Khamhoung Kou Chanthavong,kouhcmboy,,👍👍,13-3-2022,
441,Thar That963,tharthat963,,😅😅,11-3-2022,
442,Simon_Hanacek,simon_hanacek,,🥰🥰🥰,10-3-2022,
443,user1896586016149,user1896586016149,,🥰🥰🥰,9-3-2022,
444,user1629824296079,user1629824296079,,🥰🥰,8-3-2022,
445,Marelvys Brito,marelvysbrito,,@rogerman81,6-3-2022,
446,mayraresendiz436,mayraresendiz436,,😎,2-3-2022,
447,girl tw,hotgirltau,,🥰,28-2-2022,
448,Krum Knk,krumknk,,🥰🥰🥰🥰🥰🥰🥰🥰🥰🥰,26-2-2022,
449,Ask mail Mail,popochit2017,,🥰🥰🥰🥰🥰,21-2-2022,
450,l love you ♥️♥️♥️🌹😄,asadullahmirzaye,,@,19-2-2022,
451,zyznp,zyznpp,,😅,19-2-2022,
452,Dũng gà 1994,dungga1994,,🥰🥰🥰,18-2-2022,
453,Bint Husen,user51401012,,🥰🥰🥰,15-2-2022,
454,lenis793,lenis793,,@karinasubianto0,15-2-2022,
455,Althof Baihaqi85,yoshiniwa,,@haqyiii,13-2-2022,
456,M Milad Bawar,mmiladbawar,,🥰,11-2-2022,
457,соломкин Сергей михайлович,user14184464260890,,😞☹️😔😔,10-2-2022,
458,Anthony Heng,anthonyheng1,,☺️,10-2-2022,
459,pinkie pie,pineapple3697,,😳,7-3-2022,
460,fresh,freshog04,,😳,2-3-2022,
461,ကိုကို့ရဲ့ ခလေးလေး 😇😍😍,thinhtet175,,☺️☺️,27-2-2022,
462,Angae Lay,ngaengae979,,🥰🥰🥰,26-2-2022,
463,عراقي وأفتخر 🇮🇶✌️💕,hyth339,,👌🌺,24-2-2022,
464,Snx_^Art013,snx_art013,,gila cuyy S21 Ultra🥰🥰,28-3-2022,
465,mozza putri,user6690349085691,,S21 fe,2-4-2022,
466,user8703695554766,user8703695554766,,s22,18-3-2022,
467,ခစ ခစ5695,userd7bg4p4whm0,,hj,17-3-2022,
468,@niyasantos,nyabms,,TOOOPPPSSS100000000🥰🥰🥰🥰🥰🥰🥰🥰,16-3-2022,
469,🇲🇽🇲🇽🇲🇽💂🏻🪖🎖️,luffy_is__a_god,,Xd,6-3-2022,
470,Ina Sela19,inasela19,,s21+,26-2-2022,
471,LinnKhant99999,linnkhant99999,,aa,20-2-2022,
472,Srey Pov,povcute12346,,S21 Ultra hm b,18-2-2022,
473,💕 Kisah Dari Hati 💕,kisah_dari_hati,,🙂🙂🙂🙂,12-2-2022,
474,Mat Sofee,matsofee5,,?$$$$?,10-2-2022,
475,ab1cd ngotoc,ngotoc2000,,256G 14tr?,27-2-2022,
476,KB Rai 9852,k.brai5,,katai parxa hou?,4-4-2022,
477,All May Lay Ko Chit Tal,availableuser8,,👻👻👻,2-4-2022,
478,الاسطورة,user08w59lmybi,,[drool][drool][drool][drool],10-3-2022,
479,ល ត4049,userhdpr1o67jf,,🥰🥰🥰🥰🥰🥰🥰,22-2-2022,
480,@_QIRILMIŞ_ÜREY_999,mene_aidsen7799,,🤤🤤🤤🤤🥺🥺,25-2-2022,
481,natsumiii,natsumiheh,,DONT U DARE PUT A FINGER PRINT ON THAT,25-3-2022,
482,Liang Hai Koay,lianghaikoay,,❤😍😍😍😘,27-2-2022,
483,Nor Aida Sweet,noraidasweet,,🥰💯❤,24-2-2022,
484,ssssss12345678s,ssssss12345678s,,كيف تصوير حقه كم متر يقرب صوره,24-1-2022,
485,محمد علي,dypqgjxrstly,,:مثل جهازي👍,24-1-2022,
486,لحجيلي 😁💀💀💪,houssambelhadi1,,احسن هاتف بدون منازع,24-1-2022,
487,user948552352899,myfather214,,نوع الموبايل؟,24-1-2022,
488,user948552352899,myfather214,,اسم الموبايل؟,24-1-2022,
489,جموح العنود,jmooh0,,اديه سعره,24-1-2022,
490,Maricela Figueroa,mariceladr7,,"igualito al mio 🥰🥰
el regalo 🎁 de navidad que me dio mi hija 💋",24-1-2022,
491,user272855788262,suriyasri22,,How Mach,24-1-2022,
492,sandovalmary932@gmail.com,maryguerrero_6660,,precio aquí en Chiapas,24-1-2022,
493,Claudio Garabide661,anubisc1977,,a ni ne calienta mucho la cámara y se cierra la aplicación... la verdad un desastre... lo tengo que llevar a la garantía. no tiene un mes de uso...😤,24-1-2022,
494,seyha,user4472175628030,,$$$?,23-1-2022,
495,rizky,rizky_7889,,bro harga nya,23-1-2022,
496,فتاة أبيها 💜,4428mmf,,شن اسم الجهاز هدا وكم يكلف وين المحل,23-1-2022,
497,Lamis Mohmed962,lamismohmed5,,بكام,23-1-2022,
498,user94701051843387,user94701051843387,,канша самсунг,23-1-2022,
499,YaraN,jenan710,,اشکیدسعر؟؟؟,23-1-2022,
500,Pak Pong Vong,mrredredwine,,Samsung what model???,23-1-2022,
501,tyrabahmad,tyrabahmad,,عايز جهاز زي ممكن تفيدوني,23-1-2022,
502,Tu_mejor_amigo_57,tu_mejor_amigo_57,,el note 10+ y note 20 ultra xfa,23-1-2022,
503,mrcel63cib,mrcel63,,hey price plz,23-1-2022,
504,yoselinsandy3,yoselinsandy3,,de Kien son estos celulares soy joselin Sandy castro ocupo unos celulares d estos,23-1-2022,
505,Diego Peña,cuzcatleco503,,Cual es?,23-1-2022,
506,Huaman Ccossi Mauriñ,mhccm,,precio,23-1-2022,
507,Jose benjamin Mejia,mejiamontoyajose,,cual es,23-1-2022,
508,Katyta Galeas,katytagaleas,,Precio,23-1-2022,
509,user1152457536492,nery701,,A32,23-1-2022,
510,SwordMark,swordmark0,,"im ok i have a SS tab this size, and 4 spkrs too",22-1-2022,
511,Sohag Shahedur,sohagsahidur4962,,I would like a gift of a phone...??,22-1-2022,
512,Romi4923,romi49237,,mau dong😂,22-1-2022,
513,user3728227715092,kamcyhbek,,🥰🥰🥰🥰🥰,22-1-2022,
514,reginaldo marquez,reginaldomarquez,,me puede decir el precio por favor y donde lo puedo pedir o comprar grasias,22-1-2022,
515,venger40. Thats it,venger40,,Is that the note 20...,22-1-2022,
516,suarez@1999,rubensuarez191,,"bueno ese vale 41,000 en honduras",22-1-2022,
517,●《SIMON》●,simon1872,,cuanto vale y cual samsung es,22-1-2022,
518,Apo Hamamm🇮🇶🇮,apohamamm,,A52,21-1-2022,
519,Ria Do,riado03,,chhel kho,21-1-2022,
520,MichaelMyLast,casanovamai,,S22 ultra..$1199,21-1-2022,
521,Brittany vaughn,coop5287,,@mobiggins89,21-1-2022,
522,Ashley LaRochelle136,ashleylarochelle0,,my phone lol,21-1-2022,
523,collotogoch,collotogoch,,my dream phone,21-1-2022,
524,sherissayearby,rissa_sierra95,,Ooo.... I want😍but I don't need not none another phone though,21-1-2022,
525,Omar,omaribrahim3446,,how much,21-1-2022,
526,🐺LIDER AZRA🐺,wq...syriaa..0096_,,fiati kaç,21-1-2022,
527,Jose David Jaramillo,veintesolohayuno,,😂😂😂,21-1-2022,
528,doris ruiz,doris81740385,,buenísimo lo tengo 🥰🥰🥰🥰🥰🥰,21-1-2022,
529,David Sousa,davidsousa488,,🥰,21-1-2022,
530,masoom boy5788,kayyumali5788,,how much kd,21-1-2022,
531,🌹Atakan sen85blanketo 🌹,atakansen85blanket0,,fiyatı ne kadar abim,21-1-2022,
532,DUREN com,agyyer,,wau🥰🥰,21-1-2022,
533,Cuadrado 11,kenneth_trevitch,,price,21-1-2022,
534,F O N C H I T O,manuellemus475,,THE BEST,21-1-2022,
535,chocolatey_Alak,khayal_khan,,کم درھم,21-1-2022,
536,Hraiden 94,hraiden_94,,Ese cuesta mas que un iphone,21-1-2022,
537,franciscolopez4865,franciscolopez4865,,wuaoo yo lo tengo uno esta muy caro,21-1-2022,
538,user2990331748232,kingqueen_34,,Which phone is this,21-1-2022,
539,fredyfredy,fredyfredy0619,,vendo mi s21 ultra en perfecto estado 10.10 en caja,21-1-2022,
540,SYهيبـه〆,valithacl,,اخو جيهازي😅,21-1-2022,
541,Abdullahi Alikaran,abdullahialikaran3,,how much 🥰,21-1-2022,
542,ناصر الفردي,weehours6638the,,كام اسعر,20-1-2022,
543,user2093288373067,kyawmgmgsan,,Samsung s21ultra 5200,20-1-2022,
544,Asong Sixtus Ngulefa,asongsixtusngulef,,haw much,20-1-2022,
545,faizaibrahimadam7,faizaibrahimadam7,,🥰🥰🥰🥰,20-1-2022,
546,RAJTAMANG,amosrumba,,i lovoe samsung,20-1-2022,
547,$imamora,simamora15,,Yg begitu harga brp,20-1-2022,
548,مصطفى العراقي,dymqxp36l5g9,,هذا مثل جهاز مالي اي 72,20-1-2022,
549,De Alva Jul,psychedelik4,,5 cámaras ya no m#%#: 😂😂😂😂,20-1-2022,
550,Vaju 21,uservaju,,my phone 😁,20-1-2022,
551,user9729620945097,user9729620945097,,how much about the Samsung A 12,19-1-2022,
552,user38831133021916,mankafrank2,,shingapi,19-1-2022,
553,Boboho,boboho746,,Harga rp 20 jt an,19-1-2022,
554,Abubakhar Otieno,abubakharotieno0,,how much,19-1-2022,
555,Felix Rodriguez646,felixrodriguez646,,pla,19-1-2022,
556,Sarkar,sarkar.de,,Ich möchte kaufen wie ist Funktion? Seid ihr zufrieden mit? Jemand Erfahrung?,19-1-2022,
557,yaseerriswan,yaseerriswan,,s21 ultra how much,19-1-2022,
558,NASS NAS,nasnass79,,cooooool niceful,19-1-2022,
559,Ashifa Jahan Newar,asifa7889,,my dream😥,19-1-2022,
560,Shohel Rana,user951642511,,how much price tell me,19-1-2022,
561,musfiqhesenov81,musfiqhesenov81,,qiymeti necedi?,18-1-2022,
562,youngdjzeze,youngdj6,,How much please,18-1-2022,
563,cercea_Denisa,lili_adicercea,,😬,18-1-2022,
564,dyxahbhhxq5l,dyxahbhhxq5l,,у моего друга такой,18-1-2022,
565,អន អម985,user926886291429,,🥰🥰🥰🥰,18-1-2022,
566,Matar Gueye292,matargueye112,,گوتو,18-1-2022,
567,Queen,queenb6903,,were are you located..? and the price?,18-1-2022,
568,Bobsoni1980 Bobsoni1,bobsoni1980,,1100 euro 21 s,17-1-2022,
569,අම්මගේ සුදු මහත්තයා.,titieshan7,,how much 🇦🇪 dubai diram,17-1-2022,
570,pritadianash - nick name prita,pritadianash,,hp samsung typeA12,17-1-2022,
571,Unnamed,snig_dho_,,sexy,17-1-2022,
572,yeni bir hayat,yeni_bir_hayat_2021,,Amin inşallah 🤲,17-1-2022,
573,yeni bir hayat,yeni_bir_hayat_2021,,🤲🤲🤲,17-1-2022,
574,yeni bir hayat,yeni_bir_hayat_2021,,Super 👍🏻🖤,17-1-2022,
575,leparanjustus,leparanjustus,,@I'm interested,17-1-2022,
576,anbaungamootoo,anbaungamootoo,,price please,17-1-2022,
577,user350207254814,user350207254814,,ne madeldi,17-1-2022,
578,KAISHER ♔ BTS Fan Boy,md.kaisher32,,Samsung Galaxy s21 Ultra,17-1-2022,
579,🤠,not._anna._1,,Hi,17-1-2022,
580,Stein,stein326,,price mobilefone,16-1-2022,
581,nemTOMM28,nemtomm28,,A72 maybe?,16-1-2022,
582,tothjanosofficial,tothjanosofficial,,kaphatnák egy i jen samsung telefon ingyen,16-1-2022,
583,1945 WIN,leu.univers.1941,,A52S 5G e mai bun,16-1-2022,
584,Mr thermal,mrthermal,,best phone Ever,16-1-2022,
585,jit คนรักอิสระ 🌺🌺🌺🌺🌺🌺🌷,user249324528jit,,สวย,16-1-2022,
586,Edi Irawan,ediirawan01,,bagi 1 kk,16-1-2022,
587,Ch50048,ch50048,,150e,16-1-2022,
588,Ch50048,ch50048,,Cer le as21,16-1-2022,
589,Nuchcy,nuchcy070426,,เราใช้ปีนึงแล้วนี่ ใช้งานได้ดี กล้องแจ่ม ซูมได้ไกล ภาพชัดมาก🥰🥰 ปลื้ม,16-1-2022,
590,dys1f0iu7nkl,dys1f0iu7nkl,,waou,16-1-2022,
591,👻 Nardiii_02,kaqurreliii_02,,sa kushton mi ble,16-1-2022,
592,Tody,todyk3,,aamsung 🥰🥰🥰🥰,16-1-2022,
593,sbene2011,sbene2011,,Samsung Galaxy telefont,16-1-2022,
594,KÖTÜ ZAMANDA DOĞDUK,bulent1223,,❤👍,16-1-2022,
595,samina iftikhar,user739475253,,how much,16-1-2022,
596,denissjerwovs,denissjerwovs,,Огонь 🎅🎅🎅👍👍👍,16-1-2022,
597,Deutschland💚 🇩🇪♥️🇺🇦💛🇺🇲,farokali22,,okay,16-1-2022,
598,glendacatrachita,glendacatrachita,,yo. tengo. uno. 1200,16-1-2022,
599,Open GO,cristian_ceapa,,fine extra fine😌😌😌😌,16-1-2022,
600,Laura Ronsisvalle,lauraronsisvalle,,prezzo,16-1-2022,
601,H@@@,username10y1,,قداش يخدم,16-1-2022,
602,user6254299518974هه نه وانس ش,user6254299518974,,به ئيشكت,16-1-2022,
603,Emma,iamemmaleyva,,🥰🥰,16-1-2022,
604,mustafo abdulloh shohista,mirzayevashaxnoza097,,21 ultra menga siyoxrangidan🥰,16-1-2022,
605,user6997682357064,sammycamey,,alguien sabe si es mejor que el iPhone 13????,16-1-2022,
606,Jesus_alberto. 10,chusito_lindo.100,,q precio xfabor 🥰,16-1-2022,
607,Argelia Mendez,argelia733,,Costo $$,16-1-2022,
608,Cissé weuz,ousseynoucisse699,,🙏🏽🙏🏽,16-1-2022,
609,Rojas Jackeline635,rojasjackeline,,🥺🥺🥺🥺,16-1-2022,
610,andersonjosue46,andersonjosue46,,una de a32,16-1-2022,
611,sahramorales123,sahramorales123,,que precio tiene?,16-1-2022,
612,Sam,sam776473,,I ❤️it S21 Ultra,16-1-2022,
613,Jefferson Nunes770,jeffersonnunes007,,meu sonho,16-1-2022,
614,عرفان التميمي,erfanjalal2,,شنو نوع هذا الجهاز,16-1-2022,
615,user9208923759091,noylopez1806,,cuanto cuestan,15-1-2022,
616,EL ALMANY 🇪🇬,haithamabdelaal,,أجمل جهاز انا اشتريته في حياتي,15-1-2022,
617,luissisa213,luissisa213,,El mio,15-1-2022,
618,Oley Sou,oley2oley,,Good phone,15-1-2022,
619,kara rash,kararash12,,نرخ,15-1-2022,
620,Rokan English,rokaan7,,هذا سعره مليون,15-1-2022,
621,user963527392303,465_17,,brpa harga,15-1-2022,
622,Dipesh Bhatta,dipeshbhatta39,,price,15-1-2022,
623,Richard,zeroblain,,which Samsung,15-1-2022,
624,"BK,",bksounddesign,,ราคาเท่าไรครับ,15-1-2022,
625,32a6487,32a6487,,@user851477681934,15-1-2022,
626,dubz81,dubz81,,S22,15-1-2022,
627,sulikah,sulikahh0,,pengen banet,15-1-2022,
628,rosanani,user6770379815772,,mantap,15-1-2022,
629,lexiraga,lexiraga,,harga berapa,15-1-2022,
630,Suraj Suraj,surajj950,,TOP10 SAMSUNG MOBILES PLS 🥰,15-1-2022,
631,:_(,_ars_1000_7,,Насть! Нам пора! ГО В ДЕТДОМ!!! 😂😂😂😂,15-1-2022,
632,VangVang TV,vangvangtv,,😇🤪,15-1-2022,
633,Paxi00kzs,antonionpaxipaxi,,Quanto custa este telefone,15-1-2022,
634,osvaldocastillo1988,osvaldocastillo1988,,no le recomiemdo no sale buena como otro Samsung galaxi,15-1-2022,
635,พะเยาว์ จาดศรี,phayaoprovince34,,🥰🥰,15-1-2022,
636,aungmyo6835,aungmyo6835,,🙃🙃😗😗🤐🤐,15-1-2022,
637,user7781256965016,user7781256965016,,စျေးဘယ်လောက်လဲရှင့်,15-1-2022,
638,Lizeth Idiaquez,lizethidiaquez,,Hay Dios mío baratija 😂😂😂😂😂,15-1-2022,
639,Md Saymon173,mdsaymon173,,Bye how much money is cheated,15-1-2022,
640,Paul Michael Chedid✅,paulmichaelchedid43,,I Want To Trade My IPhone 12 Pro Max For Samsung Galaxy S21 Ultra NOW,15-1-2022,
641,artandrade851,artandrade851,,beautiful 🥰🥰🥰🥰,15-1-2022,
642,Benchamad Promtong,nina_0939,,ราคาเท่าไหร่คะ🥺,15-1-2022,
643,Phin Sokay769,phinsokay1141,,$?,15-1-2022,
644,Bùi Alone,buialone,,quả cam bản lề cửa 😂,15-1-2022,
645,duranguerrero,duranguerrero,,que referencia es,15-1-2022,
646,Gil Meza537,gilmeza5,,The best Samsung,15-1-2022,
647,giovaniitehua,giovaniitehua,,quiero uno $$$,15-1-2022,
648,Harald,harald913,,Ein geiles Gerät 😉,15-1-2022,
649,OSA. YOU,osayou0,,مشكلتو الشحننننن والبطاريه ضعيفه مواصفات تانيه نار,14-1-2022,
650,Habtamu Aslawi Manch,habtamuaslawimanc,,👌,14-1-2022,
651,S/Liverpool,surasakliverpool,,ใช้ยุ,14-1-2022,
652,Niyatey ❤️❤️❤️❤️,putgod35,,All the android phones are trush,14-1-2022,
653,Abdillah Abdi Dillah,abdillahabdidilla,,😎😎😎😎 bismillah ya Allah,14-1-2022,
654,ابراهيم حسين البهدلي,user96368724332165,,بكام,14-1-2022,
655,แป้ง.แป้ง😍🤩,fghjakf,,สนใจค่ะ😂🥰🥰,14-1-2022,
656,doshikalemi2,doshikalemi2,,sa kushton o flori,14-1-2022,
657,Guy Smith,guy.lcf,,love it,14-1-2022,
658,اسامة هادي هادي رضا,user5909443877703,,اسعر 900$,14-1-2022,
659,yagasamir,yagasamir,,Prix svp,14-1-2022,
660,اسامة هادي هادي رضا,user5909443877703,,s12 جهاز روعه,14-1-2022,
661,phisamai603ฤดูpop,phisamai603,,สวยค่ะ,14-1-2022,
662,Vidmantas,vidmantaseizgirdas6,,😏😏😏😏😏,14-1-2022,
663,harryvey04,harryvey04,,15 jt kasih gak😂,14-1-2022,
664,nittayachantasrl,nittayachantasrl,,🥰🥰🥰🥰🥰,14-1-2022,
665,muro#999,biker3739,,plis camera zoom 🥰,14-1-2022,
666,user7295822515817,cuervocastillo,,1200 vale,14-1-2022,
667,elasiya tiktok,elasiya3,,a52,14-1-2022,
668,dyx4uf0a6fqr,dyx4uf0a6fqr,,ราคาเท่าไรคัรบ,14-1-2022,
669,yantiyan696,yantiyan696,,tips brp hrg,14-1-2022,
670,warda wac,t8eg_wzdfvi9h1u,,تمن د يالوا فين عندك المحال,14-1-2022,
671,Red Moon,016779625doeun,,តម្លៃ,14-1-2022,
672,RiskitaChicken,riskitachicken,,ini type brp y??,14-1-2022,
673,Hải đen 83,haixuthanhhai,,Giá nhiêu shop 🥰🥰,14-1-2022,
674,احمد,usermme7l78k6n,,شسمه هاذا جهاز وشكد سعره,14-1-2022,
675,fandy,fandy_234,,itu tipe samsung nya apa ?,14-1-2022,
676,Pawinee Promna,pawineepromna,,😁😁😁,14-1-2022,
677,หนูอร,dangmngkhl,,จักบาทน๊อตอนข่อยนี้เก็บตังได้ 20แล้ว,14-1-2022,
678,Ерзат,erzat_19,,сколко стойт,14-1-2022,
679,Chủ Tịch Thành,1974_thanh_1974,,Giá bao nhiêu vậy,14-1-2022,
680,magyi6849,magyi6849,,ဘယ်လောက်ဈေးလဲ့ရှင်,14-1-2022,
681,aniegosamira,itsmesam0300,,wow🥺 sana all,14-1-2022,
682,ahmadsutijo51,ahmadsutijo51,,itu samsung tipe berapa.dn berapa harganya,14-1-2022,
683,Kevin Thiệu,thieu_1995,,xin giá,14-1-2022,
684,Gerardo Salas,bronco_curvo,,Mi Motorola TANGO 300 es mejor que eso,14-1-2022,
685,M R 1985,mone_r2,,Smentra nabung s21 ultra,14-1-2022,
686,Harvid Setreker,harvidsetreker,,kak mau tanyak itu harga samsung brapa,14-1-2022,
687,user4905123893719,user49051238937197,,samsung tipe brp tu mas brow,14-1-2022,
688,whannaga,whannaga,,สวยๆมาก,14-1-2022,
689,dfdy746,dfdy746,,ราคาเท่าไหร่,14-1-2022,
690,Sakon Vuntorจาก อำนาจเจริญ,sakonvuntor,,สวย,14-1-2022,
691,dea,dw3230,,brp,14-1-2022,
692,Ravy Apple,ravyapple0,,តំលៃម៉ានពូ,14-1-2022,
693,AidahUciL,haliliaidah,,cek harga kk,14-1-2022,
694,ณา,dyjkdlvmh0u1,,ถูกใจอยู่นะ. ราคา ล่ะ,14-1-2022,
695,kogyisoe1500,kogyisoe1500,,hi😅🥺🥺🥺🥺🥺🥺,14-1-2022,
696,sweswe355,sweswe355,,ဘယ်လောက်လဲအကို🥰,14-1-2022,
697,MZSR,zaporozsec79,,Túlárazott. Kéne még rá 4 kamera😂😂,14-1-2022,
698,.,vege3ghrrrf,,29900บาท,14-1-2022,
699,pranomdara,pranomdara,,สวยจัง😅😅,14-1-2022,
700,เย็นลี่ หวานเจี๊ยบ,romyen19,,สวย,14-1-2022,
701,user5360511957890,user5360511957890,,สวย ราคา,14-1-2022,
702,Joy Sopit,joysopit1,,สวยจัง,14-1-2022,
703,Natcha,nathanatha295,,ข่อล่าค่าน้อยคะ😁,14-1-2022,
704,dys85kibbk4g,dys85kibbk4g,,สวยค่ะเท่าไหร่คะ,14-1-2022,
705,StartUser,startuser,,knp kmren gk beli ini ajh ya 🥺,14-1-2022,
706,dyylkgwge71q,dyylkgwge71q,,สนใจครับสวย,14-1-2022,
707,somsri😊😍😊,somsri...6572,,ราคา,14-1-2022,
708,à§êT00,aasett0,,belii aah,14-1-2022,
709,Wen alo Alo,wenaloalo,,how much?,14-1-2022,
710,Bung Grano,bunggrano,,berapa tu harganya bung,14-1-2022,
711,dyprqcs78y4i,dyprqcs78y4i,,สวยรุ่นอะไรค่ะ,14-1-2022,
712,Sasima_Thoensaret,sasimathoensaret,,สนใจสวย,14-1-2022,
713,บิวตี้แฮร์👩‍❤️‍👩แม่เบนซ์เอง,bentbeautyhari,,สวยมาก,14-1-2022,
714,Ann Label's,annlabels,,s21 ultra,14-1-2022,
715,saowanee 🥰พี่ปูนา🙏🥀🙏🙏🇹🇭,user5i4e3r8dc4poo,,สวยสนใจคะ🥰🥰😂,14-1-2022,
716,Am Ekog,am.ekog,,berapa harganya Bos??,14-1-2022,
717,kritayapurintrapi,kritayapurintrapi,,รุ่นไรคะ,14-1-2022,
718,alvinsau,aldoisvinoss,,a52s5g,14-1-2022,
719,មនុស្សហ្សឺរ៉ូ,userp7rp1zux5t,,លក់មិចចង់បានមួយ,14-1-2022,
720,Duan Parsertse,duan__1981,,จัดมาได้2เดือนแล่ะ,14-1-2022,
721,Sansern,sern44,,s21 ultra😏,14-1-2022,
722,ana,.anasee,,สนใจ,14-1-2022,
723,ไหมใหญ่ สกุลเพชร,13690688mm,,สวยๆ,14-1-2022,
724,Dinprajan Prajan,dinprajanprajan,,ราคาเท่ารัยคับ,14-1-2022,
725,jamnongghanthasri,jamnongghanthasri,,สวยมากค่ะ,14-1-2022,
726,Jak 789,pannapa246,,สวยๆมีกี่สีค่ะ รุ่นอะไรค่ะ 🥰🥰🥰,14-1-2022,
727,อุมาพร เลือดขุนทด,amaphleodfeather,,สวย,14-1-2022,
728,นารี สามฤดู,shesthree,,สวยค่ะ..สนใจ,14-1-2022,
729,Sak phasuk,sakphasuk,,ไม่บอกรุ่น,14-1-2022,
730,Sami Besham,sami.besham,,brpa,14-1-2022,
731,ماجد ابو علي السويعدي,dya48482tq8r,,اسعر,14-1-2022,
732,saksitinnoy963,saksitinnoy963,,ราคาครับ,14-1-2022,
733,Ami12,aminatambodji609,,👌👌👌❤️,14-1-2022,
734,khangnguyen8386,khangnguyen8386,,cho xin gia va ten con nay anh ou,14-1-2022,
735,gondnok1961,csabathroat0,,a legjobb,14-1-2022,
736,dy2n4scqf027,dy2n4scqf027,,gia tien,14-1-2022,
737,Koko Ka,koko98445,,อยากได้,14-1-2022,
738,rhodamarquez195,rhodamarquez195,,Ganda,14-1-2022,
739,Kyaw Kyaw84089,user6152314902911,,A52လေးပြကြည့်,14-1-2022,
740,markezie Nodril,markezienodril,,how much po,14-1-2022,
741,user2878882074391,user212314340,,$$$$$,14-1-2022,
742,Anuchit Ma-sae,anuchitmasae,,ราคาเท่าไหร่ครับ,14-1-2022,
743,faisal jaya,saljaya661,,ohh sama kyk punya kita asyik pakeknya😁😁,14-1-2022,
744,user3772018657727,user3772018657727,,$$$,14-1-2022,
745,Ariyan Kabir🇸🇬,ariyankabir25,,😳😳,14-1-2022,
746,didimahardika565,didimahardika585,,berapa harga nya kak,14-1-2022,
747,💙🥶បេះដូង ទឹកកក🥶💙,vot__tha_,,$$,14-1-2022,
748,7U4N 94b0 xD,7u4n94b0xd,,esta chido,14-1-2022,
749,etibar,etibar0007,,2000min,14-1-2022,
750,lalitahansuwan,lalitahansuwan,,ราคาจ้า,14-1-2022,
751,jimnz,jimenz1234,,esa está de 900,14-1-2022,
752,Dahliamercado29,dahliamercadohmua,,i love this,14-1-2022,
753,Victo Rodriguez,15gabriela3,,cual es de cuánto es lagama,14-1-2022,
754,จฉ_JawShore❤,yaijan,,สวยค่ะ,14-1-2022,
755,syah,eddygerrero81,,rm.....,14-1-2022,
756,Pornthip Junbuppha,pornthipjunbuppha,,สนใจราคาเท่าไร,14-1-2022,
757,hens,h3ns0,,makin keren,14-1-2022,
758,ដៃខឹម ស្រុកតាលូសែនជ័យ,user5438950105179,,តម្លៃបុន្មានអូន,14-1-2022,
759,Widya N335,bundawidya86,,Woooow keren brp hrg nya,14-1-2022,
760,@นะโม นะโม_01,dybharisi7yv,,สวย,14-1-2022,
761,មានអូនម្នាក់🎎🎎គ្រប់គ្រាន់ហើយ,heatochsloy,,🥰🥰🥰🥰🥰,14-1-2022,
762,RAM M Labongan,ramlabongan3,,how much?,14-1-2022,
763,Dorta Riama Sinaga,dortariamasinaga,,aduh harus nabung dulu sya 10 tahun😄😄😄,14-1-2022,
764,barikahcinacell48,barikahcinacell48,,❤❤👍👍,14-1-2022,
765,Yanmyo Yanmyo,yanmyoyanmyo0,,🥰🥰🥰🥰,14-1-2022,
766,Angelita Gaibor831,angelitagaibor,,a como,14-1-2022,
767,jeffbull67,jeffbull67,,how much this,14-1-2022,
768,dybhoyfqpgg8,dybhoyfqpgg8,,غالي بزاف 7.مليون,14-1-2022,
769,ᕙ❤ᕦ༼ậU✯ú〒✿❤️ᕗ,28n1_hb992,,ối ồi,13-1-2022,
770,Aras Aras,arasaras140,,بيش سعر,13-1-2022,
771,Roman Pavelko,romanpavelko749,,как заказать?,13-1-2022,
772,Raf0711,user781252720,,Hm???,13-1-2022,
773,🌟love your self🌈🇵🇭🇹🇼,nhoj_1994,,ganda,13-1-2022,
774,Carmenn Saaravia,carmennsaaravia,,precio,13-1-2022,
775,Bao Ngoc Ly386,jbaongocly,,bao nhiêu tiền môt cái đẹp quá đi thôi,13-1-2022,
776,ផ្កាវល្លិ៍ផោម🌻,userah.jingkh,,$$$$😳😳😳,13-1-2022,
777,مالك عواد,malkaoad,,يااخي السامسونغ مرتب بس شبكة النت فيو تعبانة,13-1-2022,
778,awmta,awmta,,اليوم معرض ب800يورو,13-1-2022,
779,Amelia Naldo,amy.584,,anong unit po yan,13-1-2022,
780,,vadarkhalid22,,سعڕ,13-1-2022,
781,♤BAKLI ♤,user316332175116maksud,,ORDA F HƏRİF VAR TAPAN OLSA YASIN,13-1-2022,
782,💘❣️😔غريبه حالاتي,huawe516,,من كم وفين,13-1-2022,
783,minkhaing85,minkhaing85,,how much,13-1-2022,
784,Luisa Morban Arias,lanegra865,,y cuanto cuesta,13-1-2022,
785,ghen92723,ghen92723,,🥰🥰🥰,13-1-2022,
786,dy306l2oehdh,dy306l2oehdh,,السعر كام,13-1-2022,
787,Yaovi Novinyo,binzino2,,so nice🥰,13-1-2022,
788,حزينه الروح بغيابكم,d95621,,شكد السعر,13-1-2022,
789,zurditico,zurditico,,YO TENGO EL NOTE 10 PLUS Y EL NOTE 20 PLUS Y ESTE SAMSUNG S 22 EL MEJOR DEL MUNDO LE DUELA QUIÉN LE DUELA SAMSUNG EL PADRE DE TODAS ESAS CHATARRAS😂,11-4-2022,
790,王靜雅,suwen3033,,不喜歡三星,6-4-2022,
791,Gurung Entertainment,bhim6603,,SAMSUNG MOBILE COMPANY IS VERY POOR COMPANY I BOUGHT SAMSUNG GALAXY NOTE 20 IT HAS WIFI READER REALLY POOR,4-4-2022,
792,Komgmyimt Komgmyint,user8583674170459,,ဈေးဘယ်လောက်လည်းဝယ်ခိင်လို့,25-3-2022,
793,用户570020934216,900145cba,,在中国已经看不到这种手机了😂,22-3-2022,
794,user4458853174103,azazurina,,brp,13-3-2022,
795,អចលនទ្រព្យ ក្រុងកំពងឆ្នាំង,userj83r5cg8ga,,S22ULTRA,10-3-2022,
796,guerra glendy,user2303185003147,,😳😳😳,9-3-2022,
797,នុនម៉េសាម៉ារ៉ាឌី,user4212530554815,,$$_,6-3-2022,
798,ចន អ961,user08551zbqpz,,$$$$,5-3-2022,
799,user4198350204075,1984lucero,,precio,4-3-2022,
800,alexitomejia322,alexitomejia322,,😀👍,1-3-2022,
801,بدون اسم,qwio67,,دوبي اشتريته ب ٤٣٠٠ ريال 🥰 وربي احسن من النوت بكثييير جنني النوت بالبطاريه ويسخن,27-2-2022,
802,Ardhi Susanto,ardhisusanto67,,itu pake pelindung ?,27-2-2022,
803,{15}=ℒℴѵℯ🙈=♡´･ᴗ･`♡=ℒℴѵℯ🙈{15},atyopr,,😳😳🥺🥺😭😭😢😞😞🙂🙂😇😇🤗🤗👌,27-2-2022,
804,Efrain Lutaporu,efrainlutaporu,,dd,27-2-2022,
805,Fauzi Cs,fauzics1,,brp,18-2-2022,
806,Sri Dewi Anggraeni,m.f44z,,⭐🥇,18-2-2022,
807,Petik Walik,arumpwt,,mantapp,17-2-2022,
808,gii,urgf___4,,@intan_euy bliin saya bes🤤😘,16-2-2022,
809,kyaw,tunisiatunisia082,,😮😮😮😮👍🏻👍🏻💓💓💓💓💓💓💓,15-2-2022,
810,Cap Cut Thant Zin Win,capcut123tzw,,cmတိုင်းငါရှိတယ်,15-2-2022,
811,♡ki ki♡,ki_u_ki33,,I new account follow please 🥺,14-2-2022,
812,hiam777,hiam777,,"tukar tamabah dgn qw, lo nambah 500rb aja kok + nokia 5310😁😁",12-2-2022,
813,Ronaldo CR7,rkdanko4,,🙁🙁🙁,12-2-2022,
814,bambangheryanto18,bambangheryanto18,,mantaaap mau dong..,10-2-2022,
815,Bắc Komatsu,dyw9igdhdl5b,,mê maa đăt,10-2-2022,
816,Mosiah Silva,mimomoto17,,worst phone... I hate this thing. I want to trash my,10-2-2022,
817,Самира..Азербайджан💪🇦🇿,user46058982444175,,что за модель пожалуйста скажите,9-2-2022,
818,Yoga Briel803,yogabriel803,,hp berat dan mudah panas bang hati hati ntar meledak itu hp cepat ganti bang 😌,9-2-2022,
819,Idaghihan,idaghihan,,Masyaallah 😍 😍 😍 😍 😍,9-2-2022,
820,el ausenté de Verac_*Z199#?*/7,elausentedvera._0966_24z,,cuánto sale ??????,9-2-2022,
821,Sanjo7707tiktok,sanjo7707tiktok,,цена,9-2-2022,
822,arman alal2222,armanalal2222,,How much does it cost?,9-2-2022,
823,Phyo Min12345,phyomin5923,,hi,9-2-2022,
824,tripa de la vida,bryanruanoamaya,,precio,9-2-2022,
825,ДАГЕСТАН,05marat5,,сколько стоить ?,8-2-2022,
826,Tek 1ALLAH☝️,tukendimgercekden2,,ruyamada girmir heç),8-2-2022,
827,Jamal9605,jamal9605,,Осы сотканы камерасына бола алама,8-2-2022,
828,날씨 kizzy🐣,htetnainghtun296,,follow me🥺,8-2-2022,
829,kanielimie,kanielimie,,thèm,8-2-2022,
830,Yefta Lokon,yeftalokon,,berapa. harganya?,8-2-2022,
831,_^ГорРрДаЯ^_,qordaya90,,neciyədi?,8-2-2022,
832,တော်ပြီး မချစ်ရဲတော့လို့ဗျာ😞?,user1250999700858,,ကျွေန်ု့မှာရှိတယ်ဗျာ😅,8-2-2022,
833,Роман Кротов,romankrotov1,,сколько стоит?,8-2-2022,
834,Л.М,liramans,,ЛЮБЛЮ САМСУНГИ,8-2-2022,
835,Куат,kuat245,,это а52,8-2-2022,
836,32a6487,32a6487,,@user656623020,8-2-2022,
837,olarte53,olarte53,,son buenos y elegantes deje la.manzanira por este,8-2-2022,
838,user7488181363844,frangamer099,,s 21 ultra no sirve se va mucho la señal,8-2-2022,
839,مغترب,abu7mohamed,,🥺,8-2-2022,
840,حارق دمهم,alwsh771460,,بكم,8-2-2022,
841,user678737822541,2042firstcontact,,"all this cain a phone its gonna be a trash when de TESLA PI ,Came to the store very soon",7-2-2022,
842,Tik Toker,user7505928156223,,😏,7-2-2022,
843,oomleovanhauten,oomleovanhauten,,👍👍,7-2-2022,
844,nuporn_,nuporn_,,ใช้อยู่ค่ะ,7-2-2022,
845,Amelia Naldo,amy.584,,puro lang showing.,7-2-2022,
846,Sayon Kampongsoam,sayonkampongsoam,,តម្លៃម៉ាន,7-2-2022,
847,Morenito Valdez Polonia,morenitovaldezpolonia,,S21 ultra 🥰,7-2-2022,
848,andreiandrei81757,andreiandrei81757,,3 месяца назат за 1300 евро 256 гб,5-2-2022,
849,Mesedi_Kerbelayi_Mahir,mesedi_kerbelayi_mahir,,s.21 ulturadi,5-2-2022,
850,neshadkhan188,neshadkhan188,,rat koto,4-2-2022,
851,Алексей,aleks280383,,Здравствуйте как можно этот телефон заказать?,4-2-2022,
852,user1324577053987nyikhiex也是一种人,user1324577053987,,我想啊,3-2-2022,
853,djokapungue,djokapungue,,@,2-2-2022,
854,R22,5mile4me,,jadi pgen upgrade dari s20U ke s21U 🥰,1-2-2022,
855,BMTrading,bmtrading0,,🥰can you give me the phone is so beautiful,1-2-2022,
856,กุ้งนาง,koong814,,สวยอีกแล้ว,1-2-2022,
857,user6161009159487,user6161009159487,,berapa harga dia,1-2-2022,
858,โมจิ,hamstermoji59,,สวยค่ะ,31-1-2022,
859,L L Seng,heramonseng,,ကြိုက်တယ်,30-1-2022,
860,mmmvimmmvip,mmmvimmmvip,,kg bằng note20 utral,30-1-2022,
861,eriansyah,m0ccaallte,,mantul,30-1-2022,
862,Anakkenyahcina99,anakkenyahcina99,,https://vt.tiktok.com/ZSebbqyRL/,29-1-2022,
863,Thet Paing4607,thetpaing4607,,howmany,29-1-2022,
864,ប៊ុនណា,dyg3v8bzar1r,,🥰🥰🥰,29-1-2022,
865,Tggygbjij,zayka12o1,,Hav mach,28-1-2022,
866,Даниел Саматбеков,user2009baiel,,покупать ли айфон 8+???,28-1-2022,
867,Ciaj Yang,user88642664,,ລາຄາເທົ່າໃດນະ,27-1-2022,
868,ladolcevita,ladolcevita2020,,😍,24-1-2022,
869,Eslam1079,eslam1079,,سعر الجهاز كام بعد اذنك,23-1-2022,
870,user5838848442554,user5838848442554,,😱😎😎😎😎,22-1-2022,
871,Giorgina Cesaretti,giorginacesaretti,,c'è lo,21-1-2022,
872,fiat,fiatmosoumane,,price 😳😳,18-1-2022,
873,.,husnavania,,what phone is this,18-1-2022,
874,user1662084039065,user1662084039065,,sara,17-1-2022,
875,ملك الأحساس,wleedalflahe,,شكد سعر 🥰🥰,16-1-2022,
876,jajangpermana420,jajangpermana420,,hp masa kini👍👍👍👍🥰,16-1-2022,
877,hamba Allah.☝️,30hambaallah30,,cun Samsung ne bpe kos ne rm:.. Samsung ape ne info nty nk beli berminat🥰,16-1-2022,
878,Jafeth Montana,jafethmontana,,precio en guatemala,16-1-2022,
879,ghassan,ghasan447,,هاتفي😳,16-1-2022,
880,Alex Portillo,alexportillo92,,😍😍😍,16-1-2022,
881,marinela9580,marinela9580,,samsung a 32,15-1-2022,
882,user1837940684541,hassanbelbs,,سعر ؟,15-1-2022,
883,Amor Solo A Dios,joker_.95,,es buen teléfono yo tengo ese,15-1-2022,
884,Zoza Zoza,zozazoza9249,,كم السعر,15-1-2022,
885,tanjiro,frankdiaz277,,regálame uno 🥺🥺🥺🥺,14-1-2022,
886,Juan Marcelo Nez Bon,marcelo0078,,batería de 4 horas 😂😂😂,14-1-2022,
887,boontinwongngam,boontinwongngam,,สีสวย เสียตรง ฝาครอบกล้องไม่สวย,14-1-2022,
888,Trần Tuấn,tran_tuan.vlog,,cho xin gia,14-1-2022,
889,nanda siahaan,posan77,,mantap ini,14-1-2022,
890,imamgomeswari,imamgomeswari,,info harga,14-1-2022,
891,dyoaad7te737,dyoaad7te737,,ราคาเท่าไหร่ คับ,14-1-2022,
892,กิ๊ก ผีแดง,dyx0tne09iuf,,A22 5Gก็พอแล้ว,14-1-2022,
893,sweswe355,sweswe355,,多少钱啊？,14-1-2022,
894,Pheng Dy Pmv,phengdypmv,,ລາຄາທໍ່ໃດ,14-1-2022,
895,มาลี บุญพิโย,maleepk13,,สวย,14-1-2022,
896,เจ้าชายตั้ม อ่ะครับบ,tumf2020,,🥰🥰,14-1-2022,
897,Tiger,tigertiger482,,Samsung 💯💯💯💯💯💯💯💯💯💯💯💯💯💯,14-1-2022,
898,ardinas900,ardinas900,,wow keren 👍👍👍,14-1-2022,
899,ณเดช โอนไว,user8479414653613,,ราคา,13-1-2022,
900,LHYANN 0324♥️21💍,lhyann032421,,how much pls,13-1-2022,
901,nanu❣️❣️,rojinabista20,,ohhhh,13-1-2022,
902,Муратжон Турдукул253,dyqsuclezte2,,👍👍✋,13-1-2022,
