,video_id,video_description,create_time,video_duration,hashtags,likes,shares,comments,played,isAd
0,6927360417652116742,iphone screen repair,1612901795,15,"['ipad', 'apple', 'repair', 'phone']",156,3,5,3713,False
1,6944068362293054726,*Hack* Hide deep scratches from your iPhone screen using UV Glue and Regular tempered glass,1616791909,48,"['ipad', 'apple', 'repair', 'phone']",749,9,8,34700,False
2,6944403382694186246,IPad repairs are skyrocketing since kids need them for E-Learning.Once you learn you can make money fixing them yourself! #ipad #apple #repair #phone,1616869912,59,"['ipad', 'apple', 'repair', 'phone']",136,0,1,3977,False
3,6944441554270473478,#PepsiApplePieChallenge #iphone #backglass #apple #repairs,1616878800,59,"['iphone', 'backglass', 'apple', 'repairs']",172,0,2,3929,False
4,6946641830314347782,how we fix our iPhone camera glass. #iphone #repair #apple #phones,1617391091,35,"['iphone', 'repair', 'apple', 'phones']",321,5,6,8113,False
5,6947020343882124550,Learn to install a screen protector like a pro. #screenprotector #glassscreenprotector #installation #iphone #antiblue #apple #iphonex,1617479221,37,"['screenprotector', 'glassscreenprotector', 'installation', 'iphone', 'antiblue', 'apple', 'iphonex']",581,5,10,14400,False
6,6947035303651593477,Back glass repair on fleak! #repair #iphone #phone #glass #fix #phonestore #makingmoney,1617482704,59,"['repair', 'iphone', 'phone', 'glass', 'fix', 'phonestore', 'makingmoney']",198,0,7,4123,False
7,6947499750572739845,Getting mentally ready before a video! #iphone #tiktik #tiktokindia #studio #repairs #ifix #howto #doityourself #diy #marlon,1617590844,28,"['iphone', 'tiktik', 'tiktokindia', 'studio', 'repairs', 'ifix', 'howto', 'doityourself', 'diy', 'marlon']",155,0,4,3818,False
8,6949653039221411078,$1000 worth of Phone parts. weekly,1618092194,16,"['repairs', 'iphone']",190,1,1,4288,False
9,6949669885928639750,XR didn’t want to charge at all. #repairs #iphone,1618096116,48,"['repairs', 'iphone']",257,2,1,5326,False
10,6949866477390515462,LG K51 brought back to life! #shorts #repairs #android,1618141891,48,"['shorts', 'repairs', 'android']",251,0,9,6424,False
11,6949884761871518982,Adding value back to this iPad!,1618146147,56,"['shorts', 'phone', 'repair', 'realguru', 'phoneguru']",293,2,7,6970,False
12,6951137579962043653,Boost mobile said fix it or we won’t take it back lol #shorts #phone #repair #realguru #phoneguru,1618437841,40,"['shorts', 'phone', 'repair', 'realguru', 'phoneguru']",295,4,6,5617,False
13,6951220700417985798,Learn how to buy uses phones #shorts #tips #phone,1618457197,39,"['shorts', 'tips', 'phone']",486,22,5,6637,False
14,6954472772135406853,How to fix Samsung A11 Screen  #shorts #samsung #Repair #phone #android #iphone #screen,1619214375,54,"['shorts', 'samsung', 'repair', 'phone', 'android', 'iphone', 'screen']",524,3,8,14600,False
15,6954495737979768070,My iphone screen inventory! #iphone #repair #fix #parts #oled #apple #repairguru #shorts,1619219722,15,"['iphone', 'repair', 'fix', 'parts', 'oled', 'apple', 'repairguru', 'shorts']",326,3,4,6486,False
16,6954803361279397126,IPad 6th Gen Screen repair #shorts #ipad #fix #apple #diy,1619291346,54,"['shorts', 'ipad', 'fix', 'apple', 'diy']",1123,8,17,14100,False
17,6954821015205596421,Burning an iPhone XR screen to see what happens.                                                 #iphone #repair #cellphone #apple  #screen-burn,1619295456,37,"['iphone', 'repair', 'cellphone', 'apple', 'screen']",51200,14,111,261000,False
18,6954867307734781189,Custumer desperately wanted to get the pics of this OLD LG Aristo 🤪 #shorts #lg #phone #repair,1619306235,55,"['shorts', 'lg', 'phone', 'repair']",1430,3,17,28700,False
19,6955504190093331718,Picking up Merch from the Phone Plug 🔌 Buy & Resell Life!      #shorts #iphone #cases #makemoney #apple #accesories #resell #plug,1619454521,26,"['shorts', 'iphone', 'cases', 'makemoney', 'apple', 'accesories', 'resell', 'plug']",840,5,16,26500,False
20,6955965831578782981,Galaxy S10 full restoration!  #fix #repair #shorts #android #galaxy #s10 #samsung #cell,1619562006,0,"['fix', 'repair', 'shorts', 'android', 'galaxy', 's10', 'samsung', 'cell']",1320,6,15,32100,False
21,6955995269552950534,Burning a Galaxy S6 screen to see what happens.                             #galaxy #samsung #burn #phone #shorts #hotplate #repair #fix #s6 #iwatch,1619568859,0,"['galaxy', 'samsung', 'burn', 'phone', 'shorts', 'hotplate', 'repair', 'fix', 's6', 'iwatch']",4048,1,39,38900,False
22,6956313451660676358,Screen repair on Moto ONE 5G - before and after   #shorts #moto #motorola #android #repairs #crackscreen #phones #verizon #5G,1619642941,57,"['shorts', 'moto', 'motorola', 'android', 'repairs', 'crackscreen', 'phones', 'verizon', '5g']",1070,2,8,28300,False
23,6956745115897548038,iPhone 6s gets run over with fake defender case on. #shorts,1619743447,13,['shorts'],16400,12,22,111700,False
24,6957044080509455621,Burning a Google Pixel 3A XL with a surprise ending #fyp #shorts,1619813054,0,"['fyp', 'shorts']",1322,3,137,22400,False
25,6957107059175345413,WATER CHALLENGE iPhone 7 vs XR     #shorts #fypシ #apple #waterchallenge #iphone,1619827719,0,"['shorts', 'fypシ', 'apple', 'waterchallenge', 'iphone']",46900,212,400,254200,False
26,6957455710607166726,Follow up to the Google Pixel 3A XL Giveaway!                                 #videogotdelete #shorts #fypシ #googlepixel #pixel3axl #androidlover,1619908895,35,"['videogotdelete', 'shorts', 'fypシ', 'googlepixel', 'pixel3axl', 'androidlover']",566,2,74,16000,False
27,6957526063165476101,WATER CHALLENGE 💦📱iPhone SE vs 7 Are they resistant or no?                      #waterchallenge #fypシ #se #apple,1619925276,0,"['waterchallenge', 'fypシ', 'se', 'apple']",1701,19,39,25100,False
28,6957747906233355525,Google Pixel Winner Announcement!!! All entries from both videos were able to be counted 🙌 #shorts #giveaway #googlepixel,1619976926,57,"['shorts', 'giveaway', 'googlepixel']",546,5,35,15700,False
29,6958210048220810501,Samsung Note 9 and iPhone 8+ at 200°F watch what happens! #shorts #fyp #iphone8 #samsung #note9,1620084528,50,"['shorts', 'fyp', 'iphone8', 'samsung', 'note9']",2016,10,66,21600,False
30,6958526338571734277,LG aristo 2 screen repair - cheaply made but ppl liked them 🤷🏻‍♂️.                                   #shorts #fypツ #lg #metro #boost #cricket #diy,1620158169,13,"['shorts', 'fypツ', 'lg', 'metro', 'boost', 'cricket', 'diy']",284,2,1,9911,False
31,6958602408381451525,iPhone 6s Plus gets run over by a car inside a replica Defender Otterbox case.                               #shorts  #fypツ,1620175882,31,"['shorts', 'fypツ']",1128,12,26,18300,False
32,6958949205243202822,Whose ready to see more water challenges! #fyp #phonerepair #iphones #test,1620256627,8,"['fyp', 'phonerepair', 'iphones', 'test']",291,2,6,8092,False
33,6959661484507024645,That’s s where the dread locks went 🤣     #fyp #phonerepair #chargingportcleaning #foryourpage #dreadlocks #hairy,1620422466,0,"['fyp', 'phonerepair', 'chargingportcleaning', 'foryourpage', 'dreadlocks', 'hairy']",31800,92,78,3000000,False
34,6959675118696008966,Samsung Note 9 screen burned at 392°F #fyp #screenburn #Samsung #note9 #phonerepair #chargingport,1620425641,31,"['fyp', 'screenburn', 'samsung', 'note9', 'phonerepair', 'chargingport']",492,3,7,11200,False
35,6959687984606235910,iPhone 8 Plus Before and after!                 Daily work.     #fyp #phonerepair #crackscreen #brokenphone #foryourpage #apple,1620428637,8,"['fyp', 'phonerepair', 'crackscreen', 'brokenphone', 'foryourpage', 'apple']",354,4,4,8785,False
36,6959990470902664453,iPhone X Battery replacement  #fyp #iphone #repair #phones #diy #battery,1620499064,59,"['fyp', 'iphone', 'repair', 'phones', 'diy', 'battery']",442,4,9,10200,False
37,6960070043216399622,iPhone 6s Works fine even after it got ran over by a car 🚗                                          #shorts #fyp #fixyourphone #phonerepair,1620517592,58,"['shorts', 'fyp', 'fixyourphone', 'phonerepair']",845,3,21,14900,False
38,6960751118083312902,iPhone 7 Plus camera Shaking uncontrollably #fyp #phonerepair #badcamera,1620676166,32,"['fyp', 'phonerepair', 'badcamera']",989,32,55,49500,False
39,6961122535849184518,iPhone 7 Plus Screen replacement                       #fyp #phonerepair #iphone #cell #fixit #phone #crackscreen,1620762644,57,"['fyp', 'phonerepair', 'iphone', 'cell', 'fixit', 'phone', 'crackscreen']",1962,99,49,49500,False
40,6964778129806216453,Pesticides inside a phone?￼ ppl actually live with phones likes this!                                 #fyp #cleaning #bugs #phonerepair #cellphone,1621613778,53,"['fyp', 'cleaning', 'bugs', 'phonerepair', 'cellphone']",961,23,12,18500,False
41,6965990899205688581,Another hairy iPhone! Check this one out. #fyp #iphone #phonerepair #chargingport #portcleaning,1621896149,0,"['fyp', 'iphone', 'phonerepair', 'chargingport', 'portcleaning']",733,10,19,15700,False
42,6966432277802814726,"If you liked my sim unlocker video, you can find it in YouTube because they took it down in here 😔 #fypシ #unlock #iphone",1621998917,20,"['fypシ', 'unlock', 'iphone']",1314,35,111,18700,False
43,6966654779577634053,I hate when customers don’t wanna say how their phone truly got wet. 💦🚽 #fypシ #wet #iphone #waterdamage,1622050719,0,"['fypシ', 'wet', 'iphone', 'waterdamage']",214700,1216,1031,4400000,False
44,6966666135328640262,Buying in Bulk from China can make you some extra cash if your know how to do it. #chargers #iphone #fypツ,1622053364,27,"['chargers', 'iphone', 'fypツ']",689,13,9,12400,False
45,6966689024031460614,Its give away time! Comment any joke to see how many ppl like it in order to win. #giveaway #fyp #aipodcase #iphone,1622058693,22,"['giveaway', 'fyp', 'aipodcase', 'iphone']",515,7,51,11500,False
46,6966708906802302213,IDFU GO Recovery Booster: How to properly use it. #fypシ #iphone #idfu #recoverymode #disable #itunes,1622063322,37,"['fypシ', 'iphone', 'idfu', 'recoverymode', 'disable', 'itunes']",19900,698,470,259600,False
47,6967061559319219461,Here’s how you can bypass “disable mode”  without factory resetting everything!  #fypツ #iphone #reset #disable #dfu #repair#PepsiApplePieChallenge,1622145430,53,"['fypツ', 'iphone', 'reset', 'disable', 'dfu', 'repair']",2064,126,289,44700,False
48,6967107486063004934,iPhone Graveyard - #iphones #repairs #oldphones #parts #fypシ,1622156124,19,"['iphones', 'repairs', 'oldphones', 'parts', 'fypシ']",1796,9,18,28300,False
49,6967433243117276422,New 20W PD Type-C charger vs old fashioned Apple charger 🔌.                     #fypシ #iphone #charger #challenge,1622231970,55,"['fypシ', 'iphone', 'charger', 'challenge']",880,5,15,17100,False
50,6967467401260616966,Metro PCs “UNLOCK DEVICE” app unlock for FREE. #fypシ #metro #android #app #phones #network #hack #diy,1622239923,44,"['fypシ', 'metro', 'android', 'app', 'phones', 'network', 'hack', 'diy']",682,17,27,18200,False
51,6967521568297618694,Will this iPhone SE 2nd Gen survive the washer machine?   #fypシ #iphone #washer #challenge #fyp,1622252536,57,"['fypシ', 'iphone', 'washer', 'challenge', 'fyp']",12900,74,252,100200,False
52,6967793030946557189,iPad 6th Gen Screen Repair 🪛                    #ipad #repair #phonerepair #phoneshop #howto #diy #crackedipad #apple,1622315739,56,"['ipad', 'repair', 'phonerepair', 'phoneshop', 'howto', 'diy', 'crackedipad', 'apple']",1414,18,39,32000,False
53,6968507087500381446,iPhone 7 Plus back camera shakes like crazy! #iphone #camera #repair #fixphone #shop #fyp,1622481993,9,"['iphone', 'camera', 'repair', 'fixphone', 'shop', 'fyp']",2262,33,116,50700,False
54,6969328518257708294,Check if you have Apple Warranty or if your iPhones is FAKE!                                            #fypシ #iphone #tips #repairs #phone,1622673248,42,"['fypシ', 'iphone', 'tips', 'repairs', 'phone']",1454,69,18,28100,False
55,6969981802681224453,Batteries tend to swell like this in seconds! #samsung #battery #swollen #repair #android #inflated,1622825352,15,"['samsung', 'battery', 'swollen', 'repair', 'android', 'inflated']",1273,13,6,25000,False
56,6970005338363940102,Tempered Glass Screen protector install📱 #iphone #phone #screen #protector #howto,1622830832,25,"['iphone', 'phone', 'screen', 'protector', 'howto']",1057,7,4,20400,False
57,6970045515249503494,This is how I remove a SIM card stuck inside a phone 💪🏼                                                 #phone #repair #iphone #sim #tray #fyp,1622840187,55,"['phone', 'repair', 'iphone', 'sim', 'tray', 'fyp']",1826,23,25,65600,False
58,6970098240804916485,This actually works 😆        #fypp #iphone #hack,1622852464,12,"['fypp', 'iphone', 'hack']",1094,37,104,24200,False
59,6971532872423410949,“SIM NOT SUPPORTED” iPhones bypass hack! #fypシ #iphone #simcard #switch #hack #bypass #unlock,1623186489,52,"['fypシ', 'iphone', 'simcard', 'switch', 'hack', 'bypass', 'unlock']",8100,288,255,103800,False
60,6971552286803889414,iPhone XS Max screen protector TEST #iphone #fypシ #screen #protector #glass #phonerepair,1623191010,44,"['iphone', 'fypシ', 'screen', 'protector', 'glass', 'phonerepair']",3044,11,19,40900,False
61,6971858086457904390,make sure they fix your iPhone the right way! #phonerepair #fyp #crackscreen #apple #tip,1623262209,46,"['phonerepair', 'fyp', 'crackscreen', 'apple', 'tip']",3116,37,30,43000,False
62,6971873247830772998,Running over my girls old Apple Watch 😅#fypシ #applewatch #iphonerepair ￼,1623265739,28,"['fypシ', 'applewatch', 'iphonerepair']",1784,0,10,31600,False
63,6971897603784985862,JuiceWrld forever on this iPhone 😁  #custom #iphone #repair #fyp #juicewrld #juicewrld999,1623271410,32,"['custom', 'iphone', 'repair', 'fyp', 'juicewrld', 'juicewrld999']",4392,47,76,40700,False
64,6971918878083403014,Which screen will break first?               #iphone #moto #test #screen #crack #fixit,1623276363,35,"['iphone', 'moto', 'test', 'screen', 'crack', 'fixit']",84300,195,1299,684500,False
65,6972200042803350789,Answer to @yahiergarcia125,1623341827,12,"['short', 'apple', 'iphone', 'screentest', 'fyp']",1526,13,10,49400,False
66,6972232979154259206,Which iPhone screen is stronger?           #short #apple #iphone #screentest #fyp,1623349495,46,"['short', 'apple', 'iphone', 'screentest', 'fyp']",5803,7,62,63100,False
67,6972581005169265926,"I got the wrong Nokia, Obviously 😅    #phones #android #Nokia #test #screen",1623430526,27,"['phones', 'android', 'nokia', 'test', 'screen']",116700,40,1695,952300,False
68,6972638934132198661,Fixing an iPhone XR is soo easy!           #iphone #xr #phone #fypシ #apple #mobile #crackscreen,1623444014,56,"['iphone', 'xr', 'phone', 'fypシ', 'apple', 'mobile', 'crackscreen']",5583,46,73,96100,False
69,6972666972093877510,No cap I expected more from that 11 🙁     #repairs #iphone11 #screen #apple #fypシ,1623450543,48,"['repairs', 'iphone11', 'screen', 'apple', 'fypシ']",10900,31,141,96600,False
70,6972988968816135429,The replacement screen is only $25!  #fixyourphone #samsung #repairs #android #A21 #metropcs,1623525513,57,"['fixyourphone', 'samsung', 'repairs', 'android', 'a21', 'metropcs']",1897,6,30,42800,False
71,6973704959741250822,This is most people with “Glass backs” 😅 #iphone #crack #apple #phonerepairs #crackback #fixphone,1623692218,12,"['iphone', 'crack', 'apple', 'phonerepairs', 'crackback', 'fixphone']",3354,25,50,68200,False
72,6973784873811135749,Reply to @deserayp  this tool will break any glass #iphone #screen #phonerepairs #apple #glasstest #crackglasschalleng,1623710825,35,"['iphone', 'screen', 'phonerepairs', 'apple', 'glasstest', 'crackglasschalleng']",90900,134,568,534500,False
73,6974464889763024133,Samsung Galaxy S8 screen replacement    #fix #samsung #galaxys8 #phonerepairs,1623869153,55,"['fix', 'samsung', 'galaxys8', 'phonerepairs']",1310,8,11,34900,False
74,6974489295482555653,iPad 7 screen repaired                               #ipad #screen #cracked #apple #ios #mobile #wireless #cellphone,1623874835,59,"['ipad', 'screen', 'cracked', 'apple', 'ios', 'mobile', 'wireless', 'cellphone']",1651,13,34,46800,False
75,6974514920297696517,iPhone XS Max back glass installation #phonerepair #cellphone #apple #mobile #glass #cracked,1623880802,57,"['phonerepair', 'cellphone', 'apple', 'mobile', 'glass', 'cracked']",1905,7,19,40800,False
76,6974532416778095878,IOS 15 has huge updates coming! 🤩.  #maps #apple #ios15 #update #beta #developers,1623884876,46,"['maps', 'apple', 'ios15', 'update', 'beta', 'developers']",1781,34,29,39100,False
77,6975604979834948869,Apple Watch Screens Seem stronger than iPhone Screens? Or no?                         #apple #test  #applewatch #fypシ #iwatch,1624134601,42,"['apple', 'test', 'applewatch', 'fypシ', 'iwatch']",3598,5,30,41800,False
78,6975617820210023686,The Apple logo comes off 😅 who would’ve thought!                                          #phonecase #iphone #silicone #apple-logo #phones,1624137590,17,"['phonecase', 'iphone', 'silicone', 'apple', 'phones']",9294,82,60,165700,False
79,6975633322231844101,This ppl need to get their hair under control 😅🧢                                                        #samsung #note9 #android #phones #galaxy,1624141200,12,"['samsung', 'note9', 'android', 'phones', 'galaxy']",2525,3,25,56500,False
80,6977038696499531013,The forgotten phones.                          #iphone #samsung #repairs #phones #broken #surething #sad,1624468413,10,"['iphone', 'samsung', 'repairs', 'phones', 'broken', 'surething', 'sad']",2056,6,29,40900,False
81,6977053209130962181,I forgot I had this in my attic.            #pokemon #cards #charizard #pikachu #collection #phones #repairs #iphone4,1624471793,31,"['pokemon', 'cards', 'charizard', 'pikachu', 'collection', 'phones', 'repairs', 'iphone4']",1372,3,46,34900,False
82,6977115590666259718,Out to the dumpster!                      #phoneshop #iphones #trash #apple #fypシ,1624486317,9,"['phoneshop', 'iphones', 'trash', 'apple', 'fypシ']",2333,31,78,63000,False
83,6984908013362547974,Samsung Note 10 Plus Screen test              #samsung #phonerepairs #mobile #note10 #galaxy #android #crackedscreen,1626300632,32,"['samsung', 'phonerepairs', 'mobile', 'note10', 'galaxy', 'android', 'crackedscreen']",2448,27,27,83300,False
84,6985944972822416646,Pt: 1 Running over money 😅.                       #iPhones #silverado #destruccion #cellphone #mobile #fuelwheels #apple #runningover,1626542068,17,"['iphones', 'silverado', 'destruccion', 'cellphone', 'mobile', 'fuelwheels', 'apple', 'runningover']",808,5,13,35700,False
85,6985983125641907461,Rip to this iPhones 📱😵.                            #iphone #destruction #apple #drill #crackscreen #mobile #phones,1626550951,0,"['iphone', 'destruction', 'apple', 'drill', 'crackscreen', 'mobile', 'phones']",2614,7,19,49800,False
86,6986005064192150790,"Pt 2: Well, they had a good run!          #iPhones #rip #destruction #cellphones #apple #crackedscreen",1626556059,36,"['iphones', 'rip', 'destruction', 'cellphones', 'apple', 'crackedscreen']",978,16,22,41600,False
87,6986449237781253381,Who needs an iPhone? 😅                         #iphone5s #iphone #apple #cellphone #truck #runover #stupid #fypシ #foryourpage,1626659477,13,"['iphone5s', 'iphone', 'apple', 'cellphone', 'truck', 'runover', 'stupid', 'fypシ', 'foryourpage']",1201,14,32,43400,False
88,6987849649855958278,iPhone XS Max screen repair 😎.              #iphonexsmax #apple #screenrepair #mobile  #fypシ,1626985534,102,"['iphonexsmax', 'apple', 'screenrepair', 'mobile', 'fypシ']",1989,17,34,46900,False
89,6988251118514064645,The phone went from trash to fabulous 😎 #easywork #iphonerepair #apple #cellphone #crackscreen,1627079009,113,"['easywork', 'iphonerepair', 'apple', 'cellphone', 'crackscreen']",4704,38,68,72600,False
90,6989016046367706374,The replacement part made it so easy.    #samsung #note10plus #android #phonerepair,1627257108,94,"['samsung', 'note10plus', 'android', 'phonerepair']",2682,21,20,58000,False
91,6989705882309283077,Plug 🔌.                                                        #iphonecase #accessories #flipphones #phoneshop #apple #mobile #wireless #makemoney,1627417720,29,"['iphonecase', 'accessories', 'flipphones', 'phoneshop', 'apple', 'mobile', 'wireless', 'makemoney']",2866,37,37,65700,False
92,6989744711611321606,R.I.P to all my old phones.                          #iphone #samsung #android #galaxy #repairs #crackscreen,1627426761,14,"['iphone', 'samsung', 'android', 'galaxy', 'repairs', 'crackscreen']",2897,18,83,73700,False
93,6990417332178849030,Luckily for him the phone was unrepairable #phoneshop #iphone #apple #fypシ #cheating #cellphone,1627583368,15,"['phoneshop', 'iphone', 'apple', 'fypシ', 'cheating', 'cellphone']",254100,278,515,1900000,False
94,6992992550969707781,Straight rip off!￼ 🤯.                                   #ebay #refurbished #iPhoneXR #refurb #china,1628182957,14,"['ebay', 'refurbished', 'iphonexr', 'refurb', 'china']",5102,14,26,128500,False
95,6994203133832334598,Android going hard 👊.                              #iPhones #android #phones #cellphones #harveyseasalt,1628464818,59,"['iphones', 'android', 'phones', 'cellphones', 'harveyseasalt']",9232,355,241,145000,False
96,6994564333413928198,Here’s Pt. 2 “iPhone” LMK who you think won? .                                                        #apple #rapbattle #iphone #android #samsung,1628548917,53,"['apple', 'rapbattle', 'iphone', 'android', 'samsung']",3886,142,166,97900,False
97,6995646660676259077,iPhone XR currently the most popular repair! #apple #screenrepair #phoneshop #cracked #fypシ,1628800916,90,"['apple', 'screenrepair', 'phoneshop', 'cracked', 'fypシ']",4948,60,56,114900,False
98,6996049268008094981,"Sim Unlock your iPhone, it’s easy! 😎.          #iphones #rsim #turbosim #unlocks #apple #hacks #fyp",1628894655,58,"['iphones', 'rsim', 'turbosim', 'unlocks', 'apple', 'hacks', 'fyp']",627500,41100,5852,5200000,False
99,6996370738345299206,Took a nap and woke up 50K following 🙏,1628969503,6,"['iphones', 'samsung', 'lg', 'galaxy', 'brokenglass', 'repairshop', 'phones', 'fyp']",2456,1,25,93400,False
100,6996764422211407109,I still remember getting the call from ADT 😳 #iphones #samsung #lg #galaxy #brokenglass #repairshop #phones #fyp,1629061165,30,"['iphones', 'samsung', 'lg', 'galaxy', 'brokenglass', 'repairshop', 'phones', 'fyp']",3040,3,14,106200,False
101,6997536106061270277,Florida’s Sun it’s that serious! ☀️ 😬.         #phones #repairs #screen #beach #sun #damage #apple #fyp,1629240837,0,"['phones', 'repairs', 'screen', 'beach', 'sun', 'damage', 'apple', 'fyp']",13400,97,89,187600,False
102,6998704526001736966,Unlocked iPhones are worth more $$      #iphones #apple #repairshop #unlocked,1629512881,36,"['iphones', 'apple', 'repairshop', 'unlocked']",5761,113,679,166200,False
103,7000060791688809733,Sounds too good to be true? trust me I know!#iphone #unlock #newchip #simunlock #network #carriers #wireless #tip #hack #fyp,1629828660,80,"['iphone', 'unlock', 'newchip', 'simunlock', 'network', 'carriers', 'wireless', 'tip', 'hack', 'fyp']",27000,2312,1809,464900,False
104,7000073376643550470,IPhone 6 Plus had no chance 😂.              #iphone #apple #bend #test #repairs #phones #fyp,1629831591,20,"['iphone', 'apple', 'bend', 'test', 'repairs', 'phones', 'fyp']",1900000,19100,29000,53700000,False
105,7000478312724270341,I’m gonna end up breaking my table 😂.  #samsung #phones #galaxy #android #test #mobile #wireless #crackscreen #iphone,1629925872,56,"['samsung', 'phones', 'galaxy', 'android', 'test', 'mobile', 'wireless', 'crackscreen', 'iphone']",234000,948,6851,2200000,False
106,7000811105337609477,"Ok, I’m done after this one 😅.                        #ipad #bendtest #apple #iphones #phones #tablet #repair #wireless #icloudunlock",1630003357,22,"['ipad', 'bendtest', 'apple', 'iphones', 'phones', 'tablet', 'repair', 'wireless', 'icloudunlock']",408000,1370,6203,5000000,False
107,7003416065740950790,Reply to @dani_k23 I was curious myself 🤔    #iphone4 #bendtest #apple #cellphone #crackscreen #fyp #phonerepair,1630609871,40,"['iphone4', 'bendtest', 'apple', 'cellphone', 'crackscreen', 'fyp', 'phonerepair']",299500,700,3329,3500000,False
108,7006789062325505286,"Once, a customer said “I woke up and it’s cracked” 🤔😂.                                         #ipad #repair #screen #fyp #phoneguy #wireless",1631395208,75,"['ipad', 'repair', 'screen', 'fyp', 'phoneguy', 'wireless']",11400,78,88,189000,False
109,7007159489048710406,Will it even turn on again? We’ll see in 24hrs   #iphone #7plus #watertest #freeze #iceblock #phonerepair #apple,1631481455,15,"['iphone', '7plus', 'watertest', 'freeze', 'iceblock', 'phonerepair', 'apple']",3477,17,49,127400,False
110,7008579610204015878,I had to put my back into it 😅 Samsung 💪🏼 #samsung #screen #cracked #test #apple #phones #wireless #galaxy #note10 #note8,1631812103,29,"['samsung', 'screen', 'cracked', 'test', 'apple', 'phones', 'wireless', 'galaxy', 'note10', 'note8']",26900,110,793,1100000,False
111,7008638727270436102,My man thought he came up with that 6s 😂 #iphone #usedphones #offerup #apple,1631825867,23,"['iphone', 'usedphones', 'offerup', 'apple']",51300,61,60,1300000,False
112,7008694808986324230,it was chilling in my freezer for 4 days 🥶.     #iphone7plus #frezzer #test #durability #fyp,1631838924,40,"['iphone7plus', 'frezzer', 'test', 'durability', 'fyp']",6181,28,50,134500,False
113,7008717388162010373,"Hello Apple, yes, my iPhone froze again 😬 #ice #frozenphone #iphone #apple #test #durability #fyp #iceblock #icecube",1631844181,21,"['ice', 'frozenphone', 'iphone', 'apple', 'test', 'durability', 'fyp', 'iceblock', 'icecube']",3950,14,30,114500,False
114,7009376487656803589,Most phones I bend don’t have a battery inside. ✋Like if you want to me to bend more phones                                    #samsung #note #test,1631997640,7,"['samsung', 'note', 'test']",3991,11,79,156700,False
115,7010845146937904389,Like if you didn’t know this! 🤷🏽‍♂️.                       #apple #watch #tips #calculator #fyp #howto,1632339589,19,"['apple', 'watch', 'tips', 'calculator', 'fyp', 'howto']",3953,82,47,108000,False
116,7011919081364311301,My favorite Note from Samsung 👍🏽.              #note20ultra #samsung #android #repairs #fix #brokenscreen #fyp #Oled #phones,1632589634,43,"['note20ultra', 'samsung', 'android', 'repairs', 'fix', 'brokenscreen', 'fyp', 'oled', 'phones']",3718,11,33,112900,False
117,7011991174051384582,Is this phone really that tough 🤷🏽‍♂️                  #nokia #3310 #android #test #phones #repairs #fyp #wireless,1632606419,17,"['nokia', '3310', 'android', 'test', 'phones', 'repairs', 'fyp', 'wireless']",4174,13,43,119700,False
118,7013007139891367174,"Someone showed me, now I’m sharing Enjoy! #music #youtube #free #appstore #iPhone #download #app #tip #howto #fyp #tiktok",1632842967,32,"['music', 'youtube', 'free', 'appstore', 'iphone', 'download', 'app', 'tip', 'howto', 'fyp', 'tiktok']",6323,367,108,143900,False
119,7013042486725709061,Find your iPhone in the Dark!                         #apple #watch #tips #howto #iphone #location #finder #lostphone #fyp,1632851197,22,"['apple', 'watch', 'tips', 'howto', 'iphone', 'location', 'finder', 'lostphone', 'fyp']",6551,187,59,140500,False
120,7013090762283879685,Blow them charger ports clean! 💨                #iphone ##samsung #androids #phones #chargerport #clean #repair #fix #fyp,1632862437,30,"['iphone', 'samsung', 'androids', 'phones', 'chargerport', 'clean', 'repair', 'fix', 'fyp']",6203,44,24,162400,False
121,7013436395540811013,Plastic screens are much durable than glass #nokia #blackberry #lg #slidephone #durability #oldphones #android #fyp,1632942911,52,"['nokia', 'blackberry', 'lg', 'slidephone', 'durability', 'oldphones', 'android', 'fyp']",8132,13,43,164400,False
122,7014222439324323078,is this really the strongest phone? 🤔.              #nokia #android #test #indestructible,1633125926,29,"['nokia', 'android', 'test', 'indestructible']",999100,4903,13700,13000000,False
123,7014597595687357702,Who would of thought I would be making videos 😳 not easy but I try!                  #iphones #cellphones #repairs #fix #blooper,1633213274,7,"['iphones', 'cellphones', 'repairs', 'fix', 'blooper']",2083,12,21,151100,False
124,7015709441299385605,Now you can hide and lock your photos 👀 #tips #iphone #lock #privacy #cell,1633472146,31,"['tips', 'iphone', 'lock', 'privacy', 'cell']",5130,186,56,202000,False
125,7018298352970304773,Now you’ll never run out of wallpapers 👍🏽.      #iphone #todayilearned #tips #youdontknow,1634074924,47,"['iphone', 'todayilearned', 'tips', 'youdontknow']",12800,1551,201,256700,False
126,7021272076069653765,Seems like Blackberry is the winner here 🤔.  #oldphones #bend #test #samung #iphone,1634767298,29,"['oldphones', 'bend', 'test', 'samung', 'iphone']",663700,3648,22500,17500000,False
127,7021288783463124230,Apple products work very well together        #applewatch #tips #iphone #tricks,1634771188,23,"['applewatch', 'tips', 'iphone', 'tricks']",17500,328,124,370200,False
128,7023450067105336582,Nothing like an Original Apple Screen 👍🏼.      #ipad #repair #screen #swap #fix,1635274401,94,"['ipad', 'repair', 'screen', 'swap', 'fix']",5521,28,50,131200,False
129,7023462857425620230,"A new screen will fix cracks, lines & flickering #repairs #fix #iphonexs #howto",1635277379,64,"['repairs', 'fix', 'iphonexs', 'howto']",28100,229,282,609700,False
130,7025006081197788422,“Behind the Scenes” how they looked before #iphone #test #bend #durability,1635636688,24,"['iphone', 'test', 'bend', 'durability']",2306,9,18,122400,False
131,7025014172832238854,I’ll test the early Samsung Galaxy’s NEXT!      #bend #iphone #fyp #durabilitytest,1635638572,46,"['bend', 'iphone', 'fyp', 'durabilitytest']",12300,68,384,263000,False
132,7025343673328012550,Add effects to anything on your iMessage                         #apple #tips #tricks #iphone #imessage,1635715290,37,"['apple', 'tips', 'tricks', 'iphone', 'imessage']",6418,561,157,206100,False
133,7026420822038285573,Everyone knows that one nosy friend!        #iphone #tip #privacy #photos #hack,1635966083,34,"['iphone', 'tip', 'privacy', 'photos', 'hack']",6894,338,100,173400,False
134,7027554973374319877,Here’s an iPhone Tip you may find useful 🤷 #tip #apple #iphone #settings,1636230149,24,"['tip', 'apple', 'iphone', 'settings']",3378,38,28,142100,False
135,7027605675790355718,"Find it, Fix it, Flip it!  -  Buy low, Sell high 🤑 #usedphones #sellphone #tip #fixit",1636241954,33,"['usedphones', 'sellphone', 'tip', 'fixit']",4975,38,62,177800,False
136,7030215445688929542,An iPhone hack you won’t see anywhere else #apple #simunlock #network #iphonehack,1636849588,46,"['apple', 'simunlock', 'network', 'iphonehack']",18700,889,820,297000,False
137,7030558016856542469,Nokia Almost dislocated my shoulder 😂    #nokia #blackberry #test #fyp #phones,1636929349,23,"['nokia', 'blackberry', 'test', 'fyp', 'phones']",9720,61,282,195900,False
138,7032772547330526470,"You break it, I fix it 🤷🏻‍♂️.                                        #apple #watch #repair #screen #cracked",1637444960,72,"['apple', 'watch', 'repair', 'screen', 'cracked']",5483,85,61,150100,False
139,7033176727568338182,Was ANYONE really into this phones?! 🤷🏻‍♂️            #htc #phone #test #bend #strong #android,1637539066,15,"['htc', 'phone', 'test', 'bend', 'strong', 'android']",3244,4,21,114800,False
140,7033525354060958982,A nap cat while I fix his phone                         #phonerepair #samsung #sleep #fyp,1637620237,5,"['phonerepair', 'samsung', 'sleep', 'fyp']",1698,4,16,74700,False
141,7037539275654581510,You should be able to see ALL your Pins #iphone #charger #port #repair #phonefix,1638554800,14,"['iphone', 'charger', 'port', 'repair', 'phonefix']",2102,16,38,78100,False
142,7037627415484517638,View your passwords in seconds!               #passwords #iphone #hack #tip #recover #google #phonerepair,1638575322,26,"['passwords', 'iphone', 'hack', 'tip', 'recover', 'google', 'phonerepair']",30600,21100,1446,811300,False
143,7038731031133900038,Something they don’t want you to know 🙌 #at&t #unlock #network #phonecarrier #switchphones #networks,1638832278,75,"['at', 'unlock', 'network', 'phonecarrier', 'switchphones', 'networks']",2226,149,226,83000,False
144,7039445285831052591,I find all kinds of things inside iPhones 😳.      #feather #iphone #chargingport #cleaning #lostbirds #pekaboo #fyp #funny,1638998578,13,"['feather', 'iphone', 'chargingport', 'cleaning', 'lostbirds', 'pekaboo', 'fyp', 'funny']",9798,47,58,453200,False
145,7040167583101914414,Samsung when from plastic to metal frames #samsung #note #galaxy #test #bend #phones #durability #break #wireless,1639166752,28,"['samsung', 'note', 'galaxy', 'test', 'bend', 'phones', 'durability', 'break', 'wireless']",981600,4157,14800,21700000,False
146,7040190843814317358,Samsung Galaxy A12 very simple repair.         #samsung #phonerepair #android #fix #galaxy #brokenscreen #tools,1639172167,73,"['samsung', 'phonerepair', 'android', 'fix', 'galaxy', 'brokenscreen', 'tools']",4118,35,117,148600,False
147,7040572769750240517,Samsung phones are truly waterproof! 💦😳 #watertest #waterproof #android #washer #galaxy #laundry #phones #wireless #fyp,1639261091,71,"['watertest', 'waterproof', 'android', 'washer', 'galaxy', 'laundry', 'phones', 'wireless', 'fyp']",5444,32,93,147100,False
148,7040933758098296070,This Android code will make your phone faster! 💪🏼 #tips #android #samsung #phones #howto #cleanramona,1639345140,28,"['tips', 'android', 'samsung', 'phones', 'howto', 'cleanramona']",8640,3165,170,375000,False
149,7041994962476469509,Get a full report on any cell phone 100% free #tips #usedphones #buyandsell #howto,1639592220,58,"['tips', 'usedphones', 'buyandsell', 'howto']",180100,12600,872,2500000,False
150,7042057535683104006,Reply to @kerwinanthony Factory reset your iPhone using a PC #itunes #tips #reset #phones,1639606790,54,"['itunes', 'tips', 'reset', 'phones']",8139,607,359,190800,False
151,7042396224032427269,This is how to soft reset your iPhone anytime you’re having problem #tips #reboot #iphones,1639685647,34,"['tips', 'reboot', 'iphones']",9167,289,256,262600,False
152,7042433166631652614,Does your iPhone make this ugly sound? #vibrator #taptic #phonerepair #noise,1639694248,23,"['taptic', 'phonerepair', 'noise']",5711,25,69,172600,False
153,7042804730736807174,Lg Stylo 2 folded 🤣 not much of a challenge #lg #breaking #phones #test #bend,1639780760,32,"['lg', 'breaking', 'phones', 'test', 'bend']",216400,268,1917,3000000,False
154,7043145436567211270,iPhones are truly smart phones 👍🏽 useful tip! #flight #tickets #iphone #tip,1639860086,29,"['flight', 'tickets', 'iphone', 'tip']",3708,169,19,161500,False
155,7043554044039974191,If it’s a used phone Always check it FIRST!    #usedphones #buysell #imei #blacklist,1639955223,51,"['usedphones', 'buysell', 'imei', 'blacklist']",33500,1305,236,566400,False
156,7045036720697625903,Here are some Motorolas for you guys!    #breaking #phonetest #moto #bend #android,1640300435,50,"['breaking', 'phonetest', 'moto', 'bend', 'android']",427900,1065,7459,11100000,False
157,7045311081958362415,"Delivering gifts all around the world, thanks #fedex #ups #usps #amazon #prime #dhl #christmas #delivery",1640364315,18,"['fedex', 'ups', 'usps', 'amazon', 'prime', 'dhl', 'christmas', 'delivery']",2945,3,35,124300,False
158,7046521887710563589,iPhone speed test                                          #iphone13 #apple #poweron #test #tickets,1640646228,24,"['iphone13', 'apple', 'poweron', 'test', 'tickets']",15600,71,584,382900,False
159,7047247267450899717,8 things to check when buying a used iPhone #tips #buysell #usedphones #marketplace #offerup #letgo,1640815118,74,"['tips', 'buysell', 'usedphones', 'marketplace', 'offerup', 'letgo']",5811,267,95,126600,False
160,7047997527366372614,This poor tablets had no chance                     #tabs #breaking #test #bending #fold,1640989801,17,"['tabs', 'breaking', 'test', 'bending', 'fold']",11700,36,274,301600,False
161,7048034642309500206,#answer to @defybydefault and I almost Didn’t record this video,1640998443,15,['answer'],24900,22,47,326400,False
162,7048261086079995183,1st upload of the year! Happy New Years!  #fixing #repair #iphone #cracked #newyear,1641051168,69,"['fixing', 'repair', 'iphone', 'cracked', 'newyear']",4212,81,91,129500,False
163,7048697892697017646,How to easily change your AirPods name.      #airpods #apple #used #phonetips,1641152869,28,"['airpods', 'apple', 'used', 'phonetips']",4656,94,47,166900,False
164,7049469553000140037,How to properly hard reset your android to factory settings #phonetips #reset #unlock #PepsiApplePieChallenge,1641332534,46,"['phonetips', 'reset', 'unlock']",87000,4487,773,1500000,False
165,7049815619809889582,Glass screen protectors to the test!             #screen #phonetest #temperedglass #samsung #iphone #android,1641413110,31,"['screen', 'phonetest', 'temperedglass', 'samsung', 'iphone', 'android']",15900,30,66,385700,False
166,7050203721598520622,"If you had to choose one, which one would it be?                                                            #apple #samsung #test #poweron #phonewar",1641503472,28,"['apple', 'samsung', 'test', 'poweron', 'phonewar']",243000,323,3259,3200000,False
167,7050561172634094894,This Galaxy was ahead of its time.            #phonewars #galaxy #iphone #vs #test,1641586697,33,"['phonewars', 'galaxy', 'iphone', 'vs', 'test']",4867,27,203,155700,False
168,7050578062311722287,These Sony phones had no business in here #sony #xperia #breaktest #bend #phones,1641590629,10,"['sony', 'xperia', 'breaktest', 'bend', 'phones']",82900,176,963,3200000,False
169,7052066141099035950,When your girl asks to go thru your iPhone #blending #phone #destroy #test #smash,1641937100,34,"['blending', 'phone', 'destroy', 'test', 'smash']",3771,50,122,131000,False
170,7053519084549459247,Listen to all the music you like!         #youtube #tips #phone #music #hacks #howto #safari,1642275389,34,"['youtube', 'tips', 'phone', 'music', 'hacks', 'howto', 'safari']",6198,200,114,129900,False
171,7053888379519257903,This phone broke like legos lmao  #phonebreak #drop #android #lg #funny,1642361372,6,"['phonebreak', 'drop', 'android', 'lg', 'funny']",15100,218,185,292500,False
172,7053947249914826030,"Don't get ripped off!, check it before buying #imei #check #usedphones #flipphone #tip #iphones",1642375079,22,"['imei', 'check', 'usedphones', 'flipphone', 'tip', 'iphones']",5394,120,126,150800,False
173,7054248244926500142,Her little bother smashed her iPhone when he was mad 🤷🏻‍♂️.  #phonerepair #fixphone #cracked #iphone11 #howto #flipphone,1642445160,71,"['phonerepair', 'fixphone', 'cracked', 'iphone11', 'howto', 'flipphone']",4022,35,47,146200,False
174,7054283536647359790,"Lates phones, which one powers on first?! #phonewar #iphonevsandroid #poweron #test #samsung #apple",1642453377,30,"['phonewar', 'iphonevsandroid', 'poweron', 'test', 'samsung', 'apple']",33400,188,1536,1500000,False
175,7057648545796558126,Screen 🔥  test on this iPad mini 😳🤯.          #screentest #ipad #screenburn #heat #apple,1643236854,26,"['screentest', 'ipad', 'screenburn', 'heat', 'apple']",6426,7,71,153200,False
176,7057993800605797678,Ppl Always break their screen protectors 🤑 #buysell #screenprotector #dhgate #onlinesales #phonestore #hustle,1643317241,16,"['buysell', 'screenprotector', 'dhgate', 'onlinesales', 'phonestore', 'hustle']",2378,19,16,145600,False
177,7059853379413134638,The iPhone XR dropped and didn’t break 😳 #phone #test #breakingphones #cracked #xr #galaxy #androids #apple,1643750207,35,"['phone', 'test', 'breakingphones', 'cracked', 'xr', 'galaxy', 'androids', 'apple']",343100,912,7154,5600000,False
178,7060220251119865135,Samsung Galaxy A’s are very simple to fix  #phonerepair #crackedscreen #phones #android #fix #samsunggalaxy,1643835626,41,"['phonerepair', 'crackedscreen', 'phones', 'android', 'fix', 'samsunggalaxy']",1944,12,63,106900,False
179,7060959831749823791,Look at their reaction at the end 😵#giveaway #goodcustomer #phoneshop @Mr_Zuperior @Valentino Phaitien @Uncle Erl💤,1644007823,29,"['giveaway', 'goodcustomer', 'phoneshop']",11200,27,78,192300,False
180,7060997666347568430,WiFi Tip You may find very useful 🤷🏻‍♂️😅.     #wifipassword #pctips #howto #passwords,1644016632,27,"['wifipassword', 'pctips', 'howto', 'passwords']",170300,42400,1069,3600000,False
181,7061335429529931054,iPhone hidden camera mode that works 👍🏽 #iphone #apple #cameratips #phonecamera,1644095274,39,"['iphone', 'apple', 'cameratips', 'phonecamera']",7795,3128,79,295900,False
182,7061739766957591854,Don’t pay Original prices for replica AirPods #headphones #airpods #apple #tips #fake,1644189416,26,"['headphones', 'airpods', 'apple', 'tips', 'fake']",4779,85,37,150000,False
183,7062104339430526255,Apple keeps smashing Samsung @ this test 😵 #test #phonewar #androidvsiphone #poweron #apple,1644274299,30,"['test', 'phonewar', 'androidvsiphone', 'poweron', 'apple']",4478,15,121,146600,False
184,7062442567639682350,Live wallpaper for your android phone not🍎 #phonewallpaper #howto #phonetip #android #tiktoktip,1644353050,63,"['phonewallpaper', 'howto', 'phonetip', 'android', 'tiktoktip']",4818,876,99,188900,False
185,7062759155442060590,These are ideal for iPhone & iPad repairs 👍🏼 #phonerepair #iphone #phoneshop #diy #toolkit,1644426762,17,"['phonerepair', 'iphone', 'phoneshop', 'diy', 'toolkit']",2936,23,13,143900,False
186,7062838191170145582,Multitasking during TikTok lives & FaceTime #iphonetips #apple #ios #live #wireless  #wireless,1644445163,21,"['iphonetips', 'apple', 'ios', 'live', 'wireless', 'wireless']",12000,566,158,520800,False
187,7063092192516263214,Best not let her catch you or your phone will end up like this dude’s 🤣.                  #phones #apple #crackscreen #funny #fyp,1644504304,7,"['phones', 'apple', 'crackscreen', 'funny', 'fyp']",3643,15,45,173300,False
188,7063212879063059759,That Sanyo phone is built different 🤷🏻‍♂️.        #flipphones #breakphone #samsung #bendtest #oldphones,1644532402,37,"['flipphones', 'breakphone', 'samsung', 'bendtest', 'oldphones']",105400,165,2337,3600000,False
189,7063969425480928558,This Samsung tip will hide your notification #galaxy #phonetips #hide #samsung,1644708549,28,"['galaxy', 'phonetips', 'hide', 'samsung']",4877,135,65,198800,False
190,7064280936321420591,Can this phone test predict the Super Bowl 🤷🏻‍♂️                                                       #droptest #phones #applevsandroid #apple,1644781080,10,"['droptest', 'phones', 'applevsandroid', 'apple']",7751,23,252,215700,False
191,7065764682455420206,I wish I could handle not using protection 😫#thatfeeling #phoneproblems #phonecase   #iphone13promax,1645126540,12,"['thatfeeling', 'phoneproblems', 'phonecase', 'iphone13promax']",8559,11,83,223900,False
192,7066542446401834286,I’ve repaired hundreds & now I break them😆🤷🏻‍♂️                                             #phonetest #bending  #alcatel #breakingphones #cell,1645307627,17,"['phonetest', 'bending', 'alcatel', 'breakingphones', 'cell']",364400,363,773,7900000,False
193,7066881007450000687,This will make your android run smoothly 😁 #android #tips #runfast #phonetips,1645386454,37,"['android', 'tips', 'runfast', 'phonetips']",131200,17900,1085,3900000,False
194,7067644281963449646,"Your Phone will charge faster on airplane mode, it’s a fact 👍🏽.                                  #phonetip #charger #pdcharger",1645564168,59,"['phonetip', 'charger', 'pdcharger']",17600,200,297,445400,False
195,7067963048778026287,Hide your phone number during calls 😲 #samsung #android #phonetips #calls #hidenumber,1645638387,25,"['samsung', 'android', 'phonetips', 'calls', 'hidenumber']",7180,377,63,309100,False
196,7068012895736499503,iPhone wins another start up test 🤭 What next?  #phonetest #phonewar #poweron #samsung #apple,1645649993,31,"['phonetest', 'phonewar', 'poweron', 'samsung', 'apple']",16100,32,487,398000,False
197,7069136088425565483,iPhone lovers be like: “Taking out the trash”  #samsungphones #galaxy #androids #samsung #wireless,1645911506,12,"['samsungphones', 'galaxy', 'androids', 'samsung', 'wireless']",482200,2983,4122,30300000,False
198,7069527197668871470,The opportunity is out there just look for it! #phonecase #phoneparts #hustle #phoneaccessories #resell #sidemoney,1646002568,34,"['phonecase', 'phoneparts', 'hustle', 'phoneaccessories', 'resell', 'sidemoney']",3341,32,33,204800,False
199,7070226782837804331,None of this phone can go against the Nokia #galaxy #samsung #breakphones #phonetest #androiduser,1646165453,27,"['galaxy', 'samsung', 'breakphones', 'phonetest', 'androiduser']",819100,3366,17000,17200000,False
200,7070579817321614635,How to repair iPhone 7 in 50 seconds 😅 #iphonerepair #crackscreen #fixphone #apple #iphone7,1646247651,54,"['iphonerepair', 'crackscreen', 'fixphone', 'apple', 'iphone7']",4878,36,62,193300,False
201,7070604070498651435,All iPhone 6 models are very ez to repair 😎 #iphonefix #screenrepair #apple #phonebattery,1646253298,60,"['iphonefix', 'screenrepair', 'apple', 'phonebattery']",6396,58,75,191300,False
202,7073923264707300650,Not even a scratch on the blackberry 😳😅 #breakphone #phonewar #androiduser #phonetest,1647026108,25,"['breakphone', 'phonewar', 'androiduser', 'phonetest']",178300,113,1323,1600000,False
203,7073949636792208686,This LED light comes handy.                           #screenprotector #iphone #glass #howto,1647032247,37,"['screenprotector', 'iphone', 'glass', 'howto']",7058,20,19,138200,False
204,7074325851416055086,6ft “drop test” (4 tries) iPhone 7 vs Galaxy S6 #phonewar #droptest #android #apple,1647119842,29,"['phonewar', 'droptest', 'android', 'apple']",14200,64,241,268500,False
205,7074689857406209326,Always use a temper glass if you want to protect your phone 😲 #screen #phones #temperedglass #phonecare #scratches,1647204594,25,"['screen', 'phones', 'temperedglass', 'phonecare', 'scratches']",5863,9,42,133500,False
206,7074725858283506990,This kid said he barely dropped his iPad 🤨 #applerepair #ipad6 #crackscreen #fix,1647212976,93,"['applerepair', 'ipad6', 'crackscreen', 'fix']",5478,21,34,141000,False
207,7075786256298347819,Android lovers be like “taking out the trash” #iphones #apple #wireless #phones #slide,1647459869,15,"['iphones', 'apple', 'wireless', 'phones', 'slide']",21500,222,494,956900,False
208,7075822859091725611,iPhone screens can handle extreme heat 😳 #phonetest #screen #heat #iphonetest,1647468392,30,"['phonetest', 'screen', 'heat', 'iphonetest']",7789,14,48,158000,False
209,7076866538501901614,Cheap Samsung screen are awful! Get OEM. #samsungrepair #note9 #android #phones #oemscreen,1647711392,71,"['samsungrepair', 'note9', 'android', 'phones', 'oemscreen']",4848,13,35,133200,False
210,7076930986055093550,Set your iPhone to the best camera setting🤩📸.     #iphone #camera #tips #howto,1647726397,34,"['iphone', 'camera', 'tips', 'howto']",4523,215,47,139900,False
211,7077306420282117418,Apple has improved so much over the years!                          #apple #iphonetricks #phones,1647813810,18,"['apple', 'iphonetricks', 'phones']",86100,197,245,945000,False
212,7079842164712230186,,1648404209,23,"['apple', 'iphone', 'ios', 'trash', 'androidusers']",4718,18,57,115500,False
213,7079876468448234795,"Android user be like, “taking out the trash” 😂.                                                           #apple #iphone #ios #trash #androidusers",1648412196,10,"['apple', 'iphone', 'ios', 'trash', 'androidusers']",5839,50,152,172000,False
214,7079901863709117739,Just in case you’ve never seen this historic moment ✌️                           #iphoneevolution #stevejobs #apple #touchscreen,1648418109,120,"['iphoneevolution', 'stevejobs', 'apple', 'touchscreen']",5717,24,62,110600,False
215,7080604667163495726,Which phone would your rather have?            #galaxy #phonetest #apple #iosvsandroid #phonewar,1648581743,23,"['galaxy', 'phonetest', 'apple', 'iosvsandroid', 'phonewar']",3858,10,102,101600,False
216,7080624259877358891,"Old iPhone use to break easier, remembe?😅 #appledrop #iphonetest #droptest",1648586304,15,"['appledrop', 'iphonetest', 'droptest']",8801,36,107,170100,False
217,7080662623695473962,Hear how loud your phone gets after this! 😳#androidtips #samsung #phonetips #howto,1648595237,24,"['androidtips', 'samsung', 'phonetips', 'howto']",5199,1581,100,248900,False
218,7080959034064522538,Turn ON your flashlight in seconds!! 😳😊.    #samsunghacks #phonetrick #androidhacks  #galaxytips #CollegeGotMeLike,1648664251,32,"['samsunghacks', 'phonetrick', 'androidhacks', 'galaxytips']",9542,367,109,368500,False
219,7080996868607495466,"Ok Miami phones, let’s see what you got! 😂 #BLU #phonetest #breakphones #phones",1648673059,21,"['blu', 'phonetest', 'breakphones', 'phones']",14200,14,258,262000,False
220,7082094621639200043,How to replace a broken screen on iPhone 8+ 🫥                                           #iphonerepair #repairphone #iphone8plus,1648928650,77,"['iphonerepair', 'repairphone', 'iphone8plus']",2337,22,34,80000,False
221,7082104307205639466,When my new iPhone 13 arrived 🤫.      #apple #iphones #phones #wireless,1648930905,10,"['apple', 'iphones', 'phones', 'wireless']",4223,29,115,114500,False
222,7082450758372805930,How to check if an iPhone is stolen or blacklisted 😳                                  #iphonetip #iphonehacks #imei #phonetip,1649011569,42,"['iphonetip', 'iphonehacks', 'imei', 'phonetip']",13100,373,217,163800,False
223,7083596921788468522,iPhone 11 vs Moto G Stylus 2021 camera test #android #cameratest #cameracheck #iphone,1649278431,11,"['android', 'cameratest', 'cameracheck', 'iphone']",3288,10,69,82700,False
