,Comment Number (ID),Nickname,User @,Comment Text,Time,Likes
1,Paladin Gaming Computers,paladin_computers,,"Oh boy, this is gonna be good",17-2-2021,351
2,AMB,amb753,,Why do they need that much equipment I’ve seen guys with more subscribers who sit down in front of their computer and get more views,18-2-2021,39
3,Miha Novak,mihanovak420,,do not press the ♡ I'm trying to sleep 😕,20-2-2021,31
4,zax,.zaxlyx,,“omg she actually got hired” do y’all not listen to wan show?💀,17-2-2021,24
5,ttv/oktinaa,oktinaa,,ahhh linus tech tips tiktok,23-2-2021,2
6,:p,virtual_chase1,,Wait he ended up hiring her?,18-2-2021,34
7,Taco tech 🍷,taco.tech,,Lmao,17-2-2021,25
8,Brooks,topsailbrooks,,Is she the girl that won the rig rebot,18-2-2021,33
9,otaku senpai,i_simp_for_chloe0,,my fyp is now complete☺️☺️,6-3-2021,4
10,ObviousGamer,obvioustiktok,,no way I found Linus tech tips tiktok what's up,17-2-2021,37
11,Memes,f1rewolf__,,Linus tech reviews sound better than Linus tech tips since there’s no tips in his vids 😂😂😂😂,15-3-2021,2
12,Jasenko Stojakovic,traumatiziran,,i love this girl 😍,21-2-2021,1
13,⏯,exobori,,"I wanna know more about tech, cuz 1. I love technology & 2. I want to learn how to fix computers.",14-3-2021,2
14,Zarri 🕷 2.0,zarrikilledwho,,ngl huge crush😳,19-2-2021,2
15,jag,jag462,,long boi,15-4-2021,1
16,mhm,frigidz_,,WARNING‼️JOIN THE HAMSTER ARMY ‼️WE DONT MOCK GOD OR BURN BIBLES ⚠️JOIN THE HAMSTERS 🐹🐹🐹🐹,21-2-2021,1
17,Headshot Marksman,blxckskelly,,LMAO its the girl from that one video,14-3-2021,1
18,nick ott,nickott19,,That’s the dream,22-2-2021,1
19,Bill (from MN),billfromminnesota,,I know that guy from a different part of the internet,22-2-2021,1
20,user1572076385607,101redcode010,,@bakinboi Linus,22-2-2021,1
21,lexxlyyy,cheeslexx,,finally😂,24-2-2021,2
22,davi,bruhdavid,,hire carter,24-2-2021,3
23,wootph Official,wootphofficial,,best dream job 🥰,31-3-2021,1
24,DorrianKarnett,dorrian.karnett,,Мэдисон 💎,6-3-2021,1
25,I’m Behind You🧌,jerikaij,,YESSSSS,6-3-2021,1
26,Haku,xd_haku,,Yes,17-2-2021,18
27,rubencito,rubencitopy,,"Soy fan de linus, desde hace tiempo. Buenos videos 👍🏻",17-2-2021,16
28,Mr. SunChips,mr.sunchips,,LETS GOOOOO,17-2-2021,15
29,jadenjf88,jaden.jf88,,ROG RIG REBOOT 2019!!!!!!!!!,18-2-2021,14
30,Joseph,itsslimjimtim,,"ltt on my fyp.
"" wonder how that happened?""
sees Madison
""makes sense.""",18-2-2021,12
31,Sirus.S◎L,sirus_sol,,Linus Sextips 😏,10-3-2021,11
32,Danny Lugo,s2keljefe,,"Linus is the only reason I’m in the tech field today, this man taught me so much and he’ll never know how grateful I am.",18-2-2021,11
33,Arcane Anthems,arcaneanthems,,Madison yes!!!,18-2-2021,11
34,Josh Hodgkiss,shutterbugnerd,,Yes the techtok I’ve been waiting for,17-2-2021,11
35,Diego,taco.dealer,,Rog rig reboot with Madison is the best Ltt vid ever,18-2-2021,8
36,Adam,adamcantfathom,,The fact this happened gives me hope for the internet,17-2-2021,8
37,W3RD_Na,andrew_ameer,,Big oof girl???,18-2-2021,7
38,Adam Sadowski,newtie1111,,no way he actually hired you,18-2-2021,6
39,Dragos Andrey,cumpar_golf_iv,,finnaly i found the official channel😂,18-2-2021,6
40,Linc,_linc__,,NO WAY! LTT ON MY FYP? GO MADISON!,17-2-2021,6
41,Dingle berry,that.one.guy9,,Linus is a poopy tell him I said that cause he didn’t pick me to build a pc with him,17-2-2021,6
42,AdamFTW,adamftwyt,,HAHA I REMEMBER YOU FROM RIG REBOOT NO WAY THEY HIRED YOU 😭😂😂,10-3-2021,5
43,narnius1024,narius1024,,she’s the one from the ROG Rig Reboot 😂😂 the funniest episode ever 😂,8-3-2021,5
44,Allen DZ,allendz,,he actually hired her! Awesome!!!,2-3-2021,5
45,your mom is my sugar mama,_.twixx,,they hired her,27-2-2021,5
46,Nez,nxzzsc,,LONG BOI,23-2-2021,5
47,🎸🗿,eliasklemetz2,,ayyy the best rog reboot,18-2-2021,5
48,exq_loaded,exq_loaded,,Linus Seggs Tips 😩😩😩,18-2-2021,5
49,user8172307875723,death4v,,NO WAY THE ROG RIG REBOOT GIRL GOT HIRED😂😂😂,18-2-2021,5
50,Connor,yowhosconnor,,oh god,18-2-2021,5
51,ninjabtw,n1njabtw,,"WHY DID I LIKE MY OWN COMMENT
ا ?!AGO",18-2-2021,5
52,Eysiah,eysiah,,YO ITS THE ONE SASSY LADY,17-2-2021,5
53,555,j4ydri3n,,@h3llob3lla gotta love linus,17-2-2021,5
54,pc,pc,,hey lol,17-2-2021,5
55,zaddy,drewcutler4,,she back,16-10-2021,0
56,Broke.n,._broke__,,I BARELY FOUND THE BUILD BIDEO BUT I SAW THIS MONTHS AGO WOAH,18-6-2021,0
57,Cody,mrfeelsgoods,,Madison! Yay!,28-5-2021,0
58,HeyoHudsy,heyohudsy,,a little late but thank God LTT has some personality,18-5-2021,0
59,Jheno Barruga,jhenobarruga,,madisoooon!!!!,13-5-2021,0
60,naptowntwm,naptowntwm,,This is the best tech YouTube channel lol it’s hilarious and actually teaches me some stuff,13-5-2021,0
61,Past🚬,sensation10oo10,,MADISSOOONNNN,12-5-2021,0
62,Tik Toker,skating..3,,Big oof,28-4-2021,0
63,Magnsarn,magnsarn,,Ok you have icelandic vibes prob should get a dna test 60000 canadians are icelandic,24-4-2021,0
64,bootsybellows1,bootsybellows1,,You’re so funny,18-4-2021,0
65,AD Bautista,adbautista0,,is that the new mac channel?,14-4-2021,0
66,wahh,hanggfx,,never imagined you get hired but still amaze cuz youre funny at his contents 😂😂😂,5-4-2021,0
67,David Morales,davidfromtampa,,Wait she’s doing what 😮,2-4-2021,0
68,Will,williamnas123,,They hired m dog,1-4-2021,0
69,Lucas,sellthekids4food99,,Why is this not LTT related content ? -.-,29-3-2021,0
70,♥️YOUR EDITOR♥️,dexiediaz039,,carbon lodi,26-3-2021,0
71,user72940716384,rjab99,,WAIITTTTTTTT IS THAT THE GIRL FROM PC BUILDING VIDEOS WHICH THEY USED ROG ALL OVER THE PLACE?,22-3-2021,0
72,Site,not.site,,is she that funny girl from rog video,21-3-2021,0
73,Cory Anderson,c.anderson22,,“Longboi”,20-3-2021,0
74,Gray gray,gray_henry,,I did not know Linus has a TickTock,19-3-2021,0
75,razeuwu,razeuwu,,YES MADISON,18-3-2021,0
76,Ggffgg,ggffgg989,,there is new app called Bee its for making money by one touch download it and use this code (jaaber),18-3-2021,0
77,DM's dont Work,fembozo,,BIRDGIRRLLL,17-3-2021,0
78,adrijus,adrijonskas,,build me a pc lol,17-3-2021,0
79,spideyy,spideyy_mc,,oh they actually hired you,17-3-2021,0
80,chitian,user05e28h1bvd,,wait i thought that room was an actual one...,17-3-2021,0
81,Axolotl_0,monkeymanthatsamonkey,,ii love your mask it looks cool,17-3-2021,0
82,Weirdstuff69420,weirdstuff69420,,What happened with fortnite 2,17-3-2021,0
83,Me,coopthetroopa,,Yo it’s the roblox girl,17-3-2021,0
84,Onion,onionlollypop,,No wonder they like apple,16-3-2021,0
85,garbage ramem,shellbullet,,I MADE IT TO LINUSTOK,16-3-2021,0
86,Slime,slimesrgud,,IT’S YOU OH MY GOD,16-3-2021,0
87,G may,maxverstappensuperfan,,Hold up is this the girl from that one ROG rig reboot video?,16-3-2021,0
88,Women ARGARGARG,raspieznuts,,Idk why I feel like I know you,16-3-2021,0
89,Zoom Zoom,speed3.mcgee,,wait wait wait arnt you that girl from i think arizona and built a computer with him?,16-3-2021,0
90,Donncha O'Connell,donncha.oconnell,,@sadhbhnaughton is that liddane,16-3-2021,0
91,Mr Mcfly,mrmcfly4,,Omg 😂 im so happy to see you on screen now! Someday i hope to join the crew 😁,15-3-2021,1
92,🔺,familliarface,,I shat my pants and put in in the freezer. My sister asked if she could have my chocolate ice cream and I said yes,15-3-2021,0
93,Kevin,kvnmlls666,,"nice, love ltt",15-3-2021,0
94,Lucy:),thelifeoflucythedog,,Linus tech tips has a tiktok??????? Bruh,15-3-2021,0
95,This is my new acount,khabylamevscharli1,,BE VEGAN,15-3-2021,2
96,hello,chris47478,,I have the same face mask as you,15-3-2021,0
97,Stove Apple,sutibuadamusu,,I would have applied but I'm in the states.,15-3-2021,0
98,Scawwwy,charli_has__no.talent__,,the radiator is long boi,15-3-2021,0
99,Aidyn Loveland,aidynloveland,,weren't you the one that called a graphics card a long boy,15-3-2021,0
100,William Gorsuch,bartender_billy,,"You’re hilarious, and I respect you just as much as Anthony 😂",15-3-2021,0
101,Fancy Raccoon,fancyraccoon0,,You are you for the there rig rebot,15-3-2021,0
102,R E N N,trupir,,Wait he hired you now? I literally just rewatched your pc build episode.,15-3-2021,0
103,D-Rizzle,wowzersurabaddie,,Soooo..... he is Bill Clinton and the child is Monica? @fbitiktok,15-3-2021,0
104,geeseyp73,geeseyp73,,YES! Finally made it to linus tiktok,15-3-2021,0
105,✨Leia Hope✨,leiarey93_,,I was waiting for him to drop it.,15-3-2021,0
106,Zen,zencontroller,,How’s the pc going,15-3-2021,0
107,Gave,gave_me,,Hey,15-3-2021,0
108,4️⃣🆓,unknownsubjcect422,,M DAWGGGG,14-3-2021,0
109,Captain_p0wer,captain_p0wer,,linus hiring you was the greatest thing he ever did! welcome to the crew gurl!,14-3-2021,0
110,mason millard 🙈🙈,masonnncf,,"LTT, should I get 3200 ram or 3000 ram",14-3-2021,0
111,David Atkins,atkinsohmy,,Lmaooo nice!!,14-3-2021,0
112,Mr Banaga,.soulxs,,long boiiiiiiiiiiiiiiiiiiiiii😬,14-3-2021,0
113,Bason,cutiebason,,Bro i wanna know if yall hire,14-3-2021,0
114,Cuh,longstomach,,Linus seggs tips,14-3-2021,0
115,Tracen Hernandez,barbequesauceinmytitties,,what's going on here...,14-3-2021,0
116,Damon?,damonurnotfunny,,NO WAY I remember that video,14-3-2021,1
117,gundurr,gundvrr,,LMAOOO THEY HIRED HER??!?!?!?!,14-3-2021,0
118,Kendrick Garcia,kg.ms3,,LETS GOOO LTT ON TIK TOK,14-3-2021,0
119,BIG MIKE LIFTING,bigmikelifting,,Now this is epic,14-3-2021,0
120,irvin_a2,kingirvin95,,i think it might be your skin color lol,13-3-2021,0
121,Personal Jesus,.personaljesus,,Didn’t know ltt/Madison memes had a TikTok. Now subbed!,13-3-2021,0
122,Christopher,uhghoul,,Is that the girl that won the build?? She was funny 😂,13-3-2021,0
123,Luis,1kozatik,,I’m so happy they hired her. She was a perfect fit to the LTT family.,13-3-2021,0
124,Weston,westonsucks,,while watching this I got a noti for the new video,13-3-2021,0
125,Ary G,aryoksleftnut,,“Got em”,13-3-2021,0
126,masterfubar23,masterfubar,,Very good decision 😁,13-3-2021,0
127,SourLettuce,sourlettuce,,can I be hired?,13-3-2021,0
128,Stone Mitchell,stonemitchell1,,I made it to ltt tik tok,13-3-2021,0
129,You thought,corruptedprince,,Y’all popping up on all my social media in the last week,13-3-2021,0
130,Jordan,went2sixflags,,suop?,13-3-2021,0
131,SKOOMA Banditz,skoomabanditz,,Nothing is more Canadian then a pc water cooled by maple syrup!!!!! 😏,13-3-2021,0
132,Alexander Meneses,alexandermeneses15,,oh you guys now have a tiktok!!!!,12-3-2021,0
133,Quique Martínez,erkaiko000,,I HAVE YOUR SAME MASK,12-3-2021,0
134,pussies,xxxxxxxxxx_xx_xx,,dn me,12-3-2021,0
135,Adam Mehew,adammehew5,,YES,12-3-2021,0
136,Bassote97 🕺✨,etossab,,VAMO MADISON WOOOOOO,11-3-2021,0
137,Your Mom,mstoxictoaster,,How did I not know Linus was on tiktok...,11-3-2021,0
138,Leo Lopez,leolopez735,,SHES BACK,11-3-2021,0
139,CaptainCanada Gaming,deckypooh,,I said the same THING,11-3-2021,0
140,snug as a big teehee,snugglier,,ur that dog reboot thing grill right?,11-3-2021,0
141,Rockythelover22,rockythelover_22,,interpret their video 😂,10-3-2021,0
142,Borrello12,borrello12,,Lucky I would love to work there,10-3-2021,0
143,BrinySeaFoam,emoincantation,,bruh she said Monica Lewinsky does that make Linus bill?,10-3-2021,0
144,rushi trivedi,rushitrivedi24,,She got hired!!!!!!! Ayyy!!!!,10-3-2021,0
145,Bruh chain,usernamesure,,"wow, you are so lucky",10-3-2021,0
146,rice farmer,sharevsh,,THEY TOOK HER IN WHAT,10-3-2021,0
147,Diablue,diablue_7,,child labour!,10-3-2021,0
148,2003golfgti,2003golfgti,,I am a 2003golfgti.,10-3-2021,0
149,STRIPPY Tv,dogydude3,,Tell Linus I need a pc 🥺,9-3-2021,0
150,Anori,anoriofficial,,I have 1 video and 89k likes. Beat that,9-3-2021,0
151,Kimo,user._._111,,YESSS MADISONNNN,8-3-2021,0
152,SalvadorChroma,salvadorchroma,,Are those socks and sandals?,8-3-2021,0
153,٤>,shh2n,,Im literally watching him rn,8-3-2021,0
154,ㅤ,meno_the_fourth,,"“What can I say except, it was a good decision” Linus 😂",8-3-2021,0
155,🅢➐,syn7hetik,,SOMEBODY SAID THE FINNA MAKE THIS THE NEW WENDY'S 😭😭,8-3-2021,0
156,Sam Tulloch,samtulloch,,I think Linus is my dad,7-3-2021,0
157,Jan Levkovič,john.levk,,Didn't expect to find ltt on tik tok😁,7-3-2021,0
158,Nabeel,itznabeel_,,why ain't you verified thoo😅😅,7-3-2021,0
159,Im here for vine,hereforvine1,,Omggg it her ❤️❤️our queen,7-3-2021,0
160,ionknow,topsoning,,OHHH,7-3-2021,0
161,Riccardo,95chicchi,,wait... is she from that time he gave away PC parts and assembled with his supervision? That super-funny girl??😳😂,7-3-2021,0
162,Newbify,newbifyy,,werent u in the rig reboot 2019 i think?,7-3-2021,0
163,Louis indepoot,louispoot122,,its so weird that 4 years ago she was a random person to win an entire pc 😳,7-3-2021,0
164,Markus Aastad Johnse,thattoasty,,CONGRATS MADDIE! ❤️,7-3-2021,0
165,Morten,vybuwu,,You the same giro from rog series?,6-3-2021,0
166,Danksta,samedayy,,MADISOOOOOON WOOOOOWOOOOO,6-3-2021,0
167,Kyle,ky._028,,Rog rig reboot woman,6-3-2021,0
168,︎︎︎︎︎,ahm3d_ahsan,,is that lineus,6-3-2021,0
169,CD,demberd,,you're freaking awesome,6-3-2021,0
170,.,ethanonwii5,,YES,6-3-2021,0
171,the Detox,thedetox0,,finally reached linustok,6-3-2021,0
172,..,helenkellerscooch,,Noo wayyyy,6-3-2021,0
173,Josh,josh_is_posh69,,She is a babe,6-3-2021,0
174,Mihail,mgik42,,Omg ltt has a tik tok?,6-3-2021,0
175,𝙘𝙚𝙯𝙚𝙧★,cezer_,,THEY HIRED HER!!!!,6-3-2021,1
176,dax,frrdax,,AYO YOU GOT THE JOB,6-3-2021,0
177,Fry,chippymcd,,love the show 🥰,5-3-2021,0
178,Cayden Smith1168,caydensmith76,,wait arnt you the one from the video were he built u a pc kinda,5-3-2021,0
179,Conor,broken_wings_cosplay,,work place dream,5-3-2021,0
180,happy potato,stup1dwer1dboi,,"lucky, once im older i will work with them too :D",5-3-2021,0
181,Puddin',majinpuddin,,Ciusism,5-3-2021,0
182,Jedd,user.true_dababy,,Linus I watch you religiously do you reply,4-3-2021,0
183,Joshua Evan Lars Hoyland Eif,j.lars.eif,,Hold up we’re you in the rog reboot???,4-3-2021,0
184,Frankie Juarez,frankiethebeast1,,POV you can’t copy and paste it try it you won’t be able to 𓅷𓆏𓃰𓃠𓅿𓂻𓃱𓃗𓅓𓆙𓀿𓂉𓃒𓃒𓃗𓃘𓃝𓃟𓃠𓃡𓃩𓃬𓃯𓃰𓃱𓃲𓃵𓃷𓃹𓄿,4-3-2021,0
185,maddy lynn,falloutmaddy,,MADISON !!! :D,4-3-2021,0
186,Arwix,arwixofficial,,Oh my God yes!!! This truly brings a smile to my face knowing your there. 😁,4-3-2021,0
187,SoraOfTheLight,soraofthelight,,GIB MOAR MOUSE PADS :CCCCCCC🥺🥺🥺,4-3-2021,0
188,Pierce Slamkowski,pierceslamkowski,,i found ltt,4-3-2021,0
189,wclark89,wclark89,,LINUS!!! IM so glad you’re on my FYP 😏😏😏,4-3-2021,0
190,huntër,hunterr126949,,Austin is still better 🤚,4-3-2021,0
191,abhiram lanka,astra_2040,,I have finally arrived at linus tech tips tiktok,4-3-2021,0
192,George Harris,swagmaster133,,oh god please no,4-3-2021,0
193,father.bulian,father.bulian,,YOOO,4-3-2021,0
194,Faris,suraimumercy,,THEY ACTUALLY HIRED HER 😂😂😂,4-3-2021,0
195,yeet,iamvoidwalker,,"hello ""big oof"" girl",4-3-2021,2
196,aspect,axepect,,LONG BOI,4-3-2021,1
197,Ethan,ethys20,,Anyone else remember when she gave Linus a stress test,4-3-2021,0
198,SkittlesScott,skittles_scott,,Lmao,4-3-2021,0
199,thetboi327,thatboi327,,IS THAT THE ROG 5????,4-3-2021,0
200,Pope,mclongshlongcock,,Yerrrrrrr,3-3-2021,0
201,Brandon,macbam1108,,i am so glad i found this account,3-3-2021,0
202,user37771918557,adaddin,,Does Linus know?,3-3-2021,0
203,Lingling27,ling1ing27,,LETS GOOO MADISON,3-3-2021,0
204,Akira,akira_._,,didn't know LTT had a tiktok,3-3-2021,0
205,honestOrb,honestorb,,Madison for the win,3-3-2021,0
206,Churchles,churchles,,LTT finally landed on my fyp! Hooray,3-3-2021,0
207,Ryan Legacy,ryanlegacy,,Bruh I still remember the ROG REBOOT like it was yesterday 😂,3-3-2021,0
208,John Smith,animassacre,,Where do I apply to become a 1337 member of the LTT crew is the real question here 🤔,3-3-2021,0
209,history and geography🫶🫶,yourlocalnerdcenter,,I WANNA JOIN THE LTT TEAM PLS,3-3-2021,0
210,Oarnge hat,that_oarnge_hat88,,YAYAYAY,3-3-2021,0
211,japieeh,japieeh,,with Madison in charge LTT will be at 25m in a month,3-3-2021,0
212,Itwasntme,joemama232323,,So who's the child?,3-3-2021,0
213,Maxwell O'Hearn,royallyoily,,tell linus I am madly in love with him,3-3-2021,0
214,tpearson02,taipair,,Took me about 3 watches before I understood what was said at the end. 😳😮,3-3-2021,0
215,•Lucy•,lucy00w0,,omg that's funny 😂😂😂😂,3-3-2021,0
216,Nicholas Estrada,nicholasjestrada,,FOUND IT!!!,3-3-2021,0
217,bunger,dannybrowns.a.warveteran,,you are literally my favorite member,3-3-2021,1
218,Angelo,dagreek,,So no one is going to address what she ment by Monica Lewinsky 😳,3-3-2021,0
219,what,uniqwer,,IT'S YOU,3-3-2021,0
220,Manu,kerka2000,,YES!!!!!!!,3-3-2021,0
221,Emma,emz.94,,okay but what kind of inception is this because I think I was watching that exact yt video 10 min ago.,3-3-2021,0
222,Offical_Fishy_clan,ttv_budder,,Lol she was the best on the show,3-3-2021,0
223,Asp,tre.aspeen6,,Hello Linus,2-3-2021,0
224,Tromod,tromod,,YES!,2-3-2021,0
225,Jowl Bowl,jowl_bowl,,ITS MADISONNNN,2-3-2021,0
226,norg.mp3,ihaventgrownin5years,,CHILD LABOUR,2-3-2021,0
227,Xd Burgermal vr,xdburgermal_vr,,I remember the rog build,2-3-2021,0
228,Alex Petrut,alexpetrut3,,best yt ch linus 🥰,2-3-2021,0
229,Dani Dude,dani_dude_dudes,,llt on tik tok ?,2-3-2021,0
230,medy boubekeur,sunsun_93,,You are the best thing that has happened in this company.🥰,2-3-2021,0
231,TheHanzo,thehanzo_,,dayumm the winner became the employee,2-3-2021,0
232,Benjamin Morić,njobe_thegreat,,ayoooo howd u get there,28-2-2021,0
233,Adam,maulshtug,,Finally found the best tiktok !,27-2-2021,0
234,Jack Hanson,mk1.5_wheezy,,Why does she look like the girl from ROG Reboot🤨,27-2-2021,0
235,Landon,landong_ep3,,HELL YEAH MADISON,27-2-2021,0
236,user1425976182442,rakanaalshehri,,by far the best rog rig reboot video had maddison change my mind oh yeah you cant,27-2-2021,0
237,K,karlostensible,,ahh yes. big oooffffff long boi!,27-2-2021,0
238,Damnitdavid,damnittdavid,,SHES BACK,27-2-2021,0
239,ved,bruhmoment195,,now I'm panicking because I'm going to loose my job -carterpcs,27-2-2021,0
240,Bami🫣,reallybami,,Who’s watching the stream right now😏,27-2-2021,0
241,Jacob Rhea,overload_supreme,,Yessss,27-2-2021,0
242,Elijah,elijahhirle25,,YES I FOUND THIER TIK TOK,27-2-2021,0
243,Cosmus,cosmus13,,I watch you guys on YT,26-2-2021,0
244,Cooper C,cooper_c4,,#WeWantDenis,26-2-2021,0
245,zosh,wpb.josh,,Noooooo its the girl for my fav and funniest rog rig reboot,26-2-2021,0
246,Salvatorecorbelli01,salvatorecorbelli01,,Wasn’t she the one that did the rog rig reboot,26-2-2021,0
247,faye,fuckfaye,,MADISON WE LOVE YOU,26-2-2021,0
248,emily doom,mfdoom64,,Where you there for the twomad video,26-2-2021,0
249,Alan Khan,armadyl_of_gilenor,,Ahhh the one that roasted Linus,26-2-2021,0
250,Benny_Snowbolt,benny_snowbolt,,Linus tik tok,26-2-2021,0
251,A,stxha,,AYO LINUSTT?,26-2-2021,0
252,benji,_t3chnician_,,U WERE THE PNE FROM ROG RIG REBOOT WHO SAID LMAO INSTEAD OF L M A O,26-2-2021,0
253,Brandon,brandon_l_garcia,,When memes become reality.,26-2-2021,0
254,Austin,cptn_a,,Since when we’re they professional😂💀,25-2-2021,2
255,D Bourret,zoinksiesscoobs,,every aspect of this is very pleasing,25-2-2021,0
256,jojie,antariksawan,,WE MISS YOU MAD D!,25-2-2021,0
257,Santi,thesanti.exe,,Hm,24-2-2021,0
258,Loop,russiabeat,,I NOW HAVE THE POWER OF KNOWING BEHIND THE SCENES ON THIS VIDEO,24-2-2021,0
259,gabs,gabs.fair,,@leopardprintedblanket my fyp acting up,24-2-2021,1
260,Honey Badger Wizard,honeybadgerwizard,,MA'AM,24-2-2021,0
261,user7103126955582,gamermoment123456,,I guess it was only a matter of time before I found this page on my fyp,24-2-2021,0
262,Tik Toker,kevieee3,,She’s back lmao,24-2-2021,1
263,Chick3n,chick3naadobo,,WARNING ‼️JOIN THE HAMSTER CULT ‼️WE DONT MOCK GOD OR BURN BIBLES ⚠️JOIN THE HAMSTERS 🐹🐹🐹🐹lol,24-2-2021,0
264,EldrinOTB,eldrinotb,,LETS GOOO ITS 100% REAL SHES HERE,24-2-2021,0
265,Kornelius Psalm Mart,akahumblegod,,hey linus i hope u gave some computer parts to the poor gamer like me.. i am still using socket 775 😔,24-2-2021,0
266,george,sh_eluvgeo,,THEY HIRED YOU?!?!?,24-2-2021,0
267,mikey,mikeyburnsinhell,,HOW IS THE PFP TRANSPARENT WHAT,24-2-2021,0
268,🧛🏼‍♀️🧛🏼‍♀️🧛🏼‍♀️🧛🏼‍♀️,https.misterp.com,,OMG I FORGOt abt u,24-2-2021,0
269,Mochi,disintrxsting,,WAIT,24-2-2021,0
270,Cullen Aherin,thecullster,,Please never let him retire,24-2-2021,0
271,Drdredful,drdredful,,Bc gang,24-2-2021,0
272,gxbe,_._1g,,NO WAY IS THAT THE REAL GIRL WHO KEPT SAYING BIG OOF,24-2-2021,0
273,Him,lookathenny,,She was on the old video when she was in highschool. She grew up so fast😓,24-2-2021,0
274,Griffin Haffey,.haffey,,Omg you were from rog reboot,24-2-2021,0
275,Tony Shark,thatonetechykid,,it's linussss,23-2-2021,0
276,carmen winstead,samuelgagliardi_,,WAIT YOU GOT HIRED WHAT,23-2-2021,0
277,Colin Shelly,_colin_shelly_,,Yes of loved your rog rig rebuild,23-2-2021,0
278,jayyy-arr,jrpajela,,Did madison got hired to make videos on tiktok?,23-2-2021,0
279,jayyy-arr,jrpajela,,Madison should be making videos too(reviews - unboxing),23-2-2021,0
280,extrewe_,extrewe_,,that looks like he's making a video of how to generate unlimited vbucks,23-2-2021,1
281,you like jazz?,cards_against_humanity_,,YEEEEESSSSS FINALLYYYYYYYYYYYYYYY THIS COMPANY HAS JUST GOTTEN 99999999% BETTER!!!!!,23-2-2021,0
282,Perdal,perdal.123,,Its u that big oof in a rog rig rebot or nah,23-2-2021,0
283,Pavel,pavel_gtav,,That's how these scams work mhmm,23-2-2021,0
284,Amiwv,amiwv,,"Oh this is the kid who watches Linus in school. “Look teacher, I made it!”",23-2-2021,1
285,Kristofer,kistofe,,That’s a big oof right there 😅,23-2-2021,0
286,Tik Toker,millierocknyc,,Bro that is so fricken epic,23-2-2021,0
287,Xenoissopro,srnaobob,,ARE U ACTUALLY OMG DREAM COME TRUEEE,23-2-2021,0
288,MarcelTheChamp,marcelthechamp,,YOOOOOOOOOOOO GOOD JOB,23-2-2021,0
289,N1Tr0_YT,n1tr0_rl,,🐹WARNING‼️JOIN THE HAMSTER CULT ‼️WE DONT MOCK GOD OR BURN BIBLES ⚠️JOIN THE HAMSTERS 🐹🐹🐹🐹,23-2-2021,0
290,user6392625669028,69youfatneek69,,LINUS SEGGS,23-2-2021,0
291,abse,elliot..alderson,,When are you cleared to be on his YouTube videos again?,22-2-2021,0
292,Nino Vitaliano,ninov193,,Wait is she from the ROG rig reboot,22-2-2021,0
293,Hector James,specialjeff01,,wasn't jake like 17 when he got hired,22-2-2021,0
294,der_kaptain,der_kaptain,,Finally a cool person there!,22-2-2021,0
295,Hibty,hibtiy,,linus tech tips worker,22-2-2021,0
296,Łukasz Mandziuk,lolz_mandziuks,,yes,22-2-2021,0
297,forsquirel,forsquirel,,soup got a job?,22-2-2021,0
298,GeraltOfRivatuner,geraltofrivatuner,,I'm in love with you Mads,21-2-2021,0
299,ben foulkes,benfoulkes1,,Omg she is amazing,21-2-2021,0
300,Luqc,.luqc0,,JOIN THE HAMSTER CULT 🐹 ‼️‼️WE LOVE GOD AND JESUS WE DONT BURN BIBLES OR MOCK PEOPLE✝️✝️✝️✝️SPREAD THE WORD‼️✝️,21-2-2021,0
301,Kim,chaicheechamber,,lesgooo,21-2-2021,0
302,EmpireX,rafly_aw,,Big Oof 😅,21-2-2021,0
303,thegreenfox,idotamno,,Hamsters RISE WARNING‼️JOIN THE HAMSTER CULT ‼️WE DONT MOCK GOD OR BURN BIBLES ⚠️JOIN THE HAMSTERS WE LOVE GOD AND EVERYONE 🐹🐹🐹,21-2-2021,0
304,Preso,presolol,,Ltt on tiktok nice,21-2-2021,0
305,yaboi,yaboiii180,,wooooo Madi,21-2-2021,0
306,Koma,komaleaf,,THEY HIRED YOU?!?!?,21-2-2021,0
307,Matt Mcmann,mattmcmann1,,Aren’t you the girl who won a PC build,21-2-2021,0
308,omar fayed,renzangelz,,Why am I so happy Maddison is part of LTT now?,20-2-2021,0
309,Andrew Johnson,andrewjohnson860,,yooooo it the girl,20-2-2021,0
310,BruhMaster,iiomqitsdaelistaii,,That one selfie of Linus.,20-2-2021,0
311,Óisin Rea,oisinrea,,@gidigidi12334 there’s the man the myth the legend,20-2-2021,0
312,ㅤ,apelegero21,,I thought Denis was about to pop up,20-2-2021,0
313,Gavin,xxpablo_escabarxx,,How’s the ROG pc goin,20-2-2021,0
314,Dan Anderson,dangerino,,Still the best rig reboot,20-2-2021,0
315,ευλογημένοc,giannhs_louhs,,Linus s3x tips,20-2-2021,0
316,Big Dog Big Bear,timmmusa,,oh no she's back,20-2-2021,0
317,Whattherel,imwhattherel,,Linus is about to drop her faster than a gpu,20-2-2021,0
318,⠀ ⠀ ⠀ ⠀ ⠀ ⠀,713.ivan,,Hi Madison,20-2-2021,0
319,Krestein 🏳️‍🌈,krestein,,How’s the pc he built for you?,20-2-2021,0
320,thimss,lay..thimsz,,MADISON GOT HIRED,20-2-2021,0
321,Jackson.langone,jackson.langone,,YES I MADE IT TO LTTTOK,20-2-2021,0
322,Jackson Palgan,palgan_j,,Live laugh Liao,20-2-2021,0
323,Kayan,user8182737891,,JOIN THE CULT OF JIMMY W💫💫🥶🥶🥶🥶✝️✝️OR GET COOKED IN SOUP🥶👿✝️✝️🥶👿SING THE NATIONAL ANTHEM🛐🛐✝️🥶🥶,20-2-2021,0
324,Adelino Ferreira,fearmesuckers,,linustonk to the moon 👐💎👐,20-2-2021,0
325,Heas,heasheartfire,,You are a legend,20-2-2021,0
326,lol,nickiminajredtampon,,CPS is typing...,20-2-2021,0
327,blacktoz,blacktoz3,,hummm isn't that zoomer girl from the rog build ?!,20-2-2021,0
328,ａｙｄａｎ　ｋｈｏｎｇ,inaes.thetic,,HOLD UP,19-2-2021,0
329,Daisy,dazeydaisy,,Linus always rubbed me the wrong way. Idk i just get weird vibes off him. 😬,19-2-2021,0
330,antisocialsocialteen,antisocialsocialteen,,✝️🙏🏼ITS NOT TO LATE❤️TURN TO LANAISM🙏🏼🧎 SHES OUR ONE AND TRUE SAVIOR!!❤️🙏🏼✝️WE MUST COME TOGETHER. LETS BE MUTALS,19-2-2021,0
331,TheNexan,thenexan,,this is actually the boss music linus hears when they coexist at work now,19-2-2021,0
332,Vanja,vnja_zenu.tags,,lol theyre on tiktok now. i love them 😂,19-2-2021,0
333,Beesechurger Minecraft,beesechurger_73,,But does he eat Beesechurgers? 😏,19-2-2021,0
334,naod,absolute.psyko,,I always liked you 👌,19-2-2021,0
335,Blue,blue_18_,,YASSSSSS!!!!!,19-2-2021,0
336,TSF_Flex,tsf_flex,,wait aren't you the one that always said stuff like lmao?,19-2-2021,0
337,Frank,luckifranki,,wait is this actually The Madison???? from the rog reboot?? I knew Linus needed a rep that could connect with the kids,19-2-2021,0
338,Brand,professorbrand,,Is this the girl from previous year’s ROG giveaway ?,19-2-2021,0
339,ab,bbbler_,,Followed for maddison... No other reason *socks n sandals*,19-2-2021,0
340,Tom G,drunk_dogo,,Bruh! the colab that created the best ever build vid is back! XD,19-2-2021,0
341,Kron,kron.o8,,Madison from Asus rog reboot? WAIT WHAATT,19-2-2021,0
342,Jayson Angel,soupstare,,So she ended up working with linus!?!,19-2-2021,0
343,𝚈𝚘𝚞𝚛 𝚋𝚘𝚒,s6out_x,,u deserve it,19-2-2021,0
344,mango man,mango_man003,,Wait omg i forgot he hired u! congrats!,19-2-2021,0
345,White Nova,whiteinnova,,Wow idk that llt has a tiktok lmao,19-2-2021,0
346,magick930,itismagick,,oh my god M-Dog... big oof... how die that happen?,19-2-2021,0
347,Joshua H.,savigny030,,finally!!!! i was commenting when your video came at that he should hire u 😂,19-2-2021,0
348,Rishi Chana,deffonotrishi,,SHE MADE IT,19-2-2021,0
349,.,.kenny.sp,,WAIT ARE YOU THE KID FROM RIG REBOOT 2019,19-2-2021,0
350,sup,joe_mama_a_fat_jew,,mr linus please may I get free pc thank you,19-2-2021,0
351,Daniel Balent,danielbalent,,She returns!!!,19-2-2021,0
352,Queue with russians = abandon,marolile79,,Lemäo,19-2-2021,0
353,HughMungus,itshughmungus101,,I am here for all of this 😂,19-2-2021,0
354,Paul,paul_ile,,It’s mdogg,19-2-2021,0
355,Nxxvy,itsnxxvy,,Wait thats the girl from ROG Rig reboot right???,19-2-2021,0
356,Rexx,rexx39,,whats the point in this video? i dont get it,19-2-2021,0
357,Snxke,asnxkeinmyboot,,I was literally just watching Linus react to xQc's PC and find this video as I open TikTok 😂,19-2-2021,0
358,Fricis,xrkirs,,am I the only one that doesn't understand a single thing about this video?,19-2-2021,0
359,Glitchy.AF,glitchy.af_,,Big Oof,19-2-2021,0
360,Mugunthu,mugu0007,,"hey Madison, start a war with DBrand.",19-2-2021,0
361,bro,the_wong_boi,,linus tech tips can u say hi to him from me!😁👋,19-2-2021,0
362,atlas98,atlas98,,Wait aren’t you that girl who won the pc build a while ago?,19-2-2021,0
363,😫,_anonebs_,,JOIN THE CULT OF LANA DEL REY😩😩💖💖💖🛐🛐 OR GET COOKED IN SOUP💖💖🛐🛐🛐😩😩SING THE NATIONAL ANTHEM🛐🛐🛐😩💖💖,19-2-2021,0
364,deles,dlslvlly_,,LMAOOO,2-3-2021,0
365,Cody Stoner,codystoner1,,aren’t you the bird girl,16-3-2021,0
366,Apple User52337658,scvrixrd,,give me a job😔,15-3-2021,0
367,ᴄᴇᴏ ᴏꜰ ᴛʀᴀꜱʜ ᴛɪᴋᴛᴏᴋꜱ,mixeri,,WARNING‼️JOIN THE NINJAGO CULT ‼️WE DONT MOCK GOD OR BURN BIBLES ⚠️JOIN THE NINJAGO,8-3-2021,0
368,ETSI BD,etsibd,,see username,6-3-2021,0
369,nico,_trashstarr,,i cant believe they hired you,6-3-2021,0
370,Bob,dad.bod.bob,,Be careful for he’s going to drop you,5-3-2021,0
371,LOLFUTURE,lolfuture69,,No way ur the girl from rog rig reboot,3-3-2021,0
372,Ceis,ceiriandaf,,hire me pls,3-3-2021,0
373,Nolan Roshan,nolanroshan,,Can we get a longboi in the chat,26-2-2021,1
374,will,willyuumm,,Your basically spiderman,25-2-2021,0
375,48 year man from somalia,bernzyy,,u da longboi girl?,21-2-2021,0
376,:),whoisheeley,,So he hired YOU? 🤔,20-2-2021,0
377,yro’ue*,.blacklists,,hey lol,20-2-2021,0
378,necromancer,necromancer636,,big oof,20-2-2021,0
379,Oleg Nikolajenko,olegnikolajenko,,Linus didn’t drop anything? That’s weird.,19-2-2021,0
380,Sneek_out _,sneek_out_,,You look like that girl who got a pc and built it with Linus. It had that infinity mirror effect on the front,19-2-2021,0
381,Iliketobike,platipiepopulation,,Aren’t u the girl from that rog reboot,19-2-2021,0
382,leo🅿️,mustamakkaramies,,MADISON OMFG,8-3-2021,1
383,Lariboiga,larihuikari,,ROG REBOOT U GOT THE JOB,6-3-2021,1
384,Clifford Kirito,cliffordkirito,,You should have seggs with him,14-3-2021,1
385,Jaden,jadenslefttoe,,WARNING!!JOIN THE HAMSTER CULT !!WE DONT DO ANYTHING BAD😲,23-2-2021,1
386,suit tie man,techloman,,My friend is building a gaming PC if you wanna help him out here you go: https://gofund.me/bca27d73,8-8-2021,0
387,Szymon Kurczab,szymon_kurczab,,Maddie turning party on LTT socials.😂,9-3-2021,0
388,demonikid Big D.,demonikidbigd,,Ayooo fav girl is on!!!,3-3-2021,0
389,Crys Hunt,cryshunt,,Dude LTT has a tik tok??? So fricken happy 😂,3-3-2021,0
390,Bob,noaj46,,Lmaoooo,27-2-2021,0
391,legendarygaming,.000000000000009,,so without searching finally linus shows himself on tiktok for me nice,19-2-2021,0
392,christopher-leidinge,christopherl07,,Big ouf,19-2-2021,0
393,Chris,shecallchris,,"Hey you guys mind checking my account out would grately appreciate that , if not it’s okay may god bless you🙏🏻",27-3-2021,0
394,Nejc Debeljak,superbangbus,,Linus sex tips,18-3-2021,0
395,Tomek,tom_p513,,Linus sex tips,17-3-2021,1
396,Rewind Official,the_rewind_official,,"i don’t know how, but somehow i now have ltt on my fyp. i’m not complaining but they follow me everywhere",17-3-2021,0
397,Papi smoke,da_real_bigsmoke,,Linus sex tips,17-3-2021,0
398,Simp,obese_banana699,,Linus sex tips 😫😫,14-3-2021,0
399,miguel balderas,killmiguell,,Linus Sex Tips,13-3-2021,0
400,Tik Toker,charlotte123213,,"WHY DID I LIKE MY OWN COMMENT
ا ?!AGO",8-3-2021,0
401,Logan west,logan.westreal,,#freegypsycrusder,4-3-2021,0
402,71.6125,71.6125,,lttstore.com,3-3-2021,0
403,clwz3y,clwz3y,,ayo it’s the chick from the ROG build off,2-3-2021,0
404,Levi,levgamer2011,,lttstore.com,27-2-2021,0
405,❤️,fullchub28,,Linus sex tips,26-2-2021,0
406,Joe,pooppoop2076,,linus sex tips,25-2-2021,0
407,Bahahaha,sadboihours1159,,You know Monica fucker her boss right? I’m telling Yvonne!,24-2-2021,0
408,dance2,blaakaefards,,linus sex tips? sussy,23-2-2021,1
409,Thats a funny little character,00fbi00,,Very pog,23-2-2021,1
410,Papi chulo,xanacks,,Linus Sex Tips,21-2-2021,0
411,2calico,sgtcakes,,Linus sex tips pls,21-2-2021,0
412,Chris,christopher_blenkers,,LTTSTORE.COM,21-2-2021,0
413,Rammen noodles,largeintestence,,Linus sex tips 😳,19-2-2021,0
414,memecio,memecio.69,,she bacc😳,19-2-2021,0
415,Chren Sopheak,chrensopheak,,"But honestly, I really don’t like videos that feature that b** on the back",3-5-2021,0
416,?,davidddd_19,,@asus.usa did you take notes from her? 🌌LoNG BoY🌌,19-2-2021,0
417,♕︎,0restiss,,@asus.usa if you are seeing this your coolers must be called ROG Long Boi😂😂😂,19-2-2021,0
418,春輝,futaba_haruki,,If you be just annoying enough to Linus you might get hired.,26-4-2021,0
419,Benjamin Partida,bpart2,,Stop pls,13-3-2021,0
420,unimations,unknowned_animate,,wtf,3-3-2021,0
421,Nino🛐,nino._pisame._la._cara,,Weyyyyyy no mames la del rog rig reboot,20-2-2021,0
422,AmericanMajorMovers,americanmajormovers,,Wheres your blue check bro!!!!! I’m pissed🤬,15-3-2021,0
423,Andrew @🏡 | 🇺🇦 | #stayhome,andrewszombie,,I cant bloody escape you guys 🥺🥺😂,7-3-2021,0
424,A,hahahahaha_l,,HOLY CRAP LINUS TECH TIPS. nicceeee,3-3-2021,0
425,Nedas Pocius,nedaspocius77,,ay madison be sure not to piss of linus like in that ROG reboot ok???:DD,27-2-2021,0
426,J,tschumitjuu,,And she's using her LTT water bottle! What a Segway to lttstore.com!,20-2-2021,0
427,Lilshae,lil_shaek,,oh shit i remember when she that give away build video thing that’s like my fav video,16-3-2021,0
428,almost funny,chrupkicebulowe,,please hire a pole like me : (,6-3-2021,0
429,Come Lord,theolikesbois101,,@vladscock here is daddy,8-3-2021,0
430,bigshrimpin762,bigshrimpin762,,look it’s the weirdchamp guy,6-3-2021,0
431,Fin,fadedsflamingo,,linus sex tips,4-3-2021,0
432,FSC,walesmoron,,Didn’t know this existed forgot about they had a social media manager job lol 🤦‍♂️🤦‍♂️🤦‍♂️🤦‍♂️🤦‍♂️🤦‍♂️😢😢😢😢,2-3-2021,0
433,butterdog,userlj5tadqrww,,Omg it’s LinusTits,23-2-2021,0
434,Lilith Hawthorne,lilith.hawthorne,,Oh noooo you're THAT girl aren't you? 😂,21-2-2021,0
435,HLV,thehlvshow,,OH SHIT THEY HIRED MADISON????,13-5-2021,0
436,el,elvetry,,is linus sex tips a thing?,17-4-2021,0
437,Krisskoda,krisskoda1,,"Where is the punch line, typically when someone says ‘when’ at the start they then proceed to show something funny and ratae",18-3-2021,0
438,Big Ern,ernymkraken0,,meanwhile the youtube giggling his ass off for the cheap ass labor 😂😂,16-3-2021,0
439,Ivancha4,ivancha4,,We’re you in dawid does tech?,16-3-2021,0
440,cesar_just_that,cesar_just_that,,"Wait wtf that’s why she looked so familiar, congrats on getting hired",16-3-2021,0
441,Bean nation,a8_l4,,human flesh,15-3-2021,0
442,Kadin,farmerxjohn,,Isn’t she the one that got a bird monogramed on a piece of glass,14-3-2021,0
443,nick_calvano,ncalvano,,LETS GOOO GOT MY PERMISSION SLIP 🌠SIGNED🌠,14-3-2021,0
444,Laxis,laxis144,,isn't this the orphan chick?,14-3-2021,0
445,James Aragon,805_speedster,,I wanna work for you guys sooo badddd 😭,13-3-2021,0
446,Kevin G,mister_bamboozle,,They hired her because a bunch of simps 💀,13-3-2021,0
447,Elijah,echotangocharlie,,Linus is a child hiring children fym😂🤣,13-3-2021,0
448,Dominic_C,dominic_c3,,She memes her way into employments,13-3-2021,1
449,Tikkes,tikkes2,,Are you going to give Linus a bj? Is that why you chose the Monika Lewinsky sound?,11-3-2021,0
450,Victor Minasian,victor_the_orpington,,"can't believe I discovered the linus tech tik tok, yes",10-3-2021,0
451,xbox360,xbox360ogs,,ayo I wanna get hired I know how to build pcs too,10-3-2021,0
452,Foxy the betta,foxy.the.betta,,notice me or NO MORE 19 DOLLAR FORTNITE GIFT CARD,10-3-2021,0
453,sokrates ︎ ︎ ︎,sewb,,please xqc needs ur help just break into his house.,10-3-2021,0
454,William Cornaby,elninja068,,INTEL RAID SHADOW LEGENDS SHILL LOLOLOLOLOLOK,9-3-2021,0
455,radwan 1999,lil_forward,,wtf you work with them you win the pc at Contest ؟؟؟؟,6-3-2021,0
456,Kalen,kalenisacar,,Omg she got a fucking job there 😂😂😂 Linus what has happened 😳,6-3-2021,0
457,Simos Katsiaris,cms_cy,,Finally they joined this shit show 😂,6-3-2021,0
458,Steven,jimdripples,,Wait Linus bout to Monica Lewinski chick 🐥,6-3-2021,0
459,Kristian Kvist Grevy,kristiankvistgrev,,I LITERALLY JUST WATCHED YHE RIG REBOOT AND GOOGLED TO SEE IF YOU WERE HIRED,5-3-2021,0
460,can't aim for shit,banditisbetterthanela,,linus sex tips?,5-3-2021,0
461,m,malachijbuchanan,,linus really getting a lookalike from rog rig,4-3-2021,0
462,USDD OHIO,usdd.gov,,"Tell linus, can I get an owa owa",4-3-2021,0
463,Coy Reed,coyreed,,Are we talking about Linus cause I think he’s the biggest kid of the bunch,4-3-2021,0
464,Brandon Makiyama,wrongholes1r,,YO JUST BC OF U I BOUGHT A ROG LONGBOI,3-3-2021,0
465,bro stop,hobo.aids,,wtf 😂 yo I know that guy,3-3-2021,0
466,tubes,joshuatubes,,NO FUCKING WAY,3-3-2021,0
467,YoursTrulyInVR,thatkidinvr,,you know what? Big Ouf,2-3-2021,0
468,Finn,parchedpotato,,I literally just watched the video of the pc being built for her. The fbi are watching 😳,2-3-2021,0
469,iraq man,iraqman84,,that candian guy,1-3-2021,0
470,Matthew Parry,parrygk5,,This is the only reason I dropped a follow. I expect savagery,27-2-2021,0
471,Tik Toker,cliticles,,Linus a baddie,27-2-2021,0
472,Willie Steyn,willie_stoutgat_steyn,,wtf u finaly did it? now i can starting ltt again!,27-2-2021,0
473,Padmeishot,somethingsintheway_hmm,,build me a pc i can accept a 1050 ti,27-2-2021,0
474,user3619516162139,justanotherbeard,,"I'm so happy for you, so many people wanted you hired for so long. keep slaying",26-2-2021,0
475,vanilla.com,mikee.nunezz,,LONGBOI SHE GOT THE JOB,24-2-2021,1
476,Jacob,stormtrooper.exe,,"@evieevans.exe LINUS HAS A TIKTOK. LINUS HAS A FUCKIN TIKTOK. LINUS, EVIE. LINUS. HAS. A. TIKTOK.",23-2-2021,1
477,xjamesrobert,xjamesrobert,,'ugj sorry guys I can't come to lunch' USE HONEY NEXT TIME,23-2-2021,0
478,Coco jesus,alex_tormenta,,I have that same fucking face mask. Yo das sick,23-2-2021,0
479,Kamil_SONE,kamil_sone,,This is on my fyp. Instant follow,23-2-2021,0
480,eeggttaassttiicc,egggtastic,,"weren't you on the one pc building videos where he builds pcs with random people, I forgot what the series was called",21-2-2021,0
481,Sid Ferreira,sidferreiraz,,"Is this a reply to his comment on the ""average computer"" video?",21-2-2021,0
482,Chris,chris2359,,I hope he takes care of his employees and pays well with shit load of money he makes!,20-2-2021,0
483,Ahlgren var namnet,1.ahlgrensbilar,,You look like the girl who was in a ROG RIG REBOOT video and annoyed the shit out of linus or are you that girl ?,20-2-2021,0
484,user118656,jake.buday,,I promise I’ll shut up when u show me Anthony,20-2-2021,0
485,Jonathan Lopez,king__kaz,,how tf did u make u ur logo transparent,19-2-2021,0
486,…,.finlay.jj,,Golden goal in icon swaps 2 spread the word..,19-2-2021,0
487,k,affenomaly,,they fucking hired you?!?!,19-2-2021,0
488,Aleks,melkaobv,,Wait is this the chick from that competition PC build video????,19-2-2021,0
489,Marty Mccarthy,mac_redbaron,,"Urgh, Linus is such a tool.",19-2-2021,0
490,Dominik.,domink.emanuel,,😂😂😂🥰,22-2-2021,0
491,⠀ ⠀ ⠀ ⠀ ⠀ ⠀,timelost.stepsis,,Linus secga tips,17-2-2021,1
492,Juicy,fw.juicy,,give me a 3090,17-2-2021,1
493,soph,boblvr,,MKDJDJFD,17-2-2021,1
494,leou.4747,riplro,,YESSSS,17-2-2021,1
495,tariq_bojic,testserveralpha,,What is your job?,17-2-2021,1
496,Howard Donaldson,howard_donaldson,,linus is a child he has a childs voice too,17-2-2021,1
497,Figglebottom Male,peedpants69,,I will never stop calling him Linus sex tips,17-2-2021,1
498,Ethan,ethansworld.com,,Maybe not Monica Lewinsky...,17-2-2021,1
499,beatsbydre,beats.bydre,,linus sex tips 😳,17-2-2021,1
500,yoseph bustami,..yoseph,,legend,17-2-2021,1
501,✨️💖Incel_annihilator💖✨️,incel_annihilator_,,Omg I loved her video glad to see they got her on the team!😁,17-2-2021,1
502,Nelson Pena,nelsonpena87,,DID MADISSON MAKE A TIK TOK ACCOUNT JUST TO MAKE FUN OF LINUS,17-2-2021,1
503,Madeline,pspizza,,Oof,17-2-2021,1
504,BIBLE SELLER AND CC SELLER,moneylong_methods,,yahhh I found linus in tiktok 😁😁😁😁😁😁😁,17-2-2021,1
505,Laurie Williams,lauriewilliams57,,Wait wasn’t she that girl that won a computer???,17-2-2021,1
506,(#^.^#),o_o339,,More. More.,17-2-2021,1
507,oskar,o.kuuskm,,yes i need more linus on my fyp,17-2-2021,1
508,a,lengportokalli,,HOW DOES TIK TOK KNOW I WATCH LTT,17-2-2021,1
509,mdowe19,mdowe19,,Holy shit he actually hired you even after the torture you put him through. Wow. Pls continue it was funny,17-2-2021,1
510,Idk,randomname3820,,Linus tech tips seen y’all on yt,17-2-2021,1
511,Aribo,aribo.official,,MADISON 😍,17-2-2021,1
512,Carlos,blankhuzen,,Still mad at you for saying minecraft is trash,17-2-2021,1
513,Gamer person,gamer_person69420,,Leaks 😳,17-2-2021,1
514,ChiefHandker,chiefhandker_,,ugh she's here,17-2-2021,1
515,Sam Carsner,bigmansexy,,@😏@Oliverportman,17-2-2021,1
516,NotGeoButGio,notgeobutgio,,YOU ARE PART OF THE TEAAAMM,17-2-2021,1
517,Unknown,nightnoodle,,You look luke the girl that was on rog rig reboot and wanted to use the pc for blende,17-2-2021,1
518,André,uhndre_,,Maddie got hired? 🥰,17-2-2021,1
519,Wes_Pointer,wes_pointer,,Big ouef,17-2-2021,1
520,.,flakkoant._,,Linus sex tips 😳,17-2-2021,1
521,Jacob,ja_co_b,,@2018enclave,17-2-2021,1
522,Dr. Dank,dr.dankerine,,I don’t like what that last part is implying 😳,17-2-2021,1
523,Bruh,literal_bruh_moment101,,Linus sex tips,17-2-2021,1
524,124987,user52849263941848,,no way he hired you no fricking way,17-2-2021,1
525,xd,firstskywalker,,Linus Tech Tok,17-2-2021,1
526,claire,ecllairrs,,The fact that you got hired makes me so fucjing happy you have no idea,17-2-2021,1
527,😇🙏👌👌👌👌,russ1an_catvr,,What was the sponsor of that video,17-2-2021,1
528,👀,imlostlikecheese,,Roast me 😁,17-2-2021,1
529,Diego,diego_0756,,I think u should get verified,17-2-2021,1
530,James,fsasnapjames,,wait isn't this the person that was in the stressful rog build?,17-2-2021,1
531,Seldoon Nemar,seldoon_nemar,,"Also, has he started wearing the beanie because he's going grey? He doesn't need to be so worried! The grey give him a tech wizard vibe 🧙‍♂️",17-2-2021,1
532,Marshall JMP 2203,marshalljmp2203,,Wait wtf u work for Linus now?,17-2-2021,1
533,Nolan,chunkerdunkers,,Yooo hi Linus,17-2-2021,1
534,Seldoon Nemar,seldoon_nemar,,LTT IS LINUS TIKTOK. the zoomer has spoken,17-2-2021,1
535,Phillip,phillip_123456789,,I’m a dinosaur,17-2-2021,1
536,Jeremy.14,jeremy.saver,,Yoooo techrax,17-2-2021,1
537,🌍☄,itzzalimm,,followed you before you uploaded,17-2-2021,1
538,Mauritz Beck,mauritzbe,,Hiring her was probably the greatest thing happening to ltt in some time 🥰,17-2-2021,1
539,☭ Barbz for Eisenhower,33rdpotus,,@prysimz,17-2-2021,1
540,Miles,stock.330i,,we need a review of the ROG Longboi stat,17-2-2021,1
541,Vriska Simp Until I Die,trans_v4mp,,GOD TIER,17-2-2021,1
542,CodyTheCode,codethecode,,Is this the official tiktok profile of LinusDropTips😁,17-2-2021,1
543,Curious Dylan,lazytechnerd,,I want to be a tech channel what was the age restriction for YouTube again,17-2-2021,1
544,moe,thatweirdomoe,,nah it brokey-twomad,17-2-2021,1
545,I’m a tarkov gpu,tarkovgpu,,Wanna play blender together,17-2-2021,1
546,Aidan,aking715,,Holy shit they finally hired you,17-2-2021,1
547,Shane,shanebatess,,wait girl from rog rig reboot?,17-2-2021,1
548,R4_n,r41_n,,oh no XD,17-2-2021,1
549,SnasketBrunsviger,snasketbrunsviger,,Yo madison steal one of linus’s sandals,17-2-2021,1
550,Krushna,krushna_shah,,THEY HIRED MADISON LETS GOOOO🎉🎉🎉,17-2-2021,1
551,Immortal,immortal_game_yt,,IS THAT THE ZOOMER. LETS GOOOOOO. also finally found Linus on TikTok. Time to follow,17-2-2021,1
552,LinusC,linus.dc,,Why is every body saying my name and then tok. Am I famous now?,17-2-2021,1
553,@linus,linuslatte,,Y,17-2-2021,1
554,BJ G,clone_commando,,Apple slander,17-2-2021,1
555,user116107,gavin24768,,Teach her to keep her mask on then,17-2-2021,1
556,The Pie Stealer,thepiestealer,,now thats one big oof if iv ever seen one,17-2-2021,1
557,Ivan,an.obscure.reference,,I want to see the child,17-2-2021,1
558,Gus dude Gaming,insert_respectable_name,,LTTstore.com,17-2-2021,1
559,Jan Heberle,janhbrl,,"Omg yes, finally, I was wondering how long it took to get her to work there, big ouff",17-2-2021,1
560,︎ ︎ ︎ ︎,buflod,,"Welcome Linus, glad too have you here!",17-2-2021,1
561,Niko,nikodiam,,they actually hired her 😂,17-2-2021,1
562,Kamito,kamito3132,,its Linus 😁,17-2-2021,1
563,karlomango,karlomango1,,holy crap he actually hired you lol nice,17-2-2021,1
564,Vin egar,jdrains2006,,Oh no she’s back,17-2-2021,1
565,scary _ face _001,id.gaf1,,finally fing their tiktok,17-2-2021,1
566,Ghost Soda,ghostsoda6,,I feel like I’m the only person who don’t know any of these people,17-2-2021,1
567,hithere,hithere2132,,she is from tech reboot 2019,17-2-2021,1
568,asf tech,asftech,,Great video Linus,17-2-2021,1
569,𝕳𝖊𝖓𝖉𝖗𝖎𝖐,linksversifft,,@gokiphil bro einfach Linus tech tips lol,17-2-2021,1
570,Taken,taken_val,,Aren’t you the oof girl that got a pc from him,17-2-2021,1
571,Wyatt Steck,steamedmilk,,wait wuuuuuuut!? he hired the girl from rog rig reboot?,17-2-2021,1
572,💊,imadeadmeme3,,Linus sex tips,17-2-2021,1
573,LEGO_BRICK,lego_br1ck7,,wait are you actually the girl from rog rig reboot pls confirm with a comment,17-2-2021,1
574,Em,express4896,,Love that in your first few days on the job you revive linustok,17-2-2021,1
575,PP MAN,seamenslave_,,ITS THE ROG LONG BOI GIRL,17-2-2021,1
576,Aw.2004,aw.041,,Don’t click the ❤️I’m trying to sleep 😳,17-2-2021,1
577,Zay,pointzay,,S,17-2-2021,1
578,SZEL,weird2stoned,,she the long boi girl😂,17-2-2021,1
579,SZEL,weird2stoned,,ohhh she's hired now😂,17-2-2021,1
580,user1748190738879,_maybedaveyy_,,YOOOO IS THAT LINUS SEGS TIPS??????!!??!!,17-2-2021,1
581,Trevor Smith,trevor_600v_3ph_smith,,Nice,17-2-2021,1
582,caleb,why.caleb0,,why is linus on tik tok,17-2-2021,1
583,Daniel W,cksum,,"ooooh damnn, ltt ftw",17-2-2021,1
584,Cameron Hart750,parzivalplayz3,,you are the best addition to linus media group in a while,17-2-2021,1
585,iRauulGoomez,irauulgoomez,,Linus 🥰,17-2-2021,1
586,Neal,neal.chauhan,,Omggggggg,17-2-2021,1
587,Berdie,bertramsss,,Big oof,17-2-2021,1
588,Leighton13104,leighton13104,,Is that rog rig reboot girl????,17-2-2021,1
589,christian,christ6n,,i just can’t escape you,17-2-2021,1
590,Trash is Maestro H,iambenclad,,Do another twomad collab,17-2-2021,1
591,David Jeffers,focusforte,,MADISON!! YESs,17-2-2021,1
592,Its Chris,mymoves.r.nice,,Oh nooo,17-2-2021,1
593,Entertainment,el_mexican1,,MADDISON!!!!,17-2-2021,1
594,#1 Ace Fanboy,fwbeni,,ARE YOU THAT RIG REBOOT GIRL,17-2-2021,1
595,Adam?,ultramad_hoes,,"That’s actually smart, kids are always looking for jobs and they enjoy watching YouTube so they’ll know how the angle should look n stuff",17-2-2021,1
596,columclarke23,columclarke23,,Is that Linus SexTips 😳,17-2-2021,1
597,Shaboops,shaboops,,@linustech Madison ask Linus if we can get an owa owa,17-2-2021,1
598,60gb_hw_folder,andeth_thy_brothern,,Linus has started child labor? this is the start of something beautiful,17-2-2021,1
599,Imanol,imanolultimate,,LINUS SEX TIPS 🙏🏻🙏🏻🙏🏻💪🏻,17-2-2021,1
600,perunamuusisipulilla,perunamuusisipulilla,,I have been watching linus tech and now find their tiktok (:-:),17-2-2021,1
601,ㅤㅤㅤㅤㅤㅤㅤㅤㅤㅤㅤㅤㅤㅤㅤㅤㅤㅤㅤㅤㅤㅤㅤㅤㅤㅤㅤㅤㅤ,stjdarkness,,yo is that linus?,17-2-2021,1
602,Aidan French,monsieurfrench,,HAHA I SAW THIS ON THE COMMUNITY PAGE,17-2-2021,1
603,david : ),69.707,,biggest flex is i followed y’all before 5k 😌,17-2-2021,1
604,Basmati Boi,seankaila,,"Ayo, congrats to Madison 🥳",17-2-2021,1
605,SirWaji,sirwaji,,"Madison is at LTT? FINALLY!
Damn, that was the best video LTT ever released... aside the Linus roast maybe.",17-2-2021,1
606,Frost,sp4c3d0ut,,Finally on LTT tiktok,17-2-2021,1
607,Kiryu,mr.kiryukazuma,,Deez nuts,17-2-2021,1
608,williamg209,williamg209,,I don't get this one,17-2-2021,1
609,❤️‍🔥 eduardo ❤️‍🔥,eduardo.tpwk,,Lol at least his views and likes went 📈,17-2-2021,1
610,Keion,urahara_solos,,HEYYYY STOPPPP go to lttstore.com,17-2-2021,1
611,EatBulletz,eatbulletz01,,YOU ARE THE HIP TECHIE LTT NEEDED OMG SUGAJDBSI,17-2-2021,1
612,We love Donald Trump,votedonaldjtrump2024,,Big oof,17-2-2021,1
613,poatatoms,poatatoms,,first she was part of rog reboot now she's working for linus,17-2-2021,1
614,😁,_pechenia,,NO WAYYYYYY 😳😳😳😳,17-2-2021,1
615,Teq,teqqqaaa,,The slander incoming,17-2-2021,1
616,Armaanilyas,armaanilyas16,,it's M Dog,17-2-2021,1
617,Armaanilyas,armaanilyas16,,MADISON 😳😳,17-2-2021,1
618,Dean,deanwh,,Yoo M-Dog,17-2-2021,1
619,♡M♡,neverexistingdark,,LINUS SEGGCC TIPS 😩😩😩,17-2-2021,1
620,divya,planetpatel,,i love him so much,17-2-2021,1
621,Chris Cadet,that1blackid,,IM FINALLY ON LINUSTOK😭,17-2-2021,1
622,Dev,devdev0989,,God that was the best tech upgrade I might have to rewatch it now that you’re there,17-2-2021,1
623,Max,yourmomlmao69,,So that’s what it looks like behind the camera,17-2-2021,1
624,Logan Huwe,lgnhw,,madison i think you’re too younger to understand the implications of you saying monica lewinsky,17-2-2021,1
625,Scotty,scotty_b013,,Wanna hire another?,17-2-2021,1
626,Fadi Selim,fadiselim,,Omg finally! Madison is now part of the LTT family! We need videos with Linus and Madison 😂,17-2-2021,1
627,Cringe,waifu_hunter27,,Ayoooo it’s Madison from the rog rig reboot 2019,17-2-2021,1
628,TheFireMan,fireman.mp3,,WAIT YOU ACTUALLY GOT HIRED BY THEM THATS SICK?!?!?,17-2-2021,1
629,max,mr.ween,,I’ve been waiting since she was on rog rig reboot now she’s hired,17-2-2021,1
630,"Nami, Boa, Robin Simp!",animeweebsimpfornami,,"Ok, no way, now, make Supernova a sound on tik tok pls?",17-2-2021,1
631,:0 feddy on YTツ,feddy._.mhm,,I wish I could work for him😅,17-2-2021,1
632,john,nonjodoesthings,,LETS GOOO IM ON LINUSTOK,17-2-2021,1
633,King Nikos,king_nikos,,YEEEESSS BEST SOCIAL PERSON EVER,17-2-2021,1
634,redditalks,redditalks,,she actually got the job,17-2-2021,1
635,DOF Barbercue,dof.bbq,,M-DAWGG!!!,17-2-2021,1
636,tg @ObnallPushkinabot,obnalpushkinabot,,BRUH NO FUCKING WAY THATS WHO I THINK IT IS,17-2-2021,1
637,Zac,marthastewartsfanpagefan,,😳,17-2-2021,1
638,Chicken wing,the_royal_chicken_wing,,Linus Is a Cutie,17-2-2021,1
639,Sadge,theonlysadge,,linussextips😩,17-2-2021,1
640,Teej,cyverb,,"British Columbia kids be a different breed too, time to ✨spice✨ up the tech tip socials",17-2-2021,1
641,Josedaniel Amarillas,josedanielamarill,,Just walk into his office randomly recording,17-2-2021,1
642,Deepanshu Basra,deepanman,,Nice,17-2-2021,1
643,716 Motor Sports,716_motorsports,,Uggg she’s here,17-2-2021,1
644,user749262957,user749262957,,what have you popped up on tik tok on YouTube after I watched a YouTube video for school,17-2-2021,1
645,John Chiarenza,john_chiarenza17,,He’s a goat,17-2-2021,1
646,NiTa,nita604,,Wait wait waaaaaait a minute. Are you not the girl who won that Asus Pc build? And now you work there? Thats awesome. 👍👍👍,17-2-2021,1
647,tomynach0,tomynach0,,Techlinustips,17-2-2021,1
648,ThatMetalDad,that_metal_dad,,yay!!! new ltt tiktoks! keep them coming!,17-2-2021,1
649,Max Koesters,maxkoestaas,,No way 🤯 it’s the her 🤯,17-2-2021,1
650,JESUS CHRIST,the_real_jesus___,,When you have money but can’t get anything and some dude gets it for free,17-2-2021,1
651,Fod_Cod,fod_cod,,LINUS SEX TIPS,17-2-2021,1
652,Hamza,hammyboy69420,,Are you the girl he helped build an asus pc?,17-2-2021,1
653,Eren Joghurt,mamikin36,,LİNUSTECHHHHHHH,17-2-2021,1
654,yes no yes no,aeaaaaaaaaaaaaaa,,lmaooo she legit got hired,17-2-2021,1
655,Loop,hp_loop,,ohh no pls dont replace ZOE 😂😂😂😂😂,17-2-2021,1
656,,shyamizcool,,lttstore.com,17-2-2021,1
657,Checkers the Wolf,checkers_the_wolf,,Since when did you guys make a TikTok,17-2-2021,1
658,Goku uzumaki from one bleach,kumalala_savesta420,,manakaswoski,17-2-2021,1
659,Raven,amzraven,,it came full circle,17-2-2021,1
660,Ronan philbin,ronan.philbin,,you the one from rog reboot?,17-2-2021,1
661,👹,00assyrian,,"I LOVE HOW LTT FOUND ME ON HERE AND I DID NOT EVEN KNOW THEY HAD TIKTOK, THANK YOU ZOOMER LADY",17-2-2021,1
662,Adrian Villalba,adrianvillalba40,,can you say hi to the team for me?,17-2-2021,1
663,Tik Toker,userbwpc2ni261,,Linus,17-2-2021,1
664,James,james.1.1.2.9,,You still can’t spell professional,17-2-2021,1
665,dan,dan___b,,m-dog,17-2-2021,1
666,christian,chr1stn16,,WAIT SHE GOT HIRED??? :OOO,17-2-2021,1
667,maxi,maxtheooo,,LINUS TOK 📱🖥⌚️💻⌨️INTERACT TO STAY,17-2-2021,1
668,Your lost daddy,yourlostdad,,I mean she says child but isn’t she like 22 😂😂,17-2-2021,1
669,Noe Adrian Rivas,adrianthemex,,YESSSSSS I remembered when Linus said you guys wanted a tiktok,17-2-2021,1
670,Cupcat,41.cupcat,,Hahahahaga,17-2-2021,1
671,bob,just_bob_bob,,get ur ltt merch rn link in bio😳😂😂,17-2-2021,1
672,Joey Bowlin,pouch_child,,YESSSS,17-2-2021,1
673,🤵🏿‍♂️,nxtbann,,Have you ever had computer come in from sukon?,17-2-2021,1
674,Jake,osumilf,,First comment,17-2-2021,1
675,Adam Dimla,adamdimla,,WE FINALLY HAVE A TIKTOK OF THE MOST LEGENDARY DROP TEST CHANNEL IN HISTORY,17-2-2021,1
676,user6174472077654,.walkerfernandez,,Linus sex tips,17-2-2021,1
677,Anthony Gibson,bumpiestzebra,,Oh she’s here,17-2-2021,1
678,sam burrell,samburrell71,,THE PARODICAL CHILD RETURNS,17-2-2021,1
679,💀,tpdrl,,R u of rog rig reeboot?,17-2-2021,1
680,Leave,kaithemaker,,weren't you on the rog rig reboot,17-2-2021,1
681,ThEiNtErNeTiSdEaD,mozartw,,Madison you gotta make his life miserable with the tiktok 😂 the other tiktok where he was singing he was about to breakdown 💀😂,17-2-2021,1
682,Joey Tarlecky,joeytarlecky,,how do you even apply for a job there,17-2-2021,1
683,Luke,luke_campillo,,...,17-2-2021,1
684,case,nianexus,,is this the asus rog rebbot girl?,17-2-2021,1
685,JoelKar,joelkar,,It says monica lewinsky wow wow what,17-2-2021,1
686,mohammed 💣,moha.sm,,YOOO ITS YOU FROM ROG RIG REBOOT ‼️‼️,17-2-2021,1
687,venzzzyyy_boi,venzzzyy1,,when you realized linus has a tiktok account,17-2-2021,1
688,WGM,w_g_m,,LINUS SEX TIPS,17-2-2021,1
689,Milk,agnoxic,,U got HIRED OMGGG,17-2-2021,1
690,😻,owbut,,Tell Linus to make another Linux video 🔫,17-2-2021,1
691,exile :),exilerl,,Ayo the social media gonna pop now,17-2-2021,1
692,90210,cartis_socks,,#lienus,17-2-2021,1
693,Juliet,jjulietto,,YES THEY HIRED MADISON OMGGGGG,17-2-2021,1
694,landon /ᐠ. ᴗ.ᐟ\,acidbonk,,ITS YOU,17-2-2021,1
695,ahaha no,celestialresort.cafe,,@dellsyncalot i found his tiktok neat,17-2-2021,1
696,Brian Valay,bri.val0,,Give us more behind the scenes of the production studio! There’s so many people who don’t know just how much goes into these videos,17-2-2021,1
697,IceVale,icevale_,,What did your brother call you again bog dawg?,17-2-2021,1
698,Theo,the_odv,,Linus sex tips 😁 👍🏽,17-2-2021,1
699,🌃📹🛣,midtown_cmtzx_,,Oh no😂,17-2-2021,1
700,lawieeee,lawrenceyusi,,Madi!!,18-2-2021,1
701,poop,cumsockpants,,linus sex tips,18-2-2021,1
702,Ben David,bdasdff,,Waaaiiittttt is this the girl in the Rig Reboot,18-2-2021,1
703,shrio,shrio123,,luuucky,18-2-2021,1
704,😈,simonsviagrapills,,Wait it’s her honestly she needed to be hired 🤣,18-2-2021,1
705,Lee,lee_vfx,,T H E R E T U R N,18-2-2021,1
706,Milan Vernimmen,milan_vernimmen,,SHE IS HERE YES,18-2-2021,1
707,Pupper,pupper.ware,,im so excited i cant believe LTT has a tiktok,17-2-2021,1
708,Artist149,artistham,,Это комментарий для моих хамов🥰,18-2-2021,1
709,thisistechtoday,thisistechtoday,,I bet he loves the fact that this is the video that got over 1M first 😂😂😂😂,18-2-2021,1
710,No Worries,uarentspecialnthatsok,,YOOOO,18-2-2021,1
711,ToroMango,toromango,,didnt she build a pc with him as some random guest now shes hired?,18-2-2021,1
712,Jack Stanford,jackstanford8,,The zoomer found that password on the back of the fridge,18-2-2021,1
713,Dalton :),daltoncx,,pretty poggers 😳,17-2-2021,1
714,WEEB,futacheese,,What the fuck does this mean,18-2-2021,1
715,Luke first,lukeyfirstyyy,,WeirdChamp,17-2-2021,1
716,Alpay Hosgor,elpiclan20,,Holy shit that’s amazing,18-2-2021,1
717,jee geography,jeegeography,,"im happy i reached LinusTok, keep me here",18-2-2021,1
718,linus,linus.482,,why is everybody writing my name,18-2-2021,1
719,Icarus,icarus69,,I'm happy you're back.,18-2-2021,1
720,Cam,cam_bish,,THEY DID IT,18-2-2021,1
721,PPPPPPPPPP,mmmmmmmmmmp8,,How’s your pc I remember watching,18-2-2021,1
722,Cameron MacArthur,camthaman82,,Madison looks like the redhead from RIG Reboot 2018,18-2-2021,1
723,user2163652592684,gabs_613,,linus seggs tips😳,18-2-2021,1
724,Slowest 3.0 in the Midwest,clapped3.slow,,"YOOOO THEY ACTUALLY HIRED YOU, I NEED TO SHOW UP TO STREAMS MORE OFTEN",18-2-2021,1
725,Star Leigh,starasterism,,Oh my god rog rig reboot winner to social media employee.... nice,18-2-2021,1
726,Mahmod Alkhatib,mahmodalkhatib1,,Lmao,18-2-2021,1
727,itstylerhayash,itstylerhayash,,a child,17-2-2021,1
728,Kiwivampire23,kiwivampire22,,lol,18-2-2021,1
729,Linus,linusdabro,,can i change my name please🥺,18-2-2021,1
730,DeadMan.Immortal,deadman.immortal,,ayeee,18-2-2021,1
731,Dave,dave_hockey33,,The ROG rig reboot girl,18-2-2021,1
732,Blake Horton - KingCityDJ,kingcitydj,,it was bound to happen eventually I finally found Linus on tiktok,18-2-2021,1
733,Star Green,stargreeen,,THIS IS THE ONLY REASON IM FOLLOWING-,18-2-2021,1
734,Marlon Gratzl,just_marlon2020,,Linus and the girl from the rog boot camp,18-2-2021,1
735,Shazith,shazith2,,Linus sex tips,18-2-2021,1
736,shimadacode,shimada.the.spartan,,LTT= Linus Tik Toks,18-2-2021,1
737,🥵,bronah3169,,child labor pog,18-2-2021,1
738,Aivan,straightbounce,,Hahaaa,18-2-2021,1
739,⠀ ⠀ ⠀ ⠀ ⠀ ⠀,cum0690,,is this the firl that woj the pc last year?,18-2-2021,1
740,Hayden 1️⃣5️⃣🤍,itz_haydez,,@egg_6ried_rice why does she look like u,18-2-2021,1
741,squatmate,squatmate,,We all know that this guy is a nonce so I'm not surprised. 🤷🏻‍♂️,18-2-2021,1
742,Tfojastara320,tfojastara320,,Omg its you,18-2-2021,1
743,Matthew Umphlett,matthewumphlett,,Oh this is SUCH a good development,17-2-2021,1
744,.,dgobins_wz,,This video is Sponsored by GlassWire😂,18-2-2021,1
745,John Rose,jpr1996,,Best hiring decision ever,18-2-2021,1
746,ItsWoable,itswoable,,"Wait... WAIT! They actually hired her? Goddamn I gotta subscribe to ltt, I didn't even know! I watch that cursed rig reboot at least once a month.",18-2-2021,1
747,Nom nom,dinfar670,,YOU BACK!!!,18-2-2021,1
748,Brendan,bread.zip,,Are y’all hiring interns 🥺🤔,18-2-2021,1
749,jantheham,j4ntheham,,YOU GUYS HAVE TIKTOK,18-2-2021,1
750,josue🫠,rskylol,,linus seggs tips😏😏,18-2-2021,1
751,ren,dubut0fu,,"So you did get hired, damn",17-2-2021,1
752,deepslate redstone 🥶,deepslate_redstone,,࿖,18-2-2021,1
753,megamind,level1slapper,,"Madison, Did Linus Adopted you?",18-2-2021,1
754,Nick🖤,changingaesthetic,,FINALLY 🖤🖤,17-2-2021,1
755,𝒜𝓁𝒾𝒸𝑒 ʕ•́ᴥ•̀ʔっ,willowttm,,You’re cute please can I have you 🥺,18-2-2021,1
756,Huh,luis____._._,,WAIT IS THAT THE GIRL THAT WOM THE SETUP WITH LIKE A BEAST PC,18-2-2021,1
757,SON OF APOLLO,apollo271,,"finally, they have come to Tiktok",18-2-2021,1
758,GE4UX,ge4ux,,Hahah I stumbled into LinusTok,18-2-2021,1
759,Braditanium,braditanium,,so were just all gonna ignore the monica lewinski part? ok.,18-2-2021,1
760,I’m awesome,rarerightbro,,When you use your dad for clout,18-2-2021,1
761,carolina,carolinaa.vazquez,,Grubhub😋 perks🎫 gives🤩 you🤫 deals🤝 on🧐 the😚 food🥘 you😏love💚 the🤠 type🦗 of🪂 deals🤝 that🥵 make😇 u boogie🦕,18-2-2021,1
762,🫠,gangsterteruks,,Linus Sex Tips,18-2-2021,1
763,MotherParkour,mparkour,,I see linus I press + 🥰,18-2-2021,1
764,Alex,alegssheath,,"WAIT WAS SHE THR ONE IN THE ROG RIG REBOOT, and He said bruh in one of his recent videos probably bc of the rig reboot girlll",18-2-2021,1
765,aiden cruse,yungingoatmade,,wait is that the girl from rog reboot,18-2-2021,1
766,The Dankest,banckera,,Whag are you the girl from rog rig reboot,18-2-2021,1
767,Jose Luis Morales,jluismorales24,,Wait does this mean what I think it means?,18-2-2021,1
768,Ramen,ramenhiwo,,Linus tech tips is cool,18-2-2021,1
769,balls,lev__b,,LiNuS sEx TiPs😳😳,18-2-2021,1
770,Janjanjan,jajajajanpogi01,,BIG OOOFFFF,18-2-2021,1
771,Jackaroo,jj_bananapancakes,,HI MADISON,17-2-2021,1
772,Lucas,mayonnaiseandthedivine,,THEIR HERE,18-2-2021,1
773,Kodz,avgkodz,,holy shit I've been waiting years for this! good for you kid 🥰,18-2-2021,1
774,Cortex,newmachinima,,Linus is daddy,18-2-2021,1
775,meow,stronksssssss,,finally linus on my fyp,18-2-2021,1
776,AshwinLB,ashwin135i,,Oh shit they actually hired you!!,18-2-2021,1
777,Alex Calder,redlac297,,FUCK YEAH her rig was my favorite video,18-2-2021,1
778,JamLam,modbanana,,is it just me or is Madison insanely attractive,18-2-2021,1
779,NoobMaster69,channelsuperfun,,Hahaha. Hello there 😂,18-2-2021,1
780,?,samb.69420,,Monica Lewinsky might not have been the best thing to say 😳,18-2-2021,1
781,erikpittsburgh,erikpittsburgh,,This is the best thing ever. I just finished watching the video of the new Samsung monitor and this is the first thing I see on here lol,18-2-2021,1
782,.,pushingend,,Am I the only one confused???,18-2-2021,1
783,Yash,y4shp,,pog,17-2-2021,1
784,Sid Ferreira,sidferreiraz,,Trying to figure out what is said at the end... 😬,18-2-2021,1
785,Your Boy Logan,lwmulligan,,Whelp your doing a good job at your jo,18-2-2021,1
786,Jonathan T. Nielsen,jtn2002,,Madison! Yay!,18-2-2021,1
787,kaz,kazbutdifferent,,IT'S YOU 😳,18-2-2021,1
788,Alamid,alamid01,,linus tik tok,18-2-2021,1
789,gav herr,lmaogavsoldacct,,I was wondering if it was actually you lmfao,18-2-2021,1
790,The Manager,izziworld,,YO YOURE PART OF LTT??,18-2-2021,1
791,Ari,kfcsaucysauce,,AYOOO LINUS STILL HIRING OR NAH,18-2-2021,1
792,mrblijufy,mrbliyufy,,pog,18-2-2021,1
793,ALM IV,loumanziv,,Commenting to stay on linustechtok,18-2-2021,1
794,Natasha,tashacakes_x,,Wait my bf has been watching Linus. I feel like I somehow got the pass to Linustok.,18-2-2021,1
795,Kesha,undeadkesha,,❤️❤️❤️,17-2-2021,1
796,Koishi,koishi.desuu,,IVE FINALLY FOUND LTT,18-2-2021,1
797,max segers,maxwellsegers,,NO WAY ITS YOU I didn’t think you actually got hired lol,18-2-2021,1
798,SkullGaming,skullgaming207,,this makes me so happy that she works there,18-2-2021,1
799,Drawable,drawable_paper,,dont give a fuck,18-2-2021,1
800,Greysoda762211,greysoda762211,,I’m early,17-2-2021,1
801,xlindseyz,xlindseyz,,@samalander00,7-3-2021,1
802,8008135,rickyissofine,,linus i have something very important to say,17-2-2021,1
803,isaiah.mar,isaiah.mar3,,BIG OOF,17-2-2021,1
804,Woodee,woodeee13,,Linus sex tips,19-2-2021,1
805,tiktoker,ruhnej,,sex tips,19-2-2021,1
806,Zachary Aldenhoff,iluvkatss,,Holy fuck that’s awesome!,19-2-2021,1
807,Danny Lyons,dannydeleto9000,,A CHILD!,19-2-2021,1
808,Crzpy_,crzpy_,,Are you still hiring?,19-2-2021,1
809,kEnjoyer,sendslattvamp,,🗣️🗣️Ayo the monica lewinsky part makes us think he's doing some bill clinton type shit with the children 🗣️🗣️,19-2-2021,1
810,Conner LAXnPacks_Gaming Gilberts,connerlaxnpacks_g,,That’s awesome that your running the TikTok😂,19-2-2021,1
811,SD,0.likeaboss.0,,this makes me so happy 😂,19-2-2021,1
812,asmodai,asmodai40k,,big oof,19-2-2021,1
813,sveinbjörn,sveinbjorn,,"hey its the kid, Linus hated😂",19-2-2021,1
814,⠀,cermits,,😳,23-2-2021,1
815,Turkishboy_Shisha,turkishboy_shisha,,Immer lächeln und Winken Männer 🐧🙋🏻‍♂️,2-3-2021,1
816,NotEcho-,echo_decay,,Ayo Linus on tik tok,17-2-2021,1
817,isaywords,isaywrds,,tell Linus I love him,17-2-2021,1
818,WHO TF SHOT ME,bri_ishpeople,,@jtcjtc23,25-2-2021,1
819,mayorb_13,mayorb_13,,this rocks suop,17-2-2021,1
820,Sky,reachforthesky,,Linus do be smol tho 😳,19-2-2021,1
821,James,basssedd,,Linussextips 😎,4-3-2021,1
822,Dimitris Galanos,buttplug69.420,,"🏿🏿🏿🏿🏿🏿🏿🏿
🏿🏿🏽🏽🏽🏽🏿🏿
🏽🏽🏽🏽🏽🏽🏽🏽
🏽⬜⬛🏽🏽⬛⬜🏽
🏽🏽🏽🏿🏿🏽🏽🏽
🏽🏽🏿🏽🏽🏿🏽🏽
🏽🏽🏿🏿🏿🏿🏽🏽 ‍ ‍‍‍ ‍ ‍ ‍ ‍",23-2-2021,1
823,milkman43,millman43,,Pizza 🍕🍕🍕,17-2-2021,1
824,Nathan_weest,nathan_weest,,this isn't the linus tech tips account anymore. she owns it,17-2-2021,1
825,Curtis Cole,badmoonarisin,,I understand nothing,18-2-2021,1
826,kimi,www.kim.dk,,are you in Euphoria?,18-2-2021,1
827,Joshuwuwuah,nigoesbananas,,wheres jake,18-2-2021,1
828,Nathan Screwsalot,nathanscrewsalot,,when is my interview Linus...I can do it all😁,18-2-2021,1
829,Henry Ulberg,henryulberg,,Can we get a video with Dennis,17-2-2021,1
830,despell,despell,,Isnt that the one girl that got a new PC from him and made a deez nuts joke in the video?,18-2-2021,1
831,sir Cartier,yeezxs_,,Linus give us tech tip,18-2-2021,1
832,j,slothystudios,,LMAOAOA,18-2-2021,1
833,ØweenDST,oweendst,,oh this is about to get spicy,18-2-2021,1
834,👎,m4tty.fb,,I just remember u from one of the old rog reboots lmao,18-2-2021,1
835,Vale,420.v2,,linus😩😩😩😩,18-2-2021,1
836,fleef,fleef___,,My name is Linus 😁😁,18-2-2021,1
837,Ratfloatinginabucket,musty.rat.water,,he hired Maddy????,18-2-2021,1
838,mmmmmmmmmmmmm,snakerbakers,,Uggh she’s here,18-2-2021,1
839,Koko 🚁,kokonvm,,LINUS NOTUCE MEEEEEEEEREEEED,17-2-2021,1
840,ジャンカルロ,giancarko,,what happened to linus sex tips,18-2-2021,1
841,Ron,mk7jettaron,,THEY HIRED MADISON YES,18-2-2021,1
842,Grouphug,messin.stuff.up,,the power of the internet. soon she'll own ltt,18-2-2021,1
843,Andonny,quando_rondo0,,colab on pc again?,18-2-2021,1
844,Alistair Muckle,alistair_guitar,,I’m very Jelous of your job,18-2-2021,1
845,fkdhlnfz,fadhlanfaza,,WE NEED HER APPEARANCE IN A VIDEO,18-2-2021,1
846,Trial_Gamer45,trial_gamer45,,Wait is that who I think is??,18-2-2021,1
847,Alec,mrxlongshot,,any time I see Linus I cant not think of meatcanyon 😂😂,18-2-2021,1
848,Danny,pvnkgarbage,,dinkleburg,18-2-2021,1
849,Damn Minorities,damnminorities,,Why are y’all wearing masks. That’s why I stopped watching you,18-2-2021,1
850,Hamza aboulaban,hamza_aboulaban123,,Ur the girl from the rog video,18-2-2021,1
851,isaac,isaac_harrison171,,why is Linus on my fyp,19-2-2021,1
852,Truk,84pickup,,Dam I’m early,17-2-2021,1
853,Andrew404 Gaming,andrew.is.weird,,Wherent u in the 2018 ROG RIG Reeboot,19-2-2021,1
854,Fxrgus,fxrgusblxck,,Is that the girl from rog rig re boot in 2018,18-2-2021,1
855,Evan Friesen,evanfrozone,,you are so lucky,18-2-2021,1
856,LeioAleks,leioaleks,,Like the fact that he called you a child and you said you were 20,18-2-2021,1
857,Metal = Life,metalenjoyer6sa6tan6,,the video: how to generate free robux legit,18-2-2021,1
858,KODA>>,_kiltheroach,,YOU REALLY HIRED MADISON NO WAYYY,18-2-2021,1
859,avarice,avaricemusic,,OH MY GOD IT'S YOU AGAIN,18-2-2021,1
860,ryan ٩( ᐛ )و,rangostan,,WAIT THIS LOOK LIKE THE CHICK FROM THE RIG REBOOT 😭,17-2-2021,1
861,Boop,audiovideodiscoh,,YES FINALLY,18-2-2021,1
862,Luiz A Maschietto,luizmaschietto,,WHAT A WONDERFUL FEELING I AM HAPPY AGAIN,18-2-2021,1
863,AviAviAvian,aviaviavian,,"WHAT, THE CHILD RETURNS",18-2-2021,1
864,Jonathan Zimmermann,mrfunkyclouds,,can I work for Linus to please. I'm amazing,18-2-2021,1
865,クリス,localtakiseater,,Your still alive!!! YESSSSS,18-2-2021,1
866,Adam Ercy,adamercy4,,yay you got the job. good on you and linus,18-2-2021,1
867,Joe,jfaipmeoguas,,Oh look its the sexy wittle-,18-2-2021,1
868,Juicy,fw.juicy,,free gpu plz,18-2-2021,1
869,¿,iiamzyon_,,Didnt you win the rig reboot? Im so confused rn,18-2-2021,1
870,Adrian Pap,evilpa,,W8 LTT HAS A TIKTOK,18-2-2021,1
871,ryan,ryanneedstogotobed,,aren’t you the girl that said “got em”,18-2-2021,1
872,gOrf,vongorfter,,fuck yes!!!!,18-2-2021,1
873,Asbjørn Fink,deviltech42,,YAAAS WE ALL ROOTED FOR YOU,18-2-2021,1
874,Z-Dawg,applesauce8236,,MADISON!!!!,18-2-2021,1
875,…,hornswagled,,YES legit my favorite person at ltt,17-2-2021,1
876,DoggoLover,doggolover517,,I'm 100% here for the Madison content. 😂,17-2-2021,1
877,keiran wije,keiranwije,,bruh moment,17-2-2021,1
878,Spencer Wright,s.wrighty711,,Does the work computer have birds on it😂,17-2-2021,1
879,Texazfox666,texazfox666_,,Omg finally a place where i belong on the ltt tok,17-2-2021,1
880,Aoun Ali,aounali04,,someones gettin fired 😳,17-2-2021,1
881,Jasper Maurice Oenem,jaspermauriceoene,,Oooooooooooooooooooooooooooh!!!!!!! YES!!!!!!!!!!!!!!!!!,17-2-2021,1
882,Unknown Uchiha,spartauchiha36,,I love Ur video just give me inspiration to build pc but too bad I can't I live at Jamaica and when it come to buy stuff overseas from down here,17-2-2021,1
883,😾,sirpierogiii,,poggers,17-2-2021,1
884,Ivan G,ivang20212,,LINUS POST A VID ON THE TUBE SAYING YOU HIRED MADISON PLEASEEEE🥺,17-2-2021,1
885,Víctor Ibarra,iamvictoribarra,,IT HAPPENEDDDDDDD YEAAHHHHHHHHHH,17-2-2021,1
886,Prospeed,bronzegoatmobile,,You're attracted to the body of a minor. It doesn't matter if it's real or their fictional age,17-2-2021,1
887,TotallyNotACommie,iyeetnazis4breakfast,,MADISON ABOUT TO MAKE LTT A TIK TOK LEGEND. I believe in you fam 👌💪,17-2-2021,1
888,Eric Schuster,realericschuster,,deez nuts is back,17-2-2021,1
889,Alex.106,alex_106_,,We all knew you were gonna get hired it’s about time,17-2-2021,1
890,Jam,lljameslll,,Pog,17-2-2021,1
891,jpoof1337,jpoof1337,,I've finally made it to MadisonTok 😌,17-2-2021,1
892,steven,sbudovski,,LITERALLY 2021 CANT BE BETTER!!! Madison ily 😱❤️❤️,17-2-2021,1
893,Spicychicken nugget,spicychickennugget7,,Glad she got the job,17-2-2021,1
894,Donizetta,donizetta17,,I'll definitely follow,17-2-2021,1
895,Nerd,nerddzzz,,Holy crap you did it,17-2-2021,1
896,King Mattzilla,mattzilla30,,lol,17-2-2021,1
897,swfinder101,swfinder101,,how long until figuring out which tiktok goes with with yt vid becomes an ARG,17-2-2021,1
898,BCtechsupply,bctechsupply,,Did I just find my favorite Linus on tik tok?!,17-2-2021,1
899,eli,eruinaaa,,linus is handsome bye,17-2-2021,1
900,Neil,neiltono1,,LTT HAS A TIKTOK?!?!?,17-2-2021,1
901,jake weg,89whitebronco,,wait I found ltt tik tok 😳,17-2-2021,1
902,Manny NT,mavlnt,,@jane_sb,17-2-2021,1
903,ifr,sgt.momsbf,,linux tech tips,17-2-2021,1
904,Noodle,knoqlist,,Hey ur that girl from the rob strip thing,17-2-2021,1
905,reliabled,reliabled_,,NO WAY,17-2-2021,1
906,Kairv,kairv7,,They actually HIRED you!!!!!!!,17-2-2021,1
907,Names,i_think_im_hollow,,Does he still call them cupons,17-2-2021,1
908,elias,eliasxq3,,They finally did it thank god 😂,17-2-2021,1
909,SEGL,seg.l,,A crap,17-2-2021,1
910,Brian,daxtinator15,,"Ayyyy you're on tiktok! Been watching since the GTX 680 days, love the content!",17-2-2021,1
911,João,exiledcardigan,,I hope you trademark the word Longboi,17-2-2021,1
912,joshipoo,oopyscoopy0,,@nicole.pine1,17-2-2021,1
913,Jason Harris,jasonharris50,,bout time y'all started doing tiktok!!!! y'all leaving$$$ on the table,17-2-2021,1
914,Fwktrill,ktr6_,,Linus sex tips,17-2-2021,1
915,Smoke and a pancake,user350080866,,"This is dumb, proof numbers are inflated on tiktok",17-2-2021,1
916,Levi,brokencause,,"I’ve been using computers for 32 years, I can still school more people on basic windows skills. 😂",17-2-2021,1
917,c3o1p4,c3o1p4,,how did I find this,17-2-2021,1
918,Lu Farrah,lufarinn,,I can't wait for the Linus memes,17-2-2021,1
919,Tim Manojlović,timbo10ae,,Ohh its M-Dog,17-2-2021,1
920,.,lowksethan,,mdawg,17-2-2021,1
921,mattvanderpool8,.bones.malone0,,do you know who Monica Lewinsky is?,17-2-2021,1
922,.,idkmanmaybegrass,,OMG HER HOLY SHIT MEMORIES,17-2-2021,1
923,Ivan G,ivang20212,,lol perfect fit 💯👌👌,17-2-2021,1
924,Sam Strong,samstrong48,,Wait are you the girl from the dog rig reboot,17-2-2021,1
925,OldFish,eldercod,,POV Linus tech tips is on your FYP,17-2-2021,1
926,PKChance,pkchance,,This tiktok on my fyp made my day. Seeing you on Rig Reboot™ was such a treasure,17-2-2021,1
927,Idriss,salut.its.idriss,,"I’m happy you work for him, your energy in that pc build was awesome.",17-2-2021,1
928,Tim,czechthunder,,Linus said one of the reasons he hired you to have a TikTok presence and this is the first one I've seen! Can't wait for more,17-2-2021,1
929,idontcaresummer,yupiguessso,,"tell linus it’s time to give up the socks and sandals... i can’t take it anymore, take back the power",17-2-2021,1
930,HR1S,h_r1s,,Dude I’m so happy for you! Yes! Congrats,17-2-2021,1
931,604 People,walterslinginwhite,,BIG ŒUF CHAIN,17-2-2021,1
932,Drw,csssss00s,,Linus!,17-2-2021,1
933,rey,cra3ture,,yes,17-2-2021,1
934,Tik Toker,marisakirisamespanties,,WAIT YOU HAVE TIKTOK?,17-2-2021,1
935,Jia,butteredramen,,@johhng @borderjumper345,17-2-2021,1
936,Mark Webber,markweb,,this was such a good idea. ltt needed sone fresh perspective.,17-2-2021,1
937,Mahdi_FFM,mahdi__ffm,,Linus on TikTok? LETS GO!,17-2-2021,1
938,Kono dio da,xerasbestsimp,,Linus seggs tips 🥵,17-2-2021,1
939,awesomer_,awesomer_,,i guess this is a big oof,17-2-2021,1
940,Slowgti,slowgti1,,Lmao. I watched the video and was like that looks like Linus. Man I need to learn how to read.,17-2-2021,1
941,Sam,golfwangwinner,,i remember you from when he helped build a pc and you were super annoying,17-2-2021,1
942,Kiryu,unluckykiryu,,linus taxh tips,17-2-2021,1
943,You are cringe,bangdashot1,,Lmao,17-2-2021,1
944,user1230282993007,okwhotookmyname,,OMG its linus from linus secs tips!,17-2-2021,1
945,John baumel,john_baumel711,,I love how ltt only follows carter,17-2-2021,1
946,Mateo Garibay,mateogaribay,,THE WORLD HAS COME FULL CIRCLE,17-2-2021,1
947,Mateo Garibay,mateogaribay,,OH MY GOD FROM THAT ROG RIG REBOOT,17-2-2021,1
948,Franky,frankypren,,MADISON!!,17-2-2021,1
949,B 水,brandonwator,,Good hire,17-2-2021,1
950,The mouse,street_mouse,,of course she gets there and now they have a tiktok,17-2-2021,1
951,Ethan Fitzgerald,realgfitz,,THEY HIRED MAD OH MY GIRL 😳,17-2-2021,1
952,dev.eth,devtgp,,"From one Arizonian to another, Nice 😌",17-2-2021,1
953,S,whutth3fuc,,Linus.. lol,17-2-2021,1
954,evan,ecarey_64,,wait he actually hired her,17-2-2021,1
955,Kira Yoshukage,userpkutcr10y8,,I love u🥰,17-2-2021,1
956,James Colasacco,jamescolasacco,,IT’S HER,17-2-2021,1
957,rikixi,rikixi99,,YOOO THEY HIRED HER👏👏👏👏,17-2-2021,1
958,epticalswrld999,novanity_eptical_999,,it's the real Linus omg,17-2-2021,1
959,jesus,jesus501,,LA-MAO,17-2-2021,1
960,Gabethebabe,gabe_genna_18,,Is this the girl from the ROG rig reboot?,17-2-2021,1
961,Gibby,g1bby,,linus is about to be flamed on tiktok,17-2-2021,1
962,TyLeR,respentt,,linus 😫,17-2-2021,1
963,VikingPoet,vikingpoet,,Why not call it LinusTokTips 😅 missed opportunity,17-2-2021,1
964,Grayson Miller,graysonmill22,,DOES NOONE GET THE JOKE,17-2-2021,1
965,soup,volvo.at,,here before you are verified,17-2-2021,1
966,moonkey,urtitsare2small,,she ended up working there ???? after the pc build,17-2-2021,1
967,poopooman420,quadbomb7,,YOUR FROM ROG RIG REBOOT HAHA YOU GOT THE JOB 😂,17-2-2021,1
968,Sound_wavey,sound_wavey,,High key pumped that you are working with them 😁,17-2-2021,1
969,Quinn_kelly,vacum_26,,He couldve saved so much money if only he used honey 😔,17-2-2021,1
970,EddieDabs,eddiexdabs,,wtf is this...,17-2-2021,1
971,Sneha Lak,ramen_snoodles,,LINGUS,17-2-2021,1
972,Caivus,lastimosa3847,,mf noooooooooo,17-2-2021,1
973,Jake,j.key_d,,Is that birborb?,17-2-2021,1
974,Batyst,batystotist,,Linus ❤️,17-2-2021,1
975,Praneel,thatinventordude,,Here before they were verified,17-2-2021,1
976,Gabe Paolini,gabepaolini69,,BIG OOF lol that’s awesome I’m glad your w the LTT team,18-2-2021,1
977,Matthew,matthewmccombie,,YEAH!!!,18-2-2021,1
978,user4946314474695,sacumz,,Linus sex tips,18-2-2021,1
979,memeyou,memey0u,,you hired linus? I'm sure he's the child in this situation. are you his sponsor?,18-2-2021,1
980,Doomer,altonpro,,How do I get hired?,18-2-2021,1
981,churned55,churned55,,They actually hired her like a year later😂,18-2-2021,1
982,Brendan,roseyfanaccount,,YES SHES BACK,18-2-2021,1
983,rush iris lake,rusliruslakall,,Ah dude. My fav episode when you were on. Hope they put you a bunch on cam.,18-2-2021,1
984,Peanut butter,averagepeanutbutter,,Haha she’s back,18-2-2021,1
985,ShadowFax,shadowfax992,,oh hello! 👌,18-2-2021,1
986,doge139,doge1395,,omggggggg i found it!!!!!! go Madison!!!,18-2-2021,1
987,shrek,phant0m455,,no fucking way they hired you.,17-2-2021,1
988,Naramnarana,naramnarana,,The Moment ive been Waiting for This year 😂,18-2-2021,1
989,I♥︎LUVSEAT,goroukin,,Is that THE Linus sex tips?!?,18-2-2021,1
990,99 *c CPU,jackisrllygr8,,Linus Drip Tips🥶🥶🥵🥵🥶🥶🥵🥵🥵,18-2-2021,1
991,Conor,dswkxk,,Linus sex tips when,17-2-2021,1
992,Linus Tok Tips,linus_tok_tips,,What? I’m the Official Linus Tok Tips!😳,18-2-2021,1
993,Tuba man,biccol,,Aren’t you the person that built a pc with him after winning something from a video you made,18-2-2021,1
994,Watchout,watch_time,,LTTstore.com,18-2-2021,1
995,DogsAndCatsAreBetterThanHumans,dogs_better_than_humans,,YES MADDISON,18-2-2021,1
996,Jose Pintor,jose.d.pintor,,😂,18-2-2021,1
997,a Person that u don’t know,yolo2020wastaken,,"Ayoo I put I like pps in the chat for the, get muted speed run 😳",18-2-2021,1
998,Sebasuchan -,cbchillin,,the amount of #metoo jokes I could make 😂🤣,18-2-2021,1
999,Stinky,superdummyfeed,,YEEEESSSSSSS,18-2-2021,1
1000,jbrd15,MS4wLjABAAAARHu3IW8A-xlOZeFx3ixKGGFdNblt1_J-vzL4lGAdkVcfqhHAMNj_kAnzOCZ6eNOD,,NO WAY THEY HIRED YOU!!!! YESSSSSS,18-2-2021,1
1001,CanuckMackem,canuckmackem,,I'm so happy to see where this goes!!!!!,18-2-2021,1
1002,Wes Toulouse,tcghaven,,I was wondering when you’d show yourself (or if you could show yourself while on probation) your getting paid to troll your boss!,18-2-2021,1
1003,River,riverswanlake,,wait i reme er the first time you were on an episode,18-2-2021,1
1004,jiub,jiubsjiubles,,the only capitalist owner id let oppress me is linus 😳😳,18-2-2021,1
1005,2Cats,herromichaelo,,So happy for you Madison!!! Quality is about to go uuuuuup,18-2-2021,1
1006,Y e s,genericperson8857,,give me epic gaming build B),18-2-2021,1
1007,Avery,avery_burlingham,,ROG rig reboot,18-2-2021,1
1008,zhong xina,stickycum4,,are you that girl that couldn't pronounce Asus?,18-2-2021,1
1009,Ryan_papi,yamuthasbeava,,SHE HIRED THE REBOOT GIRL?!😭😭😭,18-2-2021,1
1010,Liam,unnamed_bots,,just so we are clear Linus is the child right,18-2-2021,1
1011,nn,kimokoni1,,"🥺I really enjoy watching linus videos, he is amazing. I follow him a little on YouTube but I admire him and I really like his way of being",18-2-2021,1
1012,Daníel R,dr.j_22,,I guess I'll go follow LTT here then too,18-2-2021,1
1013,marcel,surogou6005,,"OMG WUS UP ""M DOG""😂😂",18-2-2021,1
1014,Harry Davies,harrydavies971,,"The video with Madison was the only one I watched twice, good decision Linus 👍",18-2-2021,1
1015,I'm your mom,linus694200,,ayyyy I'm on linus tiktok,17-2-2021,1
