,Comment Number (ID),Nickname,User @,Comment Text,Time,Likes
1,Paladin Gaming Computers,paladin_computers,,I can see it physically pained Linus to make this 😂,17-2-2021,1225
2,🌊 PIX-THE-ARTIST 🌊,pixtheartist,,You are living the dream.,17-2-2021,15
3,LET IT RIP,burakkfn,,No way he hired you,20-2-2021,8
4,smiley,monkeysareprettycool,,LINUSSEXTIPS???,17-2-2021,219
5,The Dylan R,thedylanr,,Ayo isn’t that the girl from ROG rig reboot that said bruh moment alot,17-2-2021,61
6,BanknoteMan,banknoteman,,What are those?,17-2-2021,6
7,TPZ IZZY,tpzizzy,,Too drippy😌,17-2-2021,129
8,Toddsy,error_404_tini_not_found,,Linus socks tips,17-2-2021,6
9,Robert,robertspcs,,Is that mr drop pro I see you 😅😅😏😏,17-2-2021,5
10,Elliot smith,elliottsmithlover1,,Someone said linus seggs tips 😫😫😫😫😫😫,17-2-2021,57
11,Nishi,nishgames,,I’ve been waiting for this 😏,17-2-2021,35
12,Flick,flicktech,,"Omg, I can’t take it much longer",17-2-2021,37
13,ok,jaspxxr,,Ya’ll rockin wit Linus Sandals⁉️,17-2-2021,16
14,Britt Bailey,britt_bailey05,,He’s hot,17-2-2021,8
15,Toons,eltoonz,,YOOOOO LINUS VALID YESSIR 😏😏,24-2-2021,5
16,Jocowa,jocowa,,"oh no no, not the socks and sandals 😩💦",17-2-2021,6
17,yeet,iamvoidwalker,,it's big oof girl,17-2-2021,5
18,Aaron,vintagecoochie,,Can you tell Linus I say what’s up?,17-2-2021,8
19,🥺😂🥺😂🥰🥰,luwkesreal,,linus s3x tips 😳,5-3-2021,5
20,Hello,undeniableization,,if this is the real Linus he'll build me a gaming desktop computer 😏,4-3-2021,5
21,Paladin Gaming Computers,paladin_computers,,It's about time 🥰,17-2-2021,65
22,t_shivenkov37.1,t_shivenkov37.1,,This is Ryanair type social media management but better,18-2-2021,5
23,Perfectual,perfectualtech,,😳😳😳,17-2-2021,13
24,Nick,nickjack333,,liking the beard Linus 😂,17-2-2021,11
25,Gerbzee,gerbzee,,That guy looks like he’s good at building PCs,17-2-2021,8
26,….,freedatboyjaywon,,LINUS SEXTIPS,17-2-2021,91
