,Comment Number (ID),Nickname,User @,Comment Text,Time,Likes
1,Turnt Snake,turntsnake,,*gets fired immediately*,28-5-2021,4636
2,BlackOutXwX,blackoutxwx,,*HR noises intensify*,28-5-2021,1098
3,Drapooski,drapooski,,Maddison is paid to be a grown child and I’m here for it 😌😌,28-5-2021,1615
4,natehaiden,natehaiden,,Does Linus know Candice?,28-5-2021,233
5,Not Sus,susimnot,,2021-05-27: the tulip incident.,28-5-2021,102
6,John Frenchman,johnfrenchman,,only linus’ first thought would be “mini rose” 😭😭,28-5-2021,52
7,Pangsy,supersupeng,,Omg that’s your boss. Do it again.,28-5-2021,20
8,Keith Over,kayjayohpcs,,Y’all want this Broken 5800X I have? I wanna see what’s Up with it,28-5-2021,319
9,shrimpthatfriedtherice,shrimpthatfriedtherice,,"Linus do u know the pc part that makes ur pc work faster?
Ram?
RAMMIN DIS DIQ IN YO FACE",28-5-2021,1
10,heather,icanhasapanic,,if madison ever leaves i swear i’m asking for a refund,28-5-2021,34
11,Andrew,bagels_andrew,,LINUS GOT GOT LMAOOOO,28-5-2021,84
12,shafae,shafaekhannn,,@aveer.boi @usmish_ Linus got jebaited,28-5-2021,2
13,vineeth madala,vineethmadala,,how does linus not get mad at you Madison?,28-5-2021,1
14,Connor C,connorcorkill,,@logan_flash GOTEM,28-5-2021,1
15,ʜ ʏ ᴘ ᴇ ʏ ㋡,_hypey_,,7 year-old jokes be like 😂,28-5-2021,27
16,David,thelittleda,,Madison is keeping him from becoming a power tripping boss,28-5-2021,16
17,Max Don,maxdon82,,Not my boy Linus 😭 he’s to innocent 🥺,28-5-2021,15
18,OMYK,asian.balls,,GOTTEM,28-5-2021,13
19,James Gutierrez,james.gutz,,Video idea Linus and Linus Media Group reacts to the Linus Tech Tips TikTok. Thank you I'll be taking 90% of the revenue of the video thank you.,28-5-2021,1
20,~@^_^@~,ov.o_o.vo,,This is actually sad we lost Linus,28-5-2021,5
21,Sad Lover/LemonAidLOL,sad_lov3r,,big œf,28-5-2021,4
22,Lucy is gamer,lucyisgamer,,GOTEM,28-5-2021,3
23,michael,bigg_eerikson,,"""rosary"" hmm",28-5-2021,1
24,A through Z,thewholeentirealphabet,,I actually said “amber rose” to myself so confidently,28-5-2021,5
25,AlexandreFS,alecsandrefs,,Linus be scrolling through this comment section... I know it!!!,28-5-2021,3
26,postmodern castironshitposting,kuvanjesfilozofom,,awesome🥰,28-5-2021,1
27,Anthony,adehenpop,,And you get paid for this-,28-5-2021,4159
28,Nick🖤,changingaesthetic,,GOT HIM REAL GOOD MADISON GOOD JOB,28-5-2021,3058
29,alan,notalan_,,@indominus_lol gottem,28-5-2021,2
30,Alicia Pena,alicep3565,,Oh my God she managed to do it,28-5-2021,472
31,tycheese,tycheeese,,"ah yes, the elusive ball rose. looks wonderful this time of year🌹",28-5-2021,426
32,Tecchie,officaltecchie,,And that’s how Madison got fired😂😂,28-5-2021,210
33,Ade,ade_131,,I can’t believe he pays you for this,28-5-2021,82
34,user3330895834145,luka.12375,,first,28-5-2021,18
35,user6628946075307,gyt_drillerkiller39,,Has he heard of Candice?,30-5-2021,8
36,Joshy,joshy_boyo,,He really do wear Sandals everywhere,28-5-2021,8
37,Vex,vexxynr,,Cool boss 101,28-5-2021,5
38,Mike Mikjær,mikjaer,,what microphone is that?,11-8-2021,0
39,frog🔱👨‍🦲🌚,2plus2puta2,,we want Anthony,3-8-2021,0
40,3DprintTechDesign,3dprinttechdesign,,Wut?,15-7-2021,0
41,kamil SANSAR,zoldycktr,,I need sub 🥺,30-6-2021,0
42,Ben,justbenny11,,GG madders,29-6-2021,0
43,Alexander Tersakian,tersakian,,Microse. Like micro and rose.,27-6-2021,0
44,Xai,fluffyxai,,Why does this so exactly make me think of Arin Hanson XD,26-6-2021,1
45,BrazilianCuber424,braziliancuber424,,Please put this in the video,22-6-2021,0
46,Richard Zorola,rzoro5000,,when the person on ROG rig reboot 2019 won't go home.,20-6-2021,0
47,David,david_popenhagen,,I’m gonna buy a Linus cup just because of this video,19-6-2021,0
48,…..,the_better_joshua,,@s_o_t_o26 the profile picture,16-6-2021,1
49,Qiw,qiwikihi,,Aah its a PSU video,14-6-2021,0
50,David Thaxton,dthaxton76,,i would of thought of a poppy,8-6-2021,0
51,Drstone,c137stagnantwater,,Wheres the ltt sponsor,6-6-2021,0
52,Richard Howe,richard8114,,Christ. Madison is the best things that's happened to LTT,6-6-2021,0
53,Me&Yuku,zuyuku_,,@pasta_potato we got there eventually,5-6-2021,1
54,Space Boy 🌟,n.a_stolte,,Madison being hired is the most incredible thing this community has accomplished,4-6-2021,0
55,atg115,atg115,,hey it's socko!!! how's the liminal space in the void?,3-6-2021,0
56,Caleb Stevens,calebjamesstevens,,anyone know what mic that is,3-6-2021,0
57,MrStumpson,monsierstumpson,,I couldn't love Linus and his companies more,2-6-2021,0
58,David,whatthishitabout,,isn't shee the one who won the Asus rig reboot and said somthing about these nuts?,2-6-2021,0
59,dApO,xxdapoxx,,@vitkezaaa19 get on,2-6-2021,0
60,Ryder Hermonat,tazumi_rythono,,damN she got him 😳,2-6-2021,0
61,masterfubar23,masterfubar,,"lmao, too good",2-6-2021,0
62,😳,avoidedprison,,Anyone know what desk that is? Please,2-6-2021,0
63,maike,maike__ekiam,,Maddison is what’s keeping this team together sometimes,2-6-2021,0
64,Darius,bigdaddy_darius,,Tulip?,2-6-2021,1
65,Cesar Romero580,surrealounge,,take that Linux booi,2-6-2021,0
66,thickmalethighs,thickmalethighs,,Madison was the best hiring decision Linus ever made,1-6-2021,0
67,Ethan Hunter,moist_cracker,,Fired,1-6-2021,0
68,index.html,max.mnemo,,Actually there is... Rosenkohl.,1-6-2021,0
69,Arno,eliteexpression,,The sock ruins the whole thing,1-6-2021,0
70,Outstanding move soldier,lamb_sus,,And today's video is sponsored by grammerly,31-5-2021,0
71,Madison,madinorton603,,thank you madison,31-5-2021,0
72,GT - QHCZ,qhcz0,,Violets are red,30-5-2021,0
73,spludjer,spludjer,,Got eeem,30-5-2021,0
74,4️⃣🆓,unknownsubjcect422,,does linus knows who candice is?,30-5-2021,0
75,Eric Melendez II,ericmelendezii,,HR is gonna have a conversation,29-5-2021,0
76,Carlos Leonel,carlos_llr,,"""doesn't she have work to do?"" -linus",29-5-2021,0
77,ben,bentheflop,,tulips,29-5-2021,0
78,Gavin the sniper,gavinthesniper,,Linus re thinks his life when Maddison shows up on time,29-5-2021,0
79,Mr. SunChips,mr.sunchips,,We are watching history being made folks...,29-5-2021,1
80,james davis,jamesdavis257,,rosary 😳,29-5-2021,0
81,Deshaud,deshaudk,,"me thinking "" amber rose """,29-5-2021,0
82,iJacob,ijaccb,,That hurt,29-5-2021,0
83,limitedhansen,limitedhansen,,tulipz 😂😂,29-5-2021,0
84,7hevillager,7hevillager,,"Bulb rose! Big brain moment, Linus 😂😂😂",29-5-2021,0
85,Sebastian Dømler Jepsen,sebi10987,,It took him a while,28-5-2021,0
86,user8311581119835,thewizard110,,"I have hardly any idea what tulips look like and I have no idea the kinds of flowers, but tulips was the first thing that came into my head",28-5-2021,0
87,Joe mauma,jordanpxl,,Rip,28-5-2021,0
88,Jeremy,wattsmyftp,,Maddie is going ham,28-5-2021,0
89,gothickingcobra52,gothickingcobra52,,NOW TRY BOFA NEXT,28-5-2021,0
90,Russ ツ,russwc3,,You should do a video where Linus watches the Tiktok 😂😂,28-5-2021,1
91,h,exoticooooo,,gteom,28-5-2021,0
92,Jeffrey Li,jeffreyli0,,ikea table,28-5-2021,0
93,spiderlover 2011,spiderlover2011,,Madison is pog in ever form,28-5-2021,0
94,Brandon Bezos,brandon_bezos,,MADISON NOW OWNS THE CHANNEL IT'S THE RULE,28-5-2021,0
95,Ali Srour,blessed_or_cursed,,blessed,28-5-2021,0
96,Pythonx25,pythonx25,,This is the content I like,28-5-2021,0
97,Jester_Nate,jesternate,,gotteeem,28-5-2021,0
98,Serial Corgi,serialcorgi,,I am too old and don't get it...,28-5-2021,0
99,matrix the III,matrixlovesher,,give me a pc,28-5-2021,0
100,Ralf_Rold,ralf_ru,,"Welp, I see why Linus hired Madison to be head of social media.",28-5-2021,0
101,Venuka Bhashitha,theomegod,,Ask Linus what happened in kenya,28-5-2021,0
102,JT (He/Him/Them/They all fine),cntrydoe,,Linus is “special”,28-5-2021,0
103,Alex,lewalnuts,,Madison!!! Linus is gonna fire you lmao,28-5-2021,0
104,Colt,thatscolt,,I would love to see Madison on an episode of @mythicalkitchen. Here's and Josh's chaotic energies would be a great time.,28-5-2021,0
105,Oddly,oddlyspecific42,,that was a long drive to disappointment.,28-5-2021,0
106,Vasiljev😈,vasiljevyep,,i thought the Li part was pronounced as it is pronounced in Linux,28-5-2021,0
107,Xavier Rodriguez,notxavier21,,I was gonna say Bulbasaur,28-5-2021,0
108,Arco,iamkurtis_,,gottem,28-5-2021,0
109,Joniii The Sleepy Dreamer,joniiidreamer255,,Madison...,28-5-2021,0
110,Tik Toker,libertyordeath_,,lmaooooo,28-5-2021,0
111,Siwon,siwonryu214,,lol,28-5-2021,0
112,kalī,kalibraat0rs,,ooof,28-5-2021,0
113,Za,266hz,,Bro fire,28-5-2021,0
114,KONO DIYOSS DA,_diyoss_,,Anybody else get the “is this video childish “ question,28-5-2021,0
115,BEN GARRETT,bennygplayzyt,,cant believe Madison gets paid for this lmaoo,28-5-2021,0
116,Die zwei spakos,vali_und_bela,,i love this videos,28-5-2021,0
117,Edward Zick,edwardzick,,ahhh Madison too good,28-5-2021,0
118,Science_team_duck,science_team_duck,,this has to be Madison 😂,28-5-2021,0
119,LaDeX,ladexi,,I don't get it,28-5-2021,0
120,Sjors de bruijn,boomkop3,,"One of the best tiktoks on my feed yet, lmao",28-5-2021,0
121,Golden Magikarp,g0ldenmagikarp,,outplayed,28-5-2021,0
122,Burnt Tuxedo,b3ta_mal3,,Good job Maddison,28-5-2021,0
123,Quang Đỗ,quangdpn_424533,,"Thank you, Madison. Very Cool!!!",28-5-2021,0
124,Xon,its_xon,,*HR department engaged” 😂,28-5-2021,0
125,Quinn Wolf,backwardsflow,,That's actually the same puppet they use to keep Linus focused on the camera,28-5-2021,0
126,Only_Lane,only_lane,,Every day we stray further from gods light,28-5-2021,0
127,Mr. Smith,random_person_onlinee,,You didn’t stay for the reaction,28-5-2021,0
128,koopertrooper,miffymcportboiijr,,homie just say name a flower beginning with t,28-5-2021,0
129,Nosiu 💙💛,nosiuodkrywca,,"Bulb Rose: ""A happy little accident""",28-5-2021,0
130,SkittlesScott,skittles_scott,,I’m so high bud I am Canadian,28-5-2021,0
131,A,qertgvxs,,Uranus 🤠,28-5-2021,0
132,That funny kid,thatonefunnykidlll,,How are you not fired?,28-5-2021,0
133,Garrett,_garrett.62_,,Love these videos,28-5-2021,0
134,polion,pol_lion,,i new it was tulips 😅,28-5-2021,0
135,viola,violaachu,,why move the camera i wanted to see his reaction 🥲,28-5-2021,0
136,Dildos,sleepyjo3likeslittlekids,,Good job Madison im proud of u,28-5-2021,0
137,Ivan,blackfire_45,,We need Candice,28-5-2021,0
138,Superposición,superposicion,,"Madison, light of my life 🙌🏼",28-5-2021,0
139,Mike funblade,mikefunblade,,How bout some minute tech tips,28-5-2021,0
140,RockyG,roo.vkie,,"""we make entertaining videos about technology""",28-5-2021,0
141,Daniel Nelson,aerialspin,,Madison is just female Linus from ~15 years ago,28-5-2021,0
142,Mark Chapman,marcusorillious,,I love this,28-5-2021,0
143,Shadow,shadowwolfspiritstarseed,,Ah yes.. Madison..,28-5-2021,0
144,max,a_relative_max,,gottem,28-5-2021,0
145,bryce.moulton,dzrtranger,,@sarathilomoulton 😂 I’m doing this at work,28-5-2021,0
146,phxrmxcist#0001,r1r1instx,,poor linus was so confused,28-5-2021,0
147,2k304,2k304pie,,I’m dead😂😂😂😂,28-5-2021,0
148,Austin Crowley,itszsil3ntt,,HA!,28-5-2021,0
149,Cheepy Girl,steve.shinn,,that was epic,28-5-2021,0
150,Mark Bogumil,bogumillionaire,,"Keep it up, 😂 love seeing how the ppl are behind scenes",28-5-2021,0
151,😑😐,yaboi_gravy,,Poppy,28-5-2021,0
152,ernie,sock.st,,shes getting fired well miss you 🙏😔,28-5-2021,0
153,Stevie.wonder.isnt.blind,steviewonder_isnt_blind,,Poor Linus 😂,28-5-2021,0
154,StringCentral,stringcentral,,I’m so glad Madison works for LTT!!!,28-5-2021,0
155,Steven Z,bodega25,,this is the content i’m looking for 😤,28-5-2021,0
156,gguerre21,gguerre21,,worth the wait😂,28-5-2021,0
157,Duck,ijks1,,I think it’s his wife?,28-5-2021,0
158,Monke,m0onkee,,this is why maddison was the best thing to ever happen to linus tech tips,28-5-2021,0
159,Mr . Beast Boy,mr.beastboy6,,Lmao,28-5-2021,0
160,r,rileybeach08,,r u the guy from the honey add on yt,28-5-2021,0
161,water_gobbler,water_gobbler,,Candice next?,28-5-2021,0
162,Collin Fells,collinfells,,wait until linus here's about the new E10,28-5-2021,0
163,Tvat,tvat_kunygeny,,i just ruined the 6666 likes 😈,28-5-2021,0
164,Joshua Thomas Bird,exprobitasfiducia,,Bahahha omg wow,28-5-2021,0
165,sometimes charlie,redd_dd,,so... am i the only one who liked that april fools vid😏,28-5-2021,0
166,Paramedic Gamer,paramedicgamer,,lmao,28-5-2021,0
167,SaulHTS,saulhts,,I would never have the balls to say that to my boss,28-5-2021,0
168,Tim,itstimpham,,You haven’t changed one bit,28-5-2021,0
169,T∆E,tae.gaming.26,,don't be shy do it to yvonne😅,28-5-2021,0
170,TheEpic RiceMaker,theepicricemaker,,"""rosary"" 💀",28-5-2021,0
171,jagger2417,martinbenham,,he loves his benies,28-5-2021,0
172,NerdTronJJ,nerdtronjj,,rekt,28-5-2021,0
173,second hand toilet seat,_la.puta.madre_,,hiring Madison is the best decision Linus made,28-5-2021,0
174,Jeton Isufi,bashhjetoni,,pov:you didn't know lines had a tiktok,28-5-2021,0
175,Sam Tulloch,samtulloch,,You have the best job,28-5-2021,0
176,Play UK,playuk,,linus is now not the only child in the studio 😂,28-5-2021,0
177,idek atp,technology_connoisseur,,i-,28-5-2021,0
178,John Huerta,john_h2,,You dropped this 👑,28-5-2021,0
179,user8233352582035,dontellyourmom,,Please place the mic cable under a leg of the c-stand... and possibly bag it? I feel like we are seconds away from someone tripping on it. K❤️U bye.,28-5-2021,0
180,pusheenyweeny,pusheenyweeny,,Goteem!!!,28-5-2021,0
181,Ofri Gershon,ofrigershon,,Thanks Madison,28-5-2021,0
182,your dad,nicolas_gerr,,lol,28-5-2021,0
183,Bee,thebluejlbs,,I love this so much,28-5-2021,0
184,Aleks,melkaobv,,Is there an iMac review in the works bestie?🥰,28-5-2021,0
185,Mathew Boyd,mathew_boyd,,I love this,28-5-2021,0
186,.....,hydro_homey,,Ask them when they hired Candice,28-5-2021,0
187,Charlie,charlieditch53,,How are you not fired,28-5-2021,0
188,Zralix,zralix,,Nice,28-5-2021,0
189,Mark,mark_mark_23,,GOT'em,28-5-2021,0
190,fiifiiboy,fiifiiboy,,lemme join,28-5-2021,0
191,Matthew Umphlett,matthewumphlett,,Madison needs a raise,28-5-2021,0
192,E,triax8456,,Remember that time you were fired?,28-5-2021,0
193,weston tucker,progogurt,,Yes thank you,28-5-2021,0
194,Matthew Brown,matthewbrown285,,*gets fired*,28-5-2021,0
195,James Sutton,custom_coolness_keyboard,,nice m-dog this is fire,28-5-2021,0
196,"'/<>×,÷*÷>",idkadb,,100th viewer,28-5-2021,0
197,jason_the_ruler02,jason_the_ruler,,gotteeeem,28-5-2021,0
198,Artūrs,.arturikss,,hi love ur vidz,28-5-2021,0
199,Your mom,folwii,,Early,28-5-2021,0
200,𝓑𝓸𝓷𝓴,gotokyobrand,,nock nock,28-5-2021,0
201,Uri Agay Shay,_uriagayshay,,Litt store . Com,28-5-2021,0
202,👣,ahmedddd._,,Madison are you using your 2070 super well?,28-5-2021,0
203,Dhruv,thinkerdesigns,,the tech tip man...,28-5-2021,2
204,chickpea,bluerosedjt11,,ha,28-5-2021,0
205,Wi to lo,sumthinwong.1,,Who’s Candice?,28-5-2021,0
206,Micahmartin,dastreetraccoon,,Tell him i said hi,28-5-2021,0
207,zainbeilouni,zainbeilouni,,Am i first???,28-5-2021,1
208,MagiciaN,magicianheng,,HE FELL FOR IT LMAO,28-5-2021,0
209,7ktechtips,7ktechtips,,first,28-5-2021,0
210,Somebody,pleasehelpmeimunderthewr,,"Why work for Linus:
Get paid for doing stupid things
get to see him Drop very Expensive PC componints almost everyday
Socks+Sandles = Everyday shoes
@",28-5-2021,1
211,TheGantoo,thegantoo,,He hires you to troll him. Well done! XD,8-7-2021,0
212,Ville,ville125,,Destroyed!,6-6-2021,0
213,William Perez,williamtheticktockuser,,anyone I need help asap my pc keeps going into bios mode every time I turn it on. anyone have a fix asap.,31-5-2021,0
214,Seikatsu.-,corninmyass,,for which reason did Linus hired you?,28-5-2021,0
215,Willy Vodka,thewillyvodka,,Thats Terrifying !!! and I know Scary,28-5-2021,0
216,zohaib.alvi,zo.haiby,,Poor old boomer,28-5-2021,0
217,?,relszi,,Who run this Account,28-5-2021,0
218,Manivela,manivelarino,,this is what peak LTT content looks like 😂,28-5-2021,0
219,Isaiah Dietrich,isaiahdietrich,,respond if Linus is holding you hostage,28-5-2021,2
220,alex,alex_larocca,,GOTTTEMMMMMM,28-5-2021,1
221,.,doesmyusernamerlymatter,,"@izzyymoon linus (the man) hired her after he gave away a pc to her and everyone loved her personality, and i think thats awesomr",28-5-2021,1
222,Joe,gakujoe,,"Lol be careful, you might get fired for that.",28-5-2021,1
223,Renzo MCD,renzomcd,,@anarchytoads she gets paid to handle this social media account lmao,28-5-2021,1
224,Tanner Lee,tannibo,,“goes to sit down with HR”,28-5-2021,1
225,Christian,christianq008,,"Don't have a clan? Join ours! We donate, do wars, and shoutout out members! We accept active, fun, and more of the less not toxic players (:",28-5-2021,0
226,⠀ ⠀ ⠀ ⠀ ⠀ ⠀ ⠀ ⠀ ⠀ ⠀,logbait.lover,,bruh😅 took me 5 rewatches to get the hidden message😂,28-5-2021,1
227,DJMALACHITE,djmalachite546,,oh god 😂,28-5-2021,0
228,technicallyamazingllc,technicallyamazingllc,,I’m a small business owner. Computer repair. How can I grow my business? I’m going to comment this on all of your videos and hope for a reply! ......,7-6-2021,0
229,Some Person,cryogenetic,,More like linus sucks tips GOTTEM (im sorry linus),29-5-2021,0
230,Kyle Nelson,drcherry69,,stop it,28-5-2021,0
231,Matt,mattpattt,,Lttstore.com,28-5-2021,0
232,Timothy Shibu,timmy_s7,,What if he was suicidal what is that was his last straw,28-5-2021,0
233,BoostedLucio_,boostedlucio_,,she needs to be stopped,28-5-2021,0
234,no,baltmaizis,,*dies of cringe*,28-5-2021,0
235,Milo,milodogsandshoes,,Got emmmmm,28-5-2021,0
236,Kellen,kflantheman,,Gottteeemmmmm,28-5-2021,0
237,Zaka,zackfrmop,,“Bald rose”,28-5-2021,2
238,f,ihatemyselfforthis0,,You know he lost his shit laughing after this,18-9-2021,0
239,suit tie man,techloman,,Me friend is building a gaming PC if you wanna help him out here you go: https://gofund.me/bca27d73,8-8-2021,0
240,Jamie Morris,mozzamoo2000,,How are you still employed there💀,24-7-2021,0
241,Jeppe Sørensen,jevsen,,Linus wants to jump out of a 4 story building after this,30-6-2021,0
242,Julio Ontiveros,julioontiveros08,,this is a copy of a Mexican character called compayito,28-6-2021,0
243,help,joe_berry_crunch,,Linus is a cuck,9-6-2021,0
244,Taylor,greentaylor819,,Wish I could get paid to roast a millionaire 😂,7-6-2021,0
245,Corvo Attano,corvoattano,,TWO LIPS ON WHATTTT,5-6-2021,0
246,Tanner,tannerlolxd,,uh oh. she has nuts?,4-6-2021,0
247,GMilkMan,gmilkman,,Ruined his Whole Career,2-6-2021,1
248,madmanmoe,madmanmoe,,"the look on Linus' face, the stare of ""I'm actually paying her to pull pranks on me""",2-6-2021,0
249,Ryan 😳,ryan_is_great,,"Hahaha, now give me a pc 🔫😐",30-5-2021,0
250,john,itsjohnbruh0,,madison I remember when you were making Linus’s life hell during that build,29-5-2021,0
251,Penis man,not_a_suggested_username,,I thought the NIRMMMM was going in a different detection,29-5-2021,0
252,🤝,sei.eai,,linus sex tips😳,29-5-2021,0
253,xqcL,epicpogchamp_,,and you can take that tech tip to the bank.,29-5-2021,1
254,æ,smallbrainstan,,@longhairytoenails SHE GETS PAID FOR THIS. I WANT THIS JOB,28-5-2021,1
255,TheNexan,thenexan,,"Took some time, but madison had once again claimed victory for us all",28-5-2021,0
256,kenneyaf,kenneyaf,,Madison you are an idiot.,28-5-2021,0
257,Jason Harris,jasonharris50,,u will be on trash duty for sure,28-5-2021,0
258,Cody,mrfeelsgoods,,lmao love it. Tulips on deez nutz. Keep being awesome.,28-5-2021,0
259,bigv2486,bigv2486,,Less tech more sock,28-5-2021,0
260,jaden,_peej22_,,This is the best of Linus sex tips,28-5-2021,0
261,MurderousB,wendigoprime,,"I swear to god, if Madison ever gets fired I’m unsubscribing from LTT",28-5-2021,0
262,⚠️,kayzzs22,,Linus aka the linus dont know a shit tips😳😳,28-5-2021,0
263,eddyi1.exe,eddyi1.exe,,Whos deez?,28-5-2021,0
264,Zapred Eagle,shaeteel,,"woman saying tulips on these nuts... what nuts, whose nuts, there are no nuts in the video. neither edible or dangling test tickles.😂",28-5-2021,0
265,ك,lmsydtynimm,,shortly after madison was fired and shot by linus,28-5-2021,0
266,Nyx,numberonegayperson,,Goddamn imagine telling that to your boss,28-5-2021,0
267,Sloth,slackysloth,,Imagine paying to get trolled,28-5-2021,0
268,Dirtbikedude,dirtbikedude_,,Can I get a cardboard cutout of Linus,28-5-2021,0
269,Depressed Bastard,babyfartsmcgeezax69,,THIS IS WHAT YOU GET FOR HIRING A CHILD LINUS,28-5-2021,0
270,Griffin Gray,griffingray224,,Whoever cleared the idea of Madison having control of an LTT TIKTOK must regret their decision however I’m loving it,28-5-2021,0
271,idk_bro,idek_broski_,,linus sex tips,28-5-2021,0
272,HiAgainSteve,hiagainsteve,,she really got the job to tell Linus deez nuts jokes. Nice,28-5-2021,0
273,Parker,mitternachtdaskatze,,Get epically trolled Canadian tech man,28-5-2021,0
274,Anna Kyle,k0ncursus,,I like this chick,28-5-2021,0
275,tictactacos,tictactacos,,I like to imagine that you were barefoot on one foot while recording this,28-5-2021,0
276,arandomweeb,arandom.weeb,,Madison is now my favorite ltt employee now you gotta hire that one guy from the last rog rig reboot,28-5-2021,0
277,AlexplaysVR,alexplaysvr,,Ayo. @linustech check out @kayjayohpcs's comment/video about his broken or fake 5800x,28-5-2021,0
278,Lagavulin,lagavulinxvi,,"Madison, you are a gift to LTT",28-5-2021,0
279,Oof,oof3498,,Hit him with eucalyptus 😏,28-5-2021,0
280,akis,picimisakis,,I swear gen z is making up job positions now,28-5-2021,0
281,L_Carpetron,l_carpetron,,Blow these up so we can see more of these 😭😭,28-5-2021,0
282,Tonatiuh Cadena,tonatiuh1968,,She gets paid for doing thisz the fucking dreammm,28-5-2021,0
283,Isaiah,newedge.isaiah,,Please gimme a job there,28-5-2021,0
284,terra,terrasparkiv,,holy fuck you killed him,28-5-2021,0
285,Trucker Roach Clips,truckerroachclips,,"Getting flash backs to when he ""helped"" her build a new computer, lol",28-5-2021,0
286,Edgar Padilla,padiboii23,,"ladies and gentlemen, we gottem",28-5-2021,3
287,Watdoesthisdo,ignohdopy,,@alinauhh,28-5-2021,2
288,klaus,epicvoldemort1,,@venomitee,28-5-2021,1
289,fergussprince,fergussprince,,@visiblepotato,28-5-2021,1
290,Yeah,justjoshinr,,@barneysc00ch13 @theyknowadela,28-5-2021,2
291,HaleyGeorge,king.george.04,,@julianna_g57,28-5-2021,1
292,0mer,omerthebomber,,@dr.bustdown,28-5-2021,1
293,that one dude,dude_guy_cool,,@seizzer0,28-5-2021,1
294,Michael,michaelsal07,,@mikasasmaingf,28-5-2021,1
295,Futility's Forgotten Soldier,futilityfs,,@_frownie_,11-10-2021,1
296,Add your Name,jb.ksr,,😐,23-7-2021,0
297,Carlos Andrés Campo,carloscampo5200,,😂,2-7-2021,0
298,buRitos1337,reynryan,,@wackoes,27-6-2021,0
299,Ben,ben_is_the_name,,@mercy.spam,18-6-2021,0
300,Oscar Ferraro,oscarferrraro,,🔣🔣🔣,13-6-2021,0
301,🇺🇦,png.tom,,@melodystp,9-6-2021,1
302,evan,evankis,,@mjnotfoundwastaken,5-6-2021,1
303,Emerson,emey.wemy,,@austintechtips,2-6-2021,0
304,Gabor Cristian,gaborcristian1,,😢😢😢😢😢😢😢,31-5-2021,0
305,Monkeyman_12,itsmonkeyman_12,,@kitoneverexisted,29-5-2021,0
306,Colin McDonald,colinmcdonald18,,@firestar7274,29-5-2021,0
307,Outfoxedfox,outfoxedfox,,@hungii18,29-5-2021,0
308,😡,iidrye,,@gamagorislover,29-5-2021,0
309,Hjönk,hjonk_69,,@juancitolopez16,28-5-2021,0
310,undead orc cleric,undeadorccleric,,😂😂,28-5-2021,0
311,Michu,michu2552,,@gruhon.15,28-5-2021,0
312,Hegii,zhegii,,@susamogusimposta69,28-5-2021,0
313,💧💧💧,bigmanwiththumbs69,,@katie_may1402,28-5-2021,0
314,FirstTimeGaming,definitlynot_chase,,@mooney_wuz_here,28-5-2021,0
315,Matthew Yu,sexybrvh,,@tristan_y_smith,28-5-2021,0
316,redacted,louxgarou_,,😂,28-5-2021,0
317,AzD aHa,azdaha01,,😂😂😂😂😂😂,28-5-2021,0
318,user5775106135338,madcuzimright,,Hahahah,26-6-2021,0
319,Maxi Göthling,maxigoethling,,haha,28-5-2021,0
320,Peyton Glugover,peyton_glugover,,Gg,28-5-2021,1
321,Hulsmann John,watevertheyare,,@zcot19,30-5-2021,0
322,abe19396,abe19396,,👄🥜👄,1-6-2021,0
