,Comment Number (ID),Nickname,User @,Comment Text,Time,Likes
1,tatertottushy,tatertottushy,,this is the equivalent to a $20 part and $500 shipping,26-2-2022,3043
2,Zack Farmer,thelilrebel,,that is not a tiny ssd. it's a network card/nic,26-2-2022,1261
3,Average Titanfall enjoyer,task_force_1.4.1,,It’s not tiny it’s average and I bet he has a really great personality,26-2-2022,996
4,J,jisntfunny,,it's so linus doesn't drop it and absolutely demolish it,26-2-2022,591
5,DJ BeeZee,themrwhitecoat,,"You got the last one in the pack, so they decided the waste was your problem. Lol",26-2-2022,149
6,ALIK_POSELSKIY,alik_poselskiy,,Когда сказал комплектухи с али и попросил упаковать китайца так чтобы не сломалось по дороге 😂,27-2-2022,67
7,ZenMxy,m4xypc,,u tryn send me some? 😂,26-2-2022,67
8,Tony Amb,dumbkuntamb2,,steam deck storage upgrade?,26-2-2022,34
9,no,nemoez,,no,26-2-2022,22
10,the_bowlcut_boy22,the_bowlcut_boy22,,bro,26-2-2022,10
11,SlinktT,slinktt,,@thedeagel38 @flaybtw @kingmel0n je me demande il coûte combien ton ssd la,26-2-2022,5
12,gamerboi930,gamerboi930,,Coulda used more,26-2-2022,4
13,will,stoppopandroll,,Eco unfriendly… but always a good laugh,26-2-2022,3
14,Ferdi_Sirin,ferdi_sirin,,it gotta be 100tb,26-2-2022,3
15,thelurgi,thelurgi,,"Personally i feel like that’s normal sized, a bit too big actually",26-2-2022,3
16,Ise209381,ise209381,,Lol,26-2-2022,3
17,🍒,luvply,,"過剰包装
グレタさんが怒りますね",12-3-2022,2
18,Astolf,_astolf_,,чисто новая почта,17-3-2022,1
19,Man︎︎︎︎︎︎︎︎︎︎︎︎︎.,hilman.ar,,how to clean bin on your house,3-3-2022,1
20,Karim Abd El-Fattah Ahmed,karimabdo_33,,because they know how Linus handles things,1-3-2022,1
21,Sm___22,sm___22,,Day #3 of asking LTT for a pc,28-2-2022,1
22,copyright claim #3,ksa_spectre,,Don’t drop it,28-2-2022,1
23,karlitos_trece,karlitos_trece,,Max security 🥵👌,27-2-2022,1
24,Justin Axe,justinaxe5000,,amazon style,26-2-2022,1
25,Sm___22,sm___22,,Day #3 of asking LTT for a pc because I know they can afford it,26-2-2022,1
26,โกดัง 90s,godung90s,,"แพคเกจบ้านเขา
ให้มาสมราคาจริงๆ
อันกะจึ๋งเดียวกล่องใส่ซะ
บะเล่อบะล่า",26-2-2022,1
27,uwu,k__uwu,,@cuhsigh 💀💀💀,26-2-2022,1
28,Adam Ramadan,adamr6480,,the smiley face makes 8t so funny😂,26-2-2022,1
29,Dille,sjeldentbrukernavn,,It’s under the sauce,26-2-2022,1
30,dcuplink,dcuplink,,lol,26-2-2022,1
31,Daxter Garrett,shweatyboi221,,That’s an m.1 drive my guy,26-2-2022,1
32,wahyu wicaksono773,wicaksonow13,,I think the sender watch you channel so much,26-2-2022,1
33,Dev,tatortree,,But we gotta recycle guys! Companies aren’t the ones killing the environment or anything :))),26-2-2022,1
34,( ͡° ͜ʖ ͡°)ya like jazz🐝,elliottisnoice,,And that’s for the steam deck,26-2-2022,1
35,Vibez,vibez35_,,Why is the ssd so big?,26-2-2022,1
36,3bjake,3bjake,,Thats an average sized ssd and i bet it performs exceptionally 🥲,26-2-2022,1
37,BladeRunner,bladerunner2077,,m.2 2230,15-5-2022,0
38,realityexe,realityexe,,they don't want Linus to drop it,12-5-2022,0
39,Lemon tree,prana217,,They’re literally transferring the trash to you,27-4-2022,0
40,kochengoyentobat,kochengoyentobat,,opo iku,26-4-2022,0
41,Ricardo van der Laan,killingbeastnl,,"i used to do this at a certain company, when they ordered the smallest thing possible, i hide it in a box, with random empty boxes in a very big box",3-3-2022,0
42,Артём Аристов,artyomxvii,,looks like they cleaned out their shop,1-3-2022,0
43,melon sharkman,im.a.lemon47,,@linustech can I buy PC part boxes just the empty boxes and/or the CPU stickers from you,1-3-2022,0
44,AtomicNuke4061,atomic.nuke.4061,,that's not even an ssd 😂😂😂 that's a network or mic chip lol,28-2-2022,0
45,ㅎㄴ,gksdltm,,i thought its moulding chocolate 😂😂,28-2-2022,0
46,user9915962066431,cbpaddymac,,amazon eh.🥺,28-2-2022,0
47,AFIQ 059,afiq_059,,"Security 100,😅",28-2-2022,0
48,Devin Rewoldt,devbloggs,,"I feel a steam deck build, not a pc build",28-2-2022,0
49,xMikedysonx,mike..dyson,,what happend to Maddie?,27-2-2022,0
50,cryptodan,cryptodan,,imagine opening it upside-down,27-2-2022,0
51,alvin,_fiasco,,Still a subpar tech channel on YT,27-2-2022,0
52,Maverick,jakexmaverick,,I don't think it's tiny. I think it's a perfectly normal size. any bigger would be too big even,27-2-2022,0
53,user9910795007041,darkrising93,,Since when has SSD become the size of SD cards?,27-2-2022,0
54,Aaron,aaronbrink14,,do I hear a steam deck upgrade,27-2-2022,0
55,JoeyTheMythical,joeythemythical,,Collab with @theneedletok please,27-2-2022,0
56,Andy Chou,andychiayenchou,,Lol… Cisco RMA does the same thing,27-2-2022,0
57,imakeomelettes,brother_costica,,warhammer terrain 🤤,27-2-2022,0
58,Jokey Carrot,jokeycarrot,,steam deck upgrade vid?,27-2-2022,0
59,aether,ae_th_err,,if origin shipped ssds this is what we would get,27-2-2022,0
60,AnimeFanWASD,animefanwasd,,drop it,27-2-2022,0
61,user3115099732310,noooooooooooooon1,,The environment says thanks,27-2-2022,0
62,Thomas Vasquez,mrvasquez96,,looks like a Coral 🤔,27-2-2022,0
63,Espy,engineeringespy,,They know who they’re shipping it too.,27-2-2022,0
64,Josh Schorle,joshschorle,,This sounds like something @dbrand would do…. But it’s not dbrand.,26-2-2022,0
65,🇺🇦,_saintjavelin_,,Not even in an ESD bag?,26-2-2022,0
66,Death Sticks 666 🇺🇦🌻,deathsticks666,,and I thought buying a tiny item on Amazon and getting it in a humongous box was bad,26-2-2022,0
67,Jeff Bernard,arachmir,,if you stop dropping . they stop packing,26-2-2022,0
68,Jason He,jason.he54,,All that just for Linus to drop it,26-2-2022,0
69,NinjaXagor,ninjaxagor,,"Alright, but is it bigger on the inside? What's the capacity?",26-2-2022,0
70,Nicholas,nickwinskowski,,It would be awesome if they was all full.,26-2-2022,0
71,sunflower,thatsmysunflower,,I tried one of these small ssd from my friend lenovo g3 laptop wasn’t detected by my asus prime pro x570 mob anyone know why? Thank you,26-2-2022,0
72,eto_911,eto_911,,it looked like a m.2 cpu lol,26-2-2022,0
73,baker gamer,siecncenerd,,too much for so little 😢🔪,26-2-2022,0
74,Clapped,kkjoker1,,They just send u the box of 1000 and took out 999 😭,26-2-2022,0
75,Wolf Haley,wolfhaley71,,I'm a Lenovo tech and they do the same thing,26-2-2022,0
76,pigmqa,pigmqa,,"Hello Linus ""Ad block is piracy"" Tech Tips",26-2-2022,0
77,Ask07 Ask07,ask07bro,,thats average right,26-2-2022,0
78,You're pretty so I,nickknippenberg,,and to think I thought the package my sd card in was unnecessary,26-2-2022,0
79,alec,hn.alec,,where banana for scale?,26-2-2022,0
80,💯,qyshthevllaqko,,The box is for linus so he cant drop it,26-2-2022,0
81,yabai931,yabai931,,100 comment,26-2-2022,0
82,kraber,kraber.from.apex,,atleast it wont break,26-2-2022,0
83,????,_jorm_,,They know Linus very well,26-2-2022,0
84,imoet,chabbyx,,pranked by manufacturer?,26-2-2022,0
85,Brett Hornby,bdhornby,,Justify the several hundred in shipping and handling.,26-2-2022,0
86,Tik Toker,monkeylicker2169,,10000th like,26-2-2022,0
87,Gerald Hilliard,erosmagnum,,I have one of those. shocked that it's 500gb,26-2-2022,0
88,epic is bigbadbeast0928 mfs,nick_iggah,,and it's only 1.5tb 😂😂😂 overal,26-2-2022,0
89,Nagisa Shiota,silver_ground,,amazon stuff 😌,26-2-2022,0
90,Marcos LeBlanc,marcosleblanc,,It’s so Linus won’t drop it,26-2-2022,0
91,GoldAltrax,goldaltrax,,I think I saw u on yt b4 not quite sure,26-2-2022,0
92,Steve Slatky,steveslatky,,but it's actually reusing shipping boxes so really good on them for doing it. albeit it took more space in shipping than needed,26-2-2022,0
93,antartico,artar.tico,,it's average 😁,26-2-2022,0
94,Slyimy,sl1ym,,bruh first like,26-2-2022,0
95,Tech M.N.O (James),techmno,,that's too much plastic wrap. lol 😂😂,26-2-2022,0
96,spitThatOutRightNow,spitthatoutrightnow,,Want,26-2-2022,0
97,Manivela,manivelarino,,it's always Amazon. I get that it makes more sense logistically but feels like such a waste 😭,26-2-2022,0
98,goingoutlikeastreettaco,goingoutlikeastreettaco,,"tape, reel, or the whole roll",26-2-2022,0
99,Alexkane1,alexkane_1,,Can I have a pc🥺🥺,26-2-2022,0
100,King Jamal965,kingjamal965,,Thats good,26-2-2022,0
101,Jangajanga,jangajangaeyy,,😳,26-2-2022,0
102,ThatOneLazyGuy,theknownlazyguy,,you can never be too careful,14-3-2022,0
103,Walker O'Brien,sunnydelsol,,I need that SSD,28-2-2022,0
104,Bailey Leadbeater,lsd339,,Jesus what the hecking heck,26-2-2022,0
105,Sambhrant Thapa,mynameisjeff9630,,amazon be like:,26-2-2022,0
106,Maen Bitar,nightmarez5,,Amazon be like:,26-2-2022,0
107,UnmotivatedHero,unmotivatedhero,,that's a wifi card,26-2-2022,0
108,RinnerRabbit,rinnerrabbit,,Unrelated but micro SD cards… I want to eat them. Like… yes I just swallowed 500gb I am powerful,11-3-2022,0
109,OceanzMan,oceansman221,,waste of plastic bruh,26-2-2022,0
110,poboxy,poboxy,,"and that is economically sound, capitalism is broken",26-2-2022,0
111,Pongo ・ ポンゴ,pong_go,,SSSSD: Super small ssd,26-2-2022,0
112,Jayden Urizar,bobross420691,,Twerk,27-2-2022,0
113,David Krichauff,krichauff,,"After all researches and experiences, I highly recommend Mr Mich as the perfect trader for investors @michjsmith",27-2-2022,0
114,kian boden836,daisys_the_best,,That’s very average size 🥲,16-3-2022,0
115,Cocaindog,tuffthebear,,Why did I think it says std 😂,16-3-2022,0
116,Arkitekx,arkitekx,,not a chance looks to snall even for a 2242,15-3-2022,0
117,Blazej,blazejmusik2,,Well they are not jokeing when they say tiny ssd 😂,1-3-2022,0
118,Тимур,timurinventor,,и говорят что это максимально экологично,28-2-2022,0
119,Damo.h,damo.h,,Respec for the parleys,28-2-2022,0
120,i_o_i3,i_o_i3,,now you can transport a lot of ssd,28-2-2022,0
121,8700k,.8700k,,day 9 of asking to be on rog rig reboot???,27-2-2022,0
122,SamuraiZergling,samuraizergling,,"Looking at you, Dell.",26-2-2022,0
123,Chris Capener,simcapener,,So much waste.,26-2-2022,0
124,Shaan Bhakta,shaanbhakta,,Umm…. That’s perfectly average sized… some might even say it’s large,26-2-2022,0
125,Kalgeriax 101,kalgeriax,,My parents will use that black case to cultivate new plants.,26-2-2022,0
126,Annastasija,avoscast,,so much waste,26-2-2022,0
127,stcroix4chev,dynomitey,,"and 50 dollar part and 1500 in labor, fucking heater core",26-2-2022,0
128,8700k,.8700k,,day 8 of asking to be on rog rig reboot,26-2-2022,0
129,Geoff Hollingsworth,heavensopure,,must if irdered off wish 😂,26-2-2022,0
130,Brad Crabtree,crabst3r,,he had one left to sale and sent you his trash lol smart man.,26-2-2022,0
131,Joshua Lagat,fujiecho,,"Maybe the tiny SSD has a great personality if you got to know it better, and a larger SSD would definitely be too big.",26-2-2022,0
132,Dragon Bofa,dragonbofa7,,looks like a Steam Deck sized SSD,26-2-2022,0
133,large,nahwhyfr,,Linus I have a trade offer… a unknown condition intel i3 9100t for a 2080,26-2-2022,0
134,John,john.dog,,this is what its like ordering anything from arrow.com,26-2-2022,0
135,GlitchKid,glitch__kid,,Alienware SSDs be like,26-2-2022,0
136,appleuser62527771,miklerey,,"NCIX was all about the unboxing, respect your elders",26-2-2022,0
137,Nub096,nub096,,It’s pretty average size to me 😅,26-2-2022,0
138,vsoss,crustyhotdogwater,,crustyhotdogwater was here,26-2-2022,0
139,dazai uzumaki,nabulalmassawa,,that is amazingly expensive even just a 512gb like 200 bucks,26-2-2022,0
140,Tate,tatedeltaco,,This is the equivalent of no one giving a shit about global warming,1-3-2022,0
141,Daniel Minderhout,danielminderhout0,,@tado.56 no wtf how,26-2-2022,0
142,Loom,loom.yt,,Poop,26-2-2022,1
143,Jorge Díaz,alltrad3s,,The person packing “fuck the environment”,11-3-2022,0
144,Mike,mikeyarr,,we get BIOS chips and anything tiny like this. even if the box is obliterated in shipping it won't fall out and won't get damaged,26-2-2022,0
145,나요녀석PD,gm_media,,과대포장,15-3-2022,0
146,FlyingHigh,.flyinghigh,,Isnt this the M.2 SSD Type that goes in a Steam Deck?,26-2-2022,0
147,2019fn2021nf2022,c1001011100011000110,,😏😏😏,24-3-2022,0
148,el_lobo_66,oldmanplaysgames,,😂😂😂😂,17-3-2022,0
149,Andrew Sylvain,andrewsylvain,,😂😂😂,14-3-2022,0
150,maryam,kittey.pie,,😆,13-3-2022,0
151,xPluto,xpluto5120,,@dakidboomer,3-3-2022,0
152,Nova,nukagirl98,,@leviathanswish,26-2-2022,0
153,kristijanstipic47,kristijanstipic47,,😂😂😂,26-2-2022,0
154,iSyeikh™ Device HQ,isyeikhdevicehq,,2230?,16-3-2022,0
155,nosense4fus,nosense4fus_,,😂😂😂😂😂😂😂,26-2-2022,0
156,Laurence Gough,laurencegough,,good for the planet,26-2-2022,0
157,Erik,pyrorider,,"And i have to pay 2,22€ per liter gasoline to save the enviroment...",6-3-2022,0
158,Ali Srour,blessed_or_cursed,,cursed,26-2-2022,0
159,Jobba baiatmare,p.ennis68,,Twerk,3-3-2022,0
