,Comment Number (ID),Nickname,User @,Comment Text,Time,Likes
1,XLKY 666,xlky666,,Doesn’t work with all iPhones,8-7-2021,50
2,B,gottabme,,Gotta love Apple. They HIDE awesome features so normal ppl never find out.,9-7-2021,35
3,Mary Len Futch Winkl,marylenfutchwinkles,,Thank you,8-7-2021,51
4,Harpreet Thind,harpreetthind82,,How come this doesn’t work on 8+,8-7-2021,7
5,Tina😍,user7226460848432,,These are great! Thank you,8-7-2021,21
6,Rose M Newman,ladyrosemn,,Thanks 😁,8-7-2021,16
7,Barbara Anne Fell Lu,lubster05,,All great tips except Flashlight is not an option under system ?,8-7-2021,12
8,Oscar Montalvo,theoscarmontalvo,,I had no idea!! Thanks 🙏🏻,9-7-2021,3
9,OSillyMonkey,osillymonkey,,Back tap not available for iPhone 11,9-7-2021,18
10,Sabine Mueller,samuusa,,Thank you for the Live off!!!!,9-7-2021,4
11,AnimatedVideos,the.promises.of.god,,Wow awesome I didn’t know a few 🥰 ty,9-7-2021,1
12,user7125319690698 WOW,bahizetn333,,good things about iPhone📱📱📱📱📱📱📱📱📱📱📱,8-7-2021,5
13,Letty Nuñez,letttyy8,,Thank you!! Very useful,9-7-2021,7
14,Ryder Devareau,toolmanrob,,Very useful information,9-7-2021,2
15,Viktoria Lyn,vikki.crochets,,Finally tricks that work on my phone! Thank you!,8-7-2021,2
16,SusieMarie,susiemarie94,,Thank you finally new information no one else has covered this.,9-7-2021,2
17,Evangeline,etspice,,Thank you these are all very cool useful items to use one’s iPhone more effectively. Awesome Dude!!!,9-7-2021,2
18,LA💜🌸,_enlaergy,,"I’m sorry but these are not hacks 😂😂, so well known",15-7-2021,1
19,Suzanne Leibrich Cla,suzanneleibrichclabo,,Thank you my iPhone is such a mystery to me🙀 you explained everything very clearly.,9-7-2021,6
20,sweet999,tic999,,Who knew…thank you,9-7-2021,1
21,luzazapata8,luzazapata8,,Thank you.,9-7-2021,1
22,C D,oh_dah,,Thanks mate. 👍✌️,9-7-2021,1
23,Geanette Trumbull,tlcbyg,,Thanks!,9-7-2021,1
24,Bob Loeppky,bobaloue,,Thank you X 7 = 😁😁😁,9-7-2021,1
25,Jim Wulforst,jimwulforst,,Awesome,9-7-2021,1
26,Wellesleyking,wellesleyking,,Wow!!!!,9-7-2021,1
27,Life is Good!,msdonnarene,,Love it! Thank you 😊,9-7-2021,1
28,user2532541696006,msaejackson,,Thank you for sharing,9-7-2021,1
29,user6996441103282,luvtrails,,Super helpful!!!,9-7-2021,1
30,C. Oscar🇸🇻,adviser707,,Thanks. I learned a lot from this,9-7-2021,1
31,user5051815081162,user445071341,,Thank you very informative,8-7-2021,1
32,Loulou 😎,smiley_prince002,,"Never knew that😳 , thank you so much 😊",13-7-2021,1
33,Ram Goswami,user9921879998607,,Nice.,9-7-2021,1
34,user1120722150777,gigimama61,,Wow thank you,9-7-2021,1
35,cindy_56471,cindy_56471,,Thanks for sharing !!,9-7-2021,1
36,Sandi Sanchez,sandramax07,,Awesome 👏,9-7-2021,1
37,Love the life you want...,bumble_100,,Very helpful 🙏,8-7-2021,1
38,DebLan960,deblan0,,Great tutorial!,8-7-2021,1
39,Laurence P,cheflaurence,,Wow. Way cool. 😳,9-7-2021,1
40,Cris S,criss4731,,Cool👍👍👍,9-7-2021,1
41,jpprosperi5,jpprosperi5,,Thank you so much,9-7-2021,1
42,user9603442375888,amayaluvspink,,Thank you!,9-7-2021,2
43,Katy Carver,ccarverkaty,,thanks 🥰,9-7-2021,1
44,Jenafer,justjenafer,,Such great tips!!! Thanks.,9-7-2021,1
45,i am Darlene,darlenesky,,Wow 🤩 thanks,9-7-2021,1
46,ani,bard311,,Very interesting,9-7-2021,1
47,user4608238682669,scooterlady58,,which iphone are you using?,9-7-2021,1
48,Rev Idowu oluwatunmise,goldkeeper3040,,Thank you,9-7-2021,1
49,Doreatha/Dee,chillyd4431,,Thank you,9-7-2021,1
50,TT,ttsan2020,,Thanks!,9-7-2021,1
51,Chinu,user016405359,,Thank you 🥰,9-7-2021,1
52,Michelle Mendez,michellemendez184,,Thank you 🥰,9-7-2021,1
53,matiart,matias4years,,Your tricks are for the new iphone 12 only ? I cant find the pen to sign documents. I have an iphone X 🥴,9-7-2021,1
54,artmaltman,artmaltman,,Excellent.,9-7-2021,1
55,Susan Barrio Hernand,susiembh,,Thank you so much!I enjoyed your video very much and I sent you a friend request.,9-7-2021,1
56,laurafromli,laurafromli,,Awesome ♥️,8-7-2021,1
57,my2pmail,tt4fun0,,"Absolutely wonderful , be blessed for sharing !",9-7-2021,1
58,Abby,just_abby90,,Very informative. Very clear. Thank u.,9-7-2021,1
59,Lebowski,the_spoo_abides,,D U D E …😳,9-7-2021,1
60,jas142366,jas142366,,Only on the latest phones?,9-7-2021,0
61,JoeDino,papadeans,,I’m not sure what iPhone or iOS software you’re using but all those functions are at the top of the screen all the time. Continue next comment.,8-7-2021,0
62,Joe Adamski,joeadamski,,Didn’t know 6 of them. Cool,9-7-2021,0
63,Todd Hurley,toddhurley2,,He has a newer phone; looks like iPhone 12. I have a 10; doesn’t have all the dbl tap features like the12.,8-7-2021,0
64,Baynosa🌷,3moj1.w,,It doesn’t work,7-6-2022,0
65,𝒩𝒶𝓃ℯ 𝒱𝒶𝓇ℊ𝒶𝓈,zyxx.rq,,oh yes,20-3-2022,0
66,Gav3000,gavincraft270,,Already new,29-12-2021,0
67,Mr sankareh,modysankareh0,,Hey,9-10-2021,0
68,Suzanne Glencairn-Ca,suzanneglencairncampbel2,,Why don’t you just sign the document and then take a photo of it?!?,3-10-2021,0
69,IKG212,ikg212,,Brilliant one,3-10-2021,0
70,Gadi2709,gadi2709,,Very useful,2-10-2021,0
71,Buddyboom961,buddyboom961,,The double tap doesn’t give you the option for flash light.,28-9-2021,0
72,Dey Rhen,darrenmaeberongoy,,What happen if you OFF the background app refresher?,28-9-2021,0
73,Suez Airdnajela,suezairdnajela,,thanks,28-9-2021,0
74,user DocRick,docrll,,Thanks 🙏,9-7-2021,1
75,colourmerustandrose,colourmerustandrose,,Thank you,8-7-2021,1
76,Art Mark,artnyc69,,Thank you!,27-9-2021,0
77,Wendel,welldone9000,,It’s not a trick lol it’s an iphone features 🤣🤣,26-9-2021,0
78,ItsJustCricket,itsjustcricket,,So cool! Thank you! ⭐️,25-9-2021,0
79,michellestapleton909394,michellestapleton909394,,Wow! Thanks,23-9-2021,0
80,Paul Lee,paullee188,,Great tips!!!!!,19-9-2021,0
81,Hi,pizza_loves5,,Awesome! Thanks,19-9-2021,0
82,gladiolatorr,gladiolatorr,,WHERE IS MY FLASHLIGHT???,2-9-2021,0
83,JulieForrestYadlowski,julieforrestyadlowski,,Awesome!!,30-8-2021,0
84,Suzanne,auctioneer_1,,"Ty so much! You are awesome. Again, thank you for the help.",17-8-2021,0
85,user296823498982,nessa191989,,Wow,17-8-2021,0
86,Tuna,toona128,,Thanks,17-8-2021,0
87,Ann.Indira,caribrose37,,Many thanks 👍🏼,15-8-2021,0
88,Hadejia68,hadejia68,,This is wonderful,15-8-2021,0
89,robyn verrall,bullysmeatssa,,don't have an iPhone.. bye,15-8-2021,0
90,blkcatgal,blkcatgal,,I don’t have those camera settings on my iphone 8,14-8-2021,0
91,Danielr1947,danielr1947,,Phenomenal.,13-8-2021,0
92,Oteng Samuel,samuelkwakuoteng0,,Wowow this is good. Thanks for making us know much about iPhone .,8-8-2021,0
93,FIDZBAKKS,fidzbakks,,Very informative. Thanks for these tips.,5-8-2021,0
94,Mona_Carrasco,mona_carrasco,,Won’t work if you have a cover on phone,4-8-2021,0
95,Jennifer 65,jennifersromig2,,Thanks 😊,4-8-2021,0
96,Callmesassy60,patriciachilds1,,DOESNT wrk on iPhone 7 .,30-7-2021,0
97,Diana Didomizio,deana.m.i.a,,🤯😱😃oh my gosh!!!!,27-7-2021,0
98,Sana Elyoussoufi,sanaelyoussoufi,,1000 tack,26-7-2021,0
99,ETHICAL TIK TOK USER,random69random70,,If you don’t know this option then you got an iPhone for show off,24-7-2021,0
100,Pamela Guiles,pamelamoates,,Thanks,23-7-2021,0
101,Rambo604,mahal.makeup,,Wow that was awesome! I learned so much from this one video!!!,23-7-2021,0
102,Innovative Creative Agency,innovativecreativeagency,,"Easier to use the signature feature in Notes, it’s made for capturing documents.",23-7-2021,0
103,user1856676194075,chellbell1977,,😳I didn’t know them thank you 😊,23-7-2021,0
104,whome0653,whome0653,,Hell I’m a new iPhone user just over a year and those are old tricks,22-7-2021,0
105,Daisy Pabon,daisypabon0,,Can you show me that it someone called me and I put them on camera can I see them from far distance what can I do to see that person in the camera,22-7-2021,0
106,Kachina55,kachina55,,Thanks a lot!😁,22-7-2021,0
107,Derekchip,derekchip,,Thanks man,22-7-2021,0
108,ascebra,ascebra,,Oh man! Thank you !!!!,22-7-2021,0
109,user9428150086959,joyceclementine,,I’m listening but only 1/5 of the stuff can fit in my brain. I’ll keep watching thiii.,21-7-2021,0
110,I’m blessed Roma,imanovercomerroma,,Not seeing back tab for my iPhone 7,19-7-2021,0
111,user5208868053223,user985641991,,Thank you!! ❤️,19-7-2021,0
112,Virginia Mendez,virginiamendez47,,Thank You,9-7-2021,1
113,3865,rabeet_doublecranch,,Yes thank you,19-7-2021,0
114,sonofapoorman,sonofapoorman,,All awesome thank you for sharing,18-7-2021,0
115,allonce,joaneall,,Thanks 🙏🙏🙏,9-7-2021,1
116,nicestgal,giggly_gal,,Totally awesome thanks! I really appreciate it! 🥰,18-7-2021,0
117,Maria Carson,mariacarson2,,Thanks for great tips👍,18-7-2021,0
118,lbr4525,samtictalk,,Not for iPhone 8,17-7-2021,0
119,Johnansen,emperor_ofkings,,How do I get raw,17-7-2021,0
120,Cynthia Cordova,bindeejoon,,Thank you Sir! 😁,17-7-2021,0
121,judy102853,judy102853,,Great,16-7-2021,0
122,Jeffrey Noppenberg,jjnoppy,,Thx. Great Info,15-7-2021,0
123,Medad Midler710,bigm2457,,Tks,14-7-2021,0
124,Anita Hupp,anitahupp,,Wow thank you learn something new every day,13-7-2021,0
125,Nazareth Alfred,nazarethalfred,,Very useful tips! Thank you 🥰🥰🙏🏽,13-7-2021,0
126,user Leslie Williams,the_brownfox,,Thanks Pal. ….. Leslie,13-7-2021,0
127,TeeJ,_tteejj_,,Meh 😑,13-7-2021,0
128,Sybil Martinelli,sybilmartinelli,,Cheers awesome,13-7-2021,0
129,sindu3,sindu3,,How do I get the power saving mode? I don’t have the battery icon,13-7-2021,0
130,65thunderbirdconvert,65thunderbirdconvert,,"How do I use my iPhone during doing Doordash deliveries more efficiently. I was stuck in Apple Maps, and I have google Maps too",13-7-2021,0
131,65thunderbirdconvert,65thunderbirdconvert,,Wow good information. Thank you 🙏,13-7-2021,0
132,cindy39ish,cindy39ish,,Thank you! Can’t wait to try these,13-7-2021,0
133,Vivian Smith,user480364200,,Thank you this is very helpful,13-7-2021,0
134,Valarie,valval139,,Thanks🥰,13-7-2021,0
135,Manuel Goyanes,manuelgoyanes1954,,Thank you! This was very informative and helpful!,12-7-2021,0
136,user1398621319864,angelescale,,Wow… cool… thanks,12-7-2021,0
137,Christine Orr,crissy5050,,Cool!!!,12-7-2021,0
138,chai5.co,chai5.co,,Very cool,12-7-2021,0
139,Judy Yarbrough,judyyarbrough0,,"Awesome, thanks!",12-7-2021,0
140,Jane Borg,janeborg123,,the camera not working for me,12-7-2021,0
141,rosegatta310,rosegatta310,,Thank you so much I knew about the airplane mode charges your phone faster,12-7-2021,0
142,user6184924727874,.ocean2020,,Thank you🥰,12-7-2021,0
143,hat56hats,hat56hats,,Wow,12-7-2021,0
144,Scott,scottie924,,Thanks!,12-7-2021,0
145,Pamela Johnson,userpmj,,Great tips thank you🥰😁🥰😁,12-7-2021,0
146,Kimer04,kimraederdowden,,"TY, backtap for screenshots but photos wasn’t an option.",12-7-2021,0
147,user7275454379397,andrearenee55,,Great tips,12-7-2021,0
148,Lala,sun_shine0205,,Ha ha already knew this,11-7-2021,0
149,susanrogoski0,susanrogoski0,,Ty🥰,11-7-2021,0
150,Caldwellcutie -Jojo,caldwellcutie,,These are fantastic tips,11-7-2021,0
151,John Mendel,macrtst,,You totally closed over the ability to change the photo ratio under the photo options. I keep mine on the full screen 16:9 instead of the usual 4:3.,11-7-2021,0
152,Rose Niekrewicz Winters,realtorroseinfl,,Can you do a video about adding widgets and how you get them so small? Mine are huge and take up half the screen.,11-7-2021,0
153,ArjunReddy,arjunultimately,,"Awesome, thanks for letting us know",11-7-2021,0
154,English Eden,englisheden,,Very cool! 👏🏼,11-7-2021,0
155,T Money Love,mrtmbrown,,Wow !! Thanks,11-7-2021,0
156,Marcia Boafo733,marciaboafo2,,Thanks,11-7-2021,0
157,G.Grandma 🇺🇦,g.grandma2,,Good to know,11-7-2021,0
158,user1888114879667,lucci1966,,Awesome!!,11-7-2021,0
159,PJ 56,sassygirl19840,,Thanks,11-7-2021,0
160,user5252765377555,redhairybear,,Thanks,11-7-2021,0
161,Dona Geron,donageron5,,How cool.,11-7-2021,0
162,user4946089510006,bcnyavic,,So much 😁,11-7-2021,0
163,user4946089510006,bcnyavic,,Thankyou do much,11-7-2021,0
164,Kym Pritchard,pritchd,,Thanks,11-7-2021,0
165,Susan86755,30svs,,Thanks 👍,9-7-2021,1
166,user1561500070808,kibby2009,,Thankful!,11-7-2021,0
167,Anjol Love Ritchie,anjolloveritchie,,Thank you so much . Amazing information that helped me . I appreciate you abs you doing this . Namaste,11-7-2021,0
168,John,whateverworks29,,These are great I need to upgrade,11-7-2021,0
169,Flore Di,floredi1,,Awesome,11-7-2021,0
170,ducksoup1944,ducksoup1944,,You are right. I knew nothing about these trips. Thank you. Really helpful.,10-7-2021,0
171,Terri,craz4k9s,,Thank You for sharing,10-7-2021,0
172,Jaylobig,jaylobig,,Like,10-7-2021,0
173,Grace August,chelitausa,,Wow excellent thanks,10-7-2021,0
174,Malu,maludog_1,,Thank You,10-7-2021,0
175,mindysavitt,mindysavitt,,Doesn’t work,10-7-2021,0
176,Pearl,p_leong,,Hmmm doesn't work on iPhone 7,10-7-2021,0
177,user1222911809406,jigneshpatel1310,,Can bring how to use notes and transfer notes to computer,10-7-2021,0
178,Yogita,yogita7861,,Thank you very useful !,10-7-2021,0
179,sheriames340,sheriames340,,Interesting,10-7-2021,0
180,msrhett102,msrhett102,,Thanks for sharing,10-7-2021,0
181,Kathy Zeran,kathyzeran59,,Great tips! Thanks so much. This video is very concise with great info. You speak nice and slow so it’s very easy to understand and follow along,10-7-2021,0
182,.Sheila✅,fersuremaybefersurenot,,Awesome thank you!,10-7-2021,0
183,Aastha,blackmoondior,,No one knew about this?,10-7-2021,0
184,Karen Hughes Buccill,karenbuccilli,,"I’ve learnt something new today, thank you!",10-7-2021,0
185,user2165223197606,tammyw63,,Thank you,10-7-2021,0
186,Steve Grant,stevegrant57,,Wow,10-7-2021,0
187,NEW-NAME,artnpsych,,"😏know all this information at my age, I’m pretty sure much younger people will know!",10-7-2021,0
188,Consuelo Villa-Twigg,consuelovillatwigg,,Thanks. You are bright and generous .,10-7-2021,0
189,Debbie Garcia710,deb.garcia710,,Thank you,10-7-2021,0
190,Wynette C.,gnubrdgirl,,Thank you,10-7-2021,0
191,CHOQLIT SONGBIRD OFFICIAL,csbmuziq,,Thanks for the camera knowledge.,10-7-2021,0
192,Officially Susan,officiallysusan,,8 plus does not have all these options.,10-7-2021,0
193,HenKin.V,henkin.v,,Really useful,10-7-2021,0
194,sandratrudgeon,sandratrudgeon,,Flashlight Not for iPhone 12 Pro with IOS 14.6,10-7-2021,0
195,alohafromVicky,alohafromvicky,,Love those !!!,10-7-2021,0
196,Alex,alex_04462,,Pretty cool,10-7-2021,0
197,user4229537397463,wandagirl77,,Thank You 😊,10-7-2021,0
198,CJ,go2021now,,"Please state the iPhone this applies to, as it’s not all",10-7-2021,0
199,user5776361541996,dr_m_wash,,Thanks for sharing,9-7-2021,0
200,Trae C Fergie,traecfergie,,I don't have the flashlight option for back tap. WTH?,9-7-2021,0
201,Mel Tilley,mel.tilley,,Very helpful,9-7-2021,0
202,user87058872806,tudobem31,,Thank,9-7-2021,0
203,Arts4Life,arts_4_life1,,Thank you so much I have owned my iPhone 11 Pro for over a year and I had no idea that any of these features existent you’re awesome,9-7-2021,0
204,Charlie Baker405,charlie742960,,Thank you for sharing,9-7-2021,0
205,Courtney Russo/WindSeeker,windseeker.art,,Wow. I have a 10smax and I had no idea the back tap feature worked with it,9-7-2021,0
206,user6925318115179,ito626,,"Thank you so much, you are awesome",9-7-2021,0
207,2121 lucky black30,buff55black2121,,Thanks,9-7-2021,0
208,Teena V Ezell,nail_melodies,,Awesome! Thank you,9-7-2021,0
209,dorothycook7235,dorothycook7235,,Ty,9-7-2021,0
210,MeditatorBitch,meditatorbitch,,How did you add the camera to the double tap custom actions list? My iPhone does not list the camera as an option to double tap on the back of the pho,9-7-2021,0
211,Magdalena,magdalena_2912,,Thanks!,9-7-2021,0
212,user5395825510833,qstar1us,,Thank you!,9-7-2021,0
213,Bri,brianniscool,,Thank you,9-7-2021,0
214,azita aminian,azitaaminian,,Hi Saj. You are a genius ❤️❤️❤️😘😘😘,9-7-2021,0
215,Mali,iblillu,,Cool 😎 thank you 🙏,9-7-2021,0
216,jru2477,jru2477,,Where’s the last 2. Only showed 5,9-7-2021,0
217,Sims 4 fan,simsfanaticc,,Thank you!!!!,9-7-2021,0
218,Cecilia Bolainez,ceci0264,,Thank you,9-7-2021,0
219,mystinen12345,mystinen12345,,Thank you 💖,9-7-2021,0
220,Crystal McCay,crystalmccay1,,"Nice, thank you",9-7-2021,0
221,Simone,iamsimone65,,I have the XR and I just tried some of these things and oh my God you have made my life so much easier thank you so much,9-7-2021,0
222,user4414568670305,lavender23000,,Thanks!!,9-7-2021,0
223,Janine Jordan,janinejordan1,,Mine didn’t have the option on scroll for flashlight,9-7-2021,0
224,user5684582636531Om,iandthouspirit,,Wow thank you👏🏽😍❗️,9-7-2021,0
225,user6368432394264,curiousresearcher0,,Thanks!,9-7-2021,1
226,Nick,nickpiglarry,,How come I don’t have a flashlight as an option for the double tap or triple tap?,9-7-2021,0
227,debra gold,gold_inthe_house,,These are great!!! Thanks!!,9-7-2021,0
228,Elena Pantazi,elena_pantazi.v,,👍 perfect,9-7-2021,0
229,user4319769428927,noelani66_96,,Camera trick doesn’t work on my phone,9-7-2021,0
230,Thomas Rowland,thomasrowland84,,Mine only has control centre instead of flashlight. Anything I can do?,9-7-2021,0
231,Kacey Regina Bostrom,krbostrom,,These are terrific! Thanks!,9-7-2021,0
232,Imee20,reign777,,Thank you,9-7-2021,0
233,Granny Black,grannyimm,,Doesn’t work for backtap if you have a case on your phone,9-7-2021,0
234,user1459311711122,dandkflower,,Thank you for your time and expertise!,9-7-2021,0
235,Nathaniel78526,nathaniel78526,,"The tap option got me in trouble, it zoome my screen and I could not get out",9-7-2021,0
236,westcoaster6,westcoaster6,,"Very helpful, especially signing documents 👍",9-7-2021,0
237,Janet Matthews561,janetmatthews22,,Thank you I didn’t know any of that,9-7-2021,0
238,penningtongal57,penningtongal57,,Thanks for sharing,9-7-2021,0
239,Walkiria Franco,walkiriafranco3,,"Thank You Brother, God Bless you",9-7-2021,0
240,Wesley Garland Jr.,wesleygarlandjr,,Show me how to make auto fill work when I need to use it. iPhone six on auto fill. The Android is way better,9-7-2021,0
241,꧁༺VØłĐӾ༻꧂,voidxx,,I knew them all,9-7-2021,0
242,Brenda,gmom2008,,Wow! Thank you!,9-7-2021,0
243,morecowbell11,morecowbell11,,iPhone XS no option for exposure.,9-7-2021,0
244,Frank Doolin,user945202625,,Wow,9-7-2021,0
245,the_dicksta,the_dicksta,,Thanks that was great !,9-7-2021,0
246,user8227520309783,handymannythedognanny,,Thank you for sharing that!,9-7-2021,0
247,Joy Gee,joygee2,,Not my iPhone.,9-7-2021,0
248,Cathy Gotheridge,cathygotheridge1,,Thank you so much,9-7-2021,0
249,Janice Rogers,janicerogers12,,Great,9-7-2021,0
250,Brian Deitch,briandeitch,,Bro you just went 0/7. Nice try 🥺,9-7-2021,0
251,user5053408094232,usda1951,,Thanks,9-7-2021,0
252,Rubin,elmwood124,,Very interesting thanks! 👍,9-7-2021,0
253,Linda Norman,lindanorman55,,@jesstrezona you probably already know these,9-7-2021,0
254,Eric,torsiondrummer,,Nothing new….,9-7-2021,0
255,seven2tall,seven2tall,,iPhone for beginner 😂,9-7-2021,0
256,Karen VandenLangenbe,karenvandenlangenberglam,,Wow! Thx.,9-7-2021,0
257,💎,vogueissue2,,Great hacks,9-7-2021,0
258,hi,vicks533,,Ur awesome! Thx for sharing,9-7-2021,0
259,user9652335466586,clrscomedy,,That was 5,9-7-2021,0
260,myregistration,myregistration2,,"Awesome content, delivery, and production. Thank you.",9-7-2021,0
261,Peggy Sue Clark-Harr,user60497934541823,,Awesome,9-7-2021,0
262,psbrkb,psbrkb1,,I have 11 and it’s there but no flashlight or most of his list isn’t available on it. Bummer,9-7-2021,0
263,grambet1,grambet1,,Thanks🙂,9-7-2021,0
264,Marice,chela531,,Great Thanks For Sharing,9-7-2021,0
265,Fara Kaviani,faztrekie,,"Didn’t know much, specially tapping back your phone. to turn on the light. Thank you for info👍",9-7-2021,0
266,Leighton Palamore663,leicopal9,,"Awesome, Thanks!!",9-7-2021,0
267,Andrea Sealey15,andreasealey1,,Useful wow,9-7-2021,0
268,Jane Cote,misspickerelgoestomars,,"I wish. Nope on the very first one. If I slide up, it takes a picture. Maybe my phone is too old?",9-7-2021,0
269,Tracy Woods,lovett817,,Thank you.,9-7-2021,0
270,Michael Lair,michaellair1,,All good but don’t like double tap cause it works to well 😂,9-7-2021,0
271,user3849548510469,angelarxer,,What??? Thanks!! I had no idea!,9-7-2021,0
272,Phillip Epps,phillipepps01,,That signing documents is very useful thank you 😊,9-7-2021,0
273,Jeannie but call me Neenee,littlewitchleo,,Any true Apple fan/user knows all this lol,9-7-2021,0
274,user2638640731205,dawnpardorealtor,,Awesome tips! Thank you.,9-7-2021,0
275,user2754194355440charlie,charlieseenager,,Thanks!,9-7-2021,0
276,Sonia Guzmán,soniaguzman6600,,I checked my camera and it doesn’t do that! I have an 8+,9-7-2021,0
277,Your Mom,momsgotgoodmeds,,Nope,9-7-2021,0
278,Lori Hollins-Slater,lorihollinsslater,,Yay! Thank you,9-7-2021,0
279,HoneyHolden,honeyholden,,Touch - holy cow! That’s awesome,9-7-2021,0
280,Betsy_at_the_lake,betsy_at_the_lake,,Very helpful!,9-7-2021,0
281,Linda Kash,lindakash2,,Thanks,9-7-2021,0
282,Chisholm,chisholmone,,The revelations are appreciated,9-7-2021,0
283,Sammi,samsonbellingjam,,Thanks!,9-7-2021,0
284,TJ Drippin teen 💰,dorothyhana2,,Thx🥰,9-7-2021,0
285,user8798123629124,static818,,nice to know,9-7-2021,0
286,John Heenes,johnheenes,,"i have iphone xplus and have a total different photoscreen, these options are not on my phone",9-7-2021,0
287,Jumbo,userjumbo1,,That is so helpful,9-7-2021,0
288,user547134,userurgtpyz77u,,Thanks,9-7-2021,0
289,pamalamaeallen,pamalamaeallen,,Mine dose not have flashlight,9-7-2021,0
290,mzbaker305,mzbaker305,,ty!!,9-7-2021,0
291,DuduJaan_23,shaheen4fazal_2314,,Awesome 🙏🙏,9-7-2021,0
292,Susie Q,suzzieq68,,Thank you so much!,9-7-2021,0
293,deborahharvey8,deborahharvey8,,Thank you,9-7-2021,0
294,wedadabbas413,wedadabbas413,,Excellent thank you 🙏,9-7-2021,0
295,angel serra,nujerze523,,Thanks,9-7-2021,1
296,user2398976853511,geegaa1962,,Thanks!,9-7-2021,0
297,Linda Jackson,lindajackson178,,Thanks 🥰,9-7-2021,0
298,Cathy Ann Wright,cathyannw,,Thank you,9-7-2021,0
299,Mazal Talmor,user74979314,,Love it!,9-7-2021,0
300,John Levin,johnlevin0,,wow,9-7-2021,0
301,user6968157589289,kpkit609,,Awesome,9-7-2021,0
302,Charlyn Paisley,cjp0502,,Thank you!,9-7-2021,0
303,user9255115838574,sylhernandez58,,I have spotlight,9-7-2021,0
304,marykey479,marykey479,,Good,9-7-2021,0
305,holgerwemmer,holgiwan,,Who didn’t learn anything new? ✋🏼,9-7-2021,0
306,The man from Antarctica,antarcticaman11,,Yes I got all of those but you forgot one and I’m keeping it to myself because if you knew about it you’ll be a big surprise,9-7-2021,0
307,"tra,Shaka",trashaka123,,"So when a person calls, who do I set it up so it says there name",9-7-2021,0
308,Anthony Younan,anthonyyounan,,Not working camera app,9-7-2021,0
309,mohamedhaider7235,mohamedhaider7235,,Thanks for the information,9-7-2021,0
310,Michael Sheridan,real_michael_sheridan,,Thanks 😁,9-7-2021,0
311,dan_11232,marineboy0077,,Wow I like that 😎❤️🇨🇦,9-7-2021,0
312,Purplpassipn,dwhitney22,,Thanks,9-7-2021,0
313,Rich Richardson,richrichardson00,,That was cool,9-7-2021,0
314,David Zeng75,user559500873,,Awesome!,9-7-2021,0
315,user5914719115166,positivepooch,,cool,9-7-2021,0
316,Luv Dogs,charliebendyy,,Are you Persian 😁🥰,9-7-2021,0
317,user9734344816279,ladibug245,,Great,9-7-2021,0
318,Elisa Mendez,elisamendez22,,Ni an option on my iphone,9-7-2021,0
319,Gabriel Rodriguez,rollytheclow,,Nuce,9-7-2021,0
320,Bandit,freespiritfarmgirl,,I don’t have the low power when I go to that screen,9-7-2021,0
321,Giuliana Valladares,giuli215,,Amazing hacks … thank you so much,9-7-2021,0
322,William Freeman,williamhutchens69,,Thanks,9-7-2021,0
323,salcidoveronica43,salcidoveronica43,,Thank you,9-7-2021,0
324,Michelle M,mishka020106,,This is so helpful,9-7-2021,0
325,LisaT,lisaturner210,,My camera doesn’t have exposure,9-7-2021,0
326,Cindy,dirtnaturegardenlover,,Dang!,9-7-2021,0
327,Gigafidan,gigafidan,,I love the one were you can share your location but it can also be a bad thing as well to use,9-7-2021,0
328,QueenB69,lizzie69691,,Thank you I had no idea 😂,9-7-2021,0
329,Denise😇💗,denise02220,,Thank you for sharing 🥰🥰,9-7-2021,0
330,user9083276936831,bikerhikerswimmer,,Thanks,9-7-2021,0
331,user442795279559,ladylovesflowers,,Good stuff..thank you🥰,9-7-2021,0
332,Beverly Lachance,beverlylachance,,Awesome,9-7-2021,0
333,Missy Styx,missystyx,,That’s wonderful thanks,9-7-2021,0
334,lehuadesigns,lehuad3signs,,Thank you!,9-7-2021,0
335,ErickKline,erickkline,,Excellent. Well done!,9-7-2021,0
336,Vicky H,vhannah13,,Thank you!,9-7-2021,0
337,Robin Lewis Nazon,robinlewisnazon,,Thanks!,9-7-2021,0
338,Insert name here,belle4334,,Taking better pics?? Not a fan of iPhone 11 and 12 camera,9-7-2021,0
339,ALUNAlove001,alunalove001,,Thank you,9-7-2021,0
340,EDDIE GONZALEZ,azcre,,Rad 😁,9-7-2021,0
341,Jenny Vonderwerth,jvonderwerth,,"If there were seven tricks, I think we’re only seeing five",9-7-2021,0
342,user7212754649079,thedarcym5,,Whoa! Thank you,9-7-2021,0
343,Susan Tabas Tepper,susantepper,,On the iPhone 12+ max pro well the double tap work with a case,9-7-2021,0
344,Ever Otto,semi_otto_matic_films,,"Wait, y’all didn’t know these?",9-7-2021,0
345,The Fixer,positivevibzzzzzz,,Wow 🤩,9-7-2021,0
346,Davacy,davacy,,Thank you!!,9-7-2021,0
347,Chris Nurvo,crispyone_eh,,FYP you can almost hit the down arrow at the top of the photo screen,9-7-2021,0
348,Debbie Freeman Jones,deb8034,,"I don’t have those other options on my camera, I have an iPhone 8",9-7-2021,0
349,user5262954989690,jett3225,,Does not work ok all,9-7-2021,0
350,Sheila Davis,shed927,,Thank you Mucho!!,9-7-2021,0
351,Kelinda,keellinda,,Mine only lets me do filters at the bottom.,9-7-2021,0
352,Dawn Zeigler248,dawnzeigler12,,Cool,9-7-2021,0
353,Chloeluv&MayaWara,chloeandmaya7,,Yep know it all 😁😁,9-7-2021,0
354,Rene Mattek,mattek1967,,I figured it out!! Yay!!,9-7-2021,0
355,Rene Mattek,mattek1967,,What if I don’t have the battery icon? Is there a way to put it there?,9-7-2021,0
356,finishstrong,finishstrongc,,From what iPhone to what iPhone series because mines made not be included,9-7-2021,0
357,Loydaboro,loydaboro,,Thank you,9-7-2021,0
358,Laurie Allori,laurieallori,,Darn it. I couldn’t find the flashlight to do the back tap.,9-7-2021,0
359,Greg Blayone,gregblayone,,Thank you vm,9-7-2021,0
360,Lorraine Davidson,loridee2468,,Thank you,9-7-2021,0
361,I Know Things,peace4me2020,,Very helpful,9-7-2021,0
362,Myalero,myalero,,Great job,9-7-2021,0
363,Scott Kinmartin ,scottkinmartin,,So…is it 7 or 5 or 12 tricks?,9-7-2021,0
364,C_C 🌈🦄,chilo2222,,"Great tips, thank you!",9-7-2021,0
365,Fitterman,fitterman,,Great tips,9-7-2021,0
366,olivia,tekedaelsacopontelo,,Thank you,9-7-2021,0
367,KellyLynn,kellylynn9965,,Yessssss,9-7-2021,0
368,__Theplug,__theplug,,who has an iphone and don’t know this tricks 🤦🏾‍♂️🤦🏾‍♂️,9-7-2021,0
369,Rimma Kambarova,rimmakambarova62,,Thx,9-7-2021,0
370,vidully,vidully,,5️⃣ or 7️⃣⁉️,9-7-2021,0
371,KS22,kellygurl22,,Ty,9-7-2021,0
372,Petra Munnoch,petramunnoch,,Thank you for explaining it slow enough that I could actually follow and understand 😁👍🏻,9-7-2021,0
373,lviaavalos23,lvialvia23,,New follower🙋🏽‍♀️Thank You😊,9-7-2021,0
374,janetkreiner429,janetkreiner429,,Thanks!!!,9-7-2021,0
375,Sylvia Surdam-Almind,sylviasurdamalminda,,Thanks,14-7-2021,1
376,Maggie DeGenova Cine,mdc5152,,Thanks. What happens if I don’t have flashlight as an option? How do I get it?,9-7-2021,0
377,Miro Monghi,miromonghi,,THANKS 🥰,9-7-2021,0
378,Burtman,therealburtman,,"These are great, but flashlight didn’t show up on the options list for the double tap?",9-7-2021,0
379,user495388737286,user495388737286,,low power mode is not available as a default. you have to add to the control center,9-7-2021,0
380,MsZbird,mszbird,,"Omg, why do these phones have to be so complicated! Makes me miss the rotary phone 😳😳😳😳",9-7-2021,0
381,Alex Motivates,alexmotivates,,"Good stuff, thanks! ✌🏽",9-7-2021,0
382,user1107211603790,likes_ideas2,,Thanks,9-7-2021,0
383,user8057886098866,platinum691,,Not all IPhone,9-7-2021,0
384,Sharon M,dootneyyme,,Thank you❗️,9-7-2021,0
385,Smilemker7,smilemker7,,Wow!!! Thank you!😁😁👍❤️,9-7-2021,0
386,Minerva,justliketheromangoddess,,How come I don’t get the battery option? I have an iPhone 11 and it’s up to date.,9-7-2021,0
387,Angelo,angelostiktok,,Not for all iPhones tho I have an 8plis,9-7-2021,0
388,Bob Feather,bobfeather,,Keep them coming love them so helpful,9-7-2021,0
389,TanMD,tangeladavis66,,Thank you 🥰,9-7-2021,0
390,Letha082,letha082,,Thank you!,9-7-2021,0
391,TJPep,tjpep,,I’ve had the double tap option on for a while but it still does not show me the option for flashlight 🥺,9-7-2021,0
392,user1048048171174,ohfortheloveofpete,,My phone is too old for back tap 😭😭,9-7-2021,0
393,CostaRica1991,costarica1991,,I have the newest iPhone but I don’t have the mark up to sign the document .,9-7-2021,0
394,Ralph Webber,ralphwebber,,well I seen two,9-7-2021,0
395,user6777596798859,chrissytina574,,Any Android tips??,9-7-2021,0
396,Rhonda,ronniebask,,Thank you for sharing 🙏,9-7-2021,0
397,Debi Smith-Dixon,debismithdixon,,Thank you so much,9-7-2021,0
398,AkiStoy,akystoy,,Omg. I kept looking for the timer in the camera and never found it!!!,9-7-2021,0
399,annieLafa,annielafa,,Thanks! Great tips!,9-7-2021,0
400,user6738801573151,galady26,,Thanks for the tips.,9-7-2021,0
401,deborahhambrick1953,dh1953,,Thank you,9-7-2021,0
402,user520223,user52022350,,Wow thank you so much very informative,9-7-2021,0
403,Crazy life,speakingmymind1985,,These are all old,9-7-2021,0
404,user7907590440433,rodolfojude,,Nice 👍,9-7-2021,0
405,LaLaLozano59,lalalozano59,,Thank you! I just tried it,9-7-2021,0
406,✅ dianabeal,dianabeal,,That’s good to know. I’m new to iPhone ty,9-7-2021,0
407,Twyla Renee Varnado,twylareneevarnado,,Thanks,9-7-2021,0
408,S_Butler4,s_butler4,,Doesn’t work on X,9-7-2021,0
409,Abide,aij12tribes,,Nope,9-7-2021,0
410,user7859216508691,violet1932,,So cool thanks,9-7-2021,0
411,Paris Mann Geonzon,georgemdrn,,Thanks,9-7-2021,0
412,JoeDino,papadeans,,The only thing you get by pushing up is the filter settings.,8-7-2021,0
413,Labeba Solari,labebasolari,,"🌹UFF, you have so many icons in your menu screen, how did you do that ??? 🌹",8-7-2021,0
414,MJM13,mjmmmmm13,,Thank you so much!,9-7-2021,0
415,Karen White,kazzmar369,,Thank you 👍🏽,9-7-2021,0
416,Nellstar76,nellstar76,,Awesome,17-9-2021,0
417,D Crutchfield,dfcrutch,,IPHONE should teach us this stuff,27-8-2021,0
418,user5893277216802,wickedrydah187,,Who the hell didn’t know all these not hidden features????,15-7-2021,0
419,user1618262984144,suewebbe,,That’s great show me more😳😳,9-7-2021,0
420,Nictree,nictree00cool,,How did you get your steps for the day on a widget?,9-7-2021,0
421,Nahom,nahomtaker,,"There’s nothing new here, everybody knows it",9-7-2021,0
422,Your Hometown Bestie,hometownbestie,,Open Shortcuts > Create shortcut (Flashlight if you wish) Then go to Settings > Accessibility > Touch > Find your shortcut @ the bottom,9-7-2021,0
423,Su,su.2080,,I don't have it,9-7-2021,0
424,followerofchrist803,followerofchrist803,,"i wanted to let you guys know Jesus died to forgive your sins. accept that free gift and choose life, have a good day.",30-8-2021,0
425,user7993196019120,kboulding,,Thanks,10-7-2021,1
426,Yvonne Pettine-Padil,yvonnepettinepadilla,,Interesting,17-7-2021,0
427,Donya,dointhemostwithdonya,,Thank you!,11-7-2021,0
428,Victaaa,vik_taa,,Big thanks 🙏,10-7-2021,0
429,user8692425986521,sally1of3,,That’s awesome. Thank you.,9-7-2021,0
430,Comments for laughs,loveandlaughxo,,I don’t have the flashlight camera etc why?,9-7-2021,0
431,gladiolatorr,gladiolatorr,,HOW COME MY FLASHLIGHT DOES NOT COME OUT ON THE DOUBLETAP CRAP UGHH COULDN't DO IT😡😡😡 I HAVE IPHONE!!!,2-9-2021,0
432,staceyjohnson6426,staceyjohnson6426,,Double tap doesn’t give me options like flashlight & camera- which I use ALOT! 🥺,16-7-2021,0
433,Maxski,maxrochski,,Omg. I feel so dumb🙏,11-7-2021,0
434,Syllyg13,sylvialealgandarillas,,Only on the newer iPhones 🤦🏼‍♀️,9-7-2021,0
435,💟DJ Kreative💟,kreativekittiz,,"You need to include iOS version too! We don't ""all"" have the first one. 🤷🏽‍♀️🤷🏽‍♀️🤷🏽‍♀️💟💟💟💟",9-7-2021,0
436,unknown,chanknown,,already know all those things 🤦‍♂️,9-7-2021,0
437,user7633501461018,stuffnthingstodo,,I don’t see camera on my list for the hidden button,9-7-2021,0
438,Connie Morrow,cheldara,,Thanks so much — definitely teaching this ol’ woman new tricks 🌷,9-7-2021,1
439,Speecher,speecher,,Back tap too sensitive. Always going off when not intended.,9-7-2021,1
440,ChrisSeah,bc8t,,Appreciate it. Good pace. I am able to follow,8-7-2021,1
441,KStew,kstostew,,!!!! The hidden tool bar! Followed!,9-7-2021,1
442,Grace Patrick,user9870595770103,,Wow!! Never Knew!! Thanks for educating an I-phone dumbass like me!! 😳😁,9-7-2021,1
443,Akua Bhreezy,akuabhreezy,,How can u track someone’s WhatsApp messages,4-8-2021,0
444,GoldiePiTzu,goldiepitzu,,Back tap didn’t work on my 11,23-7-2021,0
445,JohnMrMustard,johnmrmustard,,"If you can’t see things like camera or flashlight, you can add by going to shortcuts first and creating them.",12-7-2021,0
446,hsweetheart44,hsweetheart44,,Wtf how did you figure all this out wow 🤯🤯🤯🤯🤯🤯🤯,12-7-2021,0
447,TxLaLaTx,txlalatx,,Ummmm….. will you marry me! Lol kidding!! Thank YOU THOUGH!!! ❤️❤️,10-7-2021,0
448,Bang bang,euro_style_top,,So basic,10-7-2021,0
449,massivetwinkie,massivetwinkie,,"The 1st one doesn’t work, if you slide up, it just shows filters.",9-7-2021,0
450,Shaun,shaunymalone,,Outdated info.,9-7-2021,0
451,lolmomof2boys,lolmomof2boys,,Back tap doesn’t work with a case.,9-7-2021,0
452,Jeannie,jwood1045,,"These are great!! Thank you for sharing! And thank you for NOT saying, “Here are some iPhone tricks I’ll bet you didn’t know about” !! 😂",9-7-2021,0
453,The Loving Wife,ahya_roxie,,The tap feature is totally annoying!,9-7-2021,0
454,Mike,nature.connection,,I didn’t have flashlight option for back tap on my 10. I couldn’t get the camera settings to open. I want that exposure setting.,9-7-2021,0
455,Rice,rice105,,"Good info. Once i sign the doc , how can i send it as a pdf not a photo ? Thank you",9-7-2021,0
456,DamienN9ne,damienn9ne,,This must be for older folks.. I’m 30 and I figured everyone already knew this. 😂,9-7-2021,0
457,user1749303137564,hedge001,,"Under markup, tap the plus icon on the right, choose signature, turn you phone into landscspe and sign your name. It will save your signature.",9-7-2021,0
458,Stacia,anastacia_h,,How do you get so many button icons on the shot cut screen,9-7-2021,0
459,Dragos Dorneanu,maestro2020,,How do you email photos as attachments instead of inserts in the email. I used to be able to do that with previous IOS. can’t do it anymore.,9-7-2021,0
460,Suresh Balchandani,sureshbalchandani,,My system option does not show flashlight option under double tap. Nothing between control center & Home.,9-7-2021,0
461,user9713850305520,darthdad62,,How is that hidden? Is all on the release notes 😂. You should call it :” iPhone features you don’t know cause you’re 2 lazy to read the release notes,9-7-2021,0
462,KA Bea,kabea6,,Double tap the back for screenshot…love💕,9-7-2021,0
463,Sine Asfaw Abi,sine_abi,,Stolen tricks 😂,16-9-2021,0
464,Ella Bella,ellabellss0027,,hello i have some problem on my iphone the youtube and instagram are not working how can i fix it,vor 3 T.,0
465,Sherry ❤,ivory_lily,,@vmillixn,9-7-2021,0
466,Joni Brown Rainey,jonibrownrainey,,@teflonbilly1969 @jessitwinmama27,9-7-2021,2
467,Manda Grace,mandagrace4,,🥰,10-7-2021,1
468,L,user12332279988,,@beccaeva,16-8-2021,1
469,Lachey Anderson Clar,lacheyandersonclark,,@fw.dyaniii @itz_yazbrown,9-7-2021,1
470,user6345722710677,lvdl08,,@natevdl,8-7-2021,1
471,Mikedx14a,mike_brun2,,😳,22-9-2021,0
472,CoolDad996,cooldad996,,@mrkaplan2000,16-9-2021,0
473,tabarakallamashal123,tabarakallamashal123,,🥰,14-9-2021,0
474,Michael Naghashi,michaelnaghashi,,🥰,6-8-2021,0
475,Silbs,silbusinoz,,🤯🤗🙏🏾,3-8-2021,0
476,user5466340251568,klemieux25tiktok,,🖤✝️💟,20-7-2021,0
477,darl,darl717,,@kevinbacon,14-7-2021,0
478,Michael,pallom222,,👍🏼👍🏼👍🏼,14-7-2021,0
479,👑Queen Priyanka 🤍,queen.of.hearts_91,,🤍🤍🤍🤍🤍🤍🤍🤍🤍,12-7-2021,0
480,user3841242207236,dannananalea,,😁,10-7-2021,0
481,Keli,kelibean,,😁🥰,10-7-2021,0
482,Linda Riddle,lindariddle3,,😃,10-7-2021,0
483,user4997840287885,milug53,,@,10-7-2021,0
484,Jean Norton968,jeannorton8,,😃,10-7-2021,0
485,Marge Munoz,margemunoz,,👍🏼,10-7-2021,0
486,old acc,swagforlifesoph,,@sophia_studd,10-7-2021,0
487,westsidequeen08,westsidequeen08,,❤️❤️❤️❤️❤️,9-7-2021,0
488,Marty Haviik,mhaviik63,,🙏🏼💜😎📸✨👍🏼,9-7-2021,0
489,hotrod433,luluone13,,@layyrayy,9-7-2021,0
490,Melissa Ienco,melissa_ienco,,@sydney.ienco,9-7-2021,0
491,Patrick Bynum,pda6180,,🥰🥰🥰🥰,9-7-2021,0
492,AMA,ama.925,,@jamilagggg @nellieghosheh,9-7-2021,0
493,Katrina Carter,katrinacarter67,,@shar_carter @,9-7-2021,0
494,user575135,live_the_dash,,❣️,9-7-2021,0
495,Amenadiel Beverly Hills,amenadiel_losangeles,,⭐️⭐️⭐️⭐️⭐️⭐️,9-7-2021,0
496,Valia,brandnewmegirl,,😌😌😌,9-7-2021,0
497,Marc,marcbanjan,,🙏,9-7-2021,0
498,#The original G-Unit,theoriginalgunit,,👍,9-7-2021,0
499,Granny,grannynosebest,,😎,9-7-2021,0
500,Kerry Dodd,kerrydodd5,,😳🥰,9-7-2021,0
501,bettyise,bettyise,,👏🏾👏🏾👏🏾👍🏾,9-7-2021,0
502,SmilE SmilE😃😃,me5dontsmile,,✍🏻👌🏻👌🏻,9-7-2021,0
