,Comment Number (ID),Nickname,User @,Comment Text,Time,Likes
1,estheryepyep#18+#Phlokk#vcgsqu,estheryepyep,,That is cool tk's for sharing hun 💜💙💜💙💜💙💜💙😁🤗✌,14-8-2021,
2,Brenda Keene,beingkeenetoo,,Thank you very much because most creators do not share how to do something 🥰🥰🥰,17-8-2021,
3,Darwin Jerome,darwinjerome,,i dont even kno how to go live 😅,16-8-2021,
4,K.Bayes,kevbayes,,Didn’t know. Thanks.,15-8-2021,
5,Mimi,user542862757,,ur great 😊 thanks 👍,16-8-2021,
6,kylinfo,kylinfo,,atleast it worked,17-8-2021,
7,simplegirl💕,lamworldforsomeone,,yes it works 😁👍,16-8-2021,
8,Mr.Sdpackaging,mr.sdpackaging,,Good idea🥰,16-8-2021,
9,lshah,lshah1,,nice,16-8-2021,
10,john Nguyen,johntijuana,,cool,15-8-2021,
11,Carolthebusdriver46,carolthebusdriver46,,Thanks!,16-8-2021,
12,lolavanniekerk,lolavanniekerk,,thank you😳,15-8-2021,
13,user3291721500307,ninike19,,WOW,16-8-2021,
14,Mr_Cameraman,mr_cameraman,,Thanks great tips,15-8-2021,
15,zfs133,zfs133,,ii,16-8-2021,
16,Rhonda,ronniebask,,Thank you for sharing 🙏,17-8-2021,
17,Vickie Naomi,vickienaomi,,Wow really cool 🥰,16-8-2021,
18,Pika,pikachela,,That’s so cool,16-8-2021,
19,Nick,nicholasgalvann,,nice,15-8-2021,
20,Michael Trigiano,michaeltrigiano,,cool 😗,15-8-2021,
21,Sandeep kaur,sandysandy5184,,Thanks,17-8-2021,
22,zfs142,zfs142,,ii,22-8-2021,
23,mchefrimaelhewary1,mchefrimaelhewary1,,Thank you 🥰,17-8-2021,
24,Ninja,mr_shooter22,,how to go Live?,15-8-2021,
25,Mary,serex0,,okay. perfect 👌,19-8-2021,
26,Tom C,tomc64,,great,15-8-2021,
27,renicefonceca567,renicefonceca567,,oi,22-8-2021,
28,user7611019079413,user7611019079413,,wow 👏thanks 😁,15-8-2021,
29,Maganation420,maganation420,,it works!!!,16-8-2021,
30,Mike Alden118,mikeba69,,"holy cow, very cool",15-8-2021,
31,jr hills 💯🇧🇸🤑💰,yeah_das_shiesty,,wowwwwww,19-8-2021,
32,Jukun woman ❤️❤️,taliyah144,,Cool .Thanks,16-8-2021,
33,DOMENIC,hotplate506,,"TERIFIC TIK TOK TIPS,,,THANKS",15-8-2021,
34,Veena Lallbehari,veena19833,,it work,15-8-2021,
35,🔥UPPER ROOM🔥,lightningstrike888,,Thank you,15-8-2021,
36,Juana,juanajalisco,,TY🙏,18-8-2021,
37,john,itilian4,,nice,15-8-2021,
38,💐Masha Allah💐,_gem4evah,,new follower here 👍,17-8-2021,
39,Maabenaa Deby,debytick,,You an angel. Thanks for being so generous. 🥰🥰🥰,18-8-2021,
40,WRenee74,wrenee74,,good trick,16-8-2021,
41,peddie01,peddie01,,cool,17-8-2021,
42,sugar,user7799146212293,,thanks,15-8-2021,
43,user2160973722389,denchargomes,,Cool,19-8-2021,
44,C'est moi,this_is_me_so_there,,thank you,15-8-2021,
45,user TMP priceNc,prsmintal,,wow🥰 thanks 💓,15-8-2021,
46,Carrielin,carrielin33,,wow,19-8-2021,
47,Khazz,khazz31,,Thanks,18-8-2021,
48,Crackers,20crackers,,cool,20-8-2021,
49,Victor,vicky6126,,zoom in zoom out using 2 fingers is much easier 😁,17-8-2021,
50,Latain 🎀 NYC Content Creator,lalove1010,,"ooh, pretty cool 🥰",17-8-2021,
51,Masoud_De_Dude,masoud_de_dude,,How people cut frames by frames?,15-8-2021,
52,Ivan Bonet,imbrockone,,Thanks bro,16-8-2021,
53,Naomie john,mumy323,,Wow🥰,19-8-2021,
54,Adrian,o_.._adrian_.._o,,So close to 100k!!!,15-8-2021,
55,tiktok demo 101,partyhardee,,thanks,18-8-2021,
56,SimaranJit Kaur😍🥰,simaranmultani212,,Waooo it works,16-8-2021,
57,user7804975658530,quintersential,,There’s so much I don’t know. Thanks,15-8-2021,
58,Litiza Varney,sunshinegirl481,,that's cool it works 😅,17-8-2021,
59,Lyn🇵🇷,lynfern,,Cool 😎 just tried it,16-8-2021,
60,paulinebell75,paulinebell75,,It really worked... so cool,16-8-2021,
61,Rosalyn December,rosalyn122014,,"Hey, it works! Thanks!!",16-8-2021,
62,𝓐𝓪𝓻𝓸𝓷_𝓐𝓺𝓾𝓪𝓻𝓲𝓾𝓼,ukunited_kingdom,,I never new that. thanks,18-8-2021,
63,Vini,vini_has_a_opinion,,didn't work on Samsung,18-8-2021,
64,Farrah Kahn,farrah_kahn,,how do you zoom back out?,15-8-2021,
65,Francis✔️,official_fra_101,,wow thanks,24-8-2021,
66,▶️Sodhi_ਯੁਗਾਂਡਾ,singh_sodhi,,We know,19-8-2021,
67,Angel,sweetangel10019,,U deserve my Follow 🙌,16-8-2021,
68,Donna,pyewacket57,,thanx,19-8-2021,
69,Afeisha Gill,afeishagill,,yea it work nice 🥰,16-8-2021,
70,francisweefah,francisweefah,,cool,20-8-2021,
71,@Tops_Donsi🐾,thobilem11,,i just did that now thanks,18-8-2021,
72,user3847366305482,eneely1,,thanks,15-8-2021,
73,waxkorodhsi,waxkorodhsi,,how make thamnail tiktok?,15-8-2021,
74,Stephanie Du Bois,stephaniefromwa,,thanks,19-8-2021,
75,Website Designer & Marketer ✨,newsomixmarketing,,No way! 🥰,19-8-2021,
76,yram 777,yramflowers928,,thank you,17-8-2021,
77,@raja king hk,raja_king_hk,,thank you you are so kind,15-8-2021,
78,Sheron,sheronbenn327,,Wow! Thank you for sharing,15-8-2021,
79,user232902,nyoomahasidi,,"It worked...
wicked thanks...",14-8-2021,
80,I_AM_RAKEL,ryleerakel,,woow it works😊😊😊,19-8-2021,
81,Tammy 3,tammy8286,,Thank you Sir,15-8-2021,
82,Parker,parkergamble,,good to know,18-8-2021,
83,💐Masha Allah💐,_gem4evah,,yeah it works 👍👏,17-8-2021,
84,Scott Smith6766,scottsmith6060,,Thank you,15-8-2021,
85,God's,godswordbiblereading,,can u record tour voice as well?,16-8-2021,
86,mera3970,mera3970,,thanks for info!,15-8-2021,
87,AMB 0192321,amb192321,,Oh good Job,15-8-2021,
88,Mommasnacks57,mommasnacks57,,thanks this is helpful.,15-8-2021,
89,my girl Queen G,positivekindgem,,I didn't kno that cheers for showing,15-8-2021,
90,BeyotchPlease,beyotchplease,,you can also just pinch zoom,15-8-2021,
91,Mina ENNL,minaafghanzadah,,Thanks 🙏,20-8-2021,
92,Gordon Snell,gordonsnell66,,"Cool, I just tried it & it works 🙂🙂",16-8-2021,
93,Marvel DnB / UKG / House,marvelpic,,Big up man thanks.,16-8-2021,
94,Peter Parker,sandieagospiderman,,that's Mark ruffalo,16-8-2021,
95,Matthew Bailey,matthemashup,,Awesome 🥰🥰🥰🥰,15-8-2021,
96,Somebody,.a...username,,dident everyone know about this?,15-8-2021,
97,Laura Doherty Music,lauradohertymusic,,I’ve been wondering how to do that!!!!,15-8-2021,
98,steffonking530,steffonking530,,thank you,20-8-2021,
99,ArLantha,arlantha,,thank you so much. i didn't know how to navigate Tick tock at all.,15-8-2021,
100,BarbInNebraska,barbinnebraska,,Thank you! Can I ask why people start and stop their video all the time? Why don’t they just run the video?,17-8-2021,
101,Sunnyduetlove,sunnyduetlove,,luvely,15-8-2021,
102,egas_5ohs,egas_5ohs,,I'm new at this thank you,17-8-2021,
103,Paul Latevi,paullatevi1,,zooms,24-8-2021,
104,🌺Nic.B🌺FNQld🇦🇺,nicb.online,,This is why I love TT. I learn something new everyday 😂,16-8-2021,
105,Tricia Bubala156,triciabubala,,it works🥰,20-8-2021,
106,ADDIE💜,miss..addison1355,,I knew that😬,20-8-2021,
107,Antonia,knottyhatz,,that's an amazing tip thank you so much,15-8-2021,
108,Vibes,vibestayo,,Cool thanks for sharing 👍 😀 🙂 😊,15-8-2021,
109,Deborah Ottman Watson,itsmeagain1st,,Cool,15-8-2021,
110,donna,dking0610,,"thank you! I'm trying to learn this stuff, but it's not easy to find the answer s",15-8-2021,
111,Michael Troy Degrill,michaeltroydegrilla,,yes it work so kool,19-8-2021,
112,dm1girl,dm1girl,,how do you read behind or move the hash tags on TT,15-8-2021,
113,Cindy Smith,user9465480307724,,I can do that on my iphone but what about on laptop. I can't even change my profile? No acess to any of it.,15-8-2021,
114,user4325049214214,afnphx,,That’s awesome! Is there a way to upload a video that I did on my laptop and then texted it?,16-8-2021,
115,user3752221291234,ndawula0,,thank you,19-8-2021,
116,Masoud_De_Dude,masoud_de_dude,,Thank you,15-8-2021,
117,The man from Antarctica,antarcticaman11,,I don’t know how to say this but I tried that setting my phone went all blank it don’t work any more,15-8-2021,
118,Edwinah Mariaria,maria.edwinah1,,Thanks a lot 🥰,25-8-2021,
119,linda,linda110972,,wow ...thank u,20-8-2021,
120,Larry James Rutan,1492larry,,Great lnformation New Follower,15-8-2021,
121,ccarrasc@,blacklupinl56,,that was great. is there a how to use ticktok ?,15-8-2021,
122,no one,the_situation_1,,are people on here going live with a recorded video,18-8-2021,
123,🍪Captain Obviousness 🍪,toffeecrumble,,thanks anorak,15-8-2021,
124,KING 👑,winston_wins3,,Already knew that,23-8-2021,
125,Bella Cheryl Bath,bellacherylbath,,Thanks. I'm new to Tiktok. You've taught me something today 🥰,15-8-2021,
126,God's grace ambassador,sunnyman125,,"Sure
It actually works",25-8-2021,
127,𝔻aveSlam,dave_slam,,Cool Thanks,15-8-2021,
128,user8163905004501,elizabethnzisa9,,cool thanks 🥰,19-8-2021,
129,snmnoah3,snmnoah3,,Cap 🧢,15-8-2021,
130,yafonoob,yafonoob,,★ Just when I thought I knew everything about everything. lol thanks man!,15-8-2021,
131,iriscarvalho388,iriscarvalho388,,valeu a dica obrigada,20-8-2021,
132,Wheels,danceronwheels36,,I never knew that did that I just tried it cool,18-8-2021,
133,Wouter Breukers,wouter_breukers,,and you work for apple 😂,18-8-2021,
134,cleidinaldosanto4,cleidinaldosanto4,,kkkk,20-8-2021,
135,🕷 Adam 🕷,crazyadam_la,,they first thing on tiktok that actually worked....,15-8-2021,
136,Caspa,captaincaveman18,,how do u do a live video,15-8-2021,
137,user7612945320470,user7612945320470,,Happy Sunday to you and your lovely Family.,15-8-2021,
138,Grandma,snewks03,,Good info. Thanx👍🏽🦋✌🏽,14-8-2021,
139,Baylee,majesty2.2,,It workkks 😄,19-8-2021,
140,coach,allthewayit,,kl,20-8-2021,
141,user7591799363381,adosh36,,That is cool thank you,18-8-2021,
142,bobgranata293,bobgranata293,,I just tried it pretty cool!! Thank you!,15-8-2021,
143,user5156455282505,poseidontrid,,"I want you to do this, I want you to do this!! This is the guy that says i want you to do this!!!",15-8-2021,
144,Ascended Master Of Navigation,ascndmast_nav_airbender,,"ah wondered how, didnt wanna research, this is perfect 😂😂🙏🙏",15-8-2021,
145,GEBvideodirector,tigerlillypower,,That is so cool a 10+.,19-8-2021,
146,Franko Watters,frankowatters,,thanks mate. ...I'm still learning,15-8-2021,
147,vides52,memething2,,THANK U THATS COOL,23-8-2021,
148,joannefrancis870 Joanne,joannefrancis870,,Thanks for the tip. I did not know that. Have a wonderful day.,18-8-2021,
149,Halalvadheara,arealsavageog2,,yh it is so cool it works🥰🥰,24-8-2021,
150,mec,ellle_420,,"Cool tip, thank you!",20-8-2021,
151,simiiiii,randomness32,,i dont know how to use it pls tell me more,19-8-2021,
152,Zak1s2ss,zak1s2ss,,I already knew tht but ok 😂,18-8-2021,
153,Dory Joy,fitmom61,,That was Great!! 👍 Thanks!,18-8-2021,
154,Debra Williams,debrawilliams073,,I tried it out last night it works thank you for the new thing on my phone thank you thank you,19-8-2021,
155,Michael O'Brien,michaelobriensinger,,I am a musician singer songwriter guitarist on tik tok will like to learn more about tik tok,15-8-2021,
156,Imo45,imo1rs6,,OMG I been doing videos and why the hell didn't I already know this 🥺🥺😅,15-8-2021,
157,Laurie Rycher,laurie_rycher78,,I want to know how to bypass copyright songs lol,20-8-2021,
158,mrmodder5,mrmodder5,,tylol,18-8-2021,
159,NARUTO CLIPS AND VIDEOS 🔥,isaiahhughes64,,"It does nothing, 😒",18-8-2021,
160,Keith Brown,keithb_0225,,That is kind of neat,15-8-2021,
161,Juliana,juliana.1964,,Thank you 🥰 I had no idea how to do that.,15-8-2021,
162,Mia Polhuys,miapolhuys,,thank you,15-8-2021,
163,Dorsey,writershelley,,Thanks 😊,19-8-2021,
164,Nana,nanashere1,,wow,23-8-2021,
165,Dorothy Holbrook,dorothyholbrook0,,Thanks. Cool,15-8-2021,
166,Sports Journalist,sportsjournalist,,great..thank.. any others,14-8-2021,
167,mondragonp71gmail.com,mondragonp71gmail.com,,really cool,20-8-2021,
168,sundaymichealjaha,sundaymichealjah1,,good,20-8-2021,
169,Joselyn,joselyne_k,,"wow, thanks",25-8-2021,
170,user8649824501404,jay_onyia,,It works,23-8-2021,
171,Nel Ly,nelly45310,,Thanks for the info,22-8-2021,
172,davidterry955,davidterry955,,Will do,15-8-2021,
173,Nafeeza Hansye,nafeezahansye,,woow that's cool 🥰 thanks for sharing 🥰,15-8-2021,
174,Priceless Gift,priceless_gift0,,"Cool
How do I duet a video?",24-8-2021,
175,Michael O'Brien,michaelobriensinger,,keep up this great work you are doing on tik tok,15-8-2021,
176,Najwa Sabagh,najwasabagh1,,I know 😏,20-8-2021,
177,user2053793369221,bluj_jack_62,,"How do you get everthing to be facing the correct direction?
e.g.: if you have words, so they won't be backwards?
Thanks Lots.",18-8-2021,
178,Terry W Shish,terrywshish,,thx,16-8-2021,
179,ascc088,ascc088,,ii,16-8-2021,
180,lorenzothomas,mrlorenzothomas,,Thank you!,17-8-2021,
181,Nan,coocoonan,,good to know 🥰,15-8-2021,
182,Victor M Rosario Jr,victormrosariojr,,That is Cool 😎!,15-8-2021,
183,"Daffy duck,",pauln707,,😏NICE,15-8-2021,
184,Missy. G,missyg57,,Cool😁,15-8-2021,
185,Herman Bave,95herman,,please,19-8-2021,
186,mamaems7,mamaems7,,Thanks🥰,18-8-2021,
187,Ebastage Vigilance T,ebastagevigilancetsatse,,cool,22-8-2021,
188,SABINA MCCROSSON,myghanaians,,Thanks,19-8-2021,
189,francisbrown286,francisbrown286,,thanks for teaching me something new,25-8-2021,
190,platinum561,platinum561,,Thank you,15-8-2021,
191,Singh di Kaur,kaur0819,,its 👍,19-8-2021,
192,Randy Austin620,ushermarkeith1,,Thank you I just tried it it works,23-8-2021,
193,Rocilen T Misperos,rocilentmisperos,,wow that's was great thank you,23-8-2021,
194,O'tess cakes and confectionery,otesscakesandconfection7,,thank you🥰🥰🥰,20-8-2021,
195,favourflowerz,favourflowerz,,wow😳 thanks🥰,25-8-2021,
196,dandb4sale,dandb4sale,,actually works,23-8-2021,
197,success.J@B,successogba700,,please how do I add sound on video to my Tiktok,26-8-2021,
198,Journey To Success w/Heather,journey2successw_heather,,I love tiktoc tricks :),20-8-2021,
199,Eleanor Mitchiner Marketing,ellymitchiner,,Great trick,15-8-2021,
200,user7751571263485AGNES,mdhlulin,,that's cool it works 😅,19-8-2021,
201,De Victor Muse,cornanthemvp,,nice,20-8-2021,
202,Baylynn,bttywgnr,,"This is awesome!!! I'm hoping to learn tiktok recording tips by checking out your utube videos 😍 Thank you, you keep it basic & simple 😉💥💣💥",23-8-2021,
203,Iceman82aj - YT,iceman82aj,,or just press record then use 2 fingers to zoom in 😂,15-8-2021,
204,Carrie,carriejanesim58,,Thank you,22-8-2021,
205,user4180529144413,damigold13,,thanks,25-8-2021,
206,suzanneborres06,suzanneborres06,,tnx sir,19-8-2021,
207,user4361136123805,jannifer586,,"hi I dont know what with my tiktok am just seeing strange effects,how can I get back the effects which were there at first?",6-10-2021,
208,Dionne Walton,user208157216,,loved,20-8-2021,
209,atiba_vendetta_john,trinivendetta1,,Now I knew,25-8-2021,
210,Shavon.K,shavon.k,,True😏😏😏,25-9-2021,
211,blanemihaingo,blanemihaingo,,thank u I didn't knew it,16-8-2021,
212,cornileos,cornileos,,this guy's voice look like dream league soccer Commentator's voice,27-9-2021,
213,kinglocx,kinglocx,,wow its,16-8-2021,
214,Alpha,icancelledthispage,,"good info, thanks",20-8-2021,
215,kasamulayah6,kasamulayah6,,Thanks so much,21-9-2021,
216,legitbossGH,legitbossgh,,thanks,23-8-2021,
217,Ocean 29,snakho255,,Cool,24-9-2021,
218,yabloveyablove306,yabloveyablove306,,ok,25-8-2021,
219,Eyueal Bisrat,therealseven55,,idk if either the comments is filled with trolls or that nobody actually knew this,23-9-2021,
220,josh1235,mergemt_,,hints on loading screen be like,22-9-2021,
221,saudah Lule Nantongo,saudah822,,thanks brother,24-9-2021,
222,Kazzie,kazzie_926,,Thank-you!,16-8-2021,
223,Readings With Robette,readingswithrobette,,It works 😂 Thank you 😊,15-8-2021,
224,Gary Foster,garyfoster40,,😁😁😁😁nice,19-8-2021,
225,nesu🍁,drippy._y,,I actually just knew,27-9-2021,
226,user668107,dragonwomen88,,I knew that already lol,23-8-2021,
227,taurustriedit,taurustriedit,,it worked hes right😳,19-8-2021,
228,user7283500838808,user7283500838808,,😳 boa,20-8-2021,
229,user9072792746384,legit404,,listen to my freestyle,25-8-2021,
230,eremimedeiros,eremimedeiros,,boa noite,26-8-2021,
231,user54252392647207,mummysandy0,,thank you 💕,25-8-2021,
232,Cathleen Wheaton,tipsy_mynewlife,,tu,22-8-2021,
233,JosyMends,josymends,,Thank you 🙏🏾,21-8-2021,
234,Alajas_Mia_Designs,alajas_mia_designs,,So cool thanks!,19-8-2021,
235,# @clemilda 043,clemilda043,,olá 👋🏻👋🏻,2-9-2021,
236,Deandra Scott517,deandrascott2,,it work..I just do it😂🥰,16-8-2021,
237,Fikheyz Dancer Ugin🇺🇬💯🔥💯,secretchildkhan,,wow,23-9-2021,
238,Sukhchain Singh ghotra lubana,user_sukhchainsingh,,nice 😁🥰😂😳😏😅🥺😌😬,2-9-2021,
239,Khlaid Abebefe,khalid_obafemi,,just tried it thanks🥰🥰,26-8-2021,
240,Ladyinred207,ladyinred207,,Thank you 🥰,24-9-2021,
241,yando,iam_yando,,Worked,22-9-2021,
242,Kaekouea Nangiteiti,kaekouea.nagiteiti,,nice,25-9-2021,
243,Danielle🤍,.danielle.mariee,,"I knew this, what’s so “cool” about it…",24-8-2021,
244,Todd Zeny,toddzeny16,,nice,1-9-2021,
245,Miss Fidelia,fidelia_kavinya,,Wow thanks🥰,1-9-2021,
246,Muhammed rabiu,yourjoy144,,ok,26-8-2021,
247,daniel,d_dan430,,waw iliket,21-9-2021,
248,Mojisola,mocherrykiddies,,Thanks 🥰,24-9-2021,
249,random,_r4ndom_thingz_,,hahah just tried it😂,26-8-2021,
250,user5140884385309,user5140884385309,,thanks,23-9-2021,
251,user953541115260,aolovarri,,Thanks😁,1-9-2021,
252,Izzybelino,izzybelino,,Thanks,26-8-2021,
253,ojohleo,ojohleo,,nice it's really cool,24-9-2021,
254,bwetemoffat,bwetemoffat,,Thanks dear You are good,23-9-2021,
255,bryanmax,bryanmaxx592,,"Good tip, I didn't know before, thanks",23-9-2021,
256,Mubanga Mwaba,bangiemwaba,,Thank you- it works 🥰,23-9-2021,
257,Sharon Leader,sharonleader1,,Wow didn’t know this until now,23-9-2021,
258,Aziz,jibaziz,,thanks bro I did it🥰🥰,22-9-2021,
259,larkin568,larkin568,,just keep going.,26-8-2021,
260,Jah10Ly,jah10ly,,wow amazing,24-9-2021,
261,anashachi90,anashachi90,,thank you for the lesson. I learn more from your video. thank you. 🥰,20-9-2021,
262,Grace,myimportantsoup,,I THOUGHT EVERYONE KNEW THAT,12-9-2021,
263,Jaime,james_says_,,Very cool,5-9-2021,
264,candyba3,candyba3,,thank you 💕,1-9-2021,
265,Ringer!!!,brianr9837,,didnt work for me,5-9-2021,
266,arudbwai,arudbwai,,five-star,20-9-2021,
267,Taonga G meclevers😘❤,tmeclever0,,it works 🥰,23-9-2021,
268,odellrobertson116,odellrobertson116,,Wow thank u,26-8-2021,
269,Adriane NK,adrianenk03,,did it,3-10-2021,
270,Wesley Lots,wesleylots,,we been knew,22-9-2021,
271,Vanessa💗💫,charsair1,,pov: He just found out abt it,25-9-2021,
272,jon8888,jon88880,,so many features. i don't even use them all.,1-9-2021,
273,Eliza_hussain2020,eliza_hussain2020,,I did that an tried moving the door lol I failed😂,26-8-2021,
274,HZKASSA,hzkassa,,if you want realstic games go to youtube and search HZKASSA there is alot of games visit.thank you,23-9-2021,
275,Shiko francis,shikokinyoho,,Oooh my thenks friend I never knew that,21-9-2021,
276,MO Kasim,mokasim173,,@wll_axmey waxan ila arag🥰,28-9-2021,
277,Zahia_beauty,zahia_77,,wow good one,3-9-2021,
278,Nar.capircorn,nar39..capricorntrinida2,,that is kool 🥰🥰🥰,2-9-2021,
279,sexysophia/coffee48,sexysophiacoffee48,,Kool thanks,30-8-2021,
280,Tajera Chisholm,tajera32,,you late tho,23-8-2021,
281,Geetha Bhola,jaspercarly2,,Awesome 👌,23-9-2021,
282,amadouqbojang,q.boy1,,Thanks,20-9-2021,
283,Latrisha 777angelvisions@gmail,latrisha777,,cool,13-9-2021,
284,Philojones,philojones,,cool,2-9-2021,
285,Sharon,msshayshay,,Nice,1-9-2021,
286,@Miano,miano161,,hey..,31-8-2021,
287,user5467545909012,tims099,,don,26-8-2021,
288,user725178148404,userleah59,,thanks,28-8-2021,
289,kofichumbe,kofichumbe,,wow,20-9-2021,
290,Prosper Coffee,prospercoffeeusa,,Double cool Meg,23-9-2021,
291,@shalarnav,arnavmommyhisbestie1,,aj noe,24-9-2021,
292,mazi Ijeawele Chimaco,maziijeawele1,,thanks 🥰🥰,22-9-2021,
293,user John,js_bobbie,,wow 😮😮 thanks,28-9-2021,
294,luzhelle,luzhelle,,thank u..😏,24-9-2021,
295,lisalee,lisa_musshi,,😳😳thank u,23-9-2021,
296,user1454810547266,reagannjang,,i know😅,27-8-2021,
297,x.shilana.x,x.shilana.x,,like really 😌,5-10-2021,
298,Eddy Ferraes,eddyferraes1,,Gostei🥰,2-9-2021,
299,user6732948485486,larrybe67,,it work thank you bro,4-10-2021,
300,FrenchFries,michaelmatalavea5,,already knew my guy but great video,24-9-2021,
301,QueenKay👸👼💞,webberkayz,,Just tried it and it works,26-8-2021,
302,user8906561834728,vana730,,oke,3-10-2021,
303,Raymond Clarke,tonyranks1,,thanks for sharing 🥰🥰🥰🥰🥰,22-9-2021,
304,LA GRATITUDE tik tok,elvirazeno6,,thk u bro 🙏👍👍👍,28-9-2021,
305,just2move,1coachd,,thanks for the share,24-9-2021,
306,olamoore10,olamoore_thegreat01,,It works 😳😁,22-9-2021,
307,Waisea Denmark,waiseadenmark1,,it work for me🥰🥰🥰,22-9-2021,
308,user4181951192974,user4181951192974,,wow nice one,21-9-2021,
309,Korah,okayokayyess,,only on iPhone,20-9-2021,
310,Dorlod,dorlod,,We already know.,9-9-2021,
311,Nicolas Olivera,nicolasoliverayo,,same in what app,31-8-2021,
312,876weir,876weir,,I tried it immediately 😂,28-8-2021,
313,Emy Nzau,rosemy26,,wow that's so cool,27-8-2021,
314,Brian matute,brianmatute4,,this is cool 💯,26-8-2021,
315,benzyfuture,benzyfuture,,i don't think any phone do this 🥺,23-9-2021,
316,Momoh Lucia,momohlucia,,Thank but how to go live.?,23-9-2021,
317,Eldeca Hema,eldecahema,,wow... u now discovered that 😒 sad,22-9-2021,
318,user5478961612573,isaperttinacci,,mine writes this mode cannot support zoomong😳😅 ...android😳,1-9-2021,
319,Dazza9905,dazza9905,,I thought this was basic knowledge,27-8-2021,
320,i simp for straight men,high_on_sillyscents,,wait people didn’t know this? i knew it since i got the app..,12-9-2021,
321,Peter,pedrroski,,Can I share other people’s video? How do I access videos which were saved to my favorites?,2-9-2021,
322,kev,kev_007_in1,,omg😬dude ur a genius 👏 thx for wasting ur time and my time🥺🤣🤣🤣,23-9-2021,
323,Ras Becky Man,ras_becky_satenaw,,the most easy tiktok trick 😂😂😂😂😂 u don't need to tell this,22-9-2021,
324,was geht,wasgeht2336,,no waking wey wow,28-9-2021,
325,Ree Nee,reenee28,,you are a star🥰,25-9-2021,
326,Prosper Coffee,prospercoffeeusa,,Lawd! That was cool,23-9-2021,
327,dolly2021_7,dolly2021_7,,I dont know how to record,2-9-2021,
328,JpaulJohn,jpauljohn,,how to go live,30-8-2021,
329,afi_nya,afi_nya,,didn't know this 😳,26-8-2021,
330,Lawrenc03,lawrenc03,,cool,3-10-2021,
331,akinyibitt,akinyibitt,,Thanks,28-9-2021,
332,Lady P,precious_ivy3,,wow thanks for sharing,27-9-2021,
333,Gloria Solorzano,i.am.gloriasolorzano,,Cool didn’t know this!,25-9-2021,
334,Thembelisha,lishazulu,,Thank you double checked.,24-9-2021,
335,jikar chiromah,deedeeyunus,,very cool I actually paused the video and tried it,22-9-2021,
336,Kamal Mahmudov,kamalmhmdv,,it was useful bro . thank you,28-9-2021,
337,Tshepang,palesam26,,I knew that 😏,4-10-2021,
338,honey## nickie$$nelson,honeycatt1,,I tried it,5-10-2021,
339,Daniela,thebesthier,,thank you 🥰,5-10-2021,
340,syaefurr,syaefurr,,i didn't know,4-10-2021,
341,Winsome Taylor265,winsometaylor2,,thank you,4-10-2021,
342,Allison Hutchins878,darkychic50,,really cool i will try it😍😊,4-10-2021,
343,nairatou229,nairatou229,,ok tkx,3-10-2021,
344,Alfred Reeky,alfredreekylothbrok,,it didn't work,3-10-2021,
345,heatherb3646,heather_freedom_3646_kof,,thank you,30-9-2021,
346,joseribeiro2530,joseribeiroprofessor,,Boa noite,28-9-2021,
347,Ruth G,crus98,,Wow thanks,7-9-2021,
348,mag6191,mag6191,,"I have tried, it works",4-10-2021,
349,:),quandaledinglehere04,,Thx mr.know it all,21-10-2021,
350,motherlove zed,motherlole1993,,can you also explain to me ididnt see 3minute only 60m and 15 second only,5-10-2021,
351,Macristina Elgar,tinawill2,,apple gadget only🥰,29-9-2021,
352,ครูเพียส_พาปัง,piassy,,Thank you 🥰,31-5-2022,
353,Alicia,mommytomamii,,It works,1-4-2022,
354,JA,jehanayad,,Can I take other people's pictures of nature and inspiration quotes from Facebook & post them on my TikTok,9-1-2022,
355,melody couture,melly._.16._,,Everyone knew that 😂,4-12-2021,
356,𝕶𝖎𝖑𝖑𝖎𝖆𝖓 𝔍𝖔𝖓𝖊𝖘,prince_noctis.l,,Old thing. Try new thing mate. Many beginners knw this tip,12-11-2021,
357,🍀VISUALIZZAZIONI VIDEO 🍀,telluria25,,bello friens🥰🥰🥰🥰,9-11-2021,
358,bookermonck1,bookermonck1,,Wow that is so handy,6-11-2021,
359,Cristie Music,cristiemusic,,Thanks 🥰,17-10-2021,
360,R 🥰ch,officialricha3,,thanks,16-10-2021,
361,yabtse king,yeabtse890,,ok,16-10-2021,
362,@samione12,samione12,,hey,16-10-2021,
363,M2R vision,visionvilc,,I hope you’re joking,11-10-2021,
364,MAGA,user1bad210ukg,,THANKS 🥰🥰,15-8-2021,
365,Jehovah's Witnesses,jehovahswitnesses0,,Thank you for sharing!!!,16-8-2021,
366,Anu,j_anu6,,I didn’t know wowww thanks 🥰,15-8-2021,
367,user7900103576470,loverboy....13,,Awesome,15-8-2021,
368,daisysimonelarche,middleagedmarketer1,,who knew🥰 thank you,24-8-2021,
369,mano,mano28006,,pls make him reach 200k,21-9-2021,
370,precious Thole,richgrace812,,how plz send,25-8-2021,
371,MORTAL 廣告,mortalaad,,"Pov: Your looking for the
Cap 🧢
Normal cap 15
Average cap 28
How much cap 18537",5-9-2021,
372,Messi Tiktok,messitiktok6,,please stream utopia by gamaxiom on spotify,24-8-2021,
373,Michael O'Brien,michaelobriensinger,,Michael O'Brien singer songwriter guitarist folk rock music,15-8-2021,
374,crypto currency,cryptosuite0,,"hello friend please help me
am looking for a job
am broke here in my country
know job here
in my country
please help me
God bless you for your h",9-10-2021,
375,tammiearolfe2,tammiearolfe2,,More please,20-8-2021,
376,Sunrise Chaser☀️,floridabeach_life,,😵‍💫,16-8-2021,
377,Mikesteinback,mikesteinback,,":Charleston SC ... be my partner, invest those profits in Lottoclusters.net ... I need web tech database help - future millionaires...",22-8-2021,
378,agnesbyantaalo,agnesbyantaalo,,tiktok is stopping me from following it's saying am following to fast what can I do,20-8-2021,
379,Simple Girl,girl_of_simplicity14,,❤️Jesus lived the life we couldn't live and died the death we deserve. Repent of your sins and trust in Him❤️,20-8-2021,
380,user9909581496462,swaggdaddy8507,,didn't work fa me,12-10-2021,
381,STIFLER,king_stifmeister,,yeah no sh t,18-8-2021,
382,Isabelle,isabellewithcatfur,,Holy crap! 😂🥰,16-8-2021,
383,sdgseven,sdgseven,,Wooooooooooooo cooooooool👉💨🇬🇾🇬🇾💥,27-8-2021,
384,success,sucess067,,don ur turn,22-8-2021,
385,T_rollman,t_rollman,,https://go.fiverr.com/visit/?bta=275643&brand=fiverrcpa,26-8-2021,
386,Popular God,gayinarichmond,,Kull🥰,29-8-2021,
387,Joshua,joshua..tt,,well no fuckin shitt,22-9-2021,
388,cagouleee,cagoule_blakk,,WELL NO FUCKIN SHIIT,26-8-2021,
389,Junior France,juniorbfrance,,"it's actually not the usual bullshit, it really works",26-8-2021,
390,Todd Zeny,toddzeny16,,How about send a screenshot to a TikTok user?,1-9-2021,
391,Scorpion,scorpion.g,,"no shit it works 😳, damn I need to shave my legs 🤦‍♀️",24-9-2021,
392,KingBillz32069 Bilal,billzk32069,,LMAO EVERYONE NKNOWS THIS,27-8-2021,
393,Helen Gwanzura,helyhair,,Thanks am still a baby crawling on please help me to stand up and walk 🙈,25-9-2021,
394,tinasparlor,tinasparlor,,Please how do I get followers on TikTok,25-9-2021,
395,BornSignalUGKACHUMBALI,bornsignalugkachumbali,,"Hey 👋, Why are you following 32 🤔 people only ❓",28-9-2021,
396,Smart Meditation Art,smartmeditation,,🥰🥰,20-8-2021,
397,Vic Vic,prbyvic,,🥰🥰🥰🥰,21-8-2021,
398,Claire Thompson,clairethompson00,,@louiselliott49,20-8-2021,
399,user4504776304502,sirh28,,😳,15-8-2021,
400,agnieszkadudek891,agusia78987,,😁👍,16-8-2021,
401,Rico Hernandez,user76097673924050,,😳🥰🥰🥰🥰🥰🥰,16-8-2021,
402,Timesaver Detail,timesaverdetail,,@ryan_sealey19 @yk.aliclaire,15-8-2021,
403,Joanis8837,joanis8837,,😅,17-8-2021,
404,Cynthia Yoder,cynthiayoder,,@raystreib @lulucraftscreation @my17peaches,15-8-2021,
405,#🤜🩸🤛🏻 #riseup #ohwait 😂,bouncernick77,,@crazyman_stan @marvelhutchinson1 @lovebug169 @itsbabyblu3bearbitch @lilmizzsunshine845,15-8-2021,
406,Janee life education fun facts,janee212121,,😁 👌,15-8-2021,
407,Sandra Gines Pagān,sandysweetapples67,,👍👍👍👍,16-8-2021,
408,*Sladja*,milady_sladja,,😳,16-8-2021,
409,Antonia,knottyhatz,,🥰,15-8-2021,
410,jamnian Thiamwong,jamnian90,,🥰🥰🥰,15-8-2021,
411,charmaineflorence,charmaine48smith,,"@charmaine48smith:꧁❤꧂Jesus
Said↭꧁💛꧂
Dont↭↭꧁💚give ꧂
Up on ꧁💙꧂
Him ↭꧁💜in the ꧂↭꧁❤꧂
Last days ↭꧁💛꧂he coming꧁for u ꧂
Soon ↭꧁💛꧂amen",16-8-2021,
412,jeaneevelyn8,jeaneevelyn8,,@,18-8-2021,
413,E=CM^2™,collectivemindssquared,,😱😱😱😱😱😱,20-8-2021,
414,wealthyshezzy1,wealthyshezzy1,,🔥🔥🔥🔥,20-8-2021,
415,zahoorferoz,zahoorferoz,,🤩🤩🤩🤩🤩🤩🤩,15-8-2021,
416,"Daffy duck,",pauln707,,😅😅😅😅😅😌😌😌,15-8-2021,
417,babaindjai1,babaindjai1,,@🤣🤣🤣🤣🤣🤣🤣🤣😂😂😂😂😂👍,24-8-2021,
418,bismarkkusi7,bismarkkusi7,,👍👍👍,24-8-2021,
419,Francisca Guzman,userfran11264,,🥰,19-8-2021,
420,dianeday135,dianeday135,,👌👍,19-8-2021,
421,ezisfests_lv,ezisfests_lv,,😅,22-8-2021,
422,BedrockcreationsUK,bedrockcreationsuk,,👍🏾👍🏾,15-8-2021,
423,nanakofi12340,nanakofi12340,,👍,19-8-2021,
424,user4557401271094,cakeypie8,,😳😳😳,23-8-2021,
425,Tafara_mk,zimdrilldaily,,🤯,25-9-2021,
426,user2722136003927,anyigbagideon,,😳,26-8-2021,
427,Shane Wilson,rosierazzles1,,👍👍👍,5-9-2021,
428,ajroza_official ✅,ajroza_official,,😎,23-8-2021,
429,MzamoKubheko,mzamokubheko,,🥰🥰🥰🥰🥰🥰,22-9-2021,
430,@Star_terecal,wizzydj,,🔥🔥🔥,25-9-2021,
431,🤘💚Kerri🤜🎨🤛,whatdahellkrazy,,😎 🥰,1-9-2021,
432,sashamuhamad,sashamuhamad,,🥰🥰,20-9-2021,
433,Beatriz,beeatrizz_0,,😲,26-8-2021,
434,ngombe4,ngombe4,,@Eta Aka,4-10-2021,
435,Rajat behal,rb8181,,@shamlisharma576,6-9-2021,
436,Sadia Cooper ❤️🥀❤️🥀❤️🥀🥰,sadiacooper45,,🥰🥰,6-10-2021,
437,user5183743595247,lgboprince0,,😳😳😳,4-10-2021,
438,MatsLithner,matslithner,,🙏,28-9-2021,
439,patriciagarcia57926,patriciagarcia57926,,@,5-9-2021,
440,sallieubangura865,sallieubangura865,,🥰🥰🥰🥰,8-11-2021,
441,aproko pdr,rolandpdr,,😁😁,17-10-2021,
442,ridzuanrahmat,ridzuan_191,,👍👍👍👍👍,9-10-2021,
443,River,rivermckenzzie,,"◽◽ 😎😎◽◽◽ 😎😎◽
◽💗❤💗❤◽💗❤💗❤
◽👍🔥👍👍👀👍👍🔥👍
◽😍🥰💚🥰🥰🥰💚🥰😍
◽◽😍💃💃💃💃💃😍e
◽◽◽😍😚🥰😚😍c
◽◽◽◽😍💗😍i
◽◽◽◽◽😍 n",17-8-2021,
444,Mz. Stepfanie D. Bla,mzstepfaniedblackmondea0,,🥰🥰🥰🥰🥰🥰🥰🥰🥰🥰🥰🥰🥰🥰🥰🥰🥰🥰🥰🥰🥰🥰🥰🥰🥰🥰🥰🥰🥰🥰🥰🥰🥰,16-8-2021,
445,Seun Adebayo330,bigmamaadebayokemo,,🌹👌🤛,23-9-2021,
446,KEBINHES Tulungagung,kebinhes,,👍👍,23-8-2021,
