,Comment Number (ID),Nickname,User @,Comment Text,Time,Likes
1,TechTok · Ersteller,howfinity,,"Just to be clear, 4k at 24fps already exists on iPhone under video mode. But it’s not an option under cinematic mode. They can fix add it and fix this",26-9-2021,44
2,Peter Derjani,peterderjani,,We start to compare iphone to pro cameras.. that’s an improvement,26-9-2021,218
3,Art Hustle,arthustleuk,,"Its a phone , its not a cinema camera, for a phone it’s incredible, its like expecting your camera to make phone calls?",26-9-2021,130
4,"ARJAY ANGELES, RN",arjayangelesrn,,Pls don’t compare iPhone with your camera 😂,26-9-2021,21
5,doexx,_chapmanx,,"Yes I got ur point. if they can do it in video mode, why not in cinematic?",26-9-2021,4
6,Lucky_Lupa,lucky_lupa,,How you want to fit all these lenses and mechanisms from pro camera to something so small like mobile phone. 🤡🤡🤡🤡🤡,26-9-2021,11
7,Bijay Kunwar,bjkunwarkshetri,,You can Basically Lock the Camera at 4k and 60 FPS From the setting ? Settings>search camera>Record video> the last option 4k 60fps! 😂,26-9-2021,10
8,Ivan,ivannewyork,,Why would you compare professional camera and iPhone camera lol,26-9-2021,14
9,Papichulo,cat_on_delivery,,Apple users go easy on this guy. Hes just sharing his thoughts,26-9-2021,1
10,Pablo,invadingkingdom,,Wait a min. You’re telling me an iPhone camera is different to an actual camera…whoa. Mind blown 🤯,26-9-2021,21
11,Yamazaki Kento,ykfan68,,Maybe they can just edit the fps during post-production? 🤷‍♂️,26-9-2021,1
12,naietsimelene,melenekostaa,,"yea like 90% of ppl wont even recognize the difference from 30 to 24fps💀 let alone the 1080p instead of 4k, its compressed video not real 4k and you-",26-9-2021,1
13,GggG,ggggxi,,"Apple Cinematic Mode is AI-based, so the resolution cannot be further increased due to performance limitations.",1-10-2021,1
14,Ali,ali_ali_444,,Maybe to improve it in iphone 14..,25-9-2021,27
15,rektZAKIx,rektzakix,,How much is that camera?,26-9-2021,2
16,Zeibiz,zeibiz,,It’s a phone! Its camera is different from an actual camera. Just sayin 😂,26-9-2021,1
17,KL,klsx_24,,"1 min cinematic mode 6 gb storage, maybe now make sense?",26-9-2021,1
18,MILAD,letsdodiz,,Good one 👍,26-9-2021,4
19,satwinder,prof_satwinder,,Its at 1080 because it literally process depth information for 30 photos in a second with Tiny GPU and CPU it has with limited cores.,27-9-2021,1
20,Diadora,diadora_3377,,"😂😂😂it’s a phone, not a camera.",26-9-2021,2
21,Fafa,rfabrice1,,Me watching this video after a day i ordered the iPhone 13 😏😳😂,25-9-2021,7
22,SunJ Dhamala,sunj_dhamala,,can i have details about your lens in this video.??,26-9-2021,1
23,BIG22,goshapau,,so samsung blur mode now available on iphone? 😳,26-9-2021,1
24,Pravalika,pravscrafts,,Have you checked on 13 pro max?? Maybe that phone will have 4k resolution because of the high end camera features...,26-9-2021,1
25,Gheorghe Lazar,gheorghelazar,,Just @antisocialfeel,26-9-2021,1
26,Rocket science,rocks706,,Time to retire bro..,26-9-2021,1
27,leave like ❤️ & follow ✔️,ahmed._.mk,,WoooooooW 😮 your the best,26-9-2021,1
28,Hur Guler,hurguler_and_1919_others,,It takes a while to understand photography terms and tech. Apple executives will eventually get it.,25-9-2021,1
29,Sam,sam11118,,It's not a big deal I don't know why Apple make it so fast iPhone 13 and not any changes just playing with the people !!!,26-9-2021,1
30,Karthik Grandhi,grancrazy,,Need to take it slow .. comparing 13 with professional camera seriously .. and they just introduced cinematic and camera became perfect over the years,26-9-2021,0
31,KrisMil7,utero1,,What! The iphone is not the camera that is being used in Hollywood?,26-9-2021,0
32,Med,igobymed,,"Okay but This is the first time Apple doing this, I’m pretty sure it will improve over time, you can’t compare it to the pro cameras 🎥",26-9-2021,0
33,Grinzler,grinzlah,,Apple sells everything in increments. Everything we buy is old technology because apple already has the improved version for next release.,26-9-2021,0
34,MoshMosh,mashir0o,,I think its because iPhone is not meant to replace cinematic cameras? 😅,26-9-2021,0
35,Newellslab,reverse2revolutionize,,Its also missing manual shutter speed and manual iso,26-9-2021,0
36,Minneapolistic guy,sensationalswine,,Iphone 23 will have that,26-9-2021,0
37,northern_canada,northern_canada,,Good information but to be honest all went totally over my head....drowning over here😳😂,25-9-2021,0
38,perspective_spark,perspective_spark,,Didn’t galaxy had this for a long time. I think it’s called video portrait.,26-9-2021,0
39,Nancy PeeLoosy,peeloosy,,Still better than Samsung 😅,26-9-2021,0
40,Arken Avan,newyorkfaces,,pffff,26-9-2021,0
41,user14685446,user14685446,,Also the images are way too artificially sharpened,26-9-2021,0
42,OrganicTikTok,organictiktok,,They did that because something has to be left for iPhone 14,26-9-2021,0
43,980980,northshore6,,Samsung the king of phones,26-9-2021,0
44,SCOFIELD!®,scofield_fx,,Most iPhone users don't know about this so ya don't get over worked about it,26-9-2021,0
45,Humour Obscur,0bscuree,,Film smtg with Iphone and your camera and show comparison,26-9-2021,0
46,Spidy Ghotra,johnny.ghotra,,Bc they know people buy anything they sell😂😂😂without logic just gave than iPhone 14 with rename on iPhone 13 they still buy,26-9-2021,0
47,Just Fun,metanoiabegins,,Okk..so I am not gonna be buying an iPhone this year too.. Will stick with my iPhone 6 again,26-9-2021,0
48,⠀ ⠀⠀⠀⠀⠀⠀⠀⠀ 𝑺𝑨𝑯𝑰𝑳,_mr_king78,,@itx.____.arash 😂😂😂😂 famidi ya tarjuma konm,26-9-2021,0
49,Boar,lavieyyy,,ty for this just bought iphone 13 pro for my first iphone and I don't know how to use it lol,15-5-2022,0
50,Kwanele,kwanele114,,It iphone 13 pro or max 😏,14-5-2022,0
51,David Mas,davidmasphotography,,Because that is what is coming in the Iphone 14 😏,20-12-2021,0
52,Grinzler,grinzlah,,You said it. Its Apple cinema mode not other peoples cinema mode.,26-9-2021,0
53,Esteban Ayala V,estebanayalav,,People in apple must have a good reason 🥺,20-12-2021,0
54,Space invaders,mook310,,Give it a couple updates to fix this. Are if they cheap out it will be on the 14🤷‍♂️hey it’s still amazing,13-12-2021,0
55,jirel daai,razanzeerel,,2018 model lg g7 thinq😂already have this cinematic mode😂and finally apple got this,3-12-2021,0
56,HYEONG J 오빠 🇰🇷,hyeongj5,,Thank you so much I’m using a iPhone 13 🥰,28-11-2021,0
57,@Irshad...,irshadparakkat,,iphone 7plus is better than i phone 13 series portrite mode. in 13 portrite bluring some focus object parts with back gorund.,27-11-2021,0
58,Byahe ni Ish,mr.xxxxxxxxxxx30,,just w8 ip14..,26-11-2021,0
59,Juls,hydez1986,,"You’re missing the logic why Apple releases it. 😏 Now, if you dont like it we do.",23-11-2021,0
60,What In The World!,chiquicali,,They probably did the 30 fps because next year iphone 14 will have the 24 fps😅😂😅😂 oh yeah that’s not funny😳😳😳😳. I’m holding out til next year,22-11-2021,0
61,Chocolynn13,chocolynn13,,Thank you for this education love photography I so appreciate this information ❣️,2-11-2021,0
62,musaazi davis,_m.u.s.a.a.z.i_,,"bro you can't compare a camera to a phone
the only thing cameras do is to take photos but phones are multipurpose",31-10-2021,0
63,Miguel,migyyyyyy_,,Okay so im voting BBM for president! thank you!,24-10-2021,0
64,Yon☯️,yon70e,,Good point. Don’t forget that still it’s a phone. Bringing the cinematic mode is by itself is a success.,23-10-2021,0
65,Taylor,sersi82,,Maybe theyll try in the iphone 14 or next ios update for iphone 13,22-10-2021,0
66,hi,vinnieyeayea,,I'm poor ik leave me alone,14-10-2021,0
67,Faiz Akbar,faizakbarn,,Lol,10-10-2021,0
68,Rowdy Kaushal,riokushal,,Nice advice 👍,3-10-2021,0
69,Singh Vishwajeet,im_vishwajeet,,What u expect more from a phone its a phone camera bruh chill everyone knows cinema camera cant be compared with phone camera,1-10-2021,0
70,TAN YUNG JING,tanyungjing,,how about vs Android 😏,1-10-2021,0
71,Matin Sikandari,matinsikandari,,We need results if the result is okay why shouldn’t we don’t buy,1-10-2021,0
72,It's Prince,pwins548,,"Before you comment in this video, make sure you know what is FPS and how it works.",1-10-2021,0
73,iFxn,iiffxnn,,"yall, it's a PHONE and A DEDICATED CAMERA",30-9-2021,0
74,Safi Ur Rehman Khan,safisardar111,,sorry but iphone have still more sales then cameras😅😅😅,30-9-2021,0
75,alexcross4788,alexcross4788,,"Dude you can’t compare a phone to a cinematic camera,Can you camera can take calls surfing the Internet😅",30-9-2021,0
76,Biniam As,biniamas,,How to photo users on I phone 12,30-9-2021,0
77,Aki,jakercuamag,,It’s a phone.,29-9-2021,0
78,Mister,invisibleman779,,compare DSLR with Nokia 3310 for me..,29-9-2021,0
79,Anathy Madanoni Mjul,anathymadanonimju,,that feature is just bad. I saw cameras comparison between s21 ultra and 13 pro max. it's just bad in both and not usable.,29-9-2021,0
80,AirDroid Official,airdroidofficial,,Already expecting iPhone 14😏,29-9-2021,0
81,Azad Qolami,azadqolami1,,"You’re comparing the first version of a $1000 phone with the latest version of a $40,000 Camera!",29-9-2021,0
82,Dave Pandiño,ndavepixels,,but you can't screenshot on that Cinematic camera.😳,28-9-2021,0
83,Shiju TK,shiju2v,,May be cost is a factor,28-9-2021,0
84,Roger Siow,rogersiow,,When Apple launches iTunes the music industry which are over 100 years in biz are laughing at Apple … see today. Point proven 😅,28-9-2021,0
85,armanmalik,malakarman5,,they are dont know these sir,28-9-2021,0
86,Johsen94,johsen94,,Why they concentrate in camera 📸 only 🤷🏾‍♂️🙄,28-9-2021,0
87,Kamran Wardak,khan....sahib,,Can you please make a video for what is the best Camera for photography to buy plzzz 🙏🏻❤️,28-9-2021,0
88,παδιm,nadimrh,,Are you hulk?😁,28-9-2021,0
89,v4ns.pSaLm,ancepetersalmas,,just be happy bro. atleast it has that feature..,28-9-2021,0
90,Akze Contreras,akzecontreras,,Because this a phone and not a professional camera homes. A phone forever and always.,28-9-2021,0
91,King Zen,kingzen0000,,I use Filmic Pro App for cinematics using iphone 😌 worth it,28-9-2021,0
92,Only Human,itsme8787,,iPhone cinematic mode is a joke 😅😅😅 sorry Apple,28-9-2021,0
93,Marvz Cortez,iammarvz_,,Maybe they can make changes on iPhone 14 or 15,28-9-2021,0
94,ユニスカスサノ 🖕,yunisontap,,hahahaha iphone vs camera lol,28-9-2021,0
95,David Sudjono,davidsudjono,,Wait iphone 14,27-9-2021,0
96,Xavier Jeremy,xavierjeremy0,,what's new android users already using it hahaha,27-9-2021,0
97,Gopal Gill,gopalgill0,,i thik thay did't pay u😂😂,27-9-2021,0
98,Imen,iamimen22,,Don't ask for more...,27-9-2021,0
99,F,justcallme_fort,,"Is there a video of any android phones that compares to professional cameras? yes, nothing. just iPhone. 😂😂😂",27-9-2021,0
100,💡,stayfit1o1,,"Apple always tries to sound fancy about their product, yet great at what they do",27-9-2021,0
101,الساحر,a_l_s_a_7_e_r,,just like comparing Rolex with Casio ....,27-9-2021,0
102,user880950,pjphotographer,,Because people are not checking that and that's a business making money on it,27-9-2021,0
103,@Dwan,spartansoldier101,,well thay have to make iPhone 14 duh,27-9-2021,0
104,varDelta21,vardelta21,,iphone is simply bs.,27-9-2021,0
105,KrisMil7,utero1,,Absolutely … I think the creator has too much expectation on a phone.,27-9-2021,0
106,Wildanbprasetyo,pastellatons,,dont worry 4k cinematic mode will available on iphone 16,27-9-2021,0
107,AkoSiNathan,akosinathan07,,hahaha.. advance daw sila mag isip.. 30fps hahah patawa,27-9-2021,0
108,Jeremy Muyumba,m_jeremy98,,It’s a iPhone not a camera big man relax,27-9-2021,0
109,AR,ar.king16,,from what i understand is cinematic mode should be 4k 24fps ?? or 30?? not 1080p,27-9-2021,0
110,Pandosen772777828484848,pandosen987677653466,,Maybe because u can change the focus even after recording. Do it with ur cinema cam,27-9-2021,0
111,Percival Shaba,sahcrid,,I didnt even understand anything you said here 😂😂,27-9-2021,0
112,Bradley Devenish,bradleex1,,Bro thanks for the video. But I think you should take it down because ppl would come for you on this 1. It’s just a phone,27-9-2021,0
113,B.A,ix901,,"Things like these, you will find apps do it sooner or later, if Apple didn’t do it, developers will do it",26-9-2021,0
114,Jewel,thezowel,,they wish they could have expert like you. now get ready they will hire you.,26-9-2021,0
115,HYA,hya00000,,that's a phone!,26-9-2021,0
116,Kermit,.kermitto,,Great insight! Hopefully they gonna add this in the next ios update,26-9-2021,0
117,Clark Sebastian Reid,clarksebastianrei,,sana all,26-9-2021,0
118,Azhar-rafa,azhar_rafa,,sony xperia 1 III cinematic pro pls check,26-9-2021,0
119,syĒd sadeeQ🤍,mrdubaisyed,,already before using Nokia smartphone cinematic mode 2o2o,26-9-2021,0
120,EE,icallystoinne,,They keep 4k for ip14pro max. So it can be call an upgrade for mext gen iphone. 😂,26-9-2021,0
121,F0o0oodD,virg0o0o,,give it up apple😂,26-9-2021,0
122,Mamit Kei,keimamit,,"bro, it’s just a phone, what do you expect?",26-9-2021,0
123,shabeel43,shabeel43,,Bro this is phone not camera ! And the price also different ! Dont compare Obama with Cristiano Ronaldo😂,26-9-2021,0
124,Purple Mochi,purple.m0chi,,"your video not only revealed this flaw in iPhone 13, it also showed how some people have comprehension problems 🤦🏻‍♂️",26-9-2021,0
125,DOOBEDOO7,doobedoo7,,I think iPhone software developers will benefit from what you showed us. Important point tho,26-9-2021,0
126,afghanturkman5,afghanturkman5,,it's too good sir but I can not buy because I do not have money I love soo mach iPhones,26-9-2021,0
127,wislove905,wislove905,,only this,26-9-2021,0
128,Sam,sam11118,,Thanks anyway I'm good,26-9-2021,0
129,Shairol Rafizan Mohd,shairolrafizan,,It's a phone.,26-9-2021,0
130,Melvin Aguilar,mlvnglr,,Wait for ip14,26-9-2021,0
131,Homieboihiphop,homieboihiphop,,they did that so that they will not run out of ideas for the next iphone. it might be available on iphone 14 we don't know,26-9-2021,0
132,Dammysax,shallybeatz,,Mtcheww.,26-9-2021,0
133,☑️BigTokGeorgia,bigtokgeorgia,,Wait till iPhone 14 comes out they’re just teasing with this one,26-9-2021,0
134,Gian,gianm26,,Then just don’t use the Cinematic mode. You’re not the target market of iPhone 13.,26-9-2021,0
135,Nikola Tochev,nikolatochev,,CPU is not yet powerful enough.,26-9-2021,0
136,Alka,alka_pathak_official,,It’s just another waste of money for iPhone 😏😏😏😏😏it’s just a camera difference,26-9-2021,0
137,shhhhhhhhhhhh,ughhsss,,adu amom,26-9-2021,0
138,Sabita Babu,sabitababu3,,android have this feature a decade ago😂,26-9-2021,0
139,Mrln,mrlnsngco,,Spoiler alert! they will include that on Iphone14. 😅,26-9-2021,0
140,nakata,nasko.k05,,To get the 4k Cinematic option you need to get the models above 128gb. Apple has done that since it takes up a lot of storage and 128gb isnt enough,26-9-2021,0
141,🫥,sebastian_ivan16,,This is first gen technology man it will improve,26-9-2021,0
142,Jake,jakewhatnow,,"Because they keeping it for iphone14 duh? Haha im justa. Bystander, but maybe its true who knows.",26-9-2021,0
143,TikTok Mystery Recapped 🇵🇭,moviesrecaptiktok,,Why do we need it in 24fps tho? I’m curious what’s the dif if it’s in 30fps?,26-9-2021,0
144,Mooncakemafia,mooncakemafia,,Lol only F2,26-9-2021,0
145,ANIMELOVERS🌓🕚🗾,animeloversaot14,,Phone can't easily replace some dedicated camera - a6400 user,26-9-2021,0
146,Woodz,ayatosdik,,Yeah about that… that’s gonna be on the iPhone 14,26-9-2021,0
147,Priya Janani,priyajanani1,,But I don’t have,26-9-2021,0
148,🇵🇭\DJ/🇺🇲,djldr11221,,my FYP always iphone 3.. 🤦😭,26-9-2021,0
149,Chacha🏳️‍🌈🏳️‍⚧️,chastin0516,,Woaaah that’s really cool! We’re comparing pro camera over iphone camera,26-9-2021,0
150,Video-Graphy,saimonpoudel2,,"Good point, that's what i was noticing too , thanks brother for the video anyway,",26-9-2021,0
151,BULLS٭ 🇳🇵🇰🇷,bulls774,,@ELF乛BULLS٭ 🇳🇵🇰🇷：What do u expect from iPhone to destroy your camera ??,26-9-2021,0
152,Pempeknyaii.bekasi,pempeknyaii.bekasi,,Semoga ada yg kasih hadiah iphone13 🥰,26-9-2021,0
153,JUAN MIGUEL,juan16_16,,Try asking Tim cook 💅🏼💅🏼,26-9-2021,0
154,Rafi Doria Perez,rafiperez20,,OH marketing,26-9-2021,0
155,Sikad Media Ph,glasseyed45,,That's not new. Androids like huawei already have that's called aperture mode.,26-9-2021,0
156,⚜️Jansenarity⚜️,jansenarity,,“Phone Vs. Pro Camera”thing. like legit 😏,26-9-2021,0
157,kilonoobkh,tersleng,,iPhone not ready for replace your camera 🎥,26-9-2021,0
158,Oxx,itzme.oxx,,Bc they want ppl to get happy with that and name is as GOOD then get out something better to grow sells..duh,26-9-2021,0
159,rupicscube,rupicscube,,"so they have something to say ""we added a groundbreaking feature"" next year.",26-9-2021,0
160,AJ,sum_one_u_dunno,,This is pure curiosity. It doesn’t have option to record on 1080p 60fps? Did you already go to camera settings?😅,26-9-2021,0
161,pinagpala,tiktokaccntnotfound,,cinematic but not 24fps hehe,26-9-2021,0
162,Klay Frenchie,klay_thebluefrenchie,,What’s the default aperture setting in 4K regular?,26-9-2021,0
163,Im ganno be a sthar,slayflop02,,Laughs at android already have that😆,26-9-2021,0
164,Juslin Rniza,juslin101,,Good thing you got the camera. or you getting both? @veezybombay,26-9-2021,0
165,ioscompiler🇵🇱🇺🇸,ioscompiler,,Big fail. Beginning of end for Apple.,26-9-2021,0
166,Christian,chrt3ch,,Maybe because cinematic is softwares rendered and it is possible that at 4K the cpu will heat too much.,26-9-2021,0
167,M A R K R Y A N,mrnf2188,,Its camera phone compred to the pro camera,26-9-2021,0
168,Faraaz Ali,iamfaraazali,,Change in the body color is the Major Upgrade from 12 to 13 ❤️,26-9-2021,0
169,Alvi_7,77cc77xx,,Dude .. iphone is a smartphone.. not a dslr camera ..,26-9-2021,0
170,dejiye,inshaar1,,"This is the beginning, check iPhone 14 next year !😅",26-9-2021,0
171,lovehurtsalways1,lovehurtsalways1,,99.99999% of iPhone users will have absolutely no use for this feature 😂,26-9-2021,0
172,Muhammad Azam,muhammadazam180,,Chupbe,26-9-2021,0
173,Elman Hasani,elmanhasanisaleh8,,Dude 256gb version of pros capable of 4K on cenamatic,26-9-2021,0
174,TechAndSpecs,techandspecs,,My iPhone goes up to 4k 60fps,26-9-2021,0
175,Apple User678792845,nick.kavun1990,,"Bro, cannot compare, pro cameras done it manually, iPhone uses AI to proceed with algorithms and that’s why there is limitations to it",26-9-2021,0
176,Digital Mooney,digitalmooney,,"Hey do you know your voice is literally just like ""Ray Romano"" (Everybody Loves Raymond).",26-9-2021,0
177,User13911131517,dpkd18,,Because of the storage and battery life i guess.,26-9-2021,0
178,BeQS,beqs06,,True,26-9-2021,0
179,Vanessa ☾Dark And Light☽,galaxiesdance,,It’s probably gonna be a “new feature/upgrade” for their next iPhone generation 🙃,26-9-2021,0
180,MQ library cafe people,mmpkoq,,The price of IPhone 13 compared to video camera makes them do that😅,26-9-2021,0
181,Steve386,stevep40,,Imagine downloading the captured cinema to your computer. It’ll take awhile I’m sure.,26-9-2021,0
182,antigopedo,user271776372,,why not?,26-9-2021,0
183,Maskey Maskey,maskeymaskey2,,"wow, u are comparing phone camera to pro camera… apple seems really serious on camera",26-9-2021,0
184,Jerome,jeremy_tok,,"Bro,chill out it’s just the beginning",26-9-2021,0
185,Saint-Tropez 🌐,anyshadesofblue,,"Because they will still release iphone 14, 15, 16 and etc. if they make iphone 13 perfect then they couldn’t release new phones each year.",26-9-2021,1
186,ZZZ,zaibatsu98,,"It just a feature on iphone 13, next they will introduce to new better camera function like always 😂",23-10-2021,0
187,Unknown Kiddo246,unknownkiddo14,,it doesnt make any sense! why would you compare a phone to your camera? Can you surf the internet and make phone calls on your camera?,30-9-2021,0
188,jiggle,01bestcomment,,becuz ur so complicated..just enjoy the features,28-9-2021,0
189,Melvin,melvinjt,,You sound a little worry,26-9-2021,0
190,M Ghazali Mustafa,mghazali92,,Indian dramas are shot on iphone 😂,26-9-2021,0
191,🫣,_kvndf,,Its a phone with a Camera. Not camera with a phone. 😬,26-9-2021,0
192,Professor,professor8602,,Comparing apple 🍎 to orange 🍊,26-9-2021,0
193,KD86,kd86.86,,"then as human , we again fighting ? for something only last 3 months ?",26-9-2021,0
194,HUICHOL69,huichol69,,Because one is a phone and the other one is 📷. is that simple,26-9-2021,3
195,FasbytesReality,fasbytesreality,,That’s why video cameras are expensive,25-9-2021,2
196,Alfa Romeo,desi_australian_25,,you are mixing mobile phone camera with pro cameras....sir mobile cam is toy infront of pro so 24 or 30 frames doesn't matter. 😏😏😏😏,26-9-2021,1
197,Filipe Barros,fbleite,,"""I don't know why they did that"" 😅 it's a freaking phone man, it's not a cinematic camera. Stop complaining 😂",26-9-2021,9
198,User45125075917,user45125075917,,90% off people will never use this,26-9-2021,1
199,No Copyright!,z00memes,,"I love to compare cameras to phone cameras, the phone cameras always lose😂😂😂😂😂😂😂😂😂😂😂😂😂😂😂😂😂😂😂😂😂",18-12-2021,1
200,✨,bieberthings,,I wish they’d do 4K,24-12-2021,0
201,DemoLa ,demo_uk,,That’s what Apple does every time. Then put the feature in a new iPhone & sell to us like its a new innovation 🤡,26-11-2021,0
202,Terence De Haas,terencedehaas,,Iphone 13s butt,27-9-2021,0
203,Nora Giordano75,noragiordano00,,cupertino 73 gradi ?,30-4-2022,0
204,Jane Smith7397,janesmith7397,,All efforts was useless until when I met LEMTOOLZ on *insta* he's a genius guarantee that,29-1-2022,0
205,DENNIS DÍAZ V,diaz516si,,Get ready iPhone 14 999$ 😂they just your money.,26-9-2021,0
206,Abdul Manaf Suja,abdulmanafsuja,,"Dude, do you know what is success??… you are comparing Iphone with with professional camera",26-9-2021,0
207,Yef c٥ʷₚͦ៰ᷜ⍳٥ˢ,yef_2u,,we just don't care about that 😂,16-10-2021,0
208,luisramires17,oregon_rider,,Same shit. Ppl paying over 1k to get pictures with blurry backgrounds 😂😂😂😂😂😂,1-10-2021,0
209,Subash Nepal,nepsubash,,showing f stops like this is completely bullshit😂,1-10-2021,0
210,Saif سيف,saiful550,,Hes just jealous,28-9-2021,0
211,Shaazam,zaabnz,,I don’t care😂,27-9-2021,0
212,Jaccop ornestedee,thatkingstar91,,fake mode 😅,26-9-2021,0
213,Katbare,ciregaz2,,Hater 😳😳,26-9-2021,0
214,N Khorasani,jkhorasani3,,Stop advertising😌,26-9-2021,0
215,Melvin,melvinjt,,Wtf I thought u knew ! Lol 😂,26-9-2021,0
216,armin,xrmxnh,,Dont care never did,26-9-2021,0
217,Lucky_Lupa,lucky_lupa,,Useless video and your opinion. This wasn’t build for pro’s.,26-9-2021,0
218,Garry007,deograciousa,,they can fool their stupid customers but not the rest of us😂,26-9-2021,0
219,Ckemi,c.k.e.m.i,,They gotta leave something bad so they can improve it on the IPhone 14 and get idiots to buy that one too😂,26-9-2021,0
220,ElatedGaming,elatedgaming,,What he is trying to say is in a regular video mode they already have 4k at 24fps. Again the regular video mode. Then now they created cinematic mode.,30-9-2021,0
221,🎀 𝑅𝒽𝒾𝒸𝒶𝒥𝒶𝓈𝓂𝒾𝓃 🎀,iamjasminsmith,,https://vt.tiktok.com/ZSeejHUVX/,28-9-2021,0
222,JD Ros,jdros15,,I’m gonna be pissed if they decided to do that BUT on iPhone 14 😂,27-9-2021,0
223,Jj💎,junex152,,Thats is crap 😂😂,26-9-2021,0
224,David Voldemort,voldemort606,,Have you considered processing power you need to calculate all that,26-9-2021,0
225,Cyril Bruce-Cathline,cyril_asefua,,"Very good point. As a photographer, I fully understand what you are saying. Send Apple an email, they could update the software and thank you 😉",26-9-2021,1
226,_ncc_1701,_ncc_1701,,"The minute you said 30 fps my first thought was should be 24 fps and I’m. not an expert by any means. Man, Apple is lost without Jobs.",25-9-2021,1
227,BurcioNestorJr,nburciojr,,How about messenger chat heads? Is it real?,25-9-2021,0
228,user133455,MS4wLjABAAAA9k-EXquMIPgpC2Yenjx0-iu-lLG8AHd_-ehiEBybgRhBOLqgF4rpTYDKv6Ek0Q2C,,You need to understand it’s a software effect that needs enormous computing power. Current mobile cpu is just not fast enough. That’s why.,28-9-2021,0
229,Kevin Rodriguez,kevinrodriguez5582,,Why your real camera doesnt have call and chat mode?,27-9-2021,0
230,slowknifedesign,slowknifedesign,,"Ive seen somewhere that IG, tiktok and these platforms love 30fps and the whole point of iPhone I personally think, is to serve this purpose, socialM",27-9-2021,0
231,Ryan,emoboy_00,,"24 fps sucks, why would you use that?",27-9-2021,0
232,HAMod,ah.tik,,"They dont have new updates , as they thinking, lets add stupid option in the camera",27-9-2021,0
233,AR,ar.king16,,good video but i feel like its made for people who understands cameras & shit. Video went over my head like 99% people who buys this wouldn't care les,27-9-2021,0
234,Vincent Janu Razalo,mr.vjraz,,"@Vincent Janu Razalo：Not bad for first attempt. Still very amazing feature, but needs improvement. It will be enhanced for sure in the next versions",26-9-2021,0
235,Limau 🍉,im.n0b0dy_,,"yeah man , i did noticed it too . can't call it cinematic mode at all without 24fps . they can just put other name instead of cinematic mode .",26-9-2021,0
236,Ville,yliporo,,The iPhone can do one thing that your professional camera cant. Change the focus point after you shoot the video,26-9-2021,0
237,STARRR💙,starrrescalambre,,"It's the 1st time being Introduced. And a reason for ""update"" on the next model. Simple.",26-9-2021,0
238,Nauman Haider,naumanhaider04,,You are totally wasting your time and my time,26-9-2021,0
239,Lukas,frownguy12,,It’s almost like computational depth of field is easier on lower resolutions lmfao.,26-9-2021,0
240,Spider-Man,unforgottennoob,,Of course no phone will add all features in one release. This will allow competition in the market.,26-9-2021,0
241,KasunGK,kasungk,,legit .. maybe the point you are reffering be adressed in an upcoming sw update,26-9-2021,0
242,Mr. Blue,bluejam707,,so you mean the regular video is still better cause you can shoot at 4k anyway?,26-9-2021,0
243,dellanotravel87,dellanotravel87,,"this is not apple to apple. you wont make a professional film with iphone. it same, does your camera is used for call or chat with someone?",26-9-2021,0
244,James Jamie Koroma,jjroy22,,How can I get this iPhone 13 I’m in Cyprus Limassol city,26-9-2021,0
245,Klay Frenchie,klay_thebluefrenchie,,They will enable 4k cinema and call it iPhone 14 Pro 😂 cmon you know the drill,26-9-2021,0
246,User8363637,user7654639464684,,"Everyone missed your point, you shouldn’t brought the pro camera up, since it’s not related to what you are pointing at, it just confused ppl",26-9-2021,0
247,Lolll,a.izgay,,"24 FPS !
Why Hollywood is using only 24 fps?",26-9-2021,0
248,Sergiu Hanganu,sergiuhanganu007,,so many idiots here comment whitout understanding...😅😅😅,26-9-2021,0
249,Earbrows McGinty,justthefactsmaam,,Thank you for letting me know. Just cancelled my order. That’s actually a big deal and a dealbreaker.,26-9-2021,0
250,Armani,armani_asr,,Are you mad ..? It’s a phone not a camera df ..!!!,26-9-2021,0
251,Doak,donny1837737,,"Doh, that’s whT happens when you change the f stop 😂 u do realise it’s an iPhone 📲 not a pro camera",26-9-2021,0
252,Josef Luca,jluca87,,F in DSLR Camera means how much light you let in the lens,26-9-2021,0
253,Channy,dontmakeitaweproblem,,Ffs so it’s jus a cinematic thing we paying thousands for 😂and a not so pink iPhone 13 😂,26-9-2021,0
254,Tashfeen B,tashtech,,"Relax, it’s just a phone, not a $20,000 cinematic camera 🎥.",26-9-2021,0
255,Ella Vader,acidicblacksire,,How good is your professional camera at texting?,29-9-2021,0
256,Seapixels,seapixels,,"it's called i24 , you can purchase it at app store for USD 59.99 per month for 24 frames or USD 149.99 if u bundled with i4k",26-9-2021,0
257,unfamiliar,unfamiliar_99,,It’s a phone..what do you expect…,26-9-2021,0
258,Wayan,wayan_makasii,,they did it to make you talk about it. goal achieved. one more free add for apple 👍🏽,26-9-2021,0
259,Blogruel,wellwellruel,,"don't worry, that will be the next cam features of iphone 14 series. so the customer will buy another one for 4k or resolution cinematic mode.",26-9-2021,0
260,raneem,raneem.almansour,,@lUkAs,26-12-2021,0
261,Alaa,alaaxs06,,@_ibrala,27-9-2021,1
262,dr_ashu1221,dr_ashu_1221,,@zaighimalik555,26-9-2021,0
263,user116,loveis0c,,"So, why not 4k 60fps , 4k 120fps,… ?",26-9-2021,0
