,Comment Number (ID),Nickname,User @,Comment Text,Time,Likes
1,urbrotherfromanothermother,theyarewatching4,,Android users: bUt We hAd ThIs fOr yEaRs 🤡🤡,4-10-2021,420
2,Nicky Narayan,nickyron7,,"From 12 Pro: 1) Take a clear picture,, 2) Make a zoom, 3) Crop it. Problem solved.",5-10-2021,161
3,khan afghan momand,hamid.k9,,this guy is fooling us because in iphone 12 pro he is using camera in 1x but in iphone 13 Pro he is using in 3x zoom. iphone 13 is using digital zoom.,6-10-2021,33
4,980980,northshore6,,Apple does not know how to make a camera,4-10-2021,15
5,Vasil Kosev,v.photoholic,,Saying that one camera over the othar based on the fact that they added macro in the new one is not true. Doesn’t mean that the 12 pro’s camera is bad,4-10-2021,40
6,MR CAR,mrcarchannel,,It's not the camera that's better it's the software 🙄,8-10-2021,11
7,Liam A. Hahn 🏳️‍🌈💞,hahn.47,,"What’s what they said, When the iPhone 12 Pro was released. 😂",4-10-2021,60
8,Francis Maduka,nature_green_field,,my Samsung does that too,4-10-2021,35
9,Eric Tang,ericmtang,,The iphone 14 pro max camera will be better than the iphone 13 pro max camera 😁,4-10-2021,13
10,2vidx,2vidx,,People who are saying apple copied again 🙄 not really because macro shots have been around for years on other Devices.and apple always does it better,7-10-2021,2
11,Lucas M / VIP HOST WORLDWIDE,lucas_cirquelesoir,,Ok but you buying a phone or a camera ?,4-10-2021,8
12,J.P,jp23671,,I have the 12 Pro Max & I’m not happy at all with the camera. Don’t think the new phones are much better? May have to wait for next years model.😅,4-10-2021,23
13,Jackeyotrades,jackrtradesooo,,Honeslty what will I do with macro,4-10-2021,19
14,I Love Jollibee 😆,paribus.io,,Iphone 14 cameras would like microscopes can see your own cell’s.,27-10-2021,2
15,ElShADdAi,regmuz23,,You used 1X on iPhone 12 but 3X in iPhone 13 why????,23-11-2021,1
16,Epic rapper,iddreamoutloudd346,,Camra difference doesn’t matter,2-11-2021,1
17,Nekisha Taniel,shieldmaiden19,,Take this video down cuz the Samsung users will only laugh at you. They had this feature 2 years ago,8-10-2021,1
18,Nicki Savage Design,nls1208,,The 12 Pro Max has the same macro zoom feature.,4-10-2021,22
19,Dhwhqksb shqiansb,user39274721,,Just click to focus on the iPhone 12,10-10-2021,1
20,HradišťskáV8,hradistskav8,,lol i do have a macro camera on my 4 year old phone. What a joke this iPone is,4-10-2021,2
21,Andrey Nikolaev,yung_andrew,,My sAmSunG DoES TaT TOo,10-10-2021,2
22,User45125075917,user45125075917,,Yeah but when am I ever going to use that 😂,6-10-2021,2
23,KELVIN☣️,prinzk_,,"I prefer my 12pro max I don’t have to change my phone cos it doesn’t have cinematic mode,13pro max is literally one of the failed iPhone Apple created",10-10-2021,1
24,Ramone Sharma,ramonesharma,,Waiting for iPhone 📱 15 let’s see that 😁😁😁,4-10-2021,3
25,yaya,yaya..........15,,I wonder what will it be like wen iphone 14 comes😂😂😂😂,4-10-2021,1
26,FasbytesReality,fasbytesreality,,"What’s up with all the hate… no one is forcing anyone to get the new iPhone , 😂",4-10-2021,3
27,David Alan Arnold,davidalanarnold,,Wow,4-10-2021,2
28,Diwadeq,diwadeq,,"iphone 13 and ios 15 = 2021
android and android device = 2015",8-10-2021,1
29,Agent 2006,agent20061,,how much can you zoom in the camera,8-10-2021,1
30,Assurance,hskoromasorie,,"can I have one please"""" I want it but I can't afford it !!!!",8-10-2021,1
31,Darwin Droho,darwindroho_,,If you tap the screen it will auto focus,8-10-2021,1
32,aviisaacson,bobjef_,,Y is no one talking about how mark ruffalo is doing a iPhone reveiw on tik tok,8-10-2021,1
33,Juan,juanit0b,,gurl androids been having this since forever………,7-10-2021,1
34,Capricorn 🥥,tyricia14,,Bro it’s like the same thing 😑,6-10-2021,1
35,MArwAN,f.z3,,😁ترا مافي شي تغير غير التحديث لا تعمل تحديث لهاتفك يضل قوي وان حدثت الهاتف يقلللون وايد اشياء مقارنة من هاتف الجديد,5-10-2021,1
36,user2461141185517,cloudwarriortik,,Lol fanboys cannot take it when there is a microscope that cost $20,5-10-2021,1
37,River Perez,river_perezzz,,@camerynallen40 bruh,6-10-2021,1
38,TEAM _DROLIC,kailian_drolic,,Hi,4-10-2021,1
39,Mark,dusky501,,"Ok, so what else does the 13 have? 🤷‍♂️",5-10-2021,1
40,Sam Cruises,sam_cruises,,nice joke 😹,9-10-2021,1
41,mitmita2013,mitmita2013,,You can use 0.5x in the i phone 12 and get the same picture.,28-11-2021,1
42,Aland,alandthegamer,,it's because on the first iphone you were using the second camera and on the other iphone you used the third camera,26-12-2021,1
43,ciphervenom,ciphervenom,,should I bring s21 into this again😂,30-12-2021,1
44,..,4ktbray_mmm,,@therealtaboo I had this 2019😂,29-12-2021,1
45,JaysticaL_XD on MOST platforms,jaystical,,yet the s10+ from Amazon renewed beats it in video quality 😏,28-12-2021,1
46,811-C1,811_c1,,That’s why I Love 😭,18-5-2022,0
47,Xu Jingtao,ttxutao,,牛逼,25-12-2021,0
48,piotruspiotr,piotruspiotr,,you zoomed in on iPhone 13,17-10-2021,0
49,Eren Jeager,i_am_erenyeager,,"but for the 12 pro, why didnt you zoom like what you did for 13????",17-10-2021,0
50,Mas,maslian696,,but u didnt swtich to macro lens for 12 pro…😂😂😂,17-10-2021,0
51,protokker,efanboy04,,literally what android havee had many years and apple users have made fun out of it😂😂,15-10-2021,0
52,JamOh,sir_jame5,,Why does seem this video needs sponsored Ivón on the bottom left.,15-10-2021,0
53,@huu74,huut1974,,I gonna get iPhone 13 soon.,14-10-2021,0
54,akbarnoorzahi3,akbarnoorzahi3,,It’s all the same 💩,14-10-2021,0
55,jrant8,jrant8,,That’s why is the next generation 😅,14-10-2021,0
56,gisss,use007v,,and ?,13-10-2021,0
57,preetnagla605,preetnagla605,,don't make fool ya boss,13-10-2021,0
58,باوا,syedamad5,,I love my 12 pro max . Anyway thank you .,13-10-2021,0
59,bmirza_007,mirzasaheb100,,This isn't reason enough to upgrade though,13-10-2021,0
60,Lola,bluebonnet2020,,I really like your voice! It easy to listen to.,13-10-2021,0
61,clrd2lnd,clrd2lnd,,Wow! Can’t wait!,12-10-2021,0
62,Ali :),actually._.ali,,That is a new feature but doesn't make the whole camera better,11-10-2021,0
63,𝙎𝙚𝙗𝙖𝙨𝙩𝙞𝙖𝙣 🐟,c.bass.tiktok,,He had Live Photo on too😅,11-10-2021,0
64,Champ,champspecialist,,The LG v60 can do even much better... just saying,11-10-2021,0
65,JUANCARLOS,juancarlostica,,Coz you are no longer holding the coin,10-10-2021,0
66,Abel Danky,mr_danky,,That’s awesome,10-10-2021,0
67,🦊⭐💀,escap7st,,who uses macro mode on a daily basis though? you're gonna use it once for fun and forget it altogether,10-10-2021,0
68,Slimtighwaist,slimtightwaist,,Apple had to be paying you!! We just bought IPhone 12,10-10-2021,0
69,Friends,f.r.i.e.n.d.s1993,,"i had this feature in 2 years old phone, Oneplus 7T",10-10-2021,0
70,use HP 203,jaliscohp_203,,later the iphone 20 will arrive and we will get something bad from the iphone 18 and 19 and so on forever,10-10-2021,0
71,reda171995,reda171995,,buy Samsung ultra 21,10-10-2021,0
72,emir3675,emir3675,,just go to 15x to a screen show us the pixels,9-10-2021,0
73,김 리키,rickykim06,,But it’s still not worth getting or upgrading. Buy a real camera for half of what an iPhone cost and save.,9-10-2021,0
74,Lovelynessie,nessiegirl,,omg thats why iphone very expensive u can say sana all,9-10-2021,0
75,Parakram Raj Tuladhar,parakramtuladhar85,,Isn’t it obvious that it will get much better than iPhone 13 when 14 comes out next year ?,9-10-2021,0
76,Samaritan,almoudallah,,Looks good,9-10-2021,0
77,Josh,osumunbro,,pretty sure this is just software. I'd have to do some research but it's my guess that both phones use the same physical cameras,9-10-2021,0
78,Calumn VR ♏️,valikvb7,,It's switch to another camera len.,9-10-2021,0
79,Devin,devin6781,,"Samsung has had this for ever now, apple is so late",9-10-2021,0
80,999,aj_topics,,but…but you zoomed in,9-10-2021,0
81,just loaded,justloaded,,20 years ago I had super macro on an old cam corder so just old tech font put in a phone 😏,8-10-2021,0
82,LILBUNNY,lilbunny_official,,bro we need @Samsung and @apple to create a phone together,8-10-2021,0
83,David Rivera,davidrivera129,,I have iPhone but androids been doing this shot for years lol,8-10-2021,0
84,user6218996691168,jackofallstars,,My 3 year old Huawei p30 pro dazzled iPhone users for... 3 years. 😅😅 Seriously Apple!? At last?,8-10-2021,0
85,adylupu16,adylupu16,,Zoom? Welcome 2017,8-10-2021,0
86,olly,olly.blackman,,so £1000 to take macro photos 🤣,8-10-2021,0
87,fun facts you dont know,funfactsudontknow,,"lol thats a software feature because iPhone 13 pro doesnt have macro it uses main câmera to focus closer, its just software the i8 got that in ios15😂",8-10-2021,0
88,ISAAC.B,isaax.b2022,,Just because it has macro mode doesn’t mean it’s “SO” much better then the 12pro camera,8-10-2021,0
89,Lion king,lion_king.007,,Why u telling here ru I phone sales man,8-10-2021,0
90,user7270110505815,awwsome_son,,No it’s it’s lol Marco photos that’s it not worth the price difference,8-10-2021,0
91,zigi1,iggi58,,Nice,8-10-2021,0
92,LeL,offendedbro,,it's a cool approach apple took instead of adding another camera,8-10-2021,0
93,Avery,stanloonasilly,,is that what happens when a new phone comes out? didn't know 💀💀,8-10-2021,0
94,Ⓛⓘⓥⓔ ⓛⓘⓕⓔ,livelife032,,if that's the case samsung s21 😏 big difference 📸,8-10-2021,0
95,shahbaaz476,shahbaaz476,,My 4 year old Huawei mate 20 pro doing this well since 4 years 😂😂😂,8-10-2021,0
96,︎ ︎ ︎ ︎ ︎ ︎ ︎ ︎ ﷽﷽﷽﷽﷽ ﷽﷽﷽﷽﷽,jmi113t,,all iPhones have that its call magnifier,8-10-2021,0
97,Mehdi Ashrafi,puffer730,,"Yes, everyone says android had this before. But when apple releases a new update similar to what android have. They make it always better",8-10-2021,0
98,tingus05,droom06,,samsung is better,8-10-2021,0
99,Tilak Klavs,tilakklavs,,whoo need macro in real life?,8-10-2021,0
100,Anathy Madanoni Mjul,anathymadanonimju,,"that is not ""so much better """,8-10-2021,0
101,Anthony Al-haddad,he110_itsyoungmoney2022,,even tho android had this for years the macro camera of the 13 promax is light years better,8-10-2021,0
102,Maverick,cbd1982,,Put the iPhone 12 in x2 🤯,8-10-2021,0
103,user4425946034284,itisbig4u,,Apple products have lost their value! Other brands are way better! If Steve jobs was a live he will have a heart attack with what Cook is doing,8-10-2021,0
104,krishna kumar ganta,krishnakumarganta86,,I have it since 2019 on my mi note ten,8-10-2021,0
105,Sugar The Good Pup,sugarthegoodpup,,For the 13 you are in 3x zoom,8-10-2021,0
106,user3836274233023,jaaywal,,"Really, macro? Been on every Android for the last 5 years.",8-10-2021,0
107,Mohammad,almajarish_203,,why would I need that?,8-10-2021,0
108,M7,m7mad.51,,Why didn’t u do the same thing with the iPhone 12,8-10-2021,0
109,A A,aa68048,,You don't need to switch to the 3x camera for macro to be enabled. It automatically recognises close objects via lidar and switches to macro,8-10-2021,0
110,Greg Sury,gregdropsoup,,I could actually read labels with that,8-10-2021,0
111,Bilo,bilo1979,,Zoom in all the way with 12 you almost get same thing,8-10-2021,0
112,Carimen ~Flausseeact,u.u.unity,,Cool,8-10-2021,0
113,Jiri408,jiri408,,I have a Samsung s20 ultra. 100×space zoom 108 mega pixels.. also Samsung make the camera for iphones,8-10-2021,0
114,marcvanderheij779,marcvanderheij779,,"Nou nou wat belangrijk zeg, NOT we zijn en willen helemaal geen macro foto’s kunnen maken, wel bellen, e-mail en surfen. Niks beter dan voorganger",7-10-2021,0
115,🪄,prettycyno,,Who else waiting for 14,7-10-2021,0
116,Emil,fazlicemil,,it's good they added macro but it's not like it's something new,7-10-2021,0
117,Whoami,whoami11225,,Bro don’t waste your money on material things. After 1-3 years apple will make your iPhone slow instead give that money to your parents,7-10-2021,0
118,Erry Thom's,erry_thoms,,Arrrrrrrrrgggg. Tempting me to change my Ip 12 pm,7-10-2021,0
119,user245477,user245477051,,It gets in focus on 12 but u need to go to last camera,7-10-2021,0
120,user5378762529944,tinso70,,Well you press the area to focus..,7-10-2021,0
121,jakeThomsen,jake._.thomsen,,my phone has been abil to do that since 2016 and its good and only$200,7-10-2021,0
122,︎︎ ︎︎,mstyhmie,,My iPhone 13 pro max does not do it how do I fix it,7-10-2021,0
123,Eric,ericvanlife,,So how many people actually shoot macro?,7-10-2021,0
124,Avi,avitheboy,,They can make a movie on the 13 FR,7-10-2021,0
125,Anjan Bohora,anjan.bohora777,,iphone 13 pro camera is perfect bro.👍️👍️👌👌👌,7-10-2021,0
126,dxwxxd,dwd315000,,don't b shy zoom a bit more 🤣,7-10-2021,0
127,I am bugi,bugi680,,I need a canon for pictures 😏,7-10-2021,0
128,Daniel,pixelwarrior923,,I have 12 pro,7-10-2021,0
129,Kalp Bhayani,mr_bhayani_370,,you zoomed on 13 mate. and both coin had no similar ground and distance. 😏,7-10-2021,0
130,Agent gamer,axellips,,The guy said the old iPhone 12 😂😂,7-10-2021,0
131,goéland.dz,emaildz2019dz,,so much expensif,7-10-2021,0
132,jason,jjgou,,So just like add camera feature and extra tb,7-10-2021,0
133,Johnny Morales,johnnycarreto22,,And....?😂,7-10-2021,0
134,Basketball is Life 🏀❤️🐐,basketballislife422,,Works the same with me with my iPhone 11,7-10-2021,0
135,@darkvillain,darkvillain11,,Android users be like what?,6-10-2021,0
136,KARNBorn,karnborn,,Wow so amazing ill stick with my xs max there is nothing wrong with it,6-10-2021,0
137,✋,idkpotato23,,Bruh why is there always two groups of people can’t y’all tell they are doing this on purpose,6-10-2021,0
138,..,kaj_ti_ni_jasn,,yea bc u zoomed,6-10-2021,0
139,poke mon,pokeormon4,,"Is that simplly natural that new lens is better than old ones, especially when you pay more.",6-10-2021,0
140,raymond kong,raymondkong6298,,My Huawei P30 Pro can go even closer with its super macro mode since 2 years ago. So this is nothing special,6-10-2021,0
141,Harkirat,har.kirat,,samsung a12 already has it,6-10-2021,0
142,Boris_The_Cat,boris_the_cat47,,Who needs macro photo ?😁,6-10-2021,0
143,Cheesy puppy,kierandeleted,,It’s better but not “SO MUCH BETTER”. You aren’t going to be taking a macro everyday in your life.,6-10-2021,0
144,Someone reading my name arefat,fuckoff_urfaceisugly,,Samsung S21 😒😒😒,6-10-2021,0
145,Omar2goated,omaribraheem,,Keep trying I’m not switch till my phone turns into dust,6-10-2021,0
146,Hilmi,hilmi_lalu,,mending Xiaomi,6-10-2021,0
147,Idk,kits_and_cats,,And,6-10-2021,0
148,user4555894959545,roppoo,,No it’s not as good as say some actual macro lenses but for something built in that doesn’t require another lens is freaking amazing,6-10-2021,0
149,Noah.,noah.remoroza,,Simple because there’s no macro camera to iphone 12. But this feature is not usable for everyday use in my opinion 😁,6-10-2021,0
150,jamesclaudwald,jamesclaudwald,,You compared it to macro cam??? 🙄,6-10-2021,0
151,midotheprince1,midotheprince1,,this feature is found in the cheap Samsung devices for many years ago😅😅,6-10-2021,0
152,Pray Smile and Forgive,praysmileandforgive,,Wow! That’s incredibly amazing!,6-10-2021,0
153,arkd_ksa,arkd_ksa,,iPhone user makes me sad,6-10-2021,0
154,Efitu,kifleso,,We don’t need to take a pic this close 😂,6-10-2021,0
155,KâM RäÑ,kaammraann,,I don’t know apple sells camera or phone?,6-10-2021,0
156,Pochopocho,pochtokk,,the difference is huuuuge and you need a macro mode to notice it,6-10-2021,0
157,로자리아,hot.mamu,,much details and clear withiut blurred,6-10-2021,0
158,Gyem Tshering,_gyembo,,iPhone 14 pro will come and iPhone 13 pro will be downgraded,6-10-2021,0
159,Pikachu,tikuser87,,What camera do u record these videos with???,6-10-2021,0
160,coex321,coex321,,I used to do that with my iPhone 4 and 5s 10 years ago.,6-10-2021,0
161,UKBaron,lordsgbaron,,I bet you a million dollars iphone 14 pro's cameras will be way better than iphone 13 pro. 😏😂,6-10-2021,0
162,UKBaron,lordsgbaron,,"Alamak, Android phone had this feature and quality for years! 😏😂",6-10-2021,0
163,Suyono Tanoto,suyonotanoto0,,The best picture from handphone is huawei... IPhone 13 is still loser only merek brand... Especially it is quite a lot of difference at night.,6-10-2021,0
164,DP,darkpassengerml,,and? 😂,6-10-2021,0
165,anything Good☑️,_anything_good,,and they use sonny cammera lol,6-10-2021,0
166,Hritish,hazadoor22,,That's not macro. you have to go into the 0.5 zoom mode and put it 2cm away,6-10-2021,0
167,moshhh,hakeemdouble,,good sales man,6-10-2021,0
168,gil,gilwasser,,you need to use the 12’s macro camera too for a fair test. not the normal camera 🤦‍♂️,6-10-2021,0
169,Sławek Mikołajczyk,slawek32,,Okay but to be honest how often do you take macro pictures?,6-10-2021,0
170,Reggie Martin,reggiemartin08,,iphone12 doesn't have that feature? 😂,6-10-2021,0
171,Henri,chairmannn1,,how difficult is it to tap the screen of the iPhone 12 to focus,6-10-2021,0
172,march ivan karl dayo,vankarl,,Oh comman just take a normal shot and crop it.,6-10-2021,0
173,nanaadjeibarima,nanaadjeibarima,,We’ll still use the 12,6-10-2021,0
174,f3nly_,slustful,,I’m not a photographer dawg,6-10-2021,0
175,Queen Grace,queengrace20,,I didn’t notice that 🥰,6-10-2021,0
176,i'am_caasim,wll_caasim,,Unfear comperation,5-10-2021,0
177,Darui,6thcaptain,,"2022: The iphone 14 camera is so much better than the iphone 13 camera.
2023: The iphone 15 camera is so much better than the ip 14 camera. And so on.",5-10-2021,0
178,Fido,be_fido,,"iPhone 4 Makro is also better than 6,7,8,X,11,12.. just put the improved IPhone 4 camera back to the ALL NEW iPhone 13",5-10-2021,0
179,Anónimo,minionanonimo,,Add macro lens = much much much better camera 🤷,5-10-2021,0
180,user5765023109474,spyrosof,,"Yes also this 13 iPhone price is
perfect for photos in the mirror for instagram 😅",5-10-2021,0
181,Marc,986marc,,"now they say that iphone 12 its creapy phone just because iphone 13 is announced😂, few days later, iphone 12 was the best phone in the world😂",5-10-2021,0
182,м͠θHÄм͠Ėđ ﺑۆﭴﻣ̝̚ﻋھَہ,drmjuae,,My Nokia does that 😏,5-10-2021,0
183,Keane Carta,keanecarta,,That’s always what they say whenever a new iphone is released. People r getting tired of the scam.,5-10-2021,0
184,Unstoppable,panda_244466666,,We can't zoom in on iPhone 12?,5-10-2021,0
185,DA Elmore,daelmore,,iphone only compares with iphone. dare not compare with Samsung hahaha,5-10-2021,0
186,Xtn Xtn,xtnxtnxtn1,,"Really?
-s21 ultra",5-10-2021,0
187,BANNED AKUN CITER,jerusnipis,,Camera iPhone 13 so better,5-10-2021,0
188,Don Miguel,miguelquarantino,,You can also do that with iPhone 11 Pro and achieve the same image clarity 😏😏😏,5-10-2021,0
189,Sanjee,sanjeebambaranda,,It’s ok im not gonna take a picture of anything that close😏,5-10-2021,0
190,user5172943598429,kiwii0423,,but the iphone 14 pro camera is better next year,5-10-2021,0
191,Jake07,iamamesstryme,,Dude that’s not how you review a camera. That’s a feature that 13 has. That’s not how you check quality of a phone. Unless you comparing same feature.,5-10-2021,0
192,Chritian Luise,christianluise,,Andriod had it first but apple did it better,5-10-2021,0
193,IG: @gmalcain,gmalcain,,iphone is good.. but I prefer to use my sony cam,5-10-2021,0
194,No_name,you.are.urgly.but.i.like,,Android have that macro long time ago,5-10-2021,0
195,Kit Diaz Evans,kit_diaz,,Try that to human skin especially the pores in the face and they will not like it Hehehehe,5-10-2021,0
196,Kit Diaz Evans,kit_diaz,,Try the moon the stars the galaxy if it has a clearer shots,5-10-2021,0
197,𝙹𝚊𝚔𝚘𝚋𝚋,starscourgejakobb,,"Macro photog but still blurry.. i swear, iphone’s not worth it",5-10-2021,0
198,Adrian Saifullah,adrian_add86,,android can do this long time ago..😂,5-10-2021,0
199,Tupaktorn Lokalorn,leoabad8,,"wait for iphone 14, it will be much better😂",5-10-2021,0
200,SirRufus,4doors.more.whoress,,hulk reviews phones now?,5-10-2021,0
201,3t3rn4l,3n1gm4us,,You can find the Super Macro feature in much cheaper Android phone than iPhone 13.,5-10-2021,0
202,Best of the best,199boy,,telling me iphone have out of idea without telling me 😂😂😂😂,5-10-2021,0
203,meng,meng_gaflo,,Sometimes it’s buying the class.,5-10-2021,0
204,aadhilkoko,aadhilkoko,,You don't have to press zoom for that. It works from ultra wide camera😁,5-10-2021,0
205,Hendra Gunawan,batossai77,,1x and 2x 😂 of course different,5-10-2021,0
206,Lance Davis,lancedavisuarez,,"I dont see any differences, i would say that anyone who owns iphone 12pro, theres no need for you to upgrade.",5-10-2021,0
207,Caspian King Official,caspiankking,,Samsung haa got that last year and I’m just ashamed to be an iPhone user 😿,5-10-2021,0
208,Ceciliamaria🇵🇭🇸🇬,mcvandenheuvel,,So why buy the iphone 13 when a year from now iphone 14 will be so much better,5-10-2021,0
209,🇳🇵 ꧁༒☬ℝỖ𝐎ү𝔸𝐥☬༒꧂ 🇰🇷,royalbistbshal,,No no uou wAit until 14iph,5-10-2021,0
210,DJ-WAQAS,waqashunk,,Put it in your,5-10-2021,0
211,Eed,deedomination,,Bro just use the 2x zoom and ull get a macro shot,5-10-2021,0
212,Darlington Peters,darlingtonpeters,,wat do u expect? u want the 12 pro to be better than?,5-10-2021,0
213,iSky easy,iskyeasy,,"Try this 13 Pro camera by the end of Sept 2022. It will not be the same, wonder if Apple paid you!",5-10-2021,0
214,David1546,david1546251,,Tell me about zoom in and zoom in a far place .,5-10-2021,0
215,Ron,ronalddeeno,,I'd say let's use iPhone for iMessaging only & for everything else use Samsung phones so we don't have to wait years to get a 4-year old feature 😁😂,5-10-2021,0
216,YL,wberrached,,Make sure iPhone 12 Pro is on marcro setting too.,5-10-2021,0
217,Alwayspositive,motown208,,And when would I ever need to use that 😏,5-10-2021,0
218,omz747,omz747,,My huawei mate 20 pro has that and it's 4 years old lol,5-10-2021,0
219,Kelvin P.,kperalta_24,,I mis my Pixel 4 XL after switching to the iPhone 12 Pro Max.,5-10-2021,0
220,agarthaoppong,agarthaoppong,,How do I get the iPhone 13 🥰,5-10-2021,0
221,mustapha abbas,afa_man123,,I have moto g stylus i got it for 299$ and i was able to take the picture closer just like urs..iphone is overpriced and overrated,5-10-2021,0
222,Med,igobymed,,It’s because you got the iPhone 13 on zoom 3x while iPhone 12 on 1x,5-10-2021,0
223,FacelessVoid,facelessvoid777,,Dont know what Iphone 12 you are using boet. Or you dont know how to… but mine aint blurring. Or you just want viewa,4-10-2021,0
224,Abraham Alex,abrahamalex7,,This Is An Old Feat On Most Flagship Devices w/Android OS & I'm Sure That w/Me Saying This Some Of The Brainwashed 🍎 Crazy Ppl Will Get Defensive 😀,4-10-2021,0
225,Anthony LoVerde,anthonyloverde0,,My 12 pro doesn’t get blurry that close.,4-10-2021,0
226,The Don,__philomath__,,But o don’t take any macro photos so what’s the big deal ?,4-10-2021,0
227,Brooks Boyd,brooksboyd,,I am holding out for the iPhone 56,4-10-2021,0
228,Gbenga Oduolowu,alaye_mi_,,Well I use a Redmi and I've always had that😂😂😂,4-10-2021,0
229,Lacaboy,userkrbq0u7qt6,,P20 pro….3 years ago did it,4-10-2021,0
230,Movahed,movahed01,,"This is the apple trick to sell u the new iphone, u need to get that closer photo",4-10-2021,0
231,James Jamie Koroma,jjroy22,,How can I get the iPhone 13,4-10-2021,0
232,iconicspeedy,iconicspeedy,,"That's Macro lens, has been existing on android for ages",4-10-2021,0
233,savvas088,savvas088,,"😂😂 no way, we saw this feature almost 3 years ago on Huawei mate 20 pro 😂😂😂",4-10-2021,0
234,NOA,icharm0128,,Thank you!!!,4-10-2021,0
235,sirrejallow4,princessjallow09,,iPhone 13 is how much,4-10-2021,0
236,Humanity No War,tolerowesthill,,"wow,my life I so much better",4-10-2021,0
237,derickchow,derickchow,,I am sure iPhone 14 will be better 😂,4-10-2021,0
238,Kevin Cheng,babiehusky,,next year is always the best,4-10-2021,0
239,aehm1110,aehm1110,,Hold the coin in your hand using the iPhone 13 just like you did with the 12. Fingers around coin could be throwing focus off,4-10-2021,0
240,JFlo,cheeseheadnarizona,,Marco is cool pictures,4-10-2021,0
241,🦾😃,tiredoftiktokalready,,"With the iPhone 12 , you just have to zoom in a little then It can also take macro pics",4-10-2021,0
242,Trang.Tay,trang.tay90,,Who care i still use iphone3 pro,4-10-2021,0
243,UserHA,hakkkgghh,,I am still using my 7+😂😂😂 I will upgrade next year,4-10-2021,0
244,user5667021326816,user5667021326816,,I just got a 12 😭😭😭,4-10-2021,0
245,Obsa Jamal,obsajamal2,,face 🥺all,4-10-2021,0
246,11host,11host,,"Ok, I am throwing my pro Nikon away 😂",4-10-2021,0
247,Gregg Weiss,greggweiss,,This should literally be the ad that @apple runs to convince people to get the iPhone 13! Should I upgrade me 11 Pro?,4-10-2021,0
248,Sean Adams,seanadams38,,"Yeah, don’t know if that’s enough for me to go and trade up.",4-10-2021,0
249,Homosapiens 2.0,ham0s,,Say what?? 😂😂😂 Macro??,4-10-2021,0
250,Chisholm,chisholmone,,Relatively advanced,4-10-2021,0
251,Karen Llewellyn,kcs.babies,,I have the iphone SE and the camera is absolutely fine 👍🏼,4-10-2021,0
252,Ly Sie,lysie076,,"iPhone 13 pro max is beyond our imagination, I am very happy with my iPhone 13 pro max",4-10-2021,0
253,,adameideh687,,They make it seem as if it’s better,4-10-2021,0
254,,adameideh687,,Not true,4-10-2021,0
255,𝓓𝓸𝓶𝓲𝓷𝓲𝓬𝓴,dominickcidoni,,Macro is as good as the Lidar sensor nobody used 🤣 Still holding the XS Max until they can wow me again👌🏼,4-10-2021,0
256,Jamil Qureshi,jamil_qureshi,,I totally agreed,4-10-2021,0
257,techiedude,techiedude53,,Great. Haven’t even paid my 12 off yet.,4-10-2021,0
258,Moe,floridacontractor,,Not we’re talking,4-10-2021,0
259,Denise,boonekaren63,,What about the the 12 pro max,4-10-2021,0
260,user2621940046979,happyracoon1,,Well u used a zoom tho,4-10-2021,0
261,Wizchy babanla,wizchy,,And I was just about to buy 12 pro max tomorrow 😅,4-10-2021,0
262,Jennyrosekarim,jennyrosekarim,,Someone please send me 13 😂,4-10-2021,0
263,MsCap,misscapricorn2222,,I have iphone 13 and i didnt know this. 😮‍💨😱,5-1-2022,0
264,.,pvnk..ivk,,that's so cool,31-12-2021,0
265,Quill,abdllll7,,My samsung J7 has that i have iPhone too this is old tech,31-12-2021,0
266,Aboustly,aboustly,,My huawei have the same 😍,30-12-2021,0
267,TikTok,nr__149,,Still not worth all that money,29-12-2021,0
268,loy,ainom25,,can l get one please 🙏🥰 iphone12,27-12-2021,0
269,SHAD,shadslemany0,,Of course is better then why they made l iPhone 13 and we pay extra 🙌🏻🤦🏻‍♂️🤦🏻‍♂️,27-12-2021,0
270,no1,d7a01,,you still touched macro 😂,27-12-2021,0
271,celtics46,celtics46,,not worth the 1500 though 😂,25-12-2021,0
272,Im-2-valid,2valid_emma,,People with iPhone X 😮‍💨😓,25-12-2021,0
273,Shamir Zahran,lycanbynight,,you can buy a external mobile lens for macro pics..🙄,23-12-2021,0
274,Ayoub Wissam,ayoubwissamofficial,,and Samsung's is waaay better than both of those 😂😂,20-12-2021,0
275,user2614796970411,avoidme07,,That’s all bs,20-12-2021,0
276,muhammednizar,nizar.ck0,,why you don't zoom 2× in 12 pro,20-12-2021,0
277,Mr nobody,razaball,,but they couldn't jus put that in the 12 and don't make no 13 and other things,16-12-2021,0
278,watching,watching_.u,,Just becuase it can go super close to things doesn’t mean it’s a better camera,16-12-2021,0
279,AdnanAhmadAli,adnanahmadali04,,"@adnanahmadali04:1st that is not better, it's an additional feature which other phones have for years. Looking something innovative from apple.😌",10-12-2021,0
280,Dj Hotaz,djhotaz,,"Ofc the iphone 13 camera is better than the 12, thats why is a newer version sherlock",10-12-2021,0
281,bri mc 73,bri_mc00,,do it again without holding the coin 🪙,2-12-2021,0
282,DjTrump,djdrump,,I phone 12 pro max haven't macro camera. Example Old Huawei P30 pro is more better in macros. Iphone12promax cant take macro photos.,2-12-2021,0
283,Hector He Hec,hectorhehec,,I could do this with my 12 pro in macro mode,30-11-2021,0
284,Silvy Ayoe,silvi.apuspita,,How about iphone 13 not 13 pro?,29-11-2021,0
285,Destiny,beingtheflow,,The cameras differ quite much….but the overall devices are equivalent,29-11-2021,0
286,ZeePee,ziyandapetela,,It’s supposed to be better.Isn’t it an improved version🤷🏻We should stop stating the obvious,28-11-2021,0
287,Elizebeth,elize_beth7,,But u zoom that lol,28-11-2021,0
288,Зинедин Ивов,magare_172z,,Or you can just zoom😅,28-11-2021,0
289,Kamilla_kamilla,88kamilla_tiktok88,,"Use magnifier in the iPhone 12 Pro , perfectly zooming 👍 if you remember iPhone X , it was nice macro , then they removed from 11th, 12th",28-11-2021,0
290,Dennis McCarter,vinobrotha707,,Is the same coin in use in the comparison?,28-11-2021,0
291,Nomvuyo,its_nomieee,,But do we need it?,28-11-2021,0
292,Aboody Nukaly,abdulrahman.nukaly,,I have iPhone13 wallah u swear to got,28-11-2021,0
293,nawab2jan,nawab2jan,,Now i found the deferent between 12 pro and 13 pro😂,28-11-2021,0
294,ehmejay,ehmejay,,Put the coin down just like how you did with the 12 and you’ll see that they same 😁,28-11-2021,0
295,F13hshs,f13hshs,,iPhone 12 your making zoom 1x & 13 zoom 3x 😂,27-11-2021,0
296,user5909123815688,globalkid80,,I’m not gone keep buying these damn phones cause of the camera I hardly use.,26-11-2021,0
297,Vybz,vybz335,,Big mistake u were holding the coin with the iPhone 12 Pro whiles it focus on the background but the 13 u put the coin down,26-11-2021,0
298,Cyril Bruce-Cathline,cyril_asefua,,But I don’t buy the phone for the camera. 🤦🏽‍♂️,24-11-2021,0
299,؟؟؟,i._1xt,,And the Samsung galaxy s21 ultra camera is so much better then the iPhone 13 pro max camera,22-11-2021,0
300,Qatar 🇶🇦 Lover,qtr_lover2022,,Great 👍🏻,21-11-2021,0
301,Running_wild2020,running_wild2020,,Samsung did it years ago,21-11-2021,0
302,Shahab Amjad,shahabamjad1,,Right I don’t like 12 pro camera,21-11-2021,0
303,Factsinworldwide,factsinworldwide,,Android has years before 😂😂😂,20-11-2021,0
304,Nanang Edi,nanangedi1,,HOw about oppo,19-11-2021,0
305,Godwin billions,bllli0ns,,Why did you not hold the coin when using the 13 pro also you are using 1x in 12 pro and using x2 in 13 pro x2 has already zoom it so will get closer,10-11-2021,0
306,marcopolo28215,marcopolo28215,,WoW!,2-11-2021,0
307,@BablosTixle,bablostixle,,Why u don’t use zoom for iPhone 12 then 13 😂😂😂😂😂,31-10-2021,0
308,Elva,mohaveusa,,Amazing!!!,31-10-2021,0
309,प्रेम राई,prem______rai2,,iPhone 📲 14 Pro camara so much better than iPhone 📲 13 pro..😂😂😂😂,29-10-2021,0
310,DextersLK,dexterslk,,Quite a misleading statement. Having macro doesn’t make a camera “so much better”,28-10-2021,0
311,ticktockticktock,ticktocktimes2,,wat about the iphone 13 pro x?,23-10-2021,0
312,꧁ᴘᴇʜ sᴛɪᴄᴋᴇʀs꧂💎,pehstickersacccomm,,Nothing special its like magnifier on any iphone,21-10-2021,0
313,꧁ᴘᴇʜ sᴛɪᴄᴋᴇʀs꧂💎,pehstickersacccomm,,Use magnifier same result,21-10-2021,0
314,rien à faire,devilsinmegothard,,"macro uses ultrawide sensor not telephoto, u should press 0.5x instead but it works all the way",21-10-2021,0
315,Sami Qureshi,samiqureshi5,,Still i will stuck with my iphone 12 pro max 😎,21-10-2021,0
316,Ghost Face,gghhoossttffaacce,,you zoomed... there's a difference,20-10-2021,0
317,Chase Wolford,chasewolford,,"It won’t matter after a few months, Apple software updates ruin the quality",19-10-2021,0
318,𝙃𝙖𝙢𝙢𝙖𝙙𝙅𝙪𝙣𝙖𝙞𝙙,hammadjunaidofficial2022,,I agree,6-10-2021,0
319,Hassan,_hassan2514,,"🙋🏾‍♂️that’s not worth $1,400",4-10-2021,54
320,TheBeast Gamer,thebeastgamer85,,Damn he discovered America 😂😂😂😂This is a few months old now but im and im pretty sure that everyone knows about it,15-12-2021,1
321,Belinga prince ☑️,belingamichael,,Brother 🥺 you making me hating my 12 pro,30-12-2021,0
322,Hassan,_hassan2514,,🙋🏾‍♂️I have the 12pro I don’t see anything better then my old 6plus I won’t upgrade again until another 5 phones comes out,10-10-2021,0
323,ümit,umit_d,,You said the same for iphone 12 pro camera last year 😂😂,8-10-2021,0
324,Datboi,datboi830,,"""13 pro camers is so much better than 12 pro camera"" 🤓🤓 well no $hit sherlock",8-10-2021,0
325,SettingYouFree,settingyoufree,,wow did you know that is sony camera?,6-10-2021,0
326,dennisandino955,dennisandino955,,IPhone is a joke...,6-10-2021,0
327,Afghan,king02ti,,My guy what will u zoom in real life,6-10-2021,0
328,user8409016283868,andy64312,,You just turned on the zoom!,6-10-2021,0
329,qawsedrd,username0193837465,,camera x50 please,6-10-2021,0
330,iKim,ikim43,,things you can do with samsung phones 7-8 years ago,5-10-2021,0
331,Makaveli,i.phelo,,death by iPhone 13 on tiktok😞,5-10-2021,0
332,Happy Ikponmwosa,cuti_savag,,Just turn off live on 12 and you are good😏,27-11-2021,0
333,𝐇𝐞𝐥𝐥𝐁𝐨𝐲,hellboystation1,,That’s ballshit I have iPhone 12 pro max You able to do that by editing the zoom lol,7-10-2021,2
334,aldinduanecodera13,aldinduanecodera,,BONG BONG MARCOS FOR PRESIDENT 2022 SURE WIN NA 🇵🇭🇵🇭🇵🇭🇵🇭🇵🇭🇵🇭🇵🇭🇵🇭🇵🇭🇵🇭,6-10-2021,0
335,Alaa Eldin one,alaaeldinone,,How can a refugee like me get an iPhone,1-1-2022,0
336,Areimvideo,areimvideo,,Like my Galaxy a52....😂,30-12-2021,0
337,Jeeven Fly,jeeven_fly,,I could do it with a cheap made in China phone,10-10-2021,0
338,user9204643720844,user920464372084452,,Why not you choose same angle for both comparison? For 12 you hold coin in hand 😏,9-12-2021,0
339,IG;Exchange_With_Fissam_Trade,fissam_trade,,Dash me your iPhone 12 🥺🥰 Happy New Month HowInfinity,1-12-2021,0
340,Ehthhvvrrfffgdnddbyfsxvnfxvnbf,vvvvbxbtgcc,,Great idea I am going to stop using my iPhone 12th pro max and spend another $1900 just just so I can take a close-up shots of shit.👍👍👍👍👍👌👌,6-10-2021,1
341,,adameideh687,,If you put the down and one of the lenses crack it’ll be apple’s fault,vor 2 T.,0
342,Mr. Mangar,p.adam_,,https://vm.tiktok.com/ZMRot6Fva/ check this 😂😂😂,7-10-2021,0
343,jaffa.jaffadiya,jaffa.jaffadiya,,dummy... it uses the ultra wide camera. not 3x zoom,6-10-2021,0
344,Zebi,zebi1_,,Dude with 12 you took the photo in finger so it’s moving constantly and with 13 u put on surface .. dumb difference,11-12-2021,0
345,dlsinnorcal,sheepdog_001,,12 u were 1x but the 13 u were on 3x 😜,27-11-2021,0
346,Cheaks,aintnos4mpforu,,They fake 💀,31-10-2021,0
347,Mohd Hussain,mohdhussain1966,,"let da camera go to hell, talk about options lol if there’s anything matters 😎",28-12-2021,0
348,user8656191592385,zakharov_84,,😂😂😂🤦🏻‍♂️12IPHONE BEST,24-12-2021,0
349,Jon Jones,jonjones031,,Its the same picture idiot,10-10-2021,0
350,បុរស ជោតក,happyprince1818,,Take a picture of an ant.,9-10-2021,0
351,brian.j2s,brian.j2s,,Stupid comparison. One with zoom in 3x and one not.,8-10-2021,0
352,JuYmeraj😜,ymeraj.jurgen,,just turn off focus,21-12-2021,0
353,Kelechi Okwuabudike,kcee_alexander,,"oga please also drop that coin on the table like you did with the 13pro, that 12pro is struggling to focus on two things your hand",20-12-2021,0
354,Fazil Saif,fazilsaif,,So this is you call innovation? 😀,10-12-2021,0
355,jet,jet_pilot,,You zoomed in the iPhone 13 ... should have zoomed on the 12 as well,9-10-2021,0
356,Lattoslover❤️‍🔥,iwannawinthelatto,,You didnt zoom in on the 12,6-10-2021,0
357,Onlyftz5,onlyftz5,,Not worth 1600,4-10-2021,0
