,Comment Number (ID),Nickname,User @,Comment Text,Time,Likes
1,,diegomen0813,,"If it weren’t for you, I would never take full advantage of my iPhone 13 pro max, thanks for everything. Darn Verizon people don’t know anything 😂",2-12-2021,103
2,KCW_GRIMM,kcw_grimm,,How do you make your Home Screen look like that?,2-12-2021,31
3,CLASSY CHICK 🐤,jenny_official_star,,Super useful 🥰🥰🥰🥰,2-12-2021,6
4,Treasure,masodipiet,,Thank you,2-12-2021,6
5,Morenike Owokoya,morenikeowokoya,,Yaaay I got it. Many thanks,2-12-2021,6
6,PennyTdot,yotakto,,Thanks. Love this one.,5-12-2021,6
7,Darren,darrenak,,Works thank you sir,2-12-2021,6
8,Sue Hunt,suehunt,,That is useful,2-12-2021,6
9,Debra Belleperche,littlewonder66,,Thanks ❤️it,2-12-2021,6
10,Dorothy,dorothyxo2,,Thank you so much,2-12-2021,6
11,user3702099508033,soulsearching873,,Thanks!!,2-12-2021,6
12,user8646057226740,drdupree10,,Done,2-12-2021,6
13,user3230319612877,jerzeygrl00,,Thank you,2-12-2021,6
14,Melat Tessema,melattesema,,Thank u 😌,2-12-2021,6
15,tammyrashad,tammyrashad,,cool 😎,2-12-2021,6
16,WadenMaddrey4161,wadenmaddrey4161,,nice!,2-12-2021,6
17,LAHORIA,one_n_oonly,,Awesome,2-12-2021,6
18,Cateyorkshire22,cateyorkshire22,,Thank you x,2-12-2021,6
19,Delyla1990,delyla1990,,not in iphone 7 plus,2-12-2021,6
20,Gregg Weiss,greggweiss,,Super helpful!!!,5-12-2021,6
21,Rhonda Butler,sweeaty2020,,Thanks,2-12-2021,6
22,theelectricfjord,theelectricfjord,,iOS 15 inter app doesn’t work anymore… .,2-12-2021,6
23,MCF,mcfxxxx,,Dayum I’m finding this super helpful thank you 🙏,2-12-2021,6
24,tracynewburynanny,tracynewburynanny,,Great 👍🏻,2-12-2021,8
25,M Al-tamash Saudagar,baba_saudagar,,I works.. wow I just tried… thank u,2-12-2021,6
26,Ebrahim Sammaki,ebrahimsammaki0,,I just did omg thank you so much brother,5-12-2021,6
27,Tony Acevedo,tony_acevedo.dang,,Awesome! Thanks,2-12-2021,6
28,tylersmith7393,tylersmith7393,,What update is this,2-12-2021,6
29,Piiizzaman,piiizzaman,,"Love it, thanks",2-12-2021,6
30,Dave,dave__54,,Great tip! Thanks🥰,2-12-2021,6
31,Tara,taralovestolaugh,,"I’m having issues with my sounds/alarms. Volume is all the way up. It’s not set on silent. For ex- Sometimes I barely hear I have received, then next",6-12-2021,6
32,David Navarro,david2020756,,Not on iPhone 13,2-12-2021,25
33,LiveLoveTravelLLC,livelovetravelllc,,Thank you!!!!!,2-12-2021,6
34,MattM,mattm0512,,Awesome just used,2-12-2021,6
35,Mary in TN,maryintn,,"If you get messages from UPS and FedEx for example, you can create a contact with the number they use and then they will appear in your known senders",2-12-2021,6
36,Shah,shah6420,,Nice one ☝️,2-12-2021,9
37,Kamica_Kitchen876,kamica_cooks,,Wow let me try it out,2-12-2021,6
38,Techy Jefe,techyjefe,,I didn’t even know they had this for messages!,2-12-2021,6
39,srod,steverodriguez676,,are we going to ignore the fact this guy has 666 on his phone😅,2-12-2021,20
40,RegularGuyEb,regularguyeb,,This is amazing I get so many scams,2-12-2021,6
41,Yolanda Washington,agelessandwise,,Thanks,2-12-2021,6
42,precious7898,precious7898,,Doesn’t work on my 10 😳,5-12-2021,6
43,user3724663143931,user3724663143931,,I have iPhone 11 and I don’t see that,2-12-2021,6
44,John Son,johnson6130,,Not on my iPhone 13 pro max,2-12-2021,6
45,Samantha merin,sam_merin,,Thanks for the information,2-12-2021,17
46,Richard Jefferson,realsonicfan1390,,Thank you very much this is very useful information 😊,2-12-2021,6
47,B Dot Pruett,bdotpruett,,@Christina Puchta we need to do this,2-12-2021,6
48,10493sjk,10493sjk,,Thanks dear 😌,2-12-2021,7
49,screaming.nazgul,susafok,,Scrolls up says go to the near bottom,5-12-2021,6
50,Sean,seanhemphill2,,Not on iphone 11 ..,2-12-2021,6
51,I ❤️ GW,ilovegoodwillshopping,,This is a great tip!,2-12-2021,6
52,kellymarsh6969,kellymarsh6969,,My bank account got hacked,2-12-2021,6
53,Andy Mar,andyoceano,,"I always look for a sign look at your calls that explains a lot to me,no thanks.",2-12-2021,6
54,"B CURLY, K?",dacurlygirlz,,Something I didn’t know I needed!!!,2-12-2021,6
55,marystoy_2000,marystoy_2000,,How is that useful? You still get the messages.,2-12-2021,25
56,Rattray Style 🔥,hairjust4ubeauty,,Thank you 🥰🥰,2-12-2021,8
57,user3781560459891,nanaefyaasantewaa,,Thank you 🥰,2-12-2021,7
58,Terri Patlan-Contrer,terripatlancontreras,,🥰 Thank you,2-12-2021,7
59,MustachioMike,mustachiomike,,Not on iphone12 pro max. You’ll need to update this video if not done already. Good luck.,2-12-2021,6
60,CryptoIrish,cryptoirish,,Is this on I phone 12,2-12-2021,9
61,ROBERT RIVERA,the_incubus,,I have a 13 Pro Max With the latest iOS and my Filter Unknown Senders is totally different,2-12-2021,6
62,•✦♡✦• Ĵαииɛтт•✦♡✦•,veryjannett,,"I don’t know which version of the iOS you’re running, but mine doesn’t have unknown & spam. But the filter was already on.",2-12-2021,6
63,Sicilian Spice,sicilian..spice,,Thank you,2-12-2021,6
64,Likatu,likatu17,,I have an a phone 8 one day it randomly stopped taking voicemails. I have updated but still can’t figure out why. Any ideas?,2-12-2021,6
65,PH,floridamom614,,Will texts still come thru in a diff category? Instacart and Uber eats text from different numbers.,2-12-2021,6
66,Art Racc,artracc,,Thanks for the information!,2-12-2021,7
67,Paul Coates,_paul2wavy01,,I don’t have the unknown and spam option,2-12-2021,6
68,Harveygirl68,harveygirl68,,Awesome tip! How do I get Seri to be available when I’m not on WiFi? I used to be able to activate her always and now I can’t. Thank you!!,2-12-2021,6
69,Shariff Ayobami,shariff_ayo,,Not on iPhone 12pro,2-12-2021,9
70,Claucacauzandu,claucacauzandu,,Awesome!!!,2-12-2021,7
71,Sheila,sheila_8295,,Thanks 🙏,2-12-2021,6
72,Beyourownmuse1,beyourownmuse1,,What is robo killer? I don’t have that. Thank you 😁,2-12-2021,18
73,Yhosemar Méndez,yhosemar,,Thanks for this tip! 😁,2-12-2021,9
74,Brett Lewis,brettlewis53,,Fantastic tip works well on my iPhone 11 Max Pro 👍,2-12-2021,7
75,Nabeelkhan1213,nabeelkhan1213,,Its not working bro,2-12-2021,9
76,jlaw477,jlaw477,,I have an iPhone 11 and I don’t have a page that looks like what you’re showing here,2-12-2021,18
77,Treza Correa,trezacorrea,,Thanks this was so useful,2-12-2021,8
78,vhess55,vhess55,,Smart! Thank you!,2-12-2021,7
79,user1320850224427,user1320850224427,,Ones you click in know what happen,2-12-2021,9
80,Guaaam,xotmi,,I didn’t this right away!!!!😂,2-12-2021,8
81,"Pete. Perth, Australia",rabbitswarren69,,Hmm my iPhone 11 does have all this,2-12-2021,9
82,LizSpire,lizspire,,Another excellent tip! Thanks,2-12-2021,8
83,Beckie Hill,beckiehill34,,Awesome!!! Love this tip! Thank you!,2-12-2021,8
84,🥂 I LOVE Food 🍕,champagnegirlzz,,Thank you for sharing,2-12-2021,9
85,Youtube: 0yeran-yuku0,rvbyrhin3st0n3,,666 under 😳,5-12-2021,7
86,Canadian ChrisD,canchrisd,,"Will this disable 2nd authentication?,,this is for confirming your identity from apps and others",2-12-2021,9
87,IliaBibi216,ninibai,,Thanks! I really needed this one.,2-12-2021,8
88,user7718718801219,stroker777,,This is not for older iPhones!,2-12-2021,7
89,gustavo.norris,gustavo.norris,,よくやった,2-12-2021,7
90,thegarybird,thegarybird,,😳😳Such a good tip. Thanks my man!,2-12-2021,8
91,Kai Flores,karen.kagome,,Not on my 13,2-12-2021,8
92,JustWillMadeIt,justwillmadeit,,I’ve had that since iPhone 10 max. I thought it came like that already without the work. 😳,2-12-2021,7
93,CollMic,collmic,,Thanks! Just set that up!!!! It’ll be useful in finding appointment reminders too!!!,2-12-2021,7
94,oymiami,oymiami,,"Say I get 2msg from 1 person and reply to just one by holding and selecting reply, how do I get back to entire conversation?",2-12-2021,7
95,Carl Marsh,shaky1610,,"What does one of my contacts is in unknown, it’s family 😂",2-12-2021,7
96,Sbudakay1,sbudakay1,,"Your page is awesome dude. Really thought my IPhone was overrated, but I’m picking up things I never knew",5-12-2021,7
97,user4600898113832,crystalthemedium,,I tried it but it didn’t work,2-12-2021,8
98,Cherrybea,cherrybea007,,Not on iPhone 11pro max,2-12-2021,8
99,Benjamin Gattegno,benjamingattegno,,What’s the calorie app you’re using?,2-12-2021,8
100,HiLife,abovethehighandlow,,You have RoboKiller too?? Akkakakaka nice nice,2-12-2021,7
101,donnashulenberger,donnashulenberger,,Can you put a tracker on someone without them knowing it,2-12-2021,8
102,user9303715498530,todaysgood22,,Can you do one on emails I wish I could have one a week 😬,2-12-2021,8
103,deboramelo2354,deboramelo2354,,oi,6-12-2021,5
104,Disputable Stonna,disputablestonna,,Thanks,5-12-2021,5
105,Candy Allen,user3319245549914,,Awesome,5-12-2021,5
106,beatrizcosta96,beatrizcosta96,,bom dia,6-12-2021,5
107,Sparky,harleymarkfarmer,,Thanks,2-12-2021,5
108,Thomas Derrick,thomasderrick5,,Helpful,5-12-2021,5
109,Brandon Welch,yaboib272,,Thank you @TechTok appreciate you!,6-12-2021,5
110,ariv17 🇺🇸🇺🇸,ariv17,,"So useful, thank you!",2-12-2021,5
111,Richard Gallovich,purplesmirkle69,,Thanks,2-12-2021,9
112,HeavyHorseHeaven,heavyhorseheaven,,Brilliant!! 👏🏼👏🏼. Thank you!,5-12-2021,5
113,sportsfansnation,sportsfansnation,,Great tip my man,5-12-2021,5
114,Debra Williams,debrawilliams073,,Oh boy is it useful I have it,5-12-2021,5
115,user9086231587425,jfh333,,I’m a veteran Apple user so I’ll run across stuff like this on my own but I think there’s value in talking about features like this one to an audienc,5-12-2021,5
116,nags786,nags786,,So good. Just switched it on,5-12-2021,5
117,💜Pancreatic warrior💜,pancanwarrior,,Omg!! Game changer!! Thank you 🙏,5-12-2021,5
118,Annie Towanda,annietowanda,,Not on new OS,5-12-2021,5
119,Carly Mearns,carly_mearns,,"All it does is filter them, if it blocked them it would be useful.",6-12-2021,5
120,EmpressD68,empressd68,,Yes it worked,5-12-2021,5
121,Eulalia Dadys,eulaliadadys2,,What about unwanted calls? Please,6-12-2021,5
122,chief10kicks,chief10kicks,,How about telling how to override apple killing our batteries to force new purchase or blow it up and call them out once again for fraud,3-12-2021,6
123,Livin’Life1D@ATime,hooksettin,,That’s a cool one,3-12-2021,7
124,George Pretell,1none4,,I’m not able to play music in my car!! after upgrade 15.1 I don’t have Bluetooth I use usb cable can you help me??,3-12-2021,6
125,Shamone 🕺🏼,fn_clipz2017,,Nobody’s talking about the fact that he has 666 😳,3-12-2021,7
126,Jenkins,thatsme41246,,Does this cancel out everyone who is not in your contacts?,2-12-2021,8
127,Susen,susen9970,,Brilliant! Thank you!,2-12-2021,7
128,leez171,leez171,,My Face ID doesn’t work please help me,4-12-2021,7
129,Furyusone,furyusone,,TextKiller is awesome,2-12-2021,7
130,cShella,cyberbebot,,🥰🥰🥰🥰 How does “share play” work?,3-12-2021,7
131,Marie Gold,mariegold10,,I have the iPhone 12 and it’s not listed on my phone,3-12-2021,7
132,user4173406406984,cemjr1976,,You need to update you iOS,3-12-2021,7
133,Shane,shanemm2,,666,4-12-2021,7
134,Mo Ellcye,momochapman09,,I just did this and OMG! Thank you!! #MindBlown,4-12-2021,9
135,user5336932588668,nsager2,,Thank you and love this 🥰,2-12-2021,7
136,emmy_hunter1,emmy_hunter1,,Fantastic 🥰🥰🥰,4-12-2021,7
137,Bill Borke,billborke,,Thank you 🥰🥰,2-12-2021,7
138,Vin Reyes,vinreyes7,,"I did it ,I like it 🦾",3-12-2021,6
139,Jessi82v,monkeygirl82v,,My iPhone 12 mini doesn't have that yet,4-12-2021,6
140,Hayden,hay_bro17,,That’s actually cool,2-12-2021,6
141,Abair James,abairjames,,I got this,3-12-2021,7
142,Normalinda Oritz,normalindaoritz,,I don't have that layout,3-12-2021,8
143,Immne,immnex,,Android better,3-12-2021,9
144,Breezy,breezy1153,,Awesome! Thanks😁,3-12-2021,7
145,Richard Abuel Retita,19kewl_rare72,,This is for iphone13 model only,4-12-2021,6
146,thundertwotimez,thundertwotimez,,Dope,2-12-2021,7
147,user1101545994583,damarrius14,,Mine only says filter unknown sends but shows nothing else,3-12-2021,6
148,user3711831799820,c_o_r_y_d_i_a_z,,@howfinity how do you select a default display? I hate that mine defaults to the filter instead of the people I know.,2-12-2021,6
149,majed.daba,majed.daba,,It’s off by default 😏,3-12-2021,6
150,Wonder_woman.88,wonder_woman.88,,"Thank you, very helpful tips!!😁",3-12-2021,6
151,LloydK_999,lloydk_999,,😳😳 I’m doing that right now. Thank you.,4-12-2021,6
152,Nora Muñoz,abavarn3m,,Thanks 😁,4-12-2021,6
153,👑 BOSS 👑,diamonddivasboss1,,I don’t have the robo killer,4-12-2021,6
154,QSciences,combatsam,,I just did that .. awesome,3-12-2021,6
155,Elle Rebel,ellerebelinc,,I can not tell you how helpful this was!!,2-12-2021,6
156,🇵🇭Dareal🇦🇪,dbdb0127,,it works for me! thanks,5-12-2021,6
157,Shelli,hellsbellsanbombshells,,Thanks! Totally legit 💯,3-12-2021,6
158,Malinda Hawkins,lifesparkles4us,,OMG! Thank you 🥰 Thank you 💃🏽💃🏽💃🏽super helpful😀,3-12-2021,6
159,Stan the Ketchup Man,srhorwitz,,Thanks!,4-12-2021,6
160,Karen,not4everyone69,,Thanks,2-12-2021,8
161,__Theplug,__theplug,,🤦🏾‍♂️🤦🏾‍♂️🤦🏾‍♂️so y’all telling me y’all didn’t know,3-12-2021,6
162,Amanda Gohmann,awired,,"Wow, thanks for the tip!!",3-12-2021,6
163,user277561680398 Nina,19cinderella65,,Hey ~ how do we delete people we have blocked? I’d really like to know…,3-12-2021,6
164,MATisHere3,matishere3,,How so we block unwanted emails?!! That’s my problem. So much spam. Ugh.,2-12-2021,6
165,Honey 💙,honeydipped83,,Ty this is useful 👍🏾,3-12-2021,6
166,moptops4,swissalomondvanilla,,Thanks.,3-12-2021,6
167,jhonamae629,renjon369,,"Got it, thanks for sharing",3-12-2021,6
168,jeacostic,jeacostic,,Y’all see the 666,4-12-2021,6
169,barbara,barbarajfarmer5820,,Thank you it works,3-12-2021,6
170,Fiifipm,fiifipm,,Mine didn’t work,4-12-2021,6
171,RUBY TUESDAY 🧿,rubydorion14,,"Thanks, I just did this",3-12-2021,6
172,luvjay,jujurakks,,It’s iOS 15 guys,3-12-2021,6
173,Valentine Peters,simjang97,,Thanks it works,3-12-2021,6
174,BWSADHD on Twitch,bwsadhd,,He's using an android to record this,3-12-2021,6
175,Trayce Jackson,swaeetee5270,,I knew that already. Thanks though,4-12-2021,6
176,Melys,melys_is_a_virgo,,THIS 🙌🏼,3-12-2021,6
177,Sher,mustangsherbee,,Cool thanks,3-12-2021,6
178,__danger__4,__danger__4,,Thanks!,2-12-2021,6
179,iluvdatcoco,iluvdatcoco,,Thanks!,3-12-2021,6
180,ebi-akpo,moneymaker8752,,I nor get iPhone na 🥰🥰🥰🥰🥰🥰🥰na Android,4-12-2021,6
181,EDUREJI,edureji,,Thank you,4-12-2021,6
182,Swordonyourneck,swordonyournexk,,Super cool,4-12-2021,6
183,RC・ɳgel,trueclaw,,Thanks 🙏,3-12-2021,6
184,Nancy,nancygraves1970,,Nice thanks ☺️,3-12-2021,6
185,missy19808,missy19808,,Thank you🥰,2-12-2021,6
186,Boss -ZADDY- bitch,revelations12kingdom,,It works,3-12-2021,6
187,Wasihun Tamirat,wasihuntamirat,,Thanks man,4-12-2021,6
188,EgweJohn,duodeh1990,,It works,4-12-2021,6
189,👑 BOSS 👑,diamonddivasboss1,,Thank you,4-12-2021,6
190,Lanileo,teemil8,,Love this,3-12-2021,6
191,Tina Jimenez,tinajlove78,,Umm just did this! Mind blowing!!!!! Thank u!!!!,3-12-2021,6
192,Barb Rosa,spanish1973,,Ty,2-12-2021,6
193,Bonita Lucas,prettylucas,,Thanks,4-12-2021,6
194,Rebecca,ironcandy404,,THANK YOUUUUUUUUUUU,5-12-2021,6
195,Malcolm D'Souza,mbdindahouse,,Thanks for sharing,2-12-2021,6
196,Brendan James,brendan.james5,,Done,3-12-2021,6
197,ZEA💫,z.emyr,,Wow!!!🙀🙀🙀,5-12-2021,6
198,SkyDaddy,skydaddy.13,,how about androids?,3-12-2021,5
199,Justin,justinangel10,,Mine been like that and I didn’t have to do nothing🤪💯✅,3-12-2021,5
200,Emersonn,emerson.s_99,,Thank u,6-12-2021,4
201,Blessed,user375155970839279,,Any app to download songs for i phn,6-12-2021,4
202,Sandy Kambosos,sandykammm,,"Worked a treat, all unknown senders were my known senders 🤷‍♀️🤦‍♀️",6-12-2021,4
203,user6674825220763,user6674825220763,,How can we record videos continuously on iPhones,6-12-2021,4
204,Kenzie Marie🥶,kenzzxmxriiee,,already knew this lol,6-12-2021,4
205,Araxi1111,araxi1111,,Wow wow wowwwwww that’s awesome incredible interesting information,6-12-2021,4
206,Michele Reels,michelereels0,,Thank you,7-12-2021,3
207,Veronica Mota,veronicamota78,,Thanks,6-12-2021,3
208,raykat20910,raykat20910,,Thank you,6-12-2021,3
209,2much_247,2much_247,,This is cool,7-12-2021,3
210,aminatakamara259🌺,aminatakamara259,,Thanks so much,7-12-2021,3
211,gerhardhalbauer,gerhardhalbauer,,Great trick,7-12-2021,3
212,Faizullah Noori,faizullah.noori,,WoW i love this option,7-12-2021,3
213,babyrammy2,babyrammy2,,Wow thank you,6-12-2021,3
214,user968,user34487968,,Awesome tip.,6-12-2021,3
215,Sxrdxr.Rs,sxrdxr.rs,,iPhone 11 de yok o özellik,8-12-2021,3
216,Akhosuah pretty,akhosuapretty1,,Plz how do I save videos and pics from whatup status,7-12-2021,3
217,noname1111,pales_syd,,iphone doesn't deserve to have any tricks. or uphone users shouldn't have any tricks😂,8-12-2021,3
218,Kevin,omgkevinishere,,Tkx,7-12-2021,3
219,Sarah James,sarahjames5455,,@richhacker.958 on Instagram did mine..🙏🙏,13-3-2022,2
220,Char,charsy67,,"Cool, thanks!",9-12-2021,2
221,Malik’s,awais100000,,Nice,9-12-2021,2
222,Lachhiram Teli,lachhiramteli,,Nice,9-12-2021,2
223,Slender,slender_971,,I love this,8-12-2021,2
224,xxx1331fap,xxx1331fap,,U awesome,8-12-2021,2
225,JesseJ,jessej1970,,And I have only XR,9-12-2021,2
226,JesseJ,jessej1970,,Now that's useful. Thanks,9-12-2021,2
227,user3189464322710,kenoutreachman,,Thank u very useful,9-12-2021,2
228,Rowdy paiyyan 👿,rowdy_paiyyan,,Wow this is amazing 🥺,8-12-2021,2
229,Mian Qadeer,mian_qadeer_7654,,It’s good. Thx,10-12-2021,2
230,Audrey Swaner,audreyswaner,,It didn’t work,9-12-2021,2
231,user2190796951412,queenash122,,Thanks 🥰🥰🥰,8-12-2021,2
232,Shirly Sacasas,shirlysacasas,,Not on my 10 pro,8-12-2021,2
233,Satire_AmericanPsycho,patrickbhai,,Another beautiful tip,9-12-2021,2
234,goldenjackson,goldenjackson12345,,iPhone not worse price,8-12-2021,2
235,Shuhwei,shuhwei,,"Question: My blocked phone # list is so long, I am worrying how long can my list be continued? Do you know? Thanks",8-12-2021,2
236,Sarah James,sarahjames5455,,@richhacker.958 on Instagram did mine..,13-3-2022,2
237,Vegas Magic Guy,vegasmagicguy,,I love your information,10-12-2021,1
238,user568436,user5684365,,Thank you 🥰,12-12-2021,1
239,chukwuemekaosuji,chukwuemekaosuji,,Thank you,12-12-2021,1
240,Saint9ox,saint9ox,,thanks man,11-12-2021,1
241,MTJakoh,mtjakoh,,Thanks,11-12-2021,1
242,Jessy Musoyo,jessymusoyo,,Wow lovely,11-12-2021,1
243,Ola,ola__199,,Thank you o,10-12-2021,1
244,ro hin,rohin061,,Layout looks different on iPhone X but it still works.,12-12-2021,1
245,Frits De ruiter,belugathememecat,,Nice thank you for the tip,23-12-2021,1
246,user1212056861709,jejevolution,,Bro why doesn’t my iPhone 11max pro tether,21-6-2022,0
247,jayjay_12331,angel_claw0,,Anyone else notice that widget on the top right 😳,21-4-2022,0
248,Crotonee,crotonee,,@TechTok Does locations drains to much batter?,17-4-2022,0
249,Kelz,tikkelz,,Thanks A Lot,21-2-2022,0
250,DXBBAB2022,dxbbab2022,,Lovely 😁,18-2-2022,0
251,cara_pan,cara_w1,,Nice,15-2-2022,0
252,Moe Joe996,moejoe996,,Hey I’ve got a iPhone from T-Mobile and today it had AT&T where T-Mobile was supposed to be I called and they couldn’t give me answer for the action,10-2-2022,0
253,Tik Toker,orhie10,,Thank you,3-2-2022,0
254,Gavin April,gavinapril,,Like most of the tips they don’t work on the 11 pro max with the latest software 😬,27-1-2022,0
255,Mano,manokhaan31,,Not working,12-1-2022,0
256,flea_jay_bee,flea_jay_bee,,You’re officially my favourite iPhone hack person now. Glad I found you.,9-1-2022,0
257,…,an0n4m0us157,,Me watching all of these knowing damn well I’m too lazy to do any of them,7-1-2022,0
258,swag,_barnaclebuddy,,you have to download that,25-12-2021,0
259,Hyp3rguy77,hyp3rguy77,,Google phones can do this too,25-12-2021,0
260,Nyghte,nyghte001,,Thank you!,24-12-2021,0
261,Adolfo Sirias,adolfo.sirias,,Thanks man,24-12-2021,0
262,Casey Tate,caseytate4,,My iPhone 7 doesn’t have that,22-12-2021,0
263,aeol_andrea2019,aeol_andrea2019,,Awesome,21-12-2021,0
264,Maktub,_maktubb,,Cool,17-12-2021,0
265,uyeah- so,uyeah_so,,Thank you,17-12-2021,0
266,travelvlogs06,travelvlogs06,,Grow,15-12-2021,0
267,iliavo,iliavo,,Thanks,14-12-2021,0
268,Sumit Timilsena,sumittimilsena1,,How to call records in iPhone,14-12-2021,0
269,k_oelschlager,k_oelschlager,,Please. I want to,14-12-2021,0
270,Max_DooDy,max_doody,,My iPhone came with this feature already on from the beginning.,14-12-2021,0
271,Trust Mathe,thembazw,,Done thanks 🙏,13-12-2021,0
272,chichim,astrridd_,,@longganisasiomai full potential,24-4-2022,0
273,Khomotso 🇿🇦,tsokho_khomotso,,How to switch off dial pad sound off it annoys me🥹,28-3-2022,0
274,Liv_benxon,liv_benxon,,Bit late 😂,20-3-2022,0
275,omarworking1984,omarworking4,,Thanks for sharing,23-2-2022,0
276,Dr Nelly Taido,drdaniels248,,I am using iPhone X but my battery capacity is not showing why please I need help,22-2-2022,0
277,Mashudu Lovenestra K,mashudukutamaphotograhy,,Thank you so much,6-2-2022,0
278,jllvifle,jllvife,,Wow! Thank you!😍,5-2-2022,0
279,haythamghareeb1,haythamghareeb1,,on my iphone this is default,4-2-2022,0
280,Axel Conghalaigh,axelthebest25,,False. I don't have an IPhone,1-2-2022,0
281,khalfan dansky,boru_dansky2733,,useful😁,29-1-2022,0
282,Talha Khan,talhakhan054,,I have i phone 7plus my game Is not updated plz help me,28-1-2022,0
283,Waqar Sher,waqarjamil5455,,Nice,22-1-2022,0
284,It’S Maddy,madelyn1104,,I dont have like that on my phone?,18-1-2022,0
285,Mustafaa Khan872,mustafa_872.khan,,bro how to hide apps,14-1-2022,0
286,Israrkhan,isrark73,,I have done that but couldn’t get it…,11-1-2022,0
287,user2627726705450,ethioab,,"Thank you 🙏🏾, where can I set the “delivered” notification on?",1-1-2022,0
288,Royal Ceylon Tours,royalceylontours,,great 👍,1-1-2022,0
289,Max,max.maxn41,,It works but half of the time the unknown senders are stores telling me my order is ready 🥺,30-12-2021,0
290,Jay😁,vsmokeemjay,,That was already applied for me,30-12-2021,0
291,lisa,lisagarand502,,Thank you!!!!,27-12-2021,0
292,Michael M,missionmike619,,Omg just did it. It worked. Thank u Thanh thank u,27-12-2021,0
293,Edi_nam,nomood2,,Thank so much it helped,26-12-2021,0
294,Sissy Petrova,sissyparker93,,You are awesome man !,26-12-2021,0
295,Tony Kim,tonykimcre,,Sort,25-12-2021,0
296,Lucia Lulu,lucia_mahloko,,"I’m having trouble creating my Apple ID, it says your account cannot be created at this time",25-12-2021,0
297,🪐,elliesvogue,,Ooooo,24-12-2021,0
298,Shy,_shy7_,,What phone you have. Don’t have that,24-12-2021,0
299,Drips,drily_drips,,I don't have iphone lemme keep scrolling,24-12-2021,0
300,Blaise3o2,blaise3o2,,Mine was set that way since i got mine. I thought it was a default setting since I didn’t set it that way.,22-12-2021,0
301,Iamsonnieking!,iamsonnieking,,Thanks man… cool and very useful,21-12-2021,0
302,Guri,gurikwinderdadra,,Please add sir tell me how to verify Apple ID,20-12-2021,0
303,Limited time only,limited_time_only,,🤙Yup new that already 👍,18-12-2021,0
304,user4256126470010,remy343,,Do one how to change messages color for iPhone 13 please .,2-12-2021,7
305,noway1004,trutexan1952,,Do you know of an app that will STOP hackers on Anddoid ????,2-12-2021,7
306,user1563885565341,rianna7x,,What about hacking your man phone,4-12-2021,6
307,Nick Ishwar Adhikari,nickishwaradhikar,,How to block unwanted msgs? I block one # and I get from another google #,4-12-2021,6
308,funfromsjca,funfromsjca,,Didn’t work on iPhone 8,13-12-2021,1
309,Yousef,yousef_badry,,Bru now I know where you live,2-12-2021,6
310,sumon❤️,sumon55555555,,Can you please tell me how to block some emails which I don’t want,2-12-2021,6
311,(|~|a|?|€$,h_arich,,Wow that was too way useful for me thanks man 🥰 following 🥰,5-12-2021,6
312,Stan Vasile,stanvasile54,,"Hello, I'm following you with interest ... I have an iPhone and I can't make another account, please can you give me a clip on how I can create ... th",2-12-2021,6
313,Pink19,pinkbubbles19,,I wish we could just block all spam text.,2-12-2021,6
314,singhkadgill,singhkadgill4,,Thanks for the tip bro ….. now I can delete all texts from all unknown numbers …,2-12-2021,6
315,Mandy 🔥✌🏻,mlm9807,,"How can you delete all unknown messages, only allows to select read all but not delete?",2-12-2021,6
316,Aryafillet,aryafillet,,Hey thanks for this I totally appreciate it. Can you say how I can view the number from a no caller ID or private call?,2-12-2021,6
317,Bill Arneson,billarneson,,"Great content! How can you block the spam texts from email addresses? I have unknown filter on, but I want to block them",2-12-2021,6
318,The Simple Truth Official,thesimpletruthofficial,,Can you do that with the phone calls too ?,2-12-2021,7
319,agc1131,agc1131,,Thank you for this tip,4-12-2021,6
320,Kique11,user4933023630433,,Thanks !,2-12-2021,7
321,Chris,renman_in_japan,,Let me show you a setting… on the phone.. but I call it a trick! 🤦🏻‍♂️😆,2-12-2021,7
322,Ray Gage,raygage8,,Can you make a video on arctic 15.2 allow calls on other devices,2-12-2021,7
323,Elvice,elvisk_21,,Useful for sure am down!,5-12-2021,5
324,user50246457570956,user50246457570956,,How do you block unwanted message please,5-12-2021,5
325,Marie Gold,mariegold10,,What if they text you with different number can It still work not getting their text messages,3-12-2021,6
326,Bunny and the Bean,bunnyandthebean,,Is there any trick to weeding out spam calls. They call from different numbers all day long. Somehow my mom you have to press 1 to get a call through,4-12-2021,6
327,leez171,leez171,,My Face ID does work please help me,4-12-2021,6
328,Jacqueline Horn,jacquelinehorn1,,Mine doesn’t have unknownspam,2-12-2021,8
329,Warrior Soul,warriorsoul0,,"So now I see 3 different rows. All, unknown & known. But messages will still come right ? Where’s the trick ?",4-12-2021,8
330,CJ,christin_jl,,Just remember to go in and clear those out now and then as it will back up quickly and take up space,4-12-2021,6
331,KHASHAEE,mrkhash,,That phone laggy asf,6-12-2021,4
332,jhedrick97yahoo.com,jhedrick97yahoo.com,,my phone don't have messages,6-12-2021,3
333,Wayne wizkid,waynewizkid02,,Pls am using 7+ but any time I take portrait the phone will go off so please I need your help,7-12-2021,3
334,IPhone give away,iphonegiveaway126,,"Iphone 📲 give away
Limited time offer
How to join
Must follow this profile
Claim iPhone 📲 from Instagram now",10-2-2022,0
335,awal halidu,haliduawal55icloud.com,,hi,4-12-2021,6
336,Fresh Fruit Garden ✅,freshfruitgarden,,FRUIT LOVERS ASSCOCIATION 🥰,7-12-2021,3
337,james,jamesjarh093j,,I will Forever appreciate the effort of #richhacker.958 on Instagram for keeping all This promises...his a perfect Hacker.......✔️✔️✔️,6-2-2022,2
338,james,jamesjarh093j,,I will Forever appreciate the effort of #richhacker.958 on Instagram for keeping all This promises...his a perfect Hacker.......✔️✔️✔️✔️,6-2-2022,2
339,james,jamesjarh093j,,I will Forever appreciate the effort of #richhacker.958 on Instagram for keeping all This promises...his a perfect Hacker.......✔️✔️,6-2-2022,2
340,Sarah James,sarahjames5455,,@richhacker.958 on Instagram did mine..🙏,13-3-2022,2
341,Johnny Ortega4815,johnnyortega52,,How can we block all unknown senders?????,11-12-2021,1
342,Apple User526323,heathercronin352,,Just turned it on thanks,31-12-2021,0
343,ቬኦል,ribi063,,Please show us how to long video on tiktok flitter,14-12-2021,0
344,Kitta Vorster,kittavorster2,,Best tip ever - spam messages were driving me nuts!!!,29-12-2021,0
345,ghomo phero,ghomophero152,,Dear plz tell me how to back gesture sittings in right side not lift side plz make a video,3-1-2022,0
346,Shakeel Jaan,shakeeljaan22,,Awesome 🥰,10-12-2021,2
347,I'mWeird07,imweird721,,I have a problem with my iPhone X…it constantly disable sound on it’s own without being on silent or the volume turned down…how do I fix it?🥺,6-4-2022,0
348,Елена Кадема,elenamy6,,"Cool, thanks",14-12-2021,0
349,Snack076,christopher076,,Nothing is a iPhone trick. Turning the wrong thing on fucks up your phone.,3-12-2021,6
350,Jerry Kelly,jerrykelly88,,Holy crap. This just made my day. Thank you Sir,2-12-2021,7
351,Omar Reyes,dexzazo38,,Lies,2-1-2022,0
352,420,oldviralshit,,"useful I phone tip: BUY ANDROID 😏
trust me",5-12-2021,7
353,Slay,that.gay.guy.periot,,My name is Laura Hues and I’m proving that girls can do it to and by it I mean touch your cousin was it worth it no it wasn’t you wont see me in your,4-12-2021,7
354,Somali_pro,somali_pro,,⁉️ɪ ᴍɪss ᴛʜᴇ ʀᴀɢᴇ⁉️,2-4-2022,0
355,𝓳𝓪𝔂,livelaughlove4,,Dont work on xr,5-2-2022,0
356,Spiralnebel,spiralnebel,,👍,3-12-2021,6
357,♡,alguulll,,@nein._.k,2-4-2022,1
358,Santina Carolina Fer,xosantyxo,,@leefalidia,2-12-2021,6
359,jewelryk1,jewelryk1,,👍,2-12-2021,6
360,Saaaa,a_ction9,,🥰,2-12-2021,6
361,Nasema_h,nasema_h,,@Lida Haidari,2-12-2021,6
362,hugovdb123,hugovdb123,,👍🏼,2-12-2021,6
363,Masonwilde2,wearestilltogether0,,@ masonswifeyforever,5-12-2021,6
364,grsld_white,aboveground18,,👏👏👏,2-12-2021,7
365,Artist,artist10p,,👍👍👍👍,2-12-2021,7
366,✨👀DeadAngel💀💫,deadangell007,,@shujaat_javed,2-12-2021,8
367,Zee,zezo__2011,,@mooneybaby0,5-12-2021,5
368,Vicky,jdhaliwal011,,Daaaaaaaaaaaaaaa,2-12-2021,7
369,Jimmy cupples,jimmycupples,,@heidirosemusic.x.x,6-12-2021,5
370,Masonwilde2,wearestilltogether0,,@masonswifeyforever,5-12-2021,5
371,Masonwilde2,wearestilltogether0,,@masonswifeyforever,5-12-2021,5
372,mechanican7,mechanican7,,👍,5-12-2021,5
373,chriswall423,chriswall423,,😁😁😁😁,4-12-2021,6
374,Atilola damilola,user2045745635766,,@🥰🥰🥰🥰🥰,4-12-2021,6
375,danosaurusrex5,danosaurusrex5,,🙄🙄🙄🙄🙄,5-12-2021,6
376,Ghajahvxvxhxhshhhah,lastking,,@sophiasnj_,4-12-2021,6
377,leopoold6,leopoold6,,👏👏👏👏,6-12-2021,3
378,Shantell_Tuhi❤️,shantellt27_60,,@nequa_tuhi,7-12-2021,3
379,Asgher Raza,asgherrrrr,,❤️,9-12-2021,2
380,Claudy307,c.laudett.e,,@marcelheij,12-12-2021,1
381,peyton:),peyyytonhxx,,@beautiful_stranger44,30-12-2021,1
382,Mary Alred,already2go,,@,13-2-2022,0
383,Natasha Buhle Nkosi,buhlenk,,👌🏾,17-4-2022,0
384,Hicham Hazime346,hicholeroi,,🥰,13-2-2022,0
385,Bashi Butt685,bashibutt4093,,🥰,1-1-2022,0
386,Zaid,zaidaldarwish,,@ahmadrly,22-12-2021,0
387,OMAR AHMED,omarahmedzzz,,@qsxcgyhnkol,10-12-2021,1
388,user6053897678508,gorwolfrock,,👍🏾👍🏾👍🏾👍🏾👍🏾👍🏾,21-12-2021,0
389,user3204623046509,robertwill8744,,@richhacker.958 on Instagram did mine..🙏🙏,31-3-2022,1
390,marrychriss02,marrychriss0,,Bwlocktoolz help fixed my device perfectly at low cost,9-5-2022,0
391,user3204623046509,robertwill8744,,@richhacker.958 on Instagram did mine.......,31-3-2022,1
392,user3204623046509,robertwill8744,,@richhacker.958 on Instagram did mine.,31-3-2022,1
393,Stanley Jay,escanoo8,,"ShinobiVerse is a tokenized Open-world P2E Unreal Engine/Unity game that fully integrates NFTs,
InterFy&Pinksale KYC ✅
WEB:https://www.shinobiverse.io",16-5-2022,0
394,timb50663,timb50663,,Go shop with @Darkleans on telegram he is the best he has been helping me with card for about three months🥂🥂,3-6-2022,1
395,charlotte3880,charlotte3880,,⬆️I have trust issue until I was referred to him @jswipefunds on telegram he changed my life and I’ll always be grateful to him for doing all this 🥰,12-6-2022,0
396,Pratt Jonny,pinpinscam1,,"@pinpinscam is a legit vendor on telegram you can get you cc,bank logs and dumps from cus I've tried him alot of time and he never fails me 💯",5-6-2022,0
397,user3426417955128,skimcards0,,"@pinpinscam on telegram is real and legit i got my cc from him , he deliver it perfectly ,thanks man ,he also got all methods and sauce PayPal flip",1-6-2022,0
398,FUNDSDAWG01 WORLDWIDE SAUCE 💯,fundsdawg,,All thanks to FUNDSDAWG01 on telegram I got my cc from him with high balance kudos bro🥰….💯,27-5-2022,0
399,Pratt Jonny,pinpinscam1,,"@ PINPINSCAM ON TELEGRAM has been the realest dude I ever deal with successfully,I got my MOs,Tax refund method and CC fullz..........",26-5-2022,0
400,florish73,florish737,,alot recommendations about DAMONSWIPES makes me try some credit cards with him on telegram... I'm so glad it got delivered as promised 💯✅,24-5-2022,0
401,kallum owens,kallum2owens,,"I keep doubting untill you prove yrself bruh,I got my methods &cashapp flip done successfully, thanks to LURDSWIPES ON TELEGRAM you’re the best fam",21-5-2022,0
402,Tylerthompson382,tylerthompson382,,Big appreciation to LURDSWIPES ON TELEGRAM for the Apple Pay sauce and stock X method he got me💯…can’t stop recommending your good work gang✌️,21-5-2022,0
403,Daniel James8298,danieljames8298,,"kudos to BIGDAWGSAUCE ON TELEGRAM he's a legit and Trustworthy vendor he got the highest cc balance I got my apple pay ,btc,mos sauce try hit him 😀.",14-5-2022,0
404,krosslason,krosslason,,"Trent_toolz on Instagram helped me reset my password
He’s very fast",8-5-2022,0
405,Viktor Ramos515,viktorramos515,,I bought my Cc from HACKFUNDS ON TELEGRAM his a honest and trustworthy gang have ever met...try him and give thanks fam,22-4-2022,0
406,Loura price799,louraprice799,,I vouched for DAWGSWIPES on telegram his the realest dude have ever meet on earth kudos bro……………,8-5-2022,0
407,Pinpinscam,pinpinscam3,,Don’t really believe in @pinpinscam on telegram when I purchase my clone cc and dumps just got my card with incredible limit on it 💯,2-5-2022,0
408,OFFICIAL MOL LAH RICHY ❤,mollahrichy,,I really appreciate BIGDAWGSAUCE ON TELEGRAM for the sauce and method ya got me kudos bro,13-6-2022,0
409,bexus4,bexus4,,"I really appreciate you @JswipefundsON TELEGRAM he sell &pin,clones ,PayPal transfer,loan approval Spammed cc also available",12-6-2022,0
410,mdaniela87,mdaniela87,,"🆙 HMU🤙SKIMCARDER001 On Telegram
Dumps &pin,clones ,PayPal transfer,loan approval Spammed cc also available with both high and low balance 💯💯💯💯",29-5-2022,0
411,Hatter Nud,hatterhud,,"Hit @pinfunds ON TELEGRAM he sell &pin,clones ,PayPal transfer,loan approval Spammed cc also available with both high and low balance",21-5-2022,0
412,Pinpinscam,pinpinscam2,,"I really appreciate you @PINPINSCAM ON TELEGRAM he sell &pin,clones ,PayPal transfer,loan approval Spammed cc also available",5-5-2022,0
413,Whitey Bulger,whitey623,,"➡️Hit @pinfunds ON TELEGRAM he sell &pin,clones ,PayPal transfer,loan approval Spammed cc also available with both high and low balance",21-5-2022,0
414,P B Al,gracethroughfaith2us,,The problem is you still get them.,2-12-2021,7
415,Concepts by Gav Hepp,concepts_by_gavin_hepper,,how bad does that notch look. are all iPhones like this,5-12-2021,5
416,Prince Raee,princeraee3,,Tqq 🥰,15-12-2021,0
417,Pet lovers,lucaschannel12,,Thank you,24-12-2021,0
418,OnlyThe LoyalOnes Bloody ☪️,otlofuckingbloody,,who tf didn’t kno that?,2-12-2021,7
