,Comment Number (ID),Nickname,User @,Comment Text,Time,Likes
1,Leandro,leandro._.__,,Pro video already was a thing,6-12-2021,18
2,urbrotherfromanothermother,theyarewatching4,,Just download more ram no problem,15-12-2021,2
3,Levi,warthunder_retward,,I want that phone but so dang expensive,4-12-2021,11
4,Mercedes_sprinter_2004,mercedes_sprinter_2004,,this is new for all galaxy phones not just s21 in the new android 12,7-12-2021,3
5,isaacg_24,isaacg_24,,it the exact same as my s21+ because thier is new feature to update is good and amazing onlybthing that they mess up is the fingerprint on password,4-12-2021,1
6,Ya no juego Akali 😔,iloveakali_,,"Ram plus means I got 4 extra ram in my phone? I got a s10 plus with 8 gb, so then i got 12?",11-2-2022,0
7,fw.flux,fw.flux,,The vegeta wallpaper 😩,4-12-2021,1
8,Alexis,alexalyfe,,the s21 has the color pallette 😁,29-5-2022,0
9,Cobblerpico,cobblerpico,,The extraction of colors from the wallpaper and the extra dim are functions that come in Android 12.,8-12-2021,0
10,No one,daniel_kolano,,First!,4-12-2021,1
11,nanbreadnat,nanbreadnat,,i get this phone tomorrow 🥰,3-2-2022,0
12,Mr. bentley,mr.bentley80,,oh so I know now my beloved s20+ is getting a 5 new gimmicks which is totally useless for me 🤣,13-12-2021,0
13,"Lua Scripter, GFX designer.",fear.dev,,how do I get android 12,18-12-2021,0
14,hdasdfg1,hdasdfg1,,nice😁,5-12-2021,1
15,🍀shmily🧚🏼,laughingturtle,,wait is there a brightness slider??,30-12-2021,0
16,Buzielo,buzielo,,I really hope i will get a flagship samsung next time i will be switching phones,2-1-2022,0
17,Chris,iamchris132,,wow,22-12-2021,0
18,Zack (Taylor's Version),zabzabcanfly,,DONT UPGRADE GUYS... IT WILL BREAK YOUR AUDIO.,2-1-2022,0
