,Comment Number (ID),Nickname,User @,Comment Text,Time,Likes
1,Solomon Oghobaje,tradersj,,vivo won.... iPhone came last in my opinion,5-1-2022,123
2,Marko🙃,itz_samih19,,The Vivo and the Samsung,5-1-2022,84
3,🚔ØFFIŒR👮‍♂️,oneplvs,,S21 ultra or pixel,5-1-2022,26
4,oki-6747,okie_6874,,iPhone and Pixel because it looks natural. The Vivo looks to artificial and processed in my opinion.,7-1-2022,24
5,apple memories,apple.memories,,Pixel 6 Pro,5-1-2022,11
6,erionxhemajlaj,erionxhemajlaj,,Iphone 13 pro,5-1-2022,46
7,☦️DreamVilleSinVille☦️,pendingbadness,,iPhone took this one,5-1-2022,3
8,CARGUY4LIFE,carguy4life4,,Vivo and samsung,5-1-2022,3
9,lol,anyfanpageshouldquit,,Pixel and iPhone,5-1-2022,24
10,Mayowa Bodunwa,mayowabodunwa,,between the pixel 6 and iPhone 13 pro. The lights were blown out on the other cams,6-1-2022,3
11,SahjStrikes7,sahjstrikes7,,Do you use a tripod or something,5-1-2022,2
12,Mafhud,fmafhud123,,iPhone won it was natural,14-1-2022,1
13,user306338909035,sziszi00000,,1 Iphone 2pixel,5-1-2022,9
14,Rowuhua,rowuhua,,sony no doubt,14-1-2022,2
15,Kripallll,kripallll_,,Guys which one do yall prefer iphone 13 pro or pro max?,5-1-2022,4
16,.,syriannnnn,,How u do that,5-1-2022,3
17,SHOERICE,tech_lover_3,,Pixel 6 Pro,6-1-2022,3
18,e,bro_readinggoodcomments,,iphone gang,12-1-2022,1
19,berkauu,berkautt,,first😬😬😳,5-1-2022,2
20,Eric leandro Ramones,eric34ig,,pixel 6,5-1-2022,1
21,user5761208677902,military_hub80,,vivooooo,5-1-2022,16
22,Slurp that dck tudi coooom,raffino.ino.ino.ino,,vivoooooo,5-1-2022,6
23,Maxim Guzun,senpai_2009,,Vivo win,10-1-2022,2
24,Iriartefrank,iriartefrank,,S21 - vivo,7-1-2022,4
25,iconicspeedy,iconicspeedy,,Vivo for me,6-1-2022,2
26,Tik Toker,alflaco0_7_,,vivio,6-1-2022,3
27,Piros Mcfly,pirosmcfly,,1phone y vivo?,5-1-2022,1
28,Nerj,low_fps,,Sony looks the most natural but I think the Samsung looks the best because it's bright and you can see,6-1-2022,1
29,47Tech,47crazed,,iphone and pixel has the most detail on the highlights. just look at the lights and the fence.,5-1-2022,1
30,Jordy Molina,j4rdaan,,"iPhone, pixel and vivo are kind of the same. They all win",6-1-2022,1
31,...,no_one_1009,,pixell wonn even i am a samsung fan,5-1-2022,1
32,Riccardo,riccardo.berger,,You din‘t have to look which one is the brightest. You have to look which one has the most natural video,11-1-2022,1
33,lowd.,prodlowd,,"Pixel 6.
If you look at the bench, the Pixel kept a lot more detail.",6-1-2022,1
34,abolfazl_ir14,shani_w313,,x70🙂,12-1-2022,1
35,RAYYAN KING AFG,rayyankingafg,,s21 ultra best 👌,7-1-2022,1
36,Ashray Lalta,its_ashray_,,SAMSUMG OP 🤠🤠🤠🤠,6-1-2022,1
37,hdasdfg1,hdasdfg1,,pixel,5-1-2022,1
38,Aminou Zait,aminouzait8,,"how are people saying iphone ?? it's Vivo that's the brightest and least noise, 2nd is the S21 Ultra... iPhone is dark and not sharp",5-1-2022,1
39,Dat Vairo,datvairo,,Wow.. video này cho thấy vivo quay tốt hơn. Nhưng mình vẫn thích iphone hơn :),10-5-2022,0
40,Just for fun,just.for.fan123,,Sony Xperia pro is the best ever,12-3-2022,0
41,aliazraq694,aliazraq694,,Vivo and Xperia clear of all,27-2-2022,0
42,Avy Sakura,avysakura,,"natural/basic-iphone
details and natural-pixel
too dark- xperia
can adjust and improve the cam even in low light - S21 and Vivo.",25-2-2022,0
43,666,preacher.of.satan.666,,"top 3 are
Vivo x70 pro+
S21 ultra
iPhone 13 pro max
all amazing phone though 😁",20-2-2022,0
44,Daniel Dimitrov,danieldimitrov16,,Iphone then vivo. Rest are to brith and blurry,28-1-2022,0
45,Shareeph GT dean,shareephgtdean,,the Vivo x70 pro+,17-1-2022,0
46,user6177729403089,kurvimetr1,,"sony, vivo, pixel, sams and iPhone last place",16-1-2022,0
47,Lulu,lulu_abobrinha,,Take photo a moon whit ZOOOMM,15-1-2022,0
48,#free Palestine,wajiawan512,,VIVO AND S21 ULTRA,14-1-2022,0
49,Mp,markoperisa23,,IPhone is Best it s clear,11-1-2022,0
50,阿里芬,bankai_88,,They're all good in my opinion,11-1-2022,0
51,suheelmohiuddin1,suheelmohiuddin1,,Galaxy is too bright,10-1-2022,0
52,Norman,y0wai_mo,,Samsung and Xperia made t he lights too bright and blurred the people too much vivo won,10-1-2022,0
53,✯ᴗ✯,vvv.a_man_14_,,"Xperia and Samsung
2.pixel
3.other",10-1-2022,0
54,The Soothing Dark,thesoothingdark,,I was gonna say that Sony was the winner until I saw the Vivo,10-1-2022,0
55,ìþ mè jàďà,jada_sad,,s21 ultra looks the best,10-1-2022,0
56,Johsbak,johsbak,,"Lmfao, all of them is the same vid. They are just a little edited😂😂",10-1-2022,0
57,Filee,_cowboy_patrick_,,s21 ultra is even better than it looks here cuz tik tok ruins the quality of most android phones,10-1-2022,0
58,uwu,kukuruz725,,"1. Vivo
2.Pixel
3.Samsung
4.Iphone
5.Xperia",10-1-2022,0
59,Moktader Al-Khazraji,qadoory99,,"pixel most detailed , vivo best lighting, rest are so bad",10-1-2022,0
60,AiykR,aiykr,,it's between Samsung and Google..Sony Xperia was a disappointment..iPhone was bland..vivo seems over saturated but impressive,10-1-2022,0
61,RicHoMmiEKeY 🖤,24kcordae,,iPhone and pixel kept it real the rest made it too shouty 🗣,10-1-2022,0
62,Avy Sakura,avysakura,,vivo and Samsung really excel the quality even in the dark. meanwhile the iphone and others stay in low light. no improvement.,25-2-2022,0
63,Paul Hădărean,paulhada17,,"it depends on where did You focused that's why S21 is lighter than the 13 pro for exemple,so to be fair focus in the same object",10-1-2022,0
64,Santy,santy_dxd,,píxel 6 pro for the good management of noise and vivo,10-1-2022,0
65,A,n0m3_de_usu4ri0,,in my opinion pixel is the best (for videos),9-1-2022,0
66,Luke Bojanowski,lukebojanowski_official9,,VIVO and Pixel,9-1-2022,0
67,Sławek Mikołajczyk,slawek32,,you should add mi 11 ultra to your tests,8-1-2022,0
68,Aurimas,auri5s,,"vivo all the way, wake up the clearity of video is insane",8-1-2022,0
69,Salvador Zambrano,therealszc,,How can I use C3-PO’s voice?,7-1-2022,0
70,Hella Funny!,itshellafunny,,think the iphone looks best on the phone itself with hdr but it definitely didn’t win in tiktok,7-1-2022,0
71,Kofola dealer,kofoladealer,,"All of them look good but I don't like the last one, it's too bright",7-1-2022,0
72,BerZerker,palamaniac,,"Vivo,iphone,pixel,s21u",7-1-2022,0
73,Bo’o’owotah,isitinyet1,,Vivo pixel iphone galaxy s20,7-1-2022,0
74,Tik Toker,imnotintopiss,,"Sony was the most accurate just the quality that ruins it , the pixel might just be a bitt better than the iphone and the vivo was to bright",7-1-2022,0
75,li,ritcli,,pixel looks like winner and vivo 2nd,7-1-2022,0
76,lauren,lasoutee,,Xperia has pretty a cinematic video@,7-1-2022,0
77,rakiiith_,rakiiith_,,Vivo and Pixel,7-1-2022,0
78,king david,davooxxy,,galaxy then vivo then sony,7-1-2022,0
79,K,k.b_7777,,the worst s21 ultra,6-1-2022,0
80,saba❤️🔫,pechenia_rostia69,,1 vivo 2 Xperia 🥰 in my opinion,6-1-2022,0
81,ig - cristi_thx,cristithx,,Xperia pro won it has a Sony camera on it so it took the best video .,6-1-2022,0
82,𝔇𝔞𝔳𝔦𝔡,mindikowski,,"iPhone definitely, not overexposed, not overlighted",6-1-2022,0
83,ᵃʰᵐᵐᵃᵈ,ahmmadschachmatt,,"samsung, pixel and iPhone are pretty much equally great",6-1-2022,0
84,ONLYHEAD444,onlyhead444,,vivox70proplus is best,6-1-2022,0
85,Manu Vijayamohanan,manu_vijayamohanan_,,Vivo and pixel,6-1-2022,0
86,Jesuslara,jesuslarabill,,"Omg, i’m an iphone user, but the Vivo just blow my mind 😳😳😳😁😁😁🥰🥰🥰",6-1-2022,0
87,Frank,oneclot,,"vivo, 1st position
pixel,2nd position",6-1-2022,0
88,Rohan,rohankpr991,,y don't you get the XIAOMI MI 11 ULTRA I'll say it has one of the best cameras,5-1-2022,0
89,Solo gnhyy,lolimanlol,,"for sharpness it's pixel 6 pro
the brithger vivo",5-1-2022,0
90,nekdopac2782,nekdopac2782,,literally every phone did better than iphone,5-1-2022,0
91,☆●《TIK_TOK_FUNNY》●☆,maiaraboukhir,,didnt expect Vivo could do better wow 😯,5-1-2022,0
92,L.D,_zezak,,"Yall that say iphone and samsung are mad,all these small brands are way better istg",5-1-2022,0
93,raymond mlimbila,rayvanny22,,what did you all expect iphone has Lidar so ofc finna take a great video,5-1-2022,0
94,David Funder,daffo79,,"I’ve got both the S21 and 12 Pro and the difference is huge in low light. Androids need a lot of processing, which is okay.",5-1-2022,0
95,Ahmed Iheb Saadi,ahmedihebsaadi,,iphone 13,5-1-2022,0
96,presidentoftheplanet,presidentoftheplanett,,Samsung,25-4-2022,0
97,Lulu,lulu_abobrinha,,A MOOONNNN,15-1-2022,0
98,wiliamskennedy,wiliamskennedy,,vivox70proplus,12-1-2022,0
99,LuxyDuxyPro,luxyduxypro,,Vivo nailed it 😳,11-1-2022,0
100,Adrian Martinez Roman,liebe.god,,vivo/samsung,10-1-2022,0
101,jjjikkkk,gjjgjgjgjgffjf,,s21 or vivo,10-1-2022,0
102,_ethan00,_ethan12345,,"vivo, pixel and iPhone",10-1-2022,0
103,K R Y P T O N🥇,kryptonwan,,Depends on the angle. 😤,10-1-2022,0
104,Hi,flossplayz,,Iphone,7-1-2022,0
105,mx_2,x22411,,vivo,7-1-2022,0
106,ohlomon,ivan_grozzznyj,,that's not low light,7-1-2022,0
107,Nella (CODMSV),nellagmr,,pixel and vivo,7-1-2022,0
108,✔,danstaapelikoniel,,vivo,6-1-2022,0
109,Marce,marceloochoa22,,@sandraajenner alaa mira el ultimo,6-1-2022,0
110,Slobozel,slobozel6969,,vivo,6-1-2022,0
111,Itachi Sama,itachisama_69,,"xperia pro I, I am a pro Photographer btw",5-1-2022,0
112,robbie,robbie.ross2020,,1. vivo 2. iphone,5-1-2022,0
113,Jynx,jynx008,,Galaxy or vivo,31-3-2022,0
114,Γ|L ИАζ ηυζ nυζ,_lucas.yy,,Vivo and iPhone 13,30-1-2022,0
115,Danielle Nidam,daniellenidam,,s21 ultra for sure,28-1-2022,0
116,გიორგი როგავა,gr19lvn,,why u do this u know what,22-1-2022,0
117,გიორგი როგავა,gr19lvn,,vivo for sure,22-1-2022,0
118,sameer,sameerhyd1,,Vivo clear wine,15-1-2022,0
119,Michael,michaelchinedu252,,samsung and vivo,12-1-2022,0
120,Фериэль💜,_iamferiel,,Vivo and iphone,12-1-2022,0
121,contagious_jay5,jay_the_k1d,,ultra all the way😌,12-1-2022,0
122,trop chaud thomas,tropchaudthomas,,vivo then iPhone,11-1-2022,0
123,💣💥𝓈𝒶𝒾𝒻ℯ𝒹𝒹𝒾𝓃ℯ💥💣,s0ifh0jbi,,vivo is the best,11-1-2022,0
124,Veeti Pyöriä,veetipyoria,,Vivo and iPhone,11-1-2022,0
125,user4657607656019,fckmn2020,,Samsung and Vivo,10-1-2022,0
126,Kroni,kron.p,,Pixel won in my opinion,10-1-2022,0
127,One pice 🔵,onepice24,,هواوي افضل هاتف في تصوير,10-1-2022,0
128,......,xoxuxo,,pixel and vivo won,9-1-2022,0
129,Ojwok Ojwok,ojwok_ojwok,,vivo hands down,9-1-2022,0
130,⠀ ⠀ ⠀ ⠀ ⠀ ⠀,bebos.yiyliyo,,pixel 6pro,8-1-2022,0
131,Alexis 🇵🇷,odelinvr,,Vivo by faaarrr 😳,8-1-2022,0
132,Ibukunoluwa,fabunmi_caleb,,definitely not sony,8-1-2022,0
133,666.𝑹𝑶𝑳𝑬𝑿,666.rolex,,samsung quality:💀💀☠☠,7-1-2022,0
134,Stooooopid,stoooooopiddd,,Vivo pixel iphone,7-1-2022,0
135,꧁Ɽ₳ł₦꧂ッ,rain._.codm,,s21 or vivi,7-1-2022,0
136,urbrotherfromanothermother,theyarewatching4,,Tie between the pixel and iPhone,7-1-2022,0
137,Maxim Iskandirov,max_.im._,,vivo and Pixel,6-1-2022,0
138,unknown,elmuraz27,,i think the vivo is the best,6-1-2022,0
139,kohath.k,kohath.k,,imma give it to vivo😏😳,6-1-2022,0
140,Efraín Orozco,cb_official.___,,Vivo and Samsung,6-1-2022,0
141,freshfits,sneaker.fit,,Vivo is lord,5-1-2022,0
142,Carlon•|😈|•,chappie_the_menace,,the vivo for sure,5-1-2022,0
143,Krish,kris_barviking,,Iphone and pixel,5-1-2022,0
144,martin.alarcon002,martin.alarcon002,,IPhone and Vivo! 🔥🔥,5-1-2022,0
145,Seyban[],seybanhahaha,,Vivo look cool,5-1-2022,0
146,dona,_donah_17_,,Vivo,14-4-2022,0
147,Grace/Gracia not grase,gabut_ajasie,,vivoo😳,13-4-2022,0
148,Ivan Rey Baggay,sirsiivan,,pixel 6 pro,26-2-2022,0
149,Tiago mentor,tiagomentor,,Vivo,22-2-2022,0
150,PAPI BRAD,davaofoodtrip,,VIVO X70 PRO PLUS 🤩🤩🤩🤩🤩,22-2-2022,0
151,tikok was rude to moss,snatchedbytheshogun,,iphone,12-2-2022,0
152,limilit,limilit,,vivo,3-2-2022,0
153,Anonymous,z0ng0r0r0,,Vivo,21-1-2022,0
154,drafting1970,drafting1970,,vivo,20-1-2022,0
155,football_knowledge,football_knowledge_guy,,vivo won,15-1-2022,0
156,Eli,heksiii.5,,Google,15-1-2022,0
157,Lino Kroose,linokroose,,vivo,14-1-2022,0
158,murtalayunusa585,murtala1414,,Galaxy S21,14-1-2022,0
159,aLexandria,edo_alexandria,,sony xperia pro.,13-1-2022,0
160,theesiii.17,theesiii.17,,pixel 6,12-1-2022,0
161,Bilel,maiskeskilfoula,,the vivo,12-1-2022,0
162,pessoa,.tarpi,,iPhone imo,12-1-2022,0
163,David Torres,davidtorres.keys,,VIVO,11-1-2022,0
164,Savage axis,deeznuts_guys,,all,11-1-2022,0
165,ohyannye,ohyannye,,vivo,11-1-2022,0
166,Tigri_Prejlep,tigri_prejlep,,iphone,11-1-2022,0
167,princewhite401,princewhite401,,vivo won 🥰,10-1-2022,0
168,Dwayne Lee 🤴🏾,dwaynlee5,,Wow 🤩 Vivo 😳,10-1-2022,0
169,SILDI,sildi.c63,,xperia,10-1-2022,0
170,Eydan1020,eydan_rivera13,,iPhone,10-1-2022,0
171,sardorbekmurodov977,sardorbekmurodov97,,vivo 😁😁😁,10-1-2022,0
172,❖Ƭʜᴇ ᴾʳᵉᵗᵗʸ『ᵍⁱʳˡ』,l_am_binzy,,vivo,10-1-2022,0
173,Moo Ayuba Rastro,mooayubarastro,,The vivo,10-1-2022,0
174,shaqilryyan,shaqilryyan,,galaxy,10-1-2022,0
175,ArberMuhaxheri,prodbydxrkofficial,,samsung,10-1-2022,0
176,L&M crafters,lmcrafters,,ultra,9-1-2022,0
177,Speedometreplayz official,salt_papijnr,,iPhone,9-1-2022,0
178,Ahmed Zaky,luxuryarabia,,vivo,8-1-2022,0
179,Love_Quotes,malikla801,,vivo,8-1-2022,0
180,JakePolska,jakepolska2005,,Vivo,8-1-2022,0
181,Kitten,cleopatra_w,,Vivo,8-1-2022,0
182,@NASDAQ100,katm265,,vivo won,7-1-2022,0
183,Mohamed Ël Khair,mohamed.el.khair,,vivo & iphone,7-1-2022,0
184,R,9ayir,,Vivo😳🥰🥰🥰🥰,7-1-2022,0
185,davi,www.davimacaco.com,,vivo,7-1-2022,0
186,𝒢𝒶𝒷𝓇𝒾ℯ𝓁,user89155190267,,Vivo,7-1-2022,0
187,TikLike,tiklikex,,Pixel 6,6-1-2022,0
188,Veron Kumar,veron_kumar,,vivo,6-1-2022,0
189,Hachi,hachii70,,Vivo 😁,6-1-2022,0
190,Tymek,mjenta_,,Vivo,6-1-2022,0
191,Fernando Lopez,fer_lopezramirez,,vivo,6-1-2022,0
192,gmemememememmeeee528,biddy420,,galaxy,6-1-2022,0
193,Goran Kos,kosgoran,,vivo,5-1-2022,0
194,Mr. bentley,mr.bentley80,,vivo 😍😍😍,5-1-2022,0
195,#mycatisblack,matijamaleko.o,,for sure,5-1-2022,0
196,kk,randomstu.402,,Pixie 6,5-1-2022,0
197,Ivar Bonless,ivarbonless4,,What about huawei p50pro or mi11 ultra?,7-1-2022,0
198,vygotsky,vygotskyy,,vivo 😳,9-1-2022,0
199,SHOERICE,tech_lover_3,,or Vivo,6-1-2022,0
200,Matthieu,matthieu.montreux,,Pixel самый топовый 🥰🥰,12-1-2022,0
201,AGchain,agchain,,Iphone 13 pro sure all other you can put in garbage,8-1-2022,0
202,king empire,kingempire0003,,Vivi piixel,12-1-2022,0
203,Asaid Cacatua,asaidcacatua,,@joseagval,6-1-2022,1
204,Ezra1326,sefanit13,,s21,5-1-2022,4
205,The Agwam,kessingtonn,,@susie.xx1,24-5-2022,0
206,Luiz,luizhen243,,s21 ultra,10-1-2022,0
207,hr1_2020,hr1_2020,,s21 ultra,6-1-2022,0
208,Noorani Khadaroo,airnoor,,S21,13-1-2022,0
209,koko,2kassy,,S21,10-1-2022,0
210,Souness,sounessthegoat,,S21 man,7-1-2022,0
211,#mycatisblack,matijamaleko.o,,s21,5-1-2022,0
212,.,traes_cars_4,,vivoo,10-1-2022,0
