,Comment Number (ID),Nickname,User @,Comment Text,Time,Likes
1,Bryan,bryanzagaming,,"The iPhone 13 is very vivid, but the galaxy s22 is more realistic in my opinion.",12-4-2022,313
2,Âřmáàñ Mãłîķ,mr_armaan69,,13 pro max 👏👏,12-4-2022,126
3,~LILLY~,_ok.und.jetzt_,,Man kann deutliche Unterschiede erkennen aber zum Beispiel bei dem Bild mit dem Feuerwerk ist Apple auf jeden Fall den Galaxy s22 voraus,13-4-2022,7
4,SajaadIBR,sajaadibr,,s22 ultra 😌,12-4-2022,46
5,Michael,michae_user,,"s22 wins it
it's so obvious apple is just hyped
but Samsung got the quality",12-4-2022,21
6,Jonathan Nielsen,jonathannielsen7,,Apple 🤌🏻,12-4-2022,38
7,androestetik,androestetik,,samsung give u reality but iphone give u color tone photo,13-4-2022,7
8,muhammadlutfullay1,muhammadlutfullay1,,s22 ultra best pfone of the year🥰🥰,12-4-2022,79
9,pietro,aquiyacio,,some apple some samsung,12-4-2022,31
10,rockspaceofficial,rockspaceworld,,iPhone !,12-4-2022,13
11,๛Kass,nk_kass,,iphone 13 pro max 🥰,12-4-2022,12
12,Soen,soenfung,,how to erase those text at bottom left? i can't hardly see the lower pics,vor 3 T.,0
13,Xavier Weng163,byerolympus,,both good in their own way..,8-5-2022,0
14,dein.schuh_ist.offen,charli.hat.kein.talent38,,iphone besser man sieht viel mehr farbe,28-4-2022,0
15,MOHD GAMER,nga_gamer,,the iphone Unfortunately,21-4-2022,0
16,Kanishk Kammaripalle,kanishkkofficial,,Apple,25-5-2022,0
17,yesikurgay,tupacarealone,,iPhone won but I'm still getting s22,21-4-2022,1
18,César Casarrubias,cessaramm95,,A moon pic comparition,20-4-2022,0
19,Ben Stensaa,voyagerpcs,,Samsung,19-4-2022,0
20,zsolttoth396,zsolttoth396,,samszung galaxy a32??,18-4-2022,0
21,Kat Michelle,katmiichelle5,,el problemas con los samsungs es que en redes sociales la calidad nunca queda tan bien y las fotos de selfies se ven como con mucho filtro.,8-5-2022,1
22,annalupe17,annalupe17,,iPhone,vor 6 T.,0
23,Zaera,zaera95,,видео снимок Самсунга🥰,13-4-2022,17
24,K,racista_007,,"Me gusta más el samsung, las cámaras del iphone no me gustan por que añaden como que un filtro amarilloso o verdoso",12-4-2022,58
25,Pablo,pmenesesf,,El iphone mil veces 😂,13-4-2022,73
26,viet8462,adu.vav,,xóa phông ip ko bằng,13-4-2022,5
27,Alisson._.,user17316188235761,,según yo el iPhone mejora el color según el contraste de luz,1-5-2022,0
28,Joss Villa,jossvilla0,,Porque no pone a prueba los huawei??? 😳😳,28-4-2022,0
29,lolbit,01_xco,,"Dios ame el Samsung, me gustaron mucho más las fotos.",17-4-2022,3
30,sambcorrea4,sambcorrea4,,me quedo con el Galaxy Samsung 🥰,16-4-2022,0
31,Iriartefrank,iriartefrank,,Obviously Samsung 😍,15-4-2022,0
32,Thabang Maphelela,thabang_maps,,Samsung 😈🤌 Real life colors....,15-4-2022,0
33,Shèŕ Wàxìíŕ,sherwaxiir,,iphone 13 ✌️,15-4-2022,0
34,Memet Wise,memet.wise,,Galaxy🥰,15-4-2022,0
35,JackyCiala heyhey,jackyciala,,The s22 is the best phone un this moment👑,15-4-2022,2
36,Kai loy,lovemybabe0315,,Both are good I ready to see in the future who is better 🔥,14-4-2022,0
37,🤑ZIA 1 THE MAKER🤑,zia1themaker,,s22🥰 donne la réalité 😂😂,14-4-2022,0
38,Creeperboom 28,creeperboom3,,Xd comparan un teléfono del año con uno del año pasado,14-4-2022,0
39,Daniel Amorim,daniphysic,,"@stheteshima olha a diferença da Apple pra Samsung, sinto que estou com a marca certa 🥹",14-4-2022,2
40,lein,leinssi,,y’all the s22 chef 😘,14-4-2022,1
41,Isai Jiménez881,nehemias1250,,me gustan las de Samsung,14-4-2022,2
42,Jahiro Renee🚜,jahiro92,,iPhone 💯,14-4-2022,0
43,﮼,wil2r,,Xr pls,13-4-2022,0
44,Shaibïismail,shaibiismail07,,Brother Help me please I have already iphone 12 pro max I love photography can I replace it with s22 ultra,13-4-2022,0
45,mariaaa,_.mmaariiiaa.__,,Galaxy,13-4-2022,0
46,LE MANCUNIEN,chreezus__,,"J’aurais dis qu’ils ce valent, mais la dernière photo m’a convaincu que c’était l’iPhone",13-4-2022,4
47,🇹🇷❤️,esw4q4,,Apple,13-4-2022,0
48,LV Huỳnh♏️,huynh_lv,,iphone kaka,13-4-2022,0
49,💎セバスチャン💎,sebastian_2021.japan,,"SNSで映えるのは圧倒的にiPhoneなんよな🥺
iPhoneがUSB-Cとmicro-SDに対応したらiPhoneにする By Androidユーザー",13-4-2022,1
50,Skuuukzky,suzysigal,,Ip,13-4-2022,0
51,BBB,wbosxskull,,huawei p50 please,13-4-2022,0
52,JL,jani_fin,,s22 ultra best,13-4-2022,1
53,YourNightmare1900,yournightmare1900,,Galaxy goes for the realism while iPhone is more vibrant,13-4-2022,0
54,𝕁𝕒𝕪♥︎,jayxo15,,Galaxy.,13-4-2022,0
55,ไม่เคยจะฟีดด!!!!,user614402188,,ขอinfiniteได้ไหม,13-4-2022,1
56,Someone reading my name arefat,fuckoff_urfaceisugly,,S22 ultra 🤍💙,13-4-2022,3
57,anginribut,bukankeretaapi,,@lapinnw @gojekinsushi bagusan menurut kelen,13-4-2022,1
58,f,faith_c7,,galaxy,13-4-2022,0
59,Hannah,bannahns,,Galaxy wins. Why is the iphone overly yellow and saturated. Didnt use to be.,13-4-2022,0
60,vionsicumi,vion.cumi,,iphone warna nya sesuai banget di medsos,13-4-2022,0
61,Vedat Ilhan,vedat_ilhan630,,tek fark kalitesi,13-4-2022,1
62,Kevin Condeña Gonzales,skinnykevv,,Iphone,13-4-2022,0
63,fullmetaljack3t,redone_r3loaded,,Apple 🍌,13-4-2022,0
64,Paolo Pascual,paolopipaolopi,,"I know iphone is not that natural but ,Iphone gives some unique flavor to it's photos idk but Im a Samsung user but iphone is ✨",12-4-2022,0
65,Nadine.K,nadine.m.k,,Iphone 😶,12-4-2022,0
66,kanishpadle,kanishpadle,,Apple,12-4-2022,4
67,Parviz Hasanli,phasanli,,Some of the pics better on Samsung and some in Apple,12-4-2022,4
68,MR…LA,mrla45,,13 is the best even though am using Samsung phone,12-4-2022,0
69,Natanael Jiménez,chris241092,,S22 Ultra lo mejor que ha hecho Samsung siempre se supera!!,12-4-2022,3
70,( ͡° ͜ʖ ͡°),maze5g0,,Apple,12-4-2022,0
71,Risa J.,xo._tallest1,,Samsung wii,12-4-2022,4
72,..,balduino_nsx,,Samsung es más fancy,12-4-2022,4
73,haggaietim,haggaietim,,s22 wins it all,12-4-2022,4
74,babayaga,babayaga646,,Ben i phone gibi görmüyorum ki,15-4-2022,0
75,Mike (Taylor’s Version),maikeruswift,,Damn when iPhone captures everything it comes to life 😳,14-4-2022,0
76,Kelvin Herrera,kelvinherrera0290,,Apple 😌,12-4-2022,1
77,Medas,medas109,,It’s amazing that iPhone 13 is nearly as good seeing that it is a year older. I think the iPhone 14 will be better,12-4-2022,4
78,Leonardo Massola,leonardomassola1,,vendo as Fotos em um G20🤡,4-5-2022,0
79,♨️red azot ♨️,azotik__,,"Шо тут рівняти, понятно шо самсунг кращий",19-4-2022,0
80,Kamal Abdo,kamalabdo13,,Iphoun 💯💯💯💯💯,15-4-2022,0
81,schools out,yoochelz,,"apple may have a filter, but it looks so pretty so i go with apple this time",20-4-2022,0
82,Mehdi Ashrafi,puffer730,,I feel like apples images go towards a more “cinematic” type of look,13-4-2022,0
83,Khaled Aburehan,user55177202,,Wow 😳 s22,12-4-2022,2
84,Juan jose Fajardo li,juanjosefajardoliceras,,"yo elijo al Samsung. o un xiaomi,los modelos del iPhone siempre la misma cojudeces",12-4-2022,1
85,PenguinLover,sweetpenguin4,,Galaxy. Looks more natural. iPhone looks like artificial light.,13-4-2022,0
86,#Kingsley gs,kingsley567899997666666,,samsung,2-5-2022,0
87,az élet öröme💸,y0urfavvivi,,Samsung👍🏻,22-4-2022,0
88,Naccino Family👨‍👩‍👧,sanzaro091521,,can i have 1 iPhone please😔,13-4-2022,0
89,Raúl Ochoa✨,aldoochoa13,,@abby_gsm,21-6-2022,1
90,skeithles1,skeithles1,,@_kuls05,20-4-2022,1
91,Mouataz,itsmouataz,,😍😍,15-4-2022,0
92,Os Beltran,osbelt786,,@jenny_garcia.823,14-4-2022,0
93,Nsyz.SpeedSong,nsyz.nsx,,@x.danniel,13-4-2022,0
94,Ana Maria Alcantara,anamariaalcantara8,,@chard.lim22,13-4-2022,0
95,Yeffri Peña,yeffriyt,,@_iamdianaaa,13-4-2022,0
96,el boss,le_boss940,,bb,16-4-2022,0
97,dycsmi5wo88c,dycsmi5wo88c,,s22,15-4-2022,0
98,hglst,hglst,,@dyzxfosvzwyz @kim_medin_27_,13-4-2022,2
99,.,.mo3tasem,,s22,12-4-2022,0
100,OliX47,olix47,,s22,12-4-2022,0
101,leoluka2609,netkoinestoo,,s22,12-4-2022,0
102,user9906523470176,gejh10,,s22,12-4-2022,3
103,hisrabon3,hisrabon3,,s,12-4-2022,0
104,ayyeo what da dog doin🤨,mahnoor_chow,,"as always, android has a blurry effect which is annoying as fuck.",4-5-2022,0
105,alee,alessia_quellasimpa,,mi dispiace ammettetelo ma iPhone fa le foto migliori...,15-4-2022,0
106,unsocial potato,unsocialpotato0,,you should try the new Xiaomi phone i heard its the best phone in the market rn and its only half the price of the new samsung,13-4-2022,0
107,Carlos Alberto,carlos_alberto0923,,Pero toma bien ambas fotos 🤦,13-4-2022,0
108,👾,lameassnames,,iPhone is the winner clearly. Andriots are biased as always 😂,13-4-2022,0
109,Menga,mael.mk,,ça se voit que ce gars n'utilise pas le s22 c'est un ancien Samsung tout ça pour rabaisser Samsung franchement Apple vous paye même pas on est pas deb,13-4-2022,0
