,Comment Number (ID),Nickname,User @,Comment Text,Time,Likes
1,Nikxs12,kacer5,,wow vivo did it great,27-4-2022,81
2,👽,cloudz808,,Oneplus and samsung are a mess,27-4-2022,14
3,Michael Scott,therealmichaelgaryscott,,Is it me or does the s22 ultra looks blurry?,27-4-2022,13
4,imthatguy,hesthatguy22,,Vivo won this,27-4-2022,40
5,Pablo,pmenesesf,,Iphone did the best,27-4-2022,7
6,Nikoyeezyx,plekso,,"Iphone is great,less noise but not really bright,Oneplus is Bright but too many noise,Pixel is The most natural,but I think not good for Documentation",4-5-2022,0
7,melviin.sa,melviin.sa,,get huawei p50 pro,12-5-2022,0
8,Mr. X,somedudewhousestiktok,,"i think, Samsung and Apple should unite",2-5-2022,1
9,Pear but in hell,pearinhell,,Iphone won this the oneplus had too much lights the pixel is hard to see the samsung too much lights the vivo is good but the sky is pixelated,1-5-2022,0
10,jadegoliath938,jadeygoliath,,vivo did a way better job then IPhone thats for sure,1-5-2022,0
11,UZBEK 😁,uzbek.jr,,oneplus and samsung and vivo did it best,2-5-2022,0
12,br3ndanlee,br3ndanlee,,iPhone the best,3-5-2022,0
13,Luis Diogo Gois,luisdiogogois,,iPhone 🥰,5-5-2022,0
14,K_R_Y_S_T,kryst_ely,,vivo1st apple 2nd goole samsung i on know one olus no.,19-5-2022,0
15,Mr. bentley,mr.bentley80,,vivo and OnePlus,2-5-2022,0
16,Charlie Udonthani Kr,ikrissmyass6969,,gotta hand it to Vivo X70 pro plus 😁,18-5-2022,0
17,Landry,123landry123,,One plus best😳,11-5-2022,0
18,SHÉ Flores,shebeautelab,,vivo and samsung,1-5-2022,0
19,SJ Sheikh,sjsheikh99,,one plus🥰,30-4-2022,0
20,𝗣𝗮𝗹𝗮𝗵𝗻𝗶𝘂𝗸'𝘀,palahniuks,,Vivo won.,30-4-2022,0
21,Abimael Reséndiz,abimaelmo99,,iPhone y Vivo,28-4-2022,9
22,World 🌍 Knowledge,uzairraza001,,vivo wons,4-5-2022,1
23,ShangpengYang,shangpengyang,,Vivo no.1,15-5-2022,1
24,Jhony KaDna,jhonykadna,,Vivo 🥰,15-5-2022,0
25,Darwin Lazo,darwinlazo2,,@oneplus 💓,1-5-2022,0
26,Jan Kepo,ponpong112,,lol samsung blurry 😅,29-4-2022,0
27,Mr. X,somedudewhousestiktok,,VIVO x70 Pro + won,30-4-2022,3
28,David Funder,daffo79,,1: iPhone 1: Pixel 3: Vivo 4: OnePlus 5: Samsung,28-4-2022,0
29,mohdadliadly,mohdadliadly,,Xiaomi is the occasional mi 12 pro,28-4-2022,0
30,Cevor_Pixels PHOTOGRAPH,cevor_pixels_photograph,,One plus is too good @oneplus_usa,28-4-2022,2
31,Farid,.retroy,,fan of samsung but vivo and oneplus did great,28-4-2022,0
32,DANIELZ BISY,danielzbisy,,1plus and s22😳😳😳,28-4-2022,0
33,Markuss Jaunsleinis,sumrandomduude,,Smth aint right with s22.,28-4-2022,0
34,StïWaRT✓,stiwart_sk03,,xiaomi mi 11 ultra,28-4-2022,0
35,kasiita01,kasiita01,,Vivo wins,28-4-2022,1
36,javierstevenmerced,javierstevenmerced,,Lo mejor de todo la rola de three six mafia 😁,27-4-2022,0
37,Do?,putinistderbeste,,iPhone!!,27-4-2022,0
38,Ivenson Boss,epicfight,,something wrong with the Samsung. looks out of focus or something,27-4-2022,1
39,?,kiinao,,Vivo and samsung look the best,27-4-2022,0
40,User,armax2x,,Oneplus e vivoX70 Pro,27-4-2022,3
41,ま,1.adm,,vivo,28-4-2022,0
42,The Slogan,the_slogan,,"I’m on the 13 Pro, but I gotta hand it to Vivo. Great job 👌🏼",27-4-2022,1
43,PAPI BRAD,davaofoodtrip,,VIVO X70 PRO+ 🤩🤩🤩🤩🤩,27-4-2022,2
44,𝕁𝕒𝕪♥︎,jayxo15,,pixel and samsung are just a no,27-4-2022,0
45,Wis🕷️sam,wissam_wm_,,Vivo,27-4-2022,0
46,_mat_kud,_mat_kud,,vivo is doing great at night😳😳,27-4-2022,1
47,Aguilar,axcelaguilarbrr,,vivo!!!!!,27-4-2022,0
48,.,alessio.spartano,,Is the galaxy the exynos or Snapdragon variant?,27-4-2022,4
49,🅷︎🅸︎,_unkown_161,,first,27-4-2022,0
50,Amar Topo,amartopo,,Oneplus 🥰,28-4-2022,0
51,gooool,golgolgolgol0000,,vivo,27-4-2022,0
52,𝐴𝑙𝑎𝑛 𝐽𝑎𝑠𝑖𝑙 𝑂𝑉𝑂🦉,alanjasil,,iPhone🔥,27-4-2022,0
53,jd,j_d174,,vivo,4-5-2022,0
54,mhyzhy,mhyzhy_cash,,Vivo 🔥,6-6-2022,0
55,bigJ,bigwhited1,,ONEPLUS for sure 😁,31-5-2022,0
56,💜 R A Y A N 💙,iamrayandudeperfect,,google pixel n iPhone Thea the worst😂 Thea very bad,28-4-2022,0
57,realy_niceo_o,realy_niceo_o,,ну получается айфон шляпа,28-4-2022,0
58,Roney,roneyescarlate,,Vivo x70 teve mais qualidade,28-4-2022,0
59,Laksaporn.,laksaphon_,,iPhone 13 Pro is the worst😳,27-4-2022,2
60,•B•u•b•a•,bubapak2,,"iPhone and Vivo, but gosh the Samsung's bad",27-4-2022,0
61,Warly&Cleicy,casal_joinha,,esse vivo ta monstrooo,1-5-2022,0
62,Mauricio Lander Rocha,mauriciolander,,SAMSUMG SABOTEADO😏,28-4-2022,0
63,Rafael Rosario,faelrosario,,Galaxy doesn’t even focus,27-4-2022,0
64,is it,treytsvg99,,big let down from samsung,27-4-2022,0
65,petertechvlogs,petertechvlogs,,i was impressed by Vivo phone.,27-4-2022,1
66,shadowthunder12,shadowthunder12,,vivo one plus and samsung look the best apple looks too dark,27-4-2022,0
67,James Sullivan,jamessullivan69,,Wow! Vivo did great,27-4-2022,0
68,user6177729403089,kurvimetr1,,"Vivo 100 %
BTW wtf is with Samsung? why is it so blurry?",27-4-2022,1
69,•••,_linus_sft,,WTF did the Galaxy,27-4-2022,0
70,Jorge Silva,jorgesilva8482,,"Vivo the best
One Plus and Samsung the light are so bright
iPhone and Pixel to dark",27-4-2022,0
71,lismarandreina03,lismarandreina03,,vivo x70 pro,30-4-2022,0
72,Michaela Ekland,michaelaekland,,"2,4,5 was best",27-4-2022,0
73,The Agwam,kessingtonn,,@susie.xx1,24-5-2022,0
74,paolokko,paolokko,,@angelvv1111,13-5-2022,0
75,Elhadji Fall,assfall3,,s22,27-4-2022,0
76,Edgar Moosk,edgarmoosk,,en este escenario se ve mejor Iphone,2-5-2022,0
77,Lenox_x17,lenox_x17,,vivo y galaxy ganan. one plus satura mucho y no es tan realista. iphone se ve muy oscuro😌,28-4-2022,0
78,Deddy R,hcoi_banjarmasin,,@blue.cldx_,28-4-2022,1
