,Comment Number (ID),Nickname,User @,Comment Text,Time,Likes
1,Django Daponte,djangodaponte,,werid I'm not a programmer but I do prefer dark mode cuz it doesn't strain my eyes after long periods,28-7-2021,
2,LaviaLavere,lavialavere,,"The way my eyesight and astigmatism are set up, dark mode is too difficult. I code in light mode.",28-7-2021,
3,Lukas Becker,ascolar,,Im dark Mode kannst de länger vorm Bildschirm hängen😅ist angenehmer für die Augen 😅,28-7-2021,
4,🫶,toohard2explain,,darkmode hurts my eyes i need it bright,28-7-2021,
5,Mohamed Tamer,mo1234.1234,,"""The light attracts the BuGs""",28-7-2021,
6,Inga | STEM/Engineer Educator,ingawoods.waight,,I don’t trust those people who use light mode,28-7-2021,
7,🎀sodapop🎀,hksodapop,,dark mode is toO DARK. i can’t see. i use light mode on everything…,28-7-2021,
8,Kome,komeegbedi,,"😂😂😂 I guilty of calling out people for light mode and Yes, the light attracts the bugs 😌",28-7-2021,
9,Joshua Shorey,joshuashorey,,dark mode is so much easier on the eyes,28-7-2021,
10,Billie,x.beej,,It’s likely a myth that dark mode is better for your eyes. Studies are actually showing that dark mode increases eye issues & causes halation.,28-7-2021,
11,caldq01061,caldq01061,,Light mode is actually bad for your eyes in a dark setting like most programmer caves,28-7-2021,
12,WhoDat,whodatyouask,,"Heute hat mir ne Kollegin erstmal den Bildschirm volle Kanne hell gedreht, weil sie im dark mode sonst ""nichts sehen konnte"". Amateur 😂",31-7-2021,
13,Tik Toker,kyle6942069420,,I’m upset at myself that I laughed at that,28-7-2021,
14,Alicia Lingnau,alicialingnau,,Haha I’m the light mode person 😂,28-7-2021,
15,Sumaya Bellydancer,sumaya.usa,,I call it goth mode 😂,28-7-2021,
16,Connor Christie,coffeee_boy,,POV when a programmer sees someone only typing with their pointer fingers 😂😅,28-7-2021,
17,Markus Kuhnt,markuskuhnt,,niemals ohne darkmode wenn man sich 8+ Stunden konzentrieren will geht das nich außer man will Kopfschmerzen,6-9-2021,
18,Noobie_Ta,noobie_ta_forreal,,"""the lights attract the bug's""
added to my quote list 😂😂😂😂😂",29-7-2021,
19,rhett_harrison,rhett_harrison,,sadly the dark doesn't repel them necessarily,28-7-2021,
20,🍜Pro Memer,promemeralt,,my reaction 😐.................😂🤣😭🙂,28-7-2021,
21,Ethan_Clinick_6,ethan_clinick_6,,😂😂😂 Pure comedy,28-7-2021,
22,Julia,sapacaxaagreste,,I worked with a guy who used windows and light theme on terminal and IDE. It hurted my eyes working by his side,6-9-2021,
23,José Antonio Palacios,josantoniopalacio,,Para que no entendió dice que la luz atrae bugs (bichos) peeero bugs también son los errores de programación 😂😂,31-7-2021,
24,Ambre,frambreoise_,,"j'utilise le light mode pour tout , y compris coder 😂",28-7-2021,
25,Ricardo Cordoba,thefoodhunterx,,te cansa más la vista usar tanto brillo.,28-7-2021,
26,cumanonton,andifdh_,,nyeselin anjir bahahaha,28-7-2021,
27,Bim,rigsxx,,netbeans 😑🤙,28-7-2021,
28,Anikaaaa,anikached,,@javaboyo you,28-7-2021,
29,🚀 🚀🚀 Coding Paths 🚀🚀🚀,onesirian,,Oof,28-7-2021,
30,The english man,olaf.rupping,,It's really like that. The guys that use light mode can't code without bugs 😂,28-7-2021,
31,Ani,anigr33,,@cictoor sábio,29-7-2021,
32,Mark Irwin,markirwin8,,the funny thing is he's not actually joking.,28-7-2021,
33,.,eskupstu,,@sheezshi u,28-7-2021,
34,King_Of_Idiots,petar9998,,WHO USING LIGHT MODE IN 2021,28-7-2021,
35,SKZ_Fan,skz_fan08,,@ellyzeux @deltap_3 cest donc pour ca 😂🙄,30-9-2021,
36,LisaTinyWorkshop,lisatinyworkshop,,io quando uso AutoCAD con sfondo bianco.,18-10-2021,
37,Citaro SR,citarosr,,it's kinda like Discord,30-7-2021,
38,andreibuenafe13,pogchamp_cringe,,People that use light mode likes hurting themselves,30-7-2021,
39,Lê Thụy,thuyle2000,,no no no 😂 not this way 😂😂,30-7-2021,
40,🇻🇳,tm_q15,,wow that the reason,29-7-2021,
41,Lucas Amaral,luqsthunder,,"solarized light is good, but dark is even better",28-7-2021,
42,matko,progamermatej,,@lucy_is_busy uuuuuplne,29-7-2021,
43,Hùng Anh Văn Phan,hung_bro,,hèn gì 😂😂,29-7-2021,
44,antonio garcia,tonyfagq,,jajajaja el modo oscuro es mejor siempre😁,31-7-2021,
45,Sister.of.Funk,sister.of.funk,,@thebeasty_ you are now a programmer 👌🏻😂,29-7-2021,
46,vichyprint3D,vichyprint3d,,@arelis_reyes :v,7-9-2021,
47,Flavio Gomes,fflaviogomes,,It's true!,6-9-2021,
48,Neme B.,nemeb7,,tamaire pense que diria algo concreto porque have un rato me dijieron que cambie Al dark Mode :(,6-9-2021,
49,vc,victorchesse,,"I think that uv light attract more bugs, plot twisted",8-9-2021,
50,DarakQueen,darakqueenn,,"my bf be ""why arent your Twitch in dark mode?"" ""active the dark mode on Youtube"" ""I aint going to use your computer, everything is in light mode""",7-9-2021,
51,curiose eim pergunta no meu pv,finzinho__,,im happy cause im brazilian amd i understand the joke 😂😂😂,7-9-2021,
52,Israel Ascarrunz,raynor_8,,Ahora entiendo la razón del modo oscuro 😂😂😂😂,6-9-2021,
53,FBI,coronel.fbi,,lol,6-9-2021,
54,Eunice Arriaga,eunicearriaga10,,My 9 year old niece litter just taught me this,28-7-2021,
55,AleC,elchiposterxd,,@jose...q xd,7-9-2021,
56,Line,linefunny,,now I know why our programs have a lot of bugs 😂,6-9-2021,
57,user4980954554771,ixtapazihua,,jaja buen chiste 😏,14-9-2021,
58,PuzzlerDev,puzzlerdev,,✨brillo eh✨,11-9-2021,
59,corina.mv,corina.mv,,"@damianmonea, am gasit o glumița, sper sa iti placa",7-9-2021,
60,Nejlontacskó,nejlontacsko,,tiktok needs a hard mode too,28-7-2021,
61,Gab,gabrakira,,NO MY EEEEEEYESSS AHHHHH.....,7-9-2021,
62,Jesse,dog_high,,Yaaaassssssssssss!!!,7-4-2022,
63,DarlineTeerak,darlineteerak,,I have to balance both 😤,8-2-2022,
64,psycho_moon12,blahdxb,,lol does tiktok hav one,1-2-2022,
65,Jalapeno Taco,jalapeno_taco,,"I tried light mode, my eyes never recovered",18-1-2022,
66,ellablun,ellablun,,"OMG, I'm using this... That is if my adhd doesn't make me forget it two tiktoks down",12-1-2022,
67,Carleá Jean,itscarleajean,,hilarious😂,30-12-2021,
68,AScreamingShiba,ascreamingshiba,,literally everything I use is always in dark mode and usually also in night mode.,16-12-2021,
69,PlanHub,planhubca,,Lmao 😂😂😂😂,12-12-2021,
70,spice mice,spicemicemhm,,Dark mode+ eye saver mode,1-12-2021,
71,Icon-glasses,iconglasses,,Facts😁,26-11-2021,
72,Me,skinydude5000,,@uhhokilol a,24-11-2021,
73,Lifephath,wonderwise133,,cool😎,22-11-2021,
74,shusha,shusha811,,i loved tha fact that hacking wasn't that guys problem instead it was the light mood 😂,12-11-2021,
75,Velvounet,velvounet,,the light kill eyes....,20-10-2021,
76,viktorschmidt116,viktorschmidt116,,lol thank you,18-10-2021,
77,Mango,missb0at,,pls tell that to tiktok I hate the fact that there is no dark mode for Android,18-10-2021,
78,PringlesChips,pringleschipsssss,,I use light mode everywhere,18-10-2021,
79,Lucas Ojeda,lucass_ojedaa,,Nadie que pase tanto tiempo en una PC como un programador usaría el brillo a ese nivel... algo anda mal...,18-10-2021,
80,_Spo0sh,sp1loosh,,syntax error incoming,18-10-2021,
81,AX00Oo,sorosh.n,,Love the dark mode,18-10-2021,
82,WhatTh3Cat,whatth3cat,,i love bright mode.,17-10-2021,
83,sidtheteddy,sidtheteddy,,I am a programmer and I use light modr😏,17-10-2021,
84,Stefan Sarajlic,stefyx0_,,"Dark mode is just lot better, it's better for your eyes",17-10-2021,
85,cpu©,your_cpu,,Ow my heart it's to bad turn it off,17-10-2021,
86,Steve Matindi,stevemats_,,After 👀 this me and my meme squad we having an asap meeting! We 'bout to rollout dark mode memes so that yall don't get your eyes burnt out at 3am😅,17-10-2021,
87,Robert Flores,robkfc,,how I do start or where do I start coding outside university? which the best path?,16-10-2021,
88,Joshua,joshua.81089,,I may be the only dev in the world that prefers light mode,16-10-2021,
89,Tommy B,imdatomz,,I find it harder to read in light mode. gives me a headache,14-10-2021,
90,spam = obrigado,algumgustavo_,,(1000 comments lol) sad that scratch programers cant use dark mode 😢,13-10-2021,
91,ManEater69,noobstatushq,,If you use light mode and have the option for dark Mode but don't use dark Mode there a door the get out of this universe,13-10-2021,
92,Gael,gael.mercer,,fUnny 🦦🔥,13-10-2021,
93,Sothel,sothellis,,AAAAAAAAAAA SO THATS WHY ROFLLL,12-10-2021,
94,UrLeoBaby;),notlance_0,,oh i get it 😂,7-10-2021,
95,Fabrizio Colonna,faecolo,,Light mode 🤙🏻,3-10-2021,
96,Kristian Sullivan85,kristiansullivan2,,dark mode and like green text :) makes me feel all matrix,1-10-2021,
97,Charlie Kay,s33kay,,it's not illegal it's just wrong. 😐,1-10-2021,
98,yanthorp Yan,yanthorpyan,,hahaha that was a good joke!! 😂😂,1-10-2021,
99,Double Trouble,ayaxmcgill,,"seriously tho, only masochists and psychopaths use light mode 😂",30-9-2021,
100,אמאשך,yellowdragon6,,i use dark mode on everything. its easier on the eyes,30-9-2021,
101,Annie,anniiiimeow,,If I'm not mistaken I'm actually the only def at my work who uses a light theme(solarized light cuz it feels easier on my eyes imo),30-9-2021,
102,Taco_Cinando_Cereal,taco_decanasta,,barras barras,30-9-2021,
103,Liam Richter,cheetylerish,,I just prefer light mode,30-9-2021,
104,Rafael Lacerda de Ca,rafaellacerdadecaldas,,"I just can't stand dark mode anymore, it hurts my eyes.",30-9-2021,
105,Alexandre,empereursamuel,,le thème darkula on l'aime tellement 😌,30-9-2021,
106,benn.payne,brutallybald,,Literally everything i own is dark mode.,29-9-2021,
107,Brent Carter,jawg201,,😂 def using this,26-9-2021,
108,Hee hee,anklesbrokenchildstolen,,Dark mode you dropped this 👑,19-9-2021,
109,Gh,gharamchii,,Ommgggg this meee I hate the light mode I put the dark mode every where at my devices,17-9-2021,
110,O,orl0s,,@regular_profile אהבתי תבדיחה,17-9-2021,
111,carlos.antizar,duke2706,,No negare que también me extraña 😂😂😂,16-9-2021,
112,DANNY STRAPPED,dannystrapped,,Nooooo.....,16-9-2021,
113,Harrison Fornasier,hf7765,,"I like light mode during the day, switch at night",16-9-2021,
114,judgemanny,judgemanny,,this,16-9-2021,
115,Felipe Brito,fetubarao,,bro 😂😂😂,15-9-2021,
116,Gean Carneiro,geangcarneiro_br,,i use light mode just because i am lazy to change the settings,15-9-2021,
117,Arthur Nen,tukz_,,"oh no, the light attracts the bugs made me cackle 😂😂",15-9-2021,
118,Kunimitsune,kunimitsune,,light mode is actually better for your eyes as it's easier to read/requires less strain. if you're worried about blue light strain specifically just..,15-9-2021,
119,Jenny Huynh,jenlehuynh,,Haha I use dark mode and I still attract the bugs 😎,20-8-2021,
120,cory,cocochernobyl,,called me when you make your own light gray themes for vscode and slack,9-8-2021,
121,Greg Dub,gregdub1,,Good Video!,9-8-2021,
122,sophia.z.u,sophia.z.u,,"I haven’t found matlab dark mode yet, maybe that why I experience so much pain",9-8-2021,
123,Sam Phee,spheeeeee,,Just got lasik done.. Suddenly I can't focus on ANYTHING bright on my monitors. Dark mode for life.,9-8-2021,
124,user49361213579,xarajaz,,that makes my head hurt through the video. and I only occasionally have to dabble in programming,9-8-2021,
125,cheekyhandle,cheekyhandle,,"I just like the high contrast, easier to read with less bright light 🤙🏻",9-8-2021,
126,Alix Garot,alixgarot,,I'm watching this at 3:27 am and my eyes hurt now great😂,9-8-2021,
127,Raquel Britton,nilkimay,,I switched everything to dark mode a while back and everytime I get a screen shot from someone and it's all white 😬,9-8-2021,
128,ZeroGuy01,zeroguy01,,I prefer Light mode,8-8-2021,
129,lake 🏞,a.single.red.croc,,programming teacher made everyone code in light mode “because it’s better for your eyes”😬,8-8-2021,
130,Fake Name,username326364,,I'm going to use this joke with my colleagues....😂,8-8-2021,
131,Anna Anna,anjutanjusha,,Wow,8-8-2021,
132,Alice Xia,alicexia,,My brother is also a programmer but he has to use light mode because of his eye condition.,8-8-2021,
133,matjedjed,matjedjed,,I'm programmer and use light mode :),8-8-2021,
134,Curt,azspacecadet,,I'm getting a headache just THINKING about coding in light mode 😬,8-8-2021,
135,Am,rememberme923,,Light mode angels unite 😇,8-8-2021,
136,Spencer,alcatrazescapist,,Monokai theme in vs code kinda good though,8-8-2021,
137,okchase,okchase00,,Lol 😂,8-8-2021,
138,Dj Matthews,darixidor,,only sith use light mode,8-8-2021,
139,til death do we gay,letmedie69,,dark mode is lower contrast and harder for me to see :/ it causes serious extra eye strain for me and results in migraines 🥲,8-8-2021,
140,mollymyers14,mollymyers1413,,omg. funny. I use light and dark modes for staging/production so that I don't forget what I am working on. legit.,8-8-2021,
141,Rose H Cab,rosehcab,,@scotthca dark mode EVERYWHERE,8-8-2021,
142,Emily,meow6583,,....the bugs....THE BUGS 😳 HAAAH you mean the code bugs 😂,8-8-2021,
143,Isabel Nava,inavacl,,love the dad joke😂,8-8-2021,
144,Gerardo Turcios,gerarturcios.20,,"😂😂😂🤣🤣🤣 "" 'cause the light atracts the bugs"" 😂😂",7-8-2021,
145,Carlos Javier Torres,carolusx74,,D: it's logic😅😅😅,7-8-2021,
146,qexyario 21,qexyario21,,Loved the pun 😂,7-8-2021,
147,Alexander Ogden,lol_k_den,,I use light mode on most things but dark mode on Sublime,7-8-2021,
148,xenochristiaens,xenochristiaens,,Omg 😂😂,7-8-2021,
149,kodyklaus,4k_dakoder,,lol😅,3-8-2021,
150,Clayton Bivens,claytonthinks,,facts,3-8-2021,
151,Sparkpasws2,sparkpasws2,,Oooo the puns,3-8-2021,
152,Typical Wizard,typicalwizard,,Yeah I like dark theme UI everything.,2-8-2021,
153,jerron smith,thepixelsmith,,I love this so much...,1-8-2021,
154,Little goblin,dragondruzzy,,Dark mode and flux filter is a must for me because my eyes can't cope,1-8-2021,
155,ruffsnap,ruffsnap,,White text on a dark screen strains my eyes much more than dark text on a light screen. Another example: Books lol,1-8-2021,
156,Bluurg is me,blurryblurrg,,Dark mode hurts my brain. Light mode is much better...,1-8-2021,
157,De4d Vo1ce,de4dvo1ce,,"Our teachers told us, light mode is better for the eyes... But think the bright light hurts so much >-< but with dark mode o.o",1-8-2021,
158,pascal :),pascalszn,,i appreciate the notion usage tho,1-8-2021,
159,Yoshito,eltioyosh,,y como se pone ese modo 😅,1-8-2021,
160,David Moreno,yxng_moreno,,Omggg😂😭,1-8-2021,
161,user5954736352438,ilovejedwardmorethanyou,,fear is the path to the dark side,31-7-2021,
162,Toni Bali,tonibali_,,"if it's in dark mode, I don't look at it",31-7-2021,
163,Niko,niko_ux,,"my favorite theme is solarized light, it doesn't strain my eyes even though it it a light theme. Also looks really cool",31-7-2021,
164,💗♠PhoenixParagon♠💗,phoenixparagon,,I can’t stand light mode darkmode is the best with a bright theme editor text.,31-7-2021,
165,willosophy76,willosophy76,,Not too long ago dark mode was NOT available in TikTok on Android… 😌,31-7-2021,
166,Adblocker__,adblocker__,,people who use light mode have no fear of death,31-7-2021,
167,Reuben Hu,reuben.hu,,"Well, if you're asking me. I use both Light and Dark modes depending on the light condition.",31-7-2021,
168,Marti Olle Real,luclysly06,,or because is better for your eyes?🤔🤔,31-7-2021,
169,Atak Mc,atakmc,,I don't trust anyone who works with computers who uses light mode... I automatically assume they don't know anything.,31-7-2021,
170,Crystal,crystal_knightt,,ha,31-7-2021,
171,Sven Williger,jabba1974,,Dark mode is only better for the eyes when it‘s dark in the room - in a well lit room dark mode is bad.,30-7-2021,
172,user3609186931136,irreverential,,"That was so bad, i love it 😂😂😂",30-7-2021,
173,Nadir Bourazza,nadirbourazza,,I’m a developer and I do this too 😂,30-7-2021,
174,SunsetMagic,sunsetmagic,,"In darkmode, the light text moves. And that’s on astigmatism 😂",30-7-2021,
175,JustforFun,imyours1808,,owww that's why 😂😂😂😂,30-7-2021,
176,Phan Thanh Bình,binhjjy,,"the thing is that the application of your code is on light mode like in browser, desktop app, if using dark mode in ide then not so comfortable switch",30-7-2021,
177,Jun,jun_kzh,,@joyous_nugget lmao,30-7-2021,
178,BOOMIE,boomie_g,,good joke,30-7-2021,
179,❤️看我喜歡讓你營養不良❤️,haidai,,誒幹有道理誒,30-7-2021,
180,Anas,anas.shaukat,,I mean are u wrong? No but seriously light mode has a strain on ur eyes,30-7-2021,
181,Graceee,graciousnessss,,so witty😅,30-7-2021,
182,Ayunjonn 🍌🌸,ayunjon,,dark mode 😂😅,30-7-2021,
183,Ahmad Alif,ahmadalif898,,I just like dark mode,30-7-2021,
184,clydene🌻,clydene09,,@bryllim hahahahaha,30-7-2021,
185,malimalichan,ohhohoii,,my head hurts😅,30-7-2021,
186,Inok Kiyo,inok_kiyo,,I thought it's because of the UV light. 😂😂,30-7-2021,
187,Yauenn,yauenn_,,I dark mode everything. Even my soul,30-7-2021,
188,BCYTECH,bcytech,,"if its dark mode, how do you see the bugs? 😂",30-7-2021,
189,konology,konology,,I use tomorrow night blue,30-7-2021,
190,menonhot+blissfultom,blissfultomatoe,,"the light attracts the bug, okay i get it...",30-7-2021,
191,Carthan,carthanofficial,,I just got asked if we can make our portal to support light and dark mode. I was like sure for 20k a year for all my employees,30-7-2021,
192,JM,jm.plaza,,It all makes sense now!!! 😳😳😳,30-7-2021,
193,ImperialBrake78,imperialbrake78,,me who uses blue mode: 👁👄👁,30-7-2021,
194,EinEin,einein11,,Took me a second.,30-7-2021,
195,L,lesstres,,"😂 why do i feel like so many people didnt get the ""bug"" reference?",30-7-2021,
196,Roan,roan010nl,,sadly i cant have dark mode on tiktok,30-7-2021,
197,loufakhs,loufakhs,,ANOTHER VIDEO OF YOURS WAS LITERALLY ABOVE THIS VIDEO,30-7-2021,
198,Ulises Moran,ulisesmoran2,,You know you don’t have social life of you understand this,29-7-2021,
199,SwarthyDesert10,swarthyofthedesert,,ok legit that was funny tho,29-7-2021,
200,Devid,codrule,,I somehow read pro gamer. I am sorry.,29-7-2021,
201,Summer Taylor,kornslag420,,"most dark modes are black rather than a dark grey, which is just as much eye strain as light mode",29-7-2021,
202,Aramy Lathlin,aramylathlin,,light mode is the true sociopath litmus test 😂,29-7-2021,
203,Mellow and Zelda,legendofmellowandzelda,,The fact that I found this funny 😂,29-7-2021,
204,Veloz,velos51,,dark mode astigmatism no no,29-7-2021,
205,noahbee20,noahbee20,,I dont know why but instead of laughing my body twerked at the end 🤙,29-7-2021,
206,👩🏽‍🦰,pjaella,,hoyyy ganun pala un,29-7-2021,
207,Alan Kong,thealankong,,Lulzzzz,29-7-2021,
208,AskJesse,jesseknows,,Hilarious,29-7-2021,
209,AskJesse,jesseknows,,Hikar😂,29-7-2021,
210,Yo mum,gru_is_a_hottie,,Light mode just burns my eyes,29-7-2021,
211,shek,shek_10,,Well to be fair dark mode is the best anyways,29-7-2021,
212,Casey Hancock,caseyhancock4,,"Everything that has a dark mode has it turned on, or I find a way to make it be dark mode",29-7-2021,
213,wooden saber,wooden_saber,,my eyes can’t see light letters on dark background so i have to use light mode lol,29-7-2021,
214,john smith588,giaonoma,,I mean it is really depending on the lighting conditions of the room. I had times when dark mode caused eye strain,29-7-2021,
215,Naomi,noileanatashia,,Dark mode on every electronic screen 😅🥰,29-7-2021,
216,caca,zenkeid,,I have scheduled for turning in my light mode and dark mode.,29-7-2021,
217,Jony Sens,jonysens,,Don't say another joke 🤪,29-7-2021,
218,zuza,zuza.korbus,,ciemny mode najlepszy,29-7-2021,
219,PS,pssoft7,,Now I understand. 😳,29-7-2021,
220,Ian🧐,madwinged,,"Dark mode is for some regular programmers, but the light mode is for the king of geek. 👑",29-7-2021,
221,GESHEIT,gesheit,,No its actually because Black WORKS better:),29-7-2021,
222,JustLilDev,justllildev,,idk why but when I'm coding something in a game the dark mode hits different,29-7-2021,
223,🍜𝚁𝚘𝚜𝚒𝚎🍜,ded_rses,,Why si everyone so mad about whether people use light mode or dark mode 🥲,29-7-2021,
224,Be Nas,yzy.y,,Am I the only one whos eyes start getting blurry from darkmode almost instantly ? 😳,29-7-2021,
225,Michael,captred3rd,,Dark mode for everything!,29-7-2021,
226,Wpgbcont,wpgbcont,,the room is in light mode.,29-7-2021,
227,Hello bae,ayatakaaaaaaaaa9,,It’s actually funny hahahahha,29-7-2021,
228,Kei,keibaldwin,,I hate dark mode on a computer - i have an astigmatism and it’s so much harder to see than bright screens,29-7-2021,
229,NotAllNumbersGuy,bmarx3,,what is the third monitor near your hands?,29-7-2021,
230,Jarod,jarod_smithy,,I must tag @pluuno for this must be seen,29-7-2021,
231,Mouse22,mouse551,,Dark,29-7-2021,
232,laynalebow,laynalebow,,before the choice of dark mode it was only light mode. i only use it at night.,29-7-2021,
233,Nicole Anderson2823,somemadeupname54,,I code in both. Lol. VS is in dark but SSMS in light. 😬,29-7-2021,
234,Pongo,pongodr,,i love light mode😳,29-7-2021,
235,Amber Abernathy432,amberambitions,,"There's this myth that one or the other is better for you, but it actually comes from an old design addage. 1/2",29-7-2021,
236,UserArgent,fourteenclass,,so smart 😅😂,29-7-2021,
237,jake,jakelarftagn,,people who use light mode are sociopaths,29-7-2021,
238,Acacia Thalmann,acaciathalmann,,The joke is on point.,29-7-2021,
239,Joy,joyjazzido,,nice one 😁,29-7-2021,
240,haz9119,originalkinghaz,,i wish many apps had dark modd,29-7-2021,
241,Kenny,_kenny_vel_,,It makes sense to me hahahaha,29-7-2021,
242,Han,madeinheavxn,,the black and white contrast in dark mode hurts my eyes tho,29-7-2021,
243,アン,anne_ovc,,i use light mode for everything fear me,29-7-2021,
244,Chaos,usernam_taken,,U know ur a tru gamer/programmer when u never see the light of day even in ur pc😂,29-7-2021,
245,Julien,julien_brzh,,yeah dark mode rules,15-9-2021,
246,Dani Cicu,danicicuftp,,Coding C in Code Blocks using light mode attracts so many bugs,15-9-2021,
247,Gage Milton 👨🏻‍💻,igage.it,,Dark mode rules,14-9-2021,
248,user.motanu,user.motanu,,Light mode for +20 years no eye glasses. Keep up the ACE & lutein supplements. 👍,14-9-2021,
249,_+_,noteagain,,"CIA: ""it's not the light!""",14-9-2021,
250,Gerald Y,devhulk,,Light mode devs are serial killers,12-9-2021,
251,🔮 🕯,halliwel89,,Dark mode it is,11-9-2021,
252,Kevin games,kevin.loves.gaming,,you can even see he was struggling while acting 😂,9-9-2021,
253,Michael Benetos,michaelbenetos,,dark mode so much comfier for my eyes,8-9-2021,
254,trimaliny,trimaliny,,I didn t get it for the first time 😁,8-9-2021,
255,Loader Project,loaderproject,,LOL,7-9-2021,
256,Katelynn,katelynnvdv,,Inside jokes be like 🤣,7-9-2021,
257,geravilla13,geravilla13,,He is not wrong,7-9-2021,
258,JAlmirantePT,jalmirantept,,ahahah Nice One 🥰,7-9-2021,
259,Andrew Bennett241,awab_31,,I much prefer dark mode tbf,7-9-2021,
260,Tim Teem,timtom12345678,,POWER USAGE,6-9-2021,
261,yali,tzipixods,,Yeah but eclipse dark mode is crapp … so i switched to inellij,6-9-2021,
262,matteobaldi,matteo_baldi,,omg so true,6-9-2021,
263,Apple User294748959,povguy4,,Are those uniqlo oversized shirts?,6-9-2021,
264,Tjebbe Faber,tjebboi,,I only use discord lightmode to prove a point to a friend,4-9-2021,
265,Khaled Rabiea,khalrab27,,@death.yard180 USE DARK MODEEEEEE,29-7-2021,
266,Pasi Gaming,pasigaming,,light is worse for eyes,29-7-2021,
267,ACake,cakealie,,Light mode *hisssssssss*,29-7-2021,
268,Cs_academia,cs_academia,,But my eyes somehow struggle with both light and dark mode,29-7-2021,
269,Whatever,reggiebeau,,I laugh at the bug-part joke hahaha 😂,29-7-2021,
270,أوتــــــاكـــــــو,z.sjv,,can I get a minecraft acc please🥺,28-7-2021,
271,yeah,herewegoforthe11thtime,,omg 💀💀💀,28-7-2021,
272,🌱,moosler_,,"Light attracts bugs. 🐛
It makes so much sense 😂",28-7-2021,
273,KAKASEAN,kakasean060778,,I'm interested in programming should I pursue it?,28-7-2021,
274,user3938146624230,1ty89,,Light mode = economic programming.,28-7-2021,
275,Mcz,m_cz_,,Loool attracts bugs xD,28-7-2021,
276,midnightmuun,midnightmuun,,I watched this 3 times and finally got it lol,28-7-2021,
277,karima.test,karima.test,,so sad and happy I get the joke🥰🥰🥰😳😳,28-7-2021,
278,Gilded,gilded_octopus,,The light attracts the bugs 😂,28-7-2021,
279,Arc Ubaleno,ubalino,,Ahhh..the light it's blinding me.. 😅😅,28-7-2021,
280,Bk,brokingz,,I loles a little 😌,28-7-2021,
281,pxq_ls,pickled_orangewine,,Dark mode is a must when using things,28-7-2021,
282,jsins,jsins21,,hahah😂,28-7-2021,
283,CBCQuebec,8_4life,,does idle have dark mode,28-7-2021,
284,George Lumpkins,nicorasty45,,Uniqlo?,28-7-2021,
285,Pablo Isaac Holgado Juarez,pabloisaacholgado84,,Real programer only use light mode,14-9-2021,
286,hector,htafoya,,"i code in it because it's easier for me to read. Its like in any paper or webpage , i dont undersand why people like high contrast fonts of dark mode",14-9-2021,
287,𝙞𝙞𝙨𝙖𝙖𝙘,isaacgt46,,what monitor is that?,8-9-2021,
288,Just a normal lettuce 🥬,im_a_lettuce,,*when a normal human sees a menace to society who uses light mode,8-9-2021,
289,honi,honiahaka10,,Im a programmer using light mode. when ever i look over on screen of a coworker with darkmode i struggle reading it,7-9-2021,
290,My friend LaTrOxX,latroxx,,i preffer dark mode because its look cooler 😂,7-9-2021,
291,Ensareab,ensareab,,I'm sad this joke cannot be translated into french,7-9-2021,
292,Tomek Michalski,prince_potat0,,Well it took me to much time to get the joke 😂,6-9-2021,
293,Adrianek Zysk💲,adrianspam508,,"yeah If I was too sitting in blue/purple barely lighted cave I would use a dark theme too.
too bad I have a big window with much of natural light in",6-9-2021,
294,T.RIDDLER,t.riddler1713,,my teacher for c++ gives lessons in light mode....,29-8-2021,
295,BeepBeep,8eep8eep,,When my coworker shares screen and it’s in light mode DAMN DONT UR EYES HURT???,29-7-2021,
296,Аз,vladi5755,,is c# good start,29-7-2021,
297,Mona,mela.moli,,i can’t read white font on black backgrounds at all😅 i’ll just be an uncool lightmode person that edited the white to be tan,28-7-2021,
298,Jason Gao,oopwolfe,,This pained me,28-7-2021,
299,mark_og_,mark_og_,,Lmaoo 😂😂😂,28-7-2021,
300,ThiccyRiccky,thiccyriccky,,If you aren’t using Homebrew are you even hacking? 😂😂😂,28-7-2021,
301,JoYuRiz,vavaoo,,"literally that's happened to me yesterday, my friend said why u use light mode",28-7-2021,
302,Amel,pitchwise,,"I use both. It depends on the situation. When I'm bored, I change to light mode.",28-7-2021,
303,user153940733783,user153940733783,,Light mode is better if the screen is dimmed about halfway. Resembles printed words on paper. Dark mode causes the eyes to water,28-7-2021,
304,Jess,jessssuhh,,when you update programs and it goes back to its default display settings 🔥_🔥 like cool thanks I didn't need my retinas today anyway,28-7-2021,
305,🕉️👨‍💻🍄🌈🍅💡🤭✌️,shroomlife,,I am programming since 10+ years and still don't get why the mainstream proframmers all use dark mode... wanna feel dark and cool!? lol,14-9-2021,
306,Twitch fiha66,apeople8,,When Im going in LIGHT MODE my FBI agent gets me Sun glasses😳😳😅😏,8-9-2021,
307,trifyy,trifyymore,,"idk, i just use dark mode everywhere since its more comfortable for me personally 🤷🏻‍♂️",7-9-2021,
308,ByZar1990,byzar23,,that moment when i'm not a programmer but I use dark mode,7-9-2021,
309,rascalize,rascalize,,and than Matlab to this day still doesn’t have Dark Mode…,7-9-2021,
310,RoKe,timeroker,,Come to the dark side,7-9-2021,
311,Traver,traver_no,,Dark mode is bad for the eyes,6-9-2021,
312,Vivi,ianthesbooks,,"So true 😂 I’m no way a programmer but I read kindle on my tablet, the bugs live it 😅",6-9-2021,
313,Ambiguous,ambiguo_,,LOOOOOOOL,6-9-2021,
314,Chris S1142,allrange,,Only Eclipse is in light mode because there are only horrible dark themes,3-9-2021,
315,DesignxTech,designxtech,,The bugs! 😳😳😳,25-8-2021,
316,Edifier Speakers & Headphones,edifier_northamerica,,That’s so true; too much light is generally not good for the eyes 👁,24-8-2021,
317,Weeb (づ￣ ³￣)づ,0oweeb,,I legit don’t understand why the debate of light mode vs dark mode is a thing lmao,29-7-2021,
318,WinWin,littlewinwin,,This took a second because I have everything in light mode.xD,28-7-2021,
319,Joey,tiktokconcepts,,Someone with bright LEDs using dark mode. Can you imagine,28-7-2021,
320,Katie,katie8803,,lol,28-7-2021,
321,jxith_,jxith_,,"I used light mode, cause dark mode hurts my eyes",28-7-2021,
322,GIAN POSATIERE,jeffjohnson123,,Dark mode hurts my eyes. I have to strain more to read text.,28-7-2021,
323,Chuy,chuyg22,,I use light mode in a dark room,28-7-2021,
324,Cat Dad,da_cat_dad,,I like light mode for backend and dark for front end!,28-7-2021,
325,Vukasin,vukasinstosss,,what do you do as a programmer and how much money do you make i wanna become a programmer,28-7-2021,
326,Tyler Porter,imtylerporter,,Genius,28-7-2021,
327,Nick Wegner,maximoose402,,"not gonna lie, I cackled at the end 😂😂",28-7-2021,
328,Joul',bakjoul,,what's your chair ?,28-7-2021,
329,MCM,scarletwtch,,The joke 😂😂,7-9-2021,
330,TheSerbianMarquito,marquito_askovic,,visual studio code ?,29-7-2021,
331,Clarkey,postmortemjukebox,,I knew an obnoxious guy in college who said he would never interact with someone who used light mode…. I switched over IMMEDIATELY and have gone back,29-7-2021,
332,Equinesciencegirl,equinesciencegirl,,me when I see my fellow equine scientists use R in light mode vs me in dark 😂,28-7-2021,
333,asaketel,asaketel,,impossible to use black mode on an average laptop outside under the sun light.,7-9-2021,
334,kei2367,kei2367,,"I can't code in dark mode, it's tiring. I'm way too used to light colors",3-9-2021,
335,KwakuOJr,kwakuojr,,You got me lmfaoo!!!!! I’m so dead,29-7-2021,
336,unknown,unknown_bot01,,i am always using dark mode in unity since it doesnt hurt my eyes especially after walking up,28-7-2021,
337,Iv,yve.nh,,I thought you were Jujubee out of drag 😳,28-7-2021,
338,Joel Conolly,joelconolly,,I'm pretty used to light mode. I'm no programmer since I do documents but dark mode is not suitable since many docs are B&W.,28-7-2021,
339,Sabba,20_2020_530,,Fr tho,29-9-2021,
340,user3168692494577,meckerpott_,,Dark mode ist nur ne Phase von den script kiddies. Echte Programmierer nutzen dark Mode nur im Terminal,3-9-2021,
341,Zoe,lexy_mermaid,,"@larena_chan Füße hoch, der kommt flach 😂😂 aber ich musste an euch denken.",6-9-2021,
342,Kiu,oykiu,,Men are just not funny :/,29-7-2021,
343,𝓑𝓲𝓰 𝓜𝓪𝓷,bodyslammedaddy,,"Then tell me... HOW DO YOU MAKE IT DARK... MY FRIENDS
THINK IM A PSYCHOPATH😅",13-10-2021,
344,Shadow9867,shaadix,,light mode gang?,1-10-2021,
345,Valentin Grégoire,tennegregoire,,Cleaver,30-9-2021,
346,𝓑.,imnfdl_,,My eyes burning,15-8-2021,
347,Ab,athoughtfulbee,,Fills me with instant rage,8-8-2021,
348,elle 🍑,ellesiba,,My brother uses light mode... he fears no god... or bugs.,8-8-2021,
349,John Lloyd Lanoy63,johnlloydlanoy2,,hacking 🤭🤔,31-7-2021,
350,Carlos Haro,im.xavier_,,Light mode is psychopaths or old people that doesn't know how to change it,31-7-2021,
351,K🥀,kyah.r.harrison,,Is there a dark mode for Tiktok??,30-7-2021,
352,Artur,klesk4,,dont u get tired more easily..?,3-9-2021,
353,SCWinter,scwinter2002,,I swear if I change to light mode now my eyes would hurt so bad,28-7-2021,
354,Not.Jonny,jonnyashworth,,Gotta go hack tiktok to make this viral,28-7-2021,
355,peacevictor241,peacevictor241,,ZEBERLOCK on Instagram the best in programing,2-10-2021,
356,Nicodemus,nikodeeeemus,,"Jeesus Kristus kuoli kidutuksessa, nousi 3:ntena pv:nä kuolleista, kaikkien pelastukseksi! Jumala rakastaa kaikkia. Jumalan valtakunta on lähellä 💖",16-9-2021,
357,IM TACTILE,kailhbrown,,"browns are the best, and most tactile 😎",28-8-2021,
358,data_dev,data_dev,,are you racist? what is wrong with WHITE colour??? ☃️,28-1-2022,
359,Tepetik,tepetik,,"Download tiktok videos without watermark to any device
https://tepetik.com",28-7-2021,
360,Jorgebr2001,jorgebr2001,,piadinha de tiozão kkkkkkk,7-9-2021,
361,quin.OP,quin.op,,I switch back and fourth but dark mode looks cooler,28-3-2022,
362,ruie,ruie220,,is it just me that I can properly understand and read codes on light mode?😅,30-7-2021,
363,🙂,ti.isac90,,I didn’t know Jujubee was a programmer,29-7-2021,
364,Admiral_MacCloud,oof_maccloud,,MAKE SENSE😂😂😂,28-7-2021,
365,Aidan😝🙃,aidan_5554,,"Is it cool that I made my own 8-bit CPU, my own assembly language AND my own OS from complete scratch for the CPU?",28-7-2021,
366,kashimsholamaat,kashimsholamaat,,Im non-programer and i find this very funny!,28-7-2021,
367,animeboy_xD1,xd_a5,,"can you show how to turn dark mode on, plsss🥺🥺",8-9-2021,
368,Jannic,jakami99,,"Serious, the joke is new to me, and it's perfect",7-9-2021,
369,Travis Louloudis,nottodayebola,,I always do a shameless stab at people who screen share and it’s light mode…”why aren’t you using a dark theme you psychopath!!”,8-8-2021,
370,OzzerTheTechGeek,ozzerthetechgeek,,"It’s true especially when your up all night, I switched from notepad++ (shit dark mode), I’m now still a fucking horrible programmer, but not as many",27-11-2021,
371,Deni,denitech,,"Dark mode is a lie (health wise) and y’all need to really stop believing it. It just looks cooler, sure. It’s not “healthier”.",18-10-2021,
372,yahya ghanim,john_vash,,not funny,12-10-2021,
373,epic gamer,antrogamertek,,chiste nerd notable,15-9-2021,
374,xero,jokeyxero,,I hate myself because I know I’m going to uae this now lol,3-8-2021,
375,ALOYS MARC,acousticchild69,,I use light mode. My office has windows. Dark mode makes it annoying to read,30-7-2021,
376,LenaSenpaii,extimesenpaii,,I hate myself for laughing,7-9-2021,
377,Rodrigo Montuy,pumkimask,,se mamo,7-9-2021,
378,jp 😴,jphl56202,,cada quien alv,29-7-2021,
379,Ericka Arregui,erickaarregui,,I’m an architect and I feel the same way when I see someone using AutoCad with a white background. Please stop 😂,28-7-2021,
380,David Sirait,davidsirait1156,,aku paling gk suka sama light mode,28-7-2021,
381,phillip,tiktok.phillip,,I hate light mode 😂,27-8-2021,
382,Joe Slater,kosty_hammerheart,,I've watched this so many times just for your facial expression at the end. it's perfect.,20-8-2021,
383,Dwarvo,dwarvo0,,😎the only light mode i have is the cmd prompt😂😂,29-7-2021,
384,Conor Campbell,conorcampbell50,,Now you have me considering switching to dark mode but I got so used to my light mode theme,28-7-2021,
385,Differentiator3000,differentiator3000,,Actually the light doesnt matter. You just need to blink more with your eyes. On screen the human being doesnt blink enough -> chronical dry eyes,28-7-2021,
386,DisterBeDoggo,distervplays,,@x..asthentic..x coding be like for me XD,28-7-2021,
387,Senpai Desi,senpai_desi,,that joke made me laugh for like 3 minutes,2-10-2021,
388,Nora's Guide to the Galaxy,norasguidetothegalaxy,,I use light mode. 🤷‍♀️,29-7-2021,
389,Cantet Nikif,cantetnikif,,My astigmatism said no to Dark mode and people who does this are super annoying LOL,7-8-2021,
390,superclosetobeingafemboy,closestobeingafemboy,,my eyes hurt,7-8-2021,
391,user1768666388500,dattaurusdude,,the bugs lol,7-8-2021,
392,Lyn,lynjuice,,we need a new rule in programming community. see someone using light mode you can shoot them on sight,29-7-2021,
393,Lukas Auchter,dxcbug,,used dark mode for years. as I get older it somehow irritates me. I think my VA screens is causing this with it's smearing tendencies 😳,18-9-2021,
394,Margus Martsepp,margusmartsepp,,"Well, there are skilled devs who want to show their superiority by defying the norm and few other reasons - using light 🥺",17-9-2021,
395,Marty Mccarthy,mac_redbaron,,Tell me you're a beta without telling me you're a beta.,16-9-2021,
396,David Daniel,legaldaviddaniel,,"am a full stack web developer and I use light mode .I tried dark mode because of Facebook memes,ooo boy it was stressful using it with webstorm",8-8-2021,
397,Anthonyprcp,anthonyprcp,,It's the equivalent of not trusting a thin baker,8-8-2021,
398,physics,technosapien1,,Had coworkers actually use IAR for development... kill it with fire,8-8-2021,
399,Say Hello,guck_weita,,Hey which programming languege do I need if I want to work as a software-engineur?,8-8-2021,
400,Bob,theofficebible,,Ur racist if use light mode I don’t make the rules,7-8-2021,
401,SaTisC,satisc,,thats some fax right there,31-7-2021,
402,Arik,rythm_of_the_night,,"So, are you saying there are so many bugs on Github project?
😏😌
All of those PR requests and merge attract all kind of bugs 😆🤣",30-7-2021,
403,Frank,filthyfrank_0690,,"well in the coding industry, there's non written rule that you should always use dark mode.",29-7-2021,
404,e-girl,userp2w8mf2nme,,"no, its cuz black mode will compile faster",29-7-2021,
405,🤠,il_dire_hatstyle,,"Not funny, got a thunderbug in between my panel..",29-7-2021,
406,✦ °. •meowramisu ✦ °. •,meow.lime,,✨DARK MODE SUPREMACY✨,29-7-2021,
407,The Truth1943,thetruth1943,,I don't know if I'm stoned in this is fucking hilarious or this is just fucking hilarious,29-7-2021,
408,ilayda,ilayda8970,,"At this point light mode is illegal, like who wants to be blinded when you look at their phone",29-7-2021,
409,joamya,sleepylilmoon,,"jokes, I have astigmatism, I can't see shit in dark mode",29-7-2021,
410,✨,lizziiejay,,Dark mode makes me oddly uncomfortable. It just feels cluttered somehow,29-7-2021,
411,Razi Falah,razifalah,,Because the light mode fuck your eyes,6-9-2021,
412,user8055115330703,ugfddeertdfgf,,I use light mode to fuck with my friends,6-9-2021,
413,Andrew Brown,drusepth,,dark mode is for suckers,28-7-2021,
414,Eamon Daly,eamon1110,,goddammit,28-7-2021,
415,Cesarturo Uribe,ct_rying,,"that was the funniest thing I have ever heard in my life, you got me M8",14-9-2021,
416,zomg147,zomg3,,Just a kiddo or junior dev. Programmers don't give a fk about someone's preferences,8-9-2021,
417,Kamex,mrkamex,,"dark mode people are weak. aaaaw, does whitey hurt your little googly eyes 🥺🥺",7-9-2021,
418,Biver,biver09,,"Whoever uses lightmode… just, idk pull the trigger or give yourself some Zyklon B, Mustard Gas whatever but end it fast, pls",6-9-2021,
419,The_Code,skycapflower55,,Is here somebody using the eye laser? I mean who tf is using somthing in lightmode. Opera GX get darkmode on every Website.,6-9-2021,
420,grant williams772,pantsforbirds,,If you use a light mode IDE/terminal and dark mode Notion you’re a psychopath. All light or all dark,28-7-2021,
421,Alessandra Mila,alessandramila_,,when i use dark mode i see lines of lights everywhere 😅 it fucks up my eyesight,28-7-2021,
422,TenShigeo,miijgyi0,,i wanna get in to programing but i dont know how much they make can you tell me the minimum money u make a moth pls?,28-7-2021,
423,Joe Gioia,iamjoegioia,,light mode? wack. forcing chrome to dark mode? that shit tight as fuck,28-7-2021,
424,Andrew,ashollister,,In school me and my friend refused to help someone fix his code until he changed his python IDE to dark mode,28-7-2021,
425,👀,helloyahboiting,,sir I think you need to get some sleep,15-9-2021,
426,Wei Nong Chen,the_neutral_guy,,"Kill that light, fast it hurts ahhhhhh! 😏",29-9-2021,
427,RacsoYun,racsoyun,,Yeah guys are still funnier,6-9-2021,
428,,vuoiclanta,,lol... white attracts the bugs😂 😂,14-9-2021,
429,Bot,thehtmlguy,,Who TF uses light mode for programming,26-12-2021,
430,Milchking,milchking_,,@maximal_lost02,6-9-2021,
431,fayaad,fayaad_s13,,@shazee1jz,30-7-2021,
432,Lifephath,wonderwise133,,@laviainielsen,22-11-2021,
433,bavoso,bavosodo,,@michelleparkx,2-8-2021,
434,Arda,ardasan_hd44,,@😂,13-9-2021,
435,Cristina Sirbu,cristina_gia,,😂😂😂😂😂😂😂😂,7-9-2021,
436,Fryeah,fryeah,,@electree,30-9-2021,
437,Áron Pőcze,poczearon,,@vanesszaorban1,17-9-2021,
438,Lennard Wollschläger,lnnrdw,,@jdk98_11,7-9-2021,
439,Pet do Pablo,achrstnny,,@nogabris,6-9-2021,
440,🌿mina,cdessana,,@witalocarlos,6-9-2021,
441,Jasmine,jsmntrlr,,@kieferaizon,31-7-2021,
442,Andrea Cosma,magicandyc,,@riccardosolimena 😂,29-7-2021,
443,chicken wings,zxsirix,,@dimrl @faitefate,29-7-2021,
444,Paula,paula_pa01,,@bernabeu_r 😂😂,29-7-2021,
445,Vladimir Mercado,vladimirmercado1,,@kronnosco,29-7-2021,
446,The Void Muse - Jared,voidedmuse,,@legndarysnake 😂😂😂,28-7-2021,
447,Mysta,mysta03,,@zachzodia,28-7-2021,
448,Moritz Putz,moritz_p01,,@paul_0155,28-7-2021,
449,Laurence Stephenson,shatterboxemporium,,@sun.rei77,28-7-2021,
450,D 🦋,deasparadise,,@hatred_san,28-7-2021,
451,Sara • Detox • Ritenzione,sarastravl,,😂😂😂,22-1-2022,
452,Guerin Giress,guerin_giress,,😂😂😅,24-10-2021,
453,ahmednur8322,ahmednur8322,,😁,22-10-2021,
454,filmmakersworld,filmmakersworld,,😂😂😂❤️❤️❤️,18-10-2021,
455,Ivan,iyia92,,😂,17-10-2021,
456,JAMETO ✞,jametocoded,,😂😂😂,12-10-2021,
457,Alice Pinheiro,yukiali_,,@erigann_,30-9-2021,
458,Alex Williams,_alexwilliams72_,,@gwarden55,30-9-2021,
459,Damaged,grommitza,,😅,22-9-2021,
460,m0m0,al3_m0m0,,🤣 🤣,20-9-2021,
461,Chris Toy,mayumicmt,,😂😂😂😂😂,15-9-2021,
462,Ray mal,rayczel,,@khal_west,15-9-2021,
463,user952935712327,vitermz,,@irelioblade,15-9-2021,
464,zifko_von_hechelberg,zifko_von_hechelb,,😂😂😂,9-8-2021,
465,Edy Bravo,edybravo.com,,😂😂🤣🤣,8-8-2021,
466,nexten.io,nexten.io,,😂😂😂😂😂,5-8-2021,
467,ramses,ramsesbol,,😂,31-7-2021,
468,Jashwanth Bamidi,jbams03,,@getdunkedon37692,31-7-2021,
469,Zayn Umar,zaynumar0,,😂😂😂,31-7-2021,
470,beleean🧿,beleeani,,😂,30-7-2021,
471,elle ✨,elledazzle,,😂😂,30-7-2021,
472,patesz1337,_p4t3s2_,,🤦😂,29-7-2021,
473,Aditya Saini,saininotlesbian,,@brianali07,29-7-2021,
474,.,lovethydoggos,,😂😂😂😂😂😂,29-7-2021,
475,Veronica De Bortoli,veronicadebortoli70,,@drazius,29-7-2021,
476,🌷candiedchestnut🍬,candiedchestnut,,@simplytmk,29-7-2021,
477,Anna Nicole Seville,nickole029,,😆😆,29-7-2021,
478,Sgtr,sgtrx73,,🤣🤣🤣🤣🤣,28-7-2021,
479,Tyfyh Tyfyh,tyfyh2,,😁😁😁,28-7-2021,
480,nshfrn_,xxxnshfrn,,@queyyn,28-7-2021,
481,iza,_izay99x,,😂😂😂,28-7-2021,
482,Luis,luto_akino,,😂😂😂😂,14-9-2021,
483,Noor Ahmad,justchilling309,,😂😂😂,6-9-2021,
484,D,groudoun,,🤣 😂,26-8-2021,
485,Richard and Clifford,richy.van,,@thealygator,28-7-2021,
486,Alex,alex.luna2442,,😂😂😂,28-7-2021,
487,James,jacharless0,,😂😂😂,28-7-2021,
488,ltroudereinzigwahre1,ltroudew,,@bolubie0,28-7-2021,
489,Watersparkles78 ly,watersparkles78ly,,😂😂😂😂😂,28-7-2021,
490,Axel,a.x.e.l.r,,😏,28-7-2021,
