,Comment Number (ID),Nickname,User @,Comment Text,Time,Likes
1,veveeGukGuk🐊,navee040501,,Samsung galaxy A80 😅😅😅😅😅😅😅😅😅😅😅😅😅😅😅😅,21-5-2021,
2,adam,pneumono0,,try Xiaomi vs iphone using instagrams camera,22-5-2021,
3,Barham B Salih,barhambsalih98,,Iphone 12 pro max wow 🙄😳😲😮,22-5-2021,
4,user7167881668043,qurbonovbahrom2,,narxi qancha ehan,22-5-2021,
5,KRIJU THAPA♥️,krijuthapa,,price,28-5-2021,
6,@Sushan11,sushankurung1998,,mine z6,22-5-2021,
7,Ozimo✨️⚡️,ozimo_7,,my favorite Chanel 🥰,22-5-2021,
8,Evinas Pranckūnas,edvinasroboko,,nice cholesterolio epik🥰🥰😳😳😁😁😌,21-5-2021,
9,Malik💕❤️💕❤️,mfahaduttra1183,,What price,5-6-2021,
10,Matteo Akash,matteoakash,,WOW! 😁🥰🥰🥰🥰🥰😁,21-5-2021,
11,user5574883409064milan,paswanmilan,,I liked it,2-6-2021,
12,Mr salman 786,mrsalman265,,nice🥰🥰🥰🥰🥰🥰🥰🥰🥰😁,5-6-2021,
13,😈Devil__Girl😈,devil__girl81,,hey everyone 😂😂😂,5-6-2021,
14,safrazali768,safrazali768,,sweet,21-5-2021,
15,Wasif Ali wasif,wasifali15151,,price,5-6-2021,
16,Mukesh Rajbanshi Muk,rajmukesh11,,wow😁😁,22-5-2021,
17,Maazkhan,maazkhan1125,,nice 👍,5-6-2021,
18,@zimjoň šamatøv,user36971008778525,,shu telfon qancha ekan,21-5-2021,
19,user353861196984,ranagti5,,wow amazing🥰🥰🥰🥰,5-6-2021,
20,FDVALERUS,fdvalerus,,уже восьмерка вышла 😳😳,21-5-2021,
21,الجيريانو,costa.dz,,سعر ؟؟؟,21-5-2021,
22,user6959905958787,user6959905958787,,إسم جهاز,21-5-2021,
23,Nurse.pame,nurse.pame,,que marca de celular es,21-5-2021,
24,1shakh..jakhan1_._1._,1shakh..jakhan1_,,xiaomi,29-5-2021,
25,★★★★★★★,2n_n1i,,هاذا مو A80لو خلطان,21-5-2021,
26,Kev-fa-edit,kevtaku_,,E io che ho un vecchio zenfone 4max,26-5-2021,
27,andrei,andrei_novac_c94,,quanto costa troppo bello 😳,23-5-2021,
28,Samuel Merah,samuel_merah,,"lindo demais velho, a melhor câmera selfie do mundo!",28-5-2021,
29,Jessé Araújo De Carv,jessearaujo862,,ZenFone é bom mais da muito problemas,21-5-2021,
30,gomadarnal270,gomadarnal270,,op,2-6-2021,
31,brian.lsc.,brian3201,,@marybautistayt hehe,23-5-2021,
32,AKIN KORKMAZ,tdmnext0,,turkler daha gelmemis,21-5-2021,
33,veyselgezer570,veyselgezer570,,onu banah günder nolir,22-5-2021,
34,Abidin Ilıkkan,abidin._.yt_01_yan,,@wronx.pm @klize.pm sence 90 fps alırmı keşke 3ümüzde olsa😩😞,28-5-2021,
35,wissa767,wissa767,,ارجو معذرة كم السعر,23-5-2021,
36,xouki,xouki1,,"လူတိုင်းတင်ပါ
မိန်းကလေးများကိုလိင်အကြမ်းဖက်ခြင်းအားပြင်းထန်စွာရှုံ့ချပါသည်
#whatshappeningnowinmyanmar
#savemyanmar
#speakout",22-5-2021,
37,zn. zny,sebfu,,شسم الجهاز,21-5-2021,
38,1shakh..jakhan1_._1._,1shakh..jakhan1_,,mi poco,29-5-2021,
39,Sulinho.15,sulinho..15,,uau,25-5-2021,
40,กิ๊ก ซอย ยิก ยิก,kiktrang,,สวยยยย🥰🥰🥰😂,24-5-2021,
41,HaseebMirza892,mirzahaseeb841,,"میں شاعری کرتا ہوں۔۔ اگر آپ بھی اپنے نام کی ویڈیو بنوانا چاہتے ہو تو فالو کر کہ کمینٹ میں اپنا نام لکھیں🥰🥰
Thanks🥰🥰",5-6-2021,
42,нαsyиєℓ,f6tit,,ِ,23-5-2021,
43,—͟͟͞͞𖣘🅱🅴🅻🅻—͟͟͞͞𖣘,bellla_xox,,พอใจแล้วใช่ไหม😂😂,22-5-2021,
44,Iqra Riaz,iqrariaz490,,price🥺,23-5-2021,
45,『S.S』〆 Z A K,stzak4,,yrr price bata na,5-6-2021,
46,AbdulRehman ¥¥,rehman123jc,,oh teri to,5-6-2021,
47,ART_احمدLOVE YOU ALL LOVERS😍,ahmad_09_op,,p price,5-6-2021,
48,abishek sharma,abiaheksharma54,,dami x😳,5-6-2021,
49,Mehmet Can,mehmet6289,,a101nezaman gelir😂😂😂,6-6-2021,
50,A to meri life ha,mylifedeath,,what the price Pakistan avalible,5-6-2021,
51,❣❣ KISS 😘😘lover❣❣,kingtreasure07,,how much prize dai,2-6-2021,
52,Fahad Rajput,fahadrajput739,,price,5-6-2021,
53,آبْنْ گربْلُآء (｡◕‿◕｡) ♥,user3375397345171,,ها ما كنت اعرف هاي التقنيه بل مبايلي 😬,4-6-2021,
54,Nishesh Patel,nisheshpatel8,,such a wastage mine was stopped working within 3 month ☹️,28-5-2021,
55,BentUghazelhaEl2mar,bentughazelhael2mar,,حدا بيعرف شنو اسم وسعر هالجهاز !¡!؟😬,23-5-2021,
56,༺༽آلَشُرقُآوٌيَ༼༻,adhmkassap,,@yousefgo110 @kareem.667 ياخي الاختراع رهيب وبسيط لية باقي التليفونات ما تعمله,23-5-2021,
57,Farry,farukh_raza75,,how much price,5-6-2021,
58,Hasan raza,1995hasan0,,wow 😳😳,5-6-2021,
59,🔥🔥ᴜᴩᴇᴋ ɪɴᴅᴇᴇᴩᴀ ʀᴀᴊᴀᴩᴀᴋꜱʜᴀ 🔥,indeepa_rajapaksha,,asus japan😁,22-5-2021,
60,Quần Bất Nhạc,clientele0,,lại chết theo Samsung galaxy A80,21-5-2021,
61,(SAM )follow me,samtheman031,,no apple or samsung or oppo or lenovo can replace this beast 😁😏😎,8-6-2021,
62,user4736029231902,vitodistefano7,,tutti i cellulari con più camere solo una funziona camera gli altri sono finiti,1-6-2021,
63,محمود سليم,mahmood______6,,"a80 افخم
..",21-5-2021,
64,Moiz Khilji213,moizkhilji6,,mera pass hn😂,5-6-2021,
65,Qazi๛Owais,0wais386,,Iphone 8plus😂😂😂,5-6-2021,
66,Hafiz Zohaib Ullah Jaan,z.laptops,,is ka kya name hy,5-6-2021,
67,mariabrahimi5,mariabrahimi5,,واش اسمو هدا كم سعرو,4-6-2021,
68,Mahad Munir,shkmahad897,,Copy of Samsung a80,7-6-2021,
69,StillNeik,stillneik,,cuanro cuesta jajaj,23-6-2021,
70,Zaid Hamze Theeb Sal,zaidone88,,كم السعر,21-5-2021,
71,king of abro 1,kingofabro1,,price,22-6-2021,
72,@Zameerkhan9832,zameerkhan9832,,Price,5-6-2021,
73,Adil,adiladeel12,,price,5-6-2021,
74,Awais Khan,awaiskhan3418,,Price,5-6-2021,
75,kaka 275,kaka.ak2,,Nice 🥰🥰🥰 👍,5-6-2021,
76,user4635259220325,user4635259220325,,price,5-6-2021,
77,musaali11222,musaali11222,,wow 😲😲😲😲😲😲😲😲😲😲😲😲😲😲,5-6-2021,
78,@,moeez.raza6,,price,4-6-2021,
79,K!ngtech,k1ngtech,,amazing,28-5-2021,
80,9¾,enlightenmepls,,zenfone🥺,27-5-2021,
81,user8923464353076,varamongulis3134676670,,copied😏😏😏,27-5-2021,
82,Ali ahad 🤍,aliahad99,,wow😳,18-6-2021,
83,Khamosh,yousufzaikhan9,,price,5-6-2021,
84,Abdullrehman,sheikh_5623,,nice,6-6-2021,
85,hassnat,user8001244213586,,wow,5-6-2021,
86,Shehzad Khan,shehzadvke,,Nice,5-6-2021,
87,arbab sheikh,sheikh334512,,nice,6-6-2021,
88,Muhammad Qaisar,muhammadqaisar12,,rate,5-6-2021,
89,اسماعیل خان5๛,ismailkhan14350,,price,5-6-2021,
90,𝐇𝐨𝐩𝐥𝐞𝐬𝐬𝐛𝐨𝐢 💔👿🖕🙃,devilboi14,,😂😂😂 Nokia,1-6-2021,
91,user3072403523226,rajpootbro91,,𝒛𝒂𝒃𝒂𝒓𝒅𝒂𝒔𝒕😎😎,21-6-2021,
92,Dessi... boy✌️✌️😎😎,ziarajpoot5,,good🥺🥺🥺🥺,13-6-2021,
93,Ömer Fatih,omerfatih_,,WHAT,21-5-2021,
94,user7097792573776,irfanrajpoot224,,awesome,20-6-2021,
95,992,ljx992,,สวย,21-5-2021,
96,𝙳𝙴𝙰𝚃𝙷-𝙾𝙵-𝚆𝚁𝙸𝚃𝙴,eeshaali110,,wOw🥰,18-6-2021,
97,ALEJANDRO MILLAN,jes_ale_mill_urr03,,bro me rexomiendas ese telefono?,26-5-2021,
98,Mohsin Ali,mohsinali648,,infinix wale hazri lagwaye,13-6-2021,
99,Calcio__edit,calcio__reparto,,Quanto costa?,21-5-2021,
100,Shahnoorkhan172,shahnoorkhan172,,wow very nice,5-6-2021,
101,ERA,anthropocene2,,Vergi otv KDV = 6.500,22-5-2021,
102,Daniel Barahona,daniel_30._,,@soadortiz298 mira este,21-6-2021,
103,sameerkingofficial1,sameer___typist,,konsa mobile hai,5-6-2021,
104,Suji99 Hettiarachchi,suji99hettiarachchi,,cool😂🥰🥰🥰🥰,22-5-2021,
105,yasmiiiine_9,yassmiiine_9,,واو,23-5-2021,
106,Itsmuhammad54,itsmuhammad54,,Wow,6-6-2021,
107,Faizan Ansari,faizanrashid67,,bakar,21-6-2021,
108,alikhankhan2401,hariskhan8470,,wah,11-6-2021,
109,Xyz,xyze30,,114k,6-6-2021,
110,𝐇𝐀𝐒𝐀𝐍 .𝐀. 𝐑𝐀𝐙𝐎,hasan.surche,,wow😮,21-5-2021,
111,danish,userdanish744,,omg,12-6-2021,
112,Moiz Khilji213,moizkhilji6,,58000 rupes khan hn,5-6-2021,
113,A to meri life ha,mylifedeath,,what a name this mobile,5-6-2021,
114,Amogus,sonosusebasta,,Se ti cade si rompe subito😅😅😅,3-6-2021,
115,user5242417614191,yakudza20060,,akang kuchaydi ujeee😂😂,27-5-2021,
116,The best,the_hell5,,شحال دار عندنا فالجزائر,26-5-2021,
117,🌞 🅿 🅾 🆁 🌞,paulnycbkk,,The pop-up camera looks fragile 😅,24-5-2021,
118,Pillo,_mzagy_,,هاذا يعلق سريع حقت الكيمرا,23-5-2021,
119,Dahlia_Tuyen,xuantuyenlovable,,cái nào giá bn vậy ta có ai biết k chỉ e với ạ,23-5-2021,
120,RaScAL 👿,0x_rascal,,kon jenta ha ya website (m.vtube.mobi)😅,13-6-2021,
121,Rashid Rana,rashidrana559,,price,5-6-2021,
122,Fodil Fodil602,fodilfodil13,,سعر,21-5-2021,
123,orhan,orhan.tr33,,waoov😳,21-5-2021,
124,Scacco,scaccobianco21,,@simonaleone1008 Asus,6-6-2021,
125,ndm creations,ndmcreations,,koi tu like kr do zalimo😅,5-6-2021,
126,✌️✌️,ssalahmerza,,😅وا ووو,27-5-2021,
127,ahmedtawirghi,ahmedtawirghi,,كم قوة الكميراء,26-5-2021,
128,ℳℰℛ𝒜𝒩,miran_6002,,@j.a.d.o.313 ئەوە چەص😂,23-5-2021,
129,𝑯𝒶𝕤𝕤𝒶ᵐ...✌️✌️🤘🤘,hassamulhaq03,,what price in pakistan 😏😏,20-6-2021,
130,nomeer____k,nomeer____k,,bro price btana plzz🥺,18-6-2021,
131,._.,muvies.series.all.xx,,@_sbszmn most nem mondhatod hogy a hátsó kamera jobb mint az első👁👄👁,13-6-2021,
132,Ëm s-håh..g,syedshayanali24,,i have asus rog3🥰🥰🥰,7-6-2021,
133,user4069889872263,amonov.javohir,,asus zenfone 7 flip,6-6-2021,
134,DaNii Khan,dk__danii,,Mujy Chahiy Ye Cell😒,25-6-2021,
135,RaceA.K.DaHri,akramdahri1,,Kon sa mobile ha bahi,19-6-2021,
136,FLAME JOKER,flamemuneeb36,,samsung z flip,7-6-2021,
137,Irfan Baloch.Dgk,irfanbaloch_50,,Allah dy ga🥰,5-6-2021,
138,qdkhan875,qdkhan875,,Ani🥰price plz🥰🥰🥰plzplzplz,22-6-2021,
139,ッ HɘɭLMan420,hellman420,,@daniyalaziz18 check kr,17-6-2021,
140,wadaroparn,wadaroparn,,how much price,14-6-2021,
141,꧁༒☬HäLëëM☬༒꧂,haleem.king,,whats the price😳,6-6-2021,
142,Shagufta Ch635,user167335956,,What is its price,6-6-2021,
143,k,frdsrzlshm,,@paanhanz bang temgok ni😅,21-5-2021,
144,nawab zada 105,usernawabzada63,,what a price?,29-6-2021,
145,Malik irfan🤙,malik_irfan69,,wow kon sa model ha,29-6-2021,
146,muhammaduzair0003,muhammaduzair0002,,price please,29-6-2021,
147,абу бандит,abubandit2303,,а у меня флай,29-6-2021,
148,where😇. is😴. my. 😢life,uzairaftab06,,Bhai price,22-6-2021,
149,mian ijaz,mianijaz105,,plz price,21-6-2021,
150,Choudary Tipu@,choudarytipu,,price bro,8-6-2021,
151,😎 Mr___Rk 😏,mr_rk0988,,Device name,7-6-2021,
152,fifa mobile 21 hard,fifanahipubg7,,what a price,6-6-2021,
153,Zain Khan,zain_khan165,,o teri,6-6-2021,
154,💪افخم السيارات💪,ahmedk609,,والله فكرة اينقص فسومة 😂,6-7-2021,
155,🍀😁,hayamtsh00,,سعر في الجزائر 🇩🇿 ب 18 مليون 😳😳😳😳,8-7-2021,
156,xamzaraxmatov7,xamzaraxmatov7,,nechpulakan,21-5-2021,
157,susma,user157susma,,Price,25-12-2021,
158,Ange Aclombessi,angeaclombessi,,on dirait le samsung galaxie A80,17-8-2021,
159,Anicet TENGUE,anicettengue,,c'est à combien s'élève le téléphone laa,16-8-2021,
160,elibos,arobas6,,Apple doit avoir peur non,15-8-2021,
161,sales auwal yahuuza,salis5208,,price plz,1-8-2021,
162,Mohamed Hedi Hedi,mohamedhedihedi1,,Asus z flip,30-7-2021,
163,Îshak rap dz👌😍😀,ishakbabas,,عندي ميكرو نفس لامارك يطفا وحدو ميحكمش ريزو وكنكس 😂😂,22-7-2021,
164,leaveworld1,leaveworld1,,price,17-7-2021,
165,MÖHAMED,mohamednadji03,,18مليون 😂😂😂,14-7-2021,
166,kumarchoudhry405,kumarchoudhry405,,price and mobile name,11-7-2021,
167,ابو أرام,abo_aram9,,نفس اليمي 😎.,9-7-2021,
168,zindine679,zindine679,,واو,8-7-2021,
169,AbdurRaheem.Sh,abdurraheem.sh,,price ???,8-7-2021,
170,muhammedali9815,muhammedali9815,,telefon markası ne,8-7-2021,
171,Muhmmad Jamil,muhmmadjamil30,,price,5-6-2021,
172,Pao,scrappy.pages,,Gotta go back to Asus.. 🥰,7-7-2021,
173,Bhangu jutt,jahangirzafar8,,wow,5-7-2021,
174,khalilahmed5376,khalilahmed5376,,ja kon sa mobile ha,3-7-2021,
175,Maaz Hun Ywr,maazhunywr05,,prixe,30-6-2021,
176,yoldoshev0401,yoldoshev0401,,skoka?,8-6-2021,
177,elisee140,elisee140,,😳😳😳😳😳😳😳😳mais il est à combien,28-7-2021,
178,SaadAhmad_LoVSaad,saadahmad_lovsaad,,They copy the Samsung A 80😂😂,2-7-2021,
179,Abdurrauf Afridi,abdurraufafridi87,,wow,30-6-2021,
180,Waseem Muغhal,waseemmughalofficial007,,Price,5-6-2021,
181,𓁹‿𓁹,yahya0tman,,please Mi not 10 5 camera please,21-5-2021,
182,Elegance,cansucndn,,samsung A80 den calmislar,21-5-2021,
183,M.ERDOĞAN,favori_tesbih,,Asus telefonları hep sıkıntılı ucuz malzeme kullanıyorlar sürekli arıza veriyor,21-5-2021,
184,Volkan Ünlü,volkanunlu0,,Aç kapa aç kapa bozulur diye kamerayı açasımız gelmez bende ön kamera içinden çıkıyor selfie çekesim gelmiyor 😅,22-5-2021,
185,yusufqr2,yusufqr0,,oha,8-6-2021,
186,Ali ünlü241,aly_spawn,,adamlar yapmış,21-5-2021,
187,امبراطورية الميمز,d1auo,,جماعة السامسونغ الي يقولون السامسونغ احسن من ايفون و شاومي و هواوي : 🤡💔,23-5-2021,
188,प्रदीप थिङ।,pradeeptheeng1278,,lose mobile 😳😳,22-5-2021,
189,yaşar öçalan,yasar_ocln,,piyasadaki çoğu telefonun ön kamerası çöp diye varsayıyorum harika,21-5-2021,
190,EVOCUUU,evolution.series,,zen 6 değilmiydi bu,21-5-2021,
191,Mehmet Ak,mehmetak73,,bim e nezaman gelir.,21-5-2021,
192,Baššãm,alexxveer1,,متواجدين في الجزائر 🇩🇿,16-8-2021,
193,🔥🔥,ossama__21,,AsuszonFone8Flip,9-7-2021,
194,الحلم وعلاه محب يتحقق 10k,ra_y_en30,,وش اسمو,8-7-2021,
195,Sheikh Ali👑👑👑,mr.sheikh.ali,,":✔اسپيشل آفر✔🍀
✔ فالو کے بدلے فالو ➕لائيک✔❤
❤✔اور لائيک کے بدلے لائيک➕سويٹ کمنٹس❤🥰🥰",5-6-2021,
196,🍁,1ahmt,,sıçMalamışlar💁,21-5-2021,
197,:),htoopyaephyo2,,ohh shit it's so cool😏,21-5-2021,
198,من# جِيِّشٍ تّوِمَـــ🥀ـــأّس,dzairpower7walid,,wtf,25-7-2021,
199,Hamody,x_hamody_2001,,تقليد زي سامسونج A80,14-7-2021,
200,Si_Kucing_Berkumis,super333333,,"after 10000 flip, you will experience the problem",21-5-2021,
201,Ieon,_leon_620,,кто тоже заметил что он снимает на прозрачный телефон?,23-5-2021,
202,Sudais Khan,sudaiskhan281,,@sudaiskhan281:( allah ) ye name kis kis ko pasand hay jis ko pasand hy wo zaror like karay,5-6-2021,
203,🇹🇷Şenol 👮,capkin_bey34,,tez bozulur bence tozlandikca o kızak illaki takılır,21-5-2021,
204,Patricia Torres,mazeeverdeen,,@alinedemicheli,5-6-2021,
205,PANGET,panget0412,,@itsme_jaaa03 😳,24-5-2021,
206,💚JoJo💚,jojo1.3.4,,@aljboorya 😳😳,23-5-2021,
207,Rəhman,turksoy.wr,,@.xss.turan,23-5-2021,
208,تيم الشباب,xdx_64,,@ibrahimgdh @sabaaaljabour @zh_______kamal,22-5-2021,
209,Barham B Salih,barhambsalih98,,😏😏😏,22-5-2021,
210,👑A.K sheikh faisalabadi🧏,afnanxhk01,,😳😳😳😳,5-6-2021,
211,ChamLing Ram Rai,chamlingramrai,,😏,22-5-2021,
212,user5951333935693,usemonica00,,😮🤩,1-6-2021,
213,user7520115083428,jos_10cruz,,😬,21-5-2021,
214,brian.lsc.,brian3201,,@techbeans,23-5-2021,
215,@giannis2006,giannis200615,,@dimis19761,21-5-2021,
216,Ana Rita,ana_rita_rj,,@darksfunny,21-5-2021,
217,İzzet İnce,izzetnce,,@ergunn001,21-5-2021,
218,Ali,mirpurs252,,😱👍👍👍👍👍👍👍👍,24-6-2021,
219,Laila Credo,lhailai28,,@jhelyne0 😁😁,11-6-2021,
220,🧿🧿,licialuiza,,@rafaefaelqueiros97,9-6-2021,
221,LEZGIN_2005_1,lezgin_2005_1,,😂😂😂,8-6-2021,
222,dym8uf9ehh63,dym8uf9ehh63,,[wow],7-6-2021,
223,Bilal Arif,bilalarif23,,@mhahmed70,6-6-2021,
224,Mia khalifa 🔥,miiakhalliifa,,😁😁😁,5-6-2021,
225,M A H E R🇸🇦,junaid_9000,,🤓,5-6-2021,
226,jyoti poddar,jyotipoddar85,,😳😳😳😳,2-6-2021,
227,Saranghae🫠,boywithno.name,,@khawar0007,13-6-2021,
228,SHANigamingYT,shanigamingyt110,,@sayedzeeshan110 😳,13-6-2021,
229,usmanjan9385,usmanjan9385,,@usmankhan09876,8-6-2021,
230,grow_with_ak,ashokyadav8531,,😂😂,24-5-2021,
231,malikameerhamza288,malikameerhamza288,,😳,5-6-2021,
232,Wasay Shaikh,alwasayshaikh,,@abdulrafayars,12-6-2021,
233,Khomitov Ali 🖤🌙,muxammad_monarx,,@pracror_uzb,6-6-2021,
234,brian.lsc.,brian3201,,@marybautistayt,23-5-2021,
235,Lwando Madi,lando._._,,@futuristickid05,22-5-2021,
236,Enes.huseyin00,huseyin.0007,,@f4caillou,21-5-2021,
237,Srur Srur,srursrur,,😳😏🥰,1-8-2021,
238,🇩🇿 MAHREZ 🇩🇿,ralf.444,,@kaiji.ff,9-7-2021,
239,MirzaShayanBkr,mirzashayanbkr,,😁,6-7-2021,
240,Gokhankr,gokhanjoo,,🇹🇷🇹🇷🇹🇷🇹🇷🇹🇷🐍🐍🐍🐍🚀🚀🚀,21-5-2021,
241,(ÃĤϻẸĎ ĤŜẸŇ),ahmedhsen64,,**:,23-5-2021,
242,DaNii Khan,dk__danii,,😳😳😳😳😳😳😳😳😳❤️❤️❤️❤️❤️❤️❤️❤️❤️,25-6-2021,
243,Salman khattak,salmankhattak70,,@salmankhattak70:@::اسپيشل آفر🌹✔فالوکےبدلےفالو✔❤✔اورلائيک کےبدلےلائيک,5-6-2021,
244,*UZAIR/KING*,uzair_shar7,,104000,14-6-2021,
245,🌜emandar🌛,4mir_kb9,,⑥,6-6-2021,
246,salmaniqbal22,salmaniqbal22,,@salmaniqbal22:@سپيشل آفر✔🍀✔فالوکےبدلےفالو➕✔❤❤✔اورلائيککےبدلےلائيک➕🌹🌹❤❤,13-6-2021,
247,Màłãķ Mįmì👑💖🖤🌷,malakmimi617,,😱😱😱😱🤒😱😱😱😱😱😱😱😱😱😱😱😱😱😱😱😱😱😱😱😱😱😱😱😱😱😱😱😱😱😱😱😱😱😱😱😱😱😱😱😱😱😱😱😱😱😱😱😱😱😱😱😱😱😱😱😱😱😱😱😱😱😱😱😱😱😱😱😱😱😱,30-7-2021,
248,Malik Qadir✅,malikqadir305,,https://youtube.com/channel/UCH1c3F3gJfAufpdQqXjiAxg,5-6-2021,
249,🌹ABDO 😉,abdoboda288,,"انننننننن.
#عنبوره_خد_بان_ظلم💔
#حق_عنبوره 😔💔
🇵🇸💚🇪🇬LOVE 🇪🇬💚🇵🇸",23-5-2021,
250,It'x Hasham,hasham051,,"👉🏻tag @Hasham051 سپيشل آفر✔🍀
❤✔ فالو کے بدلے فالو ➕لائيک✔❤
🕳🖤❤✔اور لائيک کے بدلے لائيک➕سويٹ کمنٹس🖤🖤❤❤❤❤
❤❤🧡🧡جلدی کرو Hasham🥰🥰🥰🥰",5-6-2021,
251,AshrafPatan00,vivo_pakistan5,,@@vivo_pakistan5::https://vm.tiktok.com/ZSJ9pA6mF/,8-6-2021,
