,value
6847427736357686533,51.470588235294116
6855714202779159814,70.64439140811456
6871307727025540354,63.53383458646616
6871679033197808897,74.46808510638297
6872312272782413058,72.72727272727273
6889046515197791489,40.32643312101911
6892707690640985346,1.590759075907591
6893915687622921474,5.691011235955056
6901264929983057153,1.4680851063829787
6906821200509455618,37.78110944527736
6912020847913946370,48.43234323432343
6917652305428958466,33.01451187335092
6917955593558838530,28.092711533091315
6919430947737767170,9.080357142857142
6924263706041879813,12.214199759326114
6926950222191086853,20.826446280991735
6930903799666150661,35.237106265143645
6938731539572198661,51.46750524109015
6945029054177250566,16.355670939477527
6947271263349968133,1.5623003194888179
6954741566426713350,10.136765888978278
6955475790389693702,16.195043964828137
6958395128633462021,0.7261904761904762
6960230141079407877,48.60557768924303
6961350164770524422,39.207569485511534
6963954711468739845,12.462797619047619
6964687421959064837,82.29508196721311
6971382234234326278,5.178571428571429
6973213599376444678,33.1900826446281
6989925727168711942,35.28387321490769
tuttotech,111.0
