,Comment Number (ID),Nickname,User @,Comment Text,Time,Likes
1,ButeraDaily,arianabuteradaily,,why are iPhones so overhyped idfk,18-3-2021,
2,I follow back,beloniape,,Iphones overpriced And Battery dies So fast😂,18-3-2021,
3,Calvin,ikligonderjezusderbed,,As an iphone user i think samsung has a better camera . Didnt samsung made back in the days those big cameras?,21-3-2021,
4,Daniel,danxspqdy,,At least Androids don't break the first time when we drop it😏,21-3-2021,
5,j24juju,j24juju,,"All apple fans, you know Iphone 11(700€) don't even have Full hd screen ?(1792x828) only 60hz, and ""retina"" is just another name for old lcd tech?",18-3-2021,
6,Hayden,hayden_riv123,,samsung price 6/10 quality 8/10 IPhone price 8•5/10 quality 5/10,18-3-2021,
7,moai,atii.3d2y,,Woher wusstest du das ich deutscher bin?,17-3-2021,
8,idk,bruhmywifi,,actually Androids have better camera,21-3-2021,
9,lenny,alpakazho,,German accent ;)),17-3-2021,
10,Leonard,der09er.tv,,Wai du sink its Bäd?,24-3-2021,
11,Goatlander 😩🙏🔥,steveiscool69,,I can't upload my videos into Tik Tok because it says they don't support videos over 1080p 😐,18-3-2021,
12,ibi,ibi.s5,,the s21 has an 8k quality thats the best camera quality on a phone that's like a pro camera,21-3-2021,
13,deinHelfer,dein_helfer,,"Woher hast du gewusst das ich Deutscher bin?
ich:",18-3-2021,
14,Gymnastic_person,gymnastic_person0,,Your saying android screen are that bad it turns blurry?,18-3-2021,
15,🐦,penlp,,"Wie deutsch willst du sein?
Er: Ja",30-5-2021,
16,Ru🅱️en,_f1enthusiast,,"I phone: breaks easily, overpriced, battery dies quickly, uses android parts",21-3-2021,
17,Kanishk Kammaripalle,kanishkkofficial,,But what is the point buying a phone with a good camera if you can’t post good looking videos easily on social media? Iphone is just better.,21-3-2021,
18,nigadababy,nigadababy,,one thing that apple users never understand,24-3-2021,
19,lwzcv,lwzcv,,exactly! i got a s21 ultra and its amazing quality,21-3-2021,
20,emliy,emily72847,,du bist sowas von deutsch,24-3-2021,
21,Maik,qlfmvik,,Digga wenn ihr mit cams flexen wollt KAUFT EUCH EINE KAMERA,24-3-2021,
22,aren129,arenn61,,fun fact : er ist deutsch,24-3-2021,
23,no1,maxoflaxoo,,Deutsch,23-3-2021,
24,Tim,tiktokgoalkeeper,,POV: Du bust in der 7 Klasse und hast englisch😂,5-6-2021,
25,Leif,leif.prs,,Warum wusste ich nach einer Millisekunde das es ein deutscher ist:,5-6-2021,
26,PhoenixYT 124,phoenixyt124,,warum weiß dass eigentlich niemand außer mir?,30-5-2021,
27,Flying Dome,flyingdome,,teurer ist nicht immer besser ✋👍,29-5-2021,
28,☞︎︎︎ 𝗕𝗼𝗻𝘀𝗼08 ☜︎︎︎,bonso08,,Ich: er ist 100% Deutsch,26-5-2021,
29,Iergendeintyp!!!!,iergendeintyp,,Ahja und die Galerie da ist es auch weil es nicht optimiert ist oder was 😂,11-5-2021,
30,simonplischek,simonplischek,,danke bro,10-5-2021,
31,Yannick,yannicko_18,,"Die möchte gern Technik Profis hier😂 Wenn ihr wirklich Plan hättet, würdet ihr wissen das die Kamera Qualität von den aktuellen top Modellen 🤏 gleic",20-4-2021,
32,🍞,user12884834842737373799,,du bist deutsch!!!!,6-4-2021,
33,Kyle,pcswithkyle,,"Yea but I buy a phone to be able to use apps, if my phone doesnt work well with apps then idk what to tell u man im team apple 😂",18-3-2021,
34,.,alex69420000,,"Android has better harsware, apple has better software. that's the simple explanation",22-3-2021,
35,Volkswagen Passat b6 vr6,volkswagen.passatb6.vr6,,agree android cameras is good,17-3-2021,
36,user9699812119058,well_no_shit_sherlok,,my android for 500 dollars can do 4k 60fps,23-3-2021,
37,Yes sir,be.bald,,Iphones are just to flex,22-3-2021,
38,ana,militante.aprendiz,,Yall iphone fans think android is only samsung j4 core and samsung j7 neo😭😭😭Stop the stereotype,18-3-2021,
39,bruno barros brunod1,vaisefoder2020,,i hate iphone and their fans,18-3-2021,
40,Gagas casandraa,apakekgtu1,,xiaomi made the most worth it phones change my mind,18-4-2021,
41,luh boof pack,kudostherapper,,samsung makes iphones cameras just so you guys know,18-3-2021,
42,abink 🏀🧛🏼,abink.1677,,Then what’s the point of having a good camera if u can’t use it on social media,18-3-2021,
43,Jacob Brown,jacobmnb,,What’s the point in having a better camera if most apps can’t even utilise it.,18-3-2021,
44,breek,breek36,,maybe because ios don’t release somewhere around 1000 phones a year,17-3-2021,
45,AKA NewsGta,crispkriss,,can someone pls tell me.. how an iphone could be better then android,18-3-2021,
46,Beautiful Places,beautifulplacestobe,,"Tell me your german, without actually telling me your German",18-3-2021,
47,novocaa,novocaa_alt,,"bro it looks totally fine to me, people that are saying ""ratio"" are the ones that cant handle facts tbh 😂",18-3-2021,
48,person,bbc..balls,,"yeah everytime I use my android I lag so much, but when I use my brothers iphone I dont lag on tiktok",18-3-2021,
49,hcviko,hcviko,,But iPhone better,17-3-2021,
50,Xavier,snapshot500,,it's not because the screen is bad it's because it doesn't take a live feed. it's no different than if you screen record a video on an iphone,18-3-2021,
51,lee brady,toyotatwincam16v,,👹SAY 😥 YOU 😩 ARE 😍 MY 😡 BAKA 🥺,18-3-2021,
52,El Mehdi,mehdielbs,,facts,17-3-2021,
53,Nickname can’t be blank,lidl_trooper,,"@ab_.02 @jf.2007 the guy that said the iPhone 11 was bad is now saying android is good, you still agree with him?",21-3-2021,
54,oskar,oskarzyg,,Ok the hardware is good but what’s the point of having a camera if I can’t use it to it’s full potential...,17-3-2021,
55,.,yeiiiiiiis,,we have 8k how can our camera be bad,18-3-2021,
56,SPekka,spekkops,,finally! An intelligent person!,18-3-2021,
57,assytro,assytro,,neither of em are “better” they both have their good and bad,18-3-2021,
58,Pain,painhouseexe,,"Iphones are for old people, had to say it",21-3-2021,
59,_,haechansbestie0,,okay but why do samsungs users try so hard,23-3-2021,
60,Crispy,crispyorel,,Motorola g stylus has WAY BETTER CAMERA than iPhone,7-4-2021,
61,F1 Central,f1_clipsandmemes,,But that’s cause TikTok can’t keep up with the pointless amount of phones they make uneccesarily,18-3-2021,
62,varmeste løve🦁🦁🦁,linus_vidovic,,anyone saw the OnePlus launch,24-3-2021,
63,Firelex,firelex_,,@xtrazis note bien quand tu te filmeras,19-3-2021,
64,Clocksucker,brownslaves,,Proof?,7-4-2021,
65,Jesus arroyo,stickypigeon,,wait till they find out the top phone in any aspect is android,22-3-2021,
66,Seaborn,seaborntie,,that's 1 thing wrong with iPhone users they all little 5'7 gremlins that will start war if u diss a iPhone,22-3-2021,
67,ethan,68.01,,the reason it's like that is bc theres so many android phones out there it would be way too much effort to properly integrate with them all,22-3-2021,
68,Fabian,mark_spector4,,Android has amazing cameras,6-4-2021,
69,Hi,gesmeerd,,Do it then,18-3-2021,
70,Danny💯,danial.hussain.04,,Samsung camera > iphone camera,21-3-2021,
71,Félix Latour,flixlatour,,I still prefer apple 😂,23-3-2021,
72,user9957607336897,abdithenerd,,"people with iPhones say
iPhones are better cos you have to pay extra for things
this means that I'm rich",21-3-2021,
73,hcviko,hcviko,,The debate is that iphones are better than samsung,18-3-2021,
74,moeito9,moeito9,,100% !,18-3-2021,
75,Diego,diegom.de,,I just know you're German,6-4-2021,
76,for clapxz,hello_2389,,me on Samsung s21 ultra 😂😎,23-3-2021,
77,Croopek YT,verigutinglish,,It’s a great app but it’s a good app to play and it’s a good game but it has a good app and it has some good game options and it has some more stuff,23-3-2021,
78,marto pumata😍😍😍,pumichkata,,#stopphonewars2021. Iphones and androids are both good guys stop the war. I have two phones which are an iphone and android just stop these wars.,23-3-2021,
79,arran swaz,arranswaz.ie,,it is because Samsung runs off android and there are so many android phones that they make every different phone good where as iPhones run off apple,23-3-2021,
80,Glory to Ukraine!,linuxvids,,record with the camera app,18-3-2021,
81,hcviko,hcviko,,Well the most important part the processor is apple,18-3-2021,
82,eggie,cattdoggg,,So basically android cameras are so good that tiktok can’t handle how good it is?,22-3-2021,
83,Zero,gehehbsjskx,,dam boiiii let's goo finally someon who understands,21-3-2021,
84,Flávio Henrique,focabugada,,"Iphone is more simple to use day and day and android is the best for gaming, photos and battery",18-3-2021,
85,yo mom’s spicy,momspicy,,"Its actually because most of the app developers have to code everything to fit right on the screen, for iPhones its easier when they release like-",18-3-2021,
86,JayD Ramos,jaydv8,,"No it’s not lol Android just bad, my friend bought the last Samsung and the front and back camera quality are dog water compared to iPhone",22-3-2021,
87,I never miss,ypc_avrtyzz,,Yep Samsung is better,22-3-2021,
88,edvin,e__h_21,,"can u show te settings of ur razer seiren mini (OBS or streamlabs)
🙏🙏🙏🙏🙏🙏🙏🙏🙏",18-3-2021,
89,MJ,jar1r212,,"I mean ngl, I chose iPhone only bc android has useless stuff, when will I ever use 100x zoom",18-3-2021,
90,Tommy,t0mmy5ab,,If I can get Apple OS and build quality on an Android I’ll switch sure but the Apple OS is unrivalled,21-3-2021,
91,Jcuellar,jcuellarrrrr,,Pov: u r broke,18-3-2021,
92,DeflatedBongo12,nyxowanted,,"As an iPhone 12 user I can say that Samsung’s flagship cameras are better, but they will never have a better software and chip 👹",21-3-2021,
93,Hey 👋,giltxd124,,It’s bcs apple makes fewer phones so tiktok makes the best camera app for that phone but on android they make so many phones tiktok look in reply’s,5-6-2021,
94,Airbus And Boeing Fans,b777200lr,,if iphone commercial were honest:hmm actually there is samsung parts on macbook and imac,9-5-2021,
95,David fan page Thailand,fandavidfan,,U talking smac about android but ur English accent u German person,18-4-2021,
96,Valorant & Apex Guy,ventidino,,IPhones with multiple cameras r scam it only uses one,7-4-2021,
97,grlglggrlrgglrrghlrlrlrlglr,toriyabutbetter,,yes yes but I'm not gonna pay another like thousand euros just so i won't have to import a video to tik tok,24-3-2021,
98,🧌,testycools,,It’s actually true cause my iPhones camera is just as bad as this when I record within the app,23-3-2021,
99,RealTalk,ariestopsall_official,,"Its because its hard for developers to program and optimize every Android phone to utilize all those different camera hardware, easier to screen grab",22-3-2021,
100,Omar Gachuz,omar_gachuz.tellez,,"@ur_local_loser69 Look at this bruh, my actual quality is fine af",22-3-2021,
101,Matty,victims.of.a.crime,,I had an S7 and it took Wayyyyy better photos than my iPhone 8,22-3-2021,
102,hi,fanlienquanmobile1,,google pixel: im better than you 🍎,18-4-2021,
103,Daniel Aminov,dandanidaniel123,,the s21 has rlly bad camera,6-4-2021,
104,X,lowkeyg16,,samsung makes iphone screens and other parts,6-4-2021,
105,Joo,roope.n,,I prefer iphone beacause of better integration,23-3-2021,
106,Y u tryna stalk me 🤨,ttvbruhmemeganng,,This guy 100% sounds like @mokeysniper,22-3-2021,
107,Cyka,xtytop,,iphone still has 60 hz💀,18-3-2021,
108,Zain,noodle.zain.vr,,Apple company=overrated😬,23-3-2021,
109,방탄💜,bts_army_member_1,,imagine starting phone wars,22-3-2021,
110,P,samuel71drift,,finnaly someone spoke,22-3-2021,
111,💪😎🤳,rrs_bogdan,,iPhone still at 60hz 😂,18-3-2021,
112,JukuBernice,yczara,,Ok.,23-3-2021,
113,HahDude,i_missed_the_joke_260,,facts,21-3-2021,
114,Nils Kansier,birb_seed,,I noticed no difference on my last two phones huawei p40 lite and the p20 lite maybe it's a China thing,19-3-2021,
115,Omar Ventura,elomarvr,,"So, you can have one of the most powerful cameras in the market (for example S21) and you can’t use it at 100%, idk if that is great",19-3-2021,
116,Noah,noahisaverysmartguy,,I know android is better I just like the eco System and good looking II,21-3-2021,
117,Clark,djkhaledwedabestmusic,,s21 is optimized,18-3-2021,
118,cigarattes,butadrianna,,@serlneedstopee sack,3-4-2021,
119,Lindo,lindopsy,,"me rec with my old android
1080p
.
me tec on tiktok with my old android
1 pixel",21-4-2021,
120,Football Edits HD,ftbl.editz.hd,,Nice,22-3-2021,
121,nic,nic_998,,"why is everyone fighting about whose better than who, they all have their pros and cons!",22-3-2021,
122,hi im @lilscrappys dad,xmediumscrappy,,also if u take a picture the iPhone can't render the Samsung power,22-3-2021,
123,...,croutonsareoverated,,Can confirm on the last claim.,22-3-2021,
124,Smithyboy__,smithyboy__,,my note 20 ultra 5g has a wicked camera,21-3-2021,
125,Sym,jakubbb.m,,Cant lie this video doesnt look too good,21-3-2021,
126,gobby,da_.baby_,,android cameras are better,21-3-2021,
127,Qwas,shushh_3,,Nah cap because my cousin showed me him recording a vid and it was bad,21-3-2021,
128,Adem Đulić275,brahify1,,"i have s7 and i have so good memories with it.
im getting s21 plus
and i will put my s7 in the frame
😔😔😔",21-3-2021,
129,rcv,wwwwwwwwwwww195,,The lag and bad quality in android cameras is caused by lack of light. Make sure there is not too much though.,21-3-2021,
130,your dad,hehehehahahahahahh,,i got 4k camera on android but on my other android not my tiktok android,21-3-2021,
131,1978_Mazda Rx-7 Type RB,1978_mazda.rx7,,Bro this comment section is so dry both phones are good i had a samsung now im with a IPhone and im so satisfied with both,21-3-2021,
132,R.F,_paperella_gay_,,I saw a comparison between iPhone 12 pro max and s21 ultra and the results were that iPhone is better for videos because of the stabilization and the,21-3-2021,
133,dean_bg_11,_d_a_d__,,this is the reason i record ig videos on camera and then upload it,21-3-2021,
134,Nanko Rusev,nankorusev,,2021 and Android still hasn’t fixed this. 😅,21-3-2021,
135,themexicanit,themexicanit,,"easy the same app nead to run in 10000 phones samsung, motorola etc. and in apple like 3 o 4 and is easy to make for 3 o 4 and not 10000 brands",21-3-2021,
136,jono,jonoolu_,,still android 😭,21-3-2021,
137,Aziz I,aziz0744,,@@davidd0744,21-3-2021,
138,Achilles Samson,achillessamson,,"And yeah, the phone that has bad camera is 160$ Below, and iphone is very Expensive that's why it has good camera quality",21-3-2021,
139,Someone,acesomeone,,@marlen._.28 see,20-3-2021,
140,Witherrd,drnwrldx,,Says that and has Mac but in a fan of both,19-3-2021,
141,fred,fred.ppr,,But why do u make the videos on tiktok and don't impkrt them?,19-3-2021,
142,Asus Rog Strix Rtx 2080,asus_rog_strix_rtx_2080,,8k...*cough...8k...,19-3-2021,
143,txmfpv,txmfpv,,its true im the screen recording,18-3-2021,
144,Hoovy,hoovythealien,,🧢,18-3-2021,
145,Almog sela,almogsela,,Ok Jerome,18-3-2021,
146,p,some_black_banana,,iPhone is not worth it,18-3-2021,
147,Eoghan Healy,eoghanhealy1,,same with snapchat,18-3-2021,
148,.,sparky._._,,ay man try cleaning the camera it will be better my cam used to be bad but i cleaned ir,18-3-2021,
149,????,cosmic_venom,,hello,18-3-2021,
150,مجيــد,.izg,,اخيراً واحد فاهم,23-3-2021,
151,jesper.grld,jesper.grld,,In my opinion it’s not about the cameras or anything. iPhones are easy to use while (for me) the android phones are always kinda edgy and hard to use,24-3-2021,
152,William,williamsalimm,,komenin ae smua jenis hp,19-4-2021,
153,BMW M3 CS,bmw_m6_grancoupe_,,Cool👍 but i phone is still better ✋,22-3-2021,
154,aedan,apexwarehouse,,I have a iPhone and agree,22-3-2021,
155,scar,sc4r_04,,i just like apple emojis,22-3-2021,
156,ori yakov,oriyakov,,@amitamizurx @adir150 המצלמה של ה21,18-3-2021,
157,BruhBoi,bruhboei,,"finally, someone gets it 😁",18-3-2021,
158,Golden Freddy,golden_freddy64,,iPhone is better tho because they have the best processor,19-3-2021,
159,L.Makhi,l.makhi,,Same on my iPhone 😂😂,19-3-2021,
160,Javier Ordoñez,javierordonezz,,does it apply to photos too? my photos don't look as good as iPhones...,21-3-2021,
161,Хейт оф ёрс,hate_of_yours,,Android camera is DANG GOOOD MAN *zooms into blurry picture*,19-3-2021,
162,damiangul,daemoski,,I need to try it,7-4-2022,
163,Benutzer,emfhg,,cool,14-6-2021,
164,ﾠ,calla_yolotroll,,You made this video on tiktok? Or do you make them in the camera app and export them to tiktok?,14-6-2021,
165,bisoysilagan,bisoysilagan,,and also almost android phone is focus on gaming,12-6-2021,
166,⠀ ⠀ ⠀ ⠀ ⠀ ⠀ ⠀ ⠀ ⠀ ⠀ ⠀ ⠀ ⠀ ⠀ ⠀,regaey_nere,,broo ikr,12-6-2021,
167,Big Daddy,uragvguy69,,iPhone 7 Camera is way better than Today’s Android Flagship,7-6-2021,
168,Simran,sims_miata,,Ayyyy that's what I keep saying 😂,6-6-2021,
169,⇝͜͡🏴‍☠️Psͥyͣcͫho✪͜͡,whysounlucky,,Is there anyway to make it better?,6-6-2021,
170,idk am bored,the.1.kage,,I have A21s,5-6-2021,
171,BrokenFang,brokenfang,,Says androids are bad m8 we have ocolus quest 2 and 1 that runs on android 😂,5-6-2021,
172,hi,therealharrry,,iPhone= better performance Samsung=better hardware,5-6-2021,
173,Issoudotexe,mathias.bat,,"Google did their part by introducing cameraAPI2 which now every brand must have on their phone, the fault is from the apps developpers 🤷🏻‍♂️",5-6-2021,
174,Lucia,0ayanokoujikiyotaka0,,Iphone & powerbank is a set.Can't be seperated.,1-6-2021,
175,Lucia,0ayanokoujikiyotaka0,,Well..I think that iphone's price are unreasonable for its battery lifespan.,1-6-2021,
176,Marlon,marlon.lkh,,Alman,29-5-2021,
177,SamTheWeeb,4samul,,The pro of iPhones are their user friendlyness. The con is that they use branding and hyping to hide their outdated and imported or low quality tech.,23-5-2021,
178,✔︎,hi11111111p,,_panamerik__panamerik__panamerik_,23-5-2021,
179,✔︎,hi11111111p,,_panamerik_,23-5-2021,
180,Hater,berude_toeveryone,,So why didn’t you do this in that video to proof ? ..,21-5-2021,
181,__mx____204,jodjgames,,so if an os will change the camers quality,21-5-2021,
182,GrimReaper ダーク,grim.reaper.392,,Imagine if Sony help make the cameras on phones.😳,20-5-2021,
183,Anindya Miskovic,anindijewidhie,,Many Android cameras are similar or even better than iPhone like Samsung and Huawei types.,19-5-2021,
184,/,lanoo0o,,I see your quality,18-5-2021,
185,Johnny Test,johnnytest3000,,the camera is not bad,11-5-2021,
186,Secret,secretmafiaboss,,I only see facts,11-5-2021,
187,Carnat Daniel Florin,carnatdanielflorin,,"Even tho android has better cameras iPhone takes better, or AT least same level photos because apple software makes them better",10-5-2021,
188,abi1292,im_human_me,,"i dont know wyh, but when i screenshot the ressolusion is like drop from 1080×2340 to 360p",8-5-2021,
189,asmir_069 .,asmir_069,,i have the s21 ultra😁,6-5-2021,
190,Pizza Italiano,italianpizza8,,why iPhone is so closed system,6-5-2021,
191,FÜLS...,fu1us,,wanna battle with my pixel?,4-5-2021,
192,Bryle Naranjo,brylenaranjo,,"The only problem iPhones had, battery life",4-5-2021,
193,niqqa ballz,stickimi,,me having an s21 5g 👁👄👁,3-5-2021,
194,Moldybot,moldybot,,Who buys a foken phone for the camera anyways? It doesn't matter if it looks good or bad (at least for tiktok),1-5-2021,
195,nsa TYmaty ytb,nsa_tymaty_ytb,,Zachraňte vegany žerte rostliny🌱🌿,30-4-2021,
196,Còn cái nịt :(,nope962,,google pixel: excuse me,28-4-2021,
197,sryisonoob,yclim902,,还有很多人没看到哦,27-4-2021,
198,notyour_prescious,hud0112,,not all android are flagship phone which is has premium camera sensor. but all iphone are flagship phone with top camera sensor & software.,27-4-2021,
199,Morty & Rick,mortyrick,,iphone always bad?,26-4-2021,
200,RubenVatle,rubenvatle,,I cant import footage from my gallery? Tiktok doesnt allow 8K footage! 😅😂 How do I downgrade a video?,25-4-2021,
201,ja__mes,babycheyms,,Sony Xperia wins this one 😏,23-4-2021,
202,user012372,user8395_,,daming palusot,23-4-2021,
203,theChosenOne.001,le.chosen.1,,so many steps 😂that’s why iphone is for everyone,22-4-2021,
204,Pinggan Retak,izz_hiba,,Iphone just can say that android bad camera on tiktok and ig but overall android is much better than 😏,22-4-2021,
205,Jasmine Tay,jasminethgee,,dropyour iphone then 😂,22-4-2021,
206,Farihin,faerihinz,,People taking selfie on android all of them become barbie,21-4-2021,
207,⌚,www.rolex.de,,Apple doesn't have the 🧠 to understand that 😅,21-4-2021,
208,zeek,hkimmmmmmm,,THEN HOW TO FIX IT,21-4-2021,
209,Akim📈,bromaadd,,An ppl compare their A02s and my S21 Ultra.,21-4-2021,
210,Rifky,rifkyaputra,,the problem is when you go live on Instagram or tiktok,21-4-2021,
211,hubert,hubert_073,,guy its not android but samsung. you cant compair android ans iphone😅,21-4-2021,
212,Kobeeee,bwippoo,,It’s because the app creator can’t optimize their apps for all android phones since there are tons of them. iOS is ez since only one company uses it.,21-4-2021,
213,Jimbo Jumbo,jimbojumbox,,Still dont own flagship android 😂,20-4-2021,
214,M,amerali45670,,I like graphics of iphone but nokia is still legend for batteries,20-4-2021,
215,Cobalt,ritzycobalt,,"my 250$ android can record in 4k, the cheapest iPhone that can record in 4k is the iPhone X which costs 700-1000$.",20-4-2021,
216,ELFORTNITENOOB,el_hamster_secreto_,,actually android has japanese camera and japanese inventes camera so they have a beter camera,20-4-2021,
217,NotExpoxie,notexpoxieml,,bro s21 cam are telescope wdym💀,20-4-2021,
218,NicShogun,djnicshogun,,For the best android camera it is Huawei but then you need APK pure app store.,20-4-2021,
219,Soba_cook,soba_cook,,Samsung galaxy 6A user here,20-4-2021,
220,white teapot,adindettam,,ya know why android dont usually records the real camera. is because there are 100+ android while there are only 29 iphone,20-4-2021,
221,︎,en.3030,,"Plus the new Iphone 12 Pro Max even have 4000 mAh and expensive, but my samsung A50 is cheaper and has fast charging and 5000 mAH",20-4-2021,
222,Ritx,myfartsmellsogood,,they won't believe you just show them how good they are,20-4-2021,
223,Brendon Jireh Reyes,brendon.style,,iphone are overrated.,20-4-2021,
224,GoblinSlayer ✌️👊,ellefanning937,,finally someone who points out how good android. 🥰,20-4-2021,
225,Your_Adolf,user3mro5cgcrq,,"Well, iPhone camera was originally produce by Samsung..",20-4-2021,
226,VJL,vjl19,,yes iphone better when it comes to spend more money than it's worth,20-4-2021,
227,MAXIMO8K,maximo8k,,you respect both phone I respect you,20-4-2021,
228,Gladtruth,gladtruth,,Well apps dev just rasis,20-4-2021,
229,wan.twothree,wutttwuttt,,Google pixel have a better camera,20-4-2021,
230,Avi,avi_katana,,ya better than iPhone,19-4-2021,
231,SaintRaffael,saintraff069,,"they said iPhone is better. but, i never see them saving the universe
-This meme made by Android",19-4-2021,
232,ArielLiew,no_named021,,akhirnya ada juga yang jelaskan,19-4-2021,
233,lee 🇰🇷,hoolaji,,"this is also another reason why a lot of influencers also uses apple products because they get to stream, use filters, record better within apps",19-4-2021,
234,MCDO,itsmeorly,,but hi baby 🥰🥰🥰,19-4-2021,
235,Hiiro,hiiro_chan0,,Why is ur iPhone is down payment 😏😏😏,19-4-2021,
236,🐲🏀,talakitoooooooook,,then its bad. 😂,19-4-2021,
237,n4me1ess.,n4meless04,,iphone users is mad now,19-4-2021,
238,MELODY,melody________________,,This account really help me choosing phone,19-4-2021,
239,FBI Surveillance Van,ayame_senpai,,"Don’t get me wrong, androids have really high specs but have bad app optimization.. and iphone have “meh” specs but good optimizations",18-4-2021,
240,playerdead,playeralive,,"this people dont know nothing or rather dont want to,
Sony make apple camera , and samsung make apple screen",18-4-2021,
241,tsuneta,quaphra,,idk man...,18-4-2021,
242,Shaz,shaz_art22,,why pay so much to do extra step..,18-4-2021,
243,God,pisspants1234shrek,,someone had to say it.,18-4-2021,
244,local quick scoper,shinobi_clax134,,I have an old samsung and old iphones lag a lot,18-4-2021,
245,xjpd18,xjpd18,,The.iphone dont uave a.ggglitchy camera even i record in the main app,18-4-2021,
246,ron,ronaldasxzcv,,iphones has the same model and dpi or api? so its easy for the devs. android phones have different Dpi/Api? its hard for developers sorry bad english,18-4-2021,
247,kyle,kyled_db,,At the end of the day it’s up to the user,18-4-2021,
248,Geoffrey Chong40,geoffreychong40,,But ur video blur,18-4-2021,
249,Meme,damnbrohaha,,Android fan be like,18-4-2021,
250,.,naktehais._,,yall people that hate android really should listen to this advice 😏,18-4-2021,
251,mir,_mir,,apple kids wont understand any of that lol 😏,18-4-2021,
252,syamil | ꦱꦾꦩꦶꦭ꧀,syamilkarim1,,i just say android is not bad and android not just samsung.,18-4-2021,
253,Raleigh Parane,raleighparane2,,ROMANS 1:16✝️FOR I IM NOT ASHAMED OF THE GOSPEL OF GOD FOR IT IS THE POWER OF GOD FOR SALVATION TO EVERYONE WHO BELIEVES.,18-4-2021,
254,uzziah karl,k_a_r_lllll,,bruh android can do 8k video and iphone can only only 4k🤦🏻,18-4-2021,
255,YamYam,kirijaz1,,another problem is ios have the same processors so it's easier to manage for apps because it's the same everytime but improve,18-4-2021,
256,Wotizhatnin,whatishappeningyuh,,"Ok but i can do 8k 30fps, any other phone cant comprehend kekw",18-4-2021,
257,selvaviru11,selvaviru11,,finally 🥺🥺,18-4-2021,
258,Bakayaro,bakayaro1080,,so it's basically developer fault right?,18-4-2021,
259,Zoko,deleteeeee3,,"Guy, you were sponsoring by samsung !!",18-4-2021,
260,subskrep,subskrep,,"android devices are good, but android itself mehh",18-4-2021,
261,Felixxx,felixeleazarr,,iphone need to improve its charging time and screen,18-4-2021,
262,ONIX,onixlpyt,,Samsung : * laughing in 8k *,18-4-2021,
263,SHHHHHHHHH,whatforburn,,*Pixels accepted challenge*,18-4-2021,
264,ranakusuma,tiktokersgahol,,Wheres the proof,18-4-2021,
265,Serizaw@Genji,serizawagenjiozawa,,It looks better on the iPhone because the developers have an easier time programming their app to be friendly with the iPhone because there are fewer,18-4-2021,
266,𒌐Slan𒌐,chicknsavor,,"It can zoom to 50x, like bro the user is gonna be a sniper",18-4-2021,
267,budakmilo,budakmilo17,,what is iphone?,18-4-2021,
268,Feels,demfeel,,"We got to admit this, the only problem with apple is the price point",18-4-2021,
269,Caspertheleopardgecko🌸,imbrokeandneedmoneybro,,mine is good,18-4-2021,
270,Hayden Hampton,black_burrito,,I prefer apple cause I’m more used to it,14-4-2021,
271,Det e mæ,ikkeniklas,,that’s what i’m trying to say when i say that android is worse than IOS. not the phones...,13-4-2021,
272,Tristan Davey,tristandavey98,,tik tok won't let me upload my 8k videos from my camera roll,13-4-2021,
273,blue_terracotta,blue_.terracotta,,on A10S to ngl,13-4-2021,
274,otto.ansted,otto.ansted,,Yes I have a good camera but can’t use it on any social media’s. Doesn’t seem worth it,13-4-2021,
275,hobo joe,datboihobojoe,,"Let's confuse apple flexers
*Plugs in earbuds*",13-4-2021,
276,Hi,elonmuskisthebestong,,@oizyskhlysyllphria this is true but I have apple,12-4-2021,
277,Thiruson,t.k.f.c,,Don’t get me wrong android specs are amazing as in hardware but then if you look at software apple is better (in my opinion),12-4-2021,
278,dead,fish_eeh,,omg the sound🥺🥺,12-4-2021,
279,Noah Lee,lgismydad,,It’s actually quite interesting. Apps screen record on android because os is formatted to hundreds of different models. iOS only used on apple phones,12-4-2021,
280,Tom HOLTHOUSE,tomholthouse4,,it’s also because social media apps make their app compatible for iPhone and because android realise so many phones a year compared to iPhone the have,11-4-2021,
281,Eoin,pizahut.com.au,,"Finally someone said that, this literally is the only reason why I buy apple, just cuz I use social media too much",7-4-2021,
282,Oskar Farbaniec,oskifar_,,that's true,7-4-2021,
283,LaBrooooskiii,labrooooskiii,,How German are u? Yes,7-4-2021,
284,Nick,bhum_,,I've been telling this to people for 5 years,7-4-2021,
285,ripkobe,david_raak,,Samsung s21 ultra has 8k idk for sure but I'm pretty sure it's the best camera,7-4-2021,
286,Yair,yair.__,,im already used to iphone and i like the emojis and messages and features better so im not switching,7-4-2021,
287,😏,eterkareem,,No man! 😃,7-4-2021,
288,Tom - Tech/Software Sales,techsalestom,,No point in good hardware if the software support sucks and is fragmented.,7-4-2021,
289,𝕽𝖆𝖙𝖈𝖍𝖊𝖙,ratchetandlilly,,It’s 8k on the s21 ultra,7-4-2021,
290,Joe,joe4real,,"I’m satisfied with my iPhone, at the end of the day that’s what matters",7-4-2021,
291,cr3ativem1nd,m1ndonyt,,facts,6-4-2021,
292,Wow.,sciod,,Idk man I have an XR I just switched from android and it is way better than my old Samsung s10 plus,6-4-2021,
293,AHHHHHH!!!!!!,ahhhhhh.help.me,,this is not 🧢,6-4-2021,
294,Finnsj2008,finnsj08,,and as well! people say ANDROID cameras r bad but android is a operating system so it's down to the hardware,6-4-2021,
295,Hduedhfhrgen3ksujd,relaxand..chill,,Where did you now I'm german,24-3-2021,
296,Staboii,staboiii,,facts!,24-3-2021,
297,. _.,verko28,,I think he is german,24-3-2021,
298,.,0.1.e._,,iPhone Gang,24-3-2021,
299,That weird kid,dieloste,,i had samsung and switch to iphone and the quality is really bad from samsung 💀,24-3-2021,
300,jose,fonified,,bruh,23-3-2021,
301,Call me Klea (im sexy),kleaissocool,,Its because apple pays apps to make iphones run them better,23-3-2021,
302,Patrick,patrick_1409_,,This is funny bcs android have better cameras than iphone😂,23-3-2021,
303,poopoohaha1_,poopoohaha1_,,mic,23-3-2021,
304,ˡⁱᵐⁱᵗᵉᵈ ᵉᵈⁱᵗⁱᵒⁿ,smokedhearts,,@.brbcallingtay HAHA,23-3-2021,
305,InsaneLightspeed,insanelightspeed,,"it's because all androids have different specs, since there are so many android phones, tik tok can't have good integration with all of them.",23-3-2021,
306,Alejandro Lehman,alexlsl,,let me see them emojis,23-3-2021,
307,alex!ss,alexuss17,,Hello! Do you own this content? If so ESPN would like permission to use it on all platforms.,23-3-2021,
308,user5944887901542,themthology.kid_1,,I am a iPhone user and I think iPhones have better cameras in some circumstances and in other circumstances android cameras are better,23-3-2021,
309,kaiyan,kaiyanx,,bro would go barefoot across 10 miles of broken glass to get a few people to belive android is better,23-3-2021,
310,ᵐᵘᵘᵐ ᵃᵐ ⁱ ᵃᵈᵒᵖᵗᵉᵈ?? ʸᵉᵃʰ...ᵒʰ,sunkizes,,yes,23-3-2021,
311,glizzy,glizzyobama,,I switched from the xr to a oneplus 8t and it's soooo much better,23-3-2021,
312,🏴,esaid14,,People never knew this?,22-3-2021,
313,Rory Ashcroft,roryashcroft2,,It’s because there hundreds of androids released a year and 3 iPhones released a year and so they can customize apps for Iphones but not for androids,22-3-2021,
314,Nathan perde,nathaperde,,I got the s21,22-3-2021,
315,user6347697725787,jklo82,,的You are the best in the world,22-3-2021,
316,Jeremiah Paukan,jerepaukan,,why does die fast bc battery health android dont have that😂,22-3-2021,
317,JRob 🏀⚡️,jeremiahrobinsonearl,,nah bro this looks mediocre. with my iphone 7 in tiktok it looks 10x better not flexing i’m just saying,22-3-2021,
318,E.K,no_i_am_hc,,But that makes apples better because they can take advantage of their better camera,22-3-2021,
319,;-;,kissthehomiegn07,,samsung just had bad app integration im on and s10,22-3-2021,
320,Marco cortez,cxrtes.z,,ohh nice,22-3-2021,
321,elliot😱😱😱😱,elliotcarriv,,i have a s20 lmao,22-3-2021,
322,Jay 👹,jay120401,,I like androids but I just prefer apple,22-3-2021,
323,MK,mysticnira,,iphones are so overhyped,22-3-2021,
324,caleb,calebfromearth,,iPhone user here to say mhm,22-3-2021,
325,certified snowflake,loki_fnf_supremacy,,I mean it's really only the budget and midrange phones that make bad videos,22-3-2021,
326,.,nesitel,,on Android u can get free Minecraft,22-3-2021,
327,Mr.Potato,p0tat0br0,,I don’t actually see people talk about their phones nowadays for some reason,22-3-2021,
328,Adam Durbin,944culture,,I use android and just import my vids and my vids r great,22-3-2021,
329,samreen <3,sxmreen,,"iPhone’s layout and animation is good, Android’s camera is good",22-3-2021,
330,HootyO’s,hoothub_,,Can you say “I’m going to break my monitor I swear!”,21-3-2021,
331,Vanessa 🤍,v4n3554.xx,,@parishiltonslefttittyy ohhh so that’s how we should do it,21-3-2021,
332,Andru,_andru1993_,,"s21 Ultra user here , the camera is brilliant",21-3-2021,
333,LOGGED OUT,logged_out46,,I like he way iPhone works but I still KNOW android is better-,21-3-2021,
334,lee brady,toyotatwincam16v,,👹SAY 😥 YOU 😩 ARE 😍 MY 😡 BAKA,21-3-2021,
335,Kevin Breen,kevkarate,,IPhone cult people can't think outside the box. It's a funny example of brainwashing,21-3-2021,
336,Tony Thornton,txnythxrntxn,,i have s21,21-3-2021,
337,Qwas,shushh_3,,Yo what’s the best phone that has 120hz refresh rate,21-3-2021,
338,Helicopter,among_h,,Ur Phone is focusIng to Microphone 😂,21-3-2021,
339,Simon,moosigt,,"Filmed with android , as u can see 😂",21-3-2021,
340,O,crocodiier,,Hey @eggs7565 I’m coming for you lol,21-3-2021,
341,Jon Mreen,jon.mreen,,"Whatever the reason, your experience is 📉 on Android apps and o",21-3-2021,
342,McZombieDelDia,mczombiedeldia,,Iphoooooooooooooneeeeeee 🤳🤳🤳🤳,21-3-2021,
343,Лука,shinjwi,,i have 8k camera on androind,20-3-2021,
344,Frosty the pc problem solver,frostyspcs,,True!!! That's how I make my videos!,19-3-2021,
345,Maximus Petzold,maximuspetzold,,"yeah bro, it's software. iPhones hardware doesn't make the phone great, ios does. iPhones are superior to Android phones because of the optimised ios",19-3-2021,
346,Fares ALABED,kamakeh,,my phone is s21 Ultra and it's impressive,19-3-2021,
347,-MK,kingsofk,,thank you for making that point,19-3-2021,
348,vandikenlgamer,yvd000,,i mean samsung has phones with a 108mp cam and iPhones have a 12mp one but there is more done with software than samsung does,19-3-2021,
349,🇨🇭I Talk Cars🇨🇭,carhub02021,,Lol one guy said it and everyone says it,19-3-2021,
350,MM.BN,musuhmasyarakatbrunei,,8K samsung,19-3-2021,
351,Avery,stanloonasilly,,"iPhone users also need to understand that android is used by MANY different companies and thats why its ""hard to use"" bc every company has a different",19-3-2021,
352,Christian Blandford,christianblandford,,Man man man man,18-3-2021,
353,Demon,demoncut78,,just import them...,18-3-2021,
354,kurdistan,karzann_,,Bed,18-3-2021,
355,| ♡︎ |,namjoonsdriverslicenses,,👏👏👏👏,18-3-2021,
356,Snail,opnal,,ratio,18-4-2021,
357,Bambang Gurindang,gurindangbambang,,*laughs in Huawei Nova 5t *,18-4-2021,
358,Cemre,cxmrez7z,,Der Moment wenn man ein S21 Ultra hat LOL,19-3-2021,
359,Felix Rapp,felixrapp0,,Der Bruder schaut eine folge Haus des Geldes auf englisch und denkt er wäre Engländer,23-3-2021,
360,call me aston just for fun,_l1v1ngl3g3nd_,,musste zu Samsung wechseln weil mein IPhone kaputt gegangen ist und ist mega kagge. es geht mit 21% innerhalb von 5 Minuten aus und ist so langsam,31-5-2021,
361,______sick_wie_leukämie______,sickwieleukaemie0,,oneplus 9 pro 900 euro und besser als das iPhone 12 pro,24-3-2021,
362,Dicle,dicle.yil,,lüg nicht wenn ich mit zöhre die möhres oder börfins handy ein selfie mache sieht’s aus wie youcam perfekt weichzeichner @handee46,27-3-2021,
363,jakmi,jakmi05,,mach endlich Videos auf deutsch,24-5-2021,
364,enkei,wilgneroliveira3,,"thats why I do use, Instagram gb and alternaives versions",20-3-2021,
365,RayquazzaRing,rayquazzaring02,,Iphones are so bad :D,18-3-2021,
366,Michael,_michaelarusi,,bro why are you talking to yourself,18-3-2021,
367,𝕰𝖓𝖊𝖘,40enes_,,i‘ve got a samsung and an iphone the samsungs camera is worse bad if you use the camera it‘s like more red/blue,21-3-2021,
368,FCDL02🔵,fcdl02,,U taking a vid w an android?,23-3-2021,
369,finn ft,finn_ft,,Why does it still look bad then,3-6-2021,
370,Marvin,portionspossible,,so tiktok is androidphobic 😐,10-5-2021,
371,_SKYL1N3_,skyl1n3_gaming,,why don't you see iphone users with a pro mode for their cameras?😏 It's because Apple take their customers for stupids🤣🤣🤣🤣,1-5-2021,
372,Text.to.speeeech,my..highlight....films,,Samsung is still trash,25-4-2021,
373,geloluis94,luisongsiaco94,,IPHONE FANA CRYIN RN 😂😂😂,23-4-2021,
374,Apple iPhone 11 Pro,11prokh,,Why iphone camera recording from tiktok app so good 😏,19-4-2021,
375,e,discovernewsongs,,bet they only buy the keypad andrioda,18-4-2021,
376,Akaaaaak,akaaaaak,,why iphone users are racist to the people who can't afford iphone? lol,18-4-2021,
377,Commenting,commenting49,,android:show me your zoom picture bro?,18-4-2021,
378,Faze ducc,b3ast1ck5,,nah my cam is still bad lol,18-4-2021,
379,skeleshot,skeleshot,,Android live feed is so bad honestly,14-4-2021,
380,HENNEYMODEPAPI,henneymodepapi,,Iphone people are finally realizing that they are paying 1000$ every year just for the same phone. Android #1,7-4-2021,
381,Welcome To Coney Island,notlucas007,,does snapchat do this too?,7-4-2021,
382,the ayman,ayman_no_cap,,Hey man man man,5-4-2021,
383,Lol,royalityrl,,I smell German,23-3-2021,
384,Edward O’Brien,eddieobrien90,,Still bad,22-3-2021,
385,The_Random_Person,a_random_human_being,,androids are better than iPhone but some people still think thag androids are trash,22-3-2021,
386,kevin joshua,kibenjoswa,,Rich spoiled kid,24-4-2021,
387,Agi Sunday5,agisunday5,,Luckily for me thé recommendation I saw here about ZIBERLOCK ON INSTAGRAM turned out to really work,8-3-2022,
388,Faith Sula428,faithsula428,,"It's hard. I've literally tried every step without any luck. Until I've heard about ""ZIBERLOCK ON INSTAGRAM over the GRAM who finally did it for me",7-3-2022,
389,Dorothy AJ,dorothyaj6,,Luckily for me thé recommendation I saw here about ZIBERLOCK ON INSTAGRAM turned out to really work,7-3-2022,
390,Greatness Peter49,greatnesspeter49,,"GREAT JOB DONE BY ZIBERLOCK ON INSTAGRAM, MY ACCOUNT HAS BEEN SUCCESSFULLY RECOVERED HE'S A PRO WHEN IT COMES TO RECOVERY",7-3-2022,
391,Churchman Christian,churchmanchristia,,ZIBERLOCK ON INSTAGRAM 🔗 your the best! My Snapchat account is working fine💯,7-3-2022,
392,Simeon Jonathan377,simeonjonathan377,,"Only ZIBERLOCK ON INSTAGRAM can do it in 25 Minutes, retrieved mine and I'm happy to recommend",7-3-2022,
393,Churchman Christian,churchmanchristia,,ZIBERLOCK ON INSTAGRAM would fixed your account without stress...I recommend him..he's the best tech guy I know.....,7-3-2022,
394,Stone Clear,stoneclear6,,message ZIBERLOCK ON INSTAGRAM to help you recover your account he did mine and it was successful,7-3-2022,
395,Stone Clear,stoneclear6,,ZIBERLOCK ON INSTAGRAM would fixed your account without stress...I recommend him..he's the best tech guy I know.....,7-3-2022,
396,Agi Sunday5,agisunday5,,"ZIBERLOCK ON INSTAGRAM recovered my disabled account
Successfully ❤️…..",8-3-2022,
397,Dorothy AJ,dorothyaj6,,"ZIBERLOCK ON INSTAGRAM recovered my disabled account
Successfully ❤️…..",7-3-2022,
398,Javier,iamjavier.l,,"Bruh imagine copying my recent video🤡,’.",23-3-2021,
399,M,meeow.24,,now i am loving my android🥰😂,25-4-2021,
400,🧛🏻,zachmry,,Android just looks ugly plain and simple.,23-3-2021,
401,R99,orangejuicepulp23,,man,7-4-2021,
402,Poo,stupidfartpoopeeenis,,Balls,7-4-2021,
403,pnx FLAMEman,pnx_flameman,,shut the ٪ up,6-4-2021,
404,Csgo nolifer,neodolenski,,Dumb americans think that only apple and samsung exists,21-3-2021,
405,FBI_Senpai,fbi_dexter,,iPhone people are Just stupid and don't get this,21-4-2021,
406,Peter McCormack,petermcc_,,Could everyone please shut up iPhone 👑 android 👑 people who do phone wars 💩🤡 just use what u want it’s just a phone,6-4-2021,
407,🎃,meetbytheriver,,the quality still looks bad compared to an iphone,18-3-2021,
408,Jesper,randomuseer837,,my phones camera is better than 4k it's 5k pixels by 3k pixels and the Price is 220€ what about that stupid iPhone users that buy a phone for 1k,21-3-2021,
409,Eniten ärsyttää kaikki,dkozofnxx,,but who cares about the quality of some tiktoks,21-3-2021,
410,Mitt andra konto blev bannat,blevbannadlolrip,,Please stop saying “man” I’m getting so annoyed,19-3-2021,
411,.,bfiealejbrkw,,"No, it’s still bad",18-3-2021,
412,Tobias,tobiasvogelzang,,Tech nerd haha,23-3-2021,
413,Tripp <3,trippshiver,,Who even cares anymore 🤡,22-3-2021,
414,Name,___7____7____7___,,"Me : owns an android
IPhone user : ""poor sh!tter, android sucks""
Me : ""I know""",12-5-2021,
415,😎SAVAGE💥,marcrussellesteban,,my dad can't afford iPhone so I'm jealous in you guys🥺,22-4-2021,
416,Tik Toker,userjxn1qi87sc,,iphone overrated af,18-4-2021,
417,grim,bzgrim256,,lmao I can literally take 4k photos but it looks so bad on snapchat,7-4-2021,
418,Clint from IT,mnames_jeff,,iphone sucks,7-4-2021,
419,Pilka,realpilka,,"haha android is muchh better. no just joking. im rocking with android, i love it. And guys stop making phone wars. thats childish bruh.",5-4-2021,
420,elias.,user538294610373,,"Mfs in my school say that iphone is good and many ppl use them, but why tf do 74% of the world uses androids? Answer that iPhone users 🥶😈",6-4-2021,
421,♡,r0seghoul,,from someone who has both samsung and iPhone. iPhone >>> samsung,18-3-2021,
422,Yoimiya,yoimiy1a,,Please don’t say „your phone is crap“ if you HAVE NEVER USED IT! STOP ASKING STUPID QUESTIONS OR GIVING STUPID ANSWERS!,31-5-2021,
423,autoprofit,autoprofitsquad,,go buy Huawei crappy what?! 😂,18-4-2021,
424,skellyyyy79,skelly32,,I litterly have a galaxy phone and I can say even in the normal camera app they look like crap,22-3-2021,
425,— era ! 🤍⚡︎ ☭ ⑅ ',yvvesainten,,why do y’all compare phones like that?💀 different phones work for different people😭,23-3-2021,
426,I wannabe famous,lwannabefam0us,,Guys only for saying......Android smartphones for like 300 bucks have a much netter camera than iphones,12-4-2021,
427,Anthony,hamburger_andfries,,We prefer ours and u prefer yours 😐,6-4-2021,
428,😶‍🌫️,harshilmahida,,u can't import tho its says u can't import higher than 1080l,7-4-2021,
429,Family Rathod,thatrandomperson10123,,Make an import video 😏,7-4-2021,
430,lizardgod17,lizardgod17,,"THATSSSS WHYYYYYY MY VIDEOS LOOK LIKE SHITT, FINALLY I FINGURED IT OUT YESSSSSSS!!!😆",22-3-2021,
431,35-HyperRex,35hyperrex35,,"Hey man, why is your english so german?",18-3-2021,
432,Arden,arden0144,,Maybe if apps stopped using the ancient camera api and updated to camera2 or cameraX there wouldn't be a problem.,6-4-2021,
433,GoingMakingMadeYOUSAD,vhaogke,,"All apps are optimized for apple, everytime a samsung gets in the market theres always different systems and stuff so it hard to optimize",24-3-2021,
434,theSinghrr,thesinghrr,,"have hope, snapchat and instagram are having better integration on the s21 so they actually record with the camera",22-3-2021,
435,ok,playboi.carton,,sum girl who has a iphone x was trash talking abt my s20+ lmao,18-3-2021,
436,ok,qas_em,,S21 Ultra's camera is godly.,23-3-2021,
437,Steve Pick,gracefullydrunk,,"Doesn’t matter how good of a camera you have if you can’t use it. iPhone cameras are not worse, and you get much better software integration.",21-3-2021,
438,SamThePlane,samtheprogramag,,Well you see andriod isn’t a phone it’s a operating system,21-3-2021,
439,⚕️𝓐𝓷𝓽𝓱𝓸𝓷𝔂 ⚕️,m.i.l.k.y.y.y.y,,Idc ANYWAY IM THE REAL DABABY 🤩 GIVE ME YOUR CARD DETAILS 💳 TO SAVE ME FROM THIS SYRIAN PRISON 😔 IM NOT A WAR CRIMINAL 😡,21-3-2021,
440,ForeverRain,rain_was_not_here,,me having an A21 Uktra 👁👄👁,21-3-2021,
441,Now now,pilesinmybum,,You’d think after all these years that there would be a camera API in android,21-3-2021,
442,Panayot Cankov,panayotcankov,,"Well, in rather end of the day the Android user experience is bad. No matter how you distribute the blame Android users are screwed.",20-3-2021,
443,Giri Sankar,typicalgiri,,"well to people who says still iPhones is best, an ANDROID mobile company, SONY GIVES THE DAMM SENSOR FOR THE CAM OF IPHONE 😂",19-3-2021,
444,😃,hirvonenjani,,Shut up no one cares,19-3-2021,
445,Madison Montgomery’s real bf,w4ndaahs,,Show me you are german without showing me you are German,19-3-2021,
446,Azazel azera,carter.little.brother,,"and they say they're pixelated and that's due to the compression, the cameras on Android has better details and res so social media apps compress them",19-3-2021,
447,Laurens van Dreven,o.o.0_0.o.o,,"Fun fact, Sony (Android brand) makes cameras for IPhone and sensors so technically you call your own camera bad lol",18-3-2021,
448,Shush ur mouth,os0ki..s,,Who gives a shit i have had both and honestly i dont give a shit,18-3-2021,
449,🤟,alsokejeke,,Androids are trash,18-3-2021,
450,Loueye,_loueye_,,I bat you a 10000000000000000$ tat he is German 😂😂,18-3-2021,
451,.,fsf5876,,ive been saying this for ages jesus thank you for explaning it to these braindead users,18-3-2021,
452,あなたのお母さん,pjmurphyy,,@andrewmcevoy69 every android user says this shit 😂😂,7-4-2021,
453,Justdancing,thedancer.robin,,For the millionth time its just a goddamn phone if I would choose a phone thats worse than the other than thats on me...,12-6-2021,
454,Slaskesen,slaskesen,,Doesn't make sense to have a fantastic camera when you can't fcking use it...,1-6-2021,
455,Erik🙌,egtv15,,i Have 108 MP camera hows that bad lmaooooo,23-5-2021,
456,entenbraten_007,entenbraten_007,,Apple is shit,1-5-2021,
457,🤷‍♂️,anashaziqqq,,"still, when i turn the camera on an android im white as hell",27-4-2021,
458,KahviMorko,kahvimorko,,blame snapchat instagram and tiktok for that,24-4-2021,
459,ObamaLover420,obamalover6942069,,"Iphones are good, if you really have no idea of technology, tho selling a stand for 1000€ and some pc rolls for 700€ is just... *vomits*",21-4-2021,
460,los dol,parahmexx,,it convert bro. not a real storage will convert . ex: real 1mb u post it from android to instagram will be 0.99,20-4-2021,
461,nativeflower,nativefleur,,What a good looking boy! 🥰,19-4-2021,
462,Lookze,lookqi,,Importing sucks on this android,18-4-2021,
463,Dave(Tiktok Diet & Senaman),saya.dave,,Anyone got any experience Using tiktok on S21? Will produce good video result? @tech_circuit,18-4-2021,
464,J,mangomanlover,,"although you're right, samsungs arent as bad as they seem on tiktok, your reasoning wasnt right, tiktok compresses android footage because ios is more",13-4-2021,
465,尺口卄卂𠘨,rohansq,,@amirsuniverse Now can you please stop bullying me,11-4-2021,
466,Funk Junky,funkjunky,,pretty good?? shut up even the s20 os lethal,7-4-2021,
467,Benedict Stanley,benedictstanley,,And that’s in poor software optimization 😅,7-4-2021,
468,- cgzTVT -,cgztvt,,Basically android is not optimized for tik tok,6-4-2021,
469,RETIRED ACC @yourbreaths,c4m3r,,when you record on tiktok you get 1 fps no joke,5-4-2021,
470,Legion_ZM,legionkys,,why do people only care about the cam wtf,22-3-2021,
471,certified snowflake,loki_fnf_supremacy,,your phone mic may be better than the razer sirin mic.,22-3-2021,
472,Pigeon_army_owner_eats_kids,pigeon_army_owner_cheese,,✍import ✍videos✍to✍tiktok/insta✍ got it,22-3-2021,
473,Food scientist 🤗 Food on Mars,food_on_mars_dietitian,,can you connect external mic on tiktok? my oneplus doesn't allow it 😔,21-3-2021,
474,Lucy Amelia,luciifae,,People in this comment section thinking developers need to make their apps for EVERY Android phone or there 🤡. Please look up APIs,21-3-2021,
475,Luchi D,luchid86,,"Regardless, Android is a shitty OS with shitty apps. It’s the platform developers don’t give a f about",20-3-2021,
476,Do I hate you?,your.fav.haterr,,Nah they’re shit,20-3-2021,
477,British Geek Charles,britishgeekguy,,"Apple takes ideas like Wireless Charging and say 'Hey look what we invented, this definitely was not released 7 years ago!' and people believe them",20-3-2021,
478,Christ Cordero,christcordero,,@ayleennavarro0,18-3-2021,
479,Phil,phil.wxb,,The S21 Ultra is sick. Thats the reason why im using it👌🏻,18-3-2021,
480,Shaheer888,__.shaheer,,🥰,18-3-2021,
481,Prod. 94,_prod.94,,der German boi,21-3-2021,
482,Douglas Rogers,purpleairplane,,"another reason why is compression, but that affects iphone and android equally.",18-3-2021,
483,mosh,mushierroom,,6969th like. noice,18-3-2021,
484,X921FGC,x921fgc,,So why does this video looks like shit,20-3-2021,
485,spy108 ツ,spy108shaban,,yours is blurry,18-3-2021,
486,char.stein,char.stein,,@fynneustankersley,22-3-2021,
487,char.stein,char.stein,,@nate.riegler,22-3-2021,
488,Empire gaming,empire_gaming2,,@megabombers,22-3-2021,
489,Joseph Joshua,the.symbiote.spiderman,,"I noticed this. I record through tiktok, it's shitty.. but if i record through the camera app itself it's clear and bright",19-3-2021,
490,Sean O Moalreana,thebigceltic,,android is just better in every single way except for the cult following,18-3-2021,
491,:),boltzwastaken,,Şÿïæ lī5tlë hūmæǹş,21-3-2021,
492,🍫🥛,suleiman_ow,,Hey man am gonna break my monitor I swur,18-3-2021,
493,User987,yannisdim6,,Iphones sucks,18-3-2021,
494,"MTF Alpha-1 (""Red Right Hand"")",mtf_alpha_1_,,Flexing with a Samsung Galaxy S21 Ultra 5G 😏,18-3-2021,
495,Speech,proudesttt,,Recording by android..,18-3-2021,
496,lucabuick,lucabuick,,Definitely filmed on an android,18-3-2021,
497,ᴄᴀɪɴ ᴍᴀᴛᴛʜᴇᴡs,cain.74,,Then why didn’t you import the video tiktok?,18-3-2021,
498,Luca_nicx,luca_nicx,,Let me guess you are german,18-3-2021,
499,alecs,.xotw,,"in my opinion iphones have low battery durability, u buy them for the flex, not the quality, but the cameras are ok",18-3-2021,
500,@,ceo_of_a_human,,6Anime Addon bs.to vivo.sx bypass chrome extension on phone chrome.google.com/webstore/detail/animeaddonvivoburningse/dlmhikiapdlehjajgcidhofdopfkckik,18-3-2021,
501,yakuro,gheni_00,,haha s21=2100$😂😂,18-3-2021,
502,⠀ ⠀ ⠀ ⠀ ⠀ ⠀,.drxpz25,,@glizzy_bread,18-3-2021,
503,cool person,dax555666,,aka different encode,18-3-2021,
504,🤍,aleks00_,,"Its same for both phones, i mean android and ios. And both are good blackberry is the best one 😏",18-3-2021,
505,Dimitri,dimaaaaaah,,i have youre mic too😅😅,18-3-2021,
506,Berat,mroshi_,,"you guys can hate as much as you want on Apple, y’all just mad and regret that you bought an android, iPhone is the most selling phone in the world rn",18-3-2021,
507,タイラー,tyzka.exe,,tik tok has limit quality upload. 🤡 i love my N10 Plus with 4K 60fps 💙🔥,18-3-2021,
508,salih,sallkycc,,Android videos are still 🗑️,18-3-2021,
509,Kristaps,itz_kikaps,,if you filmed that on android then i see your lags,18-3-2021,
510,Mul Vak,user9836804062138,,fake voice nancy,18-3-2021,
511,obito,obito.uch,,Why is your english so bad?!,18-3-2021,
512,Humongous wiener,fazecraigthedevil,,Yeah 720p,18-3-2021,
513,Hamzah Gad,hamzahgad,,I don’t care about the video I’m listening to the song,18-3-2021,
514,user9274133873111,error404brainnotfound,,my android cost me 300$ not 58000$ that's why,18-3-2021,
515,●👅●,.lostxjuli,,hey man ur english is bad,19-3-2021,
516,Billy,im.bob.l0l,,It’s literally still trash 😂,18-3-2021,
517,isak,brainerrors,,This is bad wuality,18-3-2021,
518,Astra🚀,qxy_aerospace,,Change my minds IPhone security is way better than Samsung’s cámara is way better than iPhone,18-3-2021,
519,Dude,thatoneguy826363718,,Dude android cameras are SO bad,18-3-2021,
520,user749262957,user749262957,,notice how he has a cap on when he is insulting samsung,18-3-2021,
521,knee cap,ih8brandonclarke,,"New android phones get released daily 1,000 launched in 2020 it’s harder for developers to stay with android then iOS",18-3-2021,
522,Ry,ryderra,,All i heard is bad screen,18-3-2021,
523,Filip Gračan,gracan19,,s21 ultra has best camera on market for now,18-3-2021,
524,brrry4n,brrry4n,,"I just like the iPhone, no real reason, but imagine still having ""phone wars""",18-3-2021,
525,Pearce Campbell,pearcecampbell,,Android is literally better in every single way including cameras,18-3-2021,
526,Fqrkan,ignfqrkan,,"1. iPhone is overrated
2. iPhone is overpriced
3. Samsung is more durable than iPhone and it's cheaper",18-3-2021,
527,Davis Rogers,davis_rogers,,@sm_jake,7-4-2021,
528,armanihammer,armanihammer,,@lilyyeeeeee,7-4-2021,
529,Xp Xeras qX,xeras_,,Apple is better built internally but android has better parts and better softwareb,18-3-2021,
530,Carlos💯,carlos_m321,,@ronald_hndz,6-4-2021,
531,unaibarshim,unaibarshim,,@marti_bellmunt,6-4-2021,
532,Dereck,dereckgfm,,@whynotjxx,7-4-2021,
533,R3moxy,remoxy.071,,know what I can get for the next few weeks or if I should take it for the next two days and then I'll have a better day to get to you for the next two,18-3-2021,
534,🍳,egg_on_a_skillet,,🍳,23-3-2021,
535,Elyte,sp.elyte,,💯💪,23-3-2021,
536,Eduardo Lagos,eduardolagos_,,🐓,23-3-2021,
537,Adrian,adrian_is_cool69,,Android moment,18-3-2021,
538,🌭Mouse 🐁turd,fordf1_fifty,,tell me it's long without telling me its long,18-3-2021,
539,Nico,.nico1oo6,,@pianodudee,22-3-2021,
540,AlbarOrtiz,albarortiz,,And you recording with a potato,18-3-2021,
541,QUANDALE,floppachad0,,"ik when i take photos i think to myself: ""why my camera is so good here but not in tik tok?""",18-3-2021,
542,♡♡,rikilovesbuyingguns,,if i import it says videos above 1080mo nota allowed,18-3-2021,
543,Liam,liamkbm,,iPhone better,18-3-2021,
544,r.treamyy,rise_treamyy,,@haku_fine_asf_fan_page @dreaxyy_yt,23-3-2021,
545,Graeson Main,sonicgrae,,I’m probably gonna switch back to Samsung,18-3-2021,
546,Dereck,.8snot,,"I like your cap I just went to hard rock last week, my first time and it was awesome",18-3-2021,
