,Comment Number (ID),Nickname,User @,Comment Text,Time,Likes
1,kebap şiş,kebab_skewer,,„Not this time“ i think samsung stoles more often from apple😅,4-5-2021,
2,Irfan-sama 🗿🤏👓,mr_supreme12,,"Who need AirTags or SmartTags when we have MOM...
Idk what spell she use... Anything that I can't find...she can found it...😂😂😂",4-5-2021,
3,JULIAN,julian.0126,,✨Deutscher Akzent✨😂😂,4-5-2021,
4,igetairatcamelback,igetairatcamelback,,its funny how people say they steal each other ideas when they help each other grow,4-5-2021,
5,TRK,therealkoffel,,alter dieser Hardcore deutsche Akzent uff,4-5-2021,
6,Sinsuss,sinsuss,,fr like Samsung users are OBSESSED with apple,4-5-2021,
7,Tech Circuit/Kevin Hirschberg · Ersteller,tech_circuit,,My source is PhoneArena,3-5-2021,
8,Emilee,emi__le,,Hey your English is great but when the apple person says stole it should be : no we didn't steel them from Samsung (or) so no we didn't steel them,4-5-2021,
9,✔,danstaapelikoniel,,apple is stealing higher refresh rate from android phones.,3-5-2021,
10,Some1 🤠,spicypiscesnyc0,,AirTags is waaay cheaper than the SmartTag,4-5-2021,
11,F1lthy,benji_goof,,Nach did kommt net die past Form vom verb maaannnn,4-5-2021,
12,ahmad,ahmad._ys,,My guess is that this dude is German 🤔,3-5-2021,
13,SamuelGamingYT,samuelgaming420,,"I have a samsung a40, should I get an iPhone xs, or a samsung a72?",4-5-2021,
14,Raybanz UK,dr.sister_fister,,are we gonna ignore that Tile has been around since 2013!,4-5-2021,
15,dat._.memer,dat._.memer,,You should do one called why apple skipped the iPhone 9,4-5-2021,
16,Mujahid,v0wg,,Bro ur the karen for apple 😂,4-5-2021,
17,Master Yoda,masteryoda.896,,Tile stellt sowas seit 2013 her😅,3-5-2021,
18,Shaun Harn,shaunharn1998,,"Why does it seem like Samsung is more popular than the iPhone in Europe like Germany, Denmark, UK etc not just because it’s cheaper",4-5-2021,
19,hallo,irgendein.random.user,,"und ja, wie haben es verstanden er ist deutsch!",5-5-2021,
20,Kingsley,king_kong_long_shlong,,Air tags were rumored 2 years ago,4-5-2021,
21,Josh,turbosphinx,,they also already existed way before either released them,3-5-2021,
22,Ledion.Berisha,leorunuf12,,dosent matter who stole who what they know is that another company already had this b4 them,3-5-2021,
23,Potato minecraft master 69420,mmzyx,,who made the product better is what matters,4-5-2021,
24,Human,hotdog_good,,Pov: TikTok is broken😂,3-5-2021,
25,not.yours,notmine.e,,"Yes, you can print 2019 instead of 2021",4-5-2021,
26,Cremser,noobyplaysxd,,Tile?,4-5-2021,
27,user1633794502927,user1633794502927,,Hello how are you,3-5-2021,
28,69,69...._....69,,69.,4-5-2021,
29,_,hsnzx1,,Bro if you your mad you have a Samsung just say that,4-5-2021,
30,grau opppppppp,poffpuff10,,yes the legend uploaded,3-5-2021,
31,The Brown RAT,thebrownrat,,never saw a single airtags,4-5-2021,
32,Rateesh Bhagwanani,thebeetbers,,First!,3-5-2021,
33,Balls,trakten00,,Samsung copy iphone,4-5-2021,
34,😏😏😏,matyi_tv,,but why didnt they release it then bruh,4-5-2021,
35,Sean Lewis Mendoza,lonewolfyt_,,dosent excuse Mmmm purple,4-5-2021,
36,Hi,ryan87162_vr,,Fun fact founder of Samsung spoke to Steve jobs and learned about the iPhone and put out yheee own version of it,4-5-2021,
37,Fahim,fahim_a350,,In the Uk Vodafone had these tags years ago but there nor Apple or Samsung so no one wants them,4-5-2021,
38,ㅤ,younis_takis,,source:Trust me bro,4-5-2021,
39,A Zee,azee298,,tile app,4-5-2021,
40,Aj,lokvoer,,They never steal it’s Samsung tats steals,3-5-2021,
41,Jay TK,jaytk000,,"I am pretty sure neither Samsung, bor Apple came up with GPS tracking",4-5-2021,
42,KingSMSGaming,.dynam0,,tbh even if they did steal it from us. we really dont mind,4-5-2021,
43,Eric 3e,flurry31,,they all copied normal tiles,4-5-2021,
44,Haukka,haukka12,,What has apple copied from samsung? It’s the other way around. Samsung literally copied the entire touch screen concept from apple,4-5-2021,
45,aggelinho,aggelos__xatz,,which mic stand do you use?,4-5-2021,
46,Ivan,ivankov_ge,,they didn't steam from amazon they stole from another company,4-5-2021,
47,Hiro016,hir0,,chi ha detto che samsung nn abbia fatto la stessa cosa ma anni prima 🙃,4-5-2021,
48,FunFunAnime,fun2anime,,sony release smart tag before samsung or Apple😅😅😅,4-5-2021,
49,Penguin Guru,penguin_guru,,"Sony has this concept of ""AirTags"" years ago. 🙄",4-5-2021,
50,dgajakan,nic0.lt,,dude... they both copied tag,4-5-2021,
51,SpillDaBeans,spilldabeansyt,,Sooooo Samsung stole from apple?,4-5-2021,
52,ga suka bayern☝️☝️,barlex_cw,,Bro you kinda look like this @mrsavage guy,4-5-2021,
53,Laura Skurba 😷,hypergamer45511,,exuses 🖐🏼😂,5-5-2021,
54,qrukie,pureservice_2.0,,Yoo,4-5-2021,
55,Son,akosierickson,,Tile has been in the market first.,4-5-2021,
56,sammso,s4mms0,,Chippolo,4-5-2021,
57,stormblade system,stormbladesys,,tile tags,23-5-2021,
58,Eddie,edsutt,,It did say © 2019,4-5-2021,
59,Stan loona or else 😡🔪,crunchykandi,,.Tile rn [cry],4-5-2021,
60,user3275142209770,ghthanos1,,We didn’t steal..,4-5-2021,
61,Tony,sharingmyknowledge,,actually time had been around for years. I would recommend tile unless you have Note20 S21 iPhone 11 or newer.,4-5-2021,
62,brock,brockwalker_,,but didnt iphone steal their green calling bar thingy at the top of their iphones😂,3-5-2021,
63,I run on caffeine and stress,espresso0309,,it'd be interesting to see when Samsung started theirs 😂,4-5-2021,
64,thesof,aahh_tkt,,🍊 : Hey Apple ? Apple,3-5-2021,
65,Katie🏳️‍⚧️(She/Her),katietdm_,,What are airtags?,4-5-2021,
66,IamBam,theledgion,,yawn,27-9-2021,
67,Clemi,clemens.bss,,we didnt steal nicht didnt stole,23-7-2021,
68,ArielLiew,no_named021,,Samsung have cheaper😂😂,20-7-2021,
69,Catherine or cheshe :)),cheshetf,,apple did stole because they leaked it on 2020,13-7-2021,
70,super weird guy,jxst1n.sand,,"IpHoNe Be LiKe
me: IPHONE YOU STOLE FROM SAMSUNG
IpHoNe: what did we steal?
me: WAIFU ASSISTANT
IpHoNe: We AlReAdY mAdE wAiFu In 2019",2-7-2021,
71,be bacon on roblox nowwwww,aaronmriduca8,,this reminded me of call of duty the tag where u get u revive ur teammate,1-7-2021,
72,m 🐎,v2i5,,“we didn’t stole them” 😂,28-6-2021,
73,TheSkyDogFather,theskydogfather,,they both copied from tile,28-6-2021,
74,<:,_uhmm_what_,,But what is an AirTag or SmartTag?,23-6-2021,
75,marcello,marzx42069,,so we gonna ignore tile?,21-6-2021,
76,Laurenz,itslaurenz,,Smart… what? Never heard of her.,15-6-2021,
77,SometimesNOP,rafhaisnoor,,"""not this time"" apple, what did you copy from samsung?",12-6-2021,
78,Dries,drieskke,,I like how the inside from a iPhone is just Samsung parts lmao,9-6-2021,
79,Mads,madsrieper,,@victoriceh no,7-6-2021,
80,Just a normal kid,imcookielol,,"Lets be honest, samsung stole from apple emojis so its kit",7-6-2021,
81,Thanks for 1k,kevsbp,,Only comment,7-6-2021,
82,pedro romero,pedroromero990,,am first was tile like many time ago lol,7-6-2021,
83,Omar EL-Nawasra,omarelnawasra19,,"but they take parts of they mobiles from samsung,but the opposite doesn't happen 😏😏",7-6-2021,
84,Fall guys Cam,fallguyscam,,do u mean nice tags,6-6-2021,
85,S.038,samet.03888,,Love how ppl gate on apple because they doin’ a better job,6-6-2021,
86,man of culture,uwozip11,,"Honestly i dont know why people care about shi like that, it does the job sooo...",6-6-2021,
87,HEHEHE SUIII,cristo_ronaldo_sewo,,no we didn't steal from Samsung not this time lol,6-6-2021,
88,L3n630184nd,l4jf7ne3jzbb,,still use samsung screens in a lot of apple devices,6-6-2021,
89,99-Hunt3r,99hunt3r,,even if would it be stealing? I mean I also dreamed about stuff like these chips for my moms glasses,6-6-2021,
90,s.hit.10apex,shit10.apex,,samsung is better,5-6-2021,
91,Bot Kalashnikov,bot_kalashnikov,,"no, MoM is free human to find smol items that cannot be find, you cant hire them, your borned with them",5-6-2021,
92,kajabq,kakjab09,,"the trust me brother does not sounds good in english,but we all know you are gjerman.",5-6-2021,
93,SeekNDstroy,seekndstroy13,,not this time😳,2-6-2021,
94,Lifeofibz,lifeofibz,,"""no we didn't stole them from apple"" uhmmm think u should practise more English",2-6-2021,
95,Max Turner,f2_fanboy,,samsung still way better,2-6-2021,
96,Scarved,sc_rved,,Can you give me the name of your sunglasses they got drip.,2-6-2021,
97,?,idkwathtowrite,,but apple copy Tile😂,2-6-2021,
98,dermanu91,dermanu91,,Didn't steal,2-6-2021,
99,Santi Lugo,shingoshojl,,"as an android user, we care too much about beating apple but apple users hate on android for no reason 🙃",25-5-2021,
100,Gabriel Harrington,jiafeisproductussy,,yeah but you did steal the idea from tile lol,24-5-2021,
101,Hi,idk_what_to_put_this_as,,“no we didn’t stole from then” no that not right it’s “no we didn’t STEAL from them”,24-5-2021,
102,👾,www.getbitches.com,,i’ve never even heard of smart tags,24-5-2021,
103,Small Kids,iksomethingdude,,It is called competition 😂,24-5-2021,
104,⠀,liwia.x,,Huawaii was the first brand to release 2 cameras,22-5-2021,
105,Gabby,gabba.what,,"whatever, they copy each other 24/7 it’s no big deal",22-5-2021,
106,user7421866666743,rexx9777,,What’s smart tags,21-5-2021,
107,smartbase smart,smartbasesmart,,And who stole Multi-Touch from iPhone and today big screen,21-5-2021,
108,ehmm hi,4hausemaster4,,apple fanboy oh boi,15-5-2021,
109,FLAVJO,flavjo_16,,"""Not this time""Lmaoooooo😂😂😂",13-5-2021,
110,Shane Galaxy,unknownetc,,"Not from Samsung, but from tile",12-5-2021,
111,Hadtopopachockymilk,ilikeyocutg93,,Yessir,10-5-2021,
112,Logan Oliveira,loganoliveiraaa,,Girl I was poisoooooooon,10-5-2021,
113,Meno34,meno34s,,I don’t really get the apple stole a Samsung feature argument as that will just leave a device with basically no features same goes with Samsung,9-5-2021,
114,manieldansfield,manieldansfield,,airtags are made by Tile,9-5-2021,
115,Mathieu Duval,dr_mat01,,Apple never stole anything from Samsung. Go look at phone before 2007 when Apple invented the iPhone and after the iPhone was invented. Samsung copied,9-5-2021,
116,Jo mama,nene123342,,Jesus love you,9-5-2021,
117,KYD,kydmetawin,,but Apple uses samsung tech hahaha ok 😂,8-5-2021,
118,Lil Bacon,li1bacon,,I have that mic 😳,8-5-2021,
119,Isabella_Thorne,isabella_thorne,,I think you need to check your sources there buddy Samsung had it since 2013 perhaps even before that 😂,8-5-2021,
120,Hunter,hunterklowss,,I have never ever heard of SmartTags lol,8-5-2021,
121,cameron,cameron12648,,uh it's fibit after apple...,8-5-2021,
122,PartydoosMedia,partydoosmedia,,Both AirTags and SmartTags were stolen from Tile tho,6-5-2021,
123,.,mountain_________,,the first smart tag was realised 2010,6-5-2021,
124,ASF,the_asf,,they were first on the store so apple copied samsumg,6-5-2021,
125,v0dkaman,v0dkaman.08,,apple always steals from android the only think it changes is the name,6-5-2021,
126,Dababy gangシ skola gang,officaldababyitsme,,Nuftalem,6-5-2021,
127,Hendricks,_sky992_,,Samsung parts are in iPhone's,6-5-2021,
128,Hebシ,___heb,,What do airtags do,6-5-2021,
129,hdasdfg1,hdasdfg1,,apple keep copy Samsung 😂😂,6-5-2021,
130,Noel G-F,jdjdydyuru,,"The cat is sad because it’s not getting likes
　　　　　／＞　　フ
　　　　　| 　_　 _ l
　 　　　／` ミ＿xノ
　　 　 /　　　 　 |
　　　 /　 ヽ　　 ﾉ
　 　 │　　| | |",6-5-2021,
131,Cosmin Pascu,cosmin636,,How about the Samsung's own tag released back in 2017?,5-5-2021,
132,Caleb Halfond,super_player110,,Why use air tags when you have your MOM,5-5-2021,
133,Astro,astronaut6917,,k but samsung did the same,5-5-2021,
134,user5008007202922,user500800720292280,,Cant they just stick to making phones?,5-5-2021,
135,Porkchop Canadian,porkchop_canadian,,Tile,5-5-2021,
136,Szymon Pęczak,tiktoksp55,,Its true that that samsung copies from Apple,5-5-2021,
137,Szymon Pęczak,tiktoksp55,,Its true,5-5-2021,
138,Ra Amateur Gaming,raamateurgaming,,it's from Sony in Sony Xperia Sola since 2011,5-5-2021,
139,Nick,not.niklas,,what microphone are you using?,5-5-2021,
140,Mp7,mp7bad,,can you make a vid why lg wing is bad,5-5-2021,
141,Judah Worthy,astromimik,,Tile so im a joke to you?,5-5-2021,
142,Nathan Salvatore,salvat0re.nathan,,Where comments at,5-5-2021,
143,Nathan Salvatore,salvat0re.nathan,,No,5-5-2021,
144,Blanca :D,rollyz7,,yea because in 2019 i saw some pictures saying that apple will realese new airtags.,5-5-2021,
145,King The Cat,kingderkater,,If anything it would be stealing from Tile,5-5-2021,
146,What,paxwitha_axolotl,,hard rock more like rock hard,5-5-2021,
147,Pxxd,pxxdofficial,,but what about Tile....,5-5-2021,
148,Rich boss baby,richbossbabyking,,Samsung stole the way the home swipe button look on the x and up,4-5-2021,
149,Tik Toker,usercgz4aj2grj,,when apple plans on making something 3 years ago just to release it later than Samsung,4-5-2021,
150,MMK,m.m.k1690,,"They did, Samsung had it before",4-5-2021,
151,🌽🍞,coarnbread,,honestly tho airtags are crazy they’re so precise,4-5-2021,
152,aggelina,aggelina.nikolouzou,,Who stole AirPods 😅😅😏Oo I forgot Samsung 😏😅😅,4-5-2021,
153,BlueF8ce,bluef8ce,,Smarttags where in production before apples tho,4-5-2021,
154,Tristan,positristi,,Tile was there for ates,4-5-2021,
155,S4H1L,s4h1l3,,What do air tags do,4-5-2021,
156,OFFICIAL KEEBO,babykeebo,,"WDYM ""NOT THIS TIME""",4-5-2021,
157,Kristenboy,kristenboy,,so if u own a ip you can see all the airtags around u?,4-5-2021,
158,Giorgos Koutsouktoni,giorgoskoutsouktonis,,apple has the ability to show something simple look like something amazing 😂😂,4-5-2021,
159,Jalen Nanton,jalen_nanton,,Milwaukee one key tick tracker was been out since like 2016. Thus they both copied a tool company😂,4-5-2021,
160,Jonad Jonad,jonad57,,Did you know SAMSUNG S II already had face ID 😂,4-5-2021,
161,Jack Kelly,jackkellyexclusive309,,yes but 120 hertz is coming out to iPhone 12s and that is from Samsung😂😂,4-5-2021,
162,Matheus,emomati,,We didnt steal them from Samsung *,4-5-2021,
163,Joe Mama,crazindian,,"imagine, if they wrote ©2019 right now, to make the effect that they made it 2 years ago😂",4-5-2021,
164,Hi,hi__1232,,And Tile? 😅,4-5-2021,
165,TechAndSpecs,techandspecs,,"That’s what I’m tryna say, Samsung users don’t get it 😂😂",4-5-2021,
166,Armando Armenta,armandoarmenta,,I didn’t even know Samsung made smart tags,4-5-2021,
167,Michael Sch,michael36811,,They have patented it,4-5-2021,
168,AT0MAC,at0mac,,"tile have been a thing since like forever, so who stole the idea first? its not really 🚀 science so whatever",4-5-2021,
169,User1263773377373837,user17363637374,,So no we didn’t steal them from Samsung*,4-5-2021,
170,Upload Failure,mrtippity,,So we didn’t stole from Samsung good grammar.,4-5-2021,
171,💗,yk.m4jka,,Imagine still doing phone wars,4-5-2021,
172,Rick Astley’s Secret Brother,rickastleyssecretbrother,,But Samsung stole galaxy buds,4-5-2021,
173,Mieszko Pisarek,mpisarek01,,"if samsung have these, apple cannot give they users product like that? lmao",4-5-2021,
174,Ced,annizzaaa,,Apple is better👌🏻,4-5-2021,
175,Fra-Aviation,fra.aviation,,Samsung pay👹👹👹,4-5-2021,
176,Lexis,thatkidrandie,,It started getting leaked in 2018 and they had it ready in 2019 but that had to delay it form COVID-19 then they sold it in 2021,4-5-2021,
177,benetton cold silver,benettoncoldsilver,,Nokia Treasure Tag launched way back 2014. 😅,4-5-2021,
178,Alpha.,alphaidk,,i don't care if it's smart tags air tags or whatever both does a good job finding my bicycle key,4-5-2021,
179,ImATree,imatree98,,they all copied TILE anyways.,4-5-2021,
180,𝔗505,money.ceo,,"u dont need airtags or smarttags, if u have NFC, which Samsung had first.",4-5-2021,
181,C62,c62.d,,i might have to go with apple on this one its the first time i have seen an apple product cheaper then an samsung product,4-5-2021,
182,random person,b_jaylo,,Exactly 😌,4-5-2021,
183,.,dizzysprite,,What about tiles?,4-5-2021,
184,Yan,shootingyan,,Apple always has a lot of things backed up before it came out sometimes for 2 years like now 3 years,4-5-2021,
185,Bliksem,bliksem81,,"Um, did everyone forget Tile created Bluetooth tags in 2012...",4-5-2021,
186,Jay_foi,jay_foi,,"""We didn't STEAL""",4-5-2021,
187,JWAG Studios (The Pikachu Guy),jwag_series,,they both copied Tile,4-5-2021,
188,Marco,invy55,,"Tile released their fist one in 2017, just saying",4-5-2021,
189,Ehm Gee,ehmgee21,,Love this boy! ❤️‍🔥,4-5-2021,
190,Oliver,oliverlovesit,,Didn’t STEAL 😳,4-5-2021,
191,Wan,wan147,,Whatever. Android or ios,4-5-2021,
192,boo 🤞😘,sadieburton_,,Apple uses Samsung screens,4-5-2021,
193,cottoneyejoe,cottoneyeijoe,,apple fanboy.,4-5-2021,
194,marten,marten_buhck,,Like you so mutch,4-5-2021,
195,"Me, Myself, and I",devoitalie_06,,If u say did u cant say stole,4-5-2021,
196,eric,artileria12,,hes right but he stole our camera and screen,4-5-2021,
197,Snabba Yarisen,snabbayarisen,,Well Tile are still waaaay older 🤨🙄,4-5-2021,
198,iamdaantjuh || ⌚,iamdaantjuh,,they stole from Tile,4-5-2021,
199,HP Color LaserJet Pro MFP M282,hp_color_laserjet_pro,,my samsung smart tags all broke 💀,4-5-2021,
200,촉촉한 달콩씌,ddonggo6974,,there was tile and keyco before the smart tag….,4-5-2021,
201,Cosima Knoe,cosimaknoe,,“We didn’t stole them from Samsung…. We stole them from Tiles”😂,4-5-2021,
202,Nyrif#0001,nyrif,,tile,4-5-2021,
203,Pffftttt,g4yb0ii,,apple > samsung,4-5-2021,
204,intelektualcr,vasintelektual,,Apple just made it better. There are more of these products from tile ot fixed and more,4-5-2021,
205,Tumster cult,idfc645,,Bruh the Russian accent😂😂,4-5-2021,
206,kryszczyn,kryszczynnn,,"So, if apple stole from others, androids stole touch screen from apple 🤨",4-5-2021,
207,A A,aa68048,,"People arguing who copied. Tile: ""Am I a joke to you?""",4-5-2021,
208,vk,viktoriakogler,,Than remove your touch screen bc who invented it?,4-5-2021,
209,저는 게이가 아니에요🤤🤧,070517hsp,,i love both cuz i use both😅,4-5-2021,
210,idk,trollaccount42069,,did you forget Tiles 😂,4-5-2021,
211,☕️ laz,coflaz,,Samsung kids barking 😍,4-5-2021,
212,FloffySMP,floffysmp,,wish had it was longer before,4-5-2021,
213,⚜️,tylerk07_,,His username what,4-5-2021,
214,Trey Vela,treyvela,,they both copy each other but now apple is copying more then samsung is copying apple,4-5-2021,
215,Adrian Dingo,ardiandinga,,Chipolo,4-5-2021,
216,jakecross.x,jakecross_.x,,But Samson steals from Apple all the time like the volume,4-5-2021,
217,Tony D Whitebeard,porogn,,excuses,4-5-2021,
218,hi,www.trolli.org,,there is some code in I believe ios 13 or something (i don’t know when that is) that said something about a tracking device or air tags,4-5-2021,
219,🚔ØFFIŒR👮‍♂️,oneplvs,,mid they made it in 2019 why they didn't release it😂😂 nice try apple,4-5-2021,
220,Sīnezter,sinezter,,That was like the reboot vans and the revive things in apex,4-5-2021,
221,JARABOYY 🇵🇸,boskakap,,Try oppo😂😂😂 look the camera design 👀,4-5-2021,
222,Preston,prestonx21,,tile?,4-5-2021,
223,user2677146240497,ghatvh1799,,tile...,4-5-2021,
224,Dab,inspired_rage,,actually this is true. it was even shown but they didn't release them untilr recently.,4-5-2021,
225,None of your business,dilligafz1,,,4-5-2021,
226,Arsenal_AFC,arsenal_afc21,,really said what product,4-5-2021,
227,bar,hersheybaarrr,,this comment section is like “they stole higher refresh rates from android” like bro are they supposed to stay on low refresh rates,4-5-2021,
228,E 💫,weluvvelyas,,l☪️WAIT STOP✋❤️ALLAH LOVES YOU☪️ALLAH IS MY AND YOUR LORD☪️THAT’S the RIGHT PATH☪️TURN TO ALLAH☪️BEFORE YOU RETURN TO HIM☪️❤️,4-5-2021,
229,Hafriz Fareedzy,hafrizfareedzy,,sony actually used the tags before.,4-5-2021,
230,Ty Gregory,tygregory26,,Make a bad video about Samsung,4-5-2021,
231,NicShogun,djnicshogun,,No Apple and Samsung copied the idea from Prisons,4-5-2021,
232,€hris,ceeazer,,trust me bro or what 😅,4-5-2021,
233,Denis Mašić,denis_msc26,,They still copied tile,4-5-2021,
234,ok,orange.321,,Airtags have more accurate locations tho,4-5-2021,
235,user1664663637t8,yoavz1231,,i like when he said which one?😂,4-5-2021,
236,Miguel,cheeseonatree,,The part that me me go WHAT was wen u said “they didn’t stole from Samsung ”,4-5-2021,
237,Mo,epicmozamba,,nah they coped Tile tho,3-5-2021,
238,Alien,morefollowersthenwnba0,,The product is innovative,4-5-2021,
239,DEFNEEEEE🌈🌈🏳️‍🌈,defneeyildiz,,Ya arkadaslar cok kotu bisey oldu,4-5-2021,
240,Trollschne,trollschnepfe1.0,,Vorallem was heißt hier bitte „again“ ja vielleicht bringt Samsung n Produkt oder ne Funktion mal früher raus aber immer min 10x beschissener,30-7-2021,
241,M,creamyboss1,,Tag 5 an dem ich seinen D will,3-5-2021,
242,timur.15,tso.74,,sein Englisch triggert so mieees,14-6-2021,
243,"Dᴏᴍɪɴɪᴋ [3,8k]",..dxmii,,man hört sein deutsch zu hart😂,4-5-2021,
244,🖤🤍🦅,aktivkohle,,Samsung wie sie das Konzept der sie Tags sehen: uiuuuuu das klauen wir,4-5-2021,
245,Kevin | For the CREWWW,techcircuitcrew,,And both stole from Tile,3-5-2021,
246,Aaron Smith,lightdude,,Samsung stole AirPods,4-5-2021,
247,karol martinez,karolmartinez207,,CAN WE JUST AGREE THAT THEU STEAL EACH OTHERS IDEAS AND BOTH COMPANIES WILL JUST SCAM US MORE AND MORE STOP THE FIGHTING ITS LIKE PS AND XBOX ALL OVER,4-5-2021,
248,User1378423,j.villa536,,there gonna rob sam do,2-6-2021,
249,CariTTM,carittm,,Ha ha ha ha…. Grandma had apple since 1910,2-7-2021,
250,Zaid Sami,zaidsami0,,Air tags are really called key finder and its 10 years old,22-6-2021,
251,Joshi,joshi.16,,Again? Samsung stole the mobile phone so like,6-6-2021,
252,J P5416,most.second,,stole from tile,9-5-2021,
253,urbrotherfromanothermother,theyarewatching4,,Do one for Samsung stealing from Apple,8-5-2021,
254,Zaiden,zaiden094,,Airpods?,6-5-2021,
255,AULTAJTSYODKHDHOD,ihgpablqt,,"bro improve on your English, BROO😳",5-5-2021,
256,Ro Dawg,rodawg78,,Who else doesn’t like this guy everyone knows this,4-5-2021,
257,Demetrus Demarcus Bartholemue,benjamin__69420,,they both stole from tile 😂,4-5-2021,
258,Oussama,oussi020,,You look like a budget version of someone,4-5-2021,
259,Torttu1812,vauhtimato_123,,"Yea, samsung did stole!",4-5-2021,
260,Emerson Bouillon,jaifei130,,Samsung stole I phone so deserved,4-5-2021,
261,Michael Maldonado,nyc_micha.el,,POV: you don’t care,4-5-2021,
262,funthomas12,funthomas12,,they stole from tile,4-5-2021,
263,Æ,bluiwater,,call them and ruin there life they are my ex 505 cats 250 dogs 9643 birds send this to everyone you know.,4-5-2021,
264,Jason vargas,jasonvargas79,,spread the gospel before its to late! ✝️✝️,4-5-2021,
265,Uchiha Sasuke60,sasuke2001417,,nice fairytale 😂😂😂,25-7-2021,
266,Adik Ipar Nicki Minaj,rayyan_baddie,,and...other wars,18-7-2021,
267,Josh,joshyfm,,**steal,4-5-2021,
268,Hugh Clark,hugh48107,,*steal,4-5-2021,
269,robertowitse,robertowitse,,yes you stole,4-5-2021,
270,Finley023,finley023_,,"Apple created the touch screen, samsung stole that to🤷🏼‍♂️WHO CARESSS",4-5-2021,
271,Fluffy,fluffy_1907,,"They stole them🤦
Apple always has lies as answers🤦",21-6-2021,
272,Alter Agent,alteragent,,stop defending Apple when they quite litterally buy Samsung parts to make their phones,14-6-2021,
273,Bästa_duo,whenisingning,,Shut up samsung stole the idea with the touch screen,6-6-2021,
274,Calum✌️,calummck22,,Nah Samsung sucks,6-6-2021,
275,ً,manganour,,sam abt to be stolen,6-6-2021,
276,Dharman_be_bussin,cobra_kai_for_life_hehe,,Who cares windows is better than all lol,22-5-2021,
277,gianna,yowassupbro08,,Samsung noob,9-5-2021,
278,questerno,questerno,,"didnt ""stole"" them from samsung, go back to 3rd grade bro",6-5-2021,
279,Maciej Ruszkiewicz,maciejruszkiewicz3,,Nope they stole it from Nokia ( idk but something similar was in 2014 i think),4-5-2021,
280,Shevinka,shevinkaaa,,steal*,4-5-2021,
281,.,_9498_,,Anyone else or is this just annoying,4-5-2021,
282,Andrea Monteleone,andymonteleone,,they stole the concept from Tile bruh,4-5-2021,
283,▁ ▂ ▄ ▅ ▆ ▇ █,karl_heinz_ii,,I think Apple is annoyed of you...,4-5-2021,
284,lfc,fakegabibtw,,Who tf heard about smarttags,4-5-2021,
285,William,dave_miller_but_not,,They stole from them tile,4-5-2021,
286,professionalmarketer,professionalmarketer,,yeah they stole them from tile 😂,4-5-2021,
287,Abel Markos,extra988,,but you stole it from Tile yes remember,4-5-2021,
288,Simpy.v2,that.one.person.doe,,bro i got annoyed its we didnt steal and yea but stole if ur saying they stole it,4-5-2021,
289,TimeTraveller 3K,timetraveller3k1,,***Tile looking pissed of with Apple and Samsung***,4-5-2021,
290,FasbytesReality,fasbytesreality,,But Samsung sell your data allegedly and they are crap ….,4-5-2021,
291,minecraft_lauch,minecraft_lauch,,Samsung Stole from Apple the Lewis and Made it,4-5-2021,
292,The burger theory,danielberger03,,I know you have to the pan but I think I need a few minutes before the wolf gets out and then I’ll come over to get it lol I need a shower lol I have,4-5-2021,
293,Charles Meador,charlesmeador3,,Steal**** not stole,4-5-2021,
294,TrueExcalibur,excalibur093,,Apple stole the no home button and face ID from Samsung,4-5-2021,
295,Nothing,wtfdude420,,"No, both side are not stealing anything. Most time is just a race to see who release their products early. Then brag about it.",4-5-2021,
296,Tyson,tysxno,,I only want an Airtag to play hide n seek with it,4-5-2021,
297,Dylan Catoul,dylan.xxx,,ive read the specs from airtags it says max distance 30 feet or 10 meters and you need tot keep it charged what a inconvience everyting thats so close,4-5-2021,
298,Kristaps,itz_kikaps,,"every phone stole grom apple, apple was first phone with toiching screen",4-5-2021,
299,Spooder Man,spooderman994,,Ngl who cares,4-5-2021,
300,niktamair,coucoucmwa1002,,"didn't STEAL, not stole. learn basic grammar, kids",6-6-2021,
301,Francezjdn,francezjdn,,who cares we have a waifu,3-6-2021,
302,Pietre Niemansdav,ikibeer,,also slightly different technologies between them,2-6-2021,
303,Deric Hensel,theredguy99,,air tags aren't a new invention regardless. they just added minor additions to them.,6-5-2021,
304,The Big Voyager,itsolexx,,"Hear me out hear me out
A random chinese brand probably released it before both of them,havi g the same exact featuresjust with a worse app",5-5-2021,
305,Dumbify [archived],dumbify,,wtf are airtags,4-5-2021,
306,torchman1999,torchman1999,,i think it's bullshit calling it stealing both have a completly diffent software implementation and the concept of a key finder isn't new,4-5-2021,
307,.,eat_the_humans,,nokia had a product like airtags 2006,4-5-2021,
308,Arwidlee,arwidlee,,Your accent is infuriating,4-5-2021,
309,Benjamin,benjxmin15,,@l1vlad1l,4-5-2021,
310,"Julian, i guess",german_cg_artist,,@valtec123,3-5-2021,
311,jwspooner,jwspooner3,,@igz.perezo,4-5-2021,
312,Vladi Nenov,vladster0,,@chevybradley,13-8-2021,
313,Michael Jackson,zatuug_,,@onlyjayusbrother,31-5-2021,
314,mxrurrie,mxrurrie,,@grimblee,8-5-2021,
315,mxrurrie,mxrurrie,,@nathan_rc2,8-5-2021,
316,mxrurrie,mxrurrie,,@mizkifsalt,8-5-2021,
317,Helloo,nyuisa,,😳😏,5-5-2021,
318,Lisa Lin,oxox_lisa_oxox,,@thomass._.wife,4-5-2021,
319,rocky 🐾,rockythegoofyboxer,,@trishabraham,4-5-2021,
320,Colton 🐛,colton.stringer,,@czrrly,4-5-2021,
321,STEMPVX,stempvx,,@milesabovetech 😂,4-5-2021,
322,Hieu Hieu,hiullo,,@meomeomeowhhdjd,4-5-2021,
323,ghost face,cattok129,,︎,5-5-2021,
324,I need life,thehandsomeyoni,,nfc,4-5-2021,
325,Lele Rebus,lelerebus12,,🤡🤡🤡🤡,4-5-2021,
