,Comment Number (ID),Nickname,User @,Comment Text,Time,Likes
1,Bosmen Xhepa,bosmenxhepa,,"BuT iT hAs a m1 cHiP 🤓🤓🤓
mY nAmE iS eMiLy BtW🧏‍♀️💅",29-6-2021,
2,Irfan-sama 🗿🤏👓,mr_supreme12,,"MacBook for Gaming?!
It like Pizza with Pineapple bro...",29-6-2021,
3,HolyCrab85,holycrab85,,and mac's are stupidly expensive without any reason,29-6-2021,
4,4LittleNightmares,4littlenightmaress,,I actually have a gaming pc with a gtx 1650super and an M1 and the performance is pretty close on most of my games the down side is that I still…,29-6-2021,
5,han,han_puhan,,"BUY BOTH
mac for work
windows for gaming 😁",29-6-2021,
6,HEHE,kevschuppe,,Wie viel Deutsche Akzent. er: Ja,9-8-2021,
7,Klaas Muller,klaaswag,,Just dont buy a macbook unless you are a publisher/other creative job like video editor,28-6-2021,
8,Rblorre,rblorre,,"If you play a games with non- realistic graphics (Minecraft, among us... , not ark ) MacBooks are fine, especially if gaming is a secondary use.",5-7-2021,
9,BigMac,pepebigmac,,mac=arbeit windows=zocken,1-7-2021,
10,kwitowski,kwitowski,,"I don't like Apple, but I don't stick my head in the sand either. M1 chip has amazing perf and power usage is crazy low. AMD/Intel need to step up.",29-6-2021,
11,Niceplayer2,niceplayer4,,My mom forced me to buy a Mac for gaming 😢,29-6-2021,
12,n,dwfeel,,"It’s ok, I’ll play minecraft",1-7-2021,
13,i say facts,heavy_speaks_fax,,and macbooks are still more expensive than whole new gaming setup (apple fans stay pressed lmao),29-6-2021,
14,Guy,theguywhoasked69420,,Only PC game I really care about is Minecraft which runs fine on my MacBook so I’m fairly satisfied as I use iMovie and Garageband,29-6-2021,
15,Ⓐ⎊Captain WolfZ⎊Ⓐ,captainwolfzz,,In short : you played you're self,29-6-2021,
16,flipfoxfocus,flipfoxfocus,,The best thing about a chromebook is that it can turn ur gameplay into a live instant slideshow presentation,29-6-2021,
17,Franz Ball,franzball5,,but a MacBook is the best mouse pad you can get for gaming 😁😁😁,28-6-2021,
18,🦔pokupine,orangesodashordy_,,:) can anyone suggest what does one need to build a pc?,29-6-2021,
19,.,azily_22,,Selbst ein Mac mit Windows also ein älterer imac kann nicht mal 60fps in fn,29-6-2021,
20,samuel rodriguez,giovatticofrances,,I use bootcamp but the problem is not the GPU is the cpu the GPU shows it has 50% being used but the cpu is 100% sorry for my english,29-6-2021,
21,da oida,daoida,,🧐 schon kein Interesse wegen fest eingelöteter Ram und ssd 😅,4-7-2021,
22,Galaxy1377,galaxy1377,,Der hat halt selber nen mac 😂,5-7-2021,
23,Mới được isekai,bac.si.tot,,dont teach rich people how to use money,29-6-2021,
24,knistereis,n00xy_,,i got a used mac pro as a gift with 64GB RAM and a intel i7 but the GPU isnt that good so i get like 450 fps in Minecraft,28-6-2021,
25,Derk Poortenga,derkpoortenga,,The comparison you made was not a good one. The M1 performs on par/exceeded my fully spec'd i9 Mac pro 2019. (1/2),29-6-2021,
26,Mostafa Mohhamed727,mostafamohhamedvideoz2,,dude you don't know about pc and gaming dude,28-6-2021,
27,Kana,kanariaangel,,"Mấy bố VN kiểu: ""kHôNg pHảI nGẫU nHiêN mÀ mAc ĐắT thẾ. kO cÓ tiềN mUa tHì nÓi tHẳnG"" 😏😏",23-8-2021,
28,Phạm Gia Bách,usere0gveg2qw3,,dành cho mấy đứa bảo macbook chơi game ngon :))),29-6-2021,
29,_mxnveerbckup,mxnveer_,,first?,28-6-2021,
30,Iacopo Thoman,iaco_thoman,,You are gaming laptops good for gaming ?,29-6-2021,
31,Nicholas Amadeus Zak,nicholas_zakaria,,"even New MacBook has got M1 chip, if we Compare with Ryzen 7 5Gen its way more better Graphics in Ryzen 7 5Gen. Even With 1, 2,or3 Gen, M1 still lose",29-6-2021,
32,OfficialShiny,officialshiny,,"I use a macbook, no lag on minecraft, I understand its not for gaming but it does whats its supposed to do",29-6-2021,
33,Fynn,f.ynn.h,,I will they are amazing mousepads,28-6-2021,
34,m,m_24ynz,,😳 me playing Fortnite on my air:,28-6-2021,
35,astolfolover,dooomchad,,but linux is better for gaming,29-6-2021,
36,Random Dude,jy8282,,Who buys a Mac for gaming...,29-6-2021,
37,TikaMika,tikamika_hd,,i have macbook pro 16 inch without m1 and maxed out settings and in windows i can play every game on high at 4k smoothly at 60 fps,29-6-2021,
38,lukek1867,lukek1867,,As a mouse Pad they are not bad,11-7-2021,
39,Lil nutty,ulices42069,,nice,28-6-2021,
40,a,itsastraa,,this would been useful 2 years ago-,29-6-2021,
41,Lux,lux_ravenous,,I have a Mac Pro with a 1660 not really the GPU isn’t strong enough it’s the fact that it can’t handle the Heat cus of lack of fans tbh.,29-6-2021,
42,⠀,_._miroo_._,,@kalio_29 tagni bratovched ti,11-7-2021,
43,Ray,pieaseshutup,,"I did but I didn't think of the term ""gaming laptop"" until I returnedy Mac because of the lag now I have a gaming laptop",29-6-2021,
44,elijah,elijahciali,,"Rosetta 2 performance is more like a 10% drop in reality, but it’s just a matter of the integrated GPU. Thankfully, Windows will work soon",29-6-2021,
45,Bombom shadeee,naishadeee,,I mean who tf play games on mac,30-6-2021,
46,shut up,meranaamheibandar,,You can play the games on GeForce,13-8-2021,
47,Hehe,tissemandpoelse,,dont worry Emily is only gonna Play roblox,10-7-2021,
48,2004 Subaru wrx,that_car_tracer,,At least you don’t have a chromebook,29-6-2021,
49,LHTD,lhtd44,,"Mac is trash for gaming but really good for photo editing, photo storage, music production or listening to music and many more!",28-6-2021,
50,a,moitstyproductions_alpha,,bruh,28-6-2021,
51,Simple 4life,xmans0,,I use a mac for my mousepad,5-7-2021,
52,Nice <3,soycul900,,Me llegó tarde el consejo,9-1-2022,
53,🤔,hi_more_like_bye_,,My mom got me a Mac and I love except for the fact I can’t play any game I want to actually play,25-12-2021,
54,Gwn Daan,daantjuuuuuuuh_,,@joorkaas pannenkoek (ik hoef btw niet je hele verhaa weer te horen hahaha😅 ),8-9-2021,
55,e,rqin61,,mac mà chơi game thì bỏ,2-9-2021,
56,monkey ballz,hasan12448,,Use windows 10 on an high tier macro it's pretty good for gaming,10-7-2021,
57,milan,abelloop09,,well cloud gaming is a thing now soo,30-6-2021,
58,Sho 🤍,shothehoe,,"i’m planning on using a macbook pro 2021 for some simple games such as minecraft, stardew valley, sims, ddlc stuff like that will it work okay?",10-8-2021,
59,Nguyễn Hưng,nnbhung,,Ai sài mac chơi game vậy,30-6-2021,
60,Finn,finndadooda,,Why are y’all y’all making fun of macs for gaming,30-6-2021,
61,Nguyễn Huy,userdcpjj6kns1,,i think dont buy Mac at all :))),29-6-2021,
62,Thinh Tran,thinhtran307,,but can I use them for playing roblox???,29-6-2021,
63,Reza Arif,rezakhalifah,,masih bisa kalau main rf doang mah,29-6-2021,
64,herothe_cool_guy_69,hero_cool_guy_6969,,tks u captain obivious,29-6-2021,
65,dyqnt92u2dq0,dyqnt92u2dq0,,I agree,2-8-2021,
66,Cahyo Aroyanto,cahyoaroyanto,,my pleasure,20-7-2021,
67,Ooff,1995audis6,,@super._edit ayo,8-9-2021,
68,Josh,roomtemperaturecocacola,,Use them as mousepads,10-7-2021,
69,The W,vialadar,,@flutentiktok @bluebin23 this is Thomas,8-9-2021,
70,Smir margolis,snirmargolis54321,,U can play on Mac only Minecraft and CS:GO,29-6-2021,
71,james ong,jamesssong15,,what is your ig,29-6-2021,
72,PAULDAVID,pauldavidliboon11,,Ipad air is good for gaming?,29-6-2021,
73,quandaldingle 🧚‍♀️,quandaldinglethefairy,,He says that will macOS running on a computer in the back,1-6-2022,
74,Jan M,jan_morozov,,Install windows via bootcamp and have access to literally any game,8-3-2022,
75,_savag,_savag,,it's not 50%.,22-1-2022,
76,private account,official_privateaccount,,you can run Windows on a Mac and you can get a egpu,13-1-2022,
77,00IIll,00iill,,One of my rookie mistakes.. Im still stuck with that same Mac.,31-12-2021,
78,Marry me,jdjdjdjcjvk,,To late,22-12-2021,
79,eeva :>,eevarunn,,i have a mac for school and stuff and it can’t even run minecraft without taking off,22-11-2021,
80,༄ᶦᶰᵈ᭄✿GᴀYᴇʀ࿐,hawkssweaty_feet,,Man think he did sum🧍🏾‍♀️,6-11-2021,
81,mia,mendilemmik,,me also: plays on mac,31-10-2021,
82,phát bị rất flop,dyfcu6jc5xus,,Đứa nào có thể mua MacBook để chơi game ？？？？？,26-9-2021,
83,Bonkerinooo,bonkerino69,,"I only use my Macbook for my work. The security for the device is good and I find it user friendly. But when I play, I use PC",23-9-2021,
84,Penxzzy,penxzzy,,CocoLa🥤 KUciNG😺 TiAng⛩️BeNdeRa🇲🇾,21-9-2021,
85,never_gonna_give_you_up_,mag_module_nakayo,,the. phone is powerful with the right hands this is where I come,21-9-2021,
86,pie is gud,ovo0516,,thats why I buy M1 processer and ordinary processer 😂,20-9-2021,
87,Quima Alfonso Navarr,quima_luy,,"lol this is true,, me and my brother were playing roblox he was at 100 percent i was at 61 percent, then after 5 mins he was already 71 XD!",20-9-2021,
88,Alex,ndkhoa05,,Im poor so i bought mac and cheese,20-9-2021,
89,Bliss,bliss_975,,MacBook for gaming can be a toaster tho,20-9-2021,
90,…,kittydanny11,,@wolfywaffels @daddysheeranaughhh yea no..,18-9-2021,
91,my new acc: @glar3x go follow!,follow_my_new_acc_glar3x,,I’m using MacBook Pro and it’s not hard to get 1000 FPS on Minecraft :),17-9-2021,
92,Comments Police,commentspolicedepartment,,A MacBook and a PlayStation… sorted!,12-9-2021,
93,ᕕ( ᐛ )ᕗ♥︎,oracaosubordinada,,my dad bought a m1 mac soo I could play some games and some of them were osu and genshin impact but I’m grateful,9-9-2021,
94,PUM4,nthngwrksffs,,i thought this was common sense though,9-9-2021,
95,Sergej Dejanovic,sergejdejanovic,,@andrej_405 eto ti,9-9-2021,
96,💀💀💀,wcriminalviolen4ew,,I use my dad s Mac because I don’t have a camputer😳😳😳😳,9-9-2021,
97,OmerZilla,omerzilla,,i have a mac.... to make music,9-9-2021,
98,thatwockykid,avaragejojofanlol,,I have a Mac computer for gaming because my windows computer broke,9-9-2021,
99,Jm,juandeminiani3,,I have a Mac pad,9-9-2021,
100,noam naor750,noamnaor5,,mybe... just dont buy them... at all,9-9-2021,
101,emiliomace,maceisbae1,,@taxinatorlol @emilian_is_cool @taz1477 we can guess who this is,9-9-2021,
102,Jeli,1_l08,,what laptop is good for gaming,9-9-2021,
103,Assuming poem,assuming_poem,,Among us 😏,8-9-2021,
104,🛑🛑🛑🛑🛑,.ellebby,,what is good and cheap too stars gaming:/,8-9-2021,
105,Kulcsár Csaba,k.csbaa,,Geforce Now,8-9-2021,
106,Violet van Detta,violetvandetta,,Don't buy overpriced hardware in general 😅,8-9-2021,
107,Zoom,turbochargdd,,"What do yall think of a 2015 or a 2017 HP that looks like a work laptop but has an Intel i5 8th Gen and Nvidia GeForce, runs on 60% cpu force in almos",8-9-2021,
108,kaas,leterlijknikshier1,,I have friend that games whit macbook,8-9-2021,
109,Warre Deprez,warredeprez,,I am a gamer and i have a Mac,8-9-2021,
110,|| iriyasu || backup: iriyasuu,vegetachann,,wow i didnt know that 😐,8-9-2021,
111,Wikite,_wikite_,,@..vspolivia porada dla ciebie,8-9-2021,
112,SIMP but the O is silent,userkefarremal,,its probably better than my moms 10 year old work laptop that melted a part of the table after playing genshin on the lowest graphics for 1 hour help,8-9-2021,
113,NoIdealmaoe,idontkno477themonarch,,I play on a mac,8-9-2021,
114,Thomas Hoekstra707,thomashoekstra2,,i didnt know people buy a mac for gaming i thought everyone buys a gaming pc hello gaming is in the name,8-9-2021,
115,dlfkjfjd,dlfkjfjd,,m1 is Good but I think the laptops aren't that powerful chips not like a actual cpu,8-9-2021,
116,No,lieutenantelectr0,,My desktop is 10x better than MY MacBook wich costs 1100 and my desktop cost 300,8-9-2021,
117,Jayden Van Parys,jaydenvanparys,,Everyone knows a Chromebook is the best at gaming 😳😅,8-9-2021,
118,TibeD2007,tibed2007,,you can still use it as a mousepad tho,8-9-2021,
119,Sven Van der veen,coolsven28,,I have a Xbox and windows 10,8-9-2021,
120,lekker man,heeldik,,@el.gara told u,8-9-2021,
121,Hiddebonnes,hiddebonnes,,Mac is really good for work or school but not for heavy games so be aware what you are gonne do with a Mac,8-9-2021,
122,Barnabás Grajszky,barnabasgrajszky,,but it has an apple logo on it,8-9-2021,
123,Hanakeen,usercux3,,"""Pc pro"" 🤓",8-9-2021,
124,Freddy,dvt.freddyrolo,,AMONG US,8-9-2021,
125,balla_elvis,balla_elvis,,i have a 11 year old Mac and my fps still better then that voice,8-9-2021,
126,crt0512,crt0512,,I use arch btw,8-9-2021,
127,Julian,sexy_man_inc,,Mac is not bad for gaming but you are better off with using cloud gaming servers like GeForce Now,8-9-2021,
128,SitaneRottZilver,sitanerottzilver,,I got a pc with ryzen 7 and rtx 2080 from 2019,8-9-2021,
129,Ofiotaurus,ofiotaurus,,I use a macmini,8-9-2021,
130,<3,milaa_costta,,I have a mac,8-9-2021,
131,andrej,potatoqqq,,than which tablet?,8-9-2021,
132,hxdyro,hxdyro,,i bought one for work but minecraft and roblox and cs:go works fine 😅,8-9-2021,
133,Mekappa,mekappa23,,don't buy mac.,8-9-2021,
134,Idcrafter,idcrafter,,"Linix gamers using wine with dxvk: am i a joke to you?
it is x86 based and the Most optimzied os for desktops and Servers",7-9-2021,
135,An ba to com 🥵,anbatocom1,,yes. who tf buy Macs for gaming ?,6-9-2021,
136,muteki gamer,mutekigamer14,,"and Mac is really hot,because mac don't really have a good cooler",29-8-2021,
137,Ryn.Kaisei,ryn.kaisei,,"you can use it as mouse pad, so you can play game ON the Mac 😂",29-8-2021,
138,felix,fclix02,,I got over 500 fps in hypixel with shader on a mac,13-8-2021,
139,Signing off😞,bye2495,,Acer is that for gaming,9-8-2021,
140,Adean,adeanofficial,,"here listen mac is for work, business, video editing, coding and anything other than gaming",8-8-2021,
141,Chunchunmaru,wtinbstokb,,You can buy a mac then download windows XDD,8-8-2021,
142,Tuyuhardo,tuyuhardo,,Buy a Mac for work. Buy a PS for gaming. You need 2 different space for 2 different mood,8-8-2021,
143,wanstarz killerz,wanstarz,,buy mac for gaming because it looks cooler,8-8-2021,
144,Doom casso,arthurpham2,,"i am ifan, but that true, he say right",6-8-2021,
145,Kiếm cô hồn,d3_von,,no one buy an apple device for gaming 😂😂,31-7-2021,
146,🔥,albatrauus,,[flushed]🍝🕯🍝[embarrassed] shh their having a date! At 3 likes they get married!!! And at 1000 they get divorced!!,26-7-2021,
147,entetement,entetement,,"o will buy one, i nées à mousepad",24-7-2021,
148,cookies,queueboyz,,m1 is better gaming . for apk game 🤤,22-7-2021,
149,David Ryba,davider007,,I háve got 2000€ builded pc 😎😎,14-7-2021,
150,Isäs,repeteus.56,,Dont buy any apple products,10-7-2021,
151,anton gift,chefdone,,as a mousepad?,10-7-2021,
152,tobean16,tobean16,,just use the mac book as a mouse pad😂😂,10-7-2021,
153,Lukas de Kruyk,lukas.d.k,,I'm going to buy a MacBook Pro for eddeting,10-7-2021,
154,vtx_n9,vtx_n9,,Me having msi laptop and macbock air m1 Mac better for me,10-7-2021,
155,ohnowereoutofmilk,yummycowjuice,,no dont buy macs at all,10-7-2021,
156,⁹⁹⁹,__tigo__,,don't buy mac's.,10-7-2021,
157,FW_BANNARICE,fw_monkeyricemuncher,,this is not original @forealtwitch,10-7-2021,
158,Clash Royale,crmoments_hub,,im on notebook and im like huge gamer you can belive me or not 😂,10-7-2021,
159,N,thisusernameisavailableo,,there is no reason to buy mac at all,5-7-2021,
160,Bart_and_Ollie,bart_and_ollie,,dont buy Mac by all,5-7-2021,
161,some person,kokomi.the.bald,,i wouldnt buy a MacBook thinking it was good for gaming cuz Apple products are worth more than my whole life,5-7-2021,
162,Mokort,mokortz,,You don't need to be a pro for that everyone knows that.,5-7-2021,
163,ModernSxripts,scriptedanx,,Well I did,4-7-2021,
164,Jozef Bukvica,inside_its_cold,,just buy Windows and youre good 😏,3-7-2021,
165,fauzanhrkr,fauzanharakiri,,imagine.. playing games in mac🤡,3-7-2021,
166,No one has ever,styxischilling,,200 fps shortdust min-mid graphics settings. Air M1 8/16/512,2-7-2021,
167,18 pregnant and proud,18pregnantandproud,,But the M1 can play metro exodus from the mac app store smoothly 😅,2-7-2021,
168,...,kirebtw,,Macs arent even good for video and photo editing,1-7-2021,
169,Gv#$&,rxludricum,,can you recommend?,1-7-2021,
170,Sez,sezari_,,"Like my friend said, if u buy macs just for minecraft and roblox thats okay but if other games like sims or gta buy windows pc",1-7-2021,
171,🅒︎🅘︎🅡︎🅒︎🅛︎🅔︎,hhhhhhhhhhhhhhgq,,the pc that in the backround: 👁👄👁,1-7-2021,
172,User6969696969696969696969,tehultimatee,,What do I buy for gaming that’s cheap?,1-7-2021,
173,cuteboy123,cuteboy1391,,buy Asus rather?,1-7-2021,
174,Giovanni Belpiazza,lttstorecomiziohlls7,,Do not buy a Mac in general,30-6-2021,
175,TMT,trmituan,,As an electrical engineer. Dont buy MAC,30-6-2021,
176,Exor,exor2002,,"I used Mac and Macbook at the same time, installed Bootcamp after that and played League of Legends on Window 10 =))))))",30-6-2021,
177,Sátboi sì ting,khangdepzainhatquadat,,Welp I buy iMac for Roblox and mc lol. Is that ok?,30-6-2021,
178,Xx_ButterFinger69_xX,octohelmi,,*translated,30-6-2021,
179,Elias,raba.rabarbers.eliasw,,bUt aPPle iS sTiLL BetTeR🥴,30-6-2021,
180,verwijderd,verwijderdddd67677,,"macs.are.not.for.gaming.bc.no
gpu.",29-6-2021,
181,p,some_black_banana,,is it worth it to buy notebook to game (i have divorce parents so every week i move),29-6-2021,
182,skeptosus13,mc_pro13,,"bruh I have an m1 and I get 100 fps with motion blur😂
P. S Don come at me..",29-6-2021,
183,Noah Islam ☪️,flycat0329,,I am so mad because my dad bought me a Mac when I wanted win10...,29-6-2021,
184,Tassnass,tassnass2,,yeah people who buy macs prob got dropped when they where a baby or something,29-6-2021,
185,NephyMephy,nephymt,,Me crying with my radeon 5300 and drivers from 2019,29-6-2021,
186,Huy,huy.huyhuy,,I use magic mouse for playing 😂😂,29-6-2021,
187,callum!!!!!!!!!!!!!!!!!!!!!!!!,crumplybanjo,,Don’t buy Max’s,29-6-2021,
188,MrBlueMoustache,mrbluemoustache,,so that's why my mom wants to buy me a mac,29-6-2021,
189,Mateo 💻🖥️,matieltech,,and the Mac sistems doens't have DirectX,29-6-2021,
190,beepbop,johnson75163,,i buy mac for gaming and i have gaming rgp keyboard and run preety good,29-6-2021,
191,Bootiful Lilac,bootifullilac,,I just have a Mac because I don't play demanding games,29-6-2021,
192,The Lady Of Peace 😍😌,the.lady.of.peace,,idk it works for roblox,29-6-2021,
193,Γιάννης Αεκαρα,j_frag02,,me using a 2008 laptop with a P7350 and 4GB ram,29-6-2021,
194,NicShogun,djnicshogun,,Macdonalds,29-6-2021,
195,♥︎,rikioiogy,,"Guys, my computer wont open a tab, like the click on yhe icon and its on my screen but it looks like when u minimize it, i cant open it",29-6-2021,
196,Jason,js26017,,YEAH LIKE IMAGINE,29-6-2021,
197,hI tHeRe,lol_9095,,I'm playing Roblox witch is optimised. Minecraft witch is also. Fortnite 50 fps is enough,1-9-2021,
198,RealToastIsPog,realtoastispog,,Rip I got a MacBook just bc it was trendy but now I realise that it’s soo bad especially for gaming and creating content.Getting a pc for my bday,20-8-2021,
199,VINMARAK,vinmarak,,Mac Pro $50.000😂😎,20-8-2021,
200,milk,awhiteglassofmilk,,Just use the console to run windows,14-8-2021,
201,Bran.,www.bran.c0m,,Welp atleast Minecraft works,12-8-2021,
202,BenWeAreThere,benwearethere,,bro im using a mac 2014 for gaming and i get over 600 fps in minecraft so i dont complain lol,11-8-2021,
203,migchilett:),migchilet,,Who plays on mac,7-8-2021,
204,10royd,10royd,,True,1-8-2021,
205,amersem_,amersem_,,At least can play pubg right,27-7-2021,
206,ʟᴜᴄɪꜰᴇʀ,mollyshunshin,,"i got Lenovo legion 5, at least i can play light games 🥺",20-7-2021,
207,ChickenNoodleSoup,chickensnoodlessoups,,My MacBook Pro runs games pretty good,19-7-2021,
208,Derek,firepuebes,,I have a Mac and it runs mostly everything fine… it has trouble when I’m doing a lot though,14-7-2021,
209,Rational Commentor,rational_commentor,,how is it silly that an iphone can max out all graphics while the macs & macbooks has the complete opposite,14-7-2021,
210,Atlas,atlasgaming27,,I got a Mac and I’m using it for gaming but I will soon switch to pc,12-7-2021,
211,Saroj Parajuli,sarojparajuli_1,,laughs in radeon 64gb vega graphic,12-7-2021,
212,W.W,youroldchemistryteacher,,i get 400 FPS with a mac,11-7-2021,
213,Following back all moonions,jkosaaa,,are dells good,11-7-2021,
214,PencilPlays,pencilplays_,,I recently bought a Mac for gaming. It’s the best mousepad I’ve ever bought,11-7-2021,
215,Sancho,sancho3246,,Better buy dell or hp or asus my cousin have dell laptop about 1.5k $ Nvidia graphics card 4 gb 8gb ram 1tb ssd intel i5 10th gen 60 hz,11-7-2021,
216,Bashta ti,gaylol770,,Just buy a ps5 if you dont have any friend playing on pc if you have friends on pc buy a pc,11-7-2021,
217,m0m0_0,_m0m0._.0,,Ehh I have an iMac which I play with and study with too but I have windows on it with iOS,11-7-2021,
218,xRiinn,r.iinn,,i have a macbook pro from 2012 and im happy with it.,11-7-2021,
219,Andrea Valeri,im.v4leri07,,@filipposjokes tie mo come la metti,11-7-2021,
220,Sasha,kono_brando_da5,,DON'T BUY LAPTOP FOR GAMING,11-7-2021,
221,cicspy,cockyman8181,,im probably buying a asus tuf f15 it has i7 and 1660 ti so its ptetty good,10-7-2021,
222,EZ,ezonyt,,my friend plays Valorant on his mac with only 60 fps 😏,10-7-2021,
223,EpicSenna,ezrazijnofficiechick,,I have a macbook air m1 and i run minecraft at steady 90 fps but i have a 60 hertz screen😂,10-7-2021,
224,Bikkel Mart,the_dyslexic_dutch_duck,,Do u think pc had all the games in the biginning,10-7-2021,
225,𝑆𝑆.,turkishkurd,,I only play roblox and sims 4 on my mac,10-7-2021,
226,Tik Toker,ferikiaszemedkiloveti,,"Nvidia geforce now, google stadia, shadow",10-7-2021,
227,Choking hazard,makemyfypnormalplease,,I can’t afford a gaming pc so I use a MacBook Air of 2017 :(,10-7-2021,
228,Bjørn,bjorn.regel,,I have the same mic it’s the serien mini it’s so good,10-7-2021,
229,Rottencommunity,rottencommunity,,You would have to be the biggest dmbass to buy a mac for gaming,10-7-2021,
230,Daniel S.,daniels0287,,"it's isn't just emulate, it's more like the m1 goes in a abstract mode to get a performanc that is like a normal x86 processor 😬",10-7-2021,
231,Guillaume Lucas,guillaume20002,,Man cool video but : NOBODY HAS EVER BOUGHT A MACBOOK TO PLAY GAMES RIGHT ??,10-7-2021,
232,mid as f,homiesmid,,"As long as it has rust, minecraft, parallels and geforce now, its good",9-7-2021,
233,Dario,darioooooooooooooooooo,,Buy a mac for literally everything else,9-7-2021,
234,😽lara😽,laracarrot28,,but i mean…. sims 4 and minecraft will work on it right??,8-7-2021,
235,Saint,saintlucky07,,Mac users aren't gamers that's correct 😅,6-7-2021,
236,700 followers,40kping,,They can change ther Mac from iOS to Windows,5-7-2021,
237,P3reca,janp0pol,,"No that fine, it makes a good mouse pad (I saw it on tiktok)",5-7-2021,
238,Mr human,jaxson552,,I love my m1 MacBook and I play only planet coaster but don’t buy it for gaming but not for gaming it’s great,5-7-2021,
239,Trostovszky Csaba🇭🇺🇵🇱🏎️,csabaraikonen,,Computer is Computer. They wont run smoothley but have better graphic. That is basically the reason why you can buy Macs,5-7-2021,
240,Jensendeboy12,jensendeboy12,,Yea i mean i got 1 for my birthday wanted to game but too late now,5-7-2021,
241,b1acku,yngmuxx,,ma having my old 15 inch macbook pro form 2017 which have a 700fps in minecraft XDDDD,5-7-2021,
242,Joris Dalenberg,joris_dalenberg,,I got a Mac for my birthday and I use it for 25% for games and 75% for school but I’m saving up for a windows pc,5-7-2021,
243,Carel de Pont,mvr_van_dijk,,"I use my macbook for school, and sometimes play minecraft on 60fps",5-7-2021,
244,Bri,bri.rar,,"I play on my Mac, but not hardcore gaming, I use it mostly for music and video editing",5-7-2021,
245,comrade_doggo,comrade_doggo._,,I have a Windows pc and its from like 2011 or something it is loud,4-7-2021,
246,Calciium,calciium,,Get thinkpads instead.,4-7-2021,
247,Prince,povtiktokisgay,,But i saw a mac book with 16 gb ram and a gtx 10’s something,4-7-2021,
248,Jimmy Bernabe,fw.fnafjimmy,,You can’t play games on Mac windows.,4-7-2021,
249,drizzid.kiddo,drizzid.kiddo,,that's like saying you bought a spoon to cut pizza.,4-7-2021,
250,🇺🇸🇵🇱,rishredd0,,If you used a VM to use windows would the performance be a little bit better?,4-7-2021,
251,Oliver,oliverdaowl,,I use windows,4-7-2021,
252,Two guys kissing,two_guys_kissing,,Me... parents bought it for me and I dont have enough money to buy a pc,2-7-2021,
253,Alessandro,alessandroseligi,,I used to have a 16 inch MacBook with a 5600M GPU that runs games very well on windows. I hv to admit it’s not for gaming but it can game pretty well.,2-7-2021,
254,Kevin,laserphaser,,"my friend bought an Macbook for engineering, TL;DR lots of engineering apps doesn't run on MacOS.",1-7-2021,
255,King K,thejrk,,We can connect an egpu to make it btr rite??,1-7-2021,
256,Kio.,definitelynotakio_,,Reccomend me an good gaming laptop please,1-7-2021,
257,Matthew <3,mat4lifers,,Its fine if ur just running roblox-,1-7-2021,
258,Syler Ender,sylerender,,Imagine having a old Mac that somehow runs 200 mods on Minecraft,1-7-2021,
259,_Alexsp21,_alex_sp21,,Μαζευτειτε λιγο ολες οι αλεκοντιβες 💪💪πρασινιλες καχλες,30-6-2021,
260,♾,isakvalentinsen,,You don’t need to be a PC pro to know that macs not are for gaming,30-6-2021,
261,Kolenmeister,kolenmeister,,But with a Mac Pro,30-6-2021,
262,Ches,ches._.2,,Well he's laptop runs better and more fps than mine,30-6-2021,
263,meow,utilizabil,,Literally,30-6-2021,
264,rtiFiCial,rtificialxd,,But if it for editing or music producing then Macs is a good choice but for gaming nah,30-6-2021,
265,RoachTheGreat,roachthegreat,,This is why u should have Mac for work and windows for gaming,30-6-2021,
266,Benson Team,bensonteam2,,@frenchyfry33 what you saying?,30-6-2021,
267,Internet Explorer,colony387,,"Yeah true, the whole IOS ecosystem is for working purpose, like graphic design or something equivalent",29-6-2021,
268,🤨,userwx6uy8ispy,,Dont buy a mac at all imo,29-6-2021,
269,marcus,.twpo,,What about GeForce now,29-6-2021,
270,BevRandoms,bevrandoms,,The experienced one should have worn those glasses,29-6-2021,
271,Tyler,boulder.101,,Use Bootcamp,29-6-2021,
272,🆉🅴🆇🆃🅴🅰,zexteaa,,yeah,29-6-2021,
273,airiel⁹₉⁹,kraken_227,,ouo my video not on fyp,29-6-2021,
274,bnafisah_,bnafisah_,,what should i buy instead?,29-6-2021,
275,mcnky <3,ignmcnky,,I got it from my dad,29-6-2021,
276,iskandarnotfound,iskandar03._,,im using linux,29-6-2021,
277,Tik Toker,hguibr,,࿖,29-6-2021,
278,𝔇𝔞𝔳𝔦𝔡,mindikowski,,First: never heard somebody saying this but the fax is that M1 is the best chip for work and cutting,29-6-2021,
279,Eman,eman_the_juvefan,,I am still going to buy a MacBook,29-6-2021,
280,Ajeyy Qayl,ihateme0309,,Welp…i only have an 2011 mac which only run some games which most of them i can only run the game but not play them 😌,29-6-2021,
281,Jesse Sing180,paannnddddaaaa,,wow a pc pro,29-6-2021,
282,Baneinei Dimitrov,baneinei_dimitrov,,Me playing minecraft on a imac mid2010,29-6-2021,
283,Heisenberg,terkmal,,Can we buy for making games,29-6-2021,
284,Carlos,carmosi17,,You don’t seem very fun at parties,29-6-2021,
285,Nijer,theyenvymarg,,Wbt a acer or imac?,29-6-2021,
286,leif.orvis,leiforvis08,,I prefer the Mac software and I find it easier to use than windows but I use windows since I am a gamer.,29-6-2021,
287,Mr_Snas,mr_snas,,@epicgaemrissocool we both have macs lmao 👁 👄 👁,29-6-2021,
288,Laci🥸,iblacixii,,My asus laptop: minecraft 20-30 fps / my 2010 macbook pro: minecraft 60-150 fps😎,29-6-2021,
289,sajmonko,sajmonjesuper,,i bought and its sooo good i usually have like 300-400fps,29-6-2021,
290,Xander👽,xander_lol_,,bruh i have a lenovo laptop that runs 60fps smoothly but it sometimes go down cuz of overheats a lil,29-6-2021,
291,Aaron,aaronjriosl,,Lol tbh running crazy craft on it is all i needed,29-6-2021,
292,Cool guy,lgbtqsucks_5,,I have gaming setup,29-6-2021,
293,JustNotFunny,habibisgoon,,I have a Mac because my brother bought it for me,29-6-2021,
294,"Dora and 957,485 others",doratheexploiter,,macs are for creativity,10-7-2021,
295,Noob 666,noob6663,,Get a msi,30-6-2021,
296,Dark_humour_68,dark_humour_68,,I bought a mac for gaming best glide ever,29-6-2021,
297,Light ツ,.li.ght,,Yeah I think we all already knew this.,29-6-2021,
298,yeet,suckonmycam,,some people here really think gaming pc graphics come from the cpu😂,29-6-2021,
299,Iraqi kurd,iraqi_kurd0,,console is better than Mac,29-6-2021,
300,Mesho,meshal4214,,But the Mac book is a good mouse pad,29-6-2021,
301,leftenan_senduk,leftenan_senduk,,mac is not for gaming🤣,29-6-2021,
302,Wendy,wendy21709,,in my experience if I want to play video games I'd rather use a Windows PC while my Mac's better for office work cuz it's a lot more work oriented 😁,29-6-2021,
303,EnJj,3njj1,,"Macbooks for gaming is like blowing on ice cream to warm it up.
you might feel it it's working but it's definitely not",29-6-2021,
304,Alexandre Brunet,alexandrebrunet74,,Or buy a Mac for cloud gaming like I do 😏😁,29-6-2021,
305,ad,soneiia,,@3thxn12 @damsid @_joshsansom don't buy macs for gaming !!,29-6-2021,
306,🧋,ta3al_3ind.daddy,,Macbook game store : 🏜️,29-6-2021,
307,ArielLiew,no_named021,,by ROG for gaming but Mac for work,29-6-2021,
308,Juls & Friends,parallasseoperativo,,So we just need to wait for Xcloud... Hoping Apple won't remove it from the store like what has done with Epic 😂😂,29-6-2021,
309,Maple :),.hariboe,,"they make really good mousepads tho, glide is amazing",29-6-2021,
310,Team sage,viperboys_,,M1 mac fortnite high settings 70 fps,29-6-2021,
311,Carlos Pickardt,carlosbecker123,,I bought Acer Nitro 5 for gaming with rtx 3060 16gb ram and it 10th gen,29-8-2021,
312,Yavin Madurapperuma,endercraft_sl,,Can we make this to be downloaded coz my friend is like “MaCbOoK iS tHe BeSt GaMiNg LaPtOp”,8-8-2021,
313,Adlan Bogatyryov,adlanbogatyryov,,What if i wang to play xplane 11,25-7-2021,
314,PixarML51,devantval,,macs not for gaming but phones ipads are,12-7-2021,
315,Steven570,steven2300000,,and still I played Minecraft on a Mac for years,11-7-2021,
316,.,pro.killer84,,"If you were to replace the GPU and then download a virtualbox, It would be pretty good. But I would rather spend money on an actual windows setup.",11-7-2021,
317,Stav2,stav2_,,I am apple fan but like fr who but mac for gaming,11-7-2021,
318,Georg A,georg_androut,,the macbook is the best for gaming like try it as a mousepad,10-7-2021,
319,BKK,boboknockmans,,Use it as a mousepad,10-7-2021,
320,Goose,nexyea,,he obviously meant to use as a mouse pad!,10-7-2021,
321,ArtyDragony,artydragony,,"for some people saying that he doesnt know what hes saying, please. He's replying with actual stuff, and you can look it up do anything and still get",10-7-2021,
322,hiradaja,palanoitaliano,,Now is smt like geforce now so u can play games in ultra graphics with high Fps try it guys,5-7-2021,
323,CalistFitness,calistfitness,,"Apple really should make a Gaming MacBook/Mac series, it would bring them a big niche",4-7-2021,
324,Saul Goodman,skeittiboard,,I play gta sa on bootcamp with i3… runs on best settings because its old game but I like old game,4-7-2021,
325,Fbi,___.f.b.i.___,,I bet my laptop woth core i5 and 2.6 ghz is better then a macbook,4-7-2021,
326,Ramandika Project,ramandika_g,,"bro, it's confusing to differentiate ur characters, maybe wear different shirt next time, or different CC color",2-7-2021,
327,rhomber,rhomber,,"actually my gaming PC is a Mac, it's an i9 with 32gb ram and i use an egpu with bootcamp.. i can run pretty much anything in Ultra",1-7-2021,
328,Rusydi Didi,rusydidd24,,"dude nobody gaming on macbook ,macbook is for work if you gaming you should Asus gaming laptop",1-7-2021,
329,findcode8288,8288_searchcode,,*pavillon pc join the chat*,30-6-2021,
330,Nishant,absolutmelon,,"hear me out, cloud gaming",30-6-2021,
331,lucaswebdev,lucaswebdev,,what about Linux ?,30-6-2021,
332,Electric Atoms,electricatoms,,I buy it for ‘work’ 😏,30-6-2021,
333,.,osiechi_,,U can install windows on mac via bootcamp btw,29-6-2021,
334,user535108648978,xxx_thecheese_xxx,,I acctually do have a Mac and a gaming pc but before I got my pc I used to play on my Mac it worked quite well acctually I ran Java (Minecraft) at 70f,29-6-2021,
335,Fhdndgdjdndbbdfhjd,fjuduhdhdhd,,Macs are for studying and doing professional technology works,29-6-2021,
336,Beyoncé,beyoncesvocalcords,,Girl I use a MacBook Pro m1 for gaming. But all I do is roblox and Roblox studio so.. 😂,29-6-2021,
337,KISHEEN,kisheent,,@_jtmd_ show this to boboy,29-6-2021,
338,.,mhzq03,,i bought macbook for youtube,29-6-2021,
339,Todougame,todougame,,I use iMac to play Minecraft but I usually use it for photoshop,29-6-2021,
340,Man pochui,pisknachui,,you can get a windows / linux pc that is 10X better for the same price,29-6-2021,
341,Blanca :D,rollyz7,,mac is created for works and edit not for gaming,29-6-2021,
342,Sebi Nitu,sebinitu4,,But the smoothest mouse pad,29-6-2021,
343,racnas,evictilion,,my mom has a Mac i use it for gaming as a mouse pad,29-6-2021,
344,Siddhak Arora,siddhakarora,,I’m a getting Mac for work but a play a lot of Roblox now I’m concerned if it can even handle roblox,29-6-2021,
345,professional mouse clicker,videogamepianist,,I'm forced to game on MacBooks because my windows laptop is so weak,29-6-2021,
346,Andrei,andreibros,,If I would buy a laptop it would be a Lenovo for gaming,29-6-2021,
347,Simp and 1032 others,afatdora,,"yes, use mac when you need to edit or design some heavy graphics",29-6-2021,
348,serbian countryball,serbiancountryballreal,,"i use one for gaming...
as my mousepad",29-6-2021,
349,E,guylookinginyourwindow,,I have a windows with a Nadia GeForce mx150,29-6-2021,
350,Mr. Q,tiktok_mr.q,,You can set Windows on the Mac,29-6-2021,
351,Weeb Gamer,leumune,,who the duck even uses a Mac for gaming??,29-6-2021,
352,thatdutchgamerwastaken,thatdutchgamerwastaken,,Buy them as mousepads with extra's 😂,29-6-2021,
353,Jigen Daisuke,jigendaisuke,,macs pc as mouse board it can give you smoother table😂😂😂,29-6-2021,
354,StarGezax,stargezax_,,oo oh ok I'm pc noob :(,29-6-2021,
355,balls,baconinged,,yo the caption kinda sus,29-6-2021,
356,Smir margolis,snirmargolis54321,,,29-6-2021,
357,Phal Naruth708,minx456,,I use Msi Gaming laptop,29-6-2021,
358,Use virtual,benhur112399,,yes I play sven coop with Asus 8 ram laptop,29-6-2021,
359,Ehh910,ehh910,,"TO ALL MAC USERS.
You can say that the M1 is powerful.
But about 98% of the games dosent support mac.
So you can only play a handful of games and",10-7-2021,
360,arnasms,arnasms,,I saw m1 MacBook Air playing gta v through a virtual machine and it was not great but playable,29-6-2021,
361,wardog,bloodyslxng,,is it good for a macbook pro to be used on 3d modelling and other simillar stuff ?,5-7-2021,
362,KiraDeHond,kiradehond_,,I heave an Intel I5 MacBookPro with windows. If you try ti run a game it does work but it automatically switches on airplane mode. Lmao,4-7-2021,
363,Willow!!,psydummy,,"uhh, atleast it runs minecraft & discord & pixel worlds & steam & roblox smoothly",29-6-2021,
364,トビアス,tobias.tnf,,you can game on a mac...as long as you have really good internet and you are subbed to gfn or shadow any other cloud gaming service.,29-6-2021,
365,big hammer :) lol,justmebighamner,,i have great frames yk why because i am using a gaming lap top 🥺,29-6-2021,
366,Jason,jasongt95,,What do you mean MacBooks are insane for gaming. I use one as a mousepad. The aluminum makes my mouse glide like crazy,29-6-2021,
367,ivan :),naviortsac096,,"you can install windows on mac, apple officially supports win10 on mac",29-6-2021,
368,Xeno,xenofo,,digga sprich doch einfach deutsch man dein deutscher Akzent nervt so unnormal,13-8-2021,
369,moh<3,lilmohie,,"looking at the video:💀❌❌
looking at the shirt:✔️✔️💪",8-9-2021,
370,No,carbonat.erols_vater,,macbook pro without m1 chip i downloaded bootcamp and got normal graphs with 60 fps smoothly but sometimes they drop,8-9-2021,
371,shibe,xxx_shibe_xxx,,at least they can get fortnite,4-7-2021,
372,pixel,pix3l_,,hackintosh moment amirite 😏,2-7-2021,
373,PotatoE,warped_void,,YOU LIER macOS is the BEST for gaming just try it put it under ur mouse,29-6-2021,
374,diandre?,devqstation,,so does gforce still exist?,29-6-2021,
375,Tech Circuit/Kevin Hirschberg · Ersteller,tech_circuit,,Like if 1999 iBook is the best gaming machine of all time!,28-6-2021,
376,👑 ⱤØ฿฿łɆ,the_divine_retribution,,"Best Emulator for MAC AIR LAPTOP? (I want to play FOR HONOR, GOD IF WAR, and old NINTENDO GAMES) 🤔",31-3-2022,
377,🏎️Forza 5 🏎️,forza5hub.com,,Hay could you look at my new anime edit pls thx😁😮,4-7-2021,
378,Golden Melky,golden_melky,,"Where are all the comments?
︎
︎
︎
︎
︎
︎
︎
︎
︎
︎
︎
︎
︎
︎
︎
︎
︎
︎
︎
︎
︎
︎
︎
︎
︎
︎
︎
︎
︎
︎
pin this 😂",29-6-2021,
379,乃尺ㄩ卄,pzopz,,"Where are all the comments?
︎
︎
︎
︎
︎
︎
︎
︎
︎
︎
︎
︎
︎
︎
︎
︎
︎
︎
︎
︎
︎
︎
︎
︎
︎
︎
︎
︎
︎
︎
(pin this)",29-6-2021,
380,Anish Reddy,rewinddd101,,"Where are all the comments?
︎
︎
︎
︎
︎
︎
︎
︎
︎
︎
︎
︎
︎
︎
︎
︎
︎
︎
︎
︎
︎
︎
︎
︎
︎
︎
︎
︎
︎
︎
(pin this)",29-6-2021,
381,basta,bastaayokonna,,"Where are all the comments?
︎
︎
︎
︎
︎
︎
︎
︎
︎
︎
︎
︎
︎
︎
︎
︎
︎
︎
︎
︎
︎
︎
︎
︎
︎
︎
︎
︎
︎
︎
︎
︎
︎
︎
︎
︎
︎
︎
︎pin this",29-6-2021,
382,.,notcoolkid1234,,"where are all the comments?
︎
︎
︎
︎
︎
︎
︎
︎
︎
︎
︎
︎
︎
︎
︎
︎
︎
︎
︎
︎
︎
︎
︎
︎
︎
︎
︎
︎
︎
︎
(pin this!)",29-6-2021,
383,Anton Andersen,snoppslukaren,,"Where are all the comments?
︎
︎
︎
︎
︎
︎
︎
︎
︎
︎
︎
︎
︎
︎
︎
︎
︎
︎
︎
︎
︎
︎
︎
︎
︎
︎
︎
︎
︎
(pin this)",10-7-2021,
384,https://discord.gg/bDgkUmJZ,growlance,,"where are all the comments?
︎
︎
︎
︎
︎
︎
︎
︎
︎
︎
︎
︎
︎
︎
︎
︎
︎
︎
︎
︎
︎
︎
︎
︎
︎
︎
︎
︎
︎
︎
(pin this)",1-7-2021,
385,.,hukllih,,"Where are all the comments?
︎
︎
︎
︎
︎
︎
︎
︎
︎
︎
︎
︎
︎
︎
︎
︎
︎
︎
︎
︎
︎
︎
︎
︎
︎
︎
︎
︎
︎
︎",29-6-2021,
386,LeafCarlisle,clemtigers4life,,"Where are all the comments?
︎
︎
︎
︎
︎
︎
︎
︎
︎
︎
︎
︎
︎
︎
︎
︎
︎
︎
︎
︎
︎
︎
︎
︎
︎
︎
︎
︎
︎
︎
(pin this lol)",29-6-2021,
387,Taran🌂,they.luv_taran,,M1 max,12-4-2022,
388,San Pendro,user7831801209530,,im playing y8,8-8-2021,
389,Ashi 啊是,abcdefghijklmnopqrstu._4,,MacBook?!? I guess iMac is better.,8-8-2021,
390,sashiv naicker,__iamshiv,,What is the best gaming laptop,8-8-2021,
391,sashiv naicker,__iamshiv,,Wow thanks,8-8-2021,
392,🫂,asheuchinaga,,It's late. i already bought it and broke it😏,8-8-2021,
393,,asrhiell,,me gaming on linux arch,12-7-2021,
394,Wali Zaraf,walizaraf,,Emulation works neat on Mac for older games consoles. Look up OpenEmu,23-7-2021,
395,maartenseip,maartenseip,,My friend kust did that,29-6-2021,
396,Nabeel,itznabeel_,,people who buy MacBooks for gaming are just dumb,7-7-2021,
397,im trying to get banned,ban.speedrun.any.per,,YES EXACTLEY THEY ARE SHIT buy linux instead 👌🌞,15-8-2021,
398,Jason,jason081228,,I don’t like this video,12-7-2021,
399,Elijah Pee,barbiepeee,,half of these are false. get your facts right,11-7-2021,
400,FedeG_Toto,fedeg_toto,,ARM for high performance gaming is just stupid. No support for things such as HDR rendering (it's used for effects like bloom) or ACES color grading,5-7-2021,
401,Haiden Teale,haidentealeyeet,,no shit sherlock,4-7-2021,
402,Boba,boba...just_boba.exe,,"PC noob
What a noob",29-6-2021,
403,ha8er1,ha8er1,,Who tf buy Macbook for gaming?,29-6-2021,
404,zerp,zerp_blbec,,pro Is actualy noob,29-6-2021,
405,Daniel Marchant,danielmarchant7,,"Whatever performance m1 has (i have one) still sucks for gaming, mainly bc there are so few games it is not worth it FOR gaming. Das why i have xbox",29-6-2021,
406,Col,baiaur,,These comments are stupid but the biggest mistake is arguing with people it won’t change their mind,29-6-2021,
407,Home Depot,n0obm4st3r,,when you get a crappy 2013 samsung laptop with windows 7 and still have a stronger graphics card than the newest mac 😐,29-6-2021,
408,Nexo rider17,nexorider,,"Or as i like to call mac books
Extremeley expensive Laptop PC
Because its the same as any other laptops only diffrence is the bloody price",5-7-2021,
409,Yo what up,toominator05,,"The m1 chip is so overrated also: the cooling system is ass along with you only get like, 16gigs on 2444MhZ",29-6-2021,
410,Eron,eronkryeziu59,,mac is like over 1k and if you buy a 1k pc it will have 32 gb ram 3060 glass case and the fans and other stuff with lights like never buy a mac bruh,11-7-2021,
411,😎,hueyfps,,Don’t buy macs in general lmao 😂,29-6-2021,
412,Isma,isma070295,,don't buy Macs at all 🤣🤣🤣,9-9-2021,
413,Timon Kopac,timteamio,,Do i see a mac? 😳,8-9-2021,
414,Kristiyan,kriskatabro,,"Wait, there are people on this planet who are buying macs for gaming?",8-9-2021,
415,a,notilia,,Buy mac for editing and rendering instead,8-9-2021,
416,Abílio -Silva,abilioapolosilva,,Macs for work,18-7-2021,
417,Dneail,dneail,,Shut up.,4-7-2021,
418,owen,owen987643,,"just don’t buy macs, end of",1-7-2021,
419,samy2555,samy25255,,Nerd,29-6-2021,
420,Noah,noahh.80,,lmao laptops for gaming are bad,29-6-2021,
421,fraevero,chonsassoneascarpa,,don't buy macs...,29-6-2021,
422,the real one,dom_toretto_family111,,This guy really thinks that people buy macs for gaming 💀,29-6-2021,
423,Treat. 👤,treat_69,,"lemme save you bro, find a windows boot camp tutoirals. So you can get WINDOWS IN YOUR MAX 😁",29-6-2021,
424,That one man,thangminh23,,Tbh macbooks are garbage until the M1 came and I regret buying one before M1,23-9-2021,
425,nihalol,piyonyoki,,It’s 2021 and I swear if I ever find another idiot who thinks Mac can play games ima smack the fuck out of em,20-9-2021,
426,Busterooni,im_kaspy,,macs are the best for work windows is the best for gaming and get the fuck out of here with that linus laptop bullshit,8-9-2021,
427,Thomas Stiby,thomasstiby6,,what about plugging in an external GPU via thunderbolt???,8-9-2021,
428,ムンキエPlaysᴴᴰ,munkieplays,,"My guy said only 50% fps left lol, that's false",8-9-2021,
429,Henrywino,henrywino,,Dude guys I found a iMac for 5000 dollar dude. U can literally get a overkill computer with 2000 dollar,8-9-2021,
430,Chrisreb06,chrisreb06,,Unsless u want to use it as a mousepad😁,8-9-2021,
431,㋡,spoodaman_,,bro no body buys them for money people just cant afford a pc like me so my dad gave me a mac from hes work i use bootcamp and get around 180 fps in cs,8-9-2021,
432,Hansy,hansyxr,,Imagine using auto tune for when ur just talking,8-9-2021,
433,<3,milaa_costta,,I have a mac but i recieved it and i play in it so yoeah its not that good,8-9-2021,
434,NoTiresDrifter,tudor.bota,,"My M1 Pro is capable enough, but a lot of the games aren’t supported on any mac, soooooo, if you only buy it for gaming get a windows",8-9-2021,
435,MamboSteve,mambosteve,,"Rosetta is not emulation, it’s transpiling, which is actually not that hard on performance.",8-9-2021,
436,user7797992940676,hugh_w0,,what CPU shall I pair a 3070 with,4-7-2021,
437,Alex,alex.corden,,my mate bought a mac instead of building a pc even when I offered to build it for him,4-7-2021,
438,Vojtěch Svoboda8567,vojta_s1,,what GB ram has a mac book,3-7-2021,
439,nathan,lildrummyboi,,"eventho u has tons of money but when u buy macs even the 4grand 16"", dude ur ruining it. trust me dont play games on ur mac,",2-7-2021,
440,CariTTM,carittm,,"Do u think, we rich people care??? Do u think a 300k bag for a woman is to put their pad?",2-7-2021,
441,MyUsernamesLuke,myusernamesluke,,I use a Mac m1 for gaming I use crossover and I can use Microsoft flight sim at 30fps an 1080p,30-6-2021,
442,Isyraff,theisyraffian,,"Macbook M1 has good performance, but it has some issues, not much game compiled for ARM, no bootcamp support for Win on Mac and srsly, mac is for work",30-6-2021,
443,TheGoldenHecker,thegoldenhecker,,you don't need a emu cause u can use bootcamp,30-6-2021,
444,amidosy,ahmed123opgamer4,,U can use them as a mouse pad sheeeeeeeeeesh,29-6-2021,
445,Elyssa-Fion,21azile269,,I have an M1 mbp and it runs Minecraft on 400frames so I don’t know what you’re saying,29-6-2021,
446,Iliya Basyar,negromelayu,,Damn i buy rog bit I don't know what games to play,29-6-2021,
447,registeredhypercam,registeredhypercam,,or buy a normal (x86) desktop mac lol... then again who the fuck would buy a mac pro for gaming?,11-7-2021,
448,mari,mariapus69,,I have the MacBook M1. Works perfect for streaming and everything. And i live at Two places so i can take it with me lol,10-7-2021,
449,Ben B,ben.jamin.brg,,In the end it all comes down to what kind of games you wanna play. I have been playing games on my MBP for years.no shooters tho…,10-7-2021,
450,Stfu stalker,oealk,,The please explain how do i get 120 fps locked on my m1 pro ?,5-7-2021,
451,Hello,aphotographer_m8,,"Yeah you’re saying that macs are bad for gaming, what is that monitor displaying?😳",5-7-2021,
452,Fistaszek782,staano,,I mean GPUs are powerful enough but OS scuffs in-game performance,5-7-2021,
453,Avid splinter 21,lethalbedpan,,Wow I missed that whilst I am playing all 3 tomb raider games on my m1 mini..,4-7-2021,
454,zander leslie,makzxe,,Macs trash,29-6-2021,
455,✞ The Handler ✞,whatadumbfuck,,Man this kid got a problem with Apple.,29-6-2021,
456,🏃🏻‍♀️✨,urmom_atee,,"I might be getting a M1 Macbook, most likely not for my broke ass, I enjoy searching the web and online shopping more, Gaming once in awhile.",29-6-2021,
457,hotdog soup,hotdogsoup.nl,,This story is only valid if you want to play FPS games with ultra high graphics settings. That’s about 1% of gamers.,29-6-2021,
458,Sanjay Kumar,sanjay_kumar2007,,"in my opinion, I have my own PS4 console so if you need a computer for working then Mac is good",29-6-2021,
459,User,user.4335633,,"You are wrong my dude, intel based macbook support egpu and windows. I have insalled windows 10 and gtx 1080 on my 13 inch macbook pro. It runs gta v",29-6-2021,
460,Alonsso,alonsso_js,,Actually the gpus in MacBook (at least Pro ones) are very decent. It's just games are not created for that platform or are poorly optimized.,29-6-2021,
461,Ryios,ryios99,,"games don't release on Mac cuz it costs too much, need to optimize for metal and compile to arm now... easier to just ignore 2% of your user base.",29-6-2021,
462,Za Butler,za_butler,,Me with my 6 year old PC that is laggy Af playing roblox and minecraft 😎,8-9-2021,
463,Ola,_tost_z_maslem_,,Im going to buy one for gaming 😙,20-6-2022,
464,Memes,._dailydoseofmemes._,,"I use an M1 Mac mini to play Csgo, krunker, Roblox and those games run very very well like krunker coming in at 700+fps at maxed out setting 😂",15-4-2022,
465,pato,pat0_ov,,@frabzi2,8-9-2021,
466,Jojxxlx,jojxxlx,,@theomraa,4-7-2021,
467,🎀,simperrrrrr,,@vqviaan,26-12-2021,
468,Oshiro,oshlros,,@nakamxto,9-9-2021,
469,William Lamberg,wimppulampertti,,@alexisacoo1kid,29-6-2021,
470,Hutao4life,whotao4life,,@tuanngocday,4-9-2021,
471,Andrei_robot2018,andrei_robot642,,@vladiro37,10-7-2021,
472,SEZERZ _899,sezerz_,,@ali_45555,30-6-2021,
473,suplex_jimmy,suplex_jimmy,,@suplex_elie,29-6-2021,
474,Mohammed,zeltox1,,@ersinontiktok,29-6-2021,
475,kys,.kurofr,,@t.tesss,29-6-2021,
476,S1cK0NYT,s1ckonyt,,@ur_prettiest_ex,29-6-2021,
477,un tipo scemo,tipotuttoscemo,,@Muzan Kibutsuji,29-6-2021,
478,Lukas,luggggas0,,Ich weiß ned wo das Problem ist🤔. Des Funktioniert super,29-6-2021,
479,Jacob,getgoodnooby,,@zathene_,29-6-2021,
480,Noah,noahisk,,@pietjegreen,29-6-2021,
481,Rafael,rafael_mp07,,@letilenah @mari.bufani__ @eu_claa,29-6-2021,
482,hazerz,spracherkennung,,bootcamp dank mir später.,29-6-2021,
483,mousstarios,mousstarios1020,,@stellacote3,29-6-2021,
