,Comment Number (ID),Nickname,User @,Comment Text,Time,Likes
1,Dinervc,dinervc,,The bad thing: No Jailbreaking.,28-3-2022,
2,Multy,mc.multy,,yeah but it costs more at the end of the day,28-3-2022,
3,Leon,leononthewii,,Google pixel already has this. Not only hardware but software subscriptions included too,29-3-2022,
4,Heinrich,waliey,,"Eh no, bro there are so much more things you need to consider",4-4-2022,
5,Eldar 🇺🇦🇹🇷,eldar_ukr0,,Yeah richtig gut und so für Umwelt. Und die Chips sind grad richtig verfügbar,4-4-2022,
6,repeatyx,einrandomtypohnename,,naja grundsätzlich denken doch eh Apple User das iPhone das beste ist und die würden nich wechseln,14-4-2022,
7,Pavelraul4 69420🇭🇺,pavelraul4.5,,I'm not changing my phone every year so in sticking with android,29-3-2022,
8,KD's.ashy.ankles,kd.s_ashy_ankles,,thats been a thing for years,28-3-2022,
9,Joe,dtc__ghost,,Would it be possible to just unsubscribe after receiving the phone then just subscribe again a bit before the new one release?,28-3-2022,
10,user3027792690457,kingaladdin777,,T-Mobile forever upgrade is exactly this…..,4-4-2022,
11,Leon_,lleonnn.0,,Das gibt es doch schon seit ewigkeiten,3-4-2022,
12,De Irlanda,de_irlanda,,I feel like Apple is just going to start releasing new iPhones at a slower pace if they go ahead with this subscription thing.,4-4-2022,
13,CaptainACE,captain.a.c.e,,This was already a thing,29-3-2022,
14,ThisIsDaniel,thisisdaniel5,,und anstatt 1000 Euro im Jahr für n neues iPhone 2000 Euro im Jahr lul,4-4-2022,
15,:),user4532174045161,,"Google also does this, they started it last year called Pixel Pass. You also get some extra services like YT Premium included with your plan.",2-4-2022,
16,Funkseen,funkseen,,If this happens people gonna be flexing a phone they dont own 😭 people already do with tmobile family plans 💀,28-3-2022,
17,.,5avesta,,Thats not going to work out for apple since noones going to buy old phones no more,4-4-2022,
18,AppleFan01,applefan0i,,I will never switch to an android,4-4-2022,
19,Aland,alandthegamer,,ye but if you break it,4-4-2022,
20,boitshepo.best,_boitshepo20055,,Genius Indeed I mean this is no surprise from a company like apple 😏,28-3-2022,
21,Fish sleep,sleepfish5,,I will pay to take photos?,28-3-2022,
22,Uknown,unkown_fr13,,If they did it would cost like $120 a month,4-4-2022,
23,Heston,ggfootballlegend,,Btw this is a thing already,4-4-2022,
24,Naveed😎,nvd_n,,im pretty sure the UK already has this,28-3-2022,
25,fusion,fusionspiro,,No!,4-4-2022,
26,Andre,weeandre,,me with a iphone 8p:😳you can switch phone？,4-4-2022,
27,Best Boi,bestcatboi,,Nah I prefer to use my phone as long as it's working.,4-4-2022,
28,Miles Travis,kidcastor,,Own nothing and be happy,4-4-2022,
29,guntrr._.sda,guntrr._.sda,,so … EE then,5-4-2022,
30,teo pena,teopenajudet,,that exists….,4-4-2022,
31,E dum,e_dum_,,Does that mean that i can subscribe like 2-3 months becore a release of the new iphone and i will get it for a lot cheaper price?,25-4-2022,
32,sammy,sammy_kingz,,bruh germany has this a long time ago,12-4-2022,
33,Tik Toker,user3ygluiltjk,,But I bet apple would not put as many iPhones out,8-4-2022,
34,Zoda_Shredder 🤠🔫,____riceking_____,,"Yeah but if this were real, Apple would release a new iPhone in 10 years",8-4-2022,
35,Teresa Ayoub,teresa_ayoub,,A even better plan is that you pay for no adds on games but not just across one game but all of them. You pay on the App Store so you have no more add,8-4-2022,
36,Leonardo Rayer,ntro_leonardo,,Samsung has already done this. A monthly fee that works out being cheaper than buying a the newest galaxy phone outright,7-4-2022,
37,tweekandcraig,proveyourhuman,,yeah it's called a contract phone,5-4-2022,
38,Dom,hevsufjenwidjenr,,"That already exists, Telus has my dad on a yearly plan for a new iPhone",5-4-2022,
39,DeadlyKitten,yourwayintothedarkweb,,I'm pretty sure 90% of apple users will switch to Android if not all at that point unless they have money to waste😂,5-4-2022,
40,Luis Heredia,luis_.heredia,,that allready exists doesn’t it? 😌,5-4-2022,
41,username,brody.houle,,yeah but that's double the payment per month because of your regular phone bill,5-4-2022,
42,Stroky,strokylol,,bro what if you dont pay does your phone despawn? 💀,5-4-2022,
43,Torrental TTV,torrentalttv,,Apple become an ISP would be even better,5-4-2022,
44,xxxtentaciondude2020,xxxtentaciondude2020,,You trying to get Apple to make more money,5-4-2022,
45,Tik Toker,hatepagehatepagetf,,isn't this just a phone plan,5-4-2022,
46,Zadeh,zadehbob,,I'm alright my andriod cameras basically a telescope so I'm fine,5-4-2022,
47,frisk,clernk,,costs only 3001 dollars a month,5-4-2022,
48,BuHu690,buhu690,,not gonna take iphone even of my life depended on this. all this power and nothing to do with it bc apple doesnt play ball with other tec developers,5-4-2022,
49,Nathan,nathanq190,,this is exactly what the phone operators do... it's called a monthly plan,4-4-2022,
50,ocorii,ocorii,,apple barely gets profit from that,4-4-2022,
51,dyf34odxeuee,dyf34odxeuee,,Yeah but you spend money every month and get one phone every 11 months,4-4-2022,
52,user1318673276723,fr0st__2,,only way Apple can make a profit is when the customer return the phone,4-4-2022,
53,🖤👁‍🗨🖤30m1les,30m1les,,Us Swiss people already doing that😁,4-4-2022,
54,jonny.ashcroft_on_IG,jonny.ashcroft_on_ig,,"What you’ve described there, ladies and gentlemen, is a monthly phone contract",4-4-2022,
55,Dean,deannelson22,,Samsung do it anyway,4-4-2022,
56,Asad Arshad,asadarshad,,It Already exist😅 just from third party,4-4-2022,
57,Brady,bradytx,,T-Mobile has been doing this for a while,4-4-2022,
58,ℋ 𝑒 𝓇 𝓈 <3,relapsedevolved,,They are slowly moving us together,4-4-2022,
59,Jack Dyer,jackdyeer,,"they have this, the iphone upgrade program",4-4-2022,
60,naruto.boy,naruto.boyy,,so like Fortnite crew,4-4-2022,
61,davidjsbuchanan,davidjsbuchanan,,Ain’t this a thing? Like phone contracts exist,4-4-2022,
62,asta,vlad.ag12,,100 pound a month so it accounts for the price😂,4-4-2022,
63,Mohamed,m.o.h.a.m.e.d.350,,look at this guy you will play at least 1000$ every year or 500$ 😂😂😂 if you want to use you phone 😂😂😂,4-4-2022,
64,Judenslayer,mrmagic03,,"It’s about September now, time to get the 2 month free trial lol 😂😂",4-4-2022,
65,Grant.15,grant.15,,Don’t give them ideas bro,4-4-2022,
66,trey_tbh96,trey_tbh96,,What dilemma is there for searching for a new iPhone when new versions R advertised constantly 😐😐,4-4-2022,
67,JayT,jay99901,,I do that with Verizon anyway :) only need to pay half of it and new one :),4-4-2022,
68,jack,hex____,,but apple needs more money bro,4-4-2022,
69,Oliver Voysey-Jen678,untitled_othflash28,,If it was like $10 a month then I’m down for that but any more then imma just buy my phone outright,4-4-2022,
70,Makai,unimprezave,,Me still using a Samsung note 4 from 2014 cause Samsung made phones that last 💀,4-4-2022,
71,You don't know my name,idonthatemyname,,Isn't this just prepaid financing?,4-4-2022,
72,Jackson Murray,jackson.murray7,,I like to own my belongings thanks,4-4-2022,
73,William Nguyen,williamnguyen02,,what if it’s crashed or damage :3,4-4-2022,
74,Lenny,lenny_idkkdj,,No bro that’s €600 every year,4-4-2022,
75,Homosapien...,dekusensei94,,"this is a thing already here in the UAE, one of the carriers, etisalat allow you to pay for a subscription that grants us a new phone every year.",4-4-2022,
76,Chara5438,charadreemurr5438,,They should still keep the normally buying the phone. What if it was a gift for someone going to college withiut much money ? A subscription is the la,4-4-2022,
77,Erm yeh,hlg_humes,,This is literally a phone contract that’s not sim only💀,4-4-2022,
78,Reservoir 🅥,twitter.staff,,"So you don't have it, just borrow it",4-4-2022,
79,Sussy baka,qdcax,,xiaomi always rules,4-4-2022,
80,𝑨𝒊𝒅𝒆𝒏🤍,aiden.stinson,,"They had this before, not sure if they do it anymore",4-4-2022,
81,HenrryTheArtist,wierd3username,,"ik but what if ur phone breaks, then you have to search for a new phone",4-4-2022,
82,stress,thierrybaudet_ismylover,,thwt will be 1036 euro a month sir,4-4-2022,
83,Gourob Mukherjee,berfs1,,"except when ur phone lasts several years after paying off, then ur not paying extra for owning it",4-4-2022,
84,.,ienvyryze,,You'd pay for the phone if you broke it aswell.,4-4-2022,
85,🚴Alleykatz🚳,meladam23,,they'll not switch. Till they broke😂,4-4-2022,
86,🏳️‍⚧️ Komoto,sometransmf,,Starting at £80 a month,4-4-2022,
87,.,vladddx1,,and what will happened to the old iphones?,4-4-2022,
88,E,aex_gamer,,Would be genius even for samsung.,4-4-2022,
89,bobofinn,jcbdtrrs,,in my country they already had this,4-4-2022,
90,iuqp,iuqu2,,Still using android it’s better,4-4-2022,
91,✞,user917076996432820,,this exists but not with the upgrade option,4-4-2022,
92,Dimitris Pagalos,mitzakosp,,maybe the upgrade could cost 1/3 the price of the latest iPhone,4-4-2022,
93,K_R_Y_S_T,kryst_ely,,so they remove charger but make people change a maybe perfectly fine iphone every year hmmm,4-4-2022,
94,Admist,admist.yt,,Who actually needs a new phone every year the average phone should last at least 5 years which many people aren’t doing lol,4-4-2022,
95,Octa ::),mwmwmwmwmwmwmwmmwmwwmwmw,,No.,4-4-2022,
96,𝙷𝚊𝚗𝚜🏳️‍🌈,thecookiedough,,Omy,23-4-2022,
97,😎Marcus😎,marcus.m.stien,,I have a iphone 11 i dont need a new one,4-4-2022,
98,Fk u tiktok,quitbctiktokisbad,,android started doing this ages ago💀,4-4-2022,
99,Cars-for-life 🇺🇸🇩🇪,live_life015,,They will never do it,4-4-2022,
100,.,gucciadlib0,,what if i dont pay? lmao,4-4-2022,
101,ParkerPi25,parkerpi25,,They already have this 😅,4-4-2022,
102,matthewjohn334,matthewjohn334,,mj it's call eliminating the competition😅😅😅😅😁😁😁😁😁😁😁😁😁😁😁😁😁😁😁😁😁😁😁😁😁😁😁😁😁😁😁😁,7-4-2022,
103,Luke Jennings,lukejennings44,,That’s a thing bro,5-4-2022,
104,BrokenFang,brokenfang,,Pretty sure it exists,4-4-2022,
105,,yung_s.l.a.v,,2k a year sir,4-4-2022,
106,Guesto,guesto15,,This plan exists,4-4-2022,
107,Jack Tyerman,tyermanjack,,I do that with EE,4-4-2022,
108,follow me and I'll follow you.,ryan125990,,@apple should do this,4-4-2022,
109,Maliky,itz_hanma,,jamal did it,4-4-2022,
110,Racin,racinmaniac,,Already do that,4-4-2022,
111,Silver.inc,silver_aerospace_,,Bro this exists,4-4-2022,
112,Waffles,happywaffles27,,And hm is this,4-4-2022,
113,niblone,niblone,,Thats genius,4-4-2022,
114,HighervibesDJ,neilmccallum,,That’s what phone contracts do 😅😂,4-4-2022,
115,Comrade belikov,americacountryball5,,My parents have that,4-4-2022,
116,SebIsNotReal,sebisntreal,,299/month,4-4-2022,
117,トビ,tobispamms,,they have that alredy,4-4-2022,
118,multiracial marcus,strawberryskunk,,t-mobile has this,4-4-2022,
119,😈,footballshoes,,April fools,4-4-2022,
120,Bored,ihearda999song,,Hell no,4-4-2022,
121,Kebabs,sheesh_kebabable,,But the price 😳😅,4-4-2022,
122,ashton,macint0sh,,thats a lease,4-4-2022,
123,Adam Janík,adamjanik97,,imagine not being able to use happymod,4-4-2022,
124,Mastered,mastered.1,,watch them not release a phone in 6 years and then come back with a slightly better one ( note: this aint hating its a joke),4-4-2022,
125,JamalxEblan,jamalxeblan,,I used my Samsung s9 since 2018. For the last year switched to iPhone 12. I gotta say it’s way better than Samsung,4-4-2022,
126,user810453,yeet_nade2,,"Guess what, we got this in uae, we have it in wristlet or du I think",4-4-2022,
127,Yuh,preachyuh,,"This is what everyone does in the Netherlands. We get a subscription (rent free) from a phone provider like t mobile, and pay the phone monthly",4-4-2022,
128,alex,cobratate_top_g,,But they wouldn't make as much money from new phones,4-4-2022,
129,Tato,tatwo_,,Pass,4-4-2022,
130,sam david,samdavidh,,"Bad for the environment, you wouldn't own anything, and just generally nope.",4-4-2022,
131,wiktor,wiktorrrr166,,how would they earn money if they gave the newest iphone for 40$,4-4-2022,
132,Kal4to,kal4to,,"yeah, genius... a phone that will barely last 5 drops to the ground and you replace it with even worse one is better than having a phone that can (1)",4-4-2022,
133,Der Typ der Züge mag,itz_felix_123,,THATS WHAT IT TAKES,4-4-2022,
134,bradley :),yourlocalclown305,,Basically “leasing”,4-4-2022,
135,Hugo. Ben...,hugben,,Samsung only have it,4-4-2022,
136,Tomasz Niemiec,diesertomasz,,It’s Grover.,4-4-2022,
137,Comedy Skits,dominomasters4,,so about apple wanting to save the planet 😂,4-4-2022,
138,Shaheem 🖤,shaheemmi,,Me: gets the trial,4-4-2022,
139,Martin Lukáč,martinacrt12,,A shop in my country literally does exactly this,4-4-2022,
140,Juanp 8409,juanp840925,,i use android because I like it i don't have to jailbreak to personalize the phone i don't care about the camera i have an Redmi note 7 from Xiaomi,4-4-2022,
141,Omar,futtybenz,,Have that in ksa,4-4-2022,
142,brittish airways fan,britishairwaysfan.co.uk,,android has this☠️,4-4-2022,
143,Sloopy man,ihaveagoodnamelmao,,samsung phone membership exists 💀,4-4-2022,
144,Edin,edins.tutorials,,wow apple invented a phone plan,29-5-2022,
145,lukakacua,lukakacua,,Jamaica,24-4-2022,
146,Mingus/Murglas 😃,vidde.2,,That’s a really good idea for the global warming,24-4-2022,
147,Montie🖤,that_boy_.montie,,This is a thing that's been going on for years but when Apple does it it's like some genius thing sent from heaven from the Lord himself 😒,24-4-2022,
148,youngdurp,youngdurpy,,but...android is also good 🥺👍,24-4-2022,
149,accepting creemy people,creemyboy,,it's on samsung,23-4-2022,
150,veitilino2,veitilino2,,My mom has this,23-4-2022,
151,Astrid,astrid.real,,how do I do a monthly apple subscription plz tell me 😁,23-4-2022,
152,We’re gaming in here.official,weregaminginhere,,No,23-4-2022,
153,Talented Person,gojo_shinato21,,ok if that so but when you wana upgrade you will need to upgarde the hardware first for the software to be uodated..answer that huh,23-4-2022,
154,Aaron.b (Han Ul Park),logical.b,,Why you always promoting apple? Sorry but just asking bc I only ever see you on my fyp talking about APPLE 🍎.,23-4-2022,
155,in Vis we trust,truly.visual,,this already happens in the uae,23-4-2022,
156,.,bmwkid_,,iphone after that not gonna realease new phone like in 2 years,23-4-2022,
157,Ｃｌｉｎｔｏｎ🇳🇬🔥,draxxiscrazyy,,"i would pick an Android over the iPhone 😂
it's just the camera😂😂",23-4-2022,
158,Name,anon_ota,,My guy AT&T does this,22-4-2022,
159,Naldo G,naldo_g5,,Yea but the pricing tho…,22-4-2022,
160,crystal,fortnite_is_godly09,,samsung had it before apple,22-4-2022,
161,liquid jake,bit.itch,,cope,22-4-2022,
162,Diondrick Zaandam,bigdrip622,,yes,22-4-2022,
163,Paolo Vianello,wen.pablo,,yes and all the Money of oldest phones?,22-4-2022,
164,LegendaryFootballclips,legendaryfootballclips13,,Apple already has this,22-4-2022,
165,Shredded_lettuce123,shredded_lettuce123,,that would be cool if I asked,22-4-2022,
166,shixaanali,shixaan_ali,,subscribe to what,22-4-2022,
167,Hayden 🇿🇦🏴󠁧󠁢󠁥󠁮󠁧󠁿,itzmehxyden,,That’s already a thing in the Uk 🇬🇧,22-4-2022,
168,Mohamed,xoastro,,yeah im sticking with android,22-4-2022,
169,t_husain_permall,t_husain_permall,,We have this in my country,21-4-2022,
170,Kristian,kristian5627,,"U pay ten times more than you should, and you have to pay a little bit to upgrade💀",20-4-2022,
171,Hi Beautiful Person 💖💖,doingwhatever.in.my.head,,It's not good bc they also say the latest the better the phone the more u gotta pay,19-4-2022,
172,Caspol,okormorupraise165,,Lol,19-4-2022,
173,Alex Hart.,alexhart232,,Don't joke.,13-4-2022,
174,imagine2109,imagine1706,,Apple already do it,12-4-2022,
175,notspecialguy,elpepeetesech2786584,,No apk’s?,12-4-2022,
176,Andrew.bayliss,andrew.bayliss,,apple can just make it more expensive each month and you can't do anything about it,11-4-2022,
177,Blazedpcs,blazedpcs,,What💀,10-4-2022,
178,trey youngg,young.trreeeey,,they have this,10-4-2022,
179,onninno,onninno,,i can aldready buy any phone from some websites that i can pay a little bit each month for 6 12 or 24 months,9-4-2022,
180,GracePlays,graceplays14,,Average capitalism from Apple once again,9-4-2022,
181,Didnt ask,usedusername2,,"40$ in 12 months is 480, way cheaper than buying a new phone that means much less profit 😐",9-4-2022,
182,adam,saucerbosser69,,iPhone is more supported android phones only get 3 years of android updates but iPhone get like 10,9-4-2022,
183,TikToker IYZY,anoymous03,,I’m sure they do this,8-4-2022,
184,SeNpAi,katanaarc,,bruh why is he always in my fyp💀,8-4-2022,
185,Denis🙂🔪,__hellobozo__,,Can't you just buy the subscription when a new iPhone launches?,8-4-2022,
186,Greek Countryball,greekcountyball1821,,so I will need to pay every month to use my iPhone,8-4-2022,
187,Daniel.H,danielhalevy2505,,why you put your mic on editing,8-4-2022,
188,Daniel.H,danielhalevy2505,,yes but buy mic,8-4-2022,
189,no_calorie_water,toaster.has.toes,,They already do this I think,8-4-2022,
190,The Verifier,the.verifier,,It’s is good for the costumer,8-4-2022,
191,SBC LEAKS,sbcleaks_fifa22,,this feature is in denmark,8-4-2022,
192,Memes,pong.ball.for.follow.bak,,That is already a thing(╬ﾟ◥益◤ﾟ),8-4-2022,
193,XX.___.GamerDudeXx,gamer.___.dude,,dude not hating but Samsung phones have so many features and some stuff you CNA play around with which is so cool but iPhones just look bland with,8-4-2022,
194,black lives matter,nightsky698,,people with iPhones just think there better than everyone,8-4-2022,
195,𝑴𝒆𝒕𝒓𝒊𝒄 𝑺𝒏𝒂𝒊𝒍,jjmellomaster7,,what about the tesla phone,8-4-2022,
196,Your mum,cash_youngg,,It exists already,8-4-2022,
197,Granite City lads,granitecitylads,,Getting worried that Samsung are better,8-4-2022,
198,oscargosio,oscargosio,,that's a think,8-4-2022,
199,Luffy,defense.rl,,It won’t work cause people would subscribe only like 1 month before the new phone comes out the after it comes out they unsubscribe till the next new,8-4-2022,
200,.Pezza.gaming,.pezza.gaming,,Android had been doing that for years💀 its called a plan,8-4-2022,
201,Juraj Ondovčík,juraj_ondovcik,,and when phone got damaged or stolen?,8-4-2022,
202,Crasho,crasho_gorilla,,thats how i got my phone😁,8-4-2022,
203,cat,marwan_abdou,,we already had this for a few years in dubai,8-4-2022,
204,Ronnie Rose,delfinaisfit,,That’s what I get,8-4-2022,
205,Josh,joshuagillett1,,Comment 1000,8-4-2022,
206,Go be a stripper😉,m4rkipl1er,,thats Denmark rn im pretty sure idk about yall 😂,8-4-2022,
207,am/vsp edit,sapph1re.am,,the subscription be like:50-100 dollars but for an upgrade 150,8-4-2022,
208,NUTTY_WUTTY,nutty_wutty,,but it would probably cost a bajillian dollars,8-4-2022,
209,Grant,grantvdw0,,I get a new phone every year 😂 I have a Samsung,8-4-2022,
210,I was having an internet break,squib.dripp,,fact: iphone is 100000000000x weaker than my phone,8-4-2022,
211,Krypter,krypto941,,I still get to buy permanent ones yeah?,8-4-2022,
212,Tony Rababy LLC,noobmaster69696969696969,,This exists at carriers,8-4-2022,
213,BOOMSHLAKAKA,historytok77,,this…exists?,8-4-2022,
214,chrispatullo,dentedchunck1,,bruh it would cost like 200 bucks a month,8-4-2022,
215,Ismaeel Khalid,ismaeelkhalid7,,I buy a new one every year anyway,8-4-2022,
216,carterspcs' boyfriend,mohitsundriyal11,,most sim plan providers in Australia have sim plans for this,8-4-2022,
217,mcwhip01,spackky_,,But then what if the subscription cost more then the phone itself after a certain time of not getting an upgrade,8-4-2022,
218,Person,brainlessboffin69,,There literally already are those,8-4-2022,
219,IT,it100000,,nop,8-4-2022,
220,Team Pawsome 🐾 🐾,oreothehavaneesedog,,-cough cough- leasing phones from your carrier,8-4-2022,
221,kezraa,k.ezraa,,you mean like a 12 month phone plan?,8-4-2022,
222,Mateus Maaskamp,flyymateus,,Carriers have this,8-4-2022,
223,Stan,stanthelad,,Telstra basically does this already,8-4-2022,
224,Ezyw_,ezyw_,,just cancel 😂,8-4-2022,
225,Ciko,ricopingvina,,samsung>,8-4-2022,
226,Lachlan,lachlansss,,This exists alr,7-4-2022,
227,no,kunoyth,,That's already a thing???,7-4-2022,
228,yeet20078,yeet20078,,That’s pretty exploitable all as well they can just get the subscription for just before the Sun comes out and well they will get it for free,7-4-2022,
229,NIGHTRAEL NIGHTRAEL,nightraelnightrael,,android is better,7-4-2022,
230,Damion,damionfunny,,They already have that,7-4-2022,
231,Samuel,xijinpings_fingernail,,who likes apple anyway,7-4-2022,
232,hi,peee_do_f_eye_el,,don't give em any ideas,7-4-2022,
233,Xir clash2,bapple._.sauce4,,"For only a low price of 1,000,000 dollars",7-4-2022,
234,Alexander,micheal_shumacher,,You get this in England this is normal,7-4-2022,
235,⚾️Jacob 🔥,jacobm_963,,They have this for apple already💀,7-4-2022,
236,Ghost,gh0st.fx,,If u live in uae… a company called du actually does that,7-4-2022,
237,Faruq Muhammed,faruquh,,how can I do the subscription please am Nigeria 🇳🇬?,7-4-2022,
238,Stanamarenko,stanamarenko,,"apple: Ok, you're hired!",6-4-2022,
239,Emperor,the_ruling_emperor,,Is my country the only one that has this😭💀,6-4-2022,
240,Daily_tray,daily_tray,,bro samsung does the same or it might just be my provider idk but I had a s7 edge and Verizon upgraded me to the s21 for free,6-4-2022,
241,StormsGhosted,stormsghosted,,How could the specs change,5-4-2022,
242,Jorge Perez,manopeluea103847465,,Why can’t i just get 10 subscriptions and sell the other phones,5-4-2022,
243,Dozer_got_rekt,dumbcheems,,it exists?!?,5-4-2022,
244,.,m1ntylol,,Causes so much waste tho,5-4-2022,
245,scott,foxxie16,,what's the point of it tho just get a phone and use it for how ever long than get a upgrade through your provider,5-4-2022,
246,Stupidkids346,stupidkids346,,they already did that,5-4-2022,
247,Seba,hi_its_seba,,Apple makes way more money of of just seeking stuff,5-4-2022,
248,Malcommerlyn,alsahirro,,but then you'd probably have to pay for new features,5-4-2022,
249,Akdkfifjf,ur_nans_a_queer,,We already have this,5-4-2022,
250,JP,jproc05,,this has been a thing since the start of phone carriers my dude 🤦‍♂️ever heard of phone contracts?,5-4-2022,
251,🚔ØFFIŒR👮‍♂️,oneplvs,,Samsung already did this 😂 just to trade in the old phone and get the newest,5-4-2022,
252,Shane Bennett,white_guy_shane,,This is already a thing. The iPhone upgrade program.,5-4-2022,
253,3x0t1c,jaxonhughes081,,the only thing is that that would be hell of expensive,5-4-2022,
254,Y,mayonnaise.man69,,thats literally my plan with my carrier and i got unlimited service,5-4-2022,
255,Tik Toker,leth1cal,,Bro you showed my exact phone,5-4-2022,
256,SahjStrikes7,sahjstrikes7,,if it doesn't cost extra I'm up for it,5-4-2022,
257,Marius Groth,mariusgroth,,"I work at Elgiganten here in Denmark, we already have this concept, it's called ""renew it*",5-4-2022,
258,Official ScrubPro,the.scrubpro,,Hi.,5-4-2022,
259,King,kingzmk,,The month I cost would be £50 I’m guessing,5-4-2022,
260,Remo,remoteteam177_,,with the amazing starting price of $599 per month,5-4-2022,
261,ɯҽɾɳҽɾ,hulipill,,"Unless someone like Steve Jobs leads Apple, not buying and iPhone ever. Poor innovation and serve a specific posh niche. ARM Macs are good, I own one.",5-4-2022,
262,James Gee,excrutiatable,,"Yes, but that's just another Adobe move.",5-4-2022,
263,child,da_boss2oo8,,samsung has done this before,5-4-2022,
264,.,userd8ftnuycoi,,Not a new idea. Carriers already do that.,5-4-2022,
265,Perez,anvil_special_forces,,Ehh I like Android better,5-4-2022,
266,sam,onlinenever,,didnt they do something similar to this but ended it??,5-4-2022,
267,dhiyaa saad,dhi360,,if u used it for 3years it would cost you more than buying it,5-4-2022,
268,Jared Jameson,jared.jameson,,Already a thing,5-4-2022,
269,TankHP,tankhp,,"My network provider already does this, not sure with iPhones tho, but it's an option to get a new phone every 1-2 years",5-4-2022,
270,🤑🤑🤑🤑=🌄🌅☀️🌡🏝,livsnyter_1,,we have that possibility allready in Norway but there is not a good deal and you never feel you own the phone....,5-4-2022,
271,YT,mister_man_himself,,i buy a new phone every 2 years,5-4-2022,
272,Nolan,nolan.is.epic,,still you have to waste more in the end and apple isn't really as good as android lmao,5-4-2022,
273,m,modiess,,No.,5-4-2022,
274,ethan,.ethanhopkins,,They have that at some mobile carriers I have it where I get the newest iPhone every year,4-4-2022,
275,TA Tech,ta__tech,,basically samsung upgrade program,4-4-2022,
276,IXI The Gamer,ixi_the_gamer,,"Their subscription: 500 dollars per year, 100 for charging block, 150 for wifi, 200 for mobile network, 10 for anything getting installed, 5 for photo",4-4-2022,
277,Doc_president,doc_president,,I’ll just do it 1say before a new iPhone launch,4-4-2022,
278,Possumbery,possumbery,,This is why I have samsung,4-4-2022,
279,Aryn🏳️‍⚧️,arynthereble,,Idc I'm keeping my androids,4-4-2022,
280,Michael,michaelg_06,,apple offers you a plan to get a new iphone every year,4-4-2022,
281,Lyle Rides Bmx,lyle.rides.bmx,,Basically leasing ur phone,4-4-2022,
282,Vulture🦅,deadshotgamer_,,That will be 2 million per year,4-4-2022,
283,Henry Bengtsson,henrybengtsson,,If they do that I will switch to Samsung,4-4-2022,
284,G,petoticat,,this exists already since years ago in mexico,4-4-2022,
285,MatHieu,maatthieuu,,Isn’t it what we do all the time ?,4-4-2022,
286,me,lennoxbat,,they already have this… apple upgrade program,4-4-2022,
287,Jay Mejia,jaymejia2,,apple: That would be 1k mai boii👁️👄👁️,4-4-2022,
288,Heisenberg,theheisenbergvarient,,the genius thing would be apple not doing this bc it would cost them a lot of money,4-4-2022,
289,Wannesia,wnsia,,300$ a month,4-4-2022,
290,Redzetsx,redzcxtx,,"iPhones get more explore or less every year making the price you monthly pay kor rot less, also loads and loads of phones will not be used since they",4-4-2022,
291,funny shit 123,mrperson122445,,ya smart,4-4-2022,
292,Buraz,thegrowerr,,Why would I leave my hybrid iphone se,4-4-2022,
293,Your mother,ihartmen,,No,4-4-2022,
294,Rampick,.rampick,,This exists,4-4-2022,
295,Roblox!,carllangf,,but this is what phone contracts are if a phone comes out in 2 years then you get a 2 year contract for the phone rn then get another one later..,4-4-2022,
296,hog rider,putinslefttoe5,,apple In 2081:the new iphone 69 has no camera no screen and no phone for £9876543578753213578864322367642135677543 and apple will get removed,4-4-2022,
297,JoshVader,joshvader66,,so before you just pay for a phone plan and now ever month you pay for that phone plan + Apple ever month sounds like fun,4-4-2022,
298,NmsIsCool,nmsiscool,,so people can pay even more for a sub par phone?,4-4-2022,
299,Debilniks,debilniks69420,,how about no,4-4-2022,
300,Jax Mac329,noitsnotjax,,how is this genius? where's the profit?,4-4-2022,
301,Karl Nicholls,karlnicholls7,,It’s called the apple upgrade programe been out years,4-4-2022,
302,ben,jan_17045,,samsung already have it calls leasing,4-4-2022,
303,tudor,tudorrg,,yeah but apple wouldn’t do this because “hype” of the iphone would dissolve due to everyone being able to have one,4-4-2022,
304,Tamer,tamer.halawi,,It is a thing for example with Rodger’s in Canada I do that,4-4-2022,
305,dan,dan___shaw,,this exists already bruh,4-4-2022,
306,uqyueu05,uqyueu05,,it’s to prevent self-repair since u technically do not own the phone,4-4-2022,
307,Foofe128,foofe128,,Isn’t this already out called the apple upgrade program,4-4-2022,
308,David,prod.david,,"The prob is if there’s sth wrong you’ll pay full price, the new iPhone subscription price would increase every year. It’s not a pro customer move",4-4-2022,
309,Metal gear is better than COD,moemilitaryfan__666,,Background sound: What it takes- NEFFEX,4-4-2022,
310,exotic ت,daboyabdullah,,But how would apple profits from thousands to a mere 15 dollars or something,4-4-2022,
311,James Dylan Darling,jamesdarling525,,that is the WORST thing ever. it's just so they can make more money off of you. i would rather own my phone,4-4-2022,
312,bruh5014,bruh5014,,At&t has this lol,4-4-2022,
313,.,not.panz,,tell this to them not us,4-4-2022,
314,Stephen,selliott92,,"people who would get the subscription, currently don't look for a new phone they just get the next iPhone",4-4-2022,
315,Ghost👻,ghost_00074,,"but this way, they'll be stuck paying for the phone forever",4-4-2022,
316,jrutkin01,jrutkin01,,Imagine paying 1000 dollars a month,4-4-2022,
317,Yer ma,bigmandublinbus,,That's called Bill pay. Expect you get mobile data with it.,4-4-2022,
318,Ballim,ballim__,,Already have this in South Africa just get your phone on contract,4-4-2022,
319,︎︎,marvel_aditonya,,but I'm buying a new iPhone for how it looks,4-4-2022,
320,L0STBergfred,lostbergfred,,Wenn da ne große Cloud mitdrin ist gerne,7-4-2022,
321,͏,coobafn,,"Geht lieber zum Festnetzanbieter und holt euch da ein Vertrag. 24 Monate Laufzeit, jeden Monat Datenvolumen und (1/2)",4-4-2022,
322,sappig_fruitsapje,dikke.reetkever,,just like renting a house. waste of money.,29-3-2022,
323,lys toxin <3,lys.toxin,,so they get the same phone every year? Splendid! 😁,5-4-2022,
324,jimnoltie,noltie2.0,,earth be like: 😭😬🤯,4-4-2022,
325,B0RED SEANPAI,b0r3d_senpai,,Uk people saying canceling the subscription is illegal but getting the benefits of it they should specify in the terms how long they need to subscribe,4-4-2022,
326,stanerkendrick,stanerkendrick,,how do you upgrade your camera?,14-4-2022,
327,nonya,its_easybro,,"or just be smart and wait at least 1 year or so for the price to go down , drastically, and then buy it , u can save a few hundred bucks this way",10-4-2022,
328,𝓒𝓪𝓶𝓮𝓻𝓸𝓷,hsshhshshdhshshdhdhkansh,,So if I subscribe and get the new iPhone then cancel my subscription do I only get to pay 50$ for the new iPhone,8-4-2022,
329,Cipa,cipa1011,,no because stealing it would be the easiest thing,4-4-2022,
330,markuss,it.isnt.a.perm,,So much more e-waste though,4-4-2022,
331,ADHD+monka.hair.line=ass.hair,ileened_over,,Bad idea what if you forgot to go incognito,4-4-2022,
332,The_Next99,the_next99,,Total collapse of western Zivilisation and the death of consumerism would be absolutely genius 😳,4-4-2022,
333,XOXO Maya & Yehuda Devir,xoxonft.io,,Oooo,4-4-2022,
334,eeeee,andree.eeee,,consumism,4-4-2022,
335,Intégralité,integralite,,Not ecological,4-4-2022,
336,Franco kruger,08kfx450r,,vodacom,22-4-2022,
337,civen69 💜,7lpj,,what if i break it?,22-4-2022,
338,taylor smith,taylorsmith626,,That’s horrible!! That’s just life long debt,22-4-2022,
339,Ugorji Christopher,ugorjichristopher,,why do you hate Android,19-4-2022,
340,flying-winnie,flying_winnie,,I hate Apple so,8-4-2022,
341,⠀ ⠀ ⠀ ⠀ ⠀ ⠀,l_azad_07,,I would pay it,7-4-2022,
342,zerodragonballfan,tailstfox22,,but then they would see apple sucks and get an android. what they should do is make good phones,7-4-2022,
343,fiys ss2 now 😩,itzjinsoul,,nah it will be stupid because i would just switch back,7-4-2022,
344,S. A.,s.angel.76,,Horrible idea for people that don’t want monthly payments. I’m sure many people would opt out. I keep my iPhones for 3-4 years before upgrading.,5-4-2022,
345,Prollynotju😎,lol.prollynoyju,,𝚌𝚛𝚘,5-4-2022,
346,Ascellerando,fabio_habio_85,,That’s a lot of e waste,4-4-2022,
347,Eder Romero,ederromero11,,DONT WE ALREADY PAY A YEARLY SUBSCRIPTION OF $999 EVERY YEAR FOR A NEW ONE,5-4-2022,
348,Гꋋꉓꃸꌥꋋꄘꌥ ꄘꌥꄘꌥꉓꉓꄘ꒐ꄘꌇꋋꄘꌇꋋꌇꄘꋋꄘꌇꉓꃸ,quandaledingle_lover365,,Hell no my parents ain’t that rich don’t do this @apple,5-4-2022,
349,Noahisvibin‼️,noahisvib1n,,You cant flex on your friends,4-4-2022,
350,TTots,ttotstvpersonal,,Dosen’t this all ready exist,4-4-2022,
351,Doge,dogecryptoofficial,,Take that money and buy doge!,4-4-2022,
352,Dommie,dommiesince2008,,@apple start taking notes 📝,23-4-2022,
353,Hello,ijokearoundyeet,,Already a thing,4-4-2022,
354,Addison,yosaahcf,,This is a thing 😂,4-4-2022,
355,^o^,vaseto_was_taken,,Smash,4-4-2022,
356,tkues1337,tkues1337,,199$ each month only 🤡🤡🤡,4-4-2022,
357,Riley Njau,riley.njau,,you are so cliché 😂,22-4-2022,
358,Robert Archer,archmadnesss,,Uhhhh….I’ve been doing this for like 5 years now. Lol. Everytime a new one comes out i send mine back and get the new one….And i get free apple care+,11-4-2022,
359,user7701601159629,derek.xxx,,Stoooooooop apple be like 🧐,8-4-2022,
360,Charlescrump_,charlescrump_,,It’s already a thing with carriers,5-4-2022,
361,Luna,jclown526,,@jesseningless my baby broke free 🥰,5-4-2022,
362,RogueDaFrodgie,roguedafrodgie,,I’m a furry,4-4-2022,
363,I follow back,lz._.quotes,,Yeh but hear me out.. You could just sell your old iphones and make like 1000’s of pounds so at the end of the day you would be making money 🤲,8-4-2022,
364,ScandinavianOpinion,scandinavianopinion,,it would be easier to stop a subsribtion,7-4-2022,
365,A-nu Kandola | ON REALTOR®,anukandola,,“You’ll own nothing and you’ll be happy” - WEF 👁,5-4-2022,
366,Caden Stock,cadenstock.mma,,"The subscription would also cost almost $200 a month, not including your monthly phone bill",4-4-2022,
367,omaksus696,omaksus696,,"Not everything Apple does is genius, da dickeating is crazy on here💀💀",4-4-2022,
368,user8569451515079,adambalteskard69,,In norway we have a subscription that you pay monthly and get a new phone every year. You can choose witch phone you want yourself.,4-4-2022,
369,Kristofferku,kristofferkudsk4453,,i don't wanna Play 1000 ponds every mouth,4-4-2022,
370,wx#5117,vw7e,,Price: $6969/mo,4-4-2022,
371,EXEMON,exem0n,,Ipay,4-4-2022,
372,your best friend,putarracooo,,for $100 a month? 😂,5-4-2022,
373,Oliver,oliveoil086,,Apple fanboy,4-4-2022,
374,Tik Toker,user670xuggx0a,,$120 a month lol,4-4-2022,
375,SHAY-BEE,sppuffyy,,I'm no sold on monthly subscription,27-4-2022,
376,Josi Catalino Oficial 🔒,luciojosi,,"But with paying the monthly subscription your practically paying for the new one , USE YOUR MIND PLS 💀",22-4-2022,
377,Farid,.retroy,,soak the customer for money=genius from apple,15-4-2022,
378,llllllllllllll,lllllllllllllllllllllell,,Monthly subscription for Apple: 999$,13-4-2022,
379,.,the_bathing_ape,,this literally happens if you are on a good mobile netwook,8-4-2022,
380,EAS Alarms,kalimba_guy1,,"Cost = $10,000",8-4-2022,
381,Johnny Trang,johnnytrang,,Carrier phone plan?,8-4-2022,
382,Durga Brar,durgabrar,,"*29,000$ a month*",5-4-2022,
383,wael_saad10,wael_saad10,,apple fanboy lol,5-4-2022,
384,William,williamharkleroad3,,yeah except iPhones suck,5-4-2022,
385,Abominatedsoul,abominatedsoul,,bros a full on apple fanboy. any company could do this,5-4-2022,
386,Prollynotju😎,lol.prollynoyju,,𝚌𝚛𝚘𝚙,5-4-2022,
387,quvie,qzvie,,guys they would just disable the iphone yall aint smart,5-4-2022,
388,Jordy 🌙,uhjordy,,"“Apple’s new pro subscription plan, you can get all this amazing features for just $299/month”",5-4-2022,
389,Drenmeme,drenmeme,,"Im paying 1k on the phone, plus the subscription ???",5-4-2022,
390,Wanda Stan,wandastan838,,"This would also cause more e-waste though, eliminating the planet",4-4-2022,
391,giugiux,george__227,,"Samsung?
l
V",4-4-2022,
392,Pak1ns,pak1ns,,Crazy i idea every month put the money that you would pay for the iphone subscription away in a spot and then when the new iphone comes out take it,4-4-2022,
393,𝓔𝓭𝔀𝓲𝓷,milkowatyy,,"But, you must buy Phone and buy subscribtion or Just subcribtion",4-4-2022,
394,garbiel,garbiel1479,,40 dolars for month soo 40*12=480 that's 480 dolars for year And normal android users have phone for 4 years So 480*4=1920 So better Is buying normal,4-4-2022,
395,Wade Crawford,.prince.charles,,This is a thing. iphone upgrade program anyone?,4-4-2022,
396,Parker Duthaler,pduthaler,,I’m pretty sure it’s already a thing,5-4-2022,
397,GrassGas&Diesel,gasgrassanddiesel,,"They already have that, at some carriers",5-4-2022,
398,GuraG,gurra753976,,I already got this with a Swedish company. (It’s iPhone),4-4-2022,
399,🚀,reeeebyyyy,,"Apple already has this, called iPhone upgrade program, its been out for the last 5 years",4-4-2022,
400,Luis Lara,luislara734,,Not genius. At&T already does that for $5 a month,4-4-2022,
401,Hannah,hannah_banana1325,,"Google has a pixel pass, with a lot of other subscriptions included like YouTube premium and such, but you only get a phone upgrade every 2 years",4-4-2022,
402,DAFAWK,dafawk,,essentially it's a contract service that already exists thru all major carriers. once again Apple late to the party.,4-4-2022,
403,King,kingwastaken_,,"The problem is, that apple also wants money (can’t blame em) and in doing that people are only gonna get the extension on September and after the 1/?",4-4-2022,
404,Me,scrollllli,,No,5-4-2022,
405,angus baier,angusisoncracklol,,this already exists,4-4-2022,
406,joebyren,wowverycoolvideos,,"I'm good bro, it's got its pros, but it's got its cons too.",4-4-2022,
407,Adam,shum_420ttv,,"I've been using my samsung galaxy grand prime for a few years, then Meizu M6 for another 3 years and now Im on Redmi Note 9...",19-4-2022,
408,devin,devisevib,,"they’ve had this for years. it was called the “iPhone Forever” program, bows it’s the “iPhone upgrade program”. it launched with the iPhone 6.",9-4-2022,
409,pj,pj_6789,,it would be like 1000 dollars a month tho,5-4-2022,
410,Carlos Salazar,bigboof6996,,isn't this already a thing,4-4-2022,
411,♌️,k24z7si,,Isn’t that pretty much already a thing with multiple phone Carriers?,4-4-2022,
412,local,localr34,,then you could steal the phone lol,5-4-2022,
413,TreMayne Hardwick,datcottonpicker,,"No that sucks, there’s no need to upgrade every year",4-4-2022,
414,LazrRayzr,lazrrayzr,,My sister does this under T-mobile. I bought a 12 and am going to stick with in until it breaks or becomes absolutely obsolete like my old iPod touch,5-4-2022,
415,L o n e <3,lonearch,,What if you run out of money? Do they just take your phone away?,5-4-2022,
416,ok,fortnitemonkeyxx,,"they already have something like this, it’s called the iphone upgrade program",4-4-2022,
417,Red Dwarf,rigidyardvark,,Apple already tried a subscription. I think It ended because if you broke your phone you had to pay for the repairs before getting the new phone.,4-4-2022,
418,Tre Tucci,tbird2001_,,Please Apple do not do this or if you do it at least have an option where people don’t have to do it and they can still buy and have iPhones,8-4-2022,
419,ThatLazyGamer,thatlazygamer_,,Nah I’m good with my IPhone 11,5-4-2022,
420,Raffie,raffie.unofficial,,Guess what it’s already a thing but longer term!!! 🤯,8-4-2022,
421,maxie 🌊,toykosxkies,,This exists and you get the newest phone every time you finish paying off ur old one,5-4-2022,
422,yes,sexy_pierogi,,yeah but before a new phone launches you can just buy it one month before,4-4-2022,
423,Ｃ４ｒＤｏＳｏ,henriquemglcardoso,,And then they drop a phone every 2/3 years 😂,4-4-2022,
424,minus iq association,ireallylovethecoop,,@freya..matthews this exists,4-4-2022,
425,Nikita Yudin,.n...y,,This already exists.,4-4-2022,
426,Michael,michael_alg7aw1,,Guys is it available?😅,4-4-2022,
427,Kakashi,eli_p62,,That's just a waste of money and to think how expensive Apple products are! 😂,23-4-2022,
428,Hlehle💕🌸,lulu_style,,It is called Vodacom in South Africa 🇿🇦😏,22-4-2022,
429,kaitlin x,_kaitlinbessant_,,@t.aneishaa @maddi x please no,22-4-2022,
430,user8341916071889,123gregg456,,or just keep the phone for longer than a year,22-4-2022,
431,Fodor Cosmin,zoophiles_arent_valid_,,They would think about switching to an android beacouse android better,22-4-2022,
432,Max😎,maxi_stabes,,U can alr do that on contract,22-4-2022,
433,Omura,omuraxd,,SAMSUNG ALREADY DO THIS!,15-4-2022,
434,Trey is cute,charlie_ear,,What happens to all the old ones,9-4-2022,
435,Quinn,quinnfja,,this is just pixel pass.,8-4-2022,
436,Jeevan_Singh_Marwaha,jsmtiktoks,,this already exists 💀,8-4-2022,
437,El_pana_mini_pekaxd,el_pana_mini_pekaxd1,,Nooooo,8-4-2022,
438,🗿,jai_buchanan,,That would be like 5k per month lmao,8-4-2022,
439,Dance lol,stankkbutterfly,,I would just switch to android,5-4-2022,
440,Papas con limon,santyney1,,Samsung has something idk if apple has (pls tell me) But u can trade ur samsung phone to remove cost of the price,4-4-2022,
441,🌹,maramhala,,There is pro and pro max and the regular how would they decide !,4-4-2022,
442,Lukas,bullfrog_the_dog,,Iphone would never do this bc its a big loss of money,4-4-2022,
443,ok,akselfredheim.priv,,people really think apple wouldnt disable the whole phone if you dont pay?,4-4-2022,
444,Idek,mckdoug,,That’s callled a phone contract genius,4-4-2022,
445,Teagan🇨🇦⚽️🏈🏃‍♂️,imagod245,,Yeah but what you’re gonna cost $1000 a month,8-4-2022,
446,Hidil Abdulai,ironboyguyguygh,,Then they will be dropping 5 years intervals,4-4-2022,
447,VenjoyBg47,venjoybg47,,Android-->iPhone in every way,23-4-2022,
448,.,hariijjs,,We have this in our country alrdy 😂😂,4-4-2022,
449,Nothing,relax6666,,😐,4-4-2022,
450,Ibrahim Tariq,ibr45im,,This has been out for ages,5-4-2022,
451,Morgan K,mor.gan_236,,Or just come to the UK where that has been out for years..,4-4-2022,
452,Destilian,destilian2,,people doesn't realize how this is a big scam and the problems that have,4-4-2022,
453,mylifeisacarcrash,mylifeisacarcrash,,how is it different from the existing thing that exists??,4-4-2022,
454,M A P 🇮🇹💫,muneymap,,"this isn't genius, it costs the company more and more work for the company.",4-4-2022,
455,leo-jun,leojunll,,"so you can just subscribe and after the first month, you unsubscribe and keep the phone ??",4-4-2022,
456,Reed,reed_skinner2,,@apple,5-4-2022,
457,Ryan Ratpanhya,master_ryan101,,@apple,5-4-2022,
458,Il pro Rosso,ilprorosso,,@apple,4-4-2022,
459,That one sloof,sloofy42,,@apple,4-4-2022,
460,keita 😋,ke1ta00,,@popcorn_malaria @flunkett,4-4-2022,
461,xkgTM,xkgtm,,bruh,4-4-2022,
462,era of tomorrow,gofy1212,,@ksi.jpeg @haiboko,4-4-2022,
463,pricey,pricey_boi_,,that already exists mate,4-4-2022,
464,RDR2 edits,jesse_dolan101,,This is technically just renting phones then because I'd assume u would have to send it back after u receive the new one but if not fair enough,4-4-2022,
465,🐉,not.bofa,,@apple,23-4-2022,
466,Yomar 0131,yomar0131,,@apple,22-4-2022,
467,𝕽𝖆𝖓𝖉𝖔𝖒,w3dcho07,,@simpson624,11-4-2022,
468,Potato,hot._.p0tato,,POV:you live in Norway and this has been a thing for years😂😂😂😂😂,8-4-2022,
469,logan fox ;),lewshoxlgbt,,already exists in the form of contracts so,8-4-2022,
470,Isaac_smith:),isaac_smith11,,@apple,8-4-2022,
471,i dump your ahh 😻😎,.grxcesmulti,,ur not wrong tho brother,8-4-2022,
472,Asadmughal244,a1x786,,@apple,8-4-2022,
473,{_._ØgKiñg_._},_._ogking_._,,byt uf it gets damage,8-4-2022,
474,ChMo😈,ch_mo8,,"yeah yeah, environmentally friendly",7-4-2022,
475,theodent2009,theodent2009,,@apple,5-4-2022,
476,Your fav Edgar,you_cantfind_alex,,@apple,5-4-2022,
477,Hyyfin,hyyfin0,,Don’t data providers already do this?,5-4-2022,
478,Abel,abeltk4,,Its called a lease. What ur major bruh,4-4-2022,
479,I follow back;),2003bmwe46330ci,,Uk already has this u get a contract for a sim with a phone u get the phone(you can keep your old phone aswell) after 3 years of having your new phone,4-4-2022,
480,Łukasz Games,lukaszgames1432,,😳,4-4-2022,
481,Envi,i_like_trees23,,"Lmao in my country you can basically do this, you can buy an iPhone on contract as cheap as $20 p/m and after every 2 years when your contract expires",4-4-2022,
482,P𝔞𝔦n hub,aiden.diam0nd.spam,,@apple,5-4-2022,
483,Madde pettersson,maddexz,,@apple,4-4-2022,
484,ShortysNL,perripoison,,Und die Umwelt wird sich freuen,6-4-2022,
485,jokerjan :),j0kerjan,,Die Umwelt dankt,4-4-2022,
486,Simon😄,officialstromi2204,,imagine need a new phone every year,28-3-2022,
487,Ahmed,_ahmedheshmat,,Just no,4-4-2022,
488,.,checkerc,,"1. pay one month
2. get iPhone
3. cancel subscription",29-3-2022,
489,notme,get.mad.kid.cause.ur.bad,,iPhone sucks Android better,8-4-2022,
490,janousektomasek,janousektomasek,,nice but Apple sucks even my daum Normal Xiaomi Redmi is enough some times small lag but its ok im not spoiled😏,7-4-2022,
491,eziFte edits,ezifte,,android is still better,5-4-2022,
492,ss,t_5u96,,android is much better,5-4-2022,
493,Shatterbyte,shatterbyte,,lol imagine getting a dumb I phone poor people,23-4-2022,
494,el folarto,fulixarto,,CONSUME!!!!,4-4-2022,
495,Elias,eliaserbest69,,@apple,4-4-2022,
496,adan,lateregister,,what if i stop payibg they cant do sh☠️t,4-4-2022,
497,😳,armor_pack,,Great for environment,4-4-2022,
498,WT Player,mmm.bselevii.fi,,no get Samsung u could get one in 6months,4-4-2022,
499,𝑀𝑎𝑙𝑖𝑘🐍,mxlik_861,,But android suck so it is not bad 😅,4-4-2022,
500,jerome,jerome___1,,"what's the amount you pay monthly?,",4-4-2022,
501,Chris,defnotrealguy,,"yeah but like for 30,000 Bucks",4-4-2022,
502,I deserve it,364.50,,Pixel pass exists,4-4-2022,
503,F L O W,otxflow,,The bad thing : new phone every 5 years,4-4-2022,
504,James,.james.kelly,,It does exist,4-4-2022,
505,yuqin he939,unknownuser19918lin,,Apple……..,4-4-2022,
506,Shadow_guy,joyboy179,,what if it breaks 😳,4-4-2022,
507,,filippas2004,,This is just a no,4-4-2022,
508,Pablo,pablo__69420,,I dont know if americans have this but here in europe you can pay a phone of every month,4-4-2022,
509,dawg,qurbanonthebeat,,@albanianguy383 @harder0.0,4-4-2022,
510,maybe 7w7,notab3an,,"""it's not that bad of an idea""
the idea:",4-4-2022,
511,I will analyze,kowalski_analysis28,,"40$ a month (480 yearly) to make an iPhone it cost am average of 570$ which means they lose a bunch also, you could subscribe before launch and 1/2",4-4-2022,
512,#1 Stewie Griffin Fanpage,gym_stewie,,That’s going to be a monopoly technique for Apple,4-4-2022,
513,(((Nobody))),jacob.sahyouni,,I’ve only ever had iPhone but like started with a 4S then upgraded to 6S then got an 8+ and now have an XS Max.,4-4-2022,
514,seyastienmihaly,seyastienmihaly,,How much it is,3-4-2022,
515,mauricjuhhh,mautjuhh123,,Apple is crap lol,3-4-2022,
516,Ferdi,verdandi_beats,,environment 📉📉📉,3-4-2022,
517,некеь 🇺🇦🇱🇹,qwoolxd,,you will own nothing and you will be happy,3-4-2022,
518,Grant3Dz,designsbygrant3dz_tc,,Nah I’m good I like looking at other options,3-4-2022,
519,Donkeysmp,funnyguylol57,,It’s called data,3-4-2022,
520,The Meatball Guy,thetreemanboi,,What if Apple changes the launches to every fifth year. 😅,3-4-2022,
521,Fuchsi_Arzeus,fuchsi_arzeus,,hahaha these apple fans 😂,3-4-2022,
522,user7641445373412,okbrking,,you will own nothing and you will be happy,3-4-2022,
523,Jackolantern Iamos,d0wnbadbr0,,That’s would dramatically increase waste if everyone was upgrading their phone every single year 😂,3-4-2022,
524,Marcel Nfd,.marneu,,How much would it be?,3-4-2022,
525,Alfred,alfred_789,,It’s like a lease,2-4-2022,
526,Samsung user 4life😎👍,fkx_andy,,bro that is an android thing but you only need to pay when you decide to take another andoid better difference,30-3-2022,
527,HeyItsJustAaron,heyitsjustaaron,,would probably cost like 1k,29-3-2022,
528,Matthew,matchumoone,,they were already a thing,29-3-2022,
529,Leandro,leandro._.__,,This already exist 💀,29-3-2022,
530,SCOFIELD!®,scofield_fx,,Ever heard of second phone 😏,29-3-2022,
531,Jonas,jonas92894,,You own nothing and you will be happy,29-3-2022,
532,Fmaster113,fmaster113official,,1000$/month,29-3-2022,
533,àúgh,elmo___________________,,"yeah and if you accidentally break it good luck paying 1,5k",29-3-2022,
534,sus,shxdow074,,That's gonna be 100+ a month probably and its annoying to transfer to a new phone every year,29-3-2022,
535,danield1em,danield1em,,Some already do that for years. It’s called credit card 😂,29-3-2022,
536,ItsCediix,itscediix,,what if it brakes,29-3-2022,
537,Göttlich gesegnete Konstitutio,markusaureliussoeder,,good for the environment too!!!,29-3-2022,
538,Zain malik,zm_472,,tell directly that Apple will introduce the concept of leasing 🤦🏾‍♂️,29-3-2022,
539,hello,heyitssarah10,,almost like some sort of contract? that's new,29-3-2022,
540,TITA,itamar_eilon,,I love u,29-3-2022,
541,Scott Didier,scottdidier,,"oh great, more ewaste",29-3-2022,
542,Seba.Musso.FP,sebastianmussofanpage,,what if i pay the first rate thrn disapper,29-3-2022,
543,Maxywaxyy,ur.dads.dogs.mother,,Pg,28-3-2022,
544,khanh,kamjakhanh,,I would actually pay for this,28-3-2022,
