,Comment Number (ID),Nickname,User @,Comment Text,Time,Likes
1,laurens.nev,laurens.nev,,Deutsch. 100% Deutsch,13-4-2022,
2,EmiemigamerZ,emiemigamerz,,"""Your phone has 5% battery remining. Remaining usage time: seven days"" - 🤖",10-4-2022,
3,Abu hassanberg,walter_white_real,,er hat Mrwhosetheboss studiert,13-4-2022,
4,iko,ikobtw,,Beim yora phone kann man besser in der sonne gucken,12-4-2022,
5,schwabeseggl,schwabeseggl,,Das e-ink Display hat die Vorteile das man trotz Sonneneinstrahlung alles gut Sieht und das der einmal geladene Bildschirm keinen Strom mehr benötigt,13-4-2022,
6,user8693725605005,i.give.up.on.names_,,CAT as in the heavy machinery company has made phones before,11-4-2022,
7,user9879859438,user9879859438,,Bist du deutsch?,9-4-2022,
8,Slathibatfas,slathibatfas,,"the yota phones idea was that the e ink display won't need much energy, so the battery should last longer",10-4-2022,
9,Tyler,tyl3r.7,,Sein Englisch ist so gut,13-4-2022,
10,Cedric Heinemann,cklsps,,2. phone: the feature is to have an always on Screen with very low battery power! And it’s perfect for selfies with the main camera.,11-4-2022,
11,⠀ ⠀ ⠀ ⠀ ⠀ ⠀,groggymenn4,,18 thousand not 18 hundred,10-4-2022,
12,Jack Lewellen,jck.lfc,,Imagine charging that enigizer phone 😳😳,9-4-2022,
13,Alin Marin,m.alin93,,the 2nd was functional. you could have 3 weeks of battery life using the e-ink only at 10%,10-4-2022,
14,dermüslijunge,jonaseyyyee,,the e inkl Display saves alot of power,11-4-2022,
15,Stra,straatonfire,,that last phone sold only 16 of those😂,9-4-2022,
16,user2936636588618,carter_grd,,Ich hate des erste und des war sogar ganz praktisch und dwn akku konnte man halt dan selber wechseln war sau praktisch,11-4-2022,
17,user629748681474,trustme388,,Yes the ink display has the benefit of being able to see it properly in the sun unlike the other screens,10-4-2022,
18,ﻼ,_.dobrodziej,,2. benefit is that the screen have VERY low battery consumption,9-4-2022,
19,-,netcomet,,I was stalking your account and now I’m early,9-4-2022,
20,Ye Tian Long,yetianlong,,"The 1st one. LG G5 was actually a good idea. Modular special equipments to boost the phone capability. Sadly, the phone trend didnt go that way.",9-4-2022,
21,Benjamin,foxylpzilla,,ich habe das LG g5 ist an Weihnachten kaputt gegangen 😭,13-4-2022,
22,proud german,german.military.mf,,ja man genau ich sag auch immer ey phone,13-4-2022,
23,Brixh,brixh_official,,man hört so richtig dass er deutsch is 😂,19-4-2022,
24,kaktusflaktus,jurokaktus,,du siehst aus wie @kuchentv,21-4-2022,
25,Jasmin👑,_jaxmn_,,Wie alle sagen OmG mAn HöRt ToTaL dAsS dU dEuTsChEr BiSt aber trotzdem kann er besser Englisch als 70% hier in den Kommentaren,20-4-2022,
26,Wollbi,w0llbi,,Dieses Denglisch ich liebe es,18-4-2022,
27,h0tic3Lippe (Daniel),h0tic3lippe,,Alles voll alt.,21-4-2022,
28,another barcode guy,sekku_,,Deutsch 😌,13-4-2022,
29,Siegbert S.,king_oli_ya,,Piur,11-4-2022,
30,צ'כי גבר,m.barnative,,@mrwhosetheboss told me about all of them,9-4-2022,
31,Alex the 3rd,chldishdolphino,,early? also how long does the last one last?,9-4-2022,
32,个GunL0VV3rຶ ෴ ༎,trollfacegt,,xiaomi mi mix Alpha,13-4-2022,
33,Ptak Kowalik,zbuntowanykowalik48,,nie no ale że tak prosto rozpoznać polaka po akcencie,13-4-2022,
34,el julian,happynumeritos,,3000 miliamperos y aun asi dura media hora?,13-4-2022,
35,Dyski 123,dyski123,,"iPhone 13 only has 3000mAh battery? i mean, it's not that little but my Redmi Note 10S has 5000mAh and is lot cheaper, soo",13-4-2022,
36,sam jennings,samjennings07,,Why does this feel like an ad…,14-4-2022,
37,Mc gregor,gregepic,,I used to have the first one 💀,14-4-2022,
38,J.P,j11996,,I would definitely use that Energizer phone😳 Where can I get one?,14-4-2022,
39,😩,breathing_is_overrated_,,mrwhosetheboss tiktok version,14-4-2022,
40,Toadsy,the_real_toadsy,,the last one is a workout,15-4-2022,
41,🦅,ad_falcon12,,THE LAST IS THE BEST IF THERE IS NO ROCK AROUND WHILE FIGHTING🤣,14-4-2022,
42,Acamrka,acamrka,,Honestly I'd buy Energizer phone.,15-4-2022,
43,Mayor League Gamer,anti_socialist0,,3rd one* Nokia meanwhile: 🥱,14-4-2022,
44,Valerie,hi_im_v666,,i had a phone and it had a 10000mah battery and it was the best thing ever,18-4-2022,
45,Dan the Gamer,jdangames,,"The first one is actually pretty cool. There's a newer phone coming out that's actually like that, where you can change the parts",13-4-2022,
46,Octa ::),mwmwmwmwmwmwmwmmwmwwmwmw,,"2_ the back screen is for just important info, saving battery or reading for a lot of time",13-4-2022,
47,Psyqopad,psyqopad,,yota looks like a fun concept and the enourmous battery could be useful in the jungle or something 😂,18-4-2022,
48,PindaRijk,pindarijk,,"I have phone connected to a car battery, not so special",17-4-2022,
49,Alexandru Nisioi,alexandrunisioi8,,the last one is actually useful if you go on a roadtrip or travel,17-4-2022,
50,<Teddy translator🧸✨>,teddy.translator.bear,,Anyone needing arabic to english or english to arabic translation? 🧸✨,16-4-2022,
51,Mirko Markuš-Nemeth,dudum484,,does anyone remember Alcatel on AA batteries.. sometimes in th 2000,16-4-2022,
52,...,frandurrieu3,,"Motorola also had a modular phone, they were pretty nice but they never made ir trending, I guess they got phased out by high specs phones",16-4-2022,
53,3ambrainfarts420_69,3ambrainfarts420_69,,"Iphone 13 pro has 3095 mAh battery, my Huawei P20 Lite has 3000mAh... I'm not hating on Apple tho",16-4-2022,
54,Wesley Chuckles Harp,theallfatheraov,,"ugh.. I want that Energizer phone, but I can't even find it on eBay 😫 always fighting my wife for the phone charger. that would save me a week or two",16-4-2022,
55,registeredhypercam,registeredhypercam,,the yotaphone actually gets better battery life if you use its e-ink display more than the lcd,15-4-2022,
56,DaveGuckt,daveguckt,,"No benefits of the ein of yotaphone? Like battery saving, using the main camera for selfies, tickets to scan on the back, aod pioneer. 🤦",15-4-2022,
57,Mistral Dreamer,mistraldreamer,,the Rog Phone has 1/3rd of the energizers phone capacity,15-4-2022,
58,Hello.,germanmilitary00,,Yota Phone? Xiaomi Mi Mix Alpha am i a joke to you 4 screens,15-4-2022,
59,hollow_heart31,hollow_heart31,,"mine isn't a 18000mA
but it does have a 10300mA battery",15-4-2022,
60,Fardimbledram,heyy_imaaron,,"1: the yota phones ""useless"" display helps with battery the energizers ""1800 mah"" battery is wrong it's 18000 mah can this man get his facts right?!",14-4-2022,
61,herp derp,herpderp62,,I had the first phone for a while but they no longer updated the system so it slowed down a lot but I kept a spare battery for long nights out 🌚,14-4-2022,
62,K.D.Y.K.N.Y.O.K.K.M.H.N.H.N.N,kdyknyokkmhnhnn24,,the eink screen does have a benefit if you read books on your phone but don't have money for an ebook reader like me. 😔,13-4-2022,
63,Gernidadn,gernidadn,,how long does it take before the battery is off?,13-4-2022,
64,BarFischy,barfischy,,"the second is genius!
kindle and smartphone in one device!",13-4-2022,
65,YouTuber🙄✋,.frosty.yt,,What’s the first one called,22-4-2022,
66,user6308563685522,malbecian,,"""18 hundred milliamps""? Rather 18 thousand",19-4-2022,
67,Thijs Moed,diggernickuhr,,imagine that you can charge a telephone at 230V,19-4-2022,
68,Joakim Bekkavik,joakimbekkavik07,,Yoy said 1800 and wrote 18000,18-4-2022,
69,Άρης Άγγελος Χονδρογιαννος,aristhegroot2,,I have the first. It's an LG G5,18-4-2022,
70,<Teddy translator🧸✨>,teddy.translator.bear,,أحد ما يحتاج الى ترجمة مقال أو فيديو؟🧸✨,16-4-2022,
71,kroleg,krolegs,,"ahh, izoomers discovering usual phones of 2010-s",16-4-2022,
72,Florian Janzen,infl0encer,,it's 18k not hundred,16-4-2022,
73,𝑆𝑂𝑀𝐸𝑂𝑁𝐸,nott_kai16,,I knew about all of these,16-4-2022,
74,L or Kell or Shiv/God or King,shivawitdacobra,,Didn’t you have this on YouTube????,15-4-2022,
75,Matt_is_not_on_fire,matt_is_not_on_fire,,last one is best tho. mobile minecraft server anyone? 😂,15-4-2022,
76,☾sam☽,bathvry,,You kinda look like drew gooden,15-4-2022,
77,Kylekoen,kylekoen,,Nah the level 1 is a game boy,14-4-2022,
78,cars and games 🙃,dorito_ooof,,how long would the battery last ?,13-4-2022,
79,kevinnjohnsonn,kevinnjohnsonn,,@ArunMaini youhave had all of these in your vids,18-4-2022,
80,musicmonsieur,musicmonsieur,,the most un interesting phone onlevel 3...,13-4-2022,
81,путин на всю жизнь,putin_4life,,oneplus nord n100 5000mah,15-4-2022,
82,covvijek,chernobyl.dude,,mrwhoistheboss wanna be,15-4-2022,
83,Albo,eren.kaa,,imagine u turn on power saving mode on the 3rd phone,20-4-2022,
84,Adam,adamfield2326,,The ink display does actually have a benefit tho. The display improves visibility when reading and is more power efficient at the same time,19-4-2022,
85,elias 😎,eliotpeliot34o,,Last one could be used for months but just think how long it would take to charge after,18-4-2022,
86,Tino G-Punkt,angusxd86,,"the yotta phones second display had a good use. e-ink barely uses battery, you could read news and messages without needing the main screen.",17-4-2022,
87,G1RTX,g1rtx,,my phone battery is 15kh but the phone is having problems with booting sadly,14-4-2022,
88,alamyeet,alamjeetsinghh,,Can you tell me the name of the song it give me soo much nostalgia o just can’t remember the name,13-4-2022,
89,FLOP STAN,jiafeiscurlybussyhair,,"Yeah, but how much can you stay on the last phone without it dying?",13-4-2022,
90,William Afton/Purple Guy,1987william_afton,,The last phone would take like 2 months to run out of battery..,13-4-2022,
91,David_hodak,ein_kleiner_h0denkobold,,iphone,13-4-2022,
92,Belle Stainthorpe,belle9_17,,Netflix:We think you'll like friends,13-4-2022,
93,erik korenjak,erci.kor,,isn't it 18 thousand mAh not 18 hundred,13-4-2022,
94,Jesus,jesumazaguada,,Yo tuve el G5,14-4-2022,
95,reality shifting,shifting11_111,,✨NoNe✨,18-4-2022,
96,Justin Gadlage,justingadlage,,Cool,17-4-2022,
97,J.,69neven69,,cool,16-4-2022,
98,Wolfee,callsign_wolfee,,Ee,14-4-2022,
99,Mr_Verstaphen_fan,mr_verstaphan_fan,,Hi,13-4-2022,
100,ButchGears2348,butchgears2348,,nice!,18-4-2022,
101,shed.sheran.toes 💖🦧👹🌟😩🥵,cacagrilled,,Ok,14-4-2022,
102,Dacia Ball,daciaball,,I really want the last one😳,18-4-2022,
103,Gary Elliott,gelliott1978,,ah I had the LG G5....,16-4-2022,
104,artursoltan,artursoltan,,3.The battery is at 10000%,14-4-2022,
105,Vinne294,vinne294,,It has 50 days battery life... 50 DAYS!!!!!!!,14-4-2022,
106,user6110873764670,nicholife,,Hey thats my phone 😳,21-4-2022,
107,Экзотическое Масло,someoneovich,,brick.,18-4-2022,
108,Benja guti,benjamingutierrez1503,,u r so handsome,15-4-2022,
109,Mindja,20.6221,,Bruuuhh the first tho😂,13-4-2022,
110,I eat babies,petsey,,I've seen all of these lol 😅,13-4-2022,
111,deanicka 💚💎,red.deanmochi,,@vernonisnothere i had a g5,20-4-2022,
112,ZigZerr9327,zigzerr9327,,amazing...,19-4-2022,
113,Quinn Beyers,quinnbeyers3,,still not long enough,13-4-2022,
114,Geiler Japaner,bubatz_japaner,,"""die battem""",13-4-2022,
115,Bee 💜🖤,.bee_1999,,that aint a phone thats a brick.... imagine if you use it laying down and it accidentally slips-,18-4-2022,
116,somethingwithbre,somethingwithbre,,The second screen is a lot less hurtful to eyes and has a lower energy consumption,13-4-2022,
117,Teun,____teun____2,,That Phone actually has 54 day battery life 😂😂😳😳,13-4-2022,
118,®,w.cstakz8,,i had a Yota phone,13-4-2022,
119,Lenisonik,lenisonik,,"Make the music louder, it didn't quite cover your voice",13-4-2022,
120,I'm lost,the_10mm_socket,,i have 5000 mah battery,17-4-2022,
121,Andy Naylor,andynaylor8,,No phone was weirder than the Nokia 7380,13-4-2022,
122,Pokey,polar_bearlover10,,these are cool phones,18-4-2022,
123,Josette,josettez,,look at pinephone lol,17-4-2022,
124,Sal,sal_li6,,18 thousand***,14-4-2022,
125,Arrow My last name,iamrarewolf0,,how about poco?,14-4-2022,
126,Stefan,stefhorho,,@Arun Maini v 2.0,13-4-2022,
127,Syxfall,sxyfall,,@realsombob susbus,13-4-2022,
128,William Gonzalez,cradelikz,,The LG G5 was NOT weird lol. It was a missed chance. Did you know that before BT was dependable most phones had expansion ports?,19-4-2022,
129,Trucking Melissa,truckingmelussa,,"I want b that energizer phone, it needs to be in my life.",14-4-2022,
130,candle chair,chaircandle,,okay drew gooden,14-4-2022,
131,sirvage,sirvage.21_,,my Andro has 5000 mAh,14-4-2022,
132,jorgenavarrete0604,jorgenavarrete0604,,"any iPhone , expensive just for 1 camera",14-4-2022,
133,5800’s,5038s,,My lights are off and I would need that last phone rn,13-4-2022,
134,lol,lllol20,,dude i actually want the last one,13-4-2022,
135,Zero,pawmcscratch,,"wheres the lg flex or the samsung mega, see a person replace a mega because while laying down they dropped it on there face causing some damage",13-4-2022,
136,142 rats in a trench coat…,142ratz,,Honestly I’d buy the third one. I’m so paranoid about running out of battery all the time,13-4-2022,
137,SpedupSongs,yovlisshemzle,,where did u bought mic stand bc i jave razer seiren mini too an I need one,13-4-2022,
138,James,bicklemineralmale,,Mr.Whostheboss did it first,13-4-2022,
139,Raphaël,raphael20094,,this guy always be talking about iPhone 😑,13-4-2022,
140,code_rst,rst.300,,"I mean yota phone is a pretty cool one, I had one so I know what I am talking about",14-4-2022,
141,Toyota Celica CZ,toyotacelicacz,,"Yotaphone 2 was excelent, but not at begging for that big price, the second screen was usefull too and i love it ❤️",13-4-2022,
142,.lvusw,.lvusw,,@Close who r u,13-4-2022,
143,CarGuy🔰,carguy5494,,Where can I buy that super battery phone I need this i have a apple and if it’s 100% it goes to zero in 12 minutes where can I buy it??😌,13-4-2022,
144,Lee,thelilnetshow,,I need the last phone 📱😅😅😅😅,25-4-2022,
145,Mr. StepPea,mr_steppea,,I want the energizer one,25-4-2022,
146,Nijah Mills,nijahmills5,,😂,25-4-2022,
147,lazy btc,im_a_simp000idontexist,,Imagen charging the last one,24-4-2022,
148,Ahmed ELshamy,ahmedelshamy2007,,@sayed_ali11w I think the last phone for the end of the world 😂😂@tricops7794,24-4-2022,
149,SEIF,seify_memez,,That Energizer phone i want to buy it 🥰🥰,24-4-2022,
150,MatlockKain6490,matlockkain6490,,good!,24-4-2022,
151,Best us,best_among_us_moments2,,You are super cool! Great content 👏👏👏,24-4-2022,
152,Vodka,hellichopper1,,Nr3 is a sweet one,23-4-2022,
153,Myles Wojnicki,darth_plagues_the_wise,,Do you know how big the universe is look it up and tell me if you did,23-4-2022,
154,reneeruiz298,reneeruiz298,,show the pictures of the phone's a bit longer please so we can see them without pausing the video,23-4-2022,
155,.,kingofsoccerr,,I got iPhone 13 pro but you was wrong,23-4-2022,
156,Xiaochen cuisine,dy758afbb493e848,,I flirt with you，,23-4-2022,
157,King_Feras,king_feras,,Me: *dropps the Energizer phone on my face,23-4-2022,
158,Nick Franke,nickfranke82718,,I had the LG g5 and I loved it,23-4-2022,
159,@TJ_123Dramatic.com,im_bored.8at123.com,,Got Nokia round here,23-4-2022,
160,Jerome,redrumrogue,,I need #3🥺,23-4-2022,
161,Draven Rush-Boggs,thetruepro81,,the last seems heavy...tho I need to look up half a kilo....what would that be like in your pocket???,23-4-2022,
162,Kathryn Lambkin,kathrynlambkin,,I want all of those phones!,23-4-2022,
163,Biden is very sus,dude_nightmare_yt,,I’ve already seen these phones,23-4-2022,
164,That Asian kid,nathanisasiantiktok,,Thank you for sharing,23-4-2022,
165,GummZ,gummzih,,The LG g5 was a god among phones with the extra components,22-4-2022,
166,Motherhelpmeimdying,motherhelpmeimdying,,apple needs good phone batterys my mid range phone from 2018 I think has a 4000 mah battery,22-4-2022,
167,ava 🫶🏼,avagracelol,,The 2nd one is a Henry danger phone 💀💀,22-4-2022,
168,J.D.M.,j_doorframe,,How long does the energizer phone battery last?,22-4-2022,
169,GentleNoe540,gentlenoe540,,good!,22-4-2022,
170,MeridianForet2198,meridianforet2198,,nice!,22-4-2022,
171,Khizer Akhtar,khizerakhtar65,,hey I have the LG G5 it's not that bad,22-4-2022,
172,Nuffi,nuffi95,,Never buy Yotaphone......I am happy that it broke that fast so I could buy a normal phone again.,22-4-2022,
173,elias.bou.na3oumm.,1elias._.bou._.na3oum1,,Lg g5 will always stay my favv,22-4-2022,
174,hunterwindle,hunterwindle8,,@hunterwindle8：Phone battery some how runs out Plugs in phone before bed wakes up *phone battery at 2%*,22-4-2022,
175,Ball=W,hooplovin,,How can people hold the last phone,22-4-2022,
176,Talal Yasser,talal2oo5,,my Nokia have 5050 mAh,22-4-2022,
177,Shaun Vermaak,shaunievermaak,,You lost me when you said the eink back screen has no benefit,22-4-2022,
178,SnowyPalazzi1131,snowypalazzi1131,,it's great,21-4-2022,
179,Marcell Kiss6326,k_marci420,,18 THOUSAND mah not hundred,21-4-2022,
180,Alex,alex.lex9,,I hâd first one,21-4-2022,
181,fancy yemisi,yemisifancy,,Thanks for this! 💯,21-4-2022,
182,Michael Anglo,michaelanglo6,,lol i have a 6150mAH,21-4-2022,
183,Audio_Finseth6815,audio_finseth6815,,it's great,21-4-2022,
184,#HARDCOREKREWFAN,ugh_.as._if,,phone ds,21-4-2022,
185,CEO de Socialismo Liberal,ceosocialismoliberal,,None? that screen means you can use it for days without charging 🙃,21-4-2022,
186,Billy3buxz,billy3buxz1,,What about the Pablo Escobar phone,21-4-2022,
187,Mohammed Nasser,mohammednasser709,,I wouldn't mind having that Energizer phone 😍,21-4-2022,
188,Josh Prentice,joshprentice21,,YOTA phones e-ink display saves battery and the Energizer phone with the huge battery was unfortunately never put into production unfortunately,21-4-2022,
189,Dee Lite,user1249449576581,,Why don't you talk about the Apollo phone which is all wooden body.,21-4-2022,
190,Bangrior95,bangrior95,,"Energizer isn't that bad, the company has advanced in battery making imagine you charge your phone every month 😂",21-4-2022,
191,pasnoir,pasnoir,,Nokia lipstick phone! Loved it 😬😳,21-4-2022,
192,raissasofia551,ryryricegum122,,@debbirpayne u need the last one bro😂,21-4-2022,
193,urbex_sheep,urbex_sheep,,"Benefit of E-Ink: Low battery consumption, almost none.",21-4-2022,
194,CricketGreenburg5700,cricketgreenburg5700,,it's great,21-4-2022,
195,ZavrinaZiehl5874,zavrinaziehl5874,,good!,21-4-2022,
196,Dimitri Schneider,dimitrischneider09,,yotaphone was usefull. second screen allowed to use minimal stuff with almost no battery usage,21-4-2022,
197,The Original Jimmy fire dragon,theoriginaljimmyf,,YotaPhone* Not Yata*,20-4-2022,
198,TinishaCammon6455,tinishacammon6455,,nice!,20-4-2022,
199,Bromush,bromush_,,@theweird_kid._ do,20-4-2022,
200,joddyoutube,joddalt,,i had the 1st phone,20-4-2022,
201,MGSV-fan,bigbossmgsv,,“18000” eighteen hundred,20-4-2022,
202,Luc Brogtrop,snertnl,,Tbh kinda sound like @Mokey,20-4-2022,
203,Hoony,hoonynoob,,whats the third one called,20-4-2022,
204,Mart_K12,mart_k12_official,,that phone could last a month with 1 recharge and I bet it is stronger than Nokia,20-4-2022,
205,Andres Guevara,andres.guevara88,,I had that LG and was awesome,20-4-2022,
206,:/,williamdafoeshottoes,,Did bro just copy arun from mrwhosetheboss?,19-4-2022,
207,Xiaodisan,dr4kuma,,I'd love either 2nd or 3rd tbh,19-4-2022,
208,Stoerestikker,stoerestikker,,The 3 one 100% battery 1 year life,19-4-2022,
209,Caeden,caedens_the_best,,U used to own the 1st one😅,19-4-2022,
210,ᗯIᒪᒪY🖤,will.moran1,,"that’s not 18 hundred, that’s 18 thousand, 18 hundred would be 1.800",19-4-2022,
211,haunted.world,haunted.world,,I like how these are all great ideas but can't be executed quite as wanted.,19-4-2022,
212,I don't know what I'm doing,shitbox_garage_,,it has alot of use actually. no glare mostly.,19-4-2022,
213,Conky McCool,conkinstonkin,,this video would work if you showed us the phones instead of you,19-4-2022,
214,Jay,jay.insanity,,"the rear display doesn't have colour, but wouldn't get screen glare.",18-4-2022,
215,POWER,peopleoverworldecorules1,,the benefit of the 2.nd screen is less battery usage,18-4-2022,
216,MadockHargrave9022,madockhargrave9022,,good!,17-4-2022,
217,whatsssss up,c_areso,,600th,15-4-2022,
218,Jeeva,jeeva_why,,@zoethebee13 phones that are better then your phone 😂,15-4-2022,
219,Kajevan Sivathasan,kajevansivathasan0,,18 thousand you mean?,15-4-2022,
220,RonaldMcMickey,ronaldronald43,,I’d love a cellphone I could change its back images at will.,15-4-2022,
221,Michael,michael5734,,E-ink is easier on the eyes and has massive benefits for battery life,15-4-2022,
222,Huong Nguyen,huongen70,,18000mAH battery will take long to charge,15-4-2022,
223,ScytheX,scythex0013,,The first one sounds cool,14-4-2022,
224,Tkl,tkl2137,,what about nokia pen?,14-4-2022,
225,Tatu Parkkali,taxor,,Well rounded up nokia 3650 was the worst,14-4-2022,
226,Generalzod,lindsaygermishuiz,,I watched this video while my phone was on charge.....,14-4-2022,
227,1401yush,1401yush,,can you do a oukitel phone I have it it's cool,14-4-2022,
228,Mrllag,maggot_bonez,,lg g5 was bomb.. loved it 🥺,14-4-2022,
229,.......,i.dont.use.tiktok4,,How about pear phone 🍐,13-4-2022,
230,LJBox,ljboxoff,,The LG G4 got a 2nd screen in the front,13-4-2022,
231,Crookie Snr,tuesdaywhistler,,"""18 hundred""? or 18 thousand?",13-4-2022,
232,Tpn supremacy,tpnsupremacy_,,So how long does the last one last,13-4-2022,
233,eduardoaround,eduardoaround,,you never had an original iPod? they were practically a brick 😅,13-4-2022,
234,juice,biglongtentaclee,,I'd get the last one,13-4-2022,
235,Dylan,idiggaming,,Years ago there were advertisements for a type of phone you could customize with pieces that were almost like the really thin Lego blocks 😂,13-4-2022,
236,attie,uwuranium,,tbh I was rlly exited about the second one with e-ink display when I first heard about it. it could have had some great uses if handled right.,13-4-2022,
237,user4293675479362,fireswordmanq,,nokia have more batery,13-4-2022,
238,veljko,vekichan,,nobody asked how much iphone 13 has battery capacity,13-4-2022,
239,B I N G L E R,blngler,,What mic do you have?,13-4-2022,
240,requfy_ggaming,requfy_ggaming,,my phone is realme 5 and have 5000mph battery,13-4-2022,
241,Back,babytongaball,,No duet?,13-4-2022,
242,Amazon dude,amadune,,Amazon made one way worse,13-4-2022,
243,Ken,maxanderg,,E ink have many benefits on account of its complete lack of drain when it's not updating. Not to mention text is much easier to look at.,13-4-2022,
244,goatboy.jasheek,goatboy.jasheek,,Daddy? 😃,13-4-2022,
245,Oshawott,a_stupid_oshawott,,the 2nd one has 1 benefit you can break to sides,13-4-2022,
246,mrdowne,mrdowne,,bro that energizer one it loses for 50 days😂😂😂😂,13-4-2022,
247,aactav.mythical777,aactav.mythical777,,When you said not one screen I thought you meant no screens. 😂,13-4-2022,
248,Bad!maginationsĒver,hookedupat30,,the last gadet I need it as a backup phone I would travel to Alaska from Hawaii and way back then to and back then to and back then to and back then..,13-4-2022,
249,milan,abelloop09,,you remind me veeeeery of @mrwhosetheboss,13-4-2022,
250,©️Exonivix,literally_no_clue,,don't forget the LG wing,13-4-2022,
251,Darth Ru,darth_ru,,That last one is a weapon!😳,17-4-2022,
252,Shagy,mr.shags.tattoos,,"a had that LG, it was really amazing btw, the camera was also a integrated powerbank",17-4-2022,
253,Shadowfira,shadowfira,,u watch Aron?,14-4-2022,
254,isus_kist1,isus_kist1,,my phone has 13000 mAh battery and it can last for 10 days,14-4-2022,
255,M.G,dodosama135,,actually I like the Energizer phone,14-4-2022,
256,....,fq._.fq,,german.....,14-4-2022,
257,⠀ ⠀ ⠀ ⠀ ⠀ ⠀,michi_bgld,,Siemens Xelibri is a intresting one,14-4-2022,
258,Tik Toker,mitko_2619,,someone has watched mr whos is the boss videos,14-4-2022,
259,LaGataDeSoojin,deukababy,,The ink screen would be great to read books and scroll social media without using so much battery/straining your eyes that much,14-4-2022,
260,Tugs50001,o5001bachmann4,,"The double side phone, what happens when u hold it? Does the back screen just go berserk",13-4-2022,
261,REB0_UwU,r3b0_uwu,,pov: Xilebri,13-4-2022,
262,Anton Pihlström,pro_amis08,,Samsung has more mah than iPhone 13 pro 😂😂😂 like the A 22,13-4-2022,
263,bekeroli2007,roli17hun,,my meizu has two screens too!,13-4-2022,
264,Dennis Angele,dennis54649,,I still hear some germanish,13-4-2022,
265,sheesh_guy,sheesh_guy69,,dex rock lite,13-4-2022,
266,Talha Atiq,dominator_talha,,i can build a house using a bunch if the last one.,13-4-2022,
267,David Kelsey,outofthi5world5,,"it's such a shame when all we've been saying for years is ""I want a phone with a huge battery, I don't care how big it is"" and it just gets mocked.",13-4-2022,
268,IsiDemon,isidemon,,The last one would've been perfect for Pokemon GO. 😅,13-4-2022,
269,🌊๖̶̶̶ζ͜͡blu™🌊,_.im._.blu._,,Bro when yotaphone battery dies then something on eink screen stays as it was,13-4-2022,
270,Lukas,das.arme.wurstle,,For all Americans a half kilo is a bit more than a pound!,13-4-2022,
271,Romeo Schmid,romeoschmid,,Bang and Olufsen Phone from Samsung.,13-4-2022,
272,urfokingheyman2,urfokingheyman2,,Bro thought we won’t notice he talks like mrwhosetheboss💀,13-4-2022,
273,almaaas,n1ghha,,"The energizer phone could last 50 days while continously playing a video, imagine how long it would last if you only use you phone 1/2 hours a day😳",13-4-2022,
274,mohinode,mohinode,,Tbh the e-reader thing is cool,13-4-2022,
275,Subway surfers spot,subway_andothershi,,POV u have to charge the energiser phone with energiser exclusive batteeriws😂,13-4-2022,
276,OG_ Plombir,og_plombir1,,BITTE mach einfach deutsche Videos ich feier deine Videos aber ich kann mir diesen Akzent nicht mehr als 2 Minuten geben 😂,11-4-2022,
277,JF46,milesjf46,,Er tilted mich 😂,18-4-2022,
278,Bernhard Mildner,jxstbe,,"Hier ein Rezept für Waffeln:
125g weiche Butter
50g Zucker
1 Pck.Vanillezucker
3 Eier
200ml Milch
250 Gramm Mehl",13-4-2022,
279,nilz,nilzyo,,"warum ist das eigentlich nur bei Deutschen so mit diesem Deutscher Akzent und Red doch deutsch Ding, solche Kommentare findet man unter keinem Video 1",13-4-2022,
280,JustLukas_TTV,justlukas_ttv,,Felixba lässt grüßen,18-4-2022,
281,Johnfcool,johnfcool,,Denglisch,13-4-2022,
282,strahinjicstrajko,_dzeniferlopez_,,English DexRock...😂,22-4-2022,
283,notcodi,not_codi,,deowarenverkaufsladen,22-4-2022,
284,LEROY,_yxng_freakx,,"I hope you respond
I saw a lady with a two screen phone on a one peice closing phone case",16-4-2022,
285,Dr. Nobody,dr.nobody1,,The iPhone 13 Pro Max has actually a 4352 mAh battery🤧,15-4-2022,
286,Castor5000,castor5000,,I was hoping that you were going to go into pre-smartphones due to them being weirder. disappointed tbh.,14-4-2022,
287,Thelads247,thelads247,,vote on my account,17-4-2022,
288,BLESS———KHIDO❤️🙏🕌,bless___khid__360,,I want to join you,23-4-2022,
289,Id.Dragos,dragos431,,2nd one is pretty cool. I see the utility of the second screen.,19-4-2022,
290,Young Kaiju,youngkaiju,,The 3rd one is a murderer's weapon,14-4-2022,
291,pyenn66,pyenn66,,imagine dropping the 3rd one on your face while on the phone in bed,24-4-2022,
292,pappnand,pappnand,,Weird until you do not have a connector to charge for 3 weeks because of some vis major thing,18-4-2022,
293,Arda,arxarox,,First one being mentioned like it's weird. dude that used to be the default,15-4-2022,
294,♕ZΛKIシ,zvkl.09,,imagine laying in bed and the energizer phone slips & drops on your face🤕😂,14-4-2022,
295,Denzel,i_m_denzel,,"yup, imagine using the Energizer's phone while laying on your bed and it slips....",13-4-2022,
296,Laze Ponder,lazeponder,,You can only milk the energizer phone so many times,13-4-2022,
297,Zuzu Manolova,zuzumanolova,,Ridiculous is the battery's capacity of iPhone ...,19-4-2022,
298,Still Free,skezz39,,yes iphone is ridiculous. only 3096mAh,17-4-2022,
299,Ty Davids,tydavids3,,The definition of a brick phone,13-4-2022,
300,rainbow_zaraza,rainbow_zaraza,,low power consumption imho is a benefit,13-4-2022,
301,Chiwealth House,chiwealthhouse,,you just hate Android 😂,23-4-2022,
302,𝕙𝕚,floppa_backrooms69,,goofy ahh calculators,13-4-2022,
303,bruh,suplytintas,,its a legalized weapon,13-4-2022,
304,✨Ella_Ashton✨,sleeping_cat432,,I want to follow you but I’m going to miss seeing you on my fyp...,13-4-2022,
305,1000_____________🚙______600,doctor.sydrom.offical,,lg g5 sucks don't ever buy it 💀💀💀,13-4-2022,
306,poor gamer,poor_gamer7,,why you hate android,13-4-2022,
307,Laddik en,692lens,,That last one is a damn brick😂😂😂,16-4-2022,
308,the home made masterchief,homemadechief,,is it weird that I want the last one?,14-4-2022,
309,Will_M,kingtaco10,,Halff ah kihlloo,19-4-2022,
310,KermitTheFrog,paua_fritter,,Yota FTW,14-4-2022,
311,user2022874884450,gabrielepaparo_41,,last is Nokia10000000090000000000,13-4-2022,
312,Matthias 👋,about.me.matthias,,the ✨badom✨😂,13-4-2022,
313,user7938189685792,dylara.omo,,"We, Nigerians, need the 18000mAh own. NEPA they show student pepper",24-4-2022,
314,🖋️𝓐𝓷𝓲𝓶𝓮🖋️,charles_fjx.679,,I just came from a Weired video previously,22-4-2022,
315,user6191565010026,nike_raechel,,"bruh my Android phone has 5000 mAh
iPhones are really useless 😩😂",22-4-2022,
316,shahrain abu bakar,shahrainabubakar,,the first obe i weird😳😳,21-4-2022,
317,Marko Steković,marko_drums,,iphone has probably the worst battery,21-4-2022,
318,SockHatAbe,sockhatabe,,Swapable cellphone attachments aren’t new or very unique especially if you follow Motorola.,16-4-2022,
319,https://m3m0b01.org-Gerda,lain________________,,"forgot to tell,yotaphone is made by a russian company 🤡",15-4-2022,
320,Anonomar,anonomar,,I'll take the Energizer phone 👋🏽,16-4-2022,
321,AYO I LUV YOU <3❤️,lil_s1mp2,,@lil_s1mp2：Jesus loves you ❤️,16-4-2022,
322,Bumpy,bumpy66133,,You German?,14-4-2022,
323,I dunno,vamp.narancia,,mrwhosthecoworker,13-4-2022,
324,.,kingofsoccerr,,🤣🤣🤣🤣,23-4-2022,
325,Jameson Huang,jamesonhuang,,Next the tacophone,21-4-2022,
326,Vincent Izzillo,vincentizzillo,,18000 not 1800,18-4-2022,
327,Caltec,ytcaltec,,I had the G5 and I remember my teacher taking it all I took the battery out because I didn’t trust her,13-4-2022,
328,Nissan Pulsar Solaire enjoyer,chromaticschnitzel,,"how does my $350 Samsung A22, not S22, A22, have a bigger battery(5000mAmp) than a $1000+ iPhone 13",19-4-2022,
329,Jan „tombik“ Fric,tombik99,,None benefit? Do you know the difference in power consumption between e-ink and LCD? You don't right?😅,17-4-2022,
330,Alfie123,alfie54376,,This guy just seems to rlly annoy me and idk why 😑😐😑,17-4-2022,
331,Hameed Alzain,lvcost679,,Imagine you watching something laying down and that energizer thing fall at your face 😐,15-4-2022,
332,PolYGame,polygam3,,"What benefit? Even if your YotaPhone runs out of battery, the e-ink screen can still display something important",14-4-2022,
333,michael/mikey,rippedguts.c0s,,"the last phone , imagine you are laying down you're bed playing on you're phone and you accedently drop it on you're face 😱",14-4-2022,
334,BliquieBoy,bliquieboy,,Who be cruising round town with the brick cellular device,14-4-2022,
335,Goose,chegamoge,,imagine dropping the last one on your face at night,13-4-2022,
336,ᕲᗩᐺᖻᕵᗩᑘᒪ,davypaul,,I have three yotaphone 2. it's very very useful. when visiting sunny countries or hiking in the sunshine it's ideal for your Google maps on epaper!,13-4-2022,
337,Maurice Murray,mauricemurray6,,I can tell by your videos you are an iphone user and afraid of innovation.,13-4-2022,
338,dev_boii,dev_boii,,i used to have a G5 lol it was great whilst running low as i could swap out,13-4-2022,
339,︎ ︎︎ ︎︎ ︎︎ ︎︎ ︎︎ ︎︎ ︎︎ ︎︎ ︎︎ ︎,salt_z,,Imagine the 3rd phone falling on your face while you're lying down,13-4-2022,
340,raccoon,raccoon_440,,imagine if you drop the last one on your face,13-4-2022,
341,Avery,shogun_doge,,I wish I hadn't given you a view,18-4-2022,
342,🖤💛,random_ets2_594,,You german or something like that brother,16-4-2022,
343,Milk loving mf,tann3r_har3,,Imagine dropping the last phone on your face,14-4-2022,
344,секс,streetgangster07,,imagine dropping it on your face,14-4-2022,
345,omar aharar,omar_aha,,imagen dropping the last one on your face💀,14-4-2022,
346,Muhuliseni Dama,m.i.n.d.56,,imagine u drop the 3rd phone on your face💀,14-4-2022,
347,Lucas Butcher,lucasbbutcher,,I want the phone now for shots and giggles,14-4-2022,
348,user2473161261622,prince_ethan05,,man's battery could start a truck,14-4-2022,
349,basketball,basketball_is_life_180,,imagina the last one faling on ur face,14-4-2022,
350,♡jayjay♡,uzuiratskindahot,,imagine the battery phone falls on your face,13-4-2022,
351,Obama,b__o__b___,,You sound a bit like Jeremy fragrance,13-4-2022,
352,anonymous,average_gymbro_,,imagine dropping the last one on Ur head,13-4-2022,
353,alfieseymour143,random.things55596,,Mans becoming mrwhoseboss,16-4-2022,
354,banaantje007001,banaantje007001,,i exaly wamt that last one i need t charche it ones a month😂,13-4-2022,
355,leberversagen,leberversagen,,i knew yotaphone would be included😂,13-4-2022,
356,⸸𝖀𝖓𝖍𝖔𝖑𝖞⸸,soft_boy_boo,,this guy with chapstick 💁🏻‍♂️,18-4-2022,
357,wolfman,wolfman.11,,not me heard the LGBTQ 💀,19-4-2022,
358,JoeyKingsley7128,joeykingsley7128,,That's a big one,16-4-2022,
359,a person,y.me369,,iPhone sheeple detected,17-4-2022,
360,.. . .,nisantovardalmatinski,,U serbian ha?,15-4-2022,
361,Bootiful Lilac,bootifullilac,,Half a killo,15-4-2022,
362,G.Heckler,g.heckler_lx.345,,slim Jim,13-4-2022,
363,Seceret77.77,seceret77.77,,chonky phone,13-4-2022,
364,Polserull06,polserull06,,Susbus,13-4-2022,
365,𠃌凡亡〇乃,_yabob,,imagine dropping that brick of a phone on your face,24-4-2022,
366,DraylanDockham5283,draylandockham5283,,That's a big one,23-4-2022,
367,Ray | Tech & Gadget Reviews |,raimielrodriguez,,These are crazy damm,23-4-2022,
368,💚Kenn💚,some.kid.named.kennedy,,Imagine dropping the last one on your face,23-4-2022,
369,MyrleHeuss9335,myrleheuss9335,,That's a big one,22-4-2022,
370,ToiletMonkey,portapottymonkey,,Imagine dropping the energiser phone on your face,22-4-2022,
371,CallMeBrie,brieplayzmm2,,imagine the 3rd phone falling to ur face 😳,21-4-2022,
372,Sulegna Adla,sulegna_adla,,"i have one ridiculesss, i dont need to charge whole week....yea Ulephone power 5 14000 mah",20-4-2022,
373,SlimJimPleaseComment,slimjimpleasecomment8906,,imagine dropping that on your face at 3 am,20-4-2022,
374,James Smith20465,jamessmith6530,,check out my nft,20-4-2022,
375,if garfield was transsexual,transsexualgarfield,,it doesn't weigh half a kilo. grammes are units of mass not qeight,19-4-2022,
376,DazedBlntInc,dazedblntinc,,So the first phone is like the Motorola Moto mods,14-4-2022,
377,adie,adiebaby_,,I had the first one and loved it,14-4-2022,
378,Alec Germann,somealec,,You forgot all about the 2010 phones,13-4-2022,
379,Idk,alex..m22,,this is just a copy of @Arun Maini,13-4-2022,
380,TehTheGr3at,tehthegr3at,,I buy the energizer,15-4-2022,
381,gibsam54,gibsam54,,God loves you,14-4-2022,
382,user3140959508933,probablydontdrinkwindex,,"LG G5 is a stolen idea from the Motorola Moto Z. They had a speaker, camera, projector, second battery, and others",24-4-2022,
383,revolvese,revolvese,,Why is this lowkey bussin for the boys,23-4-2022,
384,🦧🦙🦥🦘🦛🦚,mightydragon_69,,I had the first phone he showed it has 3 camera's,23-4-2022,
385,Drew Cieciwa,drewcieciwa,,Bro no cap the energizer phone has a 6-7 day battery😅😅😅😅😅😂😂😂😂,23-4-2022,
386,nutmeg,callmenutmeg,,me carrying that 3 pound phone in my pocket,22-4-2022,
387,Lorenzo Jakarta,lorenzo.jakarta,,your voice bro is older than you,16-4-2022,
388,Sean,rehlst,,"I hate to be someone who corrects but u say eighteen hundred for 1800, and in that case it’s eighteen thousand",13-4-2022,
389,W4HB,w4hb.yt,,Are you using internet explorer to do your research? These products were launched like 9 years ago if not before,14-4-2022,
390,Twinuzis,twingl0ckss,,I’ve seen him everyday in my Fyp. Time for a follow,13-4-2022,
391,Chima Jr,techxmag,,I stopped following when I discovered he is so biased about Android phones 😌,13-4-2022,
392,JDMMOCHI,jdmmochi,,i feel like if i plugged in the last one it would charge my house,22-4-2022,
393,Kianleeedwards,kianseditsandstuff9821,,nONe,19-4-2022,
394,Khulan,khulan_benn,,My sister had yotaphone I used to play on it to 😏😌😅,19-4-2022,
395,David Christophersen,card_tricks1.15,,"Is that a 18000mAh battery phone, or are you just very happy to see me💀",19-4-2022,
396,Dunnacha Harrington,dunnachaharrington11,,🥰ya know why you are going home eo I have to go get my 🥺kids and then 😅going home to do a Christmas 🎄 is the day that,18-4-2022,
397,𝕊𝕒𝕞𝕦𝕖𝕝 is a 𝓥𝓲𝓫𝓮𝓮,pxrado,,bruh I saw this on yt shorts like 2 mins ago,13-4-2022,
398,shockergamar,stgtiktok,,":""Your phone has 5% battery remining. Remaining usage time: seven days"" - 🤖",14-4-2022,
399,Rachel,rachelheavenly07,,that phone would take for ever to change,17-4-2022,
400,Moi! follow back 2K asti!,kipi_the_tiktokker,,that last one could Be good,14-4-2022,
401,Amber Verhelst,amberverhelst7,,imaginaire putting the last Phone in tou pocket 😅😅😅,13-4-2022,
402,SAMPER Car parking i CSR2,tryhardnoob8091,,I have 4650mah battery better then an iphone😅,13-4-2022,
403,gh0stface372,car_guy_4_ever,,and my samsung have a 4089 Btw 🙄,19-4-2022,
404,Bry,bry_funnyposts69,,my old phone was an lgg5,13-4-2022,
405,rafa,the.only.rafa_,,*Music stop’s* “NoNe🤓”,13-4-2022,
406,@J4ckJen3n,j4ckjens3n,,the 🌠baddon of the phone🌠😂😂,17-4-2022,
407,We have good music 🎶,good.vibes.only760,,I used to have lvl one,14-4-2022,
408,I'm_saving_up_for_a_PC,im_saving_up_for_a_pc,,For da phones,15-4-2022,
409,Dimitri,dimitri_de_gamer,,Infinite battery,13-4-2022,
410,axalotelkid_memesilove,axalotlkid,,Nokia 2.0,21-4-2022,
411,Books>,bookshelfian101,,imagine the battery on Nokias,21-4-2022,
412,ThriftyWildin,thriftywildin,,worst? bqttery os the problem with phones today,13-4-2022,
413,jackridescoasters,wearewolves2gether,,the bott of the...,20-4-2022,
414,Mrs.Kim,thekimtaehyung.com,,nah the energizer would literally break your nose if it fell face-down,16-4-2022,
415,extremely_inconvenient,extremely_inconvenient,,just imagine dropping the energizer phone on your face at midnight then boom bam you need face reconstruction surgery,23-4-2022,
416,Sam Mabe,sam_mabe,,please follow @team_jesus_everyday_,14-4-2022,
417,Luca,luca.830_,,Apple als Vergleich für den Akku zu nehmen? Ich weiß ja nicht. Was die für deren Preise in ihre Handys verbauen ist ja so eine Sache für sich 😂,14-4-2022,
418,,nooxov,,Digga was,18-4-2022,
419,ajay,thetruthwillstand,,I just think this guy hates androids,11-4-2022,
420,Bogdan Alexandru Pre,bogdanprecup_1983,,"LG's design is not original AFAIK, Google pixel wants the first modular phone, right!?",13-4-2022,
421,M. Romaithi,m.romaithi0,,E-ink saves battery.,14-4-2022,
422,X A,commanderx22310,,[wow],14-4-2022,
423,Roee.uop,roee_uop,,@omer4008,13-4-2022,
424,Carolina Velasquez,capivera17,,@andres.owor,24-4-2022,
425,val,ussseerrrr61,,@user8480305029811,19-4-2022,
426,Finger dude ✌️🛹,pavelraykov66,,@strangerthings_nirvana1,15-4-2022,
427,X A,commanderx22310,,[embarrassed],14-4-2022,
428,thehiluxowner,thehiluxowner,,@itzaroha._.live01,13-4-2022,
429,attixlol,attoosa,,@Carterpcs,13-4-2022,
430,G.Heckler,g.heckler_lx.345,,@slimjim,13-4-2022,
431,There are 2 genders,onlyfacts_no_cap,,@astoflosimp_,13-4-2022,
432,Ivan Swanepoel Beukes,ivan_swanepoel_beukes,,[smile],14-4-2022,
433,🇺🇦Sofia/Winter🇺🇦,eunjocandy,,@_xquilla_,13-4-2022,
434,Rude,2gendersonly8,,@david challoner,13-4-2022,
435,jeffyboy81ch,jeffyboy81,,@edsheeranhaskidnappedme,22-4-2022,
436,Aleksić,aleksichimself,,and it lasts a few weeks,13-4-2022,
437,Fkfnfnfb,whdhdbdbdbffbbf,,@astronomical_trr,23-4-2022,
438,saydamcghann,kingveteron,,😂😂😂,23-4-2022,
439,jo,joott155,,An e-ink display has NO benefits? except for using about NO battery power at all and being readable in broad sunlight,22-4-2022,
440,The weirdo.,_ghosy,,🗿,22-4-2022,
441,Oluwaseyi,sheyhie,,🥰😂😂😂,21-4-2022,
442,Jiajia_life,foreverlove766,,🤔🤠,21-4-2022,
443,Shady anonymous,thashadyanonymous,,Well actually the ink phone has a purpose. The thing is you wright on the back can stay there for a very very long time,20-4-2022,
444,X Baba,theassasinbaby,,@Colgate,20-4-2022,
445,slayyyyy,astrid_lakers,,😆😁😂😂,19-4-2022,
446,Christian,christian_ioan,,You're too young to understand that. All of that was a wow in technology when :) appeared),14-4-2022,
447,Viggo_Akterhall,viggo_akterhall,,Man be copying @Arun Maini,13-4-2022,
448,ნიკო კუნჭულია,gloonas,,"my favorite phones : I like: oneplus nord ce 2, oneplus 8, oneplus 7 pro , galaxy z flip 3, moto edge s30 and moto edge 20.",14-4-2022,
449,Ivan Swanepoel Beukes,ivan_swanepoel_beukes,,[smile] [scream] [shout] [laugh] [cry] [wow],14-4-2022,
450,cynthia,cynthiagoatee2.0,,hu,22-4-2022,
451,no just no and y,dn2_lawin.1,,@x.rushda.x @__n3va3h__ I THOUGHT IT SAID LGBT I WATCHED IT 4 TIMES TILL I REALISED,13-4-2022,
452,snow6969669,snow69696669,,"𝙁𝙊𝙍
⊂_ヽ　　𝙔𝙊𝙐
　 ＼＼ Λ＿Λ
　　 ＼(　ˇωˇ)
　　　 >　⌒ヽ
　　　/　 へ＼
　　 /　　/　＼＼𝙋𝘼𝙂𝙀
　　ﾚ　ノ　　 ヽ_つ
　 /　/
　(　(ヽ
　|　|、＼
　| 丿 ＼ ⌒)
　| |　　) /
ノ )　　Lﾉ
(_／",25-4-2022,
453,Kermit,viv_tok69,,"𝙒𝙀'𝙍𝙀 ₲Ø₦₦₳ Sᖶᗩᖇᖶ ዐቻቻ 🅆🄸🅃🄷 𝕹𝕺𝕿 𝘚𝘖 ₩ɆłⱤĐ 𝔓ℌ𝔒𝔑𝔈𝔖, ＴＨＥＮ [̲̅W][̲̅O][̲̅R][̲̅K] 🅾🆄🆁 ɯαყ µþ тσ ᏢᏬᏒᎬ 𝐰𝐞𝐢𝐫𝐝𝐧𝐞𝐬𝐬!!!",14-4-2022,
454,claras835,claras835,,you just hate Samsung,17-4-2022,
455,verborgentesla,j.pvh,,MrWhoseTheBoss Tiktok ripoff,13-4-2022,
456,Weeb,anime_bozo0,,🇺🇦=🏳️‍🌈,13-4-2022,
457,Jace Kelvin sky,iwinisa0,,I hate when you or anybody won't allow saving post 😬,24-4-2022,
458,Neutral Warlord,neutralwarlord,,Touhou,21-4-2022,
459,GOJI,gojiraeditz,,Copy of Mrwhosetheboss,23-4-2022,
460,Alexander Schrems987,jen_salik,,Oh boy... how are we supposed to take anything serious after you claiming an e-ink display doesn't have any benefits? 😬,15-4-2022,
461,mascot_jb,mascot_jb,,Your de fan of Apples wat do they give u dat u hate android dat much 🤣🤣🤣🤣,14-4-2022,
462,Hadhood.0,hadhood.0,,@https.giogi imagine if the last phone fell on ur face.. u would look like a flattened barbie doll💀💀,14-4-2022,
463,Tiktok is trash,tiktok_is_trash0_0,,#susbus,13-4-2022,
464,Pessi197,pessi197,,#susbus,13-4-2022,
465,TEK,yez_yo,,#susbus,13-4-2022,
466,eeeeeeeeeeeeeeeee190,eeeeeeeeeeeeeeeee190,,#susbus,13-4-2022,
467,Mita,furry_slayer20,,#susbus,13-4-2022,
468,tjalfe_wastaken,tjalfe_wastaken,,#susbus,13-4-2022,
469,Adi Mihu,adimihu0,,#susbus,13-4-2022,
470,what do you want,d0peisnice,,#susbus,13-4-2022,
471,Alexander Rohsted,alexanderrohsted,,Goofy,13-4-2022,
472,aron.,4v0c4d0sfr0mm3x1c0,,#susbus,13-4-2022,
473,Crashhhh,ritchhhh95,,@Ian le Floch,17-4-2022,
474,Your_God,youcancallmechrist,,#susbus,13-4-2022,
475,Nonye,nonye_ig,,correct yourself please don't misinform people,25-4-2022,
476,Cryptix,cryptix56,,Stolen from mrwhosetheboss,14-4-2022,
477,mhizvevas,mhizvevas,,Cool so I can lift weight while watching TikTok and if my boyfriend goes out of line I could just you know. 😂 How do I get,17-4-2022,
478,miu :3,kimppus,,@lilmuffinhead,14-4-2022,
479,Mia😗✌️,_nothing_much_,,@rftwings,14-4-2022,
480,shabi_ledwaba,shabi_ledwaba,,@yolanda_ngoma,22-4-2022,
481,milliee ✨,fruitsho0ts,,@millie_7405,21-4-2022,
482,dirsiens,valmierasjugurts,,@callmeefranceskaa,19-4-2022,
483,Benedict,jaichlebe,,Dieser Akzent macht mich fertig,15-4-2022,
484,.,termometri,,well you're too young for sure. nokia had 2 screens long time ago,9-4-2022,
485,Basti,basti46788,,Der Typ könnte 12 oder 25 Jahre alt sein 😂 @Tech Stuff | Tech Circuit,9-4-2022,
486,Hallo lol,zehra.not.found,,@hejtulauraaaa__ LOL,9-4-2022,
487,Elbender O,elbendero,,when you drop lvl 3 on your nose in bed,9-4-2022,
488,Samir,samir.hassan.10,,you are so beautiful,9-4-2022,
489,GSJools_kinda,gsjools5yes,,hi,9-4-2022,
490,Jimmy,ballzinme,,The last one is great,9-4-2022,
491,Significial 🗿,significial,,"13 pro has almost 3.1k, meanwhile the pro max has 4352?",9-4-2022,
492,Mark,markmemio,,That last one will last a week without charging😂,9-4-2022,
493,Hthehehehe,anonymoususer364798745,,Yo what’s the background music name 🎵 🔥 Sounds Sickkkk,9-4-2022,
494,tawandachiteshe,declspec,,i will onedat find u,9-4-2022,
495,subway surfers content,subwaykingprice,,second,9-4-2022,
496,stelian.bd,stelian.bd,,2,9-4-2022,
497,Deez,aquavix_,,Imagine laying in bed and dropping the 3rd one on your face,23-4-2022,
498,Danielcasey Casey,happyfelix07,,❤️❤️❤️❤️❤️❤️,23-4-2022,
499,Roland❤,p.r.e.c.i.o.u.s5,,"Fun fact if u type ""fun fact"" people will read the whole thing ( I want my like)",21-4-2022,
500,noah,realnoah15,,Jeder weiß das du deutscher bist,21-4-2022,
501,Perfect idiot✨,x.idixt.x,,I need the last one where can I get it?!,20-4-2022,
502,severin,severcar,,you just looked at the mrwhosetheboos ( i cant say his name and took his ) content,19-4-2022,
503,Amiko,amiranrogava,,"why do u keep showing on my fyp, i like put you in not interested every time",19-4-2022,
504,Youshiro,prodyoushiro,,The phone for sure blows up when you get bad news,19-4-2022,
505,Gabriel~,__boy_0__,,"Ey, bleib bei Deutsch",18-4-2022,
506,memegang6001,memegang6001,,you just stole this from @Arun Maini,17-4-2022,
507,𝔀𝓮𝓵𝓬𝓸𝓶𝓮 ミミ◦❧◦°˚°◦.¸¸◦°´,j_mpforce,,Samsung 🇰🇷📱🇰🇷 has a giant 2 screen phone 3 in 1,16-4-2022,
508,Sweeter pop,blox_fruit_crewxbox,,@vevo.vr,14-4-2022,
509,Denis Hugo Perafan,hugo.1256,,"El que tenía la 2 pensaba estaba buena, pensada para los que leen",14-4-2022,
510,Alex,idi0tic._pers0n,,@txuur,14-4-2022,
511,Erez Havusha,wabushi,,oh look! it's 2017 in east Europe!,13-4-2022,
512,I like Cheese,that.kpn,,Mrwhostheboss auf Wish bestellt,13-4-2022,
513,Special Games HD,specialgameshd,,Safe deutscher,13-4-2022,
514,Frosty,rompecostilla,,Auf Krampf International.... Ich bin in der Falschen Zeit geboren so komisch alle ..,13-4-2022,
515,Florian Towara,floriantowara,,Ich hab einfach die ersten zwei bei mir rumliegen lol,13-4-2022,
