,Comment Number (ID),Nickname,User @,Comment Text,Time,Likes
1,the_adoring_fan,the_adoring_fan,,"Germans: ""Kann es sein dass du Deutsch bist""",12-4-2022,
2,SubmissiveBaka&cookiemonster,submissivebakatiktaks,,i looooove the button because it feels more dependable and its my opinion like i am a se user it just makes me feel comfortable when i use it,12-4-2022,
3,General Grievous Fan,general_grievous03,,Button is better my opinion,12-4-2022,
4,max,simp4.max,,Lasst ihn doch mal mit dem Akzent ist doch egal Hauptsache er macht weiter so geile vid,12-4-2022,
5,Rocco,zugwelt_hessen,,dieser Akzent Junge,12-4-2022,
6,mohammed fagiri,mo_the.man,,ofcs we don’t love it lol we just can’t afford better😂,18-4-2022,
7,🎐,mmmmmm___22,,if my iPhone 8 Plus breaks i would get another one cause its big,12-4-2022,
8,Nimiro,n.i.m.i.r.o,,"Bro, can you read my mind or something like this?",12-4-2022,
9,#Williplayz,williplayztiktok,,I like the sound ok? 😂😂,11-4-2022,
10,Aland,alandthegamer,,bro compared a smaller image then a bigger image ☠,18-4-2022,
11,Drew,lightning.rider75,,My phone is unlocked before I even look at it also rectangular screens are better anyway,12-4-2022,
12,DanSimple,dansimple,,"hello. May know me from a year ago asking what mic you have, probably don't remember but anways, what boom arm do you use?? 😂",12-4-2022,
13,henry,henrytegge403,,"Er hat einen sehr guten Wortschatz und spricht flüssig, es ist doch normal dass bisschen Akzent dabei ist, trotzdem gut",12-4-2022,
14,,nooxov,,A ju a litel Deutsch?,18-4-2022,
15,Pablo ,realpablo99,,Phone with No Home Button are great,11-4-2022,
16,Tony_IV_CZ,tony_iv_cz,,Home button is best.,12-4-2022,
17,InfaReQt,infareqt,,digital home button?,11-4-2022,
18,Ole,dingsdaole,,is there a little Deutsch?,12-4-2022,
19,Noa,noa72636,,without is literally better,18-4-2022,
20,Wrong man,aguy_ticktoc765,,Im on iphone 6s,12-4-2022,
21,Daveionbrown,daveionbrownmain,,I have 8 plus’s,11-4-2022,
22,Álvaro,alvarobao,,"What about a digital home button, just like the ones from the iPhones 7 and 8?",11-4-2022,
23,Ale.tak,ale.tak,,The only disadvantage of FaceID iPhone is the capability to look the battery percentage directly on the top,11-4-2022,
24,heeeeaaaart,heeeeaaaart,,"Pt.1 My opinion on the devices without the home buttons are kinda mixed, sometime i can’t see my stats/hp in certain games because I have this massive",19-4-2022,
25,brightonlyle21,brighton360,,I don’t like it of how Apple removed the home button,18-4-2022,
26,tonikingsford,tonikingsford,,which phone 📱 do you think is a better one to get let me know,13-4-2022,
27,Hitmanboi21,hitmanboi21,,"I prefer buttons because I can't afford one without, so it's just opinion",13-4-2022,
28,what,burnt_toast.com,,I actually prefer the bezels,12-4-2022,
29,Soso,soso.58,,I love home buttons🥰,14-4-2022,
30,Mario Spiță,mariospita,,I love old phones with buttons 😂😂,1-5-2022,
31,Alfred Jul,low_quality_m3m3s,,I have been using a home buttom my 🕳 life and it is sooooo much faster then swiping😁,23-4-2022,
32,Legobatman,lego_batman111,,I have a iPhone 7 don’t know if I have homebuyer or not,19-4-2022,
33,.,_.lucaszhou._,,how bout you do my persuasive essays for me,19-4-2022,
34,Chez,chese_man24,,Have u seen the x compared to the 5or6,12-4-2022,
35,Jenshc,j.e.n.s.h.c,,I use a home button i can move on my screen,12-4-2022,
36,Jakubicek,_jakubicek_,,I love iPhones with phone button more sorry,12-4-2022,
37,Maker of cringe content,maker_of_cringe,,I have the iphone 8 😂,12-4-2022,
38,Fortnite+Roblox Edits,itsthegamermony,,ikr,18-4-2022,
39,Alex,akajzer999,,button better,12-4-2022,
40,ItsLuka23,slavluka,,Ppl having the 8 plus 😅,22-4-2022,
41,¯\_●_●_/¯,lord_leyo,,He is right😳,20-4-2022,
42,Mickie Minecraft,mickieminecraft,,Home button better,19-4-2022,
43,Serbia,serbia.official,,Serbia,11-4-2022,
44,Looka007boi,not_looka007,,Press buton once slow. swipe up your whole phone faster????😂,13-4-2022,
45,Sharif Al Humaid,sharifalhumaid,,"We know, it will be magical once they introduce in display fingerprint scanner.",20-4-2022,
46,eve williamson,eve.williamsonn,,@xtianax16 i’d prefer home button lmaooo,19-4-2022,
47,GAMEING_8921,gameing_8921,,Bro I only have iPhone 7 and I love the home button,13-4-2022,
48,Thomas Cox,coxtho101,,Ok but the feel of the button when you click it,12-4-2022,
49,I_AM_THE_KING,i_am_the_king_56,,Guys I love the button 😭,12-4-2022,
50,Hi,j0shw1ld,,I’ve got a 13 but I prefer home button bc I always accidentally swipe it playing clash Royale 😡🤬,20-4-2022,
51,Argo Roodla,kargo701,,"me: what swiping?
also me: ooooohhhhg ita those iphones thing. (i have never used an iphone and never will)",19-4-2022,
52,Alixos,snore111,,Ok,12-4-2022,
53,hi,oltid179,,bro my home button doesn’t work and now i have to use the black and white thing to go to the main screen,19-4-2022,
54,MinerElf,minerelf,,if you ♥️I phone i do not understeand you,12-4-2022,
55,Skjer a,just_someone_on_this_app,,I dont have a home button,12-4-2022,
56,i dont agree,titzlover,,"bruh imagine iphone 5s
i had this small phone
my fingers feel big when i hold this phone",12-4-2022,
57,I am so annoying 😃,imdyingtokoovid15,,what about that the button is under the screen in mine,12-4-2022,
58,ralf,rfahhl,,not that deep,12-4-2022,
59,kyubinoob,kyubinoob,,I don't have a button.I have this swipe system and it's SO comfortable,12-4-2022,
60,𝗣𝗲𝘁𝗲𝗿✞,.p4tanek,,but homebutton one are og,vor 15 Std.,
61,🤧,skaapchops,,Home burton,vor 2 T.,
62,Der Schlaumeier xxl,5hundert,,Yes dats cool but sum peepul can’t afford an iPhone with home button,16-6-2022,
63,Pansy Parkinson,slutforhermi0n3,,Why did u say my exact phone,12-6-2022,
64,marcy,2o319,,I miss my home button my home button is ripped off,6-6-2022,
65,skimask,big_ben_46942096024,,im like u,23-5-2022,
66,FraserFish 🐟 🏴󠁧󠁢󠁳󠁣󠁴󠁿,fraserfisher1,,Why do I thing the home button should be an option on apples newer phones,12-5-2022,
67,adam__14,goatboy.name147,,Home button is very good thing for me,4-5-2022,
68,RemotelyTesting,remotelytesting,,"What about an in display button? Don't have to press it, but you can press it and you can swipe",26-4-2022,
69,Syteem tik tok,systeemtiktok18,,I live no jole butten en wich home butten,24-4-2022,
70,Al,lil_animalcracker,,Personally every phone ive used has had a phone button so im kinda used to it and dont have the money for a dofferent phone.,24-4-2022,
71,Hello hello hello orphans,notapedoliu,,Me and my iPhone 8+ are not going to hear you out,23-4-2022,
72,no,editstpxx,,i like it,23-4-2022,
73,ㅤ,mavros_blackmann,,imagine scrolling and then suddenly being in the launcher,23-4-2022,
74,Vodka,hellichopper1,,Both is ok i think,23-4-2022,
75,Minion cult,ishowspeedclips013,,Both are good,23-4-2022,
76,Barney Tarins,memer9273,,I have one that you have that just touch it and boom the home screen,23-4-2022,
77,Panna guys,panna.guy,,Imagine you playing and accidentally swipes 😂😂😂,23-4-2022,
78,<3,phi4o,,Button solos 🥱,23-4-2022,
79,🫶🏻Shelby🫶🏻,ya._.girl._.shelby,,NO,23-4-2022,
80,Making_things_with_emogis,mr.doggy18,,I have a button😭😭😭,23-4-2022,
81,Twix(y) // Rosie,twixygurl123,,But sometimes the problem is someone you’ll accidentally exit an app by swiping to close to the end of the screen,23-4-2022,
82,Nothing,dog_ands_cats_together,,Ok and I have one with a home button because it’s cheaper and I’d say more reliable because Fingerprint is better and safer,23-4-2022,
83,rozo,rozothedude,,I’ve had a 6 for 4 years now when I finally upgraded I got a non-button I’d say I prefer swipe,23-4-2022,
84,hog rider,putinslefttoe5,,what about a digital,23-4-2022,
85,Vai Tuilagi,vai_tuilagi,,Without a home button is better,23-4-2022,
86,<3 trash,folge.nur_trashlolololol,,this swipe up on ipads are broken,22-4-2022,
87,Bri:),brixseilish,,I have a 7 and and it works just as well as anyone else’s💀💀,22-4-2022,
88,The Awesome Trio500,nikolozpisback,,"I didnt think removing the home button was a good idea because i never used it without the home button, but i fell in love after a week.",22-4-2022,
89,Bella,3emo.nemo,,My home button fell off at one point,22-4-2022,
90,zainab.sulaimon14,wxvy_zt,,it's all fun and games until you swipe and accidentally yeet your phone in the process,21-4-2022,
91,Toyotaisthebestcarmanufacture3,toytas_mostbiggestfan100,,What if the bottom of the phone breaks,20-4-2022,
92,Fridles main account,ibullymeowbahh3,,No bc if I swipe on a swipe up I will probs catch it,20-4-2022,
93,ᗩᒪEX ᒪIᑌ,abcd123alex,,I'm fine with both,20-4-2022,
94,ccc_19,.ccc_22,,I don’t care about the basils on the display what is it with people and caring about them,20-4-2022,
95,techthekiller,killertec,,ok,20-4-2022,
96,Ciko,ricopingvina,,samsung>,20-4-2022,
97,Kvikk lunsj🤌🐧,psytrixthepurpledemon,,I had to get new phone cuz the swipe thing didnt work,20-4-2022,
98,ari,callme..ariiil,,I once got a shock from it-,20-4-2022,
99,Andrew Rosioru :D,andrew_on_crack,,I like the click,20-4-2022,
100,ruby 😝,rubys.vibezzz,,not everyone has enough money to buy one of the phones without a button,20-4-2022,
101,Shougonai,ill.always.be.there,,"If a site crashes, I can use the home button to exit. But I can't if its not.",20-4-2022,
102,M Addisonʚ♡⃛ɞ(ू•ᴗ•ू❁)💀,roseflowersuns,,i never had a phone with the home button,20-4-2022,
103,We is me and yes I asked😀💀,who.cares.ab0mynamexd,,People are getting so lazy,20-4-2022,
104,sasha 🎸💌🍒,.sashaaaaaaaaa,,ok,20-4-2022,
105,🇮🇹❤️,alli.die_italienerin.wrn,,“That makes the phone unnecessarily big” last time I checked my iPhone 6 is 10 times smaller than my moms iPhone XR,20-4-2022,
106,gael_goodguy,gael_goodguy,,samsung doesnt have this prob because the button is digital. it disappears qhen the phone turns of off. my fav in my opinion 🤷‍♂️,20-4-2022,
107,King,drovfdhdhccuf,,"come on guys ANDROID GANG what iphones
btw... button😌",20-4-2022,
108,jayden,jayden.._..14,,Are you german,20-4-2022,
109,Angelina Ek De Berna,westr1dge,,but it's a lot more fun and feels nicer to press a button,20-4-2022,
110,doma cult,meliodas4life1,,i have the iphone 8 plus,19-4-2022,
111,Ignore me,ak.s_2,,I use home bar but I love the king: Home button. 🙂,19-4-2022,
112,Carguy,carguy_ge,,Faster?,19-4-2022,
113,Idk,someonethatudontno,,My mom is blind and needs voicover so without homebutton is alot harder for her,19-4-2022,
114,minion,mr.morgan.am.a.fool,,my hone button is there no swipe,19-4-2022,
115,Sub 2 TTgaroon,.ttgaroon,,I’m iPhone 8 normal,19-4-2022,
116,xytenz,xytenz,,Bro is comparing my phone to a iphone 13,19-4-2022,
117,Jasq,jaskushi,,no,19-4-2022,
118,Ash<33,tom_luver,,Ikr,19-4-2022,
119,Edits,just_an_editor22,,Size doesn’t matter I still love my phone,19-4-2022,
120,Alex_YaGirl,alexlovesyalol,,i forgot they had one😳,19-4-2022,
121,Nic Tu Nenajdes<3,uplne.random.ucet_lol,,i never had the home button,19-4-2022,
122,Thatfakevegan,0thatfakevegan0,,“That makes the phone way bigger” every phone from the X onwards is bigger,19-4-2022,
123,not bozo 🌚,zozothings,,button better,19-4-2022,
124,Lulle,lulle..b,,Its not faster than clicking,19-4-2022,
125,Limar💞,limar952,,Is still prefer the home button,19-4-2022,
126,Neymar großer fan,neymarpsg60kk,,True,19-4-2022,
127,nobonita 🪐,perfumerist,,"the button is better because if your playing a game, you won’t click off accidentally.",19-4-2022,
128,Nykko Gabriel Galina,fortnite_renagades,,On my last phone the button just broke now I have this iPhone 11 ITS WAY BETTER IT CANT JUST MAGGICLY BRAKE NOW,19-4-2022,
129,British_living,british_living,,I have no home button,19-4-2022,
130,Emma,emmadag07,,Ok plus vs mini isn’t fair and also the only reason I have a button is cuz I’m too broke,19-4-2022,
131,Dan,dannyboiiiis,,HOME BUTTON,19-4-2022,
132,Freddy Feisst,grizzlybear23nz,,"Yeah well not everyone can afford a iPhone 11,12 or 13 and that’s your opinion",19-4-2022,
133,John,imstaffy,,I Have a Samsung wit no home is so much better,19-4-2022,
134,Tpn supremacy,tpnsupremacy_,,I don’t like iPhones i only like the iPad I think that’s the only good thing apple has made but it still has bad battery etc,19-4-2022,
135,Qiyaam Camrodien,yaamocam2,,No cap cuz on the 15 April I got a iPhone XR it was my bday,19-4-2022,
136,Derry,.d3rry,,I’m that why I got the iPhone 7 because it’s small,19-4-2022,
137,ok,ilikejunkfoood,,I like the satisfying clicking feeling😂,19-4-2022,
138,Wanted,wantedsphere_469,,What ab a Nokia,19-4-2022,
139,Baconbiscuits124,baconbiscuits124,,I have the 8 plus and I prefer him button,19-4-2022,
140,ewanaltzz,fuckyourparent,,Button >,19-4-2022,
141,ketchupppppppppppppp,ketchupppppppppppppp,,I use the 8 plus. I love the massive design. I have massive hands.,19-4-2022,
142,ur loacal crazy gal,123..........tips,,also IT DOESNT HAVE A FRIKEN BACK BUTTON,19-4-2022,
143,First Last F1,first_last_f1,,They could remove tho top bezel but keep the button bezel on the bottom so that people woth a button still can use button but also be able to use a,19-4-2022,
144,.,i_..l0v3_..k1ttys,,Chill chill it’s called opinion,19-4-2022,
145,Pelleyuw,griezmann.zone,,My homebutton broked,19-4-2022,
146,Hell nah,aah_hell_nah,,No thank you I have tried to write one it. Big hands = not good,19-4-2022,
147,si,pheonixreb,,i love the button that shows me all the apps so i can delete them,19-4-2022,
148,Vusani_Mj,vusani_mj,,You think we have a choice ? We jusy broke bro😭,19-4-2022,
149,🤌🏻SKYFERR🤌🏻,skyferr,,Well why cant they just put the button in the screen?,19-4-2022,
150,Atlantis,aaran.t,,iPhone SE is typing....,19-4-2022,
151,i go outside,everything.isay.is.fax,,Bro just showed images to compare phone sizes💀,19-4-2022,
152,_NuriaChan_,_nuriachan_,,Bruh I’m literally using an iPhone 8 Plus,19-4-2022,
153,Vin,vinnjp,,Bro compared a plus phone to a mini phone and said it was the home button 💀💀,19-4-2022,
154,Itchy balls getting kicked,goatwithjuicycheeks,,Imagine spending 1000 on a phone instead of upgrading ur pc lol,19-4-2022,
155,Koby,minty_4_life,,He said iPhone MINI,19-4-2022,
156,Basketball 🏀 fans,dame_prodzz,,I prefer it,19-4-2022,
157,N,n_saybah,,maybe just maybe bcs the the 13 mini is called 𝗺𝗶𝗻𝗶 for a reason?? it’s supposed to be small and the iphone 8 plus is called 𝗽𝗹𝘂𝘀 for a reaso-,19-4-2022,
158,horizon,fallenhorizon_,,"A couldn’t agree more. If my fingers are even slightly wet, the the Touch ID wouldn’t work. Face ID is accurate and can be more accurate with multiple",19-4-2022,
159,U+me=ur mom,ur_mom_be_thic,,8s plus users 🥲,19-4-2022,
160,Sspling,harriesspy,,What about the iPhone 4 it’s smaller,19-4-2022,
161,ewanlarge,ewanlarge,,ikr i recently switched my android to not have the digital home button and have swipe instaid and i like it better,19-4-2022,
162,aperson,anpersonlol,,"for me, I don't like fullscreem phones mainly because I like a rectangular screen and sometimes it can think of unnecessary things such as my bedshee",19-4-2022,
163,Darth,darth.aep,,I agree,19-4-2022,
164,King slimee,i_l1ke_axolotls,,i hatte the Home Button because it Always happends that i want top hold it Side ways and then Press it while im playing,19-4-2022,
165,hala,opiumatic,,damn if ur pressed then buy me one,19-4-2022,
166,starplatinumtheworld,starplatnimtheworld,,The one with the home button you show is smaller than the other,19-4-2022,
167,ilay a simp,ilay_abrgil_,,Me with the 8+😬,19-4-2022,
168,.\/,zak_dno1,,i cant get rid of the 8 plus dont blame me,19-4-2022,
169,ᴏʙsᴇssᴇᴅ ᴡɪᴛʜ ᴄᴏʀᴀʟɪɴᴇ ❤︎,coraalineeeee,,home is better,18-4-2022,
170,Yoriichi Tsugikini,v1xter0,,And I just swiped,18-4-2022,
171,Андреј,andrejdelija1989,,and that home button is useful because if display breaks on phones without home button will not be useful,18-4-2022,
172,Aayan Sattar,aayansattar,,I have the 8 plus,18-4-2022,
173,bingus,xxpopeye_solosxx,,I love button,18-4-2022,
174,⠀ ⠀ ⠀ ⠀ ⠀ ⠀,forida_man,,If you playing online games you won’t get disconnected by accidentally swiping up,18-4-2022,
175,mason troy adams,curb.your.soul,,I’m poor I can’t get anything more than the iPhone 7,18-4-2022,
176,Breakpoint △ △ △,breakpointglitch,,This man speaking fax,18-4-2022,
177,Alex05gr (greek edition),alex02groficial,,true,18-4-2022,
178,Vilmer,wafflethecool,,bro just compared a plus phone with a mini phone 😂,18-4-2022,
179,Woof,bruva67,,I love home button im on the iPhone 7,18-4-2022,
180,julia,c00l.us3r,,where are you from?,18-4-2022,
181,Cheesysticks,cheesysticks2,,Talk about the iPhone Se 😂.How is that big,18-4-2022,
182,Ithoughttiktokwasbad,ithoughttiktokwasbad,,So you want a Nokia?,18-4-2022,
183,NietNoah,noahdingemanse,,I love the home button!👹,18-4-2022,
184,brooklynn,brookthecookk,,Nooo the button is easier,18-4-2022,
185,idiot2.0,akira_sk8,,faster?,18-4-2022,
186,superbendyplush,letsplayer27,,But what if in a app you have to swipe in the exact area the bar is to do something?,18-4-2022,
187,Sara_Ra3ed,sara_ra3ed,,Iphone 8plus is the best dont talk on my phone i feel with the button so confortable😏,18-4-2022,
188,Terminate1,terminite1,,Button over swipe,18-4-2022,
189,Ara,oparayt,,U can get me one without button🥺,18-4-2022,
190,Gracie,grace_stevens0n,,Not me having an iPhone 8+ and loving it,18-4-2022,
191,Casey loves Wheel,caseyplayzyt1,,Amen. Swipe > Button,18-4-2022,
192,Brendons_editz,brendons_editz,,i have the samsung S9 and it has a home button thing but you can change it to be like an iphone,18-4-2022,
193,Jonathan,jolly.jono,,My iPod is unnecessarily big,18-4-2022,
194,forcznajt,fortnite_best69420,,i don't like swiping. i use the navigation keys,18-4-2022,
195,Teweri069,miropirttimaki,,I have oneplus,18-4-2022,
196,Tica,tica.da.cutie,,I love the home button,18-4-2022,
197,Vg.man,vg.man,,guys mine doesn't even swipe it just stays there,18-4-2022,
198,roblaze14,roblaze14,,"I have back, home and button to close apps on screen and I like it",13-4-2022,
199,pixal,pixal34,,or just dont use iphone it will save you a few thousand dollars,19-4-2022,
200,Galactic,galactic_7092,,I use an ipad instead of an iphone😳😳,13-4-2022,
201,slaygirl2000,user0697602715,,ok wdym by “makes it big” i have the iphone SE and all my friends bully me for having such a small phone😭😭😭,12-4-2022,
202,Shadrach,shadrach_05,,Not to mention that it's prone to breaking and accumulating dust 😫,12-4-2022,
203,Samsi,samsi32123,,depends on the phone. mine is a redmi and the digital Button doesn't react so well,12-4-2022,
204,Cowboyjoe329,ttv_chickenjuice,,It takes time to get use to and at first I didn’t like it but now I could never go back to the home button,12-4-2022,
205,Roman Yusuf,romanyusuf,,This @saikou6969 guy loves the home button,12-4-2022,
206,.,_...linnea,,"i don’t have the money for an iphone x or over and i’m not buying an android, i have experience 😐",20-4-2022,
207,Car games,09_jeep_grand_cherokee,,So when you’re playing games and you swipe down and you lose all the progress you’re super happy yup that happens to me and I’m super happy 😃,20-4-2022,
208,It’s called swag,no1wantselliott,,im not paying an extra 100 bucks for the button to be removed,20-4-2022,
209,fatlad2005 | 1.9k,fatlad2005,,I’m not used to the phone without a home button. Been with the home button since I first got a phone,20-4-2022,
210,finn,onionheadlad,,i cant afford a new phone and mine is great,20-4-2022,
211,😩,oneplusfive1,,Yeah but I’m poor,19-4-2022,
212,Pou3321,pou3321,,ok but my original se is the same size as the iphone 13 and i like it more,19-4-2022,
213,Carguy,carguy_ge,,Bro why are you comparing a plus to a mini😂,19-4-2022,
214,eliza😻🤞,eliqzaa,,button = better,19-4-2022,
215,Idk but idk,professional_thief,,try samsung,19-4-2022,
216,SinKroksica╭∩╮(ಠ_ಠ)╭∩╮,sinkroksica,,bro my time is same as the time at your phone in the video,19-4-2022,
217,Asfodel,yyuamory,,Samsung s10 has a button but it's a digital button that pops up on your screen,19-4-2022,
218,REE🤩,reehan_15,,“ u swipe with ur phone all the time” yeah ur right just like how I swiped on ur vid,19-4-2022,
219,CLICK THIS LINK TO GET MONEY,hullupipsa,,"I had samsung galaxy a32 5g and have now iphone 7 and I COULD NOT LIVE WITHOUT THE HOME BUTTON, Its my life!!!🥰🥰🥰",19-4-2022,
220,Alex Stoev413,alex_24580,,I know,19-4-2022,
221,Sofiouki_198,nitendofroggy,,i am in android,19-4-2022,
222,_TomTikTok,_tomtiktok,,Compare iPhone 8 and iPhone 12 or 13,19-4-2022,
223,Maja,maja.the.fairy,,I have the button because my other phone baned google,19-4-2022,
224,hi I'm...,somedude69_1,,bro I didn't even notice the loop😅,19-4-2022,
225,NM7,nm72._,,Iphone SE 2020😂?,19-4-2022,
226,larissa<3,.ctqfxl,,I have iPhone 8+ I used to always want the phone button but now I hate it 🥲,19-4-2022,
227,GruntyBoi Henderson,grunty.boi2,,it's just my opinion😁,19-4-2022,
228,⚡️Sonic ✨,sonic.brody,,I have an iPhone 7 💀,19-4-2022,
229,Barry_Allen_fan,barryallenfan_,,I have iPhone 9 which has the option for button and you can remove it my pulling it and put extension of thr display,19-4-2022,
230,…,ikke_singel_gutten,,They ho have a 8+ is cool,19-4-2022,
231,🌸pastel🌸,pasteldrawz_anime,,fax,19-4-2022,
232,Sirajandstuff,habtisiraj,,Home buttons are better,19-4-2022,
233,RDR2 edits,jesse_dolan101,,I prefer home button it just feels more real idk,19-4-2022,
234,Salma Mohamed,sue708,,I got the 8plus just for the home button,19-4-2022,
235,user441997255007,mrduck1028,,Con u can break it,19-4-2022,
236,-Cloudy-,txla_clxudy,,But they’re way more expensive,19-4-2022,
237,snowyflacke#4693,snowyflacke4693,,Gotta love a broken one more,19-4-2022,
238,nobody,alone_as.always,,iphone 8 plus is better,19-4-2022,
239,SUBWAY SURF!!,bob.the.blob.subway,,Me uaing a old iphone se bc. My phone broek,19-4-2022,
240,PlayerKiller011 / PK011,playerkiller011,,"The bar would probably get in the way of small things at the bottom of the screen, like the horizontal scroll bar.",19-4-2022,
241,niblone,niblone,,Its satisfying ok? 😂,19-4-2022,
242,Doge,doge820,,no. if i swipe up i click on the add in my game,19-4-2022,
243,Shaihan.22,shaihan.22,,I have an iphone 7 and I don't use the home button at all (cause it's broken 😌),19-4-2022,
244,void_skyy,skyonpcx,,guess i’m a menace,19-4-2022,
245,🇦🇺🇩🇪🇳🇿,ggbluesbro,,nah bro when ever I swipe it comes up with home it’s so hard,19-4-2022,
246,I am that 0.01 person,most.weird.random.vids,,It's called app switcher,19-4-2022,
247,urmom,blackmaletesticles,,it's just a phone bruh,19-4-2022,
248,🐍,vazouras.loco,,my phone have a option snd i can make it with or without button,19-4-2022,
249,Skitiga Leif,skitigaleif,,This guy would cry if he saw Nokia3310 😳😅,19-4-2022,
250,Thommyy,fazethom0,,I have an 8 plus 😅,19-4-2022,
251,You don’t know me,you.dont.know.me.yet2,,I have The 8 plus-,19-4-2022,
252,*-*,andrew.n0t_f0und,,i have a O,19-4-2022,
253,David,juicey_no19,,Its so hard to control without home button,19-4-2022,
254,Alex,cartokcomunity,,what qbout the opharns...,19-4-2022,
255,Kiro,theartistthatneverpost,,Samsung user watching this,19-4-2022,
256,Sonic 2.0,sonic_verse,,but pressing the button is much satisfying 👌,19-4-2022,
257,Adam ܐܕܡ,adamxeros,,"I love home button because no home button no touch id which is faster and better security.
Why didn't apple use side fingerprint or backside?",19-4-2022,
258,mystery poster gives sh!t vids,mystery_boi_foot,,bro if you don't like samsung I don't understand you 😒,19-4-2022,
259,LufcDyl,dostrachan1610,,It is,19-4-2022,
260,Leah✨🧸,leahprogamee,,Yes but if u think about it the iPhone 13 mini is MINI so the normal iphone 13 would probably be the same size as the iPhone 8,19-4-2022,
261,🇧🇦𝖃Mateo𝖃🇧🇦,olaf_holz8293,,and i use samsung,19-4-2022,
262,I make cars,mylfslayer5,,yet apple has an unnecessary notch anyways so there's no avoiding it,19-4-2022,
263,Teun,____teun____2,,Lol I don’t cuz my parants won’t get me a xr or Samsung,19-4-2022,
264,Flavio Rondino349,flaviolmaoo0,,I agree but when gaming and accidently swipe up,19-4-2022,
265,Spongebob the hoca,goostz,,Home button is superior,18-4-2022,
266,RandomGuy_5699,randomguy_5699,,I prefer a non home button iPhone up but i don’t have enough money for a non home button iPhone and my parents won’t get me one either,18-4-2022,
267,No idea,aronli705,,the se is probably mostly for adult who are very short kids or old people who don't know how to swipe,18-4-2022,
268,🌸,skog__,,ngl i took my home button iphone jailbroke it obly to not have a home button,18-4-2022,
269,lior_not_found,lior_not_found,,I would buy a phone without a home button but i just dont have that money,16-4-2022,
270,HowHauoo,howhauoo,,Thinking of intense rhythm gaming on your phone. (and you swiped the home gesture) fffffff,13-4-2022,
271,🪐🪐,unovrse,,ok get me one,12-4-2022,
272,𝐍𝐔𝐄𝐋'𝐬 𝐋𝐄𝐆𝐀𝐂𝐘,dikos_yt,,don't you make videos bout Androids?,12-4-2022,
273,Do I Look Like I Give A Fuck,dilligaf_cuzidont,,i have a samsung.... with a home button IN THE SCREEEEEEEEEEN,12-4-2022,
274,Arran,arrandacrayon,,The home button is FINE,12-4-2022,
275,stupidmelon go subscribe to me,lbozoratiolollol,,are we taking strict iPhones or all phones cause my home button is on my screen,12-4-2022,
276,Mahmoud Labbad,mahmoudlabbadlabb,,yes,12-4-2022,
277,TavoTėvas išėjo pieno,_airidas_panevezy_,,I use iPhone 8😂,12-4-2022,
278,🌚,kinderenthusiast,,The button is satasfting and the swipe is complicated to switch to,12-4-2022,
279,Ayatoes lover,drunkyato,,THO IF YIUR PHONE LAGS YOU CAN TRY TO DO SOMETHING WITH PYSICAL,12-4-2022,
280,Jonathan Wittmann,jonny_extreme13,,wie die deutsches alles hier einnehmen,19-4-2022,
281,Mr E,melmews,,Those who say that just can’t afford an IPhone X and above 😂,11-4-2022,
282,Spyro,i4am_spyro,,My iPad has both in the screen 😏,23-4-2022,
283,🟪,carls.minion,,Home button gang forever,23-4-2022,
284,codoudrammeh3,codoudrammeh3,,I can do both 🥰🥰,20-4-2022,
285,LufcDyl,dostrachan1610,,I rarely use the swipe cause I have face id,19-4-2022,
286,call_sign_darko,darkowttankist,,i may be weird but i like a lil bigger phones,19-4-2022,
287,mazen,obviously.no.one,,me with iphone 8 plus getting bullied,18-4-2022,
288,vinny,.tinyvinny,,ok bro how much they pay you for this?,18-4-2022,
289,Tejytee,tejytee,,I got a iphone 6.just like a nokia,19-4-2022,
290,der_dr_pepper_in_roblox,der_dr_pepper_in_roblox,,Team no homebutton⬇️⬇️⬇️,12-4-2022,
291,15.3.2008,jonisaveus,,People who have a phone with a button 👉,11-4-2022,
292,Bosnia and military clips,bosnia_best_military11,,Ok but here are some new emojis 🫤🫡🫵🏻🫳🏻🫶🏻🫥🥹🫣🫠🫰🏿 and there are many more,19-4-2022,
293,James Maughan-Brown,jamey_j101,,orphans use phones without home buttons,19-4-2022,
294,Cactus_dave12341,cactus_dave,,"Swiping is counterintuitive and frustrating, having to swipe up for every function just in slightly different directions is just bad design",13-4-2022,
295,David Narayanan,david.sus1,,iphone x is pretty cheap now days,12-4-2022,
296,Chiwealth House,chiwealthhouse,,Cap 🧢,22-4-2022,
297,dontknowwhy_1,dontknowwhy_1,,But i hate the camera notches at the top,19-4-2022,
298,...,shinrayyy,,I smell a little bit deutsch,12-4-2022,
299,honza,stonksxdd,,"but face id is a piece of trash, so i had to go back to the best phone with a home button - the 8 plus",12-4-2022,
300,✨THAT ONE GUY✨,that_one_guy4001,,8+ gang here ,23-4-2022,
301,ᗩᒪᗴ᙭ ᵛˡᵒᵍˢ,1ndie_vlogs__,,I hate the home button I don't have a home button ✅,23-4-2022,
302,DouBoy,douboy_axux,,bigger ia better lul,23-4-2022,
303,MountedSpaceX,mountedspacex,,🫘🫘🫘🫘🫘🫘🫘📿,22-4-2022,
304,Arbuzas Storas,arbuzasstoras,,what if i brake my screen,22-4-2022,
305,super_user_do,super_user_do,,I prefer physical Buttons anyway,22-4-2022,
306,Therudking Real,navs_real,,Fingerprint,22-4-2022,
307,it’s alysia 🤍🫶🏻,alysia..faith,,What if your swiping and you come of the app that would be annoying,20-4-2022,
308,Mohamad Hamouda,broyaseen,,Face ID is ass it never works on me and if you’re going to make Face ID can you at least bring back fingerprint id and make a circle on the phone,20-4-2022,
309,TyreChewingDog,tyrechewingdog,,I prefer the button because I want a more tactile feel,19-4-2022,
310,Bobo,dragonweebz,,Button better,19-4-2022,
311,user183732922272,user18373292227,,I prefer the button,19-4-2022,
312,𝚖𝚒𝚌𝚑𝚊𝚎𝚕𝚕𝚊,rndom_trends,,𝐟𝐫,19-4-2022,
313,xxx123_Tia_123xxx,xx123_tia_123xx,,"I have without home button, and I just have to swipe to the side to go back",19-4-2022,
314,zapalka_ogan,zapalka_ogan,,Myconism,19-4-2022,
315,1susbus,1susbus,,susbus,18-4-2022,
316,Hhhhhhhhhhhhhhhh,suscolossus,,This is nothing compared to assistive touch,18-4-2022,
317,Chihab,chihab5016,,why you love the notch it's very annoying !,13-4-2022,
318,fin,f1n_hard,,touch id is so much better than face id,19-4-2022,
319,sub 2 DexifySZN,sub2dexifyszn,,Home button gang better,vor 4 T.,
320,swah fn,rockyxsprock,,Because that a mini,22-4-2022,
321,Nceppy48,nceppy48,,I like home buttons better,22-4-2022,
322,Henry SteamOS Fan,henrysteamosfan,,👎,19-4-2022,
323,EXPOOSED.ALB,expoosed.alb,,OPTICAL FINGERPRINT SENSOR👑,12-4-2022,
324,🙈Pauete🙈,_pauete,,Can you recomend me a good 125$ phone pla🥺,12-4-2022,
325,Hayden,hayden_rowe,,I have a 13 mini 🥰,19-4-2022,
326,Kaname Kazanami,kaname_kazanami,,"i like the home button more, because of the fingerprint sensor 😅",12-4-2022,
327,Minion cult,ishowspeedclips013,,But swiping is like throwing ur phone in the air,23-4-2022,
328,TheRealCap,the_cap67,,My brother’s I phone is the big I phone 7 plus it’s the size of my pe*,22-4-2022,
329,𝕯𝖊𝘃𝖎𝖑,criziki,,Cool but what I don’t wanna pay almost $1000 for a phone,22-4-2022,
330,Ryan Deeth533,ryandeeth533,,I can’t understand your accent,22-4-2022,
331,Mulla qeqa,i_russ75,,We just broke boiz,19-4-2022,
332,My body my choice!!,stxardust_,,Radio el you double you me,19-4-2022,
333,Mx3ticxl,mx3ticxl,,Button supremacy i just like pressing but I’m gettin a newer iPhone without the home button cuz mines getting too old :(,19-4-2022,
334,Balls,lukehasptsd,,bro just compared an 8 plus to an 13 mini😑,19-4-2022,
335,MrAddX,mraddxtiktok,,13 mini probably has a great personality,19-4-2022,
336,Kaden OC,kaden_oc,,Finger print.,19-4-2022,
337,TheRelaxingEndOfMinecraft,treomc,,swipe is better unless you have a low budget phone that chrashes with every swipe and you have to wait 2 minutes to see the hoe screen,19-4-2022,
338,✨Toasters✨,stewie_the_hamster,,I like clicky button ok?,19-4-2022,
339,InfuseGOD,infusegod,,and then u have androind,19-4-2022,
340,MINOIN,minoinsrthebest,,"I, broke",19-4-2022,
341,saad,b.s_draco,,see hiw much 0.1 inche is it a lot i would say 5 nanometers is the perfect lenght woudnt you say so,18-4-2022,
342,Hassan Tahir,hassaninnit34,,I love the home button i have an se2020,18-4-2022,
343,DannosS02_RL,dannos02_rl,,"like the fingerprint sensors on back of phones, why not make that a home button",13-4-2022,
344,jungkookstoesocks,jedorae,,I’ll stick with my 6s till I’ve got enough for a new phone,12-4-2022,
345,Adi_,hakaladi111,,I have 13 mini,19-4-2022,
346,$antana frm da city,dbsantanah,,but the 8 is smaller than the 13,19-4-2022,
347,"Names: green,len,one,nick,lu",slay_lesbians,,It always get pushed it or clogged up w dirt,19-4-2022,
348,idc☹︎,just_lil_depressed,,i smell german,13-4-2022,
349,I will analyze,kowalski_analysis28,,"keep fanboying apple and not caring at all about an opinion, cuz when you talked about Mac studio it wasn't even close to the graphs apple showed",12-4-2022,
350,???,do_chuja,,home button on back of the phone? genius,12-4-2022,
351,Scott Espy,mncoin,,why can't we save these videos?,12-4-2022,
352,yng,n0tyafet,,I’m using my old phone currently since I’m in a different country and I’ve been back and forth and no home button 10x better,4-6-2022,
353,Skittle,y0ur_l0cl.dumbass,,Button is wayyyyyy BETTER I’ve never had one without but I think it’ll b annoying,15-5-2022,
354,Joshua Hernandez 🇪🇸,joshthedumbass1,,I have a iPhone se 3 but I don't care about it,22-4-2022,
355,"(l,n,n,j)<33",i.4.r.4,,on ipad (im not sure if this is for other iphones) you can still swipe to leave apps WITH a home button,12-4-2022,
356,Pp,neoncxmplex,,the people that know you can have a digital home button - 😐,12-4-2022,
357,WilliMetru,willimetru,,"The Samsung S9 combines them. If you're on Android 10, you can enable gestures and use the under display home button. It's the best of both worlds.",25-4-2022,
358,el fin se acerca,asimpforspiderman,,You can literally swipe on your phone with button..,24-4-2022,
359,The Country Nerdd,thecountrynerdd,,I literally have to press home button 76837262929464 times to unlock it and its ANNNYINGGG,22-4-2022,
360,Huey,huey.editz,,"now imagine, your playing online game you accidentally swipe to left and boom you got kicked out of game, button better",20-4-2022,
361,Aenon Palma,aenonpalma,,bruh if you give a no button phone to the elderly they will get confused on what gestures to swipe,20-4-2022,
362,Mathieu Morin,mathieumorin35,,heck I'm still looking for Android versus Apple and price but if you're on to buttons then I'll take the cheaper one Android please😅,20-4-2022,
363,Jad,yourofficialmuslim,,Imagine swiping on tiktok and you accidentally swipe on the home button,19-4-2022,
364,Roblox,dahoodsurvivor,,Without>>,19-4-2022,
365,Landon Van Geel,cuh80,,I love my home button it feels more handy and it does if you’re screaming it’s cracked you can’t open your damn phone If you have a home button,19-4-2022,
366,Dave,joe_mama_086,,I’ll tell why the home button is bad and the other is better because the home button can get broken easily,19-4-2022,
367,IXA Noob,ixanoob,,while plaing games you can accedentally go to home screen cuz pressing button cant make you go to screen by accedent home button can be smaller,19-4-2022,
368,zain.clancy,zain.clancy,,I rather home buttons bc I’m used to them,19-4-2022,
369,<33333,iceyhrtpixi,,yea but if you it dosent work to play on your display you use button,19-4-2022,
370,Katerina <3,hiswayhome,,home button>>>>,19-4-2022,
371,Cameron Hammond,camcamhow,,"see I'm over here with a android and we still have a home button it's just not physical, and I've used iPhone and I can say a swipe is more annoying t",18-4-2022,
372,fat hulk,bigfathulk,,what if you scroll and tiktok and accidently press the home swipe button,18-4-2022,
373,Nah.Im.Good.303,303washere,,"ok but me swiping all the time makes me accidentally swipe when i dont want to, you just don’t accidentally press the home buttom.",13-4-2022,
374,Teun,____teun____2,,I think screen could be bigger with home button,19-4-2022,
375,SLAVIC MAN,yugoslaviaisthebest69,,my phone better with buttons bc its not so complicated like my dad has a phone without buttons so..... he said that with buttons is better. 😂😂,20-4-2022,
376,Vi.,woahitswindows,,Chill it’s an opinion I like the home button,19-4-2022,
377,Plush Gang is the best!!,jonikled,,i really don't like the home button either.,19-4-2022,
378,Jack Makins,hungryhedgehog56,,I like the home button but prefer swiping,19-4-2022,
379,idk.who.is.ur.friend,idk.who.you.friend.is,,I have phone with home Button:( That means you don’t like my phone?,19-4-2022,
380,Tina Dong,tinadong22,,I like the joke button.,18-4-2022,
381,mk,vitalvibe,,"My phone has no home button but I like the home button because if I need my passcode for something I don’t even look at it, just tap my finger.",18-4-2022,
382,Jad Khawaja200,nytric_vr,,I like my home button,13-4-2022,
383,Khali Wizzy,khaliwizzy,,Some don’t like the home button but they just can’t afford the face id they go for what they can afford,13-4-2022,
384,Ricky ;),cardolive,,"I do prefer buttonless phones, but my grandparents for example like buttons cause it’s simple for them to use",13-4-2022,
385,RXMIM,rzmim,,it's for old people tbh my parents like home buttons but I don't,12-4-2022,
386,taser_ninja,vfx_vixx,,I like home button on the screen :>,13-4-2022,
387,Courtney<anyone,alesxee,,I still like home buttons more,13-4-2022,
388,Valerio Longobardi,longobardo_08,,I like the home button 🥺,12-4-2022,
389,techno_wolf_YT,techno_wolf_yt_,,what about fingerprint lock? i miss it but on samsung u get it back in/on the screen,25-4-2022,
390,Hey sista,h8na4,,Phones and iPads with the button is better since you can still swipe up,20-4-2022,
391,Charbel Mghzalle,charbelmghzalle,,I have android navigation bar swipe is faster true😁,19-4-2022,
392,✨ Princess Anona✨,princessanona5,,I have IOS 8 with Home Button and I love it 🥰,19-4-2022,
393,💍𝓡𝓪𝓿𝓲𝓲💍,rowenaabbott72,,So much faster n satisfying 😂,19-4-2022,
394,Kezs,kezz_1234,,I have a 8 plus 😅,20-4-2022,
395,Adam Frederiksen,adamfrederiksen120,,People swipe on their phone💀 i use a nes controller,12-4-2022,
396,Leyshaibispantxfanpage,leyshaibispantxfanpage,,i love without a home button and I totally agree with u,23-4-2022,
397,Random_stuff<3,_random_905,,I like booth,23-4-2022,
398,Ryker Knibbs,shreikfart,,Home button Apex,21-4-2022,
399,the jsters,jster72,,lol on samsung u can have a display home button or u can swipe,21-4-2022,
400,Ziyanda.lifestyle,ziyanda.lifestyle1,,i have the digital home button i don't like it because its just a simple touch wich i do touch by accident but with a regular button you have to 1/2,20-4-2022,
401,SuperXJohnny,superxjohnny,,IKR,20-4-2022,
402,user7757309865699,richydrum5,,"please can u get me an iphone,, I will be so grateful",20-4-2022,
403,𝑗•𝑢•𝑙•𝑒•𝑠⛸,breadsticks4lifer,,well some people cant afford to get the iPhone 13 Pro Max,20-4-2022,
404,kayleigh❣️wootton,helloitzmekayleigh,,"Me, with an 8+ : 👁👄👁",20-4-2022,
405,user5739011546622,vasu_the_best04,,If u like swiping it’s fine aswell as having the home button like I do,19-4-2022,
406,Ruben-_-degg,rubendegg4,,I disagree,19-4-2022,
407,😭✋😩NRG Tom123😩✋😭,pulse.rl.2,,Me on a 8plues,19-4-2022,
408,mVALEK,nofurrieallowed,,I wonder why the iPhone 8 is bigger than the iPhone 13 MINI,19-4-2022,
409,naza_baby1,naza_baby1,,How about a IPhone,19-4-2022,
410,Reina,reinaalhaj,,Ikr,19-4-2022,
411,Cam,camilopss_,,With the button are way better yo,19-4-2022,
412,dariusz,rock_rb_ets2,,bro showed my phone twice 💀,19-4-2022,
413,JKL,jkl34456,,and buying an Android is so much better!,19-4-2022,
414,Attendant Of The Ring,attendantofthering,,But the clicks the button makes,19-4-2022,
415,Weronika<3,alohaxwero,,Bro that’s an opinion,19-4-2022,
416,Bsbslbzkbe,ali_el_mernissi0,,𝕙𝕚 𝕙𝕚 𝕟𝕠𝕥𝕚𝕔𝕖 𝕞𝕖 𝕡𝕝𝕤 [cry],19-4-2022,
417,Rick,rick_is_prettier_,,But it takes you to the home page,19-4-2022,
418,GeorgeK,geokoup,,that's why you prefer samsung or android😳😳,19-4-2022,
419,CatKing,super.katking,,It’s cool ok,19-4-2022,
420,Ash pash_Mkglover,ashpash_mkglover,,If I got the 13 mini I would just add the assistive touch button,19-4-2022,
421,THAT_BITCHHH😮‍💨,that_bitchhh_,,Buy me one then😏,19-4-2022,
422,Hiiiii how ya doiiin,suyashlachman2005,,Then donate money to me 💀💀,19-4-2022,
423,aden.iman.sanaa.sofi,epicaden10,,What about digital buttons?,18-4-2022,
424,Emma💕,aesthetic.roblox072,,Yea thats why i use samsung (digital home button),18-4-2022,
425,REALSyG,realsyg,,"I use an iPhone 11, but still, this is just an opinion chill dude",18-4-2022,
426,lordneave19,lordneave19,,Pov you have a iPhone 13 mini,18-4-2022,
427,omarabounahia,omarabounahia,,"I have the 8 plus and I am typing on it right now, but for me I say that the phone is not that big. And by the way, swiping up is way,way easier.",18-4-2022,
428,𝔻ℛO🅸︎🇩 ✪,nba_freeze_my_guy,,"Home Button 4L, It's Simply Better, Fingerprint, Better To Exit Apps And Much More",18-4-2022,
429,Yusuf,arabs4ever,,iPad can do both u know?,16-4-2022,
430,red potatoes,bluepotatordgsandlife,,I love the phone button:(,13-4-2022,
431,Daniel The G🫦🫣,daniel_lucas___,,Say “im gonna break my monitor I swear “,12-4-2022,
432,xo.lolamay.xo,xo.lolamay.xo,,@grace.2022xox the ones we have are way better,19-4-2022,
433,madi🇮🇪🫶🏻,yourmyxbestie,,just like I swiped your video,19-4-2022,
434,Giffingamergo,griffingamer0,,And also the button allows me to have control and have an option,19-4-2022,
435,Emilia 🤍,x.emilia.privv,,I had a iPhone 7 and now I have a iPhone 11 pro it’s in my opinion it’s so much better it’s quicker to switch apps,19-4-2022,
436,Hi,thebonnieplushie,,it's mini so its obviously gonna be mini,12-4-2022,
437,Yeldar,yeldar5,,I prefer the home button because sometimes swiping doesn’t work or if your hands are oily sticky or wet the swipe thing does random stuff by itself,24-4-2022,
438,shunyung72,yungshun3,,ogbeni,22-4-2022,
439,Your a 🐍,siggisaggi07,,Roblox and tik tok is horrible without a button,19-4-2022,
440,RoseyPoseyPuddingPie,roseyposeypuddingpie,,Button better 😎,19-4-2022,
441,sono il senza nome,sonoilsenzanome_yt,,"I HATE home button, and I have an 8 Plus…",18-4-2022,
442,Someone,mr_anxiety20,,I like putton more,19-4-2022,
443,adelaide 🤍,wlffhards,,buttons r better,19-4-2022,
444,phiennn💙💙,phinelevertt,,@frederiquekotkampp niet waar❌,19-4-2022,
445,Sheesh,_official._.lizzie_,,Face ID 🗣,19-4-2022,
446,ItzAlan69,itzalan69,,I have 13 mini,21-4-2022,
447,♥️,bffjesvanlisa,,"I have an 8+ and i HATE it, i Elly want an 12 or Sum ( Im gratefull tho)",20-4-2022,
448,Nathan Taylor,imgoodhbubru,,0.1 Inch is a lot,18-4-2022,
449,Tamika Mitchem,tamikamitchem7,,POV you’re the one without a home button just a swipe,20-4-2022,
450,no,drmwstknwastaken,,And screenshotting with a home button😭,19-4-2022,
451,spam = 𝐛𝐥𝐨𝐜𝐤𝐞𝐝,banana_baran,,500 Android my whole life and I I'm kind of both to get out you need a button but it's like not around button it's just like a button that is swipe 2,19-4-2022,
452,MATCHING PFPS WITH KWINCY💛💛,khanzafazil_,,Okay? But the sound is kinda satisfying and I like the button,19-4-2022,
453,Paul,oldwomanlover69,,na hörmal,11-4-2022,
454,football⚽,000km...7...10,,just because of the swiping you can accidentaly go out an app,12-4-2022,
455,Wanted,._wanted,,Bro straight up mentioned my phone,11-4-2022,
456,Aparti496,aparti496,,"Chill that is Opinion, and not anyone has the money to buy a phone without a home button",11-4-2022,
457,Parneet,._.parneet._,,@cr0wn_prince,vor 3 T.,
458,Aria <3,ariadne.112,,@pigi_greektoker @helen_dmtrss,19-4-2022,
459,😺,mao.zedong.cat,,@bent_2007 :),12-4-2022,
460,LZ💯,unavailablelz,,@anonymousdonuts,19-4-2022,
461,HARD-CORE MARVEL FAN😍😍,steevansonisaac,,@taniarachelanson,19-4-2022,
462,Mo-F,far6an_3rr0r,,bro it’s ppls opinion so yeah,19-4-2022,
463,IVeBe07,ivebe07,,I’m offended,19-4-2022,
464,That.gacha_bish,that._.girly.loser,,Sooo u can’t screenshot,19-4-2022,
465,_marvel__simp_,_marvel__simp_,,"in your comparison it's literally in the name, 13 MINI",18-4-2022,
466,Random Stuff,mostly_carstok,,Chill you know that opinions exist dude,12-4-2022,
467,realdud3,realdud3,,N,19-4-2022,
468,Eugene U845,idk03108,,touch ID tho,19-4-2022,
469,mental family<33,mentalfamily_fan10,,"@hipeopledotnpostvid:not contect related but please @hipeopledotnpostvid:SPREAD AWARENESS❗❗
#LetTheEarthBreath🌍
#SavePlanetEarth 🌍
#StopFossilFuel",20-4-2022,
470,Hi,kakemonsteret1,,Touch id,19-4-2022,
471,opsecman,opsecman,,This is based in a bad way,18-4-2022,
472,Umar....faruq M,umar0muhammad_,,i dont like you mahn😌,19-4-2022,
473,@Samo_k_49,samo_k_49,,bro really plays with dirt or something💀,19-4-2022,
474,internalcabbage,internal_cabbage,,HOWEVER if someone screen record that is constantly on the bottom and if you are trying to play a game involving swiping it gets very irritating,11-4-2022,
475,Tik Toker,._m._.e._.m._.e._,,Why u hate my phone😩,16-5-2022,
476,yKyle_,urosisus,,my brothers home button died randomly one day and he doesnt know why. now he uses the little ball on screen to leave an app,12-4-2022,
477,its me foxy_the_fox.420,foxythepiratefoxq,,what is a home button?,21-4-2022,
478,ghost,luv4gabbyx,,@nasharaasante,19-4-2022,
479,Thecoolhuman2.0,thecoolhuman2.0,,@craby77,19-4-2022,
480,Penny,penny.yhhhh,,We making wars about buttons now? 💀,19-4-2022,
481,Youssef Jaber801,youssefjaber85,,Bro chill just because you don’t like it that doesn’t mean the others necessarily don’t like it to,18-4-2022,
482,<3,kax.716st,,@real.life.sux_,20-4-2022,
483,Betch_boy,stirm_floppa,,Ok? Idc?,19-4-2022,
484,Giffingamergo,griffingamer0,,Ok right I’ll let you know I’ve got a phone with a button and it’s small so not very true,19-4-2022,
485,Frederico,frederick.star,,Lazy,20-4-2022,
486,AngelBePro,angelrealpro,,"Using a home buttton like on the iPhone 8 feels like you use something real, dynamic, where I don’t like that much swiping",12-4-2022,
487,XXXTENTACION for life919191919,bradleyfvvtvt99999,,I don’t know why you’re doing this because of the bottom of the screen the iPad has a tool bar we can click up,12-4-2022,
488,tobi,petrpumpkineatr,,the KANKER home button is KANKER better,12-4-2022,
489,XiaoSimp,xiao_the_messiah,,I don't like it but it was the only phone I could afford lol,12-4-2022,
490,bioblast556,mylady556,,bro pls make video about biggest 3 iphone phones,12-4-2022,
491,Jonas,jooonnnaaassss,,0.1 Inches is pretty big 🥺,12-4-2022,
492,Lek Robert,leklek82529,,wow amazing $12k with the best trader @dxiknk_traderzx_10xeaner,12-4-2022,
493,Issoudotexe,mathias.bat,,"I liked the 3 button on old galaxy S because whatever you did it didn't take space on the screen, now on One Ui 4 you got 3 button gestures",11-4-2022,
494,Ibrahim Bakka,ibrahimbakka,,love your videos,11-4-2022,
495,ᖇᗩᖴᗩ,rafaromerouu,,Omggg do you answer?? And btw I prefer no button 🥰,11-4-2022,
496,presidentoftheplanet,presidentoftheplanett,,exactly😁,11-4-2022,
